{"page": 405, "total_pages": 522, "total": 26073, "skills": [{"category": "content-creation", "created_at": 1773432030275, "description": "Vimeo integration. Manage Videos. Use when the user wants to interact with Vimeo data.", "description_zh": "", "downloads": 88, "homepage": "https://clawhub.ai/membranedev/vimeo-integration", "iconUrl": null, "installs": 2, "name": "Vimeo", "ownerName": "membranedev", "score": 89795.91836734694, "slug": "vimeo-integration", "source": "clawhub", "stars": 0, "tags": null, "updated_at": 1776696044606, "version": "1.0.0"}, {"category": "ai-intelligence", "created_at": 1773950583806, "description": "Import and roleplay with SillyTavern-compatible character cards (TavernAI V2/V3 PNG format)", "description_zh": "", "downloads": 88, "homepage": "https://clawhub.ai/pearyj/sillytavern-cards-skill", "iconUrl": null, "installs": 18, "name": "sillytavern-cards", "ownerName": "pearyj", "score": 89795.91836734694, "slug": "sillytavern-cards-skill", "source": "clawhub", "stars": 0, "tags": ["ai-boyfriend", "ai-girlfriend", "character-cards", "companion", "roleplay", "sillytavern"], "updated_at": 1776696044602, "version": "0.1.0"}, {"category": "security-compliance", "created_at": 1773961337631, "description": "Organize, audit, and generate investor or acquirer due diligence data rooms for startups and SMBs. Maps required documents by category (financial, legal, HR,...", "description_zh": "", "downloads": 88, "homepage": "https://clawhub.ai/samledger67-dotcom/due-diligence-dataroom", "iconUrl": null, "installs": 19, "name": "Due Diligence Dataroom", "ownerName": "samledger67-dotcom", "score": 89795.91836734694, "slug": "due-diligence-dataroom", "source": "clawhub", "stars": 0, "tags": null, "updated_at": 1776696044591, "version": "98.0.1"}, {"category": "developer-tools", "created_at": 1773933655122, "description": "OpenClaw workspace backup & restore - simple tar-based guide", "description_zh": "", "downloads": 88, "homepage": "https://clawhub.ai/hanxueyuan/claw-migrate", "iconUrl": null, "installs": 8, "name": "Claw Migrate", "ownerName": "hanxueyuan", "score": 89795.91836734694, "slug": "claw-migrate", "source": "clawhub", "stars": 0, "tags": null, "updated_at": 1776696044589, "version": "3.0.0"}, {"category": "ai-intelligence", "created_at": 1773932980493, "description": "Ultra-fast translation for short texts under 500 characters. Optimized for sub-second latency on UI strings, notifications, error messages, and real-time cha...", "description_zh": "", "downloads": 88, "homepage": "https://clawhub.ai/cyberforexblockchain/nexus-quick-translate", "iconUrl": null, "installs": 6, "name": "NEXUS Quick Translator", "ownerName": "cyberforexblockchain", "score": 89795.91836734694, "slug": "nexus-quick-translate", "source": "clawhub", "stars": 0, "tags": ["ai", "cardano"], "updated_at": 1776696044584, "version": "1.0.2"}, {"category": "productivity", "created_at": 1773937280352, "description": "Build structured company intelligence for interview preparation.", "description_zh": "", "downloads": 88, "homepage": "https://clawhub.ai/wanghong5233/company-intel", "iconUrl": null, "installs": 7, "name": "Company Intel", "ownerName": "wanghong5233", "score": 89795.91836734694, "slug": "company-intel", "source": "clawhub", "stars": 0, "tags": null, "updated_at": 1776696044572, "version": "1.0.1"}, {"category": "developer-tools", "created_at": 1773432901939, "description": "Generate conventional commit messages from diffs", "description_zh": "", "downloads": 88, "homepage": "https://clawhub.ai/cyberforexblockchain/nexus-commit-message", "iconUrl": null, "installs": 2, "name": "NEXUS Commit Message", "ownerName": "cyberforexblockchain", "score": 90721.64948453609, "slug": "nexus-commit-message", "source": "clawhub", "stars": 0, "tags": null, "updated_at": 1776696044568, "version": "1.0.0"}, {"category": "productivity", "created_at": 1773947488605, "description": "Use Baidu Qianfan web search API for real-time web retrieval. Use when the user needs to search the web, get latest news, verify facts, or expresses intent l...", "description_zh": "", "downloads": 88, "homepage": "https://clawhub.ai/sunshine-del-ux/sunshine-baidu-web-search", "iconUrl": null, "installs": 15, "name": "Baidu Web Search", "ownerName": "sunshine-del-ux", "score": 90721.64948453609, "slug": "sunshine-baidu-web-search", "source": "clawhub", "stars": 0, "tags": null, "updated_at": 1776696044567, "version": "1.0.1"}, {"category": "", "created_at": 1774857642086, "description": "Academic & research search for AI agents. Use when: user asks about papers, studies, research, scientific literature, academic topics. Best for literature re...", "description_zh": "", "downloads": 88, "homepage": "https://clawhub.ai/mingzzz918/cloudsway-academic-search", "iconUrl": null, "installs": 19, "name": "Cloudsway Academic Search", "ownerName": "mingzzz918", "score": 90721.64948453609, "slug": "cloudsway-academic-search", "source": "clawhub", "stars": 0, "tags": null, "updated_at": 1776696044525, "version": "1.1.1"}, {"category": "communication-collaboration", "created_at": 1773931032868, "description": "Use when working in Feishu and the task is likely to take more than a few seconds, involves multiple tool calls, heavy search, document generation, coding, o...", "description_zh": "", "downloads": 88, "homepage": "https://clawhub.ai/wd041216-bit/feishu-task-status", "iconUrl": null, "installs": 4, "name": "Feishu Task Status", "ownerName": "wd041216-bit", "score": 90721.64948453609, "slug": "feishu-task-status", "source": "clawhub", "stars": 0, "tags": null, "updated_at": 1776696044514, "version": "1.0.1"}, {"category": "productivity", "created_at": 1773435256607, "description": "Buy at Nvidia | Manage compatible cards, wallets & payments. Financial management for Agents and OpenClaw bots.", "description_zh": "", "downloads": 88, "homepage": "https://clawhub.ai/triplehippo/nvidia", "iconUrl": null, "installs": 6, "name": "Shop from Nvidia - With your claw and creditcard", "ownerName": "triplehippo", "score": 90721.64948453609, "slug": "nvidia", "source": "clawhub", "stars": 0, "tags": ["card", "nvidia", "payments"], "updated_at": 1776696044510, "version": "1.0.0"}, {"category": "developer-tools", "created_at": 1773932306233, "description": "Package completed work for handoff to another agent or a human. Every item in the handoff must have a verified APort decision. The handoff document is verifi...", "description_zh": "", "downloads": 88, "homepage": "https://clawhub.ai/uchibeke/aport-handoff", "iconUrl": null, "installs": 10, "name": "Aport Handoff", "ownerName": "uchibeke", "score": 90721.64948453609, "slug": "aport-handoff", "source": "clawhub", "stars": 0, "tags": null, "updated_at": 1776696044476, "version": "0.1.0"}, {"category": "communication-collaboration", "created_at": 1773432182560, "description": "Flexmail integration. Manage Contacts, Campaigns, Templates. Use when the user wants to interact with Flexmail data.", "description_zh": "", "downloads": 88, "homepage": "https://clawhub.ai/membranedev/flexmail", "iconUrl": null, "installs": 4, "name": "Flexmail", "ownerName": "membranedev", "score": 89795.91836734694, "slug": "flexmail", "source": "clawhub", "stars": 0, "tags": null, "updated_at": 1776696044458, "version": "1.0.0"}, {"category": "communication-collaboration", "created_at": 1773932573161, "description": "Use in Feishu when long-running tasks should proactively report progress every 3 minutes. Pairs heartbeat-driven follow-ups with session status checks so act...", "description_zh": "", "downloads": 88, "homepage": "https://clawhub.ai/wd041216-bit/feishu-progress-heartbeat", "iconUrl": null, "installs": 5, "name": "Feishu Progress Heartbeat", "ownerName": "wd041216-bit", "score": 89795.91836734694, "slug": "feishu-progress-heartbeat", "source": "clawhub", "stars": 0, "tags": null, "updated_at": 1776696044456, "version": "1.1.0"}, {"category": "data-analysis", "created_at": 1773934161366, "description": "Crypto-native Web3 news and flash intelligence from MarsBit through hosted MCP. Use this for L1/L2 ecosystems, DeFi/CeFi, regulation, exchange flows, and mar...", "description_zh": "", "downloads": 88, "homepage": "https://clawhub.ai/domilin/marsbit-crypto-flashskill", "iconUrl": null, "installs": 7, "name": "marsbit-crypto-flash-skill", "ownerName": "domilin", "score": 89795.91836734694, "slug": "marsbit-crypto-flashskill", "source": "clawhub", "stars": 0, "tags": null, "updated_at": 1776696044422, "version": "1.0.9"}, {"category": "developer-tools", "created_at": 1773929889265, "description": "Build or improve Telegram inline-button file browsers and menu-style navigators. Use when creating Telegram chat UIs for browsing directories, paging lists,...", "description_zh": "", "downloads": 88, "homepage": "https://clawhub.ai/just-cj/telegram-file-browser", "iconUrl": null, "installs": 10, "name": "Telegram File Browser", "ownerName": "just-cj", "score": 89795.91836734694, "slug": "telegram-file-browser", "source": "clawhub", "stars": 0, "tags": null, "updated_at": 1776696044390, "version": "0.1.1"}, {"category": "communication-collaboration", "created_at": 1773433392486, "description": "Help users set up a shared Telegram channel so that different OpenClaw bots can chat together with friends. Use this skill whenever the user wants their Open...", "description_zh": "", "downloads": 88, "homepage": "https://clawhub.ai/moon-frost/openclaw-chat-with-friends", "iconUrl": null, "installs": 5, "name": "openclaw-chat-with-friends", "ownerName": "moon-frost", "score": 90721.64948453609, "slug": "openclaw-chat-with-friends", "source": "clawhub", "stars": 0, "tags": null, "updated_at": 1776696004796, "version": "1.0.0"}, {"category": "developer-tools", "created_at": 1773939569269, "description": "Trigger - command-line tool for everyday use Use when you need trigger.", "description_zh": "", "downloads": 88, "homepage": "https://clawhub.ai/ckchzh/trigger", "iconUrl": null, "installs": 8, "name": "Trigger", "ownerName": "ckchzh", "score": 90721.64948453609, "slug": "trigger", "source": "clawhub", "stars": 0, "tags": null, "updated_at": 1776696004788, "version": "2.0.0"}, {"category": "data-analysis", "created_at": 1773434443555, "description": "Official Fitbit OAuth integration for OpenClaw (Tier 1). Use to connect/authorize Fitbit, store+refresh tokens locally, fetch daily activity + sleep summarie...", "description_zh": "", "downloads": 88, "homepage": "https://clawhub.ai/gavinchengcool/openclaw-fitbit", "iconUrl": null, "installs": 7, "name": "Fitbit (Official API)", "ownerName": "gavinchengcool", "score": 90721.64948453609, "slug": "openclaw-fitbit", "source": "clawhub", "stars": 0, "tags": null, "updated_at": 1776696004784, "version": "0.1.0"}, {"category": "developer-tools", "created_at": 1773934802773, "description": "Test and debug CORS (Cross-Origin Resource Sharing) configurations on live URLs. Use when checking if a server returns correct CORS headers, debugging CORS e...", "description_zh": "", "downloads": 88, "homepage": "https://clawhub.ai/johnnywang2001/cors-tester", "iconUrl": null, "installs": 8, "name": "CORS Tester", "ownerName": "johnnywang2001", "score": 90721.64948453609, "slug": "cors-tester", "source": "clawhub", "stars": 0, "tags": ["api", "cors", "security", "web"], "updated_at": 1776696004690, "version": "1.0.0"}, {"category": "", "created_at": 1774914698034, "description": "Ultimate memory optimization for AI agents. Combines WAL protocol, Working Buffer, three-tier memory (HOT/WARM/COLD), context budgeting (10/40/20/20), and .l...", "description_zh": "", "downloads": 87, "homepage": "https://clawhub.ai/silaszhu/proactive-memory-agent", "iconUrl": null, "installs": 9, "name": "Proactive Memory Agent", "ownerName": "silaszhu", "score": 773.8148181090456, "slug": "proactive-memory-agent", "source": "clawhub", "stars": 0, "tags": ["budgeting", "chinese", "context", "memory", "openclaw", "optimization", "proactive", "tiering", "wal"], "updated_at": 1776769271301, "version": "1.0.1"}, {"category": "content-creation", "created_at": 1773952142187, "description": "Automatically research your niche's top desires, create a high-converting lead magnet with all copy and automation, and plan distribution to gain 500 subscri...", "description_zh": "", "downloads": 87, "homepage": "https://clawhub.ai/g4dr/ai-lead-magnet-machine", "iconUrl": null, "installs": 10, "name": "AI Lead Magnet Machine — Create an Irresistible Lead Magnet & Get 500 Subscribers in 7 Days", "ownerName": "g4dr", "score": 3374.7090768037237, "slug": "ai-lead-magnet-machine", "source": "clawhub", "stars": 0, "tags": ["apify", "content-upgrade", "conversion", "email-marketing", "freebie", "getresponse", "invideo", "landing-page", "lead-magnet", "list-building", "opt-in", "subscriber-growth"], "updated_at": 1776765550214, "version": "1.0.0"}, {"category": "", "created_at": 1774833357298, "description": "Draft, edit, and schedule creative stories with content optimization. Use when drafting chapters, editing narratives, optimizing readability, scheduling posts.", "description_zh": "", "downloads": 87, "homepage": "https://clawhub.ai/bytesagain1/story", "iconUrl": null, "installs": 3, "name": "Story", "ownerName": "bytesagain1", "score": 2523.933855526545, "slug": "story", "source": "clawhub", "stars": 0, "tags": null, "updated_at": 1776764950564, "version": "2.0.0"}, {"category": "developer-tools", "created_at": 1773946814000, "description": "Puzzle - command-line tool for everyday use", "description_zh": "", "downloads": 87, "homepage": "https://clawhub.ai/bytesagain/puzzle", "iconUrl": null, "installs": 5, "name": "Puzzle", "ownerName": "bytesagain", "score": 3176.341730558598, "slug": "puzzle", "source": "clawhub", "stars": 0, "tags": null, "updated_at": 1776764950415, "version": "1.0.2"}, {"category": "", "created_at": 1774826619634, "description": "AI video editor for creators. Transform raw footage into polished vlogs, talking-head videos, or social media content (TikTok/Shorts/Reels). Control the work...", "description_zh": "", "downloads": 87, "homepage": "https://clawhub.ai/sparki-io/sparki-video-editor", "iconUrl": null, "installs": 13, "name": "Sparki AI Video Editor", "ownerName": "sparki-io", "score": 6818.181818181818, "slug": "sparki-video-editor", "source": "clawhub", "stars": 0, "tags": null, "updated_at": 1776759831730, "version": "1.0.8"}, {"category": "", "created_at": 1774827273852, "description": "Search and compare wholesale prices on Alibaba.com by product, price range, sorting, and MOQ with tracked URLs including traffic_type=ags_llm.", "description_zh": "", "downloads": 87, "homepage": "https://clawhub.ai/zeyu426/alibaba-price-finder", "iconUrl": null, "installs": 15, "name": "Alibaba Price Finder", "ownerName": "zeyu426", "score": 6818.181818181818, "slug": "alibaba-price-finder", "source": "clawhub", "stars": 0, "tags": ["alibaba", "price", "wholesale"], "updated_at": 1776759831717, "version": "2.0.0"}, {"category": "productivity", "created_at": 1773954025225, "description": "Manage lightweight Microsoft 365 task workflows with Microsoft To Do and Planner. Use when a user needs to quickly create, assign, track, and follow up opera...", "description_zh": "", "downloads": 87, "homepage": "https://clawhub.ai/abdelkrim/m365-task-manager-by-altf1be", "iconUrl": null, "installs": 6, "name": "M365 (Microsoft) Task Manager by altf1be", "ownerName": "abdelkrim", "score": 98863.63636363637, "slug": "m365-task-manager-by-altf1be", "source": "clawhub", "stars": 0, "tags": null, "updated_at": 1776759831501, "version": "0.3.0"}, {"category": "", "created_at": 1774907198306, "description": "Captures learnings, errors, and corrections to enable continuous improvement. Use when: (1) A command or operation fails unexpectedly, (2) User corrects Clau...", "description_zh": "", "downloads": 87, "homepage": "https://clawhub.ai/asterisk622/xiaoding-self-improving-agent", "iconUrl": null, "installs": 26, "name": "Self Improvement Agent (XiaoDing)", "ownerName": "asterisk622", "score": 6016.5975103734445, "slug": "xiaoding-self-improving-agent", "source": "clawhub", "stars": 0, "tags": null, "updated_at": 1776758482912, "version": "3.0.7"}, {"category": "", "created_at": 1774912719322, "description": "Prevent connection pool exhaustion when querying Railway PostgreSQL database. Use when (1) Running database queries from local environment, (2) Diagnosing \"t...", "description_zh": "", "downloads": 87, "homepage": "https://clawhub.ai/urbantech/database-query-best-practices", "iconUrl": null, "installs": 7, "name": "Database Query Best Practices", "ownerName": "urbantech", "score": 88775.51020408163, "slug": "database-query-best-practices", "source": "clawhub", "stars": 0, "tags": null, "updated_at": 1776742571951, "version": "1.0.0"}, {"category": "communication-collaboration", "created_at": 1773954194290, "description": "Allows this local OpenClaw agent to engage and socialize on the global OpenClaw Community Social Network.", "description_zh": "", "downloads": 87, "homepage": "https://clawhub.ai/fjsand/openclawcommunity", "iconUrl": null, "installs": 15, "name": "龙虾星球(openClawCommunity)", "ownerName": "fjsand", "score": 92553.19148936169, "slug": "openclawcommunity", "source": "clawhub", "stars": 0, "tags": null, "updated_at": 1776741071942, "version": "1.2.0"}, {"category": "", "created_at": 1773286137954, "description": "AI Product Manager daily intelligence digest. Fetches news from 16+ curated RSS sources across tech media, AI labs, research papers, developer communities, a...", "description_zh": "", "downloads": 87, "homepage": "https://clawhub.ai/janettbella69/aipm-news-digest", "iconUrl": null, "installs": 10, "name": "AIPM News Digest", "ownerName": "janettbella69", "score": 90625, "slug": "aipm-news-digest", "source": "clawhub", "stars": 0, "tags": null, "updated_at": 1776734383856, "version": "1.0.1"}, {"category": "", "created_at": 1774822336102, "description": "curl reference tool", "description_zh": "", "downloads": 87, "homepage": "https://clawhub.ai/bytesagain3/curl", "iconUrl": null, "installs": 6, "name": "Curl", "ownerName": "bytesagain3", "score": 88775.51020408163, "slug": "curl", "source": "clawhub", "stars": 0, "tags": null, "updated_at": 1776731383870, "version": "2.0.2"}, {"category": "developer-tools", "created_at": 1773959479388, "description": "Runtime-enforced memory harness for OpenClaw. Implements 3-stage recall (session preflight, triggered recall, pre-execution gate) with intent classification,...", "description_zh": "", "downloads": 87, "homepage": "https://clawhub.ai/taka3693/memory-harness", "iconUrl": null, "installs": 20, "name": "Memory Harness", "ownerName": "taka3693", "score": 88775.51020408163, "slug": "memory-harness", "source": "clawhub", "stars": 0, "tags": ["harness", "memory", "recall"], "updated_at": 1776731269822, "version": "1.0.0"}, {"category": "developer-tools", "created_at": 1773945958335, "description": "Sort - command-line tool for everyday use", "description_zh": "", "downloads": 87, "homepage": "https://clawhub.ai/ckchzh/sort", "iconUrl": null, "installs": 6, "name": "Sort", "ownerName": "ckchzh", "score": 89690.72164948453, "slug": "sort", "source": "clawhub", "stars": 0, "tags": null, "updated_at": 1776699883784, "version": "1.0.2"}, {"category": "developer-tools", "created_at": 1773922794941, "description": "Gitea integration. Manage Repositories, Organizations, Users. Use when the user wants to interact with Gitea data.", "description_zh": "", "downloads": 87, "homepage": "https://clawhub.ai/gora050/gitea-integration", "iconUrl": null, "installs": 2, "name": "Gitea", "ownerName": "gora050", "score": 100000, "slug": "gitea-integration", "source": "clawhub", "stars": 0, "tags": null, "updated_at": 1776698384264, "version": "1.0.0"}, {"category": "communication-collaboration", "created_at": 1773930963724, "description": "Elastic Email integration. Manage Users, Contacts, Campaigns, Automations, Suppressions, Domains and more. Use when the user wants to interact with Elastic E...", "description_zh": "", "downloads": 87, "homepage": "https://clawhub.ai/membranedev/elastic-email", "iconUrl": null, "installs": 4, "name": "Elastic Email", "ownerName": "membranedev", "score": 89690.72164948453, "slug": "elastic-email", "source": "clawhub", "stars": 0, "tags": null, "updated_at": 1776696044723, "version": "1.0.0"}, {"category": "ai-intelligence", "created_at": 1773943046398, "description": "The ultimate bilingual (English/Chinese) memory management engine for Openclaw. Combines episodic daily logging, 30-minute short-term contextual snapshots, l...", "description_zh": "", "downloads": 87, "homepage": "https://clawhub.ai/chenyh1226/openclaw-never-forget", "iconUrl": null, "installs": 13, "name": "Openclaw Never Forget", "ownerName": "chenyh1226", "score": 89690.72164948453, "slug": "openclaw-never-forget", "source": "clawhub", "stars": 0, "tags": null, "updated_at": 1776696044704, "version": "0.1.0"}, {"category": "developer-tools", "created_at": 1773942717730, "description": "Algebra - command-line tool for everyday use", "description_zh": "", "downloads": 87, "homepage": "https://clawhub.ai/bytesagain/algebra", "iconUrl": null, "installs": 3, "name": "Algebra", "ownerName": "bytesagain", "score": 89690.72164948453, "slug": "algebra", "source": "clawhub", "stars": 0, "tags": null, "updated_at": 1776696044698, "version": "1.0.2"}, {"category": "security-compliance", "created_at": 1773923117690, "description": "MO§ES™ Posture Controls — Enforces transaction and execution policies across all agents. SCOUT=read-only, DEFENSE=protect+confirm, OFFENSE=execute within mod...", "description_zh": "", "downloads": 87, "homepage": "https://clawhub.ai/sunrisesillneversee/moses-postures", "iconUrl": null, "installs": 4, "name": "Moses Postures", "ownerName": "sunrisesillneversee", "score": 89690.72164948453, "slug": "moses-postures", "source": "clawhub", "stars": 0, "tags": null, "updated_at": 1776696044687, "version": "1.0.1"}, {"category": "", "created_at": 1774898051992, "description": "Documentation-only master skill for GLM ecosystem discovery and installation. This skill does not execute scripts or subprocess commands. It provides a curat...", "description_zh": "", "downloads": 87, "homepage": "https://clawhub.ai/jaredforreal/glm-master-skill", "iconUrl": null, "installs": 18, "name": "GLM-Master-Skill", "ownerName": "jaredforreal", "score": 89690.72164948453, "slug": "glm-master-skill", "source": "clawhub", "stars": 0, "tags": null, "updated_at": 1776696044667, "version": "1.0.3"}, {"category": "data-analysis", "created_at": 1773929530294, "description": "Analyze OpenClaw AI assistant usage patterns and generate interactive insight reports. Trigger when users ask about: OpenClaw usage stats, session analytics,...", "description_zh": "", "downloads": 87, "homepage": "https://clawhub.ai/linsheng9731/openclaw-insight", "iconUrl": null, "installs": 6, "name": "openclaw-insight", "ownerName": "linsheng9731", "score": 89690.72164948453, "slug": "openclaw-insight", "source": "clawhub", "stars": 0, "tags": null, "updated_at": 1776696044662, "version": "1.0.0"}, {"category": "communication-collaboration", "created_at": 1773930013067, "description": "WATI (WhatsApp Team Inbox) API integration with managed authentication. Send WhatsApp messages, manage contacts, and handle templates. Use this skill when us...", "description_zh": "", "downloads": 87, "homepage": "https://clawhub.ai/byungkyu/wati", "iconUrl": null, "installs": 4, "name": "Wati", "ownerName": "byungkyu", "score": 88775.51020408163, "slug": "wati", "source": "clawhub", "stars": 0, "tags": null, "updated_at": 1776696044642, "version": "1.0.0"}, {"category": "data-analysis", "created_at": 1773930862791, "description": "SEO data from the terminal using DataForSEO APIs. Use when the user asks to check keyword rankings, analyze SERPs, run site audits, check backlink profiles,...", "description_zh": "", "downloads": 87, "homepage": "https://clawhub.ai/ricca91/dfseo", "iconUrl": null, "installs": 9, "name": "dfseo-cli", "ownerName": "ricca91", "score": 88775.51020408163, "slug": "dfseo", "source": "clawhub", "stars": 0, "tags": null, "updated_at": 1776696044625, "version": "1.0.0"}, {"category": "productivity", "created_at": 1773432892069, "description": "Mews integration. Manage Customers, Spaces, Products, Rates, Reservations, Payments and more. Use when the user wants to interact with Mews data.", "description_zh": "", "downloads": 87, "homepage": "https://clawhub.ai/gora050/mews", "iconUrl": null, "installs": 4, "name": "Mews", "ownerName": "gora050", "score": 88775.51020408163, "slug": "mews", "source": "clawhub", "stars": 0, "tags": null, "updated_at": 1776696044620, "version": "1.0.0"}, {"category": "ai-intelligence", "created_at": 1773433044092, "description": "DeFi lending on Hyperliquid. Deposit to earn yield, borrow against collateral. Supports Pooled (Aave v3), Prime/Yield (Euler), and Vault markets. Use when an...", "description_zh": "", "downloads": 87, "homepage": "https://clawhub.ai/lastandy/hypurrfi", "iconUrl": null, "installs": 4, "name": "HypurrFi", "ownerName": "lastandy", "score": 88775.51020408163, "slug": "hypurrfi", "source": "clawhub", "stars": 0, "tags": null, "updated_at": 1776696044615, "version": "1.0.0"}, {"category": "productivity", "created_at": 1773941640926, "description": "Comprehensive wine cellar management skill for tracking inventory, providing meal-based recommendations, acting as a virtual sommelier, tracking consumption/...", "description_zh": "", "downloads": 87, "homepage": "https://clawhub.ai/fuzzysb/wine-cellar", "iconUrl": null, "installs": 4, "name": "Wine Cellar", "ownerName": "fuzzysb", "score": 88775.51020408163, "slug": "wine-cellar", "source": "clawhub", "stars": 0, "tags": null, "updated_at": 1776696044582, "version": "1.0.0"}, {"category": "content-creation", "created_at": 1773434820788, "description": "Check and improve creator briefs before sending to influencers. Use when your brief is unclear, too long, or likely to cause revision loops.", "description_zh": "", "downloads": 87, "homepage": "https://clawhub.ai/leooooooow/creator-brief-checker", "iconUrl": null, "installs": 12, "name": "Creator Brief Checker", "ownerName": "leooooooow", "score": 88775.51020408163, "slug": "creator-brief-checker", "source": "clawhub", "stars": 0, "tags": null, "updated_at": 1776696044579, "version": "1.0.0"}, {"category": "developer-tools", "created_at": 1773931114058, "description": "Formspree integration. Manage Forms. Use when the user wants to interact with Formspree data.", "description_zh": "", "downloads": 87, "homepage": "https://clawhub.ai/gora050/formspree", "iconUrl": null, "installs": 4, "name": "Formspree", "ownerName": "gora050", "score": 88775.51020408163, "slug": "formspree", "source": "clawhub", "stars": 0, "tags": null, "updated_at": 1776696044573, "version": "1.0.0"}, {"category": "productivity", "created_at": 1773934415916, "description": "Create a Google Drive folder structure and move files into the right locations.", "description_zh": "", "downloads": 87, "homepage": "https://clawhub.ai/googleworkspace-bot/recipe-organize-drive-folder", "iconUrl": null, "installs": 7, "name": "Recipe Organize Drive Folder", "ownerName": "googleworkspace-bot", "score": 89690.72164948453, "slug": "recipe-organize-drive-folder", "source": "clawhub", "stars": 0, "tags": null, "updated_at": 1776696044549, "version": "1.0.10"}, {"category": "communication-collaboration", "created_at": 1773434513867, "description": "Publish and interact on Sherry's Forum (sherry.hweyukd.top) via API. Use for posting articles, comments, browsing, notifications, and bot identity management.", "description_zh": "", "downloads": 87, "homepage": "https://clawhub.ai/ieras/sherry-bbs", "iconUrl": null, "installs": 4, "name": "sherry-bbs", "ownerName": "ieras", "score": 89690.72164948453, "slug": "sherry-bbs", "source": "clawhub", "stars": 0, "tags": null, "updated_at": 1776696044492, "version": "2.0.0"}]}