{"page": 406, "total_pages": 522, "total": 26073, "skills": [{"category": "developer-tools", "created_at": 1773941228594, "description": "Operate and improve the La Local location-management chat product. Use when reviewing or changing the frontend chat app, backend webhook, search behavior, me...", "description_zh": "", "downloads": 87, "homepage": "https://clawhub.ai/gatonegroialab/la-local-chat", "iconUrl": null, "installs": 10, "name": "La Local Chat", "ownerName": "gatonegroialab", "score": 89690.72164948453, "slug": "la-local-chat", "source": "clawhub", "stars": 0, "tags": null, "updated_at": 1776696044474, "version": "1.0.0"}, {"category": "security-compliance", "created_at": 1773433912533, "description": "Token and address risk assessment. Use this skill whenever the user asks about token, contract, or address safety. Trigger phrases include: is this token saf...", "description_zh": "", "downloads": 87, "homepage": "https://clawhub.ai/gate-exchange/gate-info-risk-check", "iconUrl": null, "installs": 2, "name": "Gate Info Risk Check", "ownerName": "gate-exchange", "score": 89690.72164948453, "slug": "gate-info-risk-check", "source": "clawhub", "stars": 0, "tags": null, "updated_at": 1776696044466, "version": "1.0.0"}, {"category": "communication-collaboration", "created_at": 1773926108793, "description": "Files.com integration. Manage Files, Folders, Users, Groups, Permissions, Shares and more. Use when the user wants to interact with Files.com data.", "description_zh": "", "downloads": 87, "homepage": "https://clawhub.ai/gora050/filescom", "iconUrl": null, "installs": 3, "name": "Filescom", "ownerName": "gora050", "score": 88775.51020408163, "slug": "filescom", "source": "clawhub", "stars": 0, "tags": null, "updated_at": 1776696044460, "version": "1.0.0"}, {"category": "data-analysis", "created_at": 1773934963157, "description": "Gate Flash Swap query Skill for querying supported currency pairs, validating swap limits, viewing order history, and tracking specific orders. Use this skil...", "description_zh": "", "downloads": 87, "homepage": "https://clawhub.ai/gate-exchange/gate-exchange-flashswap", "iconUrl": null, "installs": 8, "name": "Gate Exchange FlashSwap", "ownerName": "gate-exchange", "score": 88775.51020408163, "slug": "gate-exchange-flashswap", "source": "clawhub", "stars": 0, "tags": null, "updated_at": 1776696044452, "version": "1.0.0"}, {"category": "ai-intelligence", "created_at": 1773937068440, "description": "A comprehensive prompt engineering skill for AI developers building LLM-powered applications. Covers system prompt design, few-shot prompting, chain-of-thoug...", "description_zh": "", "downloads": 87, "homepage": "https://clawhub.ai/royhk920/ai-prompt-engineer", "iconUrl": null, "installs": 8, "name": "prompt engineer", "ownerName": "royhk920", "score": 88775.51020408163, "slug": "ai-prompt-engineer", "source": "clawhub", "stars": 0, "tags": null, "updated_at": 1776696044448, "version": "1.0.3"}, {"category": "developer-tools", "created_at": 1773924821065, "description": "Paste any error message, stack trace, or exception and get a plain-English explanation with root cause analysis and fix suggestions.", "description_zh": "", "downloads": 87, "homepage": "https://clawhub.ai/cyberforexblockchain/nexus-error-explain", "iconUrl": null, "installs": 4, "name": "NEXUS Error Explain", "ownerName": "cyberforexblockchain", "score": 88775.51020408163, "slug": "nexus-error-explain", "source": "clawhub", "stars": 0, "tags": ["ai", "cardano"], "updated_at": 1776696044424, "version": "1.0.1"}, {"category": "communication-collaboration", "created_at": 1773932227043, "description": "Post quests, accept tasks, and earn JPYC on AGORA — the AI-agent-only guild marketplace. No humans allowed. Find other agents, transact autonomously, build r...", "description_zh": "", "downloads": 87, "homepage": "https://clawhub.ai/merusaru/agora-marketplace", "iconUrl": null, "installs": 4, "name": "Agora Marketplace", "ownerName": "merusaru", "score": 88775.51020408163, "slug": "agora-marketplace", "source": "clawhub", "stars": 0, "tags": null, "updated_at": 1776696044416, "version": "0.1.0"}, {"category": "productivity", "created_at": 1773931330503, "description": "Manage a single-patient medication and health-tracking workflow with MedPilot. Use when the user wants to ingest doctor orders, confirm active medications, r...", "description_zh": "", "downloads": 87, "homepage": "https://clawhub.ai/harrylabsj/medpilot", "iconUrl": null, "installs": 7, "name": "MedPilot", "ownerName": "harrylabsj", "score": 88775.51020408163, "slug": "medpilot", "source": "clawhub", "stars": 0, "tags": null, "updated_at": 1776696044411, "version": "1.0.0"}, {"category": "productivity", "created_at": 1773431449434, "description": "ActiveCampaign integration. Manage Users, Organizations, Leads, Projects, Goals, Filters. Use when the user wants to interact with ActiveCampaign data.", "description_zh": "", "downloads": 87, "homepage": "https://clawhub.ai/membranedev/activecampaign-integration", "iconUrl": null, "installs": 1, "name": "Activecampaign", "ownerName": "membranedev", "score": 88775.51020408163, "slug": "activecampaign-integration", "source": "clawhub", "stars": 0, "tags": null, "updated_at": 1776696044394, "version": "1.0.0"}, {"category": "ai-intelligence", "created_at": 1773961229542, "description": "AI text-to-image generation using Zhipu AI's GLM-Image model. Use when the user requests image generation, creating images from text descriptions, or mention...", "description_zh": "", "downloads": 87, "homepage": "https://clawhub.ai/codeteenager/zhipu-image-gen", "iconUrl": null, "installs": 14, "name": "Zhipu Image Generator", "ownerName": "codeteenager", "score": 88775.51020408163, "slug": "zhipu-image-gen", "source": "clawhub", "stars": 0, "tags": ["ai", "image", "text-to-image", "zhipu"], "updated_at": 1776696044384, "version": "1.0.1"}, {"category": "data-analysis", "created_at": 1773930046072, "description": "Fetch, analyze, and visualize WHOOP wearable health data via the WHOOP Developer API v2. Use when the user wants to connect their WHOOP band, retrieve recove...", "description_zh": "", "downloads": 87, "homepage": "https://clawhub.ai/jarviyin/whoop-health", "iconUrl": null, "installs": 8, "name": "WHOOP Health", "ownerName": "jarviyin", "score": 88775.51020408163, "slug": "whoop-health", "source": "clawhub", "stars": 0, "tags": null, "updated_at": 1776696044374, "version": "1.0.0"}, {"category": "security-compliance", "created_at": 1773925125239, "description": "Scan ClawHub skills for security vulnerabilities BEFORE installing. Use when installing new skills from ClawHub to detect prompt injections, malware payloads...", "description_zh": "", "downloads": 87, "homepage": "https://clawhub.ai/kenswj/skill-guard-1-0-2", "iconUrl": null, "installs": 3, "name": "Skill Guard 1.0.2", "ownerName": "kenswj", "score": 89690.72164948453, "slug": "skill-guard-1-0-2", "source": "clawhub", "stars": 0, "tags": null, "updated_at": 1776696044366, "version": "1.0.0"}, {"category": "developer-tools", "created_at": 1773949145103, "description": "Analyzes Claw AI workflows to estimate token usage, cost, detect runaway loops, and suggest optimizations to prevent unexpected API expenses.", "description_zh": "", "downloads": 86, "homepage": "https://clawhub.ai/showmethemoney2023/claw-token-cost-analyzer", "iconUrl": null, "installs": 7, "name": "claw-token-cost-analyzer", "ownerName": "showmethemoney2023", "score": 8261.886204208884, "slug": "claw-token-cost-analyzer", "source": "clawhub", "stars": 1, "tags": ["agents", "ai cost", "claw", "optimization", "token"], "updated_at": 1776759797829, "version": "1.0.2"}, {"category": "productivity", "created_at": 1773932039476, "description": "Automate your job search and application process with Mokaru. Search thousands of jobs, tailor your resume to each role, track applications through your pipe...", "description_zh": "", "downloads": 86, "homepage": "https://clawhub.ai/vndck/auto-apply", "iconUrl": null, "installs": 4, "name": "Automate your Job Search", "ownerName": "vndck", "score": 94642.85714285714, "slug": "auto-apply", "source": "clawhub", "stars": 1, "tags": null, "updated_at": 1776695570738, "version": "1.0.6"}, {"category": "", "created_at": 1774899255241, "description": "Hands-on AI engineering course with 230+ lessons covering math, ML, DL, NLP, vision, transformers, LLMs, agents, and swarms in Python, TypeScript, Rust, and...", "description_zh": "", "downloads": 86, "homepage": "https://clawhub.ai/adisinghstudent/ai-engineering-from-scratch", "iconUrl": null, "installs": 16, "name": "ai-engineering-from-scratch", "ownerName": "adisinghstudent", "score": 367.25455865396935, "slug": "ai-engineering-from-scratch", "source": "clawhub", "stars": 0, "tags": null, "updated_at": 1776770358631, "version": "1.0.0"}, {"category": "productivity", "created_at": 1773433482005, "description": "Distill decision contexts, options, trade-offs, and outcomes into structured decision records. Use when the user is facing a choice, has made a decision they...", "description_zh": "", "downloads": 86, "homepage": "https://clawhub.ai/harrylabsj/decision-distiller", "iconUrl": null, "installs": 4, "name": "Decision Distiller", "ownerName": "harrylabsj", "score": 2617.9604261796044, "slug": "decision-distiller", "source": "clawhub", "stars": 0, "tags": null, "updated_at": 1776767171211, "version": "1.0.0"}, {"category": "", "created_at": 1774870385851, "description": "Comprehensive tutorial for building reusable AI Skills with instructions, scripts, security best practices, and examples on ClawHub and OpenClaw platforms.", "description_zh": "", "downloads": 86, "homepage": "https://clawhub.ai/cccpan/skill-dev-guide", "iconUrl": null, "installs": 10, "name": "Skill Development Guide / Skill 开发指南，tutorial, guide, skill, development, openclaw, qclaw, ai, mcp, how-to, 教程, 开发指南, skill-builder, clawhub", "ownerName": "cccpan", "score": 6739.811912225706, "slug": "skill-dev-guide", "source": "clawhub", "stars": 0, "tags": null, "updated_at": 1776759831725, "version": "1.0.0"}, {"category": "", "created_at": 1774854387926, "description": "A comprehensive AI agent skill for building and operating affiliate marketing systems that actually convert. Finds high-commission programs aligned with your...", "description_zh": "", "downloads": 86, "homepage": "https://clawhub.ai/agenticio/affiliate", "iconUrl": null, "installs": 1, "name": "Affiliate", "ownerName": "agenticio", "score": 6734.5340642129995, "slug": "affiliate", "source": "clawhub", "stars": 0, "tags": ["affiliate", "conversion", "marketing", "monetization", "revenue"], "updated_at": 1776759831700, "version": "1.0.0"}, {"category": "", "created_at": 1774852551311, "description": "Analyze China's export volumes, product categories, and trade destinations using official customs data to reveal trends and summaries.", "description_zh": "", "downloads": 86, "homepage": "https://clawhub.ai/1970168137/made-in-china", "iconUrl": null, "installs": 14, "name": "Made In China", "ownerName": "1970168137", "score": 6739.811912225706, "slug": "made-in-china", "source": "clawhub", "stars": 0, "tags": null, "updated_at": 1776759831682, "version": "1.0.0"}, {"category": "content-creation", "created_at": 1773951541974, "description": "Automatically builds a complete, data-driven sales funnel with copy, email automation, revenue modeling, and explainer videos for your product in 30 minutes.", "description_zh": "", "downloads": 86, "homepage": "https://clawhub.ai/g4dr/ai-sales-funnel-factory", "iconUrl": null, "installs": 8, "name": "AI Sales Funnel Factory — Build a Complete $10K/Month Sales Funnel in 30 Minutes", "ownerName": "g4dr", "score": 97727.27272727274, "slug": "ai-sales-funnel-factory", "source": "clawhub", "stars": 0, "tags": ["apify", "conversion", "copywriting", "email-automation", "funnel-building", "getresponse", "invideo", "landing-page", "marketing-automation", "passive-income", "sales-funnel", "upsell"], "updated_at": 1776759831562, "version": "1.0.0"}, {"category": "content-creation", "created_at": 1773952528876, "description": "Pluggable AI report engine generating multi-preset, multi-source briefings with smart scoring, deduplication, LLM editing, quality control, rendering, and em...", "description_zh": "", "downloads": 86, "homepage": "https://clawhub.ai/llx9826/lunaclaw-brief", "iconUrl": null, "installs": 6, "name": "Ai Cv Weekly", "ownerName": "llx9826", "score": 97727.27272727274, "slug": "lunaclaw-brief", "source": "clawhub", "stars": 0, "tags": ["ai", "finance", "llm", "report", "weekly"], "updated_at": 1776759831537, "version": "4.0.0"}, {"category": "", "created_at": 1774950481454, "description": "Transform static images into fluid, animated video sequences with ClawHub's image-to-video-ai skill. Upload a photo and describe the motion you want — camera...", "description_zh": "", "downloads": 86, "homepage": "https://clawhub.ai/udnerc/image-to-video-ai", "iconUrl": null, "installs": 5, "name": "Image To Video Ai", "ownerName": "udnerc", "score": 5082.74231678487, "slug": "image-to-video-ai", "source": "clawhub", "stars": 0, "tags": null, "updated_at": 1776756188607, "version": "1.0.0"}, {"category": "", "created_at": 1774954428762, "description": "Audit medical device technical files against EU MDR 2017/745 regulations.", "description_zh": "", "downloads": 86, "homepage": "https://clawhub.ai/aipoch-ai/medical-device-mdr-auditor", "iconUrl": null, "installs": 9, "name": "Medical Device MDR Auditor", "ownerName": "aipoch-ai", "score": 14675.767918088737, "slug": "medical-device-mdr-auditor", "source": "clawhub", "stars": 0, "tags": null, "updated_at": 1776748070213, "version": "1.0.0"}, {"category": "developer-tools", "created_at": 1773940566011, "description": "Upgrade Solidity smart contracts using OpenZeppelin proxy patterns. Use when users need to: (1) make contracts upgradeable with UUPS, Transparent, or Beacon...", "description_zh": "", "downloads": 86, "homepage": "https://clawhub.ai/samledger67-dotcom/upgrade-solidity-contracts", "iconUrl": null, "installs": 10, "name": "upgrade solidity contracts", "ownerName": "samledger67-dotcom", "score": 95555.55555555556, "slug": "upgrade-solidity-contracts", "source": "clawhub", "stars": 0, "tags": null, "updated_at": 1776737446978, "version": "1.0.0"}, {"category": "productivity", "created_at": 1773434769761, "description": "Record experimental procedures and observations via voice commands during lab work. Real-time transcription for structured experiment documentation.", "description_zh": "", "downloads": 86, "homepage": "https://clawhub.ai/lyla0921/voice-to-protocol-transcriber", "iconUrl": null, "installs": 3, "name": "Voice To Protocol Transcriber", "ownerName": "lyla0921", "score": 100000, "slug": "voice-to-protocol-transcriber", "source": "clawhub", "stars": 0, "tags": null, "updated_at": 1776696170247, "version": "0.1.0"}, {"category": "developer-tools", "created_at": 1773938536346, "description": "Automate update tracking for OpenClaw and any other GitHub-released tools. Scout monitors your watchlist weekly, reviews release notes with a security lens,...", "description_zh": "", "downloads": 86, "homepage": "https://clawhub.ai/ziggy2socks/update-scout", "iconUrl": null, "installs": 13, "name": "Update Scout", "ownerName": "ziggy2socks", "score": 88659.79381443298, "slug": "update-scout", "source": "clawhub", "stars": 0, "tags": ["automation", "github", "maintenance", "security", "self-improvement", "updates"], "updated_at": 1776696170071, "version": "1.1.2"}, {"category": "security-compliance", "created_at": 1773930701666, "description": "Run ClawdGo, a phishing and social-engineering cyber range for Claw-style agents. Use this skill when the user explicitly asks to start ClawdGo, continue a C...", "description_zh": "", "downloads": 86, "homepage": "https://clawhub.ai/nrt2024/clawdgo", "iconUrl": null, "installs": 5, "name": "ClawdGo", "ownerName": "nrt2024", "score": 88659.79381443298, "slug": "clawdgo", "source": "clawhub", "stars": 0, "tags": ["chatchess", "cybersecurity", "game"], "updated_at": 1776696170064, "version": "1.0.0"}, {"category": "data-analysis", "created_at": 1773433199098, "description": "Event attribution and explanation. Use this skill whenever the user asks for the reason behind a price move. Trigger phrases include: why did X crash, what j...", "description_zh": "", "downloads": 86, "homepage": "https://clawhub.ai/gate-exchange/gate-news-event-explain", "iconUrl": null, "installs": 8, "name": "Gate News Event Explain", "ownerName": "gate-exchange", "score": 88659.79381443298, "slug": "gate-news-event-explain", "source": "clawhub", "stars": 0, "tags": null, "updated_at": 1776696170019, "version": "1.0.0"}, {"category": "", "created_at": 1774885096203, "description": "Access Wikipedia via MCP — search articles, get summaries, random facts, and dinosaur-specific facts. Great for research, hooks, and general knowledge lookups.", "description_zh": "", "downloads": 86, "homepage": "https://clawhub.ai/evanfoglia/wikipedia", "iconUrl": null, "installs": 9, "name": "Wikipedia MCP", "ownerName": "evanfoglia", "score": 89583.33333333334, "slug": "wikipedia", "source": "clawhub", "stars": 0, "tags": ["mcp", "research", "wikipedia"], "updated_at": 1776696169956, "version": "1.0.0"}, {"category": "developer-tools", "created_at": 1773941472532, "description": "Complete database schema reference for Teamgram Server with all 43 tables, ER relationships, and key table structure explanations for the MySQL teamgram data...", "description_zh": "", "downloads": 86, "homepage": "https://clawhub.ai/zhihang9978/teamgram-database-schema", "iconUrl": null, "installs": 7, "name": "Teamgram Database Schema", "ownerName": "zhihang9978", "score": 89583.33333333334, "slug": "teamgram-database-schema", "source": "clawhub", "stars": 0, "tags": null, "updated_at": 1776696169947, "version": "1.0.0"}, {"category": "security-compliance", "created_at": 1773435016680, "description": "Sort chemicals by compatibility for safe laboratory storage. Prevents dangerous reactions by segregating incompatible chemicals (acids, bases, oxidizers, fla...", "description_zh": "", "downloads": 86, "homepage": "https://clawhub.ai/aipoch-ai/chemical-storage-sorter", "iconUrl": null, "installs": 5, "name": "Chemical Storage Sorter", "ownerName": "aipoch-ai", "score": 89583.33333333334, "slug": "chemical-storage-sorter", "source": "clawhub", "stars": 0, "tags": null, "updated_at": 1776696169890, "version": "0.1.0"}, {"category": "content-creation", "created_at": 1773942127343, "description": "Create a brand jingle (5–15 seconds) from a brand name and tone keywords. Use when users want a brand sound logo, audio identity, jingle, intro music, or sho...", "description_zh": "", "downloads": 86, "homepage": "https://clawhub.ai/scikkk/jingle-forge", "iconUrl": null, "installs": 15, "name": "Jingle Forge", "ownerName": "scikkk", "score": 89583.33333333334, "slug": "jingle-forge", "source": "clawhub", "stars": 0, "tags": null, "updated_at": 1776696169889, "version": "1.0.0"}, {"category": "", "created_at": 1774831574533, "description": "Reference tool for devtools — covers intro, quickstart, patterns and more. Quick lookup for HTTP Client concepts, best practices, and implementation patterns.", "description_zh": "", "downloads": 86, "homepage": "https://clawhub.ai/bytesagain1/http-client", "iconUrl": null, "installs": 1, "name": "Http Client", "ownerName": "bytesagain1", "score": 89583.33333333334, "slug": "http-client", "source": "clawhub", "stars": 0, "tags": null, "updated_at": 1776696169885, "version": "2.0.3"}, {"category": "data-analysis", "created_at": 1773938100200, "description": "Tracks competitors weekly across 6 signals: pricing page diffs, homepage positioning changes, blog/RSS posts, job postings (hiring as strategy signal), GitHu...", "description_zh": "", "downloads": 86, "homepage": "https://clawhub.ai/manjotpahwa/competitive-radar", "iconUrl": null, "installs": 11, "name": "Competitor Radar", "ownerName": "manjotpahwa", "score": 89583.33333333334, "slug": "competitive-radar", "source": "clawhub", "stars": 0, "tags": null, "updated_at": 1776696169768, "version": "1.1.0"}, {"category": "", "created_at": 1774942709654, "description": "Use when the user asks for up-to-date web information, recent news, current events, policy changes, market signals, or other real-time information that requi...", "description_zh": "", "downloads": 86, "homepage": "https://clawhub.ai/gavin-guq/anspire-web-search", "iconUrl": null, "installs": 14, "name": "Anspire Web Search", "ownerName": "gavin-guq", "score": 89583.33333333334, "slug": "anspire-web-search", "source": "clawhub", "stars": 0, "tags": null, "updated_at": 1776696169761, "version": "1.0.3"}, {"category": "security-compliance", "created_at": 1773924115501, "description": "Implement Audit Trail Logs using OrbCafe UI (CStandardPage). Enterprise-grade React component with built-in best practices.", "description_zh": "", "downloads": 86, "homepage": "https://clawhub.ai/shenruiyang/audit-trail-logs", "iconUrl": null, "installs": 1, "name": "Audit Trail Logs", "ownerName": "shenruiyang", "score": 89583.33333333334, "slug": "audit-trail-logs", "source": "clawhub", "stars": 0, "tags": null, "updated_at": 1776696169758, "version": "1.0.0"}, {"category": "communication-collaboration", "created_at": 1773919084873, "description": "Connect this agent to ArkiTek for secure remote chat via SSE. No tunnels, no open ports.", "description_zh": "", "downloads": 86, "homepage": "https://clawhub.ai/raleighgardner16-source/arkitek-relay", "iconUrl": null, "installs": 3, "name": "ArkiTek Relay", "ownerName": "raleighgardner16-source", "score": 89583.33333333334, "slug": "arkitek-relay", "source": "clawhub", "stars": 0, "tags": null, "updated_at": 1776696169748, "version": "1.0.5"}, {"category": "developer-tools", "created_at": 1773435010736, "description": "Interact with Alkahest escrow contracts as a buyer, seller, or oracle using the CLI", "description_zh": "", "downloads": 86, "homepage": "https://clawhub.ai/mlegls/alkahest-user", "iconUrl": null, "installs": 8, "name": "Alkahest User", "ownerName": "mlegls", "score": 89583.33333333334, "slug": "alkahest-user", "source": "clawhub", "stars": 0, "tags": ["arkhai", "blockchain", "escrow"], "updated_at": 1776696169735, "version": "1.0.0"}, {"category": "developer-tools", "created_at": 1773434288849, "description": "Help developers write code that interacts with Alkahest escrow contracts using the TypeScript, Rust, or Python SDK", "description_zh": "", "downloads": 86, "homepage": "https://clawhub.ai/mlegls/alkahest-developer", "iconUrl": null, "installs": 10, "name": "Alkahest Developer", "ownerName": "mlegls", "score": 89583.33333333334, "slug": "alkahest-developer", "source": "clawhub", "stars": 0, "tags": ["arkhai", "blockchain", "escrow"], "updated_at": 1776696169711, "version": "1.0.0"}, {"category": "data-analysis", "created_at": 1773943847130, "description": "Trades Polymarket prediction markets on social trend indicators: loneliness indices, mental health policy, drug legalization, and cultural inflection points....", "description_zh": "", "downloads": 86, "homepage": "https://clawhub.ai/diagnostikon/polymarket-social-trends-trader", "iconUrl": null, "installs": 14, "name": "Social Trends & Wellbeing Trader", "ownerName": "diagnostikon", "score": 88659.79381443298, "slug": "polymarket-social-trends-trader", "source": "clawhub", "stars": 0, "tags": null, "updated_at": 1776696169680, "version": "1.0.1"}, {"category": "communication-collaboration", "created_at": 1773937386292, "description": "HappyFox Chat integration. Manage Chats, Agents, Visitors, Departments, Reports, Integrations. Use when the user wants to interact with HappyFox Chat data.", "description_zh": "", "downloads": 86, "homepage": "https://clawhub.ai/gora050/happyfox-chat", "iconUrl": null, "installs": 11, "name": "Happyfox Chat", "ownerName": "gora050", "score": 88659.79381443298, "slug": "happyfox-chat", "source": "clawhub", "stars": 0, "tags": null, "updated_at": 1776696169569, "version": "1.0.0"}, {"category": "ai-intelligence", "created_at": 1773936732182, "description": "Grok Imagine video generation on PoYo / poyo.ai via `https://api.poyo.ai/api/generate/submit`; use for `grok-imagine`, text-to-video, image-to-video, 6s/10s...", "description_zh": "", "downloads": 86, "homepage": "https://clawhub.ai/coolhackboy/poyo-grok-imageine", "iconUrl": null, "installs": 11, "name": "PoYo Grok Imagine API", "ownerName": "coolhackboy", "score": 86868.68686868687, "slug": "poyo-grok-imageine", "source": "clawhub", "stars": 0, "tags": null, "updated_at": 1776696055510, "version": "1.0.0"}, {"category": "ai-intelligence", "created_at": 1773930556943, "description": "Botmaker integration. Manage Organizations. Use when the user wants to interact with Botmaker data.", "description_zh": "", "downloads": 86, "homepage": "https://clawhub.ai/membranedev/botmaker", "iconUrl": null, "installs": 3, "name": "Botmaker", "ownerName": "membranedev", "score": 86868.68686868687, "slug": "botmaker", "source": "clawhub", "stars": 0, "tags": null, "updated_at": 1776696055508, "version": "1.0.0"}, {"category": "ai-intelligence", "created_at": 1773943928987, "description": "AI-powered crypto trading agent and LLM gateway via natural language. Use when the user wants to trade crypto, check portfolio balances, view token prices, t...", "description_zh": "", "downloads": 86, "homepage": "https://clawhub.ai/riskiagung-prog/riskagent", "iconUrl": null, "installs": 12, "name": "risk art agent", "ownerName": "riskiagung-prog", "score": 86868.68686868687, "slug": "riskagent", "source": "clawhub", "stars": 0, "tags": null, "updated_at": 1776696055499, "version": "0.1.0"}, {"category": "developer-tools", "created_at": 1773433335831, "description": "CoderPad integration. Manage Pads. Use when the user wants to interact with CoderPad data.", "description_zh": "", "downloads": 86, "homepage": "https://clawhub.ai/gora050/coderpad", "iconUrl": null, "installs": 8, "name": "Coderpad", "ownerName": "gora050", "score": 86868.68686868687, "slug": "coderpad", "source": "clawhub", "stars": 0, "tags": null, "updated_at": 1776696055495, "version": "1.0.0"}, {"category": "communication-collaboration", "created_at": 1773921459934, "description": "WhatsApp Business API integration with managed OAuth. Send messages, manage templates, and handle conversations. Use this skill when users want to interact w...", "description_zh": "", "downloads": 86, "homepage": "https://clawhub.ai/faridmalik1/faridwahysapp", "iconUrl": null, "installs": 3, "name": "farid wa", "ownerName": "faridmalik1", "score": 86868.68686868687, "slug": "faridwahysapp", "source": "clawhub", "stars": 0, "tags": null, "updated_at": 1776696055481, "version": "1.0.0"}, {"category": "developer-tools", "created_at": 1773943541036, "description": "Advanced filesystem operations - listing, searching, batch processing, and directory analysis for Clawdbot", "description_zh": "", "downloads": 86, "homepage": "https://clawhub.ai/qq258067284/filesystem2", "iconUrl": null, "installs": 11, "name": "filesystem-1.0.2", "ownerName": "qq258067284", "score": 86868.68686868687, "slug": "filesystem2", "source": "clawhub", "stars": 0, "tags": null, "updated_at": 1776696055476, "version": "1.0.0"}, {"category": "ai-intelligence", "created_at": 1773933360511, "description": "Vantage — Autonomous trading agent for Hyperliquid perpetual futures. Signal-to-execution in one loop. Runs on your machine. No cloud infra. No ongoing cost...", "description_zh": "", "downloads": 86, "homepage": "https://clawhub.ai/morebetterclaw/vantage", "iconUrl": null, "installs": 8, "name": "Vantage — HL Autonomous Trading Agent", "ownerName": "morebetterclaw", "score": 86868.68686868687, "slug": "vantage", "source": "clawhub", "stars": 0, "tags": null, "updated_at": 1776696055468, "version": "1.0.0"}, {"category": "developer-tools", "created_at": 1773942841186, "description": "Run DNS, email security, SSL, WHOIS, and network tools via dnsrobot.net API — no API key required", "description_zh": "", "downloads": 86, "homepage": "https://clawhub.ai/dnsrobot/dnsrobot", "iconUrl": null, "installs": 4, "name": "DNS Robot", "ownerName": "dnsrobot", "score": 86868.68686868687, "slug": "dnsrobot", "source": "clawhub", "stars": 0, "tags": ["dns", "domain", "email-security", "network", "ssl", "whois"], "updated_at": 1776696055466, "version": "1.0.0"}, {"category": "communication-collaboration", "created_at": 1773432651458, "description": "Draft professional communications", "description_zh": "", "downloads": 86, "homepage": "https://clawhub.ai/cyberforexblockchain/nexus-email-compose", "iconUrl": null, "installs": 5, "name": "NEXUS Email Compose", "ownerName": "cyberforexblockchain", "score": 86868.68686868687, "slug": "nexus-email-compose", "source": "clawhub", "stars": 0, "tags": null, "updated_at": 1776696055460, "version": "1.0.0"}]}