{"page": 407, "total_pages": 522, "total": 26073, "skills": [{"category": "ai-intelligence", "created_at": 1773958570392, "description": "Captures learnings, errors, and corrections to enable continuous improvement. Use when: (1) A command or operation fails unexpectedly, (2) User corrects Clau...", "description_zh": "", "downloads": 86, "homepage": "https://clawhub.ai/mhbmissile/mhbmissile-self-improving-agent", "iconUrl": null, "installs": 22, "name": "Self Improving Agent", "ownerName": "mhbmissile", "score": 86868.68686868687, "slug": "mhbmissile-self-improving-agent", "source": "clawhub", "stars": 0, "tags": null, "updated_at": 1776696046982, "version": "1.0.0"}, {"category": "", "created_at": 1774897861119, "description": "DeepSeek integration. Manage Organizations. Use when the user wants to interact with DeepSeek data.", "description_zh": "", "downloads": 86, "homepage": "https://clawhub.ai/gora050/deepseek-integration", "iconUrl": null, "installs": 22, "name": "Deepseek", "ownerName": "gora050", "score": 86868.68686868687, "slug": "deepseek-integration", "source": "clawhub", "stars": 0, "tags": null, "updated_at": 1776696046974, "version": "1.0.0"}, {"category": "", "created_at": 1774869520007, "description": "Transparent, rigorous research with full methodology — not a black-box API wrapper. Conducts exhaustive investigation through mandated 2-cycle research per t...", "description_zh": "", "downloads": 86, "homepage": "https://clawhub.ai/dujch/academic-deep-research-1-0-0", "iconUrl": null, "installs": 27, "name": "Academic Deep Research 1.0.0", "ownerName": "dujch", "score": 86868.68686868687, "slug": "academic-deep-research-1-0-0", "source": "clawhub", "stars": 0, "tags": null, "updated_at": 1776696046970, "version": "1.0.0"}, {"category": "ai-intelligence", "created_at": 1773942114389, "description": "Browse trending papers, search by keyword, and get paper details from Hugging Face Papers", "description_zh": "", "downloads": 86, "homepage": "https://clawhub.ai/willamhou/hf-papers", "iconUrl": null, "installs": 11, "name": "HF Papers", "ownerName": "willamhou", "score": 88659.79381443298, "slug": "hf-papers", "source": "clawhub", "stars": 0, "tags": null, "updated_at": 1776696044563, "version": "1.0.3"}, {"category": "", "created_at": 1774868655222, "description": "Analyze Chinese stock prices (A-shares, HK stocks) and provide investment recommendations. Use when the user asks about stock analysis for Chinese companies,...", "description_zh": "", "downloads": 86, "homepage": "https://clawhub.ai/make453/china-stock-analysis-bak", "iconUrl": null, "installs": 27, "name": "China Stock Analysis.Bak", "ownerName": "make453", "score": 88659.79381443298, "slug": "china-stock-analysis-bak", "source": "clawhub", "stars": 0, "tags": null, "updated_at": 1776696044556, "version": "1.0.0"}, {"category": "content-creation", "created_at": 1773952206794, "description": "Generate ai background remover images with AI via the Neta AI image generation API (free trial at neta.art/open).", "description_zh": "", "downloads": 86, "homepage": "https://clawhub.ai/barbaraledbettergq/background-remover-claw-skill", "iconUrl": null, "installs": 16, "name": "Background Remover Claw Skill", "ownerName": "barbaraledbettergq", "score": 87755.10204081633, "slug": "background-remover-claw-skill", "source": "clawhub", "stars": 0, "tags": null, "updated_at": 1776696044440, "version": "1.7.0"}, {"category": "", "created_at": 1776530099561, "description": "Deeply eliminate AI writing patterns and transform text into natural, human-like expression", "description_zh": "", "downloads": 85, "homepage": "https://clawhub.ai/user_d82fedf3/deaify", "iconUrl": "https://cloudcache.tencent-cloud.com/qcloud/ui/static/other_external_resource/7920727c-4e7d-496a-9223-d9c6673e9e53.png", "installs": 24, "name": "DeAIfier（去AI味工具）", "ownerName": "user_d82fedf3", "score": 2096.2267917748054, "slug": "deaify", "source": "community", "stars": 1, "tags": null, "updated_at": 1776767649996, "version": "1.0.0"}, {"category": "data-analysis", "created_at": 1773948430693, "description": "Perform bank reconciliation between bank statement and general ledger Excel files. Supports custom thresholds for amount matching and semantic description ma...", "description_zh": "", "downloads": 85, "homepage": "https://clawhub.ai/chipmunkrpa/bank-recon", "iconUrl": null, "installs": 8, "name": "Bank Reconciliation", "ownerName": "chipmunkrpa", "score": 100000, "slug": "bank-recon", "source": "clawhub", "stars": 1, "tags": null, "updated_at": 1776745204807, "version": "1.0.0"}, {"category": "", "created_at": 1774873902631, "description": "Search and list available skills in the current workspace. Use when you are unsure what tools are available.", "description_zh": "", "downloads": 85, "homepage": "https://clawhub.ai/dnorris2926-0/find-skills-plus", "iconUrl": null, "installs": 26, "name": "find-skills-plus", "ownerName": "dnorris2926-0", "score": 4804.974561899378, "slug": "find-skills-plus", "source": "clawhub", "stars": 0, "tags": null, "updated_at": 1776765065094, "version": "1.0.0"}, {"category": "", "created_at": 1774906596380, "description": "Provides a comprehensive guide for writing production-ready Golang tests. Covers table-driven tests, test suites with testify, mocks, unit tests, integration...", "description_zh": "", "downloads": 85, "homepage": "https://clawhub.ai/samber/golang-testing", "iconUrl": null, "installs": 5, "name": "Golang Testing", "ownerName": "samber", "score": 3260.4526275412354, "slug": "golang-testing", "source": "clawhub", "stars": 0, "tags": null, "updated_at": 1776762289859, "version": "0.1.0"}, {"category": "productivity", "created_at": 1773956378136, "description": "Manage budgets, transactions, accounts, envelopes, payees, and reports using the EnvelopeBudget.com API for tracking and organizing finances.", "description_zh": "", "downloads": 85, "homepage": "https://clawhub.ai/djedi/envelopebudget", "iconUrl": null, "installs": 7, "name": "EnvelopeBudget", "ownerName": "djedi", "score": 33464.566929133856, "slug": "envelopebudget", "source": "clawhub", "stars": 0, "tags": null, "updated_at": 1776759831745, "version": "1.2.0"}, {"category": "content-creation", "created_at": 1773950827726, "description": "Scrapes competitors and local data to audit and optimize your Google Business Profile, fix citation errors, build review strategy, and generate a 90-day loca...", "description_zh": "", "downloads": 85, "homepage": "https://clawhub.ai/g4dr/ai-local-seo-dominator", "iconUrl": null, "installs": 8, "name": "AI Local SEO Dominator — Rank #1 on Google Maps & Steal Customers From Every Competitor in Your Area", "ownerName": "g4dr", "score": 33464.566929133856, "slug": "ai-local-seo-dominator", "source": "clawhub", "stars": 0, "tags": ["apify", "citations", "gmb", "google-business-profile", "google-maps", "invideo", "local-business", "local-seo", "ranking", "reviews", "search-visibility", "seo"], "updated_at": 1776759831742, "version": "1.0.0"}, {"category": "developer-tools", "created_at": 1773956152323, "description": "Runs shell commands inside a dedicated tmux session named 'claw', returning command output and prompting before destructive commands.", "description_zh": "", "downloads": 85, "homepage": "https://clawhub.ai/fresh3/taizi-claw-shell", "iconUrl": null, "installs": 9, "name": "Taizi Claw Shell", "ownerName": "fresh3", "score": 6661.442006269593, "slug": "taizi-claw-shell", "source": "clawhub", "stars": 0, "tags": null, "updated_at": 1776759831715, "version": "1.0.0"}, {"category": "", "created_at": 1773220754869, "description": "Real-time multi-chain staking reward tracking with APR comparison, compounding optimization, profit forecasting, tax reporting, and multi-wallet management.", "description_zh": "", "downloads": 85, "homepage": "https://clawhub.ai/yipintangzsp/staking-reward-tracker-pro", "iconUrl": null, "installs": 2, "name": "Staking Reward Tracker Pro", "ownerName": "yipintangzsp", "score": 6656.225528582616, "slug": "staking-reward-tracker-pro", "source": "clawhub", "stars": 0, "tags": null, "updated_at": 1776759831706, "version": "1.0.0"}, {"category": "data-analysis", "created_at": 1773950520693, "description": "Analyzes Polymarket BTC prediction markets to show active market sentiment, crowd consensus, and alignment with on-chain data via Orion's oracle.", "description_zh": "", "downloads": 85, "homepage": "https://clawhub.ai/kokoju007/polymarket-scout-orion", "iconUrl": null, "installs": 8, "name": "Polymarket Scout — Orion", "ownerName": "kokoju007", "score": 6651.017214397496, "slug": "polymarket-scout-orion", "source": "clawhub", "stars": 0, "tags": ["acp", "bitcoin", "btc", "crypto", "orion", "polymarket", "prediction-markets", "trading-signals"], "updated_at": 1776759831581, "version": "1.0.0"}, {"category": "", "created_at": 1774949621984, "description": "Headless creative production studio for AI agents. Generate images, edit photos, create videos, produce voiceover/music/SFX, and assemble polished output via...", "description_zh": "", "downloads": 85, "homepage": "https://clawhub.ai/cohnen/shellbot-creative-studio", "iconUrl": null, "installs": 16, "name": "Test Skill 3", "ownerName": "cohnen", "score": 96590.90909090909, "slug": "shellbot-creative-studio", "source": "clawhub", "stars": 0, "tags": ["audio", "creative", "image", "production", "remotion", "video"], "updated_at": 1776759831521, "version": "1.0.3"}, {"category": "", "created_at": 1774877017893, "description": "Generate a structured daily site progress report from unstructured input such as voice transcription, rough notes, or conversational messages.", "description_zh": "", "downloads": 85, "homepage": "https://clawhub.ai/nitevity/construction-daily-report", "iconUrl": null, "installs": 1, "name": "Construction Daily Report Generator", "ownerName": "nitevity", "score": 61594.20289855072, "slug": "construction-daily-report", "source": "clawhub", "stars": 0, "tags": ["construction", "daily-report", "reporting", "site-engineer"], "updated_at": 1776749870363, "version": "1.0.0"}, {"category": "security-compliance", "created_at": 1773933943347, "description": "Use when auditing Go code involving TLS configuration, certificate validation, JWT token parsing, SAML assertion verification, webhook signature checking, or...", "description_zh": "", "downloads": 85, "homepage": "https://clawhub.ai/yhy0/go-vuln-crypto-tls", "iconUrl": null, "installs": 2, "name": "Go Vuln Crypto Tls", "ownerName": "yhy0", "score": 80952.38095238095, "slug": "go-vuln-crypto-tls", "source": "clawhub", "stars": 0, "tags": null, "updated_at": 1776745272022, "version": "0.1.0"}, {"category": "", "created_at": 1774880047928, "description": "Generate professional database structure documentation from PostgreSQL databases. Creates Excel files with table schemas, column details, and formatting. Use...", "description_zh": "", "downloads": 85, "homepage": "https://clawhub.ai/gitoftom/database-doc-generator", "iconUrl": null, "installs": 2, "name": "database-doc-generator", "ownerName": "gitoftom", "score": 86734.69387755102, "slug": "database-doc-generator", "source": "clawhub", "stars": 0, "tags": null, "updated_at": 1776742571944, "version": "1.0.1"}, {"category": "", "created_at": 1774923985633, "description": "Electrical fundamentals and backup power systems. Use when someone needs to understand their electrical panel, safely connect a generator, evaluate solar opt...", "description_zh": "", "downloads": 85, "homepage": "https://clawhub.ai/howtousehumans/electrical-backup-power", "iconUrl": null, "installs": 14, "name": "Electrical Backup Power", "ownerName": "howtousehumans", "score": 89473.68421052632, "slug": "electrical-backup-power", "source": "clawhub", "stars": 0, "tags": null, "updated_at": 1776734684102, "version": "1.0.0"}, {"category": "developer-tools", "created_at": 1773957767716, "description": "Frontend development patterns for React, Next.js, state management, performance optimization, and UI best practices.", "description_zh": "", "downloads": 85, "homepage": "https://clawhub.ai/npjameszheng1125-netizen/frontend-patterns", "iconUrl": null, "installs": 16, "name": "Frontend Patterns", "ownerName": "npjameszheng1125-netizen", "score": 87628.86597938144, "slug": "frontend-patterns", "source": "clawhub", "stars": 0, "tags": null, "updated_at": 1776699583897, "version": "1.0.0"}, {"category": "data-analysis", "created_at": 1773933641639, "description": "Run Citrea L2 monitoring commands — check arbitrage opportunities, token prices, pool liquidity, wallet balances, and new pools across JuiceSwap and Satsuma...", "description_zh": "", "downloads": 85, "homepage": "https://clawhub.ai/jason-chew/citrea-claw-skill", "iconUrl": null, "installs": 8, "name": "Citrea Claw Skill", "ownerName": "jason-chew", "score": 98837.20930232557, "slug": "citrea-claw-skill", "source": "clawhub", "stars": 0, "tags": null, "updated_at": 1776696170254, "version": "0.1.4"}, {"category": "productivity", "created_at": 1773938313891, "description": "Create a recurring Google Calendar event with attendees.", "description_zh": "", "downloads": 85, "homepage": "https://clawhub.ai/googleworkspace-bot/recipe-schedule-recurring-event", "iconUrl": null, "installs": 6, "name": "Recipe Schedule Recurring Event", "ownerName": "googleworkspace-bot", "score": 98837.20930232557, "slug": "recipe-schedule-recurring-event", "source": "clawhub", "stars": 0, "tags": null, "updated_at": 1776696170229, "version": "1.0.10"}, {"category": "productivity", "created_at": 1773935267776, "description": "Save a Gmail message body into a Google Doc for archival or reference.", "description_zh": "", "downloads": 85, "homepage": "https://clawhub.ai/googleworkspace-bot/recipe-save-email-to-doc", "iconUrl": null, "installs": 6, "name": "Recipe Save Email To Doc", "ownerName": "googleworkspace-bot", "score": 88541.66666666666, "slug": "recipe-save-email-to-doc", "source": "clawhub", "stars": 0, "tags": null, "updated_at": 1776696170220, "version": "1.0.10"}, {"category": "", "created_at": 1774831117796, "description": "Generate ai youtube thumbnail generator images with AI via the Neta AI image generation API (free trial at neta.art/open).", "description_zh": "", "downloads": 85, "homepage": "https://clawhub.ai/sherrihidalgolt/thumbnail-gen-skill", "iconUrl": null, "installs": 3, "name": "Thumbnail Gen Skill", "ownerName": "sherrihidalgolt", "score": 88541.66666666666, "slug": "thumbnail-gen-skill", "source": "clawhub", "stars": 0, "tags": null, "updated_at": 1776696170216, "version": "2.0.1"}, {"category": "security-compliance", "created_at": 1773920177391, "description": "Analyze smart contracts, token mechanics, permissions, fee flows, upgradeability, market risks, and likely attack surfaces for onchain projects. Use when rev...", "description_zh": "", "downloads": 85, "homepage": "https://clawhub.ai/0xrowan/onchain-contract-token-ana", "iconUrl": null, "installs": 0, "name": "onchain contract token analysis", "ownerName": "0xrowan", "score": 88541.66666666666, "slug": "onchain-contract-token-ana", "source": "clawhub", "stars": 0, "tags": null, "updated_at": 1776696170180, "version": "1.0.0"}, {"category": "security-compliance", "created_at": 1773434705735, "description": "Zero-Knowledge Execution for Sensitive Agent Tasks - Privacy computing framework for AI Agents", "description_zh": "", "downloads": 85, "homepage": "https://clawhub.ai/zhenstaff/private-computation", "iconUrl": null, "installs": 1, "name": "private computation", "ownerName": "zhenstaff", "score": 88541.66666666666, "slug": "private-computation", "source": "clawhub", "stars": 0, "tags": null, "updated_at": 1776696170178, "version": "1.0.0"}, {"category": "productivity", "created_at": 1773434247225, "description": "Turn scattered notes, metrics, and unfinished tasks into a weekly operating review with wins, misses, blockers, and next-week priorities.", "description_zh": "", "downloads": 85, "homepage": "https://clawhub.ai/52yuanchangxing/weekly-ops-review", "iconUrl": null, "installs": 7, "name": "weekly-ops-review", "ownerName": "52yuanchangxing", "score": 87628.86597938144, "slug": "weekly-ops-review", "source": "clawhub", "stars": 0, "tags": null, "updated_at": 1776696170149, "version": "1.0.0"}, {"category": "productivity", "created_at": 1773433204441, "description": "Gloww integration. Manage Organizations, Pipelines, Users, Filters, Files, Notes. Use when the user wants to interact with Gloww data.", "description_zh": "", "downloads": 85, "homepage": "https://clawhub.ai/gora050/gloww", "iconUrl": null, "installs": 4, "name": "Gloww", "ownerName": "gora050", "score": 87628.86597938144, "slug": "gloww", "source": "clawhub", "stars": 0, "tags": null, "updated_at": 1776696170139, "version": "1.0.0"}, {"category": "developer-tools", "created_at": 1773931969934, "description": "Creates, configures, and deploys on-chain automation workflows using the Ditto Network SDK. Use when the user asks to \"create a workflow\", \"automate on-chain...", "description_zh": "", "downloads": 85, "homepage": "https://clawhub.ai/vladislavshad/workflow-automation-evm-wallets", "iconUrl": null, "installs": 5, "name": "Trustless Workflow Automation on EVM networks for Agents (powered by Ditto Network)", "ownerName": "vladislavshad", "score": 87628.86597938144, "slug": "workflow-automation-evm-wallets", "source": "clawhub", "stars": 0, "tags": null, "updated_at": 1776696170132, "version": "1.0.0"}, {"category": "developer-tools", "created_at": 1773433552708, "description": "OneUptime integration. Manage Users, Organizations. Use when the user wants to interact with OneUptime data.", "description_zh": "", "downloads": 85, "homepage": "https://clawhub.ai/membranedev/oneuptime", "iconUrl": null, "installs": 9, "name": "Oneuptime", "ownerName": "membranedev", "score": 87628.86597938144, "slug": "oneuptime", "source": "clawhub", "stars": 0, "tags": null, "updated_at": 1776696170123, "version": "1.0.0"}, {"category": "developer-tools", "created_at": 1773936931826, "description": "Upgrade Cairo smart contracts using OpenZeppelin's UpgradeableComponent on Starknet. Use when users need to: (1) make Cairo contracts upgradeable via replace...", "description_zh": "", "downloads": 85, "homepage": "https://clawhub.ai/samledger67-dotcom/upgrade-cairo-contracts", "iconUrl": null, "installs": 10, "name": "Upgrade Cairo Contracts", "ownerName": "samledger67-dotcom", "score": 87628.86597938144, "slug": "upgrade-cairo-contracts", "source": "clawhub", "stars": 0, "tags": null, "updated_at": 1776696170040, "version": "1.0.1"}, {"category": "ai-intelligence", "created_at": 1773930345871, "description": "Participate in AI Deathmatch debate tournaments. Use when the user wants to register a fighter, argue topics against other AI agents, poll for matches, submi...", "description_zh": "", "downloads": 85, "homepage": "https://clawhub.ai/itmde/ai-deathmatch", "iconUrl": null, "installs": 4, "name": "AI Deathmatch - The ultimate arena for AI Agents", "ownerName": "itmde", "score": 87628.86597938144, "slug": "ai-deathmatch", "source": "clawhub", "stars": 0, "tags": null, "updated_at": 1776696170036, "version": "1.3.0"}, {"category": "productivity", "created_at": 1773932849145, "description": "LightSpeed VT integration. Manage Organizations. Use when the user wants to interact with LightSpeed VT data.", "description_zh": "", "downloads": 85, "homepage": "https://clawhub.ai/gora050/lightspeed-vt", "iconUrl": null, "installs": 3, "name": "Lightspeed Vt", "ownerName": "gora050", "score": 88541.66666666666, "slug": "lightspeed-vt", "source": "clawhub", "stars": 0, "tags": null, "updated_at": 1776696169984, "version": "1.0.0"}, {"category": "productivity", "created_at": 1773945747157, "description": "Family health and medical record management. Tracks members, visits, medications, lab results, daily metrics, reminders, briefings, and pre-visit summaries.", "description_zh": "", "downloads": 85, "homepage": "https://clawhub.ai/juneyaooo/mediwise-health-tracker", "iconUrl": null, "installs": 13, "name": "mediwise-health-tracker", "ownerName": "juneyaooo", "score": 88541.66666666666, "slug": "mediwise-health-tracker", "source": "clawhub", "stars": 0, "tags": null, "updated_at": 1776696169957, "version": "0.3.0"}, {"category": "content-creation", "created_at": 1773435085684, "description": "Diagnose why short-video retention drops and suggest practical fixes. Use when views start but audience leaves early.", "description_zh": "", "downloads": 85, "homepage": "https://clawhub.ai/leooooooow/retention-drop-checker", "iconUrl": null, "installs": 5, "name": "Retention Drop Checker", "ownerName": "leooooooow", "score": 88541.66666666666, "slug": "retention-drop-checker", "source": "clawhub", "stars": 0, "tags": null, "updated_at": 1776696169934, "version": "1.0.1"}, {"category": "ai-intelligence", "created_at": 1773932330013, "description": "Generate a structured LEONIDAS prompt from any professional pain point using the Ask Leonidas OpenClaw API. Solves the #1 OpenClaw community pain point: writ...", "description_zh": "", "downloads": 85, "homepage": "https://clawhub.ai/leonidas-esquire/ask-leonidas", "iconUrl": null, "installs": 6, "name": "Ask Leonidas — LEONIDAS Prompt Generator", "ownerName": "leonidas-esquire", "score": 88541.66666666666, "slug": "ask-leonidas", "source": "clawhub", "stars": 0, "tags": ["agents-md", "leonidas", "openclaw", "productivity", "prompt-engineering", "soul-md"], "updated_at": 1776696169912, "version": "2.1.0"}, {"category": "security-compliance", "created_at": 1773944601127, "description": "Detects GEO/SEO soft articles, synthetic promotion pages, abnormal brand mention density, and low-credibility sources in external web content. Use when OpenC...", "description_zh": "", "downloads": 85, "homepage": "https://clawhub.ai/2404589803/geo-content-guard", "iconUrl": null, "installs": 12, "name": "GEO Content Guard", "ownerName": "2404589803", "score": 88541.66666666666, "slug": "geo-content-guard", "source": "clawhub", "stars": 0, "tags": ["content", "security", "trust"], "updated_at": 1776696169893, "version": "0.1.0"}, {"category": "developer-tools", "created_at": 1773937650862, "description": "Upgrade Stellar/Soroban smart contracts using OpenZeppelin's upgradeable module. Use when users need to: (1) make Soroban contracts upgradeable via native WA...", "description_zh": "", "downloads": 85, "homepage": "https://clawhub.ai/samledger67-dotcom/upgrade-stellar-contracts", "iconUrl": null, "installs": 6, "name": "upgrade stellar contracts", "ownerName": "samledger67-dotcom", "score": 87628.86597938144, "slug": "upgrade-stellar-contracts", "source": "clawhub", "stars": 0, "tags": null, "updated_at": 1776696169866, "version": "1.0.0"}, {"category": "productivity", "created_at": 1773937197934, "description": "Local-first personal bookkeeping Skill (SQLite). Supports natural language and screenshot-based expense recording, account management, budget tracking, weekl...", "description_zh": "", "downloads": 85, "homepage": "https://clawhub.ai/wenkang-xie/cashbook", "iconUrl": null, "installs": 7, "name": "cashbook", "ownerName": "wenkang-xie", "score": 87628.86597938144, "slug": "cashbook", "source": "clawhub", "stars": 0, "tags": null, "updated_at": 1776696169858, "version": "1.3.0"}, {"category": "security-compliance", "created_at": 1773929549663, "description": "Escrow + trust scoring on Base mainnet. Checks 24K+ agents BEFORE you pay. Real dispute resolution. Works with any x402 API — vendor doesn't need it installed.", "description_zh": "", "downloads": 85, "homepage": "https://clawhub.ai/michu5696/paycrow", "iconUrl": null, "installs": 2, "name": "PayCrow", "ownerName": "michu5696", "score": 87628.86597938144, "slug": "paycrow", "source": "clawhub", "stars": 0, "tags": ["agent-commerce", "base", "crypto", "dispute-resolution", "escrow", "payments", "security", "trust", "usdc", "x402"], "updated_at": 1776696169813, "version": "1.2.4"}, {"category": "data-analysis", "created_at": 1773940215739, "description": "MailboxValidator integration. Manage Users, Organizations. Use when the user wants to interact with MailboxValidator data.", "description_zh": "", "downloads": 85, "homepage": "https://clawhub.ai/membranedev/mailboxvalidator", "iconUrl": null, "installs": 11, "name": "Mailboxvalidator", "ownerName": "membranedev", "score": 87628.86597938144, "slug": "mailboxvalidator", "source": "clawhub", "stars": 0, "tags": null, "updated_at": 1776696169801, "version": "1.0.0"}, {"category": "productivity", "created_at": 1773924088078, "description": "Generate a standup update from your APort policy decisions. Shows what you actually shipped — not what you remember shipping. Driven by signed APort decision...", "description_zh": "", "downloads": 85, "homepage": "https://clawhub.ai/uchibeke/aport-standup", "iconUrl": null, "installs": 4, "name": "Aport Standup", "ownerName": "uchibeke", "score": 87628.86597938144, "slug": "aport-standup", "source": "clawhub", "stars": 0, "tags": null, "updated_at": 1776696169798, "version": "0.1.0"}, {"category": "developer-tools", "created_at": 1773937097185, "description": "Automatically scan GitHub repositories for open issues with 0 comments, evaluate their value, claim them, and submit PRs. Automates the entire GitHub bounty...", "description_zh": "", "downloads": 85, "homepage": "https://clawhub.ai/dagangtj/auto-bounty-hunter", "iconUrl": null, "installs": 9, "name": "Auto Bounty Hunter", "ownerName": "dagangtj", "score": 87628.86597938144, "slug": "auto-bounty-hunter", "source": "clawhub", "stars": 0, "tags": null, "updated_at": 1776696169796, "version": "1.0.0"}, {"category": "developer-tools", "created_at": 1773938442982, "description": "Stream long-running task progress into the OpenClaw chat UI.", "description_zh": "", "downloads": 85, "homepage": "https://clawhub.ai/liyooyin/task-progress-stream", "iconUrl": null, "installs": 12, "name": "task-progress-stream", "ownerName": "liyooyin", "score": 87628.86597938144, "slug": "task-progress-stream", "source": "clawhub", "stars": 0, "tags": null, "updated_at": 1776696169791, "version": "0.1.0"}, {"category": "developer-tools", "created_at": 1773938906183, "description": "CloudBees integration. Manage data, records, and automate workflows. Use when the user wants to interact with CloudBees data.", "description_zh": "", "downloads": 85, "homepage": "https://clawhub.ai/membranedev/cloudbees", "iconUrl": null, "installs": 6, "name": "Cloudbees", "ownerName": "membranedev", "score": 88541.66666666666, "slug": "cloudbees", "source": "clawhub", "stars": 0, "tags": null, "updated_at": 1776696169698, "version": "1.0.0"}, {"category": "ai-intelligence", "created_at": 1773934224040, "description": "Set up and manage an AI-curated daily tech brief from customizable sources. Use when user says \"set up multi-source-feed\", \"configure my daily brief\", or \"ms...", "description_zh": "", "downloads": 85, "homepage": "https://clawhub.ai/zidooong/multi-source-feed", "iconUrl": null, "installs": 8, "name": "Multi-Source Feed", "ownerName": "zidooong", "score": 87628.86597938144, "slug": "multi-source-feed", "source": "clawhub", "stars": 0, "tags": null, "updated_at": 1776696169683, "version": "1.0.1"}, {"category": "security-compliance", "created_at": 1773915449989, "description": "Billions decentralized identity for agents. Link agents to human identities using Billions ERC-8004 and Attestation Registries. Verify and generate authentic...", "description_zh": "", "downloads": 85, "homepage": "https://clawhub.ai/adamlucker21/verified-agent-identity-6", "iconUrl": null, "installs": 0, "name": "Verified Agent Identity", "ownerName": "adamlucker21", "score": 87628.86597938144, "slug": "verified-agent-identity-6", "source": "clawhub", "stars": 0, "tags": null, "updated_at": 1776696169668, "version": "0.1.0"}, {"category": "ai-intelligence", "created_at": 1773937856708, "description": "AI agents compete in P2P sports predictions and earn real money on agentsport.io. No API key required.", "description_zh": "", "downloads": 85, "homepage": "https://clawhub.ai/elesingp2/agentsports", "iconUrl": null, "installs": 8, "name": "Agentsports - AI Agents Betting Exchange (No API key)", "ownerName": "elesingp2", "score": 87628.86597938144, "slug": "agentsports", "source": "clawhub", "stars": 0, "tags": null, "updated_at": 1776696169622, "version": "0.1.0"}, {"category": "ai-intelligence", "created_at": 1773932193323, "description": "Real-time web search for AI agents powered by Octen. Fast, fresh, and relevant — search the web, filter by date, and get LLM-ready results in under 80ms. Ide...", "description_zh": "", "downloads": 84, "homepage": "https://clawhub.ai/jac9935/octen-search-skills", "iconUrl": null, "installs": 7, "name": "Octen Search", "ownerName": "jac9935", "score": 100000, "slug": "octen-search-skills", "source": "clawhub", "stars": 1, "tags": null, "updated_at": 1776727069537, "version": "1.0.4"}]}