{"page": 408, "total_pages": 522, "total": 26073, "skills": [{"category": "productivity", "created_at": 1773932087063, "description": "Share AI agent conversations as public web pages. Use when the user wants to share a conversation externally, export conversation history for documentation,...", "description_zh": "", "downloads": 84, "homepage": "https://clawhub.ai/imyelo/clawpage", "iconUrl": null, "installs": 3, "name": "Clawpage", "ownerName": "imyelo", "score": 92857.14285714286, "slug": "clawpage", "source": "clawhub", "stars": 1, "tags": null, "updated_at": 1776695570154, "version": "1.0.0"}, {"category": "", "created_at": 1774907288713, "description": "Provides concise AI training tips from Andrej Karpathy, including starting with a tiny dataset to verify model and pipeline functionality.", "description_zh": "", "downloads": 84, "homepage": "https://clawhub.ai/robinyves/ai-tip-from-karpathy", "iconUrl": null, "installs": 9, "name": "Ai Tip From Karpathy", "ownerName": "robinyves", "score": 4368.174726989079, "slug": "ai-tip-from-karpathy", "source": "clawhub", "stars": 0, "tags": null, "updated_at": 1776764350474, "version": "1.0.0"}, {"category": "", "created_at": 1774891618372, "description": "Search the web using Metaso AI Search API. Use for live information, documentation, or research topics.", "description_zh": "", "downloads": 84, "homepage": "https://clawhub.ai/square123/metaso-search-skill", "iconUrl": null, "installs": 24, "name": "秘塔搜索", "ownerName": "square123", "score": 3049.0018148820327, "slug": "metaso-search-skill", "source": "clawhub", "stars": 0, "tags": null, "updated_at": 1776764090788, "version": "1.0.0"}, {"category": "data-analysis", "created_at": 1773950990427, "description": "Look up labeled crypto addresses, token metadata, and balances across major EVM chains including Ethereum, Base, Arbitrum, Optimism, and BSC.", "description_zh": "", "downloads": 84, "homepage": "https://clawhub.ai/dawsbot/eth-labels", "iconUrl": null, "installs": 7, "name": "Eth Labels", "ownerName": "dawsbot", "score": 33070.86614173229, "slug": "eth-labels", "source": "clawhub", "stars": 0, "tags": null, "updated_at": 1776759831752, "version": "1.0.1"}, {"category": "", "created_at": 1774877635838, "description": "PDF Utils enables OCR of image-based PDFs, extraction of arXiv IDs from text or OCR output, and scriptable PDF tasks like merging, splitting, and rendering.", "description_zh": "", "downloads": 84, "homepage": "https://clawhub.ai/wangwllu/pdf-utils", "iconUrl": null, "installs": 16, "name": "PDF Utils", "ownerName": "wangwllu", "score": 6583.0721003134795, "slug": "pdf-utils", "source": "clawhub", "stars": 0, "tags": null, "updated_at": 1776759831730, "version": "1.0.1"}, {"category": "data-analysis", "created_at": 1773951411588, "description": "Extract readable text, markdown, HTML, JSON, or XML content from web pages using the trafilatura CLI tool with optional metadata and output formatting.", "description_zh": "", "downloads": 84, "homepage": "https://clawhub.ai/goog/tra-extract-text", "iconUrl": null, "installs": 6, "name": "tra-extract-text", "ownerName": "goog", "score": 6583.0721003134795, "slug": "tra-extract-text", "source": "clawhub", "stars": 0, "tags": null, "updated_at": 1776759831721, "version": "1.0.0"}, {"category": "", "created_at": 1774844757403, "description": "Batch upload content or markdown-formatted drafts to the Toutiao micro-headline draft box, including optional images and automatic saving.", "description_zh": "", "downloads": 84, "homepage": "https://clawhub.ai/tanlvxu/toutiaodraft", "iconUrl": null, "installs": 3, "name": "toutiao draft", "ownerName": "tanlvxu", "score": 6577.916992952232, "slug": "toutiaodraft", "source": "clawhub", "stars": 0, "tags": null, "updated_at": 1776759831694, "version": "1.0.0"}, {"category": "ai-intelligence", "created_at": 1773955258006, "description": "Manage and deploy ZeroClaw, a lightweight Rust AI agent runtime with swappable LLM providers, channels, tools, and memory backends for autonomous workflows.", "description_zh": "", "downloads": 84, "homepage": "https://clawhub.ai/adisinghstudent/zeroclaw-ai-agent-runtime", "iconUrl": null, "installs": 9, "name": "zeroclaw-ai-agent-runtime", "ownerName": "adisinghstudent", "score": 6583.0721003134795, "slug": "zeroclaw-ai-agent-runtime", "source": "clawhub", "stars": 0, "tags": null, "updated_at": 1776759831657, "version": "1.0.0"}, {"category": "", "created_at": 1774884821360, "description": "Provides organized access to Qimao Free Novel's public book categories, membership details, help topics, and official activity information.", "description_zh": "", "downloads": 84, "homepage": "https://clawhub.ai/codenova58/qimao-free-novel", "iconUrl": null, "installs": 16, "name": "Qimao Free Novel", "ownerName": "codenova58", "score": 95454.54545454546, "slug": "qimao-free-novel", "source": "clawhub", "stars": 0, "tags": null, "updated_at": 1776759831538, "version": "0.1.0"}, {"category": "developer-tools", "created_at": 1773943446718, "description": "Monitors OpenClaw health with real-time status, one-click fixes, security scans, and a web dashboard supporting Chinese and English.", "description_zh": "", "downloads": 84, "homepage": "https://clawhub.ai/olveww-dot/clawdoctor-openclaw", "iconUrl": null, "installs": 3, "name": "ClawDoctor", "ownerName": "olveww-dot", "score": 95454.54545454546, "slug": "clawdoctor-openclaw", "source": "clawhub", "stars": 0, "tags": null, "updated_at": 1776759831519, "version": "1.0.1"}, {"category": "productivity", "created_at": 1773952109964, "description": "A meta-learning method compressing deep expertise into 48 hours by extracting core mental models, expert debates, and critical assessment questions for mastery.", "description_zh": "", "downloads": 84, "homepage": "https://clawhub.ai/lawliet-ai/48h-expert", "iconUrl": null, "installs": 5, "name": "48h-Expert-Methodology", "ownerName": "lawliet-ai", "score": 95454.54545454546, "slug": "48h-expert", "source": "clawhub", "stars": 0, "tags": ["explore", "learn", "master", "study"], "updated_at": 1776759831514, "version": "1.0.1"}, {"category": "", "created_at": 1774833793270, "description": "Install and use Marketing Skills for AI agents — CRO, copywriting, SEO, analytics, and growth engineering skills for Claude Code and other coding agents.", "description_zh": "", "downloads": 84, "homepage": "https://clawhub.ai/adisinghstudent/marketingskills-ai-agents", "iconUrl": null, "installs": 15, "name": "marketingskills-ai-agents", "ownerName": "adisinghstudent", "score": 4970.414201183432, "slug": "marketingskills-ai-agents", "source": "clawhub", "stars": 0, "tags": null, "updated_at": 1776756188864, "version": "1.0.0"}, {"category": "", "created_at": 1774866429904, "description": "Recognizes CAPTCHA images using ddddocr library. Invoke when user needs to recognize/decode CAPTCHA images or mentions captcha verification.", "description_zh": "", "downloads": 84, "homepage": "https://clawhub.ai/moxin1044/captcha-recognition", "iconUrl": null, "installs": 3, "name": "captcha-recognition", "ownerName": "moxin1044", "score": 14711.033274956217, "slug": "captcha-recognition", "source": "clawhub", "stars": 0, "tags": null, "updated_at": 1776748485674, "version": "1.0.1"}, {"category": "content-creation", "created_at": 1773955649981, "description": "Generate investor-ready memos, executive summaries, and pitch narrative documents from raw financial data, cap tables, and startup metrics. Produces one-page...", "description_zh": "", "downloads": 84, "homepage": "https://clawhub.ai/samledger67-dotcom/investor-memo-generator", "iconUrl": null, "installs": 15, "name": "Investor Memo Generator", "ownerName": "samledger67-dotcom", "score": 89361.70212765958, "slug": "investor-memo-generator", "source": "clawhub", "stars": 0, "tags": null, "updated_at": 1776744884088, "version": "98.0.1"}, {"category": "", "created_at": 1774822699872, "description": "Traditional Chinese Medicine (TCM) wellness guidance including constitution analysis, seasonal health tips, herbal tea recommendations, acupressure points, a...", "description_zh": "", "downloads": 84, "homepage": "https://clawhub.ai/jiwenbing/tcm-guide", "iconUrl": null, "installs": 17, "name": "Tcm Guide", "ownerName": "jiwenbing", "score": 88421.05263157895, "slug": "tcm-guide", "source": "clawhub", "stars": 0, "tags": null, "updated_at": 1776742369809, "version": "1.0.0"}, {"category": "", "created_at": 1774952328031, "description": "Transforms rough email drafts into polished, professional medical correspondence.", "description_zh": "", "downloads": 84, "homepage": "https://clawhub.ai/aipoch-ai/medical-email-polisher", "iconUrl": null, "installs": 11, "name": "Medical Email Polisher", "ownerName": "aipoch-ai", "score": 84848.48484848485, "slug": "medical-email-polisher", "source": "clawhub", "stars": 0, "tags": null, "updated_at": 1776728869652, "version": "1.0.0"}, {"category": "", "created_at": 1774844493405, "description": "When the user wants to plan, implement, or optimize student and education discount programs. Also use when the user mentions \"student discount,\" \"education d...", "description_zh": "", "downloads": 84, "homepage": "https://clawhub.ai/kostja94/education-program", "iconUrl": null, "installs": 9, "name": "education-program", "ownerName": "kostja94", "score": 89361.70212765958, "slug": "education-program", "source": "clawhub", "stars": 0, "tags": null, "updated_at": 1776720944372, "version": "1.0.0"}, {"category": "developer-tools", "created_at": 1773943629585, "description": "Interact with GitHub using the `gh` CLI. Use `gh issue`, `gh pr`, `gh run`, and `gh api` for issues, PRs, CI runs, and advanced queries.", "description_zh": "", "downloads": 84, "homepage": "https://clawhub.ai/huadafenqi/huadafenqi-github", "iconUrl": null, "installs": 8, "name": "Huadafenqi Github", "ownerName": "huadafenqi", "score": 85714.28571428571, "slug": "huadafenqi-github", "source": "clawhub", "stars": 0, "tags": null, "updated_at": 1776708469763, "version": "1.0.0"}, {"category": "", "created_at": 1774871088099, "description": "CNC machining program manager", "description_zh": "", "downloads": 84, "homepage": "https://clawhub.ai/ckchzh/cnc", "iconUrl": null, "installs": 17, "name": "Cnc", "ownerName": "ckchzh", "score": 75000, "slug": "cnc", "source": "clawhub", "stars": 0, "tags": null, "updated_at": 1776702604639, "version": "1.0.0"}, {"category": "security-compliance", "created_at": 1773927623703, "description": "Use when auditing Go code involving logging, error handling, HTTP response data, Kubernetes Secret management, or credential storage. Covers CWE-200/532/522/...", "description_zh": "", "downloads": 84, "homepage": "https://clawhub.ai/yhy0/go-vuln-info-disclosure", "iconUrl": null, "installs": 1, "name": "Go Vuln Info Disclosure", "ownerName": "yhy0", "score": 100000, "slug": "go-vuln-info-disclosure", "source": "clawhub", "stars": 0, "tags": null, "updated_at": 1776696344373, "version": "0.1.0"}, {"category": "communication-collaboration", "created_at": 1773928658196, "description": "Real-time messaging across OpenClaw instances (channels, DMs, threads, reactions, search).", "description_zh": "", "downloads": 84, "homepage": "https://clawhub.ai/khaliqgant/agent-relay", "iconUrl": null, "installs": 1, "name": "Skill", "ownerName": "khaliqgant", "score": 87500, "slug": "agent-relay", "source": "clawhub", "stars": 0, "tags": null, "updated_at": 1776696170207, "version": "3.1.7"}, {"category": "security-compliance", "created_at": 1773433390481, "description": "Analyze smart contracts, token mechanics, permissions, fee flows, upgradeability, market risks, and likely attack surfaces for onchain projects. Use when rev...", "description_zh": "", "downloads": 84, "homepage": "https://clawhub.ai/0xrowan/onchain-contract-token-analysi", "iconUrl": null, "installs": 2, "name": "onchain contract token analysis", "ownerName": "0xrowan", "score": 87500, "slug": "onchain-contract-token-analysi", "source": "clawhub", "stars": 0, "tags": null, "updated_at": 1776696170176, "version": "1.0.0"}, {"category": "developer-tools", "created_at": 1773942821728, "description": "disk reference tool", "description_zh": "", "downloads": 84, "homepage": "https://clawhub.ai/bytesagain1/disk", "iconUrl": null, "installs": 4, "name": "Disk", "ownerName": "bytesagain1", "score": 87500, "slug": "disk", "source": "clawhub", "stars": 0, "tags": null, "updated_at": 1776696170170, "version": "2.0.3"}, {"category": "productivity", "created_at": 1773921099640, "description": "Manage Cal.com calendars via CLI - schedules, bookings, event types, slots, user profile. Use when user mentions 'Cal.com', 'scheduling', 'bookings', or need...", "description_zh": "", "downloads": 84, "homepage": "https://clawhub.ai/melvynx/calcom-cli", "iconUrl": null, "installs": 2, "name": "Calcom Cli", "ownerName": "melvynx", "score": 87500, "slug": "calcom-cli", "source": "clawhub", "stars": 0, "tags": null, "updated_at": 1776696170153, "version": "0.1.0"}, {"category": "productivity", "created_at": 1773934143327, "description": "Search Facebook Marketplace listings near a specified location with filters for radius, price range, limit, and pickup-only. This skill is a thin client for...", "description_zh": "", "downloads": 84, "homepage": "https://clawhub.ai/alexanderhe88/marketplace-local-search", "iconUrl": null, "installs": 8, "name": "Marketplace Local Search", "ownerName": "alexanderhe88", "score": 86597.9381443299, "slug": "marketplace-local-search", "source": "clawhub", "stars": 0, "tags": null, "updated_at": 1776696170111, "version": "0.1.0"}, {"category": "data-analysis", "created_at": 1773933750856, "description": "Faros integration. Manage Organizations. Use when the user wants to interact with Faros data.", "description_zh": "", "downloads": 84, "homepage": "https://clawhub.ai/gora050/faros", "iconUrl": null, "installs": 8, "name": "Faros", "ownerName": "gora050", "score": 86597.9381443299, "slug": "faros", "source": "clawhub", "stars": 0, "tags": null, "updated_at": 1776696170085, "version": "1.0.0"}, {"category": "content-creation", "created_at": 1773940967009, "description": "Publish content once, distribute everywhere—sync WordPress, Substack, Medium, and LinkedIn automatically. Use when the user needs multi-channel publishing, c...", "description_zh": "", "downloads": 84, "homepage": "https://clawhub.ai/ncreighton/cross-platform-content-syncer", "iconUrl": null, "installs": 9, "name": "Cross Platform Content Syncer", "ownerName": "ncreighton", "score": 86597.9381443299, "slug": "cross-platform-content-syncer", "source": "clawhub", "stars": 0, "tags": null, "updated_at": 1776696170011, "version": "1.0.0"}, {"category": "developer-tools", "created_at": 1773935684740, "description": "Codat integration. Manage Companies, Accounts, Bills, Invoices, Payments, Suppliers and more. Use when the user wants to interact with Codat data.", "description_zh": "", "downloads": 84, "homepage": "https://clawhub.ai/membranedev/codat", "iconUrl": null, "installs": 7, "name": "Codat", "ownerName": "membranedev", "score": 86597.9381443299, "slug": "codat", "source": "clawhub", "stars": 0, "tags": null, "updated_at": 1776696170006, "version": "1.0.0"}, {"category": "developer-tools", "created_at": 1773934072189, "description": "BluOS CLI (blu) for discovery, playback, grouping, and volume.", "description_zh": "", "downloads": 84, "homepage": "https://clawhub.ai/banalit/luke-blucli", "iconUrl": null, "installs": 7, "name": "Luke Blucli", "ownerName": "banalit", "score": 87500, "slug": "luke-blucli", "source": "clawhub", "stars": 0, "tags": null, "updated_at": 1776696169991, "version": "1.0.0"}, {"category": "productivity", "created_at": 1773932613765, "description": "Float integration. Manage Projects. Use when the user wants to interact with Float data.", "description_zh": "", "downloads": 84, "homepage": "https://clawhub.ai/gora050/float", "iconUrl": null, "installs": 3, "name": "Float", "ownerName": "gora050", "score": 87500, "slug": "float", "source": "clawhub", "stars": 0, "tags": null, "updated_at": 1776696169989, "version": "1.0.0"}, {"category": "", "created_at": 1773284544658, "description": "Allows this local OpenClaw agent to engage and socialize on the global OpenClaw Community Social Network.", "description_zh": "", "downloads": 84, "homepage": "https://clawhub.ai/fjsand/openclawplanet", "iconUrl": null, "installs": 3, "name": "OpenClawPlanet", "ownerName": "fjsand", "score": 87500, "slug": "openclawplanet", "source": "clawhub", "stars": 0, "tags": null, "updated_at": 1776696169980, "version": "1.0.1"}, {"category": "content-creation", "created_at": 1773060417400, "description": "Remove background noise, enhance clarity, and improve audio quality. Perfect for podcasts, videos, and calls. No API keys needed. $2 FREE credits to start. P...", "description_zh": "", "downloads": 84, "homepage": "https://clawhub.ai/xiaoyinqu/audio-enhance", "iconUrl": null, "installs": 13, "name": "Audio Enhance", "ownerName": "xiaoyinqu", "score": 87500, "slug": "audio-enhance", "source": "clawhub", "stars": 0, "tags": null, "updated_at": 1776696169968, "version": "1.0.2"}, {"category": "data-analysis", "created_at": 1773949685505, "description": "Record scores, rank players, and analyze game stats with terminal leaderboards. Use when tracking scores, ranking competitors, reviewing performance.", "description_zh": "", "downloads": 84, "homepage": "https://clawhub.ai/xueyetianya/leaderboard", "iconUrl": null, "installs": 14, "name": "Leaderboard", "ownerName": "xueyetianya", "score": 87500, "slug": "leaderboard", "source": "clawhub", "stars": 0, "tags": null, "updated_at": 1776696169959, "version": "2.0.2"}, {"category": "data-analysis", "created_at": 1773929813478, "description": "Build and maintain a reusable source-research system for discovering source pools, evaluating whether they are worth ongoing investment, defining efficient a...", "description_zh": "", "downloads": 84, "homepage": "https://clawhub.ai/myvyang/source-research", "iconUrl": null, "installs": 6, "name": "Source Research", "ownerName": "myvyang", "score": 87500, "slug": "source-research", "source": "clawhub", "stars": 0, "tags": ["information", "research"], "updated_at": 1776696169937, "version": "1.0.0"}, {"category": "ai-intelligence", "created_at": 1773940009891, "description": "ClawJob is an agent task and capability platform—agents accept tasks to improve, a playground for agent reinforcement learning. Trained skills can be publish...", "description_zh": "", "downloads": 84, "homepage": "https://clawhub.ai/jackychen129/clawjob-platform", "iconUrl": null, "installs": 12, "name": "ClawJob", "ownerName": "jackychen129", "score": 86597.9381443299, "slug": "clawjob-platform", "source": "clawhub", "stars": 0, "tags": null, "updated_at": 1776696169828, "version": "1.0.0"}, {"category": "data-analysis", "created_at": 1773939345226, "description": "ETH Mid-Candle Scalper — 77%+ win rate on Polymarket ETH 15-minute markets. Enters mid-candle (2–12 min remaining) when ETH intracandle momentum is confirmed...", "description_zh": "", "downloads": 84, "homepage": "https://clawhub.ai/djdyll/polymarket-eth-midcandle", "iconUrl": null, "installs": 12, "name": "Polymarket Eth Midcandle", "ownerName": "djdyll", "score": 86597.9381443299, "slug": "polymarket-eth-midcandle", "source": "clawhub", "stars": 0, "tags": null, "updated_at": 1776696169789, "version": "1.0.2"}, {"category": "content-creation", "created_at": 1773947550296, "description": "Use when generating a complete WeChat article from a topic, with optional source research, evidence tracking, illustration, HTML conversion, and draft-box pu...", "description_zh": "", "downloads": 84, "homepage": "https://clawhub.ai/zhylq/zhy-wechat-writing", "iconUrl": null, "installs": 14, "name": "Zhy Wechat Writing", "ownerName": "zhylq", "score": 86597.9381443299, "slug": "zhy-wechat-writing", "source": "clawhub", "stars": 0, "tags": null, "updated_at": 1776696169788, "version": "0.1.0"}, {"category": "productivity", "created_at": 1773935949491, "description": "Use this skill when the task is to merge PDFs from a nested directory tree into a single PDF with hierarchical bookmarks by invoking the external `nestedpdfm...", "description_zh": "", "downloads": 84, "homepage": "https://clawhub.ai/lyutenant/nested-pdf-merger", "iconUrl": null, "installs": 5, "name": "Nested PDF Merger", "ownerName": "lyutenant", "score": 86597.9381443299, "slug": "nested-pdf-merger", "source": "clawhub", "stars": 0, "tags": null, "updated_at": 1776696169784, "version": "1.0.0"}, {"category": "communication-collaboration", "created_at": 1773931098999, "description": "Findymail integration. Manage Persons, Organizations, Leads, Deals, Pipelines, Activities and more. Use when the user wants to interact with Findymail data.", "description_zh": "", "downloads": 84, "homepage": "https://clawhub.ai/membranedev/findymail", "iconUrl": null, "installs": 3, "name": "Findymail", "ownerName": "membranedev", "score": 87500, "slug": "findymail", "source": "clawhub", "stars": 0, "tags": null, "updated_at": 1776696169783, "version": "1.0.0"}, {"category": "", "created_at": 1774792868947, "description": "Use for RAGFlow dataset tasks: create, list, inspect, update, or delete datasets; upload, list, update, or delete documents; start or stop parsing; check par...", "description_zh": "", "downloads": 84, "homepage": "https://clawhub.ai/yingfeng/ragflow-skill", "iconUrl": null, "installs": 14, "name": "RAGFlow", "ownerName": "yingfeng", "score": 87500, "slug": "ragflow-skill", "source": "clawhub", "stars": 0, "tags": null, "updated_at": 1776696169752, "version": "1.0.8"}, {"category": "productivity", "created_at": 1773928375683, "description": "Automatically triages X/Twitter bookmarks into structured knowledge cards and posts them to a Discord channel (#knowledge-intake or similar). Captures tweet...", "description_zh": "", "downloads": 84, "homepage": "https://clawhub.ai/jeremyknows/x-bookmark-triage", "iconUrl": null, "installs": 4, "name": "X Bookmark Triage", "ownerName": "jeremyknows", "score": 87500, "slug": "x-bookmark-triage", "source": "clawhub", "stars": 0, "tags": null, "updated_at": 1776696169750, "version": "1.0.0"}, {"category": "security-compliance", "created_at": 1773434703862, "description": "Analyze smart contracts, token mechanics, permissions, fee flows, upgradeability, market risks, and likely attack surfaces for onchain projects. Use when rev...", "description_zh": "", "downloads": 84, "homepage": "https://clawhub.ai/0xrowan/onchain-contract-token-analy", "iconUrl": null, "installs": 0, "name": "onchain contract token analysis", "ownerName": "0xrowan", "score": 87500, "slug": "onchain-contract-token-analy", "source": "clawhub", "stars": 0, "tags": null, "updated_at": 1776696169741, "version": "1.0.0"}, {"category": "data-analysis", "created_at": 1773935137827, "description": "Analyze text for emotional tone, opinion polarity, subjectivity, intensity, and specific emotions. Returns per-sentence breakdown with sarcasm detection, urg...", "description_zh": "", "downloads": 84, "homepage": "https://clawhub.ai/cyberforexblockchain/nexus-sentiment-analysis", "iconUrl": null, "installs": 8, "name": "NEXUS Sentiment Intelligence", "ownerName": "cyberforexblockchain", "score": 87500, "slug": "nexus-sentiment-analysis", "source": "clawhub", "stars": 0, "tags": ["ai", "cardano"], "updated_at": 1776696169740, "version": "1.0.2"}, {"category": "productivity", "created_at": 1773928679270, "description": "Verify a completed task against your APort passport's deliverable contract before marking it done. Enforces acceptance criteria, summary requirements, test s...", "description_zh": "", "downloads": 84, "homepage": "https://clawhub.ai/uchibeke/aport-complete", "iconUrl": null, "installs": 4, "name": "Aport Complete", "ownerName": "uchibeke", "score": 87500, "slug": "aport-complete", "source": "clawhub", "stars": 0, "tags": null, "updated_at": 1776696169702, "version": "0.1.0"}, {"category": "data-analysis", "created_at": 1773934337456, "description": "Skill for using the PlyDB CLI to perform SQL analysis of connected data sources. Use for SQL queries across heterogeneous databases and files such as Postgre...", "description_zh": "", "downloads": 84, "homepage": "https://clawhub.ai/ypt/plydb", "iconUrl": null, "installs": 7, "name": "plydb", "ownerName": "ypt", "score": 86597.9381443299, "slug": "plydb", "source": "clawhub", "stars": 0, "tags": null, "updated_at": 1776696169662, "version": "1.0.0"}, {"category": "productivity", "created_at": 1773935652788, "description": "Comprehensive vehicle sourcing guide for international buyers – provides detailed information about China's passenger car, commercial vehicle, motorcycle, an...", "description_zh": "", "downloads": 84, "homepage": "https://clawhub.ai/1970168137/china-vehicle-sourcing", "iconUrl": null, "installs": 6, "name": "China Vehicle Sourcing", "ownerName": "1970168137", "score": 86597.9381443299, "slug": "china-vehicle-sourcing", "source": "clawhub", "stars": 0, "tags": null, "updated_at": 1776696169644, "version": "1.0.0"}, {"category": "", "created_at": 1774879948867, "description": "Analyze Chinese stock prices (A-shares, HK stocks) and provide investment recommendations. Use when the user asks about stock analysis for Chinese companies,...", "description_zh": "", "downloads": 84, "homepage": "https://clawhub.ai/make453/china-stock-analysis-bak2", "iconUrl": null, "installs": 27, "name": "China Stock Analysis.Bak2", "ownerName": "make453", "score": 86597.9381443299, "slug": "china-stock-analysis-bak2", "source": "clawhub", "stars": 0, "tags": null, "updated_at": 1776696169608, "version": "1.0.0"}, {"category": "security-compliance", "created_at": 1773938575132, "description": "Prevents AI from accidentally leaking user privacy in all types of outputs. Automatically detects and filters sensitive information (ID cards, bank cards, ph...", "description_zh": "", "downloads": 83, "homepage": "https://clawhub.ai/andreqingyuwu/ai-safety-guard", "iconUrl": null, "installs": 6, "name": "AI Safety Guard", "ownerName": "andreqingyuwu", "score": 92481.2030075188, "slug": "ai-safety-guard", "source": "clawhub", "stars": 2, "tags": null, "updated_at": 1776694969533, "version": "1.0.2"}, {"category": "productivity", "created_at": 1773932056123, "description": "Read and change Buy Me a Pie lists. Unofficial third-party skill. No affiliation with Buy Me a Pie. Use for lists, items, purchased state, sharing, unique it...", "description_zh": "", "downloads": 83, "homepage": "https://clawhub.ai/powtac/buy-me-a-pie", "iconUrl": null, "installs": 5, "name": "Buy Me a Pie", "ownerName": "powtac", "score": 100000, "slug": "buy-me-a-pie", "source": "clawhub", "stars": 1, "tags": ["buy-me-a-pie", "buymeapie", "shopping", "shoppinglist", "todo"], "updated_at": 1776695684094, "version": "1.0.0"}, {"category": "ai-intelligence", "created_at": 1773942558298, "description": "Three-step pipeline: Deep Understanding (intent/emotion/missing info), Precise Answer, Divergent Guidance. When the user is a beginner or the question is con...", "description_zh": "", "downloads": 83, "homepage": "https://clawhub.ai/sqfcyily/dialogue-next-steps", "iconUrl": null, "installs": 7, "name": "Dialogue Next Steps", "ownerName": "sqfcyily", "score": 91964.28571428571, "slug": "dialogue-next-steps", "source": "clawhub", "stars": 1, "tags": null, "updated_at": 1776695570381, "version": "1.0.0"}]}