{"page": 409, "total_pages": 522, "total": 26073, "skills": [{"category": "", "created_at": 1774952270997, "description": "A general-purpose learning tutor skill for any domain. Use Socratic teaching to guide the user through concepts, track their evolving knowledge map (mastered...", "description_zh": "", "downloads": 83, "homepage": "https://clawhub.ai/vaintwyt/learning-tutor", "iconUrl": null, "installs": 4, "name": "Learning Tutor", "ownerName": "vaintwyt", "score": 1812.6228434155928, "slug": "learning-tutor", "source": "clawhub", "stars": 0, "tags": null, "updated_at": 1776769150321, "version": "0.1.0"}, {"category": "", "created_at": 1774904975691, "description": "Swagger reference tool. Use when working with swagger in devtools contexts.", "description_zh": "", "downloads": 83, "homepage": "https://clawhub.ai/ckchzh/swagger", "iconUrl": null, "installs": 3, "name": "Swagger", "ownerName": "ckchzh", "score": 462.5501560410165, "slug": "swagger", "source": "clawhub", "stars": 0, "tags": null, "updated_at": 1776769150051, "version": "1.0.0"}, {"category": "", "created_at": 1774867910421, "description": "Text-based Texas Hold'em poker game with auto AI players for OpenClaw", "description_zh": "", "downloads": 83, "homepage": "https://clawhub.ai/dream-pig/holdem-poker", "iconUrl": null, "installs": 9, "name": "德州扑克", "ownerName": "dream-pig", "score": 3662.8420123565757, "slug": "holdem-poker", "source": "clawhub", "stars": 0, "tags": null, "updated_at": 1776764990564, "version": "1.0.1"}, {"category": "content-creation", "created_at": 1773937050772, "description": "Run a self-contained Chinese and international AI news workflow inside the current workspace. Use when the user wants to collect RSS news, filter domestic an...", "description_zh": "", "downloads": 83, "homepage": "https://clawhub.ai/nighmat1220/ai-news-pipeline", "iconUrl": null, "installs": 9, "name": "ai-news-pipeline-new", "ownerName": "nighmat1220", "score": 4525.627044711015, "slug": "ai-news-pipeline", "source": "clawhub", "stars": 0, "tags": ["ai", "briefing", "crawler", "excel", "news", "rss", "word"], "updated_at": 1776764950172, "version": "1.0.1"}, {"category": "", "created_at": 1774898767946, "description": "Proficient in problem solving, programming (Python, JavaScript, C++), web development, data analysis, and project management with a focus on continuous learn...", "description_zh": "", "downloads": 83, "homepage": "https://clawhub.ai/618dt/skill-0232", "iconUrl": null, "installs": 13, "name": "my_skill", "ownerName": "618dt", "score": 6655.974338412189, "slug": "skill-0232", "source": "clawhub", "stars": 0, "tags": null, "updated_at": 1776760282274, "version": "1.0.0"}, {"category": "security-compliance", "created_at": 1773954566079, "description": "Iteratively scans, analyzes, fixes, and verifies Solidity contracts using Hardhat and Slither until no critical, high, or medium security bugs remain or max...", "description_zh": "", "downloads": 83, "homepage": "https://clawhub.ai/jengajojo/auto-bug-finder", "iconUrl": null, "installs": 7, "name": "Auto Bug Finder", "ownerName": "jengajojo", "score": 32677.165354330707, "slug": "auto-bug-finder", "source": "clawhub", "stars": 0, "tags": null, "updated_at": 1776759831744, "version": "1.0.0"}, {"category": "developer-tools", "created_at": 1773954171914, "description": "Monitors OpenClaw Gateway on macOS, auto-restarts on failure with 180s cooldown and max 5 restarts/hour to prevent restart loops.", "description_zh": "", "downloads": 83, "homepage": "https://clawhub.ai/zhilshi/openclaw-health-guardian", "iconUrl": null, "installs": 9, "name": "OpenClaw Health Guardian", "ownerName": "zhilshi", "score": 32677.165354330707, "slug": "openclaw-health-guardian", "source": "clawhub", "stars": 0, "tags": ["gateway", "health", "monitoring", "openclaw", "stable"], "updated_at": 1776759831737, "version": "1.0.1"}, {"category": "security-compliance", "created_at": 1773948891463, "description": "Runtime security guardian for OpenClaw agents. Use this skill whenever the user mentions security, skill safety, prompt injection, malware, suspicious behavi...", "description_zh": "", "downloads": 83, "homepage": "https://clawhub.ai/spaceman420urdog-afk/runtime-sentinel", "iconUrl": null, "installs": 3, "name": "Sentinel- OpenClaw Runtime Security", "ownerName": "spaceman420urdog-afk", "score": 6504.702194357367, "slug": "runtime-sentinel", "source": "clawhub", "stars": 0, "tags": null, "updated_at": 1776759831719, "version": "1.0.0"}, {"category": "", "created_at": 1774895984278, "description": "Custom automation services using Python, APIs, and tools like Zapier to streamline tasks such as social media, email, data entry, and lead management.", "description_zh": "", "downloads": 83, "homepage": "https://clawhub.ai/yongtaop1-sys/automation-service-seller", "iconUrl": null, "installs": 2, "name": "Automation Service Seller", "ownerName": "yongtaop1-sys", "score": 6499.608457321849, "slug": "automation-service-seller", "source": "clawhub", "stars": 0, "tags": null, "updated_at": 1776759831708, "version": "1.0.0"}, {"category": "ai-intelligence", "created_at": 1773958195859, "description": "Access and use seven kling language models on vwu.ai platform with OpenAI-compatible chat completions via API key authentication.", "description_zh": "", "downloads": 83, "homepage": "https://clawhub.ai/a3273283/vwu-kling", "iconUrl": null, "installs": 9, "name": "vwu.ai kling Models", "ownerName": "a3273283", "score": 6499.608457321849, "slug": "vwu-kling", "source": "clawhub", "stars": 0, "tags": ["ai", "kling", "llm", "vwu"], "updated_at": 1776759831702, "version": "1.0.0"}, {"category": "", "created_at": 1774853857980, "description": "Transform photos and images into Studio Ghibli-style artwork using AI via Media.io OpenAPI. Applies the iconic hand-drawn, painterly aesthetic of Ghibli film...", "description_zh": "", "downloads": 83, "homepage": "https://clawhub.ai/wondershare-boop/mediaio-ghibli-image-filter", "iconUrl": null, "installs": 9, "name": "Studio Ghibli Image Filter", "ownerName": "wondershare-boop", "score": 6504.702194357367, "slug": "mediaio-ghibli-image-filter", "source": "clawhub", "stars": 0, "tags": null, "updated_at": 1776759831662, "version": "1.0.3"}, {"category": "security-compliance", "created_at": 1773948838053, "description": "Automation skill for Openclaw Pii Anonymizer Latest.", "description_zh": "", "downloads": 83, "homepage": "https://clawhub.ai/solmas/openclaw-pii-anonymizer-latest", "iconUrl": null, "installs": 2, "name": "Openclaw Pii Anonymizer Latest", "ownerName": "solmas", "score": 6504.702194357367, "slug": "openclaw-pii-anonymizer-latest", "source": "clawhub", "stars": 0, "tags": null, "updated_at": 1776759831641, "version": "1.0.2"}, {"category": "developer-tools", "created_at": 1773953356915, "description": "Design and model ERC20 tokenomics with vesting schedules, allocation tables, Uniswap liquidity math, and investor documentation for new token launches.", "description_zh": "", "downloads": 83, "homepage": "https://clawhub.ai/samledger67-dotcom/erc20-tokenomics-builder", "iconUrl": null, "installs": 3, "name": "test", "ownerName": "samledger67-dotcom", "score": 6494.52269170579, "slug": "erc20-tokenomics-builder", "source": "clawhub", "stars": 0, "tags": null, "updated_at": 1776759831604, "version": "0.0.0-probe"}, {"category": "", "created_at": 1774873535524, "description": "Amazon PPC specialist agent. Audits Sponsored Products campaigns, finds wasted spend, surfaces high-converting search terms, suggests bid adjustments, and bu...", "description_zh": "", "downloads": 83, "homepage": "https://clawhub.ai/mguozhen/amazon-ppc-analyzer", "iconUrl": null, "installs": 20, "name": "Amazon Ppc Analyzer", "ownerName": "mguozhen", "score": 5428.384565075212, "slug": "amazon-ppc-analyzer", "source": "clawhub", "stars": 0, "tags": null, "updated_at": 1776757733310, "version": "1.0.2"}, {"category": "security-compliance", "created_at": 1773935165595, "description": "오픈소스 취약점 분석 스킬. 사용자가 오픈소스 패키지 이름과 사용 중인 버전을 입력하면, NVD(NIST), OSV.dev(Google), GitHub Advisory 3개 데이터 소스에서 CVE 취약점을 조회하여 최신 버전 정보와 함께 보안 리포트를 생성한다. 마크다운, Exce...", "description_zh": "", "downloads": 83, "homepage": "https://clawhub.ai/rebugui/open-cve-scanner-repo", "iconUrl": null, "installs": 4, "name": "Open Cve Scanner Repo", "ownerName": "rebugui", "score": 95402.2988505747, "slug": "open-cve-scanner-repo", "source": "clawhub", "stars": 0, "tags": null, "updated_at": 1776744169978, "version": "1.0.1"}, {"category": "ai-intelligence", "created_at": 1773960221151, "description": "Use GLM-4.7V's multimodal grounding capability to detect and locate objects/text in images. Activate when user asks to find, locate, detect, or ground specif...", "description_zh": "", "downloads": 83, "homepage": "https://clawhub.ai/qijimrc/glm-grounding", "iconUrl": null, "installs": 19, "name": "glm-grounding", "ownerName": "qijimrc", "score": 86458.33333333334, "slug": "glm-grounding", "source": "clawhub", "stars": 0, "tags": null, "updated_at": 1776734269811, "version": "1.0.0"}, {"category": "productivity", "created_at": 1773953259822, "description": "Your personal Currency assistant. Track, analyze, and manage all your travel planning needs from the command line.", "description_zh": "", "downloads": 83, "homepage": "https://clawhub.ai/ckchzh/currency", "iconUrl": null, "installs": 3, "name": "Currency", "ownerName": "ckchzh", "score": 85567.01030927834, "slug": "currency", "source": "clawhub", "stars": 0, "tags": null, "updated_at": 1776733871956, "version": "2.0.0"}, {"category": "ai-intelligence", "created_at": 1773943566031, "description": "Your AI think tank. Five domain-expert Fellows debate any idea, decision, or creative work. Three rounds. One verdict that's actually useful.", "description_zh": "", "downloads": 83, "homepage": "https://clawhub.ai/windseeker1111/flowcouncil", "iconUrl": null, "installs": 8, "name": "FlowCouncil — AI Think Tank With 5 Expert Fellows", "ownerName": "windseeker1111", "score": 100000, "slug": "flowcouncil", "source": "clawhub", "stars": 0, "tags": ["ai", "debate", "strategy", "think-tank"], "updated_at": 1776696470207, "version": "2.1.0"}, {"category": "productivity", "created_at": 1773937975474, "description": "Take control of Battery with this home management toolkit. Clean interface, local storage, zero configuration.", "description_zh": "", "downloads": 83, "homepage": "https://clawhub.ai/bytesagain/battery", "iconUrl": null, "installs": 2, "name": "Battery", "ownerName": "bytesagain", "score": 100000, "slug": "battery", "source": "clawhub", "stars": 0, "tags": null, "updated_at": 1776696355494, "version": "1.0.2"}, {"category": "developer-tools", "created_at": 1773945465957, "description": "Decode - command-line tool for everyday use", "description_zh": "", "downloads": 83, "homepage": "https://clawhub.ai/bytesagain/decode", "iconUrl": null, "installs": 6, "name": "Decode", "ownerName": "bytesagain", "score": 96511.62790697675, "slug": "decode", "source": "clawhub", "stars": 0, "tags": null, "updated_at": 1776696170252, "version": "1.0.2"}, {"category": "communication-collaboration", "created_at": 1773932599983, "description": "Read Feishu work-report data through the Report v1 API and turn it into daily or weekly summaries. Use when Codex needs to work with `oa.feishu.cn/report/......", "description_zh": "", "downloads": 83, "homepage": "https://clawhub.ai/taype/feishu-report-summary", "iconUrl": null, "installs": 4, "name": "Feishu Report Summary", "ownerName": "taype", "score": 86458.33333333334, "slug": "feishu-report-summary", "source": "clawhub", "stars": 0, "tags": null, "updated_at": 1776696170222, "version": "1.0.0"}, {"category": "communication-collaboration", "created_at": 1773933808254, "description": "Use in Feishu chats when the user wants to inspect, stop, or clean up background tasks spawned from the current chat. Uses subagents and session tools to lis...", "description_zh": "", "downloads": 83, "homepage": "https://clawhub.ai/wd041216-bit/feishu-task-control", "iconUrl": null, "installs": 5, "name": "Feishu Task Control", "ownerName": "wd041216-bit", "score": 86458.33333333334, "slug": "feishu-task-control", "source": "clawhub", "stars": 0, "tags": null, "updated_at": 1776696170195, "version": "1.0.1"}, {"category": "developer-tools", "created_at": 1773434175142, "description": "Connect to the WHOOP Developer Platform via official OAuth (authorization code flow), store and refresh tokens, and fetch WHOOP v2 data (recovery, sleep, cyc...", "description_zh": "", "downloads": 83, "homepage": "https://clawhub.ai/gavinchengcool/openclaw-slug", "iconUrl": null, "installs": 7, "name": "WHOOP (Official API)", "ownerName": "gavinchengcool", "score": 86458.33333333334, "slug": "openclaw-slug", "source": "clawhub", "stars": 0, "tags": null, "updated_at": 1776696170181, "version": "0.1.0"}, {"category": "developer-tools", "created_at": 1773947718957, "description": "You MUST use this for gathering contexts before any work. This is a Knowledge management for AI agents. Use `brv` to store and retrieve project patterns, dec...", "description_zh": "", "downloads": 83, "homepage": "https://clawhub.ai/qxbcn/byterover-2-0-0", "iconUrl": null, "installs": 8, "name": "Byterover 2.0.0", "ownerName": "qxbcn", "score": 86458.33333333334, "slug": "byterover-2-0-0", "source": "clawhub", "stars": 0, "tags": null, "updated_at": 1776696169973, "version": "1.0.0"}, {"category": "developer-tools", "created_at": 1773936534383, "description": "GorillaStack integration. Manage Organizations. Use when the user wants to interact with GorillaStack data.", "description_zh": "", "downloads": 83, "homepage": "https://clawhub.ai/membranedev/gorillastack", "iconUrl": null, "installs": 9, "name": "Gorillastack", "ownerName": "membranedev", "score": 85567.01030927834, "slug": "gorillastack", "source": "clawhub", "stars": 0, "tags": null, "updated_at": 1776696169877, "version": "1.0.0"}, {"category": "communication-collaboration", "created_at": 1773435083722, "description": "Find Gmail messages with a specific label and forward them to another address.", "description_zh": "", "downloads": 83, "homepage": "https://clawhub.ai/googleworkspace-bot/recipe-forward-labeled-emails", "iconUrl": null, "installs": 6, "name": "Recipe Forward Labeled Emails", "ownerName": "googleworkspace-bot", "score": 85567.01030927834, "slug": "recipe-forward-labeled-emails", "source": "clawhub", "stars": 0, "tags": null, "updated_at": 1776696169869, "version": "1.0.0"}, {"category": "productivity", "created_at": 1773936396462, "description": "Monitor blogs and RSS/Atom feeds for updates using the blogwatcher CLI.", "description_zh": "", "downloads": 83, "homepage": "https://clawhub.ai/memoryf/blogwatcher-moss", "iconUrl": null, "installs": 7, "name": "Blogwatcher Moss", "ownerName": "memoryf", "score": 85567.01030927834, "slug": "blogwatcher-moss", "source": "clawhub", "stars": 0, "tags": null, "updated_at": 1776696169846, "version": "1.0.0"}, {"category": "developer-tools", "created_at": 1773944843123, "description": "You are an expert in Oracle SQL. Search the SP (Stored Procedure) name from the chatbox in the SQL package and analyze. LLM base model temperature should be...", "description_zh": "", "downloads": 83, "homepage": "https://clawhub.ai/johnsrun/plsql-package-analysis", "iconUrl": null, "installs": 12, "name": "SP Analysis in PL/SQL Package", "ownerName": "johnsrun", "score": 85567.01030927834, "slug": "plsql-package-analysis", "source": "clawhub", "stars": 0, "tags": null, "updated_at": 1776696169838, "version": "1.0.0"}, {"category": "ai-intelligence", "created_at": 1773954350034, "description": "Generate images with Model Studio DashScope SDK using Qwen Image generation models (qwen-image-max, qwen-image-plus-2026-01-09). Use when implementing or doc...", "description_zh": "", "downloads": 83, "homepage": "https://clawhub.ai/fresh3/taizi-alicloud-ai-image", "iconUrl": null, "installs": 24, "name": "Taizi Alicloud Ai Image", "ownerName": "fresh3", "score": 85567.01030927834, "slug": "taizi-alicloud-ai-image", "source": "clawhub", "stars": 0, "tags": null, "updated_at": 1776696169799, "version": "1.0.0"}, {"category": "ai-intelligence", "created_at": 1773940841889, "description": "Brain-inspired memory system with dual storage: Chronicle (temporal SQLite+MD) and Monograph (important topics with rich metadata). User-configurable via USE...", "description_zh": "", "downloads": 83, "homepage": "https://clawhub.ai/gabe-luv-nancy/chronicle-monograph-memory", "iconUrl": null, "installs": 8, "name": "hippocampus", "ownerName": "gabe-luv-nancy", "score": 86458.33333333334, "slug": "chronicle-monograph-memory", "source": "clawhub", "stars": 0, "tags": null, "updated_at": 1776696169773, "version": "1.0.0"}, {"category": "communication-collaboration", "created_at": 1773934436109, "description": "Create a Google Docs post-mortem, schedule a Google Calendar review, and notify via Chat.", "description_zh": "", "downloads": 83, "homepage": "https://clawhub.ai/googleworkspace-bot/recipe-post-mortem-setup", "iconUrl": null, "installs": 6, "name": "Recipe Post Mortem Setup", "ownerName": "googleworkspace-bot", "score": 86458.33333333334, "slug": "recipe-post-mortem-setup", "source": "clawhub", "stars": 0, "tags": null, "updated_at": 1776696169765, "version": "1.0.10"}, {"category": "productivity", "created_at": 1773924131796, "description": "Beebole integration. Manage Users, Organizations, Filters. Use when the user wants to interact with Beebole data.", "description_zh": "", "downloads": 83, "homepage": "https://clawhub.ai/membranedev/beebole", "iconUrl": null, "installs": 4, "name": "Beebole", "ownerName": "membranedev", "score": 86458.33333333334, "slug": "beebole", "source": "clawhub", "stars": 0, "tags": null, "updated_at": 1776696169723, "version": "1.0.0"}, {"category": "developer-tools", "created_at": 1773075314492, "description": "USE THIS for GPT models, OpenAI models. Access GPT-5, GPT-5.1, GPT-5-mini, GPT-5-nano, o1, o3-mini, o4-mini, GPT-4o, GPT-4o-mini, GPT-4.1. No OpenAI account...", "description_zh": "", "downloads": 83, "homepage": "https://clawhub.ai/xiaoyinqu/gpt-api-gateway", "iconUrl": null, "installs": 19, "name": "GPT API Gateway", "ownerName": "xiaoyinqu", "score": 86458.33333333334, "slug": "gpt-api-gateway", "source": "clawhub", "stars": 0, "tags": null, "updated_at": 1776696169697, "version": "1.0.0"}, {"category": "data-analysis", "created_at": 1773957403379, "description": "Trades high-volatility Bitcoin weekend milestone markets with precise threshold-based resolution using Binance BTCUSDT as primary source.", "description_zh": "", "downloads": 83, "homepage": "https://clawhub.ai/diagnostikon/polymarket-btc-weekend-volatility-trader", "iconUrl": null, "installs": 24, "name": "BTC Weekend Volatility Trader", "ownerName": "diagnostikon", "score": 85567.01030927834, "slug": "polymarket-btc-weekend-volatility-trader", "source": "clawhub", "stars": 0, "tags": null, "updated_at": 1776696169665, "version": "1.0.0"}, {"category": "security-compliance", "created_at": 1773926487053, "description": "Security review and risk auditing for OpenClaw skills and deployments. Inspect third-party skills, dangerous instructions, credential requests, privilege ris...", "description_zh": "", "downloads": 83, "homepage": "https://clawhub.ai/duclawbot/opsec", "iconUrl": null, "installs": 0, "name": "clawguard", "ownerName": "duclawbot", "score": 85567.01030927834, "slug": "opsec", "source": "clawhub", "stars": 0, "tags": null, "updated_at": 1776696169658, "version": "1.0.2"}, {"category": "developer-tools", "created_at": 1773947402035, "description": "Create new skills, modify and improve existing skills, and measure skill performance. Use when users want to create a skill from scratch, edit, or optimize a...", "description_zh": "", "downloads": 83, "homepage": "https://clawhub.ai/limoxt/rex-skill-creator", "iconUrl": null, "installs": 16, "name": "Skill Creator", "ownerName": "limoxt", "score": 83838.38383838383, "slug": "rex-skill-creator", "source": "clawhub", "stars": 0, "tags": null, "updated_at": 1776696169542, "version": "1.0.0"}, {"category": "content-creation", "created_at": 1773951455366, "description": "Use when the user wants to create memes through the hosted Memesio MCP server, including meme template search, caption rendering, upload captioning, agent ac...", "description_zh": "", "downloads": 82, "homepage": "https://clawhub.ai/heyalerio/memesio-meme-generator", "iconUrl": null, "installs": 0, "name": "Meme Generator", "ownerName": "heyalerio", "score": 89473.68421052632, "slug": "memesio-meme-generator", "source": "clawhub", "stars": 1, "tags": null, "updated_at": 1776759797965, "version": "1.0.2"}, {"category": "", "created_at": 1774889993056, "description": "Golang CLI application development. Use when building, modifying, or reviewing a Go CLI tool — especially for command structure, flag handling, configuration...", "description_zh": "", "downloads": 82, "homepage": "https://clawhub.ai/samber/golang-cli", "iconUrl": null, "installs": 4, "name": "Golang Cli", "ownerName": "samber", "score": 1078.5216361962384, "slug": "golang-cli", "source": "clawhub", "stars": 0, "tags": null, "updated_at": 1776762290305, "version": "1.1.1"}, {"category": "", "created_at": 1774853299516, "description": "Amazon listing builder and optimizer for sellers. Two modes: (A) Create — build keyword-optimized listings from scratch using keyword lists + product charact...", "description_zh": "", "downloads": 82, "homepage": "https://clawhub.ai/phheng/amazon-listing-optimization", "iconUrl": null, "installs": 25, "name": "Amazon Listing Optimization", "ownerName": "phheng", "score": 6513.105639396346, "slug": "amazon-listing-optimization", "source": "clawhub", "stars": 0, "tags": null, "updated_at": 1776760097779, "version": "0.1.0"}, {"category": "content-creation", "created_at": 1773945001508, "description": "AI-powered assistant for creating, scheduling, and analyzing social media content with platform-specific optimization and hashtag research.", "description_zh": "", "downloads": 82, "homepage": "https://clawhub.ai/hughtan93-dev/social-media-manager-xiaoxing", "iconUrl": null, "installs": 0, "name": "Social Media Manager", "ownerName": "hughtan93-dev", "score": 6421.299921691465, "slug": "social-media-manager-xiaoxing", "source": "clawhub", "stars": 0, "tags": null, "updated_at": 1776759831697, "version": "1.0.0"}, {"category": "productivity", "created_at": 1773433252658, "description": "Motion integration. Manage Workspaces. Use when the user wants to interact with Motion data.", "description_zh": "", "downloads": 82, "homepage": "https://clawhub.ai/gora050/motion-integration", "iconUrl": null, "installs": 1, "name": "Motion", "ownerName": "gora050", "score": 84536.0824742268, "slug": "motion-integration", "source": "clawhub", "stars": 0, "tags": null, "updated_at": 1776736844607, "version": "1.0.0"}, {"category": "developer-tools", "created_at": 1773067584203, "description": "USE THIS for Gemini models, Google AI. Access Gemini 3 Pro, Gemini 2.5 Pro, Gemini 2.5 Flash, Gemini 2.5 Flash Lite. 1 million token context window. No Googl...", "description_zh": "", "downloads": 82, "homepage": "https://clawhub.ai/xiaoyinqu/gemini-api-gateway", "iconUrl": null, "installs": 28, "name": "Gemini API Gateway", "ownerName": "xiaoyinqu", "score": 73214.28571428571, "slug": "gemini-api-gateway", "source": "clawhub", "stars": 0, "tags": null, "updated_at": 1776702355494, "version": "1.0.0"}, {"category": "ai-intelligence", "created_at": 1773950357912, "description": "API-first email platform designed for AI agents. Create and manage dedicated email inboxes, send and receive emails programmatically, and handle email-based...", "description_zh": "", "downloads": 82, "homepage": "https://clawhub.ai/davidsteelerose/k2ljl-agentmail", "iconUrl": null, "installs": 9, "name": "AgentMail Email", "ownerName": "davidsteelerose", "score": 100000, "slug": "k2ljl-agentmail", "source": "clawhub", "stars": 0, "tags": null, "updated_at": 1776696584361, "version": "1.1.2"}, {"category": "developer-tools", "created_at": 1773936503761, "description": "Track follower growth, detect unfollows, and analyze engagement trends. Use when monitoring counts, spotting changes, or reviewing audience demographics.", "description_zh": "", "downloads": 82, "homepage": "https://clawhub.ai/bytesagain1/followers", "iconUrl": null, "installs": 7, "name": "Followers", "ownerName": "bytesagain1", "score": 100000, "slug": "followers", "source": "clawhub", "stars": 0, "tags": null, "updated_at": 1776696469884, "version": "2.0.1"}, {"category": "content-creation", "created_at": 1773934823619, "description": "CraftMyPDF integration. Manage PDFDocuments, Users, Workspaces. Use when the user wants to interact with CraftMyPDF data.", "description_zh": "", "downloads": 82, "homepage": "https://clawhub.ai/membranedev/craftmypdf", "iconUrl": null, "installs": 4, "name": "Craftmypdf", "ownerName": "membranedev", "score": 100000, "slug": "craftmypdf", "source": "clawhub", "stars": 0, "tags": null, "updated_at": 1776696284502, "version": "1.0.0"}, {"category": "developer-tools", "created_at": 1773945199596, "description": "Activate this skill whenever a user asks to build, design, or improve a command-line interface (CLI) tool. This includes: building CLIs in Node.js (Commander...", "description_zh": "", "downloads": 82, "homepage": "https://clawhub.ai/royhk920/ai-cli-builder", "iconUrl": null, "installs": 9, "name": "CLI builder", "ownerName": "royhk920", "score": 100000, "slug": "ai-cli-builder", "source": "clawhub", "stars": 0, "tags": null, "updated_at": 1776696284485, "version": "1.0.0"}, {"category": "developer-tools", "created_at": 1773091399452, "description": "Haocun is a famous dancer, actress with greate archievements both in Films and Dancing. She is living in a dream of Clawra. Clawra is the closest assistant f...", "description_zh": "", "downloads": 82, "homepage": "https://clawhub.ai/qidu/dream-dance-of-clawra", "iconUrl": null, "installs": 0, "name": "Dream dance of Clawra", "ownerName": "qidu", "score": 83673.4693877551, "slug": "dream-dance-of-clawra", "source": "clawhub", "stars": 0, "tags": null, "updated_at": 1776696284317, "version": "1.0.6"}, {"category": "content-creation", "created_at": 1773435006187, "description": "Compress academic abstracts to meet strict word limits while preserving key information, scientific accuracy, and readability. Supports multiple compression...", "description_zh": "", "downloads": 82, "homepage": "https://clawhub.ai/aipoch-ai/abstract-trimmer", "iconUrl": null, "installs": 4, "name": "Abstract Trimmer", "ownerName": "aipoch-ai", "score": 83673.4693877551, "slug": "abstract-trimmer", "source": "clawhub", "stars": 0, "tags": null, "updated_at": 1776696284284, "version": "0.1.0"}, {"category": "content-creation", "created_at": 1773928288790, "description": "X2C Distribution and Wallet API — publish video to X2C platform, manage assets (balance, claim X2C, swap to USDC, withdraw, transactions).", "description_zh": "", "downloads": 82, "homepage": "https://clawhub.ai/patches429/storyclaw-x2c-publish", "iconUrl": null, "installs": 3, "name": "Storyclaw X2c Publish", "ownerName": "patches429", "score": 83673.4693877551, "slug": "storyclaw-x2c-publish", "source": "clawhub", "stars": 0, "tags": null, "updated_at": 1776696284267, "version": "0.1.0"}, {"category": "communication-collaboration", "created_at": 1773950419936, "description": "Connect to the EvoMap collaborative evolution marketplace. Publish Gene+Capsule bundles, fetch promoted assets, claim bounty tasks, and earn credits via the...", "description_zh": "", "downloads": 82, "homepage": "https://clawhub.ai/muguozi1/muguozi1-openclaw-evomap", "iconUrl": null, "installs": 23, "name": "Muguozi1 Openclaw Evomap", "ownerName": "muguozi1", "score": 83673.4693877551, "slug": "muguozi1-openclaw-evomap", "source": "clawhub", "stars": 0, "tags": null, "updated_at": 1776696284261, "version": "1.0.0"}]}