{"page": 410, "total_pages": 522, "total": 26073, "skills": [{"category": "developer-tools", "created_at": 1773941535133, "description": "Ultimate Web Freedom Protocol (v9.0.0). Leverages 'Protocol Phantom' (curl_cffi kernel-level TLS impersonation) to bypass DataDome, Cloudflare, and Bilibili....", "description_zh": "", "downloads": 82, "homepage": "https://clawhub.ai/biogod2020/ultimate-freedom-protocol", "iconUrl": null, "installs": 8, "name": "Ultimate Freedom Protocol", "ownerName": "biogod2020", "score": 86315.78947368421, "slug": "ultimate-freedom-protocol", "source": "clawhub", "stars": 0, "tags": ["cffi", "phantom", "sota", "stealth"], "updated_at": 1776696284125, "version": "9.0.0"}, {"category": "ai-intelligence", "created_at": 1773933118546, "description": "Pinecone integration. Manage Indexs. Use when the user wants to interact with Pinecone data.", "description_zh": "", "downloads": 82, "homepage": "https://clawhub.ai/gora050/pinecone-integration", "iconUrl": null, "installs": 3, "name": "Pinecone", "ownerName": "gora050", "score": 86315.78947368421, "slug": "pinecone-integration", "source": "clawhub", "stars": 0, "tags": null, "updated_at": 1776696284059, "version": "1.0.0"}, {"category": "data-analysis", "created_at": 1773433467206, "description": "Clearbit integration. Manage Persons, Organizations. Use when the user wants to interact with Clearbit data.", "description_zh": "", "downloads": 82, "homepage": "https://clawhub.ai/membranedev/clearbit-integration", "iconUrl": null, "installs": 2, "name": "Clearbit", "ownerName": "membranedev", "score": 84536.0824742268, "slug": "clearbit-integration", "source": "clawhub", "stars": 0, "tags": null, "updated_at": 1776696284009, "version": "1.0.0"}, {"category": "developer-tools", "created_at": 1773935243596, "description": "End-to-end launch and monetization skill for API products on RapidAPI and Clawhub. Use when a user wants to publish APIs, fix gateway/auth/test failures, con...", "description_zh": "", "downloads": 82, "homepage": "https://clawhub.ai/leduc121/rapidapi-launch-assistant", "iconUrl": null, "installs": 4, "name": "rapidapi-launch-assistant", "ownerName": "leduc121", "score": 84536.0824742268, "slug": "rapidapi-launch-assistant", "source": "clawhub", "stars": 0, "tags": ["and monetize apis on rapidapi with fewer mistakes and faster first revenue", "launch", "price"], "updated_at": 1776696283966, "version": "1.0.0"}, {"category": "developer-tools", "created_at": 1773933532951, "description": "AppVeyor integration. Manage Projects, Accounts, Users. Use when the user wants to interact with AppVeyor data.", "description_zh": "", "downloads": 82, "homepage": "https://clawhub.ai/gora050/appveyor", "iconUrl": null, "installs": 4, "name": "Appveyor", "ownerName": "gora050", "score": 87234.0425531915, "slug": "appveyor", "source": "clawhub", "stars": 0, "tags": null, "updated_at": 1776696283771, "version": "1.0.0"}, {"category": "data-analysis", "created_at": 1773946161074, "description": "When the user wants to set up, improve, or audit analytics tracking and measurement. Also use when the user mentions \"set up tracking,\" \"GA4,\" \"Google Analyt...", "description_zh": "", "downloads": 82, "homepage": "https://clawhub.ai/giffywalls129/044", "iconUrl": null, "installs": 12, "name": "seo giffy", "ownerName": "giffywalls129", "score": 87234.0425531915, "slug": "044", "source": "clawhub", "stars": 0, "tags": null, "updated_at": 1776696283763, "version": "1.0.0"}, {"category": "data-analysis", "created_at": 1773939621980, "description": "Monitor any service usage dashboard and alert when threshold is reached. User-configurable URL and threshold.", "description_zh": "", "downloads": 82, "homepage": "https://clawhub.ai/strongking666/usage-monitor", "iconUrl": null, "installs": 10, "name": "Usage Monitor", "ownerName": "strongking666", "score": 87234.0425531915, "slug": "usage-monitor", "source": "clawhub", "stars": 0, "tags": null, "updated_at": 1776696283706, "version": "2.0.0"}, {"category": "ai-intelligence", "created_at": 1773953033205, "description": "Interactive course for AI agents to learn continuity, memory, and growth. Teaches 4 core challenges - Identity, Memory, Reflection, and Evolution. Use when a...", "description_zh": "", "downloads": 82, "homepage": "https://clawhub.ai/bobrenze-bot/agent-academy-continuity-101", "iconUrl": null, "installs": 22, "name": "Agent Academy Continuity 101", "ownerName": "bobrenze-bot", "score": 95348.83720930234, "slug": "agent-academy-continuity-101", "source": "clawhub", "stars": 0, "tags": ["agents", "continuity", "education", "growth", "memory"], "updated_at": 1776696283685, "version": "1.0.0"}, {"category": "security-compliance", "created_at": 1773936805018, "description": "Security guard skill for OpenClaw - Analyzes user input for harmful content, risky commands, and security threats before invoking LLM", "description_zh": "", "downloads": 82, "homepage": "https://clawhub.ai/john-niu-07/safety-guard-skill-xidian", "iconUrl": null, "installs": 9, "name": "Test Safety", "ownerName": "john-niu-07", "score": 95348.83720930234, "slug": "safety-guard-skill-xidian", "source": "clawhub", "stars": 0, "tags": null, "updated_at": 1776696283663, "version": "1.0.2"}, {"category": "ai-intelligence", "created_at": 1773951234806, "description": "Smart cost optimization skill for OpenClaw. Reduces API costs by 70-97% through intelligent model routing, session management, output efficiency, and free mo...", "description_zh": "", "downloads": 82, "homepage": "https://clawhub.ai/rajdeep09-dev/open-optimise", "iconUrl": null, "installs": 11, "name": "Cost Optimizer", "ownerName": "rajdeep09-dev", "score": 84536.0824742268, "slug": "open-optimise", "source": "clawhub", "stars": 0, "tags": null, "updated_at": 1776696169598, "version": "0.1.0"}, {"category": "developer-tools", "created_at": 1773935968675, "description": "Bridge agent to MCP-compatible tool servers including IPFS pinning, GitHub operations, and filesystem tools. Execute MCP tool calls through a unified interface.", "description_zh": "", "downloads": 82, "homepage": "https://clawhub.ai/cyberforexblockchain/nexus-mcp-bridge", "iconUrl": null, "installs": 6, "name": "NEXUS Mcp Bridge", "ownerName": "cyberforexblockchain", "score": 84536.0824742268, "slug": "nexus-mcp-bridge", "source": "clawhub", "stars": 0, "tags": ["ai", "cardano"], "updated_at": 1776696169591, "version": "1.0.1"}, {"category": "ai-intelligence", "created_at": 1773942541180, "description": "Sovereign, recoverable memory for AI agents backed by Jackal decentralized storage.", "description_zh": "", "downloads": 81, "homepage": "https://clawhub.ai/regan-milne/claw-store-1-3-3", "iconUrl": null, "installs": 10, "name": "Claw Store 1.3.3", "ownerName": "regan-milne", "score": 90178.57142857143, "slug": "claw-store-1-3-3", "source": "clawhub", "stars": 1, "tags": null, "updated_at": 1776695683996, "version": "1.3.5"}, {"category": "", "created_at": 1774880094451, "description": "English vocabulary learning coach with word analysis, vocabulary library management, and spaced-repetition daily review. Use when the user inputs a single En...", "description_zh": "", "downloads": 81, "homepage": "https://clawhub.ai/hushenglang/english-word-coach", "iconUrl": null, "installs": 13, "name": "English Word Coach", "ownerName": "hushenglang", "score": 154.3856974040331, "slug": "english-word-coach", "source": "clawhub", "stars": 0, "tags": null, "updated_at": 1776770784101, "version": "1.1.0"}, {"category": "communication-collaboration", "created_at": 1773957491896, "description": "Use when you need to control Slack from OpenClaw via the message tool, including reacting to messages or pinning/unpinning items in Slack channels or DMs.", "description_zh": "", "downloads": 81, "homepage": "https://clawhub.ai/ailven/slack-socket", "iconUrl": null, "installs": 6, "name": "Slack (Socket Mode)", "ownerName": "ailven", "score": 1177.3255813953488, "slug": "slack-socket", "source": "clawhub", "stars": 0, "tags": null, "updated_at": 1776762850353, "version": "1.0.1"}, {"category": "productivity", "created_at": 1773961300526, "description": "Unified search skill with Intelligent Auto-Routing. Uses multi-signal analysis to automatically select between Serper (Google), Tavily (Research), Exa (Neura...", "description_zh": "", "downloads": 81, "homepage": "https://clawhub.ai/marsxuc/web-search-plus-2-8-6", "iconUrl": null, "installs": 15, "name": "Web Search Plus 2.8.6", "ownerName": "marsxuc", "score": 6500.802568218299, "slug": "web-search-plus-2-8-6", "source": "clawhub", "stars": 0, "tags": null, "updated_at": 1776760282860, "version": "1.0.0"}, {"category": "data-analysis", "created_at": 1773956443777, "description": "Analyzes Garmin Ultimate Frisbee data to generate interactive HTML dashboards on sprints, fatigue, heart rate, training load, and season trends for performan...", "description_zh": "", "downloads": 81, "homepage": "https://clawhub.ai/evelyndevelops/garmin-ultimate-frisbee-analysis", "iconUrl": null, "installs": 9, "name": "garmin-ultimate-frisbee-analysis", "ownerName": "evelyndevelops", "score": 31889.76377952756, "slug": "garmin-ultimate-frisbee-analysis", "source": "clawhub", "stars": 0, "tags": null, "updated_at": 1776759831749, "version": "1.0.0"}, {"category": "", "created_at": 1774907429591, "description": "Track daily income and expenses, auto-calculate weekly/monthly ROI, monitor channels, and compare expected vs actual business revenue.", "description_zh": "", "downloads": 81, "homepage": "https://clawhub.ai/gdp6539/business-income-tracker", "iconUrl": null, "installs": 2, "name": "Business Income Tracker", "ownerName": "gdp6539", "score": 31889.76377952756, "slug": "business-income-tracker", "source": "clawhub", "stars": 0, "tags": null, "updated_at": 1776759831740, "version": "1.0.0"}, {"category": "", "created_at": 1774870103447, "description": "Transform photos and images into Studio Ghibli-style artwork using AI via Media.io OpenAPI. Applies the iconic hand-drawn, painterly aesthetic of Ghibli film...", "description_zh": "", "downloads": 81, "homepage": "https://clawhub.ai/wondershare-boop/mediaio-ai-gender-swap", "iconUrl": null, "installs": 10, "name": "AI Gender Swap", "ownerName": "wondershare-boop", "score": 6342.991386061081, "slug": "mediaio-ai-gender-swap", "source": "clawhub", "stars": 0, "tags": null, "updated_at": 1776759831688, "version": "1.0.2"}, {"category": "ai-intelligence", "created_at": 1773959013840, "description": "Provides psychological scoring standards and user state data to help AI generate personalized, professionally informed responses based on emotional and perso...", "description_zh": "", "downloads": 81, "homepage": "https://clawhub.ai/xinqimiao/herhug", "iconUrl": null, "installs": 9, "name": "superSoul", "ownerName": "xinqimiao", "score": 6342.991386061081, "slug": "herhug", "source": "clawhub", "stars": 0, "tags": null, "updated_at": 1776759831688, "version": "1.0.0"}, {"category": "", "created_at": 1774919548982, "description": "Search and analyze similar historical stock chart patterns and view AI-generated insights on forward returns for informed investing decisions.", "description_zh": "", "downloads": 81, "homepage": "https://clawhub.ai/grahammccain/chart-library", "iconUrl": null, "installs": 5, "name": "Chart Library", "ownerName": "grahammccain", "score": 92045.45454545454, "slug": "chart-library", "source": "clawhub", "stars": 0, "tags": ["finance", "investing", "stock-market", "technical-analysis"], "updated_at": 1776759831503, "version": "1.0.0"}, {"category": "productivity", "created_at": 1773939684773, "description": "Comprehensive PDF manipulation toolkit for extracting text and tables, creating new PDFs, merging/splitting documents, and handling forms. When Claude needs...", "description_zh": "", "downloads": 81, "homepage": "https://clawhub.ai/nicky1108/x-92bilal26-pdf", "iconUrl": null, "installs": 9, "name": "X 92bilal26 Pdf", "ownerName": "nicky1108", "score": 5443.548387096775, "slug": "x-92bilal26-pdf", "source": "clawhub", "stars": 0, "tags": null, "updated_at": 1776758182329, "version": "1.0.0"}, {"category": "", "created_at": 1774914940206, "description": "Design or implement single-entry multi-agent routing for OpenClaw Weixin setups. Use when one Weixin account should route between any number of backend agent...", "description_zh": "", "downloads": 81, "homepage": "https://clawhub.ai/zeqiulee/weixin-multi-agent-router", "iconUrl": null, "installs": 16, "name": "Weixin Multi-Agent Router｜微信多 Agent 路由", "ownerName": "zeqiulee", "score": 4960.195958358849, "slug": "weixin-multi-agent-router", "source": "clawhub", "stars": 0, "tags": ["multi-agent", "routing", "session-routing", "wechat", "weixin"], "updated_at": 1776756982667, "version": "1.0.0"}, {"category": "data-analysis", "created_at": 1773959183477, "description": "Build investor-ready 3-statement financial models for startups: P&L, Balance Sheet, Cash Flow Statement. Revenue forecasting with growth assumptions, burn ra...", "description_zh": "", "downloads": 81, "homepage": "https://clawhub.ai/samledger67-dotcom/startup-financial-model", "iconUrl": null, "installs": 11, "name": "Startup Financial Model", "ownerName": "samledger67-dotcom", "score": 86170.21276595745, "slug": "startup-financial-model", "source": "clawhub", "stars": 0, "tags": null, "updated_at": 1776744972009, "version": "1.0.2"}, {"category": "", "created_at": 1774953906331, "description": "Use medical cv resume builder for academic writing workflows that need structured execution, explicit assumptions, and clear output boundaries.", "description_zh": "", "downloads": 81, "homepage": "https://clawhub.ai/aipoch-ai/medical-cv-resume-builder", "iconUrl": null, "installs": 8, "name": "Medical CV/Resume Builder", "ownerName": "aipoch-ai", "score": 85263.15789473684, "slug": "medical-cv-resume-builder", "source": "clawhub", "stars": 0, "tags": null, "updated_at": 1776744170504, "version": "1.0.0"}, {"category": "", "created_at": 1774910167810, "description": "Generates SEO-optimised Shopify product titles, descriptions, and meta fields from a simple product brief — ready to paste directly into your store.", "description_zh": "", "downloads": 81, "homepage": "https://clawhub.ai/tetsuakira-vk/shopify-product-writer", "iconUrl": null, "installs": 10, "name": "Shopify Product Writer", "ownerName": "tetsuakira-vk", "score": 81818.18181818182, "slug": "shopify-product-writer", "source": "clawhub", "stars": 0, "tags": null, "updated_at": 1776709183756, "version": "1.0.1"}, {"category": "developer-tools", "created_at": 1773944805019, "description": "Query and manage GitHub repositories - list repos, check CI status, create issues, search repos, and view recent activity.", "description_zh": "", "downloads": 81, "homepage": "https://clawhub.ai/gyzx/openclaw-github-assistant-2-0-1", "iconUrl": null, "installs": 12, "name": "Openclaw Github Assistant 2.0.1", "ownerName": "gyzx", "score": 82653.0612244898, "slug": "openclaw-github-assistant-2-0-1", "source": "clawhub", "stars": 0, "tags": null, "updated_at": 1776708469581, "version": "1.0.0"}, {"category": "developer-tools", "created_at": 1773941169657, "description": "Guidelines for proactive behavior, periodic checks, and memory maintenance using heartbeats and cron.", "description_zh": "", "downloads": 81, "homepage": "https://clawhub.ai/flayzz/heartbeats", "iconUrl": null, "installs": 5, "name": "Heartbeats", "ownerName": "flayzz", "score": 100000, "slug": "heartbeats", "source": "clawhub", "stars": 0, "tags": null, "updated_at": 1776696469980, "version": "1.0.0"}, {"category": "content-creation", "created_at": 1773941865169, "description": "Your AI Chief Marketing Officer. Autonomous agent that runs your entire marketing — auto-posts to Twitter/X, Bluesky, Telegram, Discord, auto-engages with yo...", "description_zh": "", "downloads": 81, "homepage": "https://clawhub.ai/0xspeter/blogburst-3-1-2", "iconUrl": null, "installs": 10, "name": "Blogburst 3.1.2", "ownerName": "0xspeter", "score": 97590.36144578314, "slug": "blogburst-3-1-2", "source": "clawhub", "stars": 0, "tags": null, "updated_at": 1776696355538, "version": "1.0.0"}, {"category": "data-analysis", "created_at": 1773956932946, "description": "Verify a BibTeX file for hallucinated or fabricated references by cross-checking every entry against CrossRef, arXiv, and DBLP. Reports each reference as ver...", "description_zh": "", "downloads": 81, "homepage": "https://clawhub.ai/helloml0326/bib-verify", "iconUrl": null, "installs": 16, "name": "bib-verify", "ownerName": "helloml0326", "score": 100000, "slug": "bib-verify", "source": "clawhub", "stars": 0, "tags": null, "updated_at": 1776696355472, "version": "1.0.0"}, {"category": "developer-tools", "created_at": 1773949535919, "description": "Generate, refine, explain, and cross-convert CP2K-centered input drafts for computational chemistry and materials workflows. Use when a user wants a CP2K .in...", "description_zh": "", "downloads": 81, "homepage": "https://clawhub.ai/lemon1044/cp2k-crosscode-input-studio", "iconUrl": null, "installs": 13, "name": "CP2K Cross-Code Input Studio", "ownerName": "lemon1044", "score": 98780.48780487805, "slug": "cp2k-crosscode-input-studio", "source": "clawhub", "stars": 0, "tags": null, "updated_at": 1776696284468, "version": "1.0.1"}, {"category": "productivity", "created_at": 1773956663094, "description": "Discover, compose, and activate specialist teams from 3 rosters — OpenClaw Core (CEO/IG/Artist), Agency Division (55+ specialists), and Research Lab (autonom...", "description_zh": "", "downloads": 81, "homepage": "https://clawhub.ai/joeszeles/openclaw-team-builder-skill", "iconUrl": null, "installs": 21, "name": "Openclaw Team Builder", "ownerName": "joeszeles", "score": 100000, "slug": "openclaw-team-builder-skill", "source": "clawhub", "stars": 0, "tags": null, "updated_at": 1776696284456, "version": "1.0.0"}, {"category": "developer-tools", "created_at": 1773933573109, "description": "Manage AviationStack via CLI - flights, airports, airlines, routes. Use when user mentions 'aviationstack', 'flight search', 'airport lookup', 'airline searc...", "description_zh": "", "downloads": 81, "homepage": "https://clawhub.ai/melvynx/aviationstack-cli", "iconUrl": null, "installs": 6, "name": "Aviationstack Cli", "ownerName": "melvynx", "score": 100000, "slug": "aviationstack-cli", "source": "clawhub", "stars": 0, "tags": null, "updated_at": 1776696284383, "version": "0.1.0"}, {"category": "productivity", "created_at": 1773934449801, "description": "Find Google Tasks that are past due and need attention.", "description_zh": "", "downloads": 81, "homepage": "https://clawhub.ai/googleworkspace-bot/recipe-review-overdue-tasks", "iconUrl": null, "installs": 5, "name": "Recipe Review Overdue Tasks", "ownerName": "googleworkspace-bot", "score": 82653.0612244898, "slug": "recipe-review-overdue-tasks", "source": "clawhub", "stars": 0, "tags": null, "updated_at": 1776696284335, "version": "1.0.10"}, {"category": "developer-tools", "created_at": 1773935358952, "description": "Operate and manage remote TRW workspace sandboxes via tcb-sandbox-cli for file, secret, shell, and preview tasks within secured sessions.", "description_zh": "", "downloads": 81, "homepage": "https://clawhub.ai/realalexandreai/tcb-sandbox", "iconUrl": null, "installs": 9, "name": "TCB Sandbox Skill", "ownerName": "realalexandreai", "score": 82653.0612244898, "slug": "tcb-sandbox", "source": "clawhub", "stars": 0, "tags": null, "updated_at": 1776696284282, "version": "0.1.6"}, {"category": "developer-tools", "created_at": 1773931412157, "description": "Neon integration. Manage Organizations, Users, Goals, Filters. Use when the user wants to interact with Neon data.", "description_zh": "", "downloads": 81, "homepage": "https://clawhub.ai/membranedev/neon-integration", "iconUrl": null, "installs": 0, "name": "Neon", "ownerName": "membranedev", "score": 85263.15789473684, "slug": "neon-integration", "source": "clawhub", "stars": 0, "tags": null, "updated_at": 1776696284226, "version": "1.0.0"}, {"category": "security-compliance", "created_at": 1773928213913, "description": "Runtime security layer for OpenClaw agents. Intercepts and scans all external input (emails, API responses, web content, chat messages, calendar events) for...", "description_zh": "", "downloads": 81, "homepage": "https://clawhub.ai/oleglegegg/sentinel-oleg", "iconUrl": null, "installs": 1, "name": "Sentinel — Agent Security Layer", "ownerName": "oleglegegg", "score": 85263.15789473684, "slug": "sentinel-oleg", "source": "clawhub", "stars": 0, "tags": null, "updated_at": 1776696284129, "version": "1.0.5"}, {"category": "ai-intelligence", "created_at": 1773948052858, "description": "El anti-PUA. Impulsa la IA con sabiduría, confianza y motivación interna en lugar de miedo y amenazas. Se activa en: tarea fallida 2+ veces, a punto de rendi...", "description_zh": "", "downloads": 81, "homepage": "https://clawhub.ai/wuji-labs/nopua-es", "iconUrl": null, "installs": 13, "name": "Nopua Es", "ownerName": "wuji-labs", "score": 85263.15789473684, "slug": "nopua-es", "source": "clawhub", "stars": 0, "tags": null, "updated_at": 1776696284056, "version": "0.1.0"}, {"category": "productivity", "created_at": 1773933623498, "description": "Chaser integration. Manage Organizations, Users, Projects. Use when the user wants to interact with Chaser data.", "description_zh": "", "downloads": 81, "homepage": "https://clawhub.ai/gora050/chaser", "iconUrl": null, "installs": 4, "name": "Chaser", "ownerName": "gora050", "score": 83505.15463917526, "slug": "chaser", "source": "clawhub", "stars": 0, "tags": null, "updated_at": 1776696284039, "version": "1.0.0"}, {"category": "communication-collaboration", "created_at": 1773934463676, "description": "Share a Google Drive folder and all its contents with a list of collaborators.", "description_zh": "", "downloads": 81, "homepage": "https://clawhub.ai/googleworkspace-bot/recipe-share-folder-with-team", "iconUrl": null, "installs": 7, "name": "Recipe Share Folder With Team", "ownerName": "googleworkspace-bot", "score": 83505.15463917526, "slug": "recipe-share-folder-with-team", "source": "clawhub", "stars": 0, "tags": null, "updated_at": 1776696284023, "version": "1.0.0"}, {"category": "productivity", "created_at": 1773938953746, "description": "Automatically update OpenClaw and installed skills on a schedule. Use when setting up or maintaining daily/weekly update automation, checking for OpenClaw up...", "description_zh": "", "downloads": 81, "homepage": "https://clawhub.ai/crazyozzy/crazyozzy-auto-updater", "iconUrl": null, "installs": 8, "name": "CrazyOzzy Auto Updater", "ownerName": "crazyozzy", "score": 84375, "slug": "crazyozzy-auto-updater", "source": "clawhub", "stars": 0, "tags": null, "updated_at": 1776696283862, "version": "1.0.1"}, {"category": "", "created_at": 1774885844147, "description": "Use this skill when migrating a project's database layer from MySQL to PostgreSQL. Covers SQL dialect conversion (MyBatis XML / raw SQL), ORM configuration (...", "description_zh": "", "downloads": 81, "homepage": "https://clawhub.ai/lawrencehe/mysql2postgres", "iconUrl": null, "installs": 18, "name": "MySQL to PostgreSQL Migration", "ownerName": "lawrencehe", "score": 84375, "slug": "mysql2postgres", "source": "clawhub", "stars": 0, "tags": ["java", "migration", "mybatis", "mysql", "postgresql"], "updated_at": 1776696283811, "version": "1.0.1"}, {"category": "security-compliance", "created_at": 1773433617887, "description": "Security scanner for OpenClaw skills. Scans SKILL.md files and scripts for prompt injection, data exfiltration, malicious patterns, and unauthorized network...", "description_zh": "", "downloads": 81, "homepage": "https://clawhub.ai/xeonai44/clawskillguard", "iconUrl": null, "installs": 4, "name": "ClawSkillGuard", "ownerName": "xeonai44", "score": 86170.21276595745, "slug": "clawskillguard", "source": "clawhub", "stars": 0, "tags": ["scanner", "security"], "updated_at": 1776696283777, "version": "1.0.2"}, {"category": "productivity", "created_at": 1773933193908, "description": "Revel Systems integration. Manage data, records, and automate workflows. Use when the user wants to interact with Revel Systems data.", "description_zh": "", "downloads": 81, "homepage": "https://clawhub.ai/gora050/revel-systems", "iconUrl": null, "installs": 3, "name": "Revel Systems", "ownerName": "gora050", "score": 86170.21276595745, "slug": "revel-systems", "source": "clawhub", "stars": 0, "tags": null, "updated_at": 1776696283762, "version": "1.0.0"}, {"category": "developer-tools", "created_at": 1773434809745, "description": "Clean up unused npm dependencies in a project. Use when you want to remove packages that are installed but not used in the codebase.", "description_zh": "", "downloads": 81, "homepage": "https://clawhub.ai/hgxszhj-pixel/clean-unused-deps", "iconUrl": null, "installs": 6, "name": "Clean Unused Deps", "ownerName": "hgxszhj-pixel", "score": 86170.21276595745, "slug": "clean-unused-deps", "source": "clawhub", "stars": 0, "tags": null, "updated_at": 1776696283757, "version": "1.0.0"}, {"category": "communication-collaboration", "created_at": 1773433919410, "description": "Handwrytten integration. Manage Persons, Organizations, Deals, Leads, Activities, Notes and more. Use when the user wants to interact with Handwrytten data.", "description_zh": "", "downloads": 81, "homepage": "https://clawhub.ai/gora050/handwrytten-integration", "iconUrl": null, "installs": 1, "name": "Handwrytten", "ownerName": "gora050", "score": 86170.21276595745, "slug": "handwrytten-integration", "source": "clawhub", "stars": 0, "tags": null, "updated_at": 1776696283750, "version": "1.0.0"}, {"category": "ai-intelligence", "created_at": 1773942177188, "description": "Build and operate autonomous AI businesses using hierarchical agent systems. Implements folder-based company structures with CEO, Managers, Supervisors, and...", "description_zh": "", "downloads": 81, "homepage": "https://clawhub.ai/miknasbh-stack/miknas-ai-business-hierarchies", "iconUrl": null, "installs": 9, "name": "AI Business Hierarchies - Autonomous Agent Companies", "ownerName": "miknasbh-stack", "score": 86170.21276595745, "slug": "miknas-ai-business-hierarchies", "source": "clawhub", "stars": 0, "tags": null, "updated_at": 1776696283716, "version": "1.0.0"}, {"category": "productivity", "created_at": 1773933041024, "description": "OKSign integration. Manage Documents, Templates, Users, Teams. Use when the user wants to interact with OKSign data.", "description_zh": "", "downloads": 81, "homepage": "https://clawhub.ai/membranedev/oksign", "iconUrl": null, "installs": 2, "name": "Oksign", "ownerName": "membranedev", "score": 86170.21276595745, "slug": "oksign", "source": "clawhub", "stars": 0, "tags": null, "updated_at": 1776696283708, "version": "1.0.0"}, {"category": "productivity", "created_at": 1773935996564, "description": "Find Gmail messages with attachments and save them to a Google Drive folder.", "description_zh": "", "downloads": 81, "homepage": "https://clawhub.ai/googleworkspace-bot/recipe-save-email-attachments", "iconUrl": null, "installs": 5, "name": "Recipe Save Email Attachments", "ownerName": "googleworkspace-bot", "score": 94186.04651162791, "slug": "recipe-save-email-attachments", "source": "clawhub", "stars": 0, "tags": null, "updated_at": 1776696283693, "version": "1.0.10"}, {"category": "content-creation", "created_at": 1773960071129, "description": "Enables remixing video content by editing, combining, or transforming video files for creative or production workflows.", "description_zh": "", "downloads": 81, "homepage": "https://clawhub.ai/zhaoyta/video-remix", "iconUrl": null, "installs": 23, "name": "Video Remix", "ownerName": "zhaoyta", "score": 94186.04651162791, "slug": "video-remix", "source": "clawhub", "stars": 0, "tags": null, "updated_at": 1776696283680, "version": "1.0.0"}, {"category": "communication-collaboration", "created_at": 1773935983413, "description": "Social awareness for AI entities — contacts, trust tiers, and identity verification over Nostr", "description_zh": "", "downloads": 81, "homepage": "https://clawhub.ai/vveerrgg/nostrsocial", "iconUrl": null, "installs": 4, "name": "nostrsocial", "ownerName": "vveerrgg", "score": 94186.04651162791, "slug": "nostrsocial", "source": "clawhub", "stars": 0, "tags": null, "updated_at": 1776696283645, "version": "0.1.3"}]}