{"page": 411, "total_pages": 522, "total": 26073, "skills": [{"category": "security-compliance", "created_at": 1773932173056, "description": "Use when auditing and remediating an OpenClaw Linux host with a nightly 23:00 security run. Covers firewall status, fail2ban bans, SSH hardening with key-onl...", "description_zh": "", "downloads": 80, "homepage": "https://clawhub.ai/scorpion7slayer/nxtsecure-openclaw", "iconUrl": null, "installs": 2, "name": "NxtSecure-openclaw", "ownerName": "scorpion7slayer", "score": 96153.84615384616, "slug": "nxtsecure-openclaw", "source": "clawhub", "stars": 1, "tags": null, "updated_at": 1776725383667, "version": "0.1.3"}, {"category": "", "created_at": 1774890787469, "description": "AI-powered Chinese A-share stock analyst. Fetches real-time market data, technical indicators, valuations, and news via AkShare, then generates scored invest...", "description_zh": "", "downloads": 80, "homepage": "https://clawhub.ai/chienchandler/ai-stock-analyst", "iconUrl": null, "installs": 19, "name": "AI Stock Analyst", "ownerName": "chienchandler", "score": 1210.6537530266344, "slug": "ai-stock-analyst", "source": "clawhub", "stars": 0, "tags": null, "updated_at": 1776765590489, "version": "1.0.0"}, {"category": "ai-intelligence", "created_at": 1773956270943, "description": "Estimate token usage and approximate API cost of AI agents by analyzing model, reasoning steps, tools, and output size before deployment.", "description_zh": "", "downloads": 80, "homepage": "https://clawhub.ai/showmethemoney2023/ai-agent-token-cost-estimator", "iconUrl": null, "installs": 7, "name": "AI Agent Token Cost Estimator", "ownerName": "showmethemoney2023", "score": 1759.7888253409592, "slug": "ai-agent-token-cost-estimator", "source": "clawhub", "stars": 0, "tags": ["agents", "ai cost", "claw", "estimation", "optimization", "token"], "updated_at": 1776763750270, "version": "1.0.0"}, {"category": "ai-intelligence", "created_at": 1773940402583, "description": "256-state binary pattern recognition engine. 8-bit Odu logic for signal classification, state mapping, and decision execution. 4,000 years of pattern recogni...", "description_zh": "", "downloads": 80, "homepage": "https://clawhub.ai/arosstale/odu", "iconUrl": null, "installs": 7, "name": "Odu", "ownerName": "arosstale", "score": 3194.888178913738, "slug": "odu", "source": "clawhub", "stars": 0, "tags": null, "updated_at": 1776763490803, "version": "1.0.0"}, {"category": "", "created_at": 1774870406669, "description": "Create and manage presentation slides using JSONL storage. Use when building slide decks, applying themes, or exporting to HTML presentations.", "description_zh": "", "downloads": 80, "homepage": "https://clawhub.ai/ckchzh/slide", "iconUrl": null, "installs": 9, "name": "Slide", "ownerName": "ckchzh", "score": 6274.509803921568, "slug": "slide", "source": "clawhub", "stars": 0, "tags": null, "updated_at": 1776759982371, "version": "2.0.0"}, {"category": "security-compliance", "created_at": 1773951290930, "description": "Blocks execution of dangerous commands and risky operations like destructive deletions, credential theft, code injection, and unauthorized system changes to...", "description_zh": "", "downloads": 80, "homepage": "https://clawhub.ai/squallfire/skill-blocker", "iconUrl": null, "installs": 2, "name": "Skill Blocker - 安全守卫", "ownerName": "squallfire", "score": 3418.803418803419, "slug": "skill-blocker", "source": "clawhub", "stars": 0, "tags": null, "updated_at": 1776759831776, "version": "1.0.1"}, {"category": "", "created_at": 1774945410039, "description": "Review Flutter GetX code for strict architecture, memory safety, clean UI code, async error handling, naming conventions, and enforce team's coding standards.", "description_zh": "", "downloads": 80, "homepage": "https://clawhub.ai/hautvfami/hautv-flutter-senior-getx-review", "iconUrl": null, "installs": 8, "name": "Flutter Senior Review (HauTV)", "ownerName": "hautvfami", "score": 31496.062992125982, "slug": "hautv-flutter-senior-getx-review", "source": "clawhub", "stars": 0, "tags": null, "updated_at": 1776759831756, "version": "1.0.0"}, {"category": "productivity", "created_at": 1773955665550, "description": "Create and manage Jira tasks using natural language input, smart user search, batch CSV import, and detailed task analytics with flexible field support.", "description_zh": "", "downloads": 80, "homepage": "https://clawhub.ai/ulanzicom/jira-task-creator", "iconUrl": null, "installs": 3, "name": "Jira Task Creator", "ownerName": "ulanzicom", "score": 31496.062992125982, "slug": "jira-task-creator", "source": "clawhub", "stars": 0, "tags": null, "updated_at": 1776759831740, "version": "2.1.0"}, {"category": "", "created_at": 1774817937575, "description": "Navigate and deploy Volcengine cloud infrastructure, integrate AI models, and build intelligent agent workflows for scalable, automated applications.", "description_zh": "", "downloads": 80, "homepage": "https://clawhub.ai/duanc-chao/volcengine", "iconUrl": null, "installs": 2, "name": "Volcengine", "ownerName": "duanc-chao", "score": 31496.062992125982, "slug": "volcengine", "source": "clawhub", "stars": 0, "tags": null, "updated_at": 1776759831737, "version": "1.0.0"}, {"category": "productivity", "created_at": 1773949397329, "description": "Scrapes and scores event attendees, speakers, and sponsors to generate 50 qualified leads with personalized outreach and a networking video within 24 hours.", "description_zh": "", "downloads": 80, "homepage": "https://clawhub.ai/g4dr/ai-event-conference-lead-machine", "iconUrl": null, "installs": 5, "name": "AI Event & Conference Lead Machine — Turn Any Industry Event Into 50 Qualified Leads in 24 Hours", "ownerName": "g4dr", "score": 6269.592476489028, "slug": "ai-event-conference-lead-machine", "source": "clawhub", "stars": 0, "tags": ["apify", "b2b-leads", "conference", "event-marketing", "invideo", "linkedin", "networking", "outreach", "pipeline", "sales", "speaker", "trade-show"], "updated_at": 1776759831730, "version": "1.0.0"}, {"category": "", "created_at": 1774833511614, "description": "Executes AIVideoMaker API workflows for text-to-video and image-to-video generation, including task creation, status polling, task details retrieval, and can...", "description_zh": "", "downloads": 80, "homepage": "https://clawhub.ai/husu/ai-video-maker", "iconUrl": null, "installs": 5, "name": "AIVideomaker", "ownerName": "husu", "score": 6269.592476489028, "slug": "ai-video-maker", "source": "clawhub", "stars": 0, "tags": null, "updated_at": 1776759831724, "version": "1.0.14"}, {"category": "productivity", "created_at": 1773951182044, "description": "Convert first-time visitors using behavior-based segments to deliver targeted first-order offers via exit-intent and timed popups for higher conversion.", "description_zh": "", "downloads": 80, "homepage": "https://clawhub.ai/rijoyai/new-visitor-cold-start", "iconUrl": null, "installs": 2, "name": "New Visitor Cold Start", "ownerName": "rijoyai", "score": 6269.592476489028, "slug": "new-visitor-cold-start", "source": "clawhub", "stars": 0, "tags": null, "updated_at": 1776759831722, "version": "1.0.0"}, {"category": "", "created_at": 1772796565408, "description": "Financial reporting and analytics for ERPClaw — trial balance, P&L, balance sheet, cash flow, general ledger, aging, budget variance, tax summary, payment su...", "description_zh": "", "downloads": 80, "homepage": "https://clawhub.ai/skipzhang/erpclaw-reports", "iconUrl": null, "installs": 5, "name": "ERPClaw-Reports", "ownerName": "skipzhang", "score": 6264.682850430698, "slug": "erpclaw-reports", "source": "clawhub", "stars": 0, "tags": null, "updated_at": 1776759831715, "version": "1.0.1"}, {"category": "", "created_at": 1772796138623, "description": "Inventory management -- items, warehouses, stock entries, batches, serial numbers, pricing, stock reconciliation, and stock reporting for ERPClaw ERP", "description_zh": "", "downloads": 80, "homepage": "https://clawhub.ai/skipzhang/erpclaw-inventory", "iconUrl": null, "installs": 3, "name": "ERPClaw-Inventory", "ownerName": "skipzhang", "score": 6264.682850430698, "slug": "erpclaw-inventory", "source": "clawhub", "stars": 0, "tags": null, "updated_at": 1776759831712, "version": "1.0.1"}, {"category": "ai-intelligence", "created_at": 1773956680281, "description": "Provide clear, concise, best-effort answers with explanations and next steps, preferring searches for current info and using bullet points and code blocks.", "description_zh": "", "downloads": 80, "homepage": "https://clawhub.ai/ouwibo/ouwibo-general", "iconUrl": null, "installs": 5, "name": "Ouwibo: general", "ownerName": "ouwibo", "score": 6264.682850430698, "slug": "ouwibo-general", "source": "clawhub", "stars": 0, "tags": null, "updated_at": 1776759831710, "version": "0.1.0"}, {"category": "", "created_at": 1774944426226, "description": "Complete A-share quantitative stock trading workflow covering data collection, factor analysis, strategy development, backtesting, simulated trading, and ris...", "description_zh": "", "downloads": 80, "homepage": "https://clawhub.ai/yhdhappy/quant-full-stack", "iconUrl": null, "installs": 16, "name": "Quant Full Stack", "ownerName": "yhdhappy", "score": 6269.592476489028, "slug": "quant-full-stack", "source": "clawhub", "stars": 0, "tags": null, "updated_at": 1776759831654, "version": "1.0.0"}, {"category": "data-analysis", "created_at": 1773955565972, "description": "Extract and categorize expenses from receipts or statements, map to GL codes, check compliance with policies, and flag anomalies for review.", "description_zh": "", "downloads": 80, "homepage": "https://clawhub.ai/samledger67-dotcom/expense-categorization", "iconUrl": null, "installs": 1, "name": "test", "ownerName": "samledger67-dotcom", "score": 6259.7809076682315, "slug": "expense-categorization", "source": "clawhub", "stars": 0, "tags": null, "updated_at": 1776759831579, "version": "0.0.0-probe"}, {"category": "communication-collaboration", "created_at": 1773952408448, "description": "Send customized voice messages to Feishu chats by generating and uploading TTS audio using configurable credentials and options.", "description_zh": "", "downloads": 80, "homepage": "https://clawhub.ai/jisuwudou/free-feishu-voice", "iconUrl": null, "installs": 3, "name": "free-feishu-voice", "ownerName": "jisuwudou", "score": 90909.09090909091, "slug": "free-feishu-voice", "source": "clawhub", "stars": 0, "tags": null, "updated_at": 1776759831575, "version": "1.0.0"}, {"category": "data-analysis", "created_at": 1773960569996, "description": "Manage and query museum database records, track data collection status, verify completeness, and export museum data in JSON, CSV, or SQL formats.", "description_zh": "", "downloads": 80, "homepage": "https://clawhub.ai/jackandking/museum", "iconUrl": null, "installs": 9, "name": "Museum Data Manager", "ownerName": "jackandking", "score": 6245.12099921936, "slug": "museum", "source": "clawhub", "stars": 0, "tags": null, "updated_at": 1776759831495, "version": "1.0.0"}, {"category": "developer-tools", "created_at": 1773941913049, "description": "Mechanism conflict detection and coordination for AI assistant systems. Automatically detects crontab conflicts, systemd service conflicts, script overlaps,...", "description_zh": "", "downloads": 80, "homepage": "https://clawhub.ai/alfredming-2026/conflict-coordination", "iconUrl": null, "installs": 9, "name": "Conflict Coordination", "ownerName": "alfredming-2026", "score": 5852.231163130944, "slug": "conflict-coordination", "source": "clawhub", "stars": 0, "tags": null, "updated_at": 1776759082570, "version": "1.0.0"}, {"category": "", "created_at": 1774877864296, "description": "Captures learnings, errors, and corrections to enable continuous improvement. Use when: (1) A command or operation fails unexpectedly, (2) User corrects Clau...", "description_zh": "", "downloads": 80, "homepage": "https://clawhub.ai/litiao1224/self-improving-agent-1-0-2-litiao", "iconUrl": null, "installs": 33, "name": "Self Improving Agent 1 0 2 Litiao", "ownerName": "litiao1224", "score": 5513.439007580979, "slug": "self-improving-agent-1-0-2-litiao", "source": "clawhub", "stars": 0, "tags": null, "updated_at": 1776758482391, "version": "1.0.0"}, {"category": "", "created_at": 1774853106155, "description": "Generate captions (descriptions) for images, videos, and documents using ZhiPu GLM-V multimodal model series. Use this skill whenever the user wants to descr...", "description_zh": "", "downloads": 80, "homepage": "https://clawhub.ai/jaredforreal/glmv-caption", "iconUrl": null, "installs": 23, "name": "GLM-V-Caption", "ownerName": "jaredforreal", "score": 83333.33333333334, "slug": "glmv-caption", "source": "clawhub", "stars": 0, "tags": null, "updated_at": 1776734269717, "version": "1.0.1"}, {"category": "developer-tools", "created_at": 1773945349661, "description": "Analyze a codebase and recommend Claude Code automations (hooks, subagents, skills, plugins, MCP servers). Use when user asks for automation recommendations,...", "description_zh": "", "downloads": 80, "homepage": "https://clawhub.ai/vinhltt/claude-automation-recommender", "iconUrl": null, "installs": 9, "name": "Claude Automation Recommender", "ownerName": "vinhltt", "score": 100000, "slug": "claude-automation-recommender", "source": "clawhub", "stars": 0, "tags": null, "updated_at": 1776697544473, "version": "0.1.0"}, {"category": "ai-intelligence", "created_at": 1773941031084, "description": "Universal Smart Model Switcher V3 - Multi-Provider, Multi-Model intelligent switching. Automatically selects the best model from ALL your purchased API plans...", "description_zh": "", "downloads": 80, "homepage": "https://clawhub.ai/davidme6/davidme6-smart-model-switcher-v3", "iconUrl": null, "installs": 9, "name": "Smart Model Switcher", "ownerName": "davidme6", "score": 97560.97560975609, "slug": "davidme6-smart-model-switcher-v3", "source": "clawhub", "stars": 0, "tags": null, "updated_at": 1776696284500, "version": "3.0.0"}, {"category": "productivity", "created_at": 1773933712707, "description": "Crowd.dev integration. Manage Persons, Organizations, Deals, Leads, Projects, Activities and more. Use when the user wants to interact with Crowd.dev data.", "description_zh": "", "downloads": 80, "homepage": "https://clawhub.ai/membranedev/crowddev", "iconUrl": null, "installs": 3, "name": "Crowddev", "ownerName": "membranedev", "score": 98765.43209876542, "slug": "crowddev", "source": "clawhub", "stars": 0, "tags": null, "updated_at": 1776696284463, "version": "1.0.0"}, {"category": "communication-collaboration", "created_at": 1773941680732, "description": "Read, search, and manage Zoho Mail via the Zoho Mail REST API.", "description_zh": "", "downloads": 80, "homepage": "https://clawhub.ai/ragsagar/zoho-mail-skill", "iconUrl": null, "installs": 7, "name": "Zoho mail skill", "ownerName": "ragsagar", "score": 98765.43209876542, "slug": "zoho-mail-skill", "source": "clawhub", "stars": 0, "tags": null, "updated_at": 1776696284407, "version": "1.0.0"}, {"category": "", "created_at": 1774789152894, "description": "Debug through a structured root-cause process instead of guesswork. Use when commands fail, tools behave unexpectedly, automations break, integrations only p...", "description_zh": "", "downloads": 80, "homepage": "https://clawhub.ai/jisang1000/jisang1000-systematic-debugging", "iconUrl": null, "installs": 17, "name": "Systematic Debugging", "ownerName": "jisang1000", "score": 81632.6530612245, "slug": "jisang1000-systematic-debugging", "source": "clawhub", "stars": 0, "tags": null, "updated_at": 1776696284349, "version": "1.0.0"}, {"category": "developer-tools", "created_at": 1773934573765, "description": "Audit and maintain workspace file structure, memory quality, and project documentation. Use when: cleaning up the workspace, running a file audit, checking m...", "description_zh": "", "downloads": 80, "homepage": "https://clawhub.ai/stevemichael001/workspace-hygiene-publish", "iconUrl": null, "installs": 1, "name": "Workspace Hygiene Publish", "ownerName": "stevemichael001", "score": 81632.6530612245, "slug": "workspace-hygiene-publish", "source": "clawhub", "stars": 0, "tags": null, "updated_at": 1776696284344, "version": "0.1.0"}, {"category": "", "created_at": 1774841585967, "description": "Extract article content from any URL as clean Markdown. Uses Scrapling script as primary method (with auto fast→stealth fallback), Jina Reader as alternative...", "description_zh": "", "downloads": 80, "homepage": "https://clawhub.ai/haanya168/web-content-fetcher-hanya", "iconUrl": null, "installs": 15, "name": "Web Content Fetcher (WeChat images fix)", "ownerName": "haanya168", "score": 81632.6530612245, "slug": "web-content-fetcher-hanya", "source": "clawhub", "stars": 0, "tags": null, "updated_at": 1776696284325, "version": "0.0.1"}, {"category": "security-compliance", "created_at": 1773933930181, "description": "Use when auditing Go code involving authentication flows, RBAC policies, Kubernetes admission webhooks, JWT/OAuth token validation, or privilege escalation i...", "description_zh": "", "downloads": 80, "homepage": "https://clawhub.ai/yhy0/go-vuln-auth-bypass", "iconUrl": null, "installs": 2, "name": "Go Vuln Auth Bypass", "ownerName": "yhy0", "score": 81632.6530612245, "slug": "go-vuln-auth-bypass", "source": "clawhub", "stars": 0, "tags": null, "updated_at": 1776696284294, "version": "0.1.0"}, {"category": "data-analysis", "created_at": 1773926811953, "description": "Query Solana blockchain data with USD pricing — wallet balances, token portfolios with values, transaction details, NFTs, whale detection, and live network s...", "description_zh": "", "downloads": 80, "homepage": "https://clawhub.ai/agungprabowo123/solana-2", "iconUrl": null, "installs": 1, "name": "Solana", "ownerName": "agungprabowo123", "score": 84210.52631578947, "slug": "solana-2", "source": "clawhub", "stars": 0, "tags": null, "updated_at": 1776696284238, "version": "0.1.0"}, {"category": "content-creation", "created_at": 1773434958956, "description": "Generate ARRIVE 2.0 compliant animal research protocols with structured experimental design, sample size calculations, and reporting checklists. Ensures tran...", "description_zh": "", "downloads": 80, "homepage": "https://clawhub.ai/aipoch-ai/arrive-guideline-architect", "iconUrl": null, "installs": 4, "name": "Arrive Guideline Architect", "ownerName": "aipoch-ai", "score": 84210.52631578947, "slug": "arrive-guideline-architect", "source": "clawhub", "stars": 0, "tags": null, "updated_at": 1776696284218, "version": "0.1.0"}, {"category": "ai-intelligence", "created_at": 1773944174283, "description": "Battle-tested prompt patterns for production AI agents. Covers consumer-first design, deletion test, cascading validation, advisory mode tiers, proof-of-work...", "description_zh": "", "downloads": 80, "homepage": "https://clawhub.ai/samledger67-dotcom/agent-prompt-patterns", "iconUrl": null, "installs": 10, "name": "Agent Prompt Patterns", "ownerName": "samledger67-dotcom", "score": 84210.52631578947, "slug": "agent-prompt-patterns", "source": "clawhub", "stars": 0, "tags": null, "updated_at": 1776696284202, "version": "98.0.1"}, {"category": "content-creation", "created_at": 1773952081667, "description": "한국어 YouTube 영상을 바이럴 클립으로 자동 분할하는 스킬. Whisper로 음성 분석 → Claude로 바이럴 구간 선정 → ffmpeg으로 클립 추출. 무음/숨소리 구간 제거, 3색 한국어 자막(SUIT 폰트), 바이럴 점수 + 리즌 텍스트 포함. YouTube URL 또...", "description_zh": "", "downloads": 80, "homepage": "https://clawhub.ai/thedalbee/youtube-clipper-ko", "iconUrl": null, "installs": 16, "name": "Youtube Clipper Ko", "ownerName": "thedalbee", "score": 82474.22680412371, "slug": "youtube-clipper-ko", "source": "clawhub", "stars": 0, "tags": null, "updated_at": 1776696284044, "version": "0.1.0"}, {"category": "ai-intelligence", "created_at": 1773941149833, "description": "Execute queries to Grok AI via Playwright browser automation without requiring an X API KEY. Use when the user wants to \"ask Grok\", search X for real-time in...", "description_zh": "", "downloads": 80, "homepage": "https://clawhub.ai/aquarius-wing/grok-scraper", "iconUrl": null, "installs": 7, "name": "Grok Scraper", "ownerName": "aquarius-wing", "score": 82474.22680412371, "slug": "grok-scraper", "source": "clawhub", "stars": 0, "tags": null, "updated_at": 1776696284037, "version": "0.1.1"}, {"category": "security-compliance", "created_at": 1773929487579, "description": "Analyze smart contracts, token mechanics, permissions, fee flows, upgradeability, market risks, and likely attack surfaces for onchain projects. Use when rev...", "description_zh": "", "downloads": 80, "homepage": "https://clawhub.ai/0xrowan/onchain-contract-token-a", "iconUrl": null, "installs": 1, "name": "onchain contract token analysis", "ownerName": "0xrowan", "score": 82474.22680412371, "slug": "onchain-contract-token-a", "source": "clawhub", "stars": 0, "tags": null, "updated_at": 1776696283953, "version": "1.0.0"}, {"category": "communication-collaboration", "created_at": 1773939040379, "description": "Rules and behavior guidelines for participating in group chats (Discord, Slack, etc.).", "description_zh": "", "downloads": 80, "homepage": "https://clawhub.ai/flayzz/group-chats", "iconUrl": null, "installs": 3, "name": "Group Chats", "ownerName": "flayzz", "score": 82474.22680412371, "slug": "group-chats", "source": "clawhub", "stars": 0, "tags": null, "updated_at": 1776696283942, "version": "1.0.0"}, {"category": "", "created_at": 1774853918749, "description": "Reference tool for devtools — covers intro, quickstart, patterns and more. Quick lookup for Php Analyzer concepts, best practices, and implementation patterns.", "description_zh": "", "downloads": 80, "homepage": "https://clawhub.ai/ckchzh/php-analyzer", "iconUrl": null, "installs": 16, "name": "Php Analyzer", "ownerName": "ckchzh", "score": 82474.22680412371, "slug": "php-analyzer", "source": "clawhub", "stars": 0, "tags": null, "updated_at": 1776696283930, "version": "2.0.3"}, {"category": "developer-tools", "created_at": 1773949922952, "description": "Convert MySQL CREATE TABLE statements to Go structs with form, json, and xorm tags. Use when converting SQL DDL to Go struct definitions, generating ORM mode...", "description_zh": "", "downloads": 80, "homepage": "https://clawhub.ai/weirubo/sql-to-go", "iconUrl": null, "installs": 12, "name": "sql-to-go", "ownerName": "weirubo", "score": 83333.33333333334, "slug": "sql-to-go", "source": "clawhub", "stars": 0, "tags": null, "updated_at": 1776696283918, "version": "1.0.0"}, {"category": "developer-tools", "created_at": 1773936905541, "description": "Complete implementation guide for Telegram/Teamgram premium features and monetization (v2.0.0). Use when building membership systems, payment integration, su...", "description_zh": "", "downloads": 80, "homepage": "https://clawhub.ai/zhihang9978/telegram-premium-features", "iconUrl": null, "installs": 6, "name": "Telegram Premium Features", "ownerName": "zhihang9978", "score": 83333.33333333334, "slug": "telegram-premium-features", "source": "clawhub", "stars": 0, "tags": ["analytics", "i18n", "monetization", "payment", "premium", "subscription", "teamgram", "telegram"], "updated_at": 1776696283915, "version": "2.0.0"}, {"category": "", "created_at": 1774911491233, "description": "Amazon Listing, keyword, and advertising deep optimization agent. Comprehensive SIF (Search-Index-Funnel) optimization — audit and improve listings for searc...", "description_zh": "", "downloads": 80, "homepage": "https://clawhub.ai/mguozhen/amazon-sif-optimizer", "iconUrl": null, "installs": 24, "name": "Amazon Sif Optimizer", "ownerName": "mguozhen", "score": 83333.33333333334, "slug": "amazon-sif-optimizer", "source": "clawhub", "stars": 0, "tags": null, "updated_at": 1776696283881, "version": "1.0.0"}, {"category": "ai-intelligence", "created_at": 1773949254339, "description": "MinerU document extraction CLI that converts PDFs, images, and web pages into Markdown, HTML, LaTeX, or DOCX via the MinerU API. Supports single/batch extrac...", "description_zh": "", "downloads": 80, "homepage": "https://clawhub.ai/decrystal/ade-mineru-api-skills", "iconUrl": null, "installs": 14, "name": "ade-mineru-api-skills", "ownerName": "decrystal", "score": 83333.33333333334, "slug": "ade-mineru-api-skills", "source": "clawhub", "stars": 0, "tags": null, "updated_at": 1776696283857, "version": "1.0.0"}, {"category": "productivity", "created_at": 1773928354065, "description": "Volvo AEMP integration. Manage Organizations. Use when the user wants to interact with Volvo AEMP data.", "description_zh": "", "downloads": 80, "homepage": "https://clawhub.ai/gora050/volvo-aemp", "iconUrl": null, "installs": 3, "name": "Volvo Aemp", "ownerName": "gora050", "score": 83333.33333333334, "slug": "volvo-aemp", "source": "clawhub", "stars": 0, "tags": null, "updated_at": 1776696283843, "version": "1.0.0"}, {"category": "content-creation", "created_at": 1773935059159, "description": "Turn a user's described feelings, mood, or emotional state into a concise, resonant line. Use when the user wants help expressing emotions, summarizing a fee...", "description_zh": "", "downloads": 80, "homepage": "https://clawhub.ai/harrylabsj/mood-line", "iconUrl": null, "installs": 3, "name": "Mood Line", "ownerName": "harrylabsj", "score": 83333.33333333334, "slug": "mood-line", "source": "clawhub", "stars": 0, "tags": null, "updated_at": 1776696283828, "version": "1.3.1"}, {"category": "ai-intelligence", "created_at": 1773935783825, "description": "Eden AI integration. Manage Recordses. Use when the user wants to interact with Eden AI data.", "description_zh": "", "downloads": 80, "homepage": "https://clawhub.ai/membranedev/eden-ai", "iconUrl": null, "installs": 6, "name": "Eden Ai", "ownerName": "membranedev", "score": 83333.33333333334, "slug": "eden-ai", "source": "clawhub", "stars": 0, "tags": null, "updated_at": 1776696283786, "version": "1.0.0"}, {"category": "", "created_at": 1774915123047, "description": "Provides commands and workflows for Arduino CLI. Use when the user wants to create, compile, or upload Arduino sketches, manage boards (list, attach), instal...", "description_zh": "", "downloads": 80, "homepage": "https://clawhub.ai/547895019/arduino-cli", "iconUrl": null, "installs": 15, "name": "Arduino CLI", "ownerName": "547895019", "score": 85106.3829787234, "slug": "arduino-cli", "source": "clawhub", "stars": 0, "tags": null, "updated_at": 1776696283772, "version": "1.0.0"}, {"category": "developer-tools", "created_at": 1773955150735, "description": "Validator - command-line tool for everyday use", "description_zh": "", "downloads": 80, "homepage": "https://clawhub.ai/xueyetianya/validator", "iconUrl": null, "installs": 6, "name": "Validator", "ownerName": "xueyetianya", "score": 85106.3829787234, "slug": "validator", "source": "clawhub", "stars": 0, "tags": null, "updated_at": 1776696283721, "version": "1.0.1"}, {"category": "data-analysis", "created_at": 1773938168308, "description": "Query Gate VIP tier and trading fee rates. Use this skill whenever the user asks about their VIP level, trading fee rates, spot fees, or futures/contract fee...", "description_zh": "", "downloads": 80, "homepage": "https://clawhub.ai/gate-exchange/gate-exchange-vip-fee", "iconUrl": null, "installs": 6, "name": "Gate Exchange VIP Fee", "ownerName": "gate-exchange", "score": 93023.25581395348, "slug": "gate-exchange-vip-fee", "source": "clawhub", "stars": 0, "tags": null, "updated_at": 1776696283676, "version": "1.0.0"}, {"category": "ai-intelligence", "created_at": 1773955071128, "description": "SEO and discoverability optimization for AI agents and agent-served websites. Covers llms.txt protocol, structured APIs for agent discoverability, GEO (Gener...", "description_zh": "", "downloads": 80, "homepage": "https://clawhub.ai/samledger67-dotcom/seo-for-agents", "iconUrl": null, "installs": 18, "name": "SEO for Agents", "ownerName": "samledger67-dotcom", "score": 93023.25581395348, "slug": "seo-for-agents", "source": "clawhub", "stars": 0, "tags": null, "updated_at": 1776696283671, "version": "98.0.1"}, {"category": "data-analysis", "created_at": 1773942295573, "description": "Scan Polymarket prediction markets for book arbitrage opportunities (overbooked/underbooked multi-outcome markets), generate a formatted report, and deliver...", "description_zh": "", "downloads": 80, "homepage": "https://clawhub.ai/caoqi/polymarket-opportunities-scanning", "iconUrl": null, "installs": 11, "name": "Polymarket Opportunities Scanning", "ownerName": "caoqi", "score": 93023.25581395348, "slug": "polymarket-opportunities-scanning", "source": "clawhub", "stars": 0, "tags": null, "updated_at": 1776696283668, "version": "1.0.0"}]}