{"page": 412, "total_pages": 522, "total": 26073, "skills": [{"category": "content-creation", "created_at": 1773936278532, "description": "Build, refine, and package sellable AI persona/prompt products such as companion personas, roleplay personas, prompt packs, and style bundles. Use when creat...", "description_zh": "", "downloads": 79, "homepage": "https://clawhub.ai/xiaonizhou-crypto/persona-pack-builder", "iconUrl": null, "installs": 5, "name": "Persona Pack Builder", "ownerName": "xiaonizhou-crypto", "score": 60000, "slug": "persona-pack-builder", "source": "clawhub", "stars": 1, "tags": null, "updated_at": 1776749683892, "version": "1.0.0"}, {"category": "", "created_at": 1774844929737, "description": "Official skill for recognizing and extracting mathematical formulas from images and PDFs into LaTeX format using ZhiPu GLM-OCR API. Supports complex equation...", "description_zh": "", "downloads": 79, "homepage": "https://clawhub.ai/jaredforreal/glmocr-formula", "iconUrl": null, "installs": 20, "name": "GLM-OCR-Formula", "ownerName": "jaredforreal", "score": 499.58894580408526, "slug": "glmocr-formula", "source": "clawhub", "stars": 0, "tags": null, "updated_at": 1776770390565, "version": "1.0.3"}, {"category": "", "created_at": 1774916528233, "description": "Plan social media marketing strategy for e-commerce brands. Content calendars, platform selection, posting schedules, engagement tactics, and social commerce...", "description_zh": "", "downloads": 79, "homepage": "https://clawhub.ai/nexscope/ecommerce-social-media-marketing", "iconUrl": null, "installs": 1, "name": "E-Commerce Social Media Marketing", "ownerName": "nexscope", "score": 314.327776230454, "slug": "ecommerce-social-media-marketing", "source": "clawhub", "stars": 0, "tags": null, "updated_at": 1776770171273, "version": "1.0.0"}, {"category": "", "created_at": 1774952882640, "description": "Search and discover OpenClaw skills from various sources. Use when: user wants to find available skills, search for specific functionality, or discover new s...", "description_zh": "", "downloads": 79, "homepage": "https://clawhub.ai/roseknife520/find-skills-skill-rose", "iconUrl": null, "installs": 27, "name": "Find Skills Skill Rose", "ownerName": "roseknife520", "score": 4465.799886941775, "slug": "find-skills-skill-rose", "source": "clawhub", "stars": 0, "tags": null, "updated_at": 1776765066287, "version": "1.0.0"}, {"category": "", "created_at": 1774863371819, "description": "Generate official government documents formatted strictly by GB/T 9704-2012 standards, including titles, body, headings, footers, attachments, and contacts.", "description_zh": "", "downloads": 79, "homepage": "https://clawhub.ai/zhangxue1985122219/official-document", "iconUrl": null, "installs": 5, "name": "official-document", "ownerName": "zhangxue1985122219", "score": 31102.36220472441, "slug": "official-document", "source": "clawhub", "stars": 0, "tags": null, "updated_at": 1776759831745, "version": "1.0.0"}, {"category": "productivity", "created_at": 1773956912524, "description": "Summarizes public Alipay product features, announcements, and city service updates without login or payment actions.", "description_zh": "", "downloads": 79, "homepage": "https://clawhub.ai/codekungfu/alipay-hot-trend", "iconUrl": null, "installs": 5, "name": "Alipay", "ownerName": "codekungfu", "score": 6191.222570532915, "slug": "alipay-hot-trend", "source": "clawhub", "stars": 0, "tags": null, "updated_at": 1776759831684, "version": "0.1.0"}, {"category": "content-creation", "created_at": 1773955167172, "description": "Access and use sora-2 model on vwu.ai platform via OpenAI-compatible chat API with required API key configuration.", "description_zh": "", "downloads": 79, "homepage": "https://clawhub.ai/a3273283/vwu-sora", "iconUrl": null, "installs": 8, "name": "vwu.ai Sora Models", "ownerName": "a3273283", "score": 6191.222570532915, "slug": "vwu-sora", "source": "clawhub", "stars": 0, "tags": ["ai", "llm", "sora", "video", "vwu"], "updated_at": 1776759831680, "version": "1.0.0"}, {"category": "data-analysis", "created_at": 1773959817353, "description": "Performs in-depth artist analysis combining Spotify API and external web data to report streaming stats, market position, and monetization potential.", "description_zh": "", "downloads": 79, "homepage": "https://clawhub.ai/pozmac/artist-research", "iconUrl": null, "installs": 10, "name": "Artist Research", "ownerName": "pozmac", "score": 89772.72727272726, "slug": "artist-research", "source": "clawhub", "stars": 0, "tags": null, "updated_at": 1776759831508, "version": "1.0.0"}, {"category": "security-compliance", "created_at": 1773951365975, "description": "Provides time-limited, self-revoking SSH access for AI agents using certificate TTL, user expiry, forced command restrictions, and scheduled automated cleanup.", "description_zh": "", "downloads": 79, "homepage": "https://clawhub.ai/sanjeevneo/sparkey", "iconUrl": null, "installs": 4, "name": "Sparkey", "ownerName": "sanjeevneo", "score": 89772.72727272726, "slug": "sparkey", "source": "clawhub", "stars": 0, "tags": null, "updated_at": 1776759831505, "version": "1.2.1"}, {"category": "communication-collaboration", "created_at": 1773961676795, "description": "Automate sending text messages and images/files in the macOS WeChat desktop app by controlling the UI via AppleScript and JXA. This is NOT a WeChat chat chan...", "description_zh": "", "downloads": 79, "homepage": "https://clawhub.ai/yeholdon/wechat-message-sender", "iconUrl": null, "installs": 18, "name": "WeChat Send", "ownerName": "yeholdon", "score": 5864.8849294729025, "slug": "wechat-message-sender", "source": "clawhub", "stars": 0, "tags": null, "updated_at": 1776759198048, "version": "1.0.0"}, {"category": "data-analysis", "created_at": 1773942066772, "description": "Gate unified account operations skill. Use this skill whenever the user asks to check unified account equity, query borrowable or transferable limits, borrow...", "description_zh": "", "downloads": 79, "homepage": "https://clawhub.ai/gate-exchange/gate-exchange-unified", "iconUrl": null, "installs": 7, "name": "Gate Exchange Unified", "ownerName": "gate-exchange", "score": 5235.2551358515575, "slug": "gate-exchange-unified", "source": "clawhub", "stars": 0, "tags": null, "updated_at": 1776757882421, "version": "1.0.0"}, {"category": "", "created_at": 1774908150482, "description": "Amazon PPC campaign builder and optimizer for sellers. Two modes: (A) Build — design a complete campaign structure from scratch with keyword groupings, bid c...", "description_zh": "", "downloads": 79, "homepage": "https://clawhub.ai/phheng/amazon-ppc-campaign", "iconUrl": null, "installs": 18, "name": "Amazon Ppc Campaign", "ownerName": "phheng", "score": 5166.775670372793, "slug": "amazon-ppc-campaign", "source": "clawhub", "stars": 0, "tags": null, "updated_at": 1776757733294, "version": "0.1.0"}, {"category": "", "created_at": 1774847719987, "description": "You are the Product Manager. Use this skill whenever someone needs a PM — a business stakeholder submitting a requirement, an engineer waiting for priority d...", "description_zh": "", "downloads": 79, "homepage": "https://clawhub.ai/lika94/product-manager-proactive", "iconUrl": null, "installs": 11, "name": "PM — AI Product Manager Skill", "ownerName": "lika94", "score": 17594.65478841871, "slug": "product-manager-proactive", "source": "clawhub", "stars": 0, "tags": ["ai", "b2b", "consumer", "prd", "product-management", "roadmap", "startup"], "updated_at": 1776751970090, "version": "1.0.0"}, {"category": "data-analysis", "created_at": 1773958376116, "description": "Lightweight Dividend tracker. Add entries, view stats, search history, and export in multiple formats.", "description_zh": "", "downloads": 79, "homepage": "https://clawhub.ai/bytesagain3/dividend", "iconUrl": null, "installs": 8, "name": "Dividend", "ownerName": "bytesagain3", "score": 13458.262350936968, "slug": "dividend", "source": "clawhub", "stars": 0, "tags": null, "updated_at": 1776748071537, "version": "2.0.0"}, {"category": "", "created_at": 1774816494744, "description": "Interact with GitHub using the `gh` CLI. Use `gh issue`, `gh pr`, `gh run`, and `gh api` for issues, PRs, CI runs, and advanced queries.", "description_zh": "", "downloads": 79, "homepage": "https://clawhub.ai/164149043/github-tools", "iconUrl": null, "installs": 20, "name": "Github Tools", "ownerName": "164149043", "score": 81443.29896907216, "slug": "github-tools", "source": "clawhub", "stars": 0, "tags": null, "updated_at": 1776733783927, "version": "1.0.1"}, {"category": "data-analysis", "created_at": 1773946330858, "description": "Subscribe to Binance Spot public market streams through UXC raw WebSocket support for trades, book ticker, depth, and ticker events with stream-specific guar...", "description_zh": "", "downloads": 79, "homepage": "https://clawhub.ai/jolestar/binance-spot-websocket-skill", "iconUrl": null, "installs": 10, "name": "Binance Spot WebSocket Skill", "ownerName": "jolestar", "score": 95180.72289156626, "slug": "binance-spot-websocket-skill", "source": "clawhub", "stars": 0, "tags": null, "updated_at": 1776696355487, "version": "1.0.0"}, {"category": "developer-tools", "created_at": 1773939382875, "description": "Use Proxmox VE (PVE) through the `pvesh`, `qm`, and `pct` CLIs for cluster, node, VM, and LXC inspection plus routine lifecycle work. Trigger when tasks ment...", "description_zh": "", "downloads": 79, "homepage": "https://clawhub.ai/jimpang8/proxmox-ve", "iconUrl": null, "installs": 6, "name": "Proxmox VE", "ownerName": "jimpang8", "score": 96341.46341463414, "slug": "proxmox-ve", "source": "clawhub", "stars": 0, "tags": null, "updated_at": 1776696284465, "version": "0.1.1"}, {"category": "communication-collaboration", "created_at": 1773933790794, "description": "Use in Feishu chats when the assistant should stay responsive while longer work continues in the background. Creates one spawned sub-agent task per substanti...", "description_zh": "", "downloads": 79, "homepage": "https://clawhub.ai/wd041216-bit/feishu-parallel-dispatch", "iconUrl": null, "installs": 5, "name": "Feishu Parallel Dispatch", "ownerName": "wd041216-bit", "score": 97530.86419753087, "slug": "feishu-parallel-dispatch", "source": "clawhub", "stars": 0, "tags": null, "updated_at": 1776696284445, "version": "1.0.1"}, {"category": "security-compliance", "created_at": 1773934504195, "description": "Security guard skill for OpenClaw - Analyzes user input for harmful content, risky commands, and security threats before invoking LLM", "description_zh": "", "downloads": 79, "homepage": "https://clawhub.ai/john-niu-07/safety-guard-skill", "iconUrl": null, "installs": 0, "name": "OpenClaw Safety Guard", "ownerName": "john-niu-07", "score": 97530.86419753087, "slug": "safety-guard-skill", "source": "clawhub", "stars": 0, "tags": null, "updated_at": 1776696284438, "version": "1.0.1"}, {"category": "developer-tools", "created_at": 1773937489075, "description": "Build payment flows for Pump Tokenized Agents using @pump-fun/agent-payments-sdk. Use when accepting payments, building accept-payment transactions, integrat...", "description_zh": "", "downloads": 79, "homepage": "https://clawhub.ai/sushant-baton/pump-fun-tokenized-agents", "iconUrl": null, "installs": 6, "name": "Tokenized agents pump.fun", "ownerName": "sushant-baton", "score": 80612.24489795919, "slug": "pump-fun-tokenized-agents", "source": "clawhub", "stars": 0, "tags": null, "updated_at": 1776696284311, "version": "1.0.0"}, {"category": "security-compliance", "created_at": 1773929510662, "description": "Analyze smart contracts, token mechanics, permissions, fee flows, upgradeability, market risks, and likely attack surfaces for onchain projects. Use when rev...", "description_zh": "", "downloads": 79, "homepage": "https://clawhub.ai/0xrowan/onchain-contract-tokens", "iconUrl": null, "installs": 0, "name": "onchain contract token analysis", "ownerName": "0xrowan", "score": 80612.24489795919, "slug": "onchain-contract-tokens", "source": "clawhub", "stars": 0, "tags": null, "updated_at": 1776696284300, "version": "1.0.0"}, {"category": "developer-tools", "created_at": 1773941280022, "description": "Query Korean school information, meals, and timetables from the official NEIS OpenAPI. Use when the user asks for school lunch menus, school timetables, or s...", "description_zh": "", "downloads": 79, "homepage": "https://clawhub.ai/techkwon/neis-school-cli", "iconUrl": null, "installs": 9, "name": "NEIS School CLI", "ownerName": "techkwon", "score": 80612.24489795919, "slug": "neis-school-cli", "source": "clawhub", "stars": 0, "tags": ["cli", "education", "korea", "school"], "updated_at": 1776696284249, "version": "0.2.1"}, {"category": "security-compliance", "created_at": 1773945793736, "description": "Backup and restore OpenClaw data. Use when user asks to create backups, set up automatic backup schedules, restore from backup, or manage backup rotation. Ha...", "description_zh": "", "downloads": 79, "homepage": "https://clawhub.ai/richardx0319/openclaw-backup-pro", "iconUrl": null, "installs": 1, "name": "Openclaw Backup", "ownerName": "richardx0319", "score": 83157.8947368421, "slug": "openclaw-backup-pro", "source": "clawhub", "stars": 0, "tags": null, "updated_at": 1776696284176, "version": "1.1.0"}, {"category": "productivity", "created_at": 1773938113877, "description": "Draft clear creator payment terms and payment expectation templates before campaign launch. Use when teams need to reduce payout disputes and awkward payment...", "description_zh": "", "downloads": 79, "homepage": "https://clawhub.ai/leooooooow/creator-payment-terms-template", "iconUrl": null, "installs": 2, "name": "Creator Payment Terms Template", "ownerName": "leooooooow", "score": 83157.8947368421, "slug": "creator-payment-terms-template", "source": "clawhub", "stars": 0, "tags": null, "updated_at": 1776696284169, "version": "1.0.0"}, {"category": "security-compliance", "created_at": 1773935666623, "description": "Advanced security validation for Clawdbot - pattern detection, command sanitization, and threat monitoring", "description_zh": "", "downloads": 79, "homepage": "https://clawhub.ai/sonyrw/clawdbot-security-suite-bak", "iconUrl": null, "installs": 2, "name": "Clawdbot Security Suite.Bak", "ownerName": "sonyrw", "score": 83157.8947368421, "slug": "clawdbot-security-suite-bak", "source": "clawhub", "stars": 0, "tags": null, "updated_at": 1776696284135, "version": "1.0.0"}, {"category": "", "created_at": 1774947673731, "description": "Turns a raw podcast transcript into show notes, social captions, episode titles, SEO tags, and chapter timestamps. Supports both AI-narrated and human-hosted...", "description_zh": "", "downloads": 79, "homepage": "https://clawhub.ai/tetsuakira-vk/podcast-producer", "iconUrl": null, "installs": 7, "name": "Podcast Producer", "ownerName": "tetsuakira-vk", "score": 83157.8947368421, "slug": "podcast-producer", "source": "clawhub", "stars": 0, "tags": null, "updated_at": 1776696284116, "version": "1.0.0"}, {"category": "security-compliance", "created_at": 1773939189227, "description": "MTProto 2.0 protocol implementation guide for Telegram backend development. Use when implementing MTProto encryption, handshake, message serialization, or bu...", "description_zh": "", "downloads": 79, "homepage": "https://clawhub.ai/zhihang9978/mtproto-2-0", "iconUrl": null, "installs": 7, "name": "MTProto 2.0", "ownerName": "zhihang9978", "score": 83157.8947368421, "slug": "mtproto-2-0", "source": "clawhub", "stars": 0, "tags": ["backend", "encryption", "go", "mtproto", "protocol", "telegram"], "updated_at": 1776696284088, "version": "1.0.1"}, {"category": "developer-tools", "created_at": 1773433403815, "description": "Learn, test, and debug regular expressions with real-time matching, explanations, and common patterns. Perfect for developers learning regex or debugging com...", "description_zh": "", "downloads": 79, "homepage": "https://clawhub.ai/chenxuyaun/regex-playground", "iconUrl": null, "installs": 3, "name": "Regex Playground", "ownerName": "chenxuyaun", "score": 81443.29896907216, "slug": "regex-playground", "source": "clawhub", "stars": 0, "tags": null, "updated_at": 1776696284051, "version": "1.0.0"}, {"category": "communication-collaboration", "created_at": 1773935257005, "description": "Review who attended a Google Meet conference and for how long.", "description_zh": "", "downloads": 79, "homepage": "https://clawhub.ai/googleworkspace-bot/recipe-review-meet-participants", "iconUrl": null, "installs": 5, "name": "Recipe Review Meet Participants", "ownerName": "googleworkspace-bot", "score": 81443.29896907216, "slug": "recipe-review-meet-participants", "source": "clawhub", "stars": 0, "tags": null, "updated_at": 1776696283937, "version": "1.0.10"}, {"category": "communication-collaboration", "created_at": 1773930926395, "description": "Drift integration. Manage Persons, Organizations, Deals, Leads, Activities, Notes and more. Use when the user wants to interact with Drift data.", "description_zh": "", "downloads": 79, "homepage": "https://clawhub.ai/membranedev/drift-integration", "iconUrl": null, "installs": 1, "name": "Drift", "ownerName": "membranedev", "score": 82291.66666666666, "slug": "drift-integration", "source": "clawhub", "stars": 0, "tags": null, "updated_at": 1776696283920, "version": "1.0.0"}, {"category": "ai-intelligence", "created_at": 1773946212281, "description": "Stop waiting for prompts. Keep working.", "description_zh": "", "downloads": 79, "homepage": "https://clawhub.ai/123oo123442/agent-autonomy-kit-1-0-0", "iconUrl": null, "installs": 8, "name": "Agent Autonomy Kit 1.0.0", "ownerName": "123oo123442", "score": 82291.66666666666, "slug": "agent-autonomy-kit-1-0-0", "source": "clawhub", "stars": 0, "tags": null, "updated_at": 1776696283882, "version": "1.0.0"}, {"category": "", "created_at": 1773284835445, "description": "Ultimate Frisbee performance analytics powered by Garmin data. Ask \"how many sprints did I hit in yesterday's game?\", \"was my recovery fast enough between po...", "description_zh": "", "downloads": 79, "homepage": "https://clawhub.ai/evelyndevelops/garmin-frisbee-analysis", "iconUrl": null, "installs": 0, "name": "garmin-frisbee-analysis", "ownerName": "evelyndevelops", "score": 82291.66666666666, "slug": "garmin-frisbee-analysis", "source": "clawhub", "stars": 0, "tags": null, "updated_at": 1776696283789, "version": "1.1.0"}, {"category": "content-creation", "created_at": 1773954774598, "description": "Optimize text-to-image prompts for Grok and similar image models. Use when the user wants better image generation prompts, poster prompts, competition-grade...", "description_zh": "", "downloads": 79, "homepage": "https://clawhub.ai/iamkingab/grok-image-prompt-optimizer", "iconUrl": null, "installs": 18, "name": "Optimize text-to-image prompts for Grok and similar image models, especially for aviation posters, safety campaign visuals, official publicity images, and Chinese-language contest briefs.", "ownerName": "iamkingab", "score": 84042.55319148937, "slug": "grok-image-prompt-optimizer", "source": "clawhub", "stars": 0, "tags": null, "updated_at": 1776696283755, "version": "1.0.0"}, {"category": "", "created_at": 1774834720944, "description": "Maintain cross-episode story, character, and visual consistency for AI manga or anime-drama production pipelines that are generated one episode at a time fro...", "description_zh": "", "downloads": 79, "homepage": "https://clawhub.ai/jsinbupt/anime-episode-context", "iconUrl": null, "installs": 6, "name": "anime-episode-context", "ownerName": "jsinbupt", "score": 84042.55319148937, "slug": "anime-episode-context", "source": "clawhub", "stars": 0, "tags": null, "updated_at": 1776696283744, "version": "1.0.2"}, {"category": "content-creation", "created_at": 1773949089441, "description": "Use when publishing HTML articles to WeChat Official Account drafts, especially when you need cover upload, automatic cover generation, body image rewriting,...", "description_zh": "", "downloads": 79, "homepage": "https://clawhub.ai/zhylq/zhy-wechat-publish", "iconUrl": null, "installs": 12, "name": "Zhy Wechat Publish", "ownerName": "zhylq", "score": 84042.55319148937, "slug": "zhy-wechat-publish", "source": "clawhub", "stars": 0, "tags": null, "updated_at": 1776696283728, "version": "0.1.0"}, {"category": "", "created_at": 1774858684861, "description": "Immersive file & image translation — preserving original layout, formatting, and visuals. Drop in a PDF, Word, PPT, Excel, image, ePub and get back a fully t...", "description_zh": "", "downloads": 78, "homepage": "https://clawhub.ai/ray771/360-translate", "iconUrl": null, "installs": 18, "name": "File Translate", "ownerName": "ray771", "score": 329.9631964127078, "slug": "360-translate", "source": "clawhub", "stars": 0, "tags": null, "updated_at": 1776770650249, "version": "1.0.2"}, {"category": "", "created_at": 1774913829346, "description": "Automatically keep OpenClaw and installed workspace skills up to date using native OpenClaw commands. Use when the user wants automatic update checks, schedu...", "description_zh": "", "downloads": 78, "homepage": "https://clawhub.ai/zdy2019/auto-updater-openclaw", "iconUrl": null, "installs": 6, "name": "OpenClaw Auto-Updater", "ownerName": "zdy2019", "score": 840.426678159681, "slug": "auto-updater-openclaw", "source": "clawhub", "stars": 0, "tags": null, "updated_at": 1776765849839, "version": "1.0.1"}, {"category": "ai-intelligence", "created_at": 1773944667362, "description": "Analyze JD text and return structured match summary.", "description_zh": "", "downloads": 78, "homepage": "https://clawhub.ai/wanghong5233/job-monitor", "iconUrl": null, "installs": 9, "name": "Job Monitor", "ownerName": "wanghong5233", "score": 1261.1156022635407, "slug": "job-monitor", "source": "clawhub", "stars": 0, "tags": null, "updated_at": 1776763750119, "version": "1.0.0"}, {"category": "", "created_at": 1774821693971, "description": "General legal consultation entry point to help users identify their legal issues and guide them to appropriate resources. Use when the user asks about any le...", "description_zh": "", "downloads": 78, "homepage": "https://clawhub.ai/harrylabsj/legal-consultation", "iconUrl": null, "installs": 10, "name": "Legal Consultation", "ownerName": "harrylabsj", "score": 1963.2519506670023, "slug": "legal-consultation", "source": "clawhub", "stars": 0, "tags": null, "updated_at": 1776761880199, "version": "1.0.0"}, {"category": "productivity", "created_at": 1773952170884, "description": "Automate AR collections with aging analysis, prioritization, email drafts, DSO reporting, payment tracking, and bad debt reserve recommendations.", "description_zh": "", "downloads": 78, "homepage": "https://clawhub.ai/samledger67-dotcom/ar-collections-agent", "iconUrl": null, "installs": 2, "name": "AR Collections Agent", "ownerName": "samledger67-dotcom", "score": 3333.3333333333335, "slug": "ar-collections-agent", "source": "clawhub", "stars": 0, "tags": null, "updated_at": 1776759831776, "version": "98.0.1"}, {"category": "", "created_at": 1774902801989, "description": "Persistent memory system for AI agents to remember facts, learn from experience, and track entities across sessions with easy recall and updates.", "description_zh": "", "downloads": 78, "homepage": "https://clawhub.ai/tigertamvip/agent-memory-1", "iconUrl": null, "installs": 17, "name": "Agent Memory 1", "ownerName": "tigertamvip", "score": 30708.661417322837, "slug": "agent-memory-1", "source": "clawhub", "stars": 0, "tags": null, "updated_at": 1776759831733, "version": "1.0.0"}, {"category": "", "created_at": 1774952671993, "description": "Guides solo founders through validating startup ideas, architecting product design, and defining visual systems with structured design documents as output.", "description_zh": "", "downloads": 78, "homepage": "https://clawhub.ai/peadue1858/opc-guide", "iconUrl": null, "installs": 13, "name": "OPC Guide", "ownerName": "peadue1858", "score": 6112.852664576802, "slug": "opc-guide", "source": "clawhub", "stars": 0, "tags": null, "updated_at": 1776759831664, "version": "1.0.2"}, {"category": "ai-intelligence", "created_at": 1773957578306, "description": "Call and interact with vwu.ai Sihai models including sihai-i2v-31, sihai-image-27, sihai-t2v-29, and sihai-tts-25 with OpenAI-compatible API.", "description_zh": "", "downloads": 78, "homepage": "https://clawhub.ai/a3273283/vwu-sihai", "iconUrl": null, "installs": 6, "name": "vwu.ai Sihai Models", "ownerName": "a3273283", "score": 6103.286384976525, "slug": "vwu-sihai", "source": "clawhub", "stars": 0, "tags": ["ai", "llm", "sihai", "vwu"], "updated_at": 1776759831621, "version": "1.0.0"}, {"category": "", "created_at": 1774868253107, "description": "Prompt user to confirm before restarting QClaw by closing all its processes, waiting 5 seconds, then relaunching via its desktop or Start Menu shortcut.", "description_zh": "", "downloads": 78, "homepage": "https://clawhub.ai/chenguangwu/qclaw-restart", "iconUrl": null, "installs": 7, "name": "QClaw Restart", "ownerName": "chenguangwu", "score": 88636.36363636363, "slug": "qclaw-restart", "source": "clawhub", "stars": 0, "tags": null, "updated_at": 1776759831522, "version": "1.0.4"}, {"category": "", "created_at": 1774904175830, "description": "Execute cross-platform desktop tasks through a packaged desktop automation skill that guides the main agent to observe the screen, focus apps and windows, ca...", "description_zh": "", "downloads": 78, "homepage": "https://clawhub.ai/appergb/desktop-agent-ops", "iconUrl": null, "installs": 9, "name": "Desktop Agent Ops", "ownerName": "appergb", "score": 5731.080088170463, "slug": "desktop-agent-ops", "source": "clawhub", "stars": 0, "tags": null, "updated_at": 1776759082175, "version": "1.0.3"}, {"category": "", "created_at": 1774921941862, "description": "Captures learnings, errors, and corrections to enable continuous improvement. Use when: (1) A command or operation fails unexpectedly, (2) User corrects Clau...", "description_zh": "", "downloads": 78, "homepage": "https://clawhub.ai/drivercagropecuaria-cyber/self-improving-agent-orbit", "iconUrl": null, "installs": 31, "name": "Self-Improving Agent (ORBIT)", "ownerName": "drivercagropecuaria-cyber", "score": 5394.190871369295, "slug": "self-improving-agent-orbit", "source": "clawhub", "stars": 0, "tags": ["continuous-improvement", "corrections", "errors", "learning", "orbit", "pt-br", "self-improvement"], "updated_at": 1776758482967, "version": "1.0.11"}, {"category": "", "created_at": 1774861958117, "description": "Find winning Amazon products with 14 battle-tested selection strategies & 6-dimension risk assessment. Backed by 200M+ product database. Use when user asks a...", "description_zh": "", "downloads": 78, "homepage": "https://clawhub.ai/kyle-srp/amazon-analyzer-skill", "iconUrl": null, "installs": 26, "name": "APIClaw Amazon Analysis", "ownerName": "kyle-srp", "score": 4626.3345195729535, "slug": "amazon-analyzer-skill", "source": "clawhub", "stars": 0, "tags": null, "updated_at": 1776757733423, "version": "0.1.0"}, {"category": "", "created_at": 1774867481168, "description": "Amazon FBA logistics cost calculator and shipping optimizer. Compare sea freight, air freight, and express courier costs. Calculate total landed cost includi...", "description_zh": "", "downloads": 78, "homepage": "https://clawhub.ai/mguozhen/amazon-logistics-calculator", "iconUrl": null, "installs": 21, "name": "Amazon Logistics Calculator", "ownerName": "mguozhen", "score": 4626.3345195729535, "slug": "amazon-logistics-calculator", "source": "clawhub", "stars": 0, "tags": null, "updated_at": 1776757733370, "version": "1.0.0"}, {"category": "data-analysis", "created_at": 1773943140611, "description": "Trades Polymarket prediction markets on stock index milestones, major IPOs, earnings surprises, analyst upgrades, and company-specific financial events.", "description_zh": "", "downloads": 78, "homepage": "https://clawhub.ai/diagnostikon/polymarket-equity-markets-trader", "iconUrl": null, "installs": 8, "name": "Equity Markets & IPO Trader", "ownerName": "diagnostikon", "score": 4779.411764705882, "slug": "polymarket-equity-markets-trader", "source": "clawhub", "stars": 0, "tags": null, "updated_at": 1776756982308, "version": "1.0.0"}, {"category": "", "created_at": 1774869837207, "description": "Apply quantitative and qualitative forecasting techniques. Use for demand planning, revenue projections, and trend analysis.", "description_zh": "", "downloads": 78, "homepage": "https://clawhub.ai/linuszz/forecasting", "iconUrl": null, "installs": 1, "name": "Forecasting", "ownerName": "linuszz", "score": 4083.7696335078535, "slug": "forecasting", "source": "clawhub", "stars": 0, "tags": null, "updated_at": 1776754069844, "version": "1.0.0"}]}