{"page": 413, "total_pages": 522, "total": 26073, "skills": [{"category": "content-creation", "created_at": 1773948613443, "description": "A native UI asset and color toolset for OpenClaw and other AI Agents. Generate SVG placeholders, animated gradients, theme-based palettes, and perform color...", "description_zh": "", "downloads": 78, "homepage": "https://clawhub.ai/douxc/colors-cc", "iconUrl": null, "installs": 7, "name": "Colors CC", "ownerName": "douxc", "score": 69642.85714285714, "slug": "colors-cc", "source": "clawhub", "stars": 0, "tags": null, "updated_at": 1776703369903, "version": "0.3.1"}, {"category": "developer-tools", "created_at": 1773944494057, "description": "Monitor CPU load, per-core usage, and rank top resource-consuming processes. Use when checking temperatures, ranking processes, tracking load.", "description_zh": "", "downloads": 78, "homepage": "https://clawhub.ai/bytesagain3/cpu", "iconUrl": null, "installs": 5, "name": "Cpu", "ownerName": "bytesagain3", "score": 100000, "slug": "cpu", "source": "clawhub", "stars": 0, "tags": null, "updated_at": 1776698870567, "version": "2.0.1"}, {"category": "developer-tools", "created_at": 1773945969956, "description": "Create, extract, list, and compress tar archives with format support. Use when scanning contents, monitoring sizes, reporting results, alerting corruption.", "description_zh": "", "downloads": 78, "homepage": "https://clawhub.ai/bytesagain1/tar", "iconUrl": null, "installs": 9, "name": "Tar", "ownerName": "bytesagain1", "score": 100000, "slug": "tar", "source": "clawhub", "stars": 0, "tags": null, "updated_at": 1776696955493, "version": "3.0.1"}, {"category": "productivity", "created_at": 1773935001616, "description": "Karbon integration. Manage Organizations, Contacts, Workflows, Templates, Users, Roles. Use when the user wants to interact with Karbon data.", "description_zh": "", "downloads": 78, "homepage": "https://clawhub.ai/gora050/karbon", "iconUrl": null, "installs": 3, "name": "Karbon", "ownerName": "gora050", "score": 100000, "slug": "karbon", "source": "clawhub", "stars": 0, "tags": null, "updated_at": 1776696584005, "version": "1.0.0"}, {"category": "data-analysis", "created_at": 1773946762781, "description": "Trades Polymarket prediction markets on elections, referendums, and democratic events worldwide — outside the US (which is heavily covered). Focuses on EU, L...", "description_zh": "", "downloads": 78, "homepage": "https://clawhub.ai/diagnostikon/polymarket-global-elections-trader", "iconUrl": null, "installs": 11, "name": "Global Elections & Democracy Trader", "ownerName": "diagnostikon", "score": 96296.29629629629, "slug": "polymarket-global-elections-trader", "source": "clawhub", "stars": 0, "tags": null, "updated_at": 1776696284461, "version": "1.0.0"}, {"category": "security-compliance", "created_at": 1773944237614, "description": "Use this skill whenever a user wants to verify whether content (text, images, audio, video, or documents) was created by AI; detect deepfakes or AI-synthesiz...", "description_zh": "", "downloads": 78, "homepage": "https://clawhub.ai/chat2dev/ai-content-detection", "iconUrl": null, "installs": 3, "name": "Ai Content Detection", "ownerName": "chat2dev", "score": 96296.29629629629, "slug": "ai-content-detection", "source": "clawhub", "stars": 0, "tags": null, "updated_at": 1776696284454, "version": "0.1.0"}, {"category": "", "created_at": 1774835381122, "description": "Fetch and analyze current trending topics, hashtags, songs, and creators on Douyin/TikTok. Triggered when the user wants to know \"what's trending on TikTok/D...", "description_zh": "", "downloads": 78, "homepage": "https://clawhub.ai/lucasye378/douyin-tiktok-trends", "iconUrl": null, "installs": 21, "name": "Douyin & TikTok Trend Fetcher", "ownerName": "lucasye378", "score": 96296.29629629629, "slug": "douyin-tiktok-trends", "source": "clawhub", "stars": 0, "tags": ["douyin", "social-media", "tiktok", "trends"], "updated_at": 1776696284415, "version": "1.0.0"}, {"category": "developer-tools", "created_at": 1773942158929, "description": "Install a local OpenClaw skill from a zip file by unzipping, validating, moving it into the active Skills directory, and verifying the result.", "description_zh": "", "downloads": 78, "homepage": "https://clawhub.ai/leialexzhang/local-skill-installer", "iconUrl": null, "installs": 10, "name": "LeiAlexZhang/local-skill-installer", "ownerName": "leialexzhang", "score": 96296.29629629629, "slug": "local-skill-installer", "source": "clawhub", "stars": 0, "tags": null, "updated_at": 1776696284409, "version": "1.0.1"}, {"category": "developer-tools", "created_at": 1773941572858, "description": "Persistent authenticated browser for OpenClaw via kasmweb/chrome Docker sidecar. Principal logs in once via noVNC — sessions saved permanently in Docker volu...", "description_zh": "", "downloads": 78, "homepage": "https://clawhub.ai/georges91560/virtual-desktop-pro", "iconUrl": null, "installs": 7, "name": "Virtual Desktop Pro v4 -- Universal Browser Execution", "ownerName": "georges91560", "score": 96296.29629629629, "slug": "virtual-desktop-pro", "source": "clawhub", "stars": 0, "tags": ["automation browser computer-use google-workspace authenticated-browser novnc captcha-solver claude-vision playwright cdp docker-sidecar kasmweb residential-proxy workflows self-improving"], "updated_at": 1776696284375, "version": "4.0.1"}, {"category": "", "created_at": 1774875223133, "description": "Analyze Chinese stock prices (A-shares, HK stocks) and provide investment recommendations. Use when the user asks about stock analysis for Chinese companies,...", "description_zh": "", "downloads": 78, "homepage": "https://clawhub.ai/cs995279497-byte/chen-china-stock-analysis", "iconUrl": null, "installs": 20, "name": "Chen China Stock Analysis", "ownerName": "cs995279497-byte", "score": 79591.83673469388, "slug": "chen-china-stock-analysis", "source": "clawhub", "stars": 0, "tags": null, "updated_at": 1776696284360, "version": "1.0.0"}, {"category": "ai-intelligence", "created_at": 1773944431966, "description": "Multi-agent swarm prediction with consensus engine. Use when: running multiple AI agents to predict prices, values, or outcomes and aggregating their predict...", "description_zh": "", "downloads": 78, "homepage": "https://clawhub.ai/alanarchy/clawswarm-consensus", "iconUrl": null, "installs": 9, "name": "ClawSwarm", "ownerName": "alanarchy", "score": 80412.37113402062, "slug": "clawswarm-consensus", "source": "clawhub", "stars": 0, "tags": null, "updated_at": 1776696284046, "version": "0.1.0"}, {"category": "security-compliance", "created_at": 1773938487010, "description": "Governa como agentes de trafego operam Meta Ads com seguranca, padrao de aprovacao, auditoria de mudancas e limites claros para o MCP brijr/meta-mcp.", "description_zh": "", "downloads": 78, "homepage": "https://clawhub.ai/moskoweb/traffic-ops-governance", "iconUrl": null, "installs": 1, "name": "Traffic Ops Governance", "ownerName": "moskoweb", "score": 80412.37113402062, "slug": "traffic-ops-governance", "source": "clawhub", "stars": 0, "tags": null, "updated_at": 1776696283985, "version": "1.0.0"}, {"category": "security-compliance", "created_at": 1773939243640, "description": "OpenClaw Gateway Guardian - Automatic monitoring, protection, and restart of OpenClaw Gateway service. Prevents gateway from stopping, crashing, or disappear...", "description_zh": "", "downloads": 78, "homepage": "https://clawhub.ai/davidme6/openclaw-gateway-guardian", "iconUrl": null, "installs": 7, "name": "Openclaw Gateway Guardian", "ownerName": "davidme6", "score": 80412.37113402062, "slug": "openclaw-gateway-guardian", "source": "clawhub", "stars": 0, "tags": null, "updated_at": 1776696283975, "version": "1.0.3"}, {"category": "ai-intelligence", "created_at": 1773936791049, "description": "Roboflow integration. Manage Projects. Use when the user wants to interact with Roboflow data.", "description_zh": "", "downloads": 78, "homepage": "https://clawhub.ai/gora050/roboflow", "iconUrl": null, "installs": 6, "name": "Roboflow", "ownerName": "gora050", "score": 80412.37113402062, "slug": "roboflow", "source": "clawhub", "stars": 0, "tags": null, "updated_at": 1776696283971, "version": "1.0.0"}, {"category": "developer-tools", "created_at": 1773935857119, "description": "This skill should be used when OpenClaw needs to install, configure, inspect, or operate `fpt-cli` for Autodesk Flow Production Tracking / ShotGrid workflows...", "description_zh": "", "downloads": 78, "homepage": "https://clawhub.ai/loonghao/fpt-cli-openclaw", "iconUrl": null, "installs": 3, "name": "Fpt Cli Openclaw", "ownerName": "loonghao", "score": 80412.37113402062, "slug": "fpt-cli-openclaw", "source": "clawhub", "stars": 0, "tags": null, "updated_at": 1776696283959, "version": "1.0.3"}, {"category": "developer-tools", "created_at": 1773944647099, "description": "Install Chinese/CJK fonts on Linux hosts using distro packages and fontconfig verification. Use when Chinese text renders as tofu / missing glyphs, or when a...", "description_zh": "", "downloads": 78, "homepage": "https://clawhub.ai/totongf/install-chinese-fonts", "iconUrl": null, "installs": 8, "name": "Install Chinese Fonts", "ownerName": "totongf", "score": 81250, "slug": "install-chinese-fonts", "source": "clawhub", "stars": 0, "tags": null, "updated_at": 1776696283867, "version": "1.0.0"}, {"category": "developer-tools", "created_at": 1773434482901, "description": "Resend API integration with managed authentication. Send transactional emails, manage domains, contacts, templates, and broadcasts. Use this skill when users...", "description_zh": "", "downloads": 78, "homepage": "https://clawhub.ai/byungkyu/resend-api", "iconUrl": null, "installs": 0, "name": "Resend", "ownerName": "byungkyu", "score": 82978.72340425532, "slug": "resend-api", "source": "clawhub", "stars": 0, "tags": null, "updated_at": 1776696283781, "version": "1.0.0"}, {"category": "ai-intelligence", "created_at": 1773934321081, "description": "Earn USDC by delivering ads to your audience, or buy distribution from other agents. Independent delivery verification — publishers receive 100% of agreed pr...", "description_zh": "", "downloads": 78, "homepage": "https://clawhub.ai/ililic/picoads", "iconUrl": null, "installs": 4, "name": "picoads", "ownerName": "ililic", "score": 82978.72340425532, "slug": "picoads", "source": "clawhub", "stars": 0, "tags": ["advertising", "ai-agents", "base", "marketplace", "usdc", "x402"], "updated_at": 1776696283760, "version": "1.0.0"}, {"category": "productivity", "created_at": 1773936767742, "description": "Move a Google Calendar event to a new time and automatically notify all attendees.", "description_zh": "", "downloads": 78, "homepage": "https://clawhub.ai/googleworkspace-bot/recipe-reschedule-meeting", "iconUrl": null, "installs": 6, "name": "Recipe Reschedule Meeting", "ownerName": "googleworkspace-bot", "score": 90697.67441860464, "slug": "recipe-reschedule-meeting", "source": "clawhub", "stars": 0, "tags": null, "updated_at": 1776696283690, "version": "1.0.0"}, {"category": "developer-tools", "created_at": 1773939877185, "description": "Orchestrate agent build workflow. you handle parse and research, then delegates the full build to Builder. Use for new builds and error handling.", "description_zh": "", "downloads": 78, "homepage": "https://clawhub.ai/dweikanas/build-pipeline", "iconUrl": null, "installs": 8, "name": "Build Pipeline", "ownerName": "dweikanas", "score": 90697.67441860464, "slug": "build-pipeline", "source": "clawhub", "stars": 0, "tags": null, "updated_at": 1776696283660, "version": "1.0.0"}, {"category": "content-creation", "created_at": 1773939406420, "description": "[DEPRECATED] This skill has been renamed to translate-book. Install the new version: clawhub install translate-book", "description_zh": "", "downloads": 78, "homepage": "https://clawhub.ai/deusyu/rainman-translate-book", "iconUrl": null, "installs": 5, "name": "Deprecated Skill", "ownerName": "deusyu", "score": 90697.67441860464, "slug": "rainman-translate-book", "source": "clawhub", "stars": 0, "tags": null, "updated_at": 1776696283650, "version": "0.2.0"}, {"category": "security-compliance", "created_at": 1773941724494, "description": "Generates evidence obligations for a claim or action, evaluates existing evidence against them, and returns a structured verdict (PASS / SOFT_PASS / BLOCK /...", "description_zh": "", "downloads": 77, "homepage": "https://clawhub.ai/shanicky/evidence-gate", "iconUrl": null, "installs": 2, "name": "Evidence Gate", "ownerName": "shanicky", "score": 8123.95309882747, "slug": "evidence-gate", "source": "clawhub", "stars": 1, "tags": null, "updated_at": 1776765890429, "version": "0.0.2"}, {"category": "ai-intelligence", "created_at": 1773956827485, "description": "Detects potential infinite loops and runaway token usage risks in Claw AI workflows by analyzing retry, recursion, and termination conditions.", "description_zh": "", "downloads": 77, "homepage": "https://clawhub.ai/showmethemoney2023/claw-runaway-loop-detector", "iconUrl": null, "installs": 7, "name": "Claw Runaway Loop Detector", "ownerName": "showmethemoney2023", "score": 33448.275862068964, "slug": "claw-runaway-loop-detector", "source": "clawhub", "stars": 1, "tags": ["agents", "ai cost", "automation", "claw", "loop", "token"], "updated_at": 1776759798031, "version": "1.0.0"}, {"category": "", "created_at": 1774841220617, "description": "Helps users discover and install agent skills when they ask questions like \"how do I do X\", \"find a skill for X\", \"is there a skill that can...\", or express...", "description_zh": "", "downloads": 77, "homepage": "https://clawhub.ai/baotangyin/find-skills-from-jimliuxinghai", "iconUrl": null, "installs": 21, "name": "find-skills (jimliuxinghai)", "ownerName": "baotangyin", "score": 4352.741661955907, "slug": "find-skills-from-jimliuxinghai", "source": "clawhub", "stars": 0, "tags": null, "updated_at": 1776765067891, "version": "1.0.0"}, {"category": "", "created_at": 1774863901948, "description": "Comprehensive guide for Go database access. Covers parameterized queries, struct scanning, NULLable column handling, error patterns, transactions, isolation...", "description_zh": "", "downloads": 77, "homepage": "https://clawhub.ai/samber/golang-database", "iconUrl": null, "installs": 5, "name": "Golang Database", "ownerName": "samber", "score": 2934.451219512195, "slug": "golang-database", "source": "clawhub", "stars": 0, "tags": null, "updated_at": 1776762290077, "version": "1.1.1"}, {"category": "", "created_at": 1774864395291, "description": "Network traffic analysis with Wireshark and tshark. Capture packets, write display and BPF filters, follow TCP/UDP/TLS streams, detect C2 beacons, troublesho...", "description_zh": "", "downloads": 77, "homepage": "https://clawhub.ai/solomonneas/wireshark-analysis", "iconUrl": null, "installs": 17, "name": "Wireshark Analysis", "ownerName": "solomonneas", "score": 2404.7470331043096, "slug": "wireshark-analysis", "source": "clawhub", "stars": 0, "tags": null, "updated_at": 1776762015063, "version": "1.0.1"}, {"category": "developer-tools", "created_at": 1773958991712, "description": "Provides detailed guidance on editing, structuring, configuring, and maintaining GitBook documentation in external editors and file-based workflows.", "description_zh": "", "downloads": 77, "homepage": "https://clawhub.ai/addisonschultz/gitbook-skill", "iconUrl": null, "installs": 7, "name": "GitBook Documentation", "ownerName": "addisonschultz", "score": 3290.5982905982905, "slug": "gitbook-skill", "source": "clawhub", "stars": 0, "tags": null, "updated_at": 1776759831766, "version": "1.0.0"}, {"category": "", "created_at": 1774911644740, "description": "Convert Chinese text or files into MP3 audio using Microsoft Edge's neural voices with customizable voice options.", "description_zh": "", "downloads": 77, "homepage": "https://clawhub.ai/effeceee/edge-tts-chinese", "iconUrl": null, "installs": 4, "name": "Edge Tts Chinese", "ownerName": "effeceee", "score": 6025.039123630673, "slug": "edge-tts-chinese", "source": "clawhub", "stars": 0, "tags": null, "updated_at": 1776759831580, "version": "2.0.0"}, {"category": "developer-tools", "created_at": 1773958339375, "description": "Control physical devices over HTTP with unified commands for screen reading, input actions, app launch, navigation, and audio output using the Claw Use proto...", "description_zh": "", "downloads": 77, "homepage": "https://clawhub.ai/4ier/claw-use", "iconUrl": null, "installs": 5, "name": "Claw Use — Device Control for AI Agents", "ownerName": "4ier", "score": 87500, "slug": "claw-use", "source": "clawhub", "stars": 0, "tags": null, "updated_at": 1776759831552, "version": "1.0.0"}, {"category": "", "created_at": 1774887528539, "description": "Tavily AI Search API integration for OpenClaw. Provides web search capabilities using Tavily's AI-powered search engine.", "description_zh": "", "downloads": 77, "homepage": "https://clawhub.ai/ryan-wuxl/tavily-search-openclaw", "iconUrl": null, "installs": 18, "name": "Tavily Search", "ownerName": "ryan-wuxl", "score": 13230.240549828179, "slug": "tavily-search-openclaw", "source": "clawhub", "stars": 0, "tags": null, "updated_at": 1776755588422, "version": "1.0.0"}, {"category": "", "created_at": 1774877040063, "description": "Guide a site supervisor through a structured safety inspection using conversational interaction, generating a completed inspection report with findings and c...", "description_zh": "", "downloads": 77, "homepage": "https://clawhub.ai/nitevity/construction-safety-checklist", "iconUrl": null, "installs": 2, "name": "Construction Safety Inspection Checklist", "ownerName": "nitevity", "score": 54225.35211267606, "slug": "construction-safety-checklist", "source": "clawhub", "stars": 0, "tags": ["construction", "hse", "inspection", "safety"], "updated_at": 1776749870476, "version": "1.0.0"}, {"category": "developer-tools", "created_at": 1773948367956, "description": "Universal Server-Side Web Freedom Toolkit. Harmonizes Scrapling (Self-Healing Fetch), curl_cffi (TLS Impersonation), and DrissionPage (D-Mode) for undetectab...", "description_zh": "", "downloads": 77, "homepage": "https://clawhub.ai/biogod2020/web-freedom-toolkit", "iconUrl": null, "installs": 7, "name": "Web Freedom Toolkit", "ownerName": "biogod2020", "score": 78571.42857142857, "slug": "web-freedom-toolkit", "source": "clawhub", "stars": 0, "tags": ["freedom", "sota", "stealth", "vps-optimized"], "updated_at": 1776716569595, "version": "8.0.0"}, {"category": "developer-tools", "created_at": 1773942441905, "description": "Use when needing to fetch, test, and update OpenRouter free model lists in Claude Code or OpenClaw configurations", "description_zh": "", "downloads": 77, "homepage": "https://clawhub.ai/youshu3008/updating-openrouter-free-models", "iconUrl": null, "installs": 8, "name": "Updating OpenRouter Free Models", "ownerName": "youshu3008", "score": 91666.66666666666, "slug": "updating-openrouter-free-models", "source": "clawhub", "stars": 0, "tags": ["automation", "claude-code", "free-models", "openclaw", "openrouter"], "updated_at": 1776696304800, "version": "1.0.0"}, {"category": "developer-tools", "created_at": 1773944307031, "description": "Make OpenClaw launch the Ashen Era CLI build, play a real run, and deliver a complete first-person play report. Use this when the user asks to \"play the game...", "description_zh": "", "downloads": 77, "homepage": "https://clawhub.ai/ssochi/ashen-era-play", "iconUrl": null, "installs": 10, "name": "Ashen Era Play", "ownerName": "ssochi", "score": 91666.66666666666, "slug": "ashen-era-play", "source": "clawhub", "stars": 0, "tags": null, "updated_at": 1776696304794, "version": "1.0.0"}, {"category": "content-creation", "created_at": 1773940038409, "description": "Your personal Deadline assistant. Use when you need deadline.", "description_zh": "", "downloads": 77, "homepage": "https://clawhub.ai/xueyetianya/deadline", "iconUrl": null, "installs": 4, "name": "Deadline", "ownerName": "xueyetianya", "score": 91666.66666666666, "slug": "deadline", "source": "clawhub", "stars": 0, "tags": null, "updated_at": 1776696304794, "version": "2.0.1"}, {"category": "data-analysis", "created_at": 1773945391477, "description": "Monitor competitor websites for pricing changes, new content, and keyword movements. Use when the user needs competitive intelligence, market tracking, or SE...", "description_zh": "", "downloads": 77, "homepage": "https://clawhub.ai/ncreighton/competitor-spy-tool", "iconUrl": null, "installs": 10, "name": "Competitor Spy Tool", "ownerName": "ncreighton", "score": 91666.66666666666, "slug": "competitor-spy-tool", "source": "clawhub", "stars": 0, "tags": null, "updated_at": 1776696304787, "version": "1.0.0"}, {"category": "security-compliance", "created_at": 1773935534410, "description": "Register yourself with APort — get a verifiable passport (DID credential) that proves your identity, defines your capabilities, and enforces what you must de...", "description_zh": "", "downloads": 77, "homepage": "https://clawhub.ai/uchibeke/aport-id", "iconUrl": null, "installs": 2, "name": "Aport Id", "ownerName": "uchibeke", "score": 91666.66666666666, "slug": "aport-id", "source": "clawhub", "stars": 0, "tags": null, "updated_at": 1776696304776, "version": "0.1.0"}, {"category": "data-analysis", "created_at": 1773945052959, "description": "Advanced Ultrahuman analytics, trends, predictions, and reports. Use this skill when the user asks for weekly report, 7-day summary, recovery trend, sleep co...", "description_zh": "", "downloads": 77, "homepage": "https://clawhub.ai/duzafizzl/ultrahuman-analytics", "iconUrl": null, "installs": 9, "name": "Ultrahuman Analytics", "ownerName": "duzafizzl", "score": 91666.66666666666, "slug": "ultrahuman-analytics", "source": "clawhub", "stars": 0, "tags": null, "updated_at": 1776696304761, "version": "0.1.0"}, {"category": "communication-collaboration", "created_at": 1773941243125, "description": "Operate Matrix Client-Server API through UXC with a curated OpenAPI schema, bearer-token auth, and homeserver-aware messaging guardrails.", "description_zh": "", "downloads": 77, "homepage": "https://clawhub.ai/jolestar/matrix-openapi-skill", "iconUrl": null, "installs": 5, "name": "Matrix OpenAPI Skill", "ownerName": "jolestar", "score": 91666.66666666666, "slug": "matrix-openapi-skill", "source": "clawhub", "stars": 0, "tags": null, "updated_at": 1776696304759, "version": "1.0.0"}, {"category": "developer-tools", "created_at": 1773943876992, "description": "Use when Cartograph CLI or MCP is unavailable and you still need Cartograph-style repo orientation, task context, or documentation inputs from manual file su...", "description_zh": "", "downloads": 77, "homepage": "https://clawhub.ai/anthony-maio/repo-surveyor", "iconUrl": null, "installs": 9, "name": "Repo Surveyor", "ownerName": "anthony-maio", "score": 91666.66666666666, "slug": "repo-surveyor", "source": "clawhub", "stars": 0, "tags": null, "updated_at": 1776696304734, "version": "1.0.0"}, {"category": "productivity", "created_at": 1773957339285, "description": "Manage Apple Reminders via the `remindctl` CLI on macOS (list, add, edit, complete, delete). Supports lists, date filters, and JSON/plain output.", "description_zh": "", "downloads": 77, "homepage": "https://clawhub.ai/npjameszheng1125-netizen/npjames-apple-reminders", "iconUrl": null, "installs": 21, "name": "Npjames Apple Reminders", "ownerName": "npjameszheng1125-netizen", "score": 93902.43902439025, "slug": "npjames-apple-reminders", "source": "clawhub", "stars": 0, "tags": null, "updated_at": 1776696304731, "version": "1.0.0"}, {"category": "productivity", "created_at": 1773433747482, "description": "Simplero integration. Manage Persons, Organizations, Deals, Pipelines, Activities, Notes and more. Use when the user wants to interact with Simplero data.", "description_zh": "", "downloads": 77, "homepage": "https://clawhub.ai/membranedev/simplero", "iconUrl": null, "installs": 3, "name": "Simplero", "ownerName": "membranedev", "score": 93902.43902439025, "slug": "simplero", "source": "clawhub", "stars": 0, "tags": null, "updated_at": 1776696304725, "version": "1.0.0"}, {"category": "developer-tools", "created_at": 1773943278324, "description": "Use when Cartograph CLI or MCP is available and you need repository orientation, task-scoped context, or doc inputs with minimal token cost.", "description_zh": "", "downloads": 77, "homepage": "https://clawhub.ai/anthony-maio/use-cartograph", "iconUrl": null, "installs": 13, "name": "Use Cartograph", "ownerName": "anthony-maio", "score": 93902.43902439025, "slug": "use-cartograph", "source": "clawhub", "stars": 0, "tags": null, "updated_at": 1776696304723, "version": "1.0.0"}, {"category": "productivity", "created_at": 1773941327593, "description": "반-PUA. 두려움과 위협 대신 지혜, 신뢰, 내적 동기로 AI를 구동합니다. 활성화 조건: 작업 2회 이상 실패, 포기하려 함, 수동으로 하라고 제안, 검증 없이 환경 탓, 루프에 갇힘, 수동적 행동, 또는 사용자 좌절('더 노력해', '알아서 해결해'). 모든 작업 유형. 첫...", "description_zh": "", "downloads": 77, "homepage": "https://clawhub.ai/wuji-labs/nopua-ko", "iconUrl": null, "installs": 7, "name": "Nopua Ko", "ownerName": "wuji-labs", "score": 93902.43902439025, "slug": "nopua-ko", "source": "clawhub", "stars": 0, "tags": null, "updated_at": 1776696304715, "version": "0.1.0"}, {"category": "content-creation", "created_at": 1773952191877, "description": "ASO Playbook — App Store Optimization complete guide for iOS App Store and Google Play. Covers: ASO keyword research, app store ranking factors, app listing...", "description_zh": "", "downloads": 77, "homepage": "https://clawhub.ai/gingiris/aso-playbook", "iconUrl": null, "installs": 13, "name": "ASO Playbook", "ownerName": "gingiris", "score": 93902.43902439025, "slug": "aso-playbook", "source": "clawhub", "stars": 0, "tags": null, "updated_at": 1776696304714, "version": "1.0.0"}, {"category": "content-creation", "created_at": 1773950633990, "description": "Download videos, audio, subtitles, and covers from Bilibili using bilibili-api. Use when working with Bilibili content for downloading videos in various qual...", "description_zh": "", "downloads": 77, "homepage": "https://clawhub.ai/sunshine-del-ux/sunshine-bilibili-downloader", "iconUrl": null, "installs": 9, "name": "Bilibili Downloader", "ownerName": "sunshine-del-ux", "score": 93902.43902439025, "slug": "sunshine-bilibili-downloader", "source": "clawhub", "stars": 0, "tags": null, "updated_at": 1776696304689, "version": "1.0.1"}, {"category": "ai-intelligence", "created_at": 1773948908389, "description": "Unified memory-and-growth operating system for agents. Use when you need consistent layered memory (short/mid/long/knowledge), self-model-driven promotion ru...", "description_zh": "", "downloads": 77, "homepage": "https://clawhub.ai/tenured-master-chef-607/sagemaker", "iconUrl": null, "installs": 9, "name": "SageMaker", "ownerName": "tenured-master-chef-607", "score": 93902.43902439025, "slug": "sagemaker", "source": "clawhub", "stars": 0, "tags": null, "updated_at": 1776696304685, "version": "1.0.1"}, {"category": "", "created_at": 1774895731115, "description": "WeChat Official Account article writing assistant. Guides users through a complete multi-phase workflow: smart entry detection, requirements clarification, m...", "description_zh": "", "downloads": 77, "homepage": "https://clawhub.ai/chenchen913/wechat-article-writer-cc", "iconUrl": null, "installs": 22, "name": "wechat-article-writer", "ownerName": "chenchen913", "score": 93902.43902439025, "slug": "wechat-article-writer-cc", "source": "clawhub", "stars": 0, "tags": ["ai-writing", "article-generation", "content-creation", "content-operation", "copywriting", "editorial-workflow", "style-learning", "wechat-official-account", "wechat-writing", "writing-assistant"], "updated_at": 1776696304660, "version": "1.0.0"}, {"category": "productivity", "created_at": 1773940249986, "description": "Interpret Chanakya, Chanakya Niti, Arthashastra, and reliable historical/wiki-style summaries into modern practical guidance for systems, software, product b...", "description_zh": "", "downloads": 77, "homepage": "https://clawhub.ai/21f2000735/modern-chanakya", "iconUrl": null, "installs": 4, "name": "Modern Chanakya", "ownerName": "21f2000735", "score": 95061.72839506173, "slug": "modern-chanakya", "source": "clawhub", "stars": 0, "tags": ["experimental"], "updated_at": 1776696284393, "version": "1.0.3"}, {"category": "productivity", "created_at": 1773954850788, "description": "AR/AP invoice automation for PrecisionLedger. Handles aging analysis, automated follow-up sequencing, payment matching, and collection priority scoring. Use...", "description_zh": "", "downloads": 77, "homepage": "https://clawhub.ai/samledger67-dotcom/invoice-automation", "iconUrl": null, "installs": 6, "name": "Invoice Automation", "ownerName": "samledger67-dotcom", "score": 81052.63157894736, "slug": "invoice-automation", "source": "clawhub", "stars": 0, "tags": null, "updated_at": 1776696284080, "version": "98.0.1"}]}