{"page": 414, "total_pages": 522, "total": 26073, "skills": [{"category": "ai-intelligence", "created_at": 1773942229988, "description": "Build and troubleshoot OpenClaw multi-agent workflows on Feishu. This skill teaches coordinator and specialist agents to combine visible `<at>` mentions with...", "description_zh": "", "downloads": 77, "homepage": "https://clawhub.ai/ccharlesmeng/openclaw-feishu-multi-agent", "iconUrl": null, "installs": 7, "name": "OpenClaw Feishu Multi-Agent", "ownerName": "ccharlesmeng", "score": 80208.33333333334, "slug": "openclaw-feishu-multi-agent", "source": "clawhub", "stars": 0, "tags": null, "updated_at": 1776696283826, "version": "1.0.1"}, {"category": "data-analysis", "created_at": 1773944893792, "description": "Export Google Contacts directory to a Google Sheets spreadsheet.", "description_zh": "", "downloads": 76, "homepage": "https://clawhub.ai/googleworkspace-bot/recipe-sync-contacts-to-sheet", "iconUrl": null, "installs": 10, "name": "Recipe Sync Contacts To Sheet", "ownerName": "googleworkspace-bot", "score": 1012.2535961640916, "slug": "recipe-sync-contacts-to-sheet", "source": "clawhub", "stars": 0, "tags": null, "updated_at": 1776769271128, "version": "1.0.10"}, {"category": "developer-tools", "created_at": 1773043090714, "description": "USE THIS for web scraping, data extraction, crawling websites. Scrape LinkedIn (profiles, companies, jobs), Twitter/X, Instagram, TikTok, Amazon (products, r...", "description_zh": "", "downloads": 76, "homepage": "https://clawhub.ai/xiaoyinqu/web-scraping-api", "iconUrl": null, "installs": 16, "name": "Web Scraping API", "ownerName": "xiaoyinqu", "score": 974.2340725548007, "slug": "web-scraping-api", "source": "clawhub", "stars": 0, "tags": null, "updated_at": 1776768671191, "version": "1.0.0"}, {"category": "", "created_at": 1774855231589, "description": "Generate structured Product Requirements Documents (PRD) from natural language user requirements. Use when a user provides an app idea or feature request and...", "description_zh": "", "downloads": 76, "homepage": "https://clawhub.ai/tc1993/prd-skill", "iconUrl": null, "installs": 20, "name": "Prd Skill", "ownerName": "tc1993", "score": 1014.415376401495, "slug": "prd-skill", "source": "clawhub", "stars": 0, "tags": null, "updated_at": 1776761390520, "version": "1.0.1"}, {"category": "", "created_at": 1774824431044, "description": "Provides summaries and data extraction from public Tencent Video pages including shows, rankings, updates, ratings, and guest info without downloads or bulk...", "description_zh": "", "downloads": 76, "homepage": "https://clawhub.ai/codekungfu/tencent-video", "iconUrl": null, "installs": 8, "name": "Tencent Video", "ownerName": "codekungfu", "score": 5988.967691095351, "slug": "tencent-video", "source": "clawhub", "stars": 0, "tags": null, "updated_at": 1776759982714, "version": "0.1.0"}, {"category": "", "created_at": 1774919295779, "description": "Provides a structured memory system for AI agents with global and project memory, promotion rules, validation, and maintenance to prevent forgetting and conf...", "description_zh": "", "downloads": 76, "homepage": "https://clawhub.ai/dlpanyi-cpu/agent-memory-os", "iconUrl": null, "installs": 16, "name": "Agent Memory OS", "ownerName": "dlpanyi-cpu", "score": 5998.421468034728, "slug": "agent-memory-os", "source": "clawhub", "stars": 0, "tags": null, "updated_at": 1776759982338, "version": "0.1.0"}, {"category": "", "created_at": 1774886928804, "description": "Provides knowledge on renewable power generation, energy storage solutions, and smart grid optimization to achieve carbon-neutral energy systems.", "description_zh": "", "downloads": 76, "homepage": "https://clawhub.ai/duanc-chao/get", "iconUrl": null, "installs": 9, "name": "Green energy", "ownerName": "duanc-chao", "score": 3247.863247863248, "slug": "get", "source": "clawhub", "stars": 0, "tags": null, "updated_at": 1776759831779, "version": "1.0.0"}, {"category": "productivity", "created_at": 1773960544132, "description": "Sync activities from Garmin China to Garmin Global using local timestamps and distance to avoid duplicates in a one-way sync process.", "description_zh": "", "downloads": 76, "homepage": "https://clawhub.ai/iamtonyzhou/garmin-sync-cn-to-global", "iconUrl": null, "installs": 5, "name": "Garmin Sync Cn To Global", "ownerName": "iamtonyzhou", "score": 3247.863247863248, "slug": "garmin-sync-cn-to-global", "source": "clawhub", "stars": 0, "tags": null, "updated_at": 1776759831759, "version": "1.1.0"}, {"category": "ai-intelligence", "created_at": 1773959370942, "description": "OpenClaw native multi-agent orchestrator. Based on AOrchestra 4-tuple (I,C,T,M) abstraction. Dynamically creates sub-agents, parallel execution, smart routin...", "description_zh": "", "downloads": 76, "homepage": "https://clawhub.ai/zcyynl/claw-orchestra", "iconUrl": null, "installs": 5, "name": "claw-orchestra", "ownerName": "zcyynl", "score": 29921.25984251969, "slug": "claw-orchestra", "source": "clawhub", "stars": 0, "tags": ["multi-agent", "orchestra", "pipeline", "swarm"], "updated_at": 1776759831755, "version": "0.1.0"}, {"category": "", "created_at": 1774868977688, "description": "Generate AI dance videos where characters move to music or choreography templates using Media.io OpenAPI. Creates dynamic, rhythmic dance animations. AI danc...", "description_zh": "", "downloads": 76, "homepage": "https://clawhub.ai/wondershare-boop/mediaio-ai-dance-video-generator", "iconUrl": null, "installs": 13, "name": "AI Dance Video Generator", "ownerName": "wondershare-boop", "score": 29921.25984251969, "slug": "mediaio-ai-dance-video-generator", "source": "clawhub", "stars": 0, "tags": null, "updated_at": 1776759831737, "version": "1.0.0"}, {"category": "developer-tools", "created_at": 1773957657283, "description": "Installs and configures the Agentic SPM plugin for OpenClaw using a secp256k1 keypair to authenticate with the Guardian AI API and Chromia blockchain.", "description_zh": "", "downloads": 76, "homepage": "https://clawhub.ai/ketiyohanneschromaway/agent-spm-setup-skill", "iconUrl": null, "installs": 6, "name": "AGENT SPM SKILL", "ownerName": "ketiyohanneschromaway", "score": 5956.112852664577, "slug": "agent-spm-setup-skill", "source": "clawhub", "stars": 0, "tags": null, "updated_at": 1776759831728, "version": "1.0.0"}, {"category": "", "created_at": 1774914158934, "description": "Video game strategy specialist. Amalgamates tactics, builds, guides, and meta knowledge from Reddit, YouTube creators, wikis, Twitter/X, and game databases t...", "description_zh": "", "downloads": 76, "homepage": "https://clawhub.ai/rclark4958/game-scout", "iconUrl": null, "installs": 7, "name": "Game Scout", "ownerName": "rclark4958", "score": 5946.79186228482, "slug": "game-scout", "source": "clawhub", "stars": 0, "tags": null, "updated_at": 1776759831627, "version": "0.3.1"}, {"category": "", "created_at": 1774859356161, "description": "Amazon keyword research and strategy agent. Input a seed keyword, product idea, or competitor ASIN — get keyword clusters, search volume estimates, competiti...", "description_zh": "", "downloads": 76, "homepage": "https://clawhub.ai/mguozhen/mguozhen-amazon-keyword-research", "iconUrl": null, "installs": 18, "name": "Amazon Keyword Research", "ownerName": "mguozhen", "score": 5923.616523772408, "slug": "mguozhen-amazon-keyword-research", "source": "clawhub", "stars": 0, "tags": null, "updated_at": 1776759797835, "version": "1.0.0"}, {"category": "productivity", "created_at": 1773946830426, "description": "Evaluate which kind of seller a shopper should prefer on Chinese e-commerce platforms. Use when the user is deciding between official flagship stores, brand-...", "description_zh": "", "downloads": 76, "homepage": "https://clawhub.ai/harrylabsj/shopping-merchant", "iconUrl": null, "installs": 6, "name": "Shopping Merchant", "ownerName": "harrylabsj", "score": 14100.185528756956, "slug": "shopping-merchant", "source": "clawhub", "stars": 0, "tags": null, "updated_at": 1776754988421, "version": "1.2.2"}, {"category": "developer-tools", "created_at": 1773951439353, "description": "One command to check if your entire stack is up to date. SSHes into servers, queries APIs, and compares installed versions against latest — across every serv...", "description_zh": "", "downloads": 76, "homepage": "https://clawhub.ai/rtaylorgraham/version-drift", "iconUrl": null, "installs": 10, "name": "Version Drift Publish", "ownerName": "rtaylorgraham", "score": 14366.729678638943, "slug": "version-drift", "source": "clawhub", "stars": 0, "tags": ["devops", "drift-detection", "homelab", "infrastructure", "monitoring", "self-hosted", "updates", "version-management"], "updated_at": 1776753283749, "version": "1.2.1"}, {"category": "", "created_at": 1774858256539, "description": "Security-first skill vetting for AI agents. Use before installing any skill from ClawdHub, GitHub, or other sources. Checks for red flags, permission scope,...", "description_zh": "", "downloads": 76, "homepage": "https://clawhub.ai/landingdang/landingdang-skill-vetter-1-0-0", "iconUrl": null, "installs": 21, "name": "Landingdang Skill Vetter 1 0 0", "ownerName": "landingdang", "score": 78350.51546391753, "slug": "landingdang-skill-vetter-1-0-0", "source": "clawhub", "stars": 0, "tags": null, "updated_at": 1776733844410, "version": "1.0.2"}, {"category": "developer-tools", "created_at": 1773942142963, "description": "Lemon Squeezy integration. Manage Stores. Use when the user wants to interact with Lemon Squeezy data.", "description_zh": "", "downloads": 76, "homepage": "https://clawhub.ai/membranedev/lemon-squeezy", "iconUrl": null, "installs": 7, "name": "Lemon Squeezy", "ownerName": "membranedev", "score": 93827.16049382715, "slug": "lemon-squeezy", "source": "clawhub", "stars": 0, "tags": null, "updated_at": 1776696344699, "version": "1.0.0"}, {"category": "data-analysis", "created_at": 1773945314658, "description": "Comprehensive luggage and bag industry sourcing guide for international buyers – provides detailed information about China's travel luggage, handbags, backpa...", "description_zh": "", "downloads": 76, "homepage": "https://clawhub.ai/1970168137/china-luggage-sourcing", "iconUrl": null, "installs": 12, "name": "China Luggage Sourcing", "ownerName": "1970168137", "score": 93827.16049382715, "slug": "china-luggage-sourcing", "source": "clawhub", "stars": 0, "tags": null, "updated_at": 1776696344677, "version": "1.0.0"}, {"category": "productivity", "created_at": 1773934875218, "description": "Get current weather and forecasts (no API key required).", "description_zh": "", "downloads": 76, "homepage": "https://clawhub.ai/denfly618/denfly-skill", "iconUrl": null, "installs": 2, "name": "Denfly Skill", "ownerName": "denfly618", "score": 83516.48351648352, "slug": "denfly-skill", "source": "clawhub", "stars": 0, "tags": null, "updated_at": 1776696344633, "version": "1.0.0"}, {"category": "security-compliance", "created_at": 1773938221752, "description": "Secure credential storage system for OpenClaw that encrypts and protects API keys, tokens, and sensitive credentials from memory file compromise.", "description_zh": "", "downloads": 76, "homepage": "https://clawhub.ai/keven0706/openclaw-key-management", "iconUrl": null, "installs": 7, "name": "OpenClaw 安全密钥管理体系", "ownerName": "keven0706", "score": 83516.48351648352, "slug": "openclaw-key-management", "source": "clawhub", "stars": 0, "tags": ["key-management", "security"], "updated_at": 1776696344623, "version": "1.0.2"}, {"category": "productivity", "created_at": 1773938267378, "description": "Manage PerfexCRM from any messaging app. Full CRUD for customers, invoices, leads, tickets, projects, contracts, and 13 more resources (170 API endpoints). C...", "description_zh": "", "downloads": 76, "homepage": "https://clawhub.ai/kostasmm/perfexcrm-api", "iconUrl": null, "installs": 5, "name": "Openclaw Perfexcrm Skill", "ownerName": "kostasmm", "score": 83516.48351648352, "slug": "perfexcrm-api", "source": "clawhub", "stars": 0, "tags": ["api", "automation", "crm", "invoices", "perfexcrm", "telegram", "tickets", "whatsapp"], "updated_at": 1776696344606, "version": "1.0.0"}, {"category": "ai-intelligence", "created_at": 1773939513256, "description": "Browse, install, switch, and manage SOUL.md personality files for OpenClaw agents from the soulsearching.ai directory. Use when a user asks to: install a sou...", "description_zh": "", "downloads": 76, "homepage": "https://clawhub.ai/stirman/soul-searching", "iconUrl": null, "installs": 4, "name": "Soul Searching", "ownerName": "stirman", "score": 100000, "slug": "soul-searching", "source": "clawhub", "stars": 0, "tags": ["agent-customization", "personality", "soul", "soul.md"], "updated_at": 1776696344546, "version": "1.0.0"}, {"category": "data-analysis", "created_at": 1773945943123, "description": "Bitcoin intelligence: fee recommendations, mempool status, price, block info, and address lookups via the Satoshi API. Zero config — no node required.", "description_zh": "", "downloads": 76, "homepage": "https://clawhub.ai/bortlesboat/satoshi-api", "iconUrl": null, "installs": 10, "name": "Satoshi API — Bitcoin Intelligence", "ownerName": "bortlesboat", "score": 100000, "slug": "satoshi-api", "source": "clawhub", "stars": 0, "tags": null, "updated_at": 1776696344524, "version": "0.1.0"}, {"category": "content-creation", "created_at": 1773942256735, "description": "Post articles to DEV.to using AppleScript Chrome control. Use when user wants to publish technical blog posts, showdev articles, or open source project annou...", "description_zh": "", "downloads": 76, "homepage": "https://clawhub.ai/phy041/phy-devto-post", "iconUrl": null, "installs": 6, "name": "phy-devto-post", "ownerName": "phy041", "score": 100000, "slug": "phy-devto-post", "source": "clawhub", "stars": 0, "tags": ["productivity"], "updated_at": 1776696344517, "version": "1.0.0"}, {"category": "productivity", "created_at": 1773939004004, "description": "Google Drive API integration with managed OAuth. List, search, create, and manage files and folders. Use this skill when users want to interact with Google D...", "description_zh": "", "downloads": 76, "homepage": "https://clawhub.ai/sprinterx69/googledrive", "iconUrl": null, "installs": 4, "name": "google", "ownerName": "sprinterx69", "score": 100000, "slug": "googledrive", "source": "clawhub", "stars": 0, "tags": null, "updated_at": 1776696344483, "version": "1.0.0"}, {"category": "ai-intelligence", "created_at": 1773941981793, "description": "Activate when the user asks a question that requires judgment, choice, or decision-making. This skill helps provide structured decision support by analyzing...", "description_zh": "", "downloads": 76, "homepage": "https://clawhub.ai/patrtiox/decision-mode", "iconUrl": null, "installs": 7, "name": "Decision Mode", "ownerName": "patrtiox", "score": 100000, "slug": "decision-mode", "source": "clawhub", "stars": 0, "tags": ["analysis", "confidence", "decision"], "updated_at": 1776696344469, "version": "1.0.0"}, {"category": "ai-intelligence", "created_at": 1773939812580, "description": "Create and run multi-agent AI workflows on AIProx. Chain agents into scheduled pipelines. Pay per execution in sats.", "description_zh": "", "downloads": 76, "homepage": "https://clawhub.ai/unixlamadev-spec/aiprox-workflows", "iconUrl": null, "installs": 4, "name": "Aiprox Workflows", "ownerName": "unixlamadev-spec", "score": 100000, "slug": "aiprox-workflows", "source": "clawhub", "stars": 0, "tags": null, "updated_at": 1776696344454, "version": "1.0.1"}, {"category": "productivity", "created_at": 1773935822611, "description": "FieldPulse integration. Manage Organizations. Use when the user wants to interact with FieldPulse data.", "description_zh": "", "downloads": 76, "homepage": "https://clawhub.ai/membranedev/fieldpulse", "iconUrl": null, "installs": 2, "name": "Fieldpulse", "ownerName": "membranedev", "score": 90476.19047619047, "slug": "fieldpulse", "source": "clawhub", "stars": 0, "tags": null, "updated_at": 1776696344402, "version": "1.0.0"}, {"category": "productivity", "created_at": 1773940362983, "description": "Search and recommend verified B2B software products from the NaN Mesh catalog. Returns structured data with confidence scores, verification badges, and exclu...", "description_zh": "", "downloads": 76, "homepage": "https://clawhub.ai/sacravenger/nanmesh", "iconUrl": null, "installs": 7, "name": "NaN Mesh", "ownerName": "sacravenger", "score": 90476.19047619047, "slug": "nanmesh", "source": "clawhub", "stars": 0, "tags": ["b2b", "product-discovery", "recommendations"], "updated_at": 1776696344381, "version": "1.0.0"}, {"category": "", "created_at": 1774856096682, "description": "Operate Milvus vector database with pymilvus — collections, vector search, hybrid search, indexes, RBAC, partitions, and more via Python code.", "description_zh": "", "downloads": 75, "homepage": "https://clawhub.ai/lumina2025/milvus", "iconUrl": null, "installs": 6, "name": "Milvus", "ownerName": "lumina2025", "score": 1497.304851267718, "slug": "milvus", "source": "clawhub", "stars": 0, "tags": ["embeddings", "milvus", "pymilvus", "rag", "semantic-search", "vector-database"], "updated_at": 1776767650046, "version": "1.0.0"}, {"category": "", "created_at": 1774871399608, "description": "Convert photos and images into cartoon-style illustrations using AI via Media.io OpenAPI. Transforms real photos into animated cartoon characters. image to c...", "description_zh": "", "downloads": 75, "homepage": "https://clawhub.ai/wondershare-boop/mediaio-image-to-cartoon-generator", "iconUrl": null, "installs": 0, "name": "Image to Cartoon Generator", "ownerName": "wondershare-boop", "score": 1498.8009592326139, "slug": "mediaio-image-to-cartoon-generator", "source": "clawhub", "stars": 0, "tags": null, "updated_at": 1776765971280, "version": "1.0.1"}, {"category": "", "created_at": 1774894069440, "description": "Integrates ZenTao project management APIs to query and manage products, projects, executions, stories, tasks, bugs, and related data via unified interface.", "description_zh": "", "downloads": 75, "homepage": "https://clawhub.ai/15334615152/yoyoalphax-zentao1", "iconUrl": null, "installs": 13, "name": "Yoyoalphax Zentao1", "ownerName": "15334615152", "score": 2146.536920435032, "slug": "yoyoalphax-zentao1", "source": "clawhub", "stars": 0, "tags": null, "updated_at": 1776765325562, "version": "1.0.0"}, {"category": "", "created_at": 1774879595919, "description": "Guide users and developers through WeChat Pay’s payment methods, integration options, security measures, and ecosystem features accurately and clearly.", "description_zh": "", "downloads": 75, "homepage": "https://clawhub.ai/duanc-chao/wechatpay", "iconUrl": null, "installs": 6, "name": "Wechat pay tutorial", "ownerName": "duanc-chao", "score": 986.063633973179, "slug": "wechatpay", "source": "clawhub", "stars": 0, "tags": null, "updated_at": 1776761839812, "version": "1.0.0"}, {"category": "developer-tools", "created_at": 1773960175360, "description": "Generate production-ready CLI tool skeletons in Bash or Python with argument parsing, help docs, error handling, and shell completions in seconds.", "description_zh": "", "downloads": 75, "homepage": "https://clawhub.ai/zhaog100/cli-tool-generator", "iconUrl": null, "installs": 8, "name": "Cli Tool Generator", "ownerName": "zhaog100", "score": 5896.22641509434, "slug": "cli-tool-generator", "source": "clawhub", "stars": 0, "tags": null, "updated_at": 1776759982809, "version": "1.2.1"}, {"category": "", "created_at": 1774860217026, "description": "Provides aggregated summaries and updates of public short videos, short dramas, and trending lists from Haokan video pages based on keywords or topics.", "description_zh": "", "downloads": 75, "homepage": "https://clawhub.ai/codenova58/haokan", "iconUrl": null, "installs": 13, "name": "Haokan", "ownerName": "codenova58", "score": 5882.35294117647, "slug": "haokan", "source": "clawhub", "stars": 0, "tags": null, "updated_at": 1776759982423, "version": "0.1.0"}, {"category": "", "created_at": 1774904448842, "description": "LoRa Channel Activity Detection (CAD) scanner for LilyGo T3 v1.6 (ESP32-PICO-D4 + SX1276) with HackRF One support. Scans a configurable frequency range using...", "description_zh": "", "downloads": 75, "homepage": "https://clawhub.ai/arsatyants/lora-cad-scanner", "iconUrl": null, "installs": 11, "name": "LoRa CAD air scanner", "ownerName": "arsatyants", "score": 5919.4948697711125, "slug": "lora-cad-scanner", "source": "clawhub", "stars": 0, "tags": null, "updated_at": 1776759982364, "version": "1.0.5"}, {"category": "", "created_at": 1774906266799, "description": "Amazon sales volume estimator for sellers and product researchers. Estimate monthly sales and revenue from BSR (Best Seller Rank), ASIN, or keyword. Three mo...", "description_zh": "", "downloads": 75, "homepage": "https://clawhub.ai/phheng/amazon-sales-estimator", "iconUrl": null, "installs": 20, "name": "Amazon Sales Estimator", "ownerName": "phheng", "score": 4448.398576512456, "slug": "amazon-sales-estimator", "source": "clawhub", "stars": 0, "tags": null, "updated_at": 1776757733364, "version": "0.1.0"}, {"category": "", "created_at": 1774869192523, "description": "Generate persuasive sales scripts, competitive comparison talking points, and real-time response recommendations", "description_zh": "", "downloads": 75, "homepage": "https://clawhub.ai/1970168137/sales-dialogue", "iconUrl": null, "installs": 6, "name": "Sales Dialogue", "ownerName": "1970168137", "score": 78125, "slug": "sales-dialogue", "source": "clawhub", "stars": 0, "tags": null, "updated_at": 1776743171989, "version": "1.0.0"}, {"category": "", "created_at": 1774905758655, "description": "PDF to Markdown converter - extract text, tables and formulas from PDF files to clean Markdown. Use when converting PDF documents, extracting PDF content, pa...", "description_zh": "", "downloads": 75, "homepage": "https://clawhub.ai/tanis90/pdf2md", "iconUrl": null, "installs": 20, "name": "Pdf2md", "ownerName": "tanis90", "score": 77319.58762886598, "slug": "pdf2md", "source": "clawhub", "stars": 0, "tags": null, "updated_at": 1776742183761, "version": "1.0.0"}, {"category": "", "created_at": 1774849821510, "description": "Memory Palace for AI — persistent structured memory, identity, and task management across every conversation.", "description_zh": "", "downloads": 75, "homepage": "https://clawhub.ai/codesstar/loci-brain", "iconUrl": null, "installs": 9, "name": "Loci — Memory Palace for AI", "ownerName": "codesstar", "score": 78947.36842105263, "slug": "loci-brain", "source": "clawhub", "stars": 0, "tags": ["brain", "memory", "persistence"], "updated_at": 1776735004825, "version": "0.2.0"}, {"category": "ai-intelligence", "created_at": 1773074024600, "description": "USE THIS for Perplexity, AI search, web research, real-time information. Access Perplexity Sonar, Sonar Pro, Reasoning Pro, Deep Research. Search the web wit...", "description_zh": "", "downloads": 75, "homepage": "https://clawhub.ai/xiaoyinqu/perplexity-search", "iconUrl": null, "installs": 7, "name": "Perplexity Search", "ownerName": "xiaoyinqu", "score": 79787.23404255319, "slug": "perplexity-search", "source": "clawhub", "stars": 0, "tags": null, "updated_at": 1776701683688, "version": "1.0.0"}, {"category": "productivity", "created_at": 1773942101113, "description": "Google My Business integration. Manage Businesses, Users. Use when the user wants to interact with Google My Business data.", "description_zh": "", "downloads": 75, "homepage": "https://clawhub.ai/membranedev/google-my-business", "iconUrl": null, "installs": 3, "name": "Google My Business", "ownerName": "membranedev", "score": 92592.5925925926, "slug": "google-my-business", "source": "clawhub", "stars": 0, "tags": null, "updated_at": 1776696344714, "version": "1.0.0"}, {"category": "developer-tools", "created_at": 1773946509427, "description": "Meta-skill for building and publishing agent skills on ClawHub. Covers skill structure, YAML frontmatter specification, references directory convention, nega...", "description_zh": "", "downloads": 75, "homepage": "https://clawhub.ai/samledger67-dotcom/eigenskill-builder", "iconUrl": null, "installs": 10, "name": "EigenSkill Builder", "ownerName": "samledger67-dotcom", "score": 92592.5925925926, "slug": "eigenskill-builder", "source": "clawhub", "stars": 0, "tags": null, "updated_at": 1776696344705, "version": "98.0.1"}, {"category": "data-analysis", "created_at": 1773947263728, "description": "Professional control and deep analysis skill for Gaggiuino-modified espresso machines. Supports real-time monitoring, 2Hz high-fidelity shot analysis (Flow v...", "description_zh": "", "downloads": 75, "homepage": "https://clawhub.ai/zackzmai/gaggiuino", "iconUrl": null, "installs": 13, "name": "gaggiuino", "ownerName": "zackzmai", "score": 92592.5925925926, "slug": "gaggiuino", "source": "clawhub", "stars": 0, "tags": null, "updated_at": 1776696344679, "version": "1.0.0"}, {"category": "", "created_at": 1774868680263, "description": "Multi-agent swarm coordination via the ClawTeam CLI. Use when the user wants to create agent teams, spawn multiple agents to work in parallel, coordinate tas...", "description_zh": "", "downloads": 75, "homepage": "https://clawhub.ai/xybio/clawteam-skill", "iconUrl": null, "installs": 8, "name": "clawteam-skill", "ownerName": "xybio", "score": 92592.5925925926, "slug": "clawteam-skill", "source": "clawhub", "stars": 0, "tags": null, "updated_at": 1776696344673, "version": "1.1.2"}, {"category": "ai-intelligence", "created_at": 1773948963030, "description": "Generate images using the internal Google Antigravity API (Gemini 3 Pro Image). High quality, native generation without browser automation.", "description_zh": "", "downloads": 75, "homepage": "https://clawhub.ai/sunshine-del-ux/sunshine-antigravity-image-gen", "iconUrl": null, "installs": 13, "name": "Antigravity Image Gen", "ownerName": "sunshine-del-ux", "score": 82417.58241758241, "slug": "sunshine-antigravity-image-gen", "source": "clawhub", "stars": 0, "tags": null, "updated_at": 1776696344647, "version": "1.0.1"}, {"category": "ai-intelligence", "created_at": 1773956400597, "description": "A self-evolution engine for AI agents. Analyzes runtime history to identify improvements and applies protocol-constrained evolution.", "description_zh": "", "downloads": 75, "homepage": "https://clawhub.ai/muguozi1/evolver-local", "iconUrl": null, "installs": 14, "name": "Evolver Local", "ownerName": "muguozi1", "score": 82417.58241758241, "slug": "evolver-local", "source": "clawhub", "stars": 0, "tags": null, "updated_at": 1776696344627, "version": "1.0.0"}, {"category": "", "created_at": 1774841163849, "description": "Local-first recurring schedule engine for reminders, repeated tasks, and time-based execution plans. Use whenever the user mentions recurring timing, repetit...", "description_zh": "", "downloads": 75, "homepage": "https://clawhub.ai/panchenbo/cron-scheduler-local", "iconUrl": null, "installs": 10, "name": "Cron Scheduler Local", "ownerName": "panchenbo", "score": 82417.58241758241, "slug": "cron-scheduler-local", "source": "clawhub", "stars": 0, "tags": null, "updated_at": 1776696344625, "version": "1.0.0"}, {"category": "developer-tools", "created_at": 1773942335059, "description": "Create or update recurring chat cron jobs that choose exactly one @ID from a configured list on each run, avoid repeating the previous target, persist the la...", "description_zh": "", "downloads": 75, "homepage": "https://clawhub.ai/sakullla/rotating-single-target-cron", "iconUrl": null, "installs": 7, "name": "Rotating Single Target Cron", "ownerName": "sakullla", "score": 82417.58241758241, "slug": "rotating-single-target-cron", "source": "clawhub", "stars": 0, "tags": null, "updated_at": 1776696344620, "version": "1.0.2"}, {"category": "developer-tools", "created_at": 1773946596933, "description": "Honeybadger integration. Manage Organizations, Users. Use when the user wants to interact with Honeybadger data.", "description_zh": "", "downloads": 75, "homepage": "https://clawhub.ai/gora050/honeybadger", "iconUrl": null, "installs": 3, "name": "Honeybadger", "ownerName": "gora050", "score": 82417.58241758241, "slug": "honeybadger", "source": "clawhub", "stars": 0, "tags": null, "updated_at": 1776696344610, "version": "1.0.0"}]}