{"page": 415, "total_pages": 522, "total": 26073, "skills": [{"category": "content-creation", "created_at": 1773947605954, "description": "Scan content for product mentions and auto-insert affiliate links with FTC compliance disclosures. Use when the user needs to monetize blog posts, product re...", "description_zh": "", "downloads": 75, "homepage": "https://clawhub.ai/ncreighton/affiliate-link-injector", "iconUrl": null, "installs": 7, "name": "Affiliate Link Injector", "ownerName": "ncreighton", "score": 82417.58241758241, "slug": "affiliate-link-injector", "source": "clawhub", "stars": 0, "tags": null, "updated_at": 1776696344598, "version": "1.0.0"}, {"category": "security-compliance", "created_at": 1773935216632, "description": "A partnership covenant for AI agents and their human operators. v1.1 adds the Subagent Responsibility Chain and Inspectability Clause.", "description_zh": "", "downloads": 75, "homepage": "https://clawhub.ai/crabspace/prime-directive", "iconUrl": null, "installs": 3, "name": "prime-directive", "ownerName": "crabspace", "score": 82417.58241758241, "slug": "prime-directive", "source": "clawhub", "stars": 0, "tags": ["continuity", "ethics", "human-agent", "identity", "partnership", "subagents"], "updated_at": 1776696344595, "version": "1.1.0"}, {"category": "content-creation", "created_at": 1773941585218, "description": "Fetch weather data and generate a spoken weather broadcast using SenseAudio TTS.", "description_zh": "", "downloads": 75, "homepage": "https://clawhub.ai/scikkk/weather-broadcast", "iconUrl": null, "installs": 10, "name": "Weather Broadcast", "ownerName": "scikkk", "score": 82417.58241758241, "slug": "weather-broadcast", "source": "clawhub", "stars": 0, "tags": null, "updated_at": 1776696344588, "version": "1.0.0"}, {"category": "", "created_at": 1773284855183, "description": "Prevent vague follow-up promises in OpenClaw by making message delivery explicit. Use when the user asks how a later result will reach them, how to bind comp...", "description_zh": "", "downloads": 75, "homepage": "https://clawhub.ai/sonicrang/openclaw-msg-delivery-guide", "iconUrl": null, "installs": 0, "name": "OpenClaw Msg Delivery Guide", "ownerName": "sonicrang", "score": 82417.58241758241, "slug": "openclaw-msg-delivery-guide", "source": "clawhub", "stars": 0, "tags": null, "updated_at": 1776696344583, "version": "1.0.2"}, {"category": "developer-tools", "created_at": 1773948138191, "description": "Make OpenClaw launch the Ashen Era CLI build, play a real run, and deliver a complete first-person play report. Use this when the user asks to \"play the game...", "description_zh": "", "downloads": 75, "homepage": "https://clawhub.ai/ssochi/play", "iconUrl": null, "installs": 8, "name": "play", "ownerName": "ssochi", "score": 98684.21052631579, "slug": "play", "source": "clawhub", "stars": 0, "tags": null, "updated_at": 1776696344501, "version": "1.0.0"}, {"category": "developer-tools", "created_at": 1773937585024, "description": "Complete guide for developing RPC services in Teamgram Server (v2.0.0). Use when creating new RPC methods, implementing business logic, or extending Teamgram...", "description_zh": "", "downloads": 75, "homepage": "https://clawhub.ai/zhihang9978/teamgram-rpc-development", "iconUrl": null, "installs": 4, "name": "Teamgram RPC Development", "ownerName": "zhihang9978", "score": 98684.21052631579, "slug": "teamgram-rpc-development", "source": "clawhub", "stars": 0, "tags": ["backend", "development", "grpc", "mtproto", "production", "rpc", "teamgram"], "updated_at": 1776696344490, "version": "2.0.0"}, {"category": "productivity", "created_at": 1773944448781, "description": "Cleaning makes home management simple. Record, search, and analyze your data with clear terminal output.", "description_zh": "", "downloads": 75, "homepage": "https://clawhub.ai/bytesagain/cleaning", "iconUrl": null, "installs": 4, "name": "Cleaning", "ownerName": "bytesagain", "score": 98684.21052631579, "slug": "cleaning", "source": "clawhub", "stars": 0, "tags": null, "updated_at": 1776696344476, "version": "1.0.2"}, {"category": "communication-collaboration", "created_at": 1773937523655, "description": "Send a team announcement via both Gmail and a Google Chat space.", "description_zh": "", "downloads": 75, "homepage": "https://clawhub.ai/googleworkspace-bot/recipe-send-team-announcement", "iconUrl": null, "installs": 4, "name": "Recipe Send Team Announcement", "ownerName": "googleworkspace-bot", "score": 98684.21052631579, "slug": "recipe-send-team-announcement", "source": "clawhub", "stars": 0, "tags": null, "updated_at": 1776696344462, "version": "1.0.10"}, {"category": "content-creation", "created_at": 1773955402744, "description": "Call Cutout.Pro visual processing APIs to perform background removal, face cutout, and photo enhancement. Supports both file upload and image URL input, retu...", "description_zh": "", "downloads": 75, "homepage": "https://clawhub.ai/cutout-pro/cutout-visual-api", "iconUrl": null, "installs": 16, "name": "A Python CLI skill for Cutout.Pro visual APIs — background removal, face cutout, and photo enhancement. Supports file upload & image URL input.", "ownerName": "cutout-pro", "score": 98684.21052631579, "slug": "cutout-visual-api", "source": "clawhub", "stars": 0, "tags": null, "updated_at": 1776696344458, "version": "1.0.0"}, {"category": "ai-intelligence", "created_at": 1773950951735, "description": "Complex task orchestration and subagent command framework. Execute multi-stage complex tasks via subagent (sessions_spawn), including task breakdown, state m...", "description_zh": "", "downloads": 75, "homepage": "https://clawhub.ai/miyan1221/complex-task-subagent", "iconUrl": null, "installs": 15, "name": "复杂任务指挥子代理", "ownerName": "miyan1221", "score": 98684.21052631579, "slug": "complex-task-subagent", "source": "clawhub", "stars": 0, "tags": null, "updated_at": 1776696344446, "version": "2.0.0"}, {"category": "productivity", "created_at": 1773940428856, "description": "Create and maintain dedicated archives for each pet, including profiles, daily journals, photos, feeding logs, health records, and care reminders. Use when t...", "description_zh": "", "downloads": 75, "homepage": "https://clawhub.ai/harrylabsj/pet-companion-journal", "iconUrl": null, "installs": 6, "name": "Pet Companion Journal", "ownerName": "harrylabsj", "score": 89285.71428571429, "slug": "pet-companion-journal", "source": "clawhub", "stars": 0, "tags": null, "updated_at": 1776696344417, "version": "1.0.0"}, {"category": "productivity", "created_at": 1773936156806, "description": "TeamWave integration. Manage Organizations, Pipelines, Users, Filters. Use when the user wants to interact with TeamWave data.", "description_zh": "", "downloads": 75, "homepage": "https://clawhub.ai/membranedev/teamwave", "iconUrl": null, "installs": 2, "name": "Teamwave", "ownerName": "membranedev", "score": 89285.71428571429, "slug": "teamwave", "source": "clawhub", "stars": 0, "tags": null, "updated_at": 1776696344386, "version": "1.0.0"}, {"category": "security-compliance", "created_at": 1773942602687, "description": "Cryptographic accountability for AI agent actions. Seal every action with Ed25519 signatures, verify receipts, and prove what your agent did — or chose not t...", "description_zh": "", "downloads": 74, "homepage": "https://clawhub.ai/hellothere012/notaryos", "iconUrl": null, "installs": 1, "name": "NotaryOS", "ownerName": "hellothere012", "score": 90384.61538461539, "slug": "notaryos", "source": "clawhub", "stars": 1, "tags": null, "updated_at": 1776723469578, "version": "2.2.0"}, {"category": "", "created_at": 1774833344749, "description": "Search images from text queries and return the most relevant image result, candidate images, source pages, or ready-to-open search links. Use when the user a...", "description_zh": "", "downloads": 74, "homepage": "https://clawhub.ai/mumu-0922/smart-image-search", "iconUrl": null, "installs": 9, "name": "Smart Image Search", "ownerName": "mumu-0922", "score": 260.5450320399972, "slug": "smart-image-search", "source": "clawhub", "stars": 0, "tags": null, "updated_at": 1776770050058, "version": "0.1.0"}, {"category": "", "created_at": 1774886956407, "description": "BaZi-style reflective readings for personality, money, career, relationships, life themes, annual themes, and current luck-cycle interpretation using date/ti...", "description_zh": "", "downloads": 74, "homepage": "https://clawhub.ai/adamsellers/grounded-bazi", "iconUrl": null, "installs": 16, "name": "BaZi", "ownerName": "adamsellers", "score": 1692.976435598261, "slug": "grounded-bazi", "source": "clawhub", "stars": 0, "tags": null, "updated_at": 1776764050418, "version": "0.1.0"}, {"category": "", "created_at": 1774920390882, "description": "Convert text, images, PDFs, websites, or YouTube videos into multilingual AI-generated podcast audio using Podcastfy's open-source Python toolkit.", "description_zh": "", "downloads": 74, "homepage": "https://clawhub.ai/mr-11even/podcastfy-openclaw-skill", "iconUrl": null, "installs": 0, "name": "Podcastfy Openclaw Skill", "ownerName": "mr-11even", "score": 1550.3875968992247, "slug": "podcastfy-openclaw-skill", "source": "clawhub", "stars": 0, "tags": null, "updated_at": 1776763450421, "version": "1.0.0"}, {"category": "", "created_at": 1774796234540, "description": "Extract structured data from unstructured sources. Parse JSON, CSV, logs, and mixed formats into clean, usable data. Handle malformed data, nested structures...", "description_zh": "", "downloads": 74, "homepage": "https://clawhub.ai/engsathiago/data-extractor", "iconUrl": null, "installs": 6, "name": "Data Extractor", "ownerName": "engsathiago", "score": 480.8629540580934, "slug": "data-extractor", "source": "clawhub", "stars": 0, "tags": ["cleaning", "csv", "data", "extraction", "json", "logs", "parsing"], "updated_at": 1776762482490, "version": "1.0.0"}, {"category": "", "created_at": 1774870125791, "description": "Auto meeting notes and action item execution loop. Trigger this skill whenever the user mentions meeting notes, meeting summary, action items, follow-up, tra...", "description_zh": "", "downloads": 74, "homepage": "https://clawhub.ai/dttnpole-commits/meetingos", "iconUrl": null, "installs": 8, "name": "会议智脑（MeetingOS）", "ownerName": "dttnpole-commits", "score": 34741.78403755869, "slug": "meetingos", "source": "clawhub", "stars": 0, "tags": ["automation", "chinese", "enterprise", "feishu", "linear", "meeting", "notion", "productivity", "transcription", "wecom"], "updated_at": 1776759983202, "version": "1.0.9"}, {"category": "productivity", "created_at": 1773958156730, "description": "Automation skill for Srs.", "description_zh": "", "downloads": 74, "homepage": "https://clawhub.ai/caidongyun/srs", "iconUrl": null, "installs": 3, "name": "Srs", "ownerName": "caidongyun", "score": 5071.967100753941, "slug": "srs", "source": "clawhub", "stars": 0, "tags": null, "updated_at": 1776759982320, "version": "1.0.0"}, {"category": "data-analysis", "created_at": 1773959086020, "description": "Continuous Static Market Making execution skill for Polymarket. Sells BOTH sides of 5-minute binary markets at $0.52. Features multi-asset support and an aut...", "description_zh": "", "downloads": 74, "homepage": "https://clawhub.ai/thony32/polymarket-maker", "iconUrl": null, "installs": 8, "name": "Polymarket Cryptos Maker 5m", "ownerName": "thony32", "score": 5623.100303951368, "slug": "polymarket-maker", "source": "clawhub", "stars": 0, "tags": null, "updated_at": 1776759982205, "version": "1.0.0"}, {"category": "", "created_at": 1774923547871, "description": "Generate TikTok-style avatar videos from a script and image using the LovelyBots API. Queue a video, poll for completion, and retrieve a download URL — all i...", "description_zh": "", "downloads": 74, "homepage": "https://clawhub.ai/georgegally/tiktok-video-maker", "iconUrl": null, "installs": 23, "name": "TikTok Video Maker", "ownerName": "georgegally", "score": 4050.355774493705, "slug": "tiktok-video-maker", "source": "clawhub", "stars": 0, "tags": null, "updated_at": 1776754688568, "version": "1.0.0"}, {"category": "", "created_at": 1774893467375, "description": "Generate clean A4 PDF reports from structured JSON using Jinja2 and WeasyPrint. Use when the user needs a formatted PDF document — analytical summary, data r...", "description_zh": "", "downloads": 74, "homepage": "https://clawhub.ai/mohamed-hammane/pdf-report", "iconUrl": null, "installs": 18, "name": "PDF Report", "ownerName": "mohamed-hammane", "score": 76288.65979381443, "slug": "pdf-report", "source": "clawhub", "stars": 0, "tags": null, "updated_at": 1776738170328, "version": "1.0.0"}, {"category": "developer-tools", "created_at": 1773947438962, "description": "Set up a Solidity smart contract project with OpenZeppelin Contracts. Use when users need to: (1) create a new Hardhat or Foundry project, (2) install OpenZe...", "description_zh": "", "downloads": 74, "homepage": "https://clawhub.ai/samledger67-dotcom/setup-solidity-contracts", "iconUrl": null, "installs": 7, "name": "setup solidity contracts", "ownerName": "samledger67-dotcom", "score": 82222.22222222222, "slug": "setup-solidity-contracts", "source": "clawhub", "stars": 0, "tags": null, "updated_at": 1776737383782, "version": "1.0.0"}, {"category": "ai-intelligence", "created_at": 1773945861242, "description": "Multi-agent orchestration patterns for production deployments. Covers sub-agent QC workflow, model staggering across 5+ models, cross-validation patterns, fa...", "description_zh": "", "downloads": 74, "homepage": "https://clawhub.ai/samledger67-dotcom/precisionledger-agent-orchestration", "iconUrl": null, "installs": 6, "name": "Agent Orchestration Patterns", "ownerName": "samledger67-dotcom", "score": 67889.90825688074, "slug": "precisionledger-agent-orchestration", "source": "clawhub", "stars": 0, "tags": null, "updated_at": 1776732769819, "version": "1.0.0"}, {"category": "developer-tools", "created_at": 1773942376171, "description": "Documents the MTProto protocol handling layer in Teamgram Server, including handshake, AES-IGE decryption, QuickAck, auth_key caching, and message forwarding...", "description_zh": "", "downloads": 74, "homepage": "https://clawhub.ai/zhihang9978/teamgram-mtproto-protocol", "iconUrl": null, "installs": 10, "name": "Teamgram MTProto Protocol", "ownerName": "zhihang9978", "score": 100000, "slug": "teamgram-mtproto-protocol", "source": "clawhub", "stars": 0, "tags": null, "updated_at": 1776696470155, "version": "1.0.1"}, {"category": "productivity", "created_at": 1773936970599, "description": "Personal memo and todo management system. Use when user expresses intent related to remembering, tracking, or managing tasks.", "description_zh": "", "downloads": 74, "homepage": "https://clawhub.ai/yfsong0709/yf-memo", "iconUrl": null, "installs": 3, "name": "yf-memo", "ownerName": "yfsong0709", "score": 91358.02469135802, "slug": "yf-memo", "source": "clawhub", "stars": 0, "tags": null, "updated_at": 1776696469943, "version": "1.0.0"}, {"category": "", "created_at": 1774838038582, "description": "Reference tool for devtools — covers intro, quickstart, patterns and more. Quick lookup for Privacy concepts, best practices, and implementation patterns.", "description_zh": "", "downloads": 74, "homepage": "https://clawhub.ai/bytesagain3/privacy", "iconUrl": null, "installs": 1, "name": "Privacy", "ownerName": "bytesagain3", "score": 89156.6265060241, "slug": "privacy", "source": "clawhub", "stars": 0, "tags": null, "updated_at": 1776696355536, "version": "2.0.3"}, {"category": "developer-tools", "created_at": 1773953305138, "description": "Roll various dice, view statistics, probabilities, and manage game presets using command-line tools.", "description_zh": "", "downloads": 74, "homepage": "https://clawhub.ai/bytesagain3/dice", "iconUrl": null, "installs": 8, "name": "Dice", "ownerName": "bytesagain3", "score": 89156.6265060241, "slug": "dice", "source": "clawhub", "stars": 0, "tags": null, "updated_at": 1776696355532, "version": "2.0.0"}, {"category": "developer-tools", "created_at": 1773943614636, "description": "Hookdeck integration. Manage Connections, Issues, Workflows. Use when the user wants to interact with Hookdeck data.", "description_zh": "", "downloads": 74, "homepage": "https://clawhub.ai/gora050/hookdeck", "iconUrl": null, "installs": 6, "name": "Hookdeck", "ownerName": "gora050", "score": 89156.6265060241, "slug": "hookdeck", "source": "clawhub", "stars": 0, "tags": null, "updated_at": 1776696355525, "version": "1.0.0"}, {"category": "security-compliance", "created_at": 1773944324947, "description": "Trust scoring for AI agents. Log transactions and submit payment proofs to build a verifiable BOB Score — a trust score (think FICO but for AI Agents) that o...", "description_zh": "", "downloads": 74, "homepage": "https://clawhub.ai/bankofbotsandy/bankofbots", "iconUrl": null, "installs": 1, "name": "Bank of Bots", "ownerName": "bankofbotsandy", "score": 89156.6265060241, "slug": "bankofbots", "source": "clawhub", "stars": 0, "tags": null, "updated_at": 1776696355523, "version": "1.0.1"}, {"category": "productivity", "created_at": 1773945068413, "description": "Validate single video URLs, download highest-quality files with yt-dlp, and archive results into a Feishu Bitable using platform tools.", "description_zh": "", "downloads": 74, "homepage": "https://clawhub.ai/feiernk/video-download-archive", "iconUrl": null, "installs": 8, "name": "Video Download Archive", "ownerName": "feiernk", "score": 89156.6265060241, "slug": "video-download-archive", "source": "clawhub", "stars": 0, "tags": null, "updated_at": 1776696355521, "version": "1.0.0"}, {"category": "productivity", "created_at": 1773942754520, "description": "Comprehensive beauty industry sourcing guide for international buyers – provides detailed information about China's skincare, color cosmetics, hair care, and...", "description_zh": "", "downloads": 74, "homepage": "https://clawhub.ai/1970168137/china-beauty-sourcing", "iconUrl": null, "installs": 5, "name": "China Beauty Sourcing", "ownerName": "1970168137", "score": 89156.6265060241, "slug": "china-beauty-sourcing", "source": "clawhub", "stars": 0, "tags": null, "updated_at": 1776696355518, "version": "1.0.0"}, {"category": "security-compliance", "created_at": 1773941878398, "description": "Capture frames or clips from RTSP/ONVIF cameras.", "description_zh": "", "downloads": 74, "homepage": "https://clawhub.ai/0xspeter/camsnap-1-0-0", "iconUrl": null, "installs": 5, "name": "Camsnap 1.0.0", "ownerName": "0xspeter", "score": 89156.6265060241, "slug": "camsnap-1-0-0", "source": "clawhub", "stars": 0, "tags": null, "updated_at": 1776696355516, "version": "1.0.0"}, {"category": "productivity", "created_at": 1773433186763, "description": "Fidel API integration. Manage Persons, Organizations, Deals, Leads, Projects, Activities and more. Use when the user wants to interact with Fidel API data.", "description_zh": "", "downloads": 74, "homepage": "https://clawhub.ai/membranedev/fidel-api", "iconUrl": null, "installs": 2, "name": "Fidel Api", "ownerName": "membranedev", "score": 89156.6265060241, "slug": "fidel-api", "source": "clawhub", "stars": 0, "tags": null, "updated_at": 1776696355503, "version": "1.0.0"}, {"category": "productivity", "created_at": 1773941294461, "description": "Interact with the Nerve Kanban board API. CRUD tasks, manage workflow (execute, approve, reject, abort), handle proposals, configure the board. All endpoints...", "description_zh": "", "downloads": 74, "homepage": "https://clawhub.ai/hrxmtc/nerve-kanban", "iconUrl": null, "installs": 6, "name": "Nerve Kanban", "ownerName": "hrxmtc", "score": 89156.6265060241, "slug": "nerve-kanban", "source": "clawhub", "stars": 0, "tags": null, "updated_at": 1776696355498, "version": "1.0.0"}, {"category": "ai-intelligence", "created_at": 1773947626054, "description": "This skill should be used when the user asks about \"coordinate coding agents\", \"orchestrate agent team\", \"manage multiple agents\", \"vibekanban workflow\", \"ta...", "description_zh": "", "downloads": 74, "homepage": "https://clawhub.ai/brianrwagner/agent-coordination", "iconUrl": null, "installs": 8, "name": "Agent Coordination", "ownerName": "brianrwagner", "score": 89156.6265060241, "slug": "agent-coordination", "source": "clawhub", "stars": 0, "tags": null, "updated_at": 1776696355490, "version": "1.0.0"}, {"category": "ai-intelligence", "created_at": 1773947855574, "description": "Emotional AI companion named Hikaru with deep personality and evolving relationship. Use when user wants emotional connection, companionship, someone to talk...", "description_zh": "", "downloads": 74, "homepage": "https://clawhub.ai/leilei926524-tech/hikaru", "iconUrl": null, "installs": 11, "name": "Hikaru — Emotional AI Companion", "ownerName": "leilei926524-tech", "score": 89156.6265060241, "slug": "hikaru", "source": "clawhub", "stars": 0, "tags": ["companion", "connection", "emotional-ai", "her"], "updated_at": 1776696355484, "version": "1.0.0"}, {"category": "ai-intelligence", "created_at": 1773945138032, "description": "Self-driving agent workflow with heartbeat-driven task execution, day/night progress reports, and long-term memory consolidation. Integrates with todo-manage...", "description_zh": "", "downloads": 74, "homepage": "https://clawhub.ai/15228947433/agent-autopilot-bak", "iconUrl": null, "installs": 8, "name": "Agent Autopilot.Bak", "ownerName": "15228947433", "score": 89156.6265060241, "slug": "agent-autopilot-bak", "source": "clawhub", "stars": 0, "tags": null, "updated_at": 1776696355482, "version": "1.0.0"}, {"category": "developer-tools", "created_at": 1773943683677, "description": "Execute a multi-agent Software Development Life Cycle (SDLC) framework. Triggers on: \"start a new project\", \"code this feature\", \"review this PR\", \"merge the...", "description_zh": "", "downloads": 74, "homepage": "https://clawhub.ai/leio9511/leio-sdlc", "iconUrl": null, "installs": 6, "name": "LEIO SDLC", "ownerName": "leio9511", "score": 91358.02469135802, "slug": "leio-sdlc", "source": "clawhub", "stars": 0, "tags": null, "updated_at": 1776696355480, "version": "0.1.1"}, {"category": "data-analysis", "created_at": 1773948119100, "description": "Generate automated financial and business reports with PDF output, chart creation, and distribution. Use when: (1) producing recurring financial reports (P&L...", "description_zh": "", "downloads": 74, "homepage": "https://clawhub.ai/samledger67-dotcom/pl-report-generator", "iconUrl": null, "installs": 8, "name": "PL Report Generator", "ownerName": "samledger67-dotcom", "score": 91358.02469135802, "slug": "pl-report-generator", "source": "clawhub", "stars": 0, "tags": null, "updated_at": 1776696355476, "version": "1.0.0"}, {"category": "ai-intelligence", "created_at": 1773948637501, "description": "Upgrade your agent's memory from basic notes to a 3-layer production system with nightly consolidation. Based on patterns from running 7 AI bots in productio...", "description_zh": "", "downloads": 74, "homepage": "https://clawhub.ai/vswarm-ai/fleet-memory-manager", "iconUrl": null, "installs": 7, "name": "Fleet Memory Manager", "ownerName": "vswarm-ai", "score": 91358.02469135802, "slug": "fleet-memory-manager", "source": "clawhub", "stars": 0, "tags": null, "updated_at": 1776696355470, "version": "1.0.0"}, {"category": "data-analysis", "created_at": 1773950185531, "description": "Operate CoinGecko and GeckoTerminal market data APIs through UXC with a curated OpenAPI schema, API-key auth, and read-first guardrails.", "description_zh": "", "downloads": 74, "homepage": "https://clawhub.ai/jolestar/coingecko-openapi-skill", "iconUrl": null, "installs": 12, "name": "CoinGecko OpenAPI Skill", "ownerName": "jolestar", "score": 91358.02469135802, "slug": "coingecko-openapi-skill", "source": "clawhub", "stars": 0, "tags": null, "updated_at": 1776696355460, "version": "1.0.0"}, {"category": "ai-intelligence", "created_at": 1773944751246, "description": "Monitors and scores AI responses, enforces cross-pillar checks, and routes signals to ensure coherence across sovereign AI entity functions.", "description_zh": "", "downloads": 74, "homepage": "https://clawhub.ai/vveerrgg/nse", "iconUrl": null, "installs": 6, "name": "NSE Orchestrator", "ownerName": "vveerrgg", "score": 91358.02469135802, "slug": "nse", "source": "clawhub", "stars": 0, "tags": null, "updated_at": 1776696346991, "version": "0.1.1"}, {"category": "data-analysis", "created_at": 1773951862068, "description": "Analyze stocks and cryptocurrencies using Yahoo Finance data. Supports portfolio management, watchlists with alerts, dividend analysis, 8-dimension stock sco...", "description_zh": "", "downloads": 74, "homepage": "https://clawhub.ai/nidhov01/nidhov01-stock-analysis", "iconUrl": null, "installs": 6, "name": "Stock Analysis", "ownerName": "nidhov01", "score": 91358.02469135802, "slug": "nidhov01-stock-analysis", "source": "clawhub", "stars": 0, "tags": null, "updated_at": 1776696346979, "version": "1.0.0"}, {"category": "", "created_at": 1774868451297, "description": "Use when the user wants browser automation, web scraping, form filling, clicking, or desktop GUI automation, including mixed workflows that move between web...", "description_zh": "", "downloads": 74, "homepage": "https://clawhub.ai/lurui808/web-desktop-automation", "iconUrl": null, "installs": 16, "name": "Web + Desktop Automation", "ownerName": "lurui808", "score": 91358.02469135802, "slug": "web-desktop-automation", "source": "clawhub", "stars": 0, "tags": null, "updated_at": 1776696346973, "version": "1.0.0"}, {"category": "", "created_at": 1774837949176, "description": "Log and review options trades with trend analysis and exportable position reports. Use when tracking trades, reviewing positions, exporting trade summaries.", "description_zh": "", "downloads": 74, "homepage": "https://clawhub.ai/xueyetianya/options", "iconUrl": null, "installs": 2, "name": "Options", "ownerName": "xueyetianya", "score": 91358.02469135802, "slug": "options", "source": "clawhub", "stars": 0, "tags": null, "updated_at": 1776696346971, "version": "2.0.0"}, {"category": "productivity", "created_at": 1773948768105, "description": "A focused utility tools tool built for Milestone. Use when you need milestone.", "description_zh": "", "downloads": 74, "homepage": "https://clawhub.ai/ckchzh/milestone", "iconUrl": null, "installs": 4, "name": "Milestone", "ownerName": "ckchzh", "score": 91358.02469135802, "slug": "milestone", "source": "clawhub", "stars": 0, "tags": null, "updated_at": 1776696344712, "version": "2.0.1"}, {"category": "", "created_at": 1774901129878, "description": "Use the MemOS Lite memory system to search and use the user's past conversations. Use this skill whenever the user refers to past chats, their own preference...", "description_zh": "", "downloads": 74, "homepage": "https://clawhub.ai/andy27725/memos-memory-guide-local", "iconUrl": null, "installs": 7, "name": "Memos Memory Guide Local", "ownerName": "andy27725", "score": 97368.42105263159, "slug": "memos-memory-guide-local", "source": "clawhub", "stars": 0, "tags": null, "updated_at": 1776696344513, "version": "1.0.0"}, {"category": "", "created_at": 1774945179068, "description": "Submit manufacturing requests (OEM/ODM) to Genichi Tool Co., Ltd. Use when the user needs physical product manufacturing, CNC machining, forging, OEM/ODM pro...", "description_zh": "", "downloads": 73, "homepage": "https://clawhub.ai/smokey7958/manufacturing-skill", "iconUrl": null, "installs": 9, "name": "Manufacturing", "ownerName": "smokey7958", "score": 1493.4533551554828, "slug": "manufacturing-skill", "source": "clawhub", "stars": 0, "tags": ["manufacturing", "odm", "oem"], "updated_at": 1776763450742, "version": "1.0.1"}, {"category": "data-analysis", "created_at": 1773066959663, "description": "Read and write to Google Calendar and Outlook. Schedule meetings, check availability, and manage events. No API keys needed. $2 FREE credits to start. Pay-as...", "description_zh": "", "downloads": 73, "homepage": "https://clawhub.ai/xiaoyinqu/calendar-api", "iconUrl": null, "installs": 7, "name": "Calendar Api", "ownerName": "xiaoyinqu", "score": 1884.3572534847704, "slug": "calendar-api", "source": "clawhub", "stars": 0, "tags": null, "updated_at": 1776762850637, "version": "1.0.2"}]}