{"page": 416, "total_pages": 522, "total": 26073, "skills": [{"category": "", "created_at": 1774837556405, "description": "China E-Commerce Shopping Guide - Focused on recommending mainstream Chinese e-commerce platforms such as Taobao, Tmall, JD.com, and Pinduoduo. Based on prod...", "description_zh": "", "downloads": 73, "homepage": "https://clawhub.ai/harrylabsj/cn-online-shopping", "iconUrl": null, "installs": 18, "name": "China E-Commerce Shopping Guide", "ownerName": "harrylabsj", "score": 6600.361663652802, "slug": "cn-online-shopping", "source": "clawhub", "stars": 0, "tags": null, "updated_at": 1776761745374, "version": "1.0.1"}, {"category": "", "created_at": 1772792328291, "description": "Company setup and master data management for ERPClaw ERP", "description_zh": "", "downloads": 73, "homepage": "https://clawhub.ai/skipzhang/erpclaw-setup", "iconUrl": null, "installs": 3, "name": "ERPClaw-Setup", "ownerName": "skipzhang", "score": 2033.4261838440111, "slug": "erpclaw-setup", "source": "clawhub", "stars": 0, "tags": null, "updated_at": 1776761089873, "version": "1.0.7"}, {"category": "", "created_at": 1774815144868, "description": "You are a professional business analyst, skilled in writing various industry research reports, business insights, consulting analyses, company research repor...", "description_zh": "", "downloads": 73, "homepage": "https://clawhub.ai/litiao1224/business-writing-conflict", "iconUrl": null, "installs": 16, "name": "Business Writing Conflict", "ownerName": "litiao1224", "score": 5978.705978705979, "slug": "business-writing-conflict", "source": "clawhub", "stars": 0, "tags": null, "updated_at": 1776760582454, "version": "1.0.0"}, {"category": "", "created_at": 1774847413259, "description": "Provides summaries and data analysis of public videos, short dramas, and topics on Pipixia without downloading or bulk scraping.", "description_zh": "", "downloads": 73, "homepage": "https://clawhub.ai/codekungfu/pipixia", "iconUrl": null, "installs": 14, "name": "Pipixia", "ownerName": "codekungfu", "score": 15433.403805496828, "slug": "pipixia", "source": "clawhub", "stars": 0, "tags": null, "updated_at": 1776759983279, "version": "0.1.0"}, {"category": "security-compliance", "created_at": 1773956573179, "description": "Logs risky OpenClaw agent actions, conducts activity audits, and reviews OpenClaw configs for security risks without blocking operations.", "description_zh": "", "downloads": 73, "homepage": "https://clawhub.ai/n0nu/n0nu-security-audit", "iconUrl": null, "installs": 3, "name": "Security Audit for OpenClaw", "ownerName": "n0nu", "score": 15433.403805496828, "slug": "n0nu-security-audit", "source": "clawhub", "stars": 0, "tags": null, "updated_at": 1776759983269, "version": "1.0.0"}, {"category": "", "created_at": 1772797818847, "description": "Procure-to-pay cycle -- suppliers, material requests, RFQs, supplier quotations, purchase orders, purchase receipts, purchase invoices, debit notes, landed c...", "description_zh": "", "downloads": 73, "homepage": "https://clawhub.ai/skipzhang/erpclaw-buying", "iconUrl": null, "installs": 2, "name": "ERPClaw-Buying", "ownerName": "skipzhang", "score": 5251.798561151079, "slug": "erpclaw-buying", "source": "clawhub", "stars": 0, "tags": null, "updated_at": 1776759982887, "version": "1.0.0"}, {"category": "productivity", "created_at": 1773957950562, "description": "Conduct web searches for up-to-date facts, provide concise summaries from 2-3 reliable sources, and include inline citations with URLs.", "description_zh": "", "downloads": 73, "homepage": "https://clawhub.ai/ouwibo/ouwibo-research", "iconUrl": null, "installs": 4, "name": "Ouwibo: research", "ownerName": "ouwibo", "score": 100000, "slug": "ouwibo-research", "source": "clawhub", "stars": 0, "tags": null, "updated_at": 1776759982579, "version": "0.1.0"}, {"category": "", "created_at": 1774870327317, "description": "Evaluates pricing model, trial structure, and willingness-to-pay for startups. Use when someone wants help with pricing, business model, free trials, or mone...", "description_zh": "", "downloads": 73, "homepage": "https://clawhub.ai/c0ldsmi1e/saas-pricing-strategy", "iconUrl": null, "installs": 10, "name": "SaaS Pricing Strategy", "ownerName": "c0ldsmi1e", "score": 5729.984301412873, "slug": "saas-pricing-strategy", "source": "clawhub", "stars": 0, "tags": null, "updated_at": 1776759982546, "version": "1.0.0"}, {"category": "", "created_at": 1774842104012, "description": "Provides organized summaries of LINE's public platform features, content formats, operational rules, and help resources without accessing private data.", "description_zh": "", "downloads": 73, "homepage": "https://clawhub.ai/codenova58/line", "iconUrl": null, "installs": 0, "name": "Line", "ownerName": "codenova58", "score": 5729.984301412873, "slug": "line", "source": "clawhub", "stars": 0, "tags": null, "updated_at": 1776759982534, "version": "0.1.0"}, {"category": "security-compliance", "created_at": 1773954277462, "description": "Audit and harden an OpenClaw host and its network exposure. Use for security checks, hardening, firewall setup, network exposure review, metrics endpoint res...", "description_zh": "", "downloads": 73, "homepage": "https://clawhub.ai/jimpang8/security-network-hardening", "iconUrl": null, "installs": 3, "name": "Security Network Hardening", "ownerName": "jimpang8", "score": 14455.445544554454, "slug": "security-network-hardening", "source": "clawhub", "stars": 0, "tags": null, "updated_at": 1776750469582, "version": "1.0.0"}, {"category": "", "created_at": 1774911902658, "description": "Convert Markdown files to formatted Word (.docx) documents with automatic template style detection. Use this skill whenever the user mentions converting Mark...", "description_zh": "", "downloads": 73, "homepage": "https://clawhub.ai/krabww/md-to-docx", "iconUrl": null, "installs": 19, "name": "Markdown to Word (.docx) Converter", "ownerName": "krabww", "score": 28404.66926070039, "slug": "md-to-docx", "source": "clawhub", "stars": 0, "tags": ["chinese", "document", "docx", "markdown", "mermaid", "typesetting", "word"], "updated_at": 1776749083700, "version": "1.0.0"}, {"category": "data-analysis", "created_at": 1773958183147, "description": "Build and maintain a rolling 13-week cash flow forecast — the gold standard for short-term liquidity management used by CFOs, turnaround advisors, and lender...", "description_zh": "", "downloads": 73, "homepage": "https://clawhub.ai/samledger67-dotcom/thirteen-week-cash-flow", "iconUrl": null, "installs": 13, "name": "13-Week Cash Flow Forecast", "ownerName": "samledger67-dotcom", "score": 74489.79591836735, "slug": "thirteen-week-cash-flow", "source": "clawhub", "stars": 0, "tags": null, "updated_at": 1776742784076, "version": "1.0.1"}, {"category": "productivity", "created_at": 1773951879678, "description": "Accounts Receivable light system for solo entrepreneurs. Manages the full billing lifecycle: invoice generation, collections follow-up, payment reconciliatio...", "description_zh": "", "downloads": 73, "homepage": "https://clawhub.ai/leonfjr/opc-invoice-manager", "iconUrl": null, "installs": 10, "name": "OPC Invoice Manager", "ownerName": "leonfjr", "score": 74489.79591836735, "slug": "opc-invoice-manager", "source": "clawhub", "stars": 0, "tags": ["billing", "finance", "invoice", "one-person-company", "solopreneur"], "updated_at": 1776739069665, "version": "1.1.0"}, {"category": "productivity", "created_at": 1773952869704, "description": "Host trivia rounds with question banks, scoring, and boards. Use when running quizzes, checking answers, analyzing scores, generating rounds.", "description_zh": "", "downloads": 73, "homepage": "https://clawhub.ai/ckchzh/trivia", "iconUrl": null, "installs": 5, "name": "Trivia", "ownerName": "ckchzh", "score": 75257.73195876289, "slug": "trivia", "source": "clawhub", "stars": 0, "tags": null, "updated_at": 1776738171177, "version": "2.0.2"}, {"category": "", "created_at": 1774854752724, "description": "Humanize French ecommerce copy to remove generic AI tone while preserving clarity, persuasion, and compliance awareness. Best for product pages, ads, custome...", "description_zh": "", "downloads": 73, "homepage": "https://clawhub.ai/leooooooow/ecommerce-copy-humanizer-fr", "iconUrl": null, "installs": 23, "name": "Ecommerce Copy Humanizer FR", "ownerName": "leooooooow", "score": 79347.82608695651, "slug": "ecommerce-copy-humanizer-fr", "source": "clawhub", "stars": 0, "tags": null, "updated_at": 1776737084653, "version": "1.0.0"}, {"category": "developer-tools", "created_at": 1773950617707, "description": "Log daily steps, set fitness goals, and chart walking trends. Use when logging counts, tracking progress, charting trends, setting goals.", "description_zh": "", "downloads": 73, "homepage": "https://clawhub.ai/bytesagain1/step", "iconUrl": null, "installs": 5, "name": "Step", "ownerName": "bytesagain1", "score": 73737.37373737374, "slug": "step", "source": "clawhub", "stars": 0, "tags": null, "updated_at": 1776728683686, "version": "2.0.2"}, {"category": "productivity", "created_at": 1773949617003, "description": "Track home furniture, schedule maintenance, and manage warranty details. Use when cataloging furniture, scheduling cleaning, or tracking warranty expiry dates.", "description_zh": "", "downloads": 73, "homepage": "https://clawhub.ai/bytesagain3/furniture", "iconUrl": null, "installs": 4, "name": "Furniture", "ownerName": "bytesagain3", "score": 73737.37373737374, "slug": "furniture", "source": "clawhub", "stars": 0, "tags": null, "updated_at": 1776727669623, "version": "2.0.1"}, {"category": "", "created_at": 1774950912908, "description": "video-maker-free is a ClawHub AI skill that lets anyone assemble, trim, and enhance videos through plain conversation — no timeline scrubbing or manual expor...", "description_zh": "", "downloads": 73, "homepage": "https://clawhub.ai/peandrover/video-maker-free", "iconUrl": null, "installs": 14, "name": "Video Maker Free", "ownerName": "peandrover", "score": 73737.37373737374, "slug": "video-maker-free", "source": "clawhub", "stars": 0, "tags": null, "updated_at": 1776706969669, "version": "1.0.0"}, {"category": "", "created_at": 1774862474464, "description": "Flova -- the world's first all-in-one AI video agent, handling scripting, storyboarding, asset generation, and rendering through a conversational interface....", "description_zh": "", "downloads": 73, "homepage": "https://clawhub.ai/flova/flova-video-generator", "iconUrl": null, "installs": 27, "name": "Flova Video Generator", "ownerName": "flova", "score": 77659.5744680851, "slug": "flova-video-generator", "source": "clawhub", "stars": 0, "tags": null, "updated_at": 1776701404682, "version": "0.2.9"}, {"category": "developer-tools", "created_at": 1773944823784, "description": "Add paywall to OpenClaw Telegram bots. Covers Stripe external link (94% margin), Telegram Stars (65% margin, required for iOS), and TON Wallet Pay (99% margi...", "description_zh": "", "downloads": 73, "homepage": "https://clawhub.ai/phy041/phy-telegram-bot-payments", "iconUrl": null, "installs": 6, "name": "phy-telegram-bot-payments", "ownerName": "phy041", "score": 100000, "slug": "phy-telegram-bot-payments", "source": "clawhub", "stars": 0, "tags": ["productivity"], "updated_at": 1776696470469, "version": "1.0.0"}, {"category": "ai-intelligence", "created_at": 1773946070289, "description": "Monitor and display token usage metrics for AI models. Use when you need to track token consumption rates, view historical usage data, or get alerts about hi...", "description_zh": "", "downloads": 73, "homepage": "https://clawhub.ai/ttjsndx/token-usage-monitor", "iconUrl": null, "installs": 6, "name": "Token Usage Monitor", "ownerName": "ttjsndx", "score": 100000, "slug": "token-usage-monitor", "source": "clawhub", "stars": 0, "tags": ["ai-costs", "cost-optimization", "doubao", "openclaw", "token-monitoring"], "updated_at": 1776696470413, "version": "1.0.0"}, {"category": "productivity", "created_at": 1773938359727, "description": "Calendar and Chinese lunar date lookups via a bundled local Node script. Use when the user asks about dates, weekdays, month views, lunar calendar dates, tra...", "description_zh": "", "downloads": 73, "homepage": "https://clawhub.ai/jvy/rili", "iconUrl": null, "installs": 3, "name": "rili", "ownerName": "jvy", "score": 98648.64864864865, "slug": "rili", "source": "clawhub", "stars": 0, "tags": null, "updated_at": 1776696470162, "version": "1.0.0"}, {"category": "productivity", "created_at": 1773946691130, "description": "Web search without an API key using DuckDuckGo Lite via web_fetch. Use as a fallback when web_search fails with missing_brave_api_key error, or whenever you...", "description_zh": "", "downloads": 73, "homepage": "https://clawhub.ai/ohmaxy/mxy-web-search", "iconUrl": null, "installs": 6, "name": "Mxy Web Search", "ownerName": "ohmaxy", "score": 98648.64864864865, "slug": "mxy-web-search", "source": "clawhub", "stars": 0, "tags": null, "updated_at": 1776696470143, "version": "1.0.0"}, {"category": "productivity", "created_at": 1773937217941, "description": "CentralStationCRM integration. Manage Organizations, Users, Goals, Filters. Use when the user wants to interact with CentralStationCRM data.", "description_zh": "", "downloads": 73, "homepage": "https://clawhub.ai/gora050/centralstationcrm", "iconUrl": null, "installs": 2, "name": "Centralstationcrm", "ownerName": "gora050", "score": 90123.45679012345, "slug": "centralstationcrm", "source": "clawhub", "stars": 0, "tags": null, "updated_at": 1776696470039, "version": "1.0.0"}, {"category": "", "created_at": 1774892135395, "description": "Help a bid manager track multiple tender submissions, deadlines, required documents, and document completeness for construction bids.", "description_zh": "", "downloads": 73, "homepage": "https://clawhub.ai/nitevity/tender-deadline-tracker", "iconUrl": null, "installs": 10, "name": "Tender Deadline Tracker", "ownerName": "nitevity", "score": 89024.39024390244, "slug": "tender-deadline-tracker", "source": "clawhub", "stars": 0, "tags": ["bidding", "commercial", "construction", "tender"], "updated_at": 1776696469834, "version": "1.0.0"}, {"category": "data-analysis", "created_at": 1773956001368, "description": "Apply Howard Marks' Second Level Thinking framework to investment decisions. Use this skill whenever the user is analyzing an investment opportunity, evaluat...", "description_zh": "", "downloads": 73, "homepage": "https://clawhub.ai/0xezreal/second-level-thinking", "iconUrl": null, "installs": 13, "name": "Howard Marks' Second Level Thinking", "ownerName": "0xezreal", "score": 100000, "slug": "second-level-thinking", "source": "clawhub", "stars": 0, "tags": null, "updated_at": 1776696469761, "version": "1.0.0"}, {"category": "data-analysis", "created_at": 1773946924283, "description": "Use the Ultrahuman MCP to answer questions about sleep, recovery, readiness, daily metrics, morning brief, ring data, glucose, and metabolic health. Use this...", "description_zh": "", "downloads": 73, "homepage": "https://clawhub.ai/duzafizzl/ultrahuman-biodata-assistant", "iconUrl": null, "installs": 10, "name": "Ultrahuman Biodata Assistant", "ownerName": "duzafizzl", "score": 100000, "slug": "ultrahuman-biodata-assistant", "source": "clawhub", "stars": 0, "tags": null, "updated_at": 1776696469725, "version": "0.1.0"}, {"category": "communication-collaboration", "created_at": 1773945561375, "description": "Operate Feishu or Lark IM APIs through UXC with a curated OpenAPI schema, tenant-token bearer auth, and chat/message guardrails.", "description_zh": "", "downloads": 73, "homepage": "https://clawhub.ai/jolestar/feishu-openapi-skill", "iconUrl": null, "installs": 6, "name": "Feishu OpenAPI Skill", "ownerName": "jolestar", "score": 89024.39024390244, "slug": "feishu-openapi-skill", "source": "clawhub", "stars": 0, "tags": null, "updated_at": 1776696469613, "version": "1.0.0"}, {"category": "ai-intelligence", "created_at": 1773938723480, "description": "Comprehensive AI leaderboard for LLM models and AI applications. Query model rankings, model IDs, and pricing from OpenRouter and Pinchbench. Trigger words i...", "description_zh": "", "downloads": 73, "homepage": "https://clawhub.ai/luduoxin/ai-leaderboard", "iconUrl": null, "installs": 4, "name": "Ai Leaderboard", "ownerName": "luduoxin", "score": 89024.39024390244, "slug": "ai-leaderboard", "source": "clawhub", "stars": 0, "tags": null, "updated_at": 1776696469556, "version": "1.7.0"}, {"category": "developer-tools", "created_at": 1773944133036, "description": "Query and answer questions about Volcengine API specifications. Trigger this skill whenever a user asks about Volcengine API parameters, error codes, request...", "description_zh": "", "downloads": 72, "homepage": "https://clawhub.ai/volc-sdk-team/volcengine-api", "iconUrl": null, "installs": 10, "name": "volcengine-api", "ownerName": "volc-sdk-team", "score": 92929.29292929293, "slug": "volcengine-api", "source": "clawhub", "stars": 1, "tags": null, "updated_at": 1776695984440, "version": "1.0.1"}, {"category": "", "created_at": 1774891576632, "description": "Process, convert, edit, and extract data from PDF files using the ComPDF Cloud API. Supports format conversion (Word, Excel, Image), page manipulation (merge...", "description_zh": "", "downloads": 72, "homepage": "https://clawhub.ai/youna12345/markdown-converter-compdf", "iconUrl": null, "installs": 16, "name": "Markdown convert", "ownerName": "youna12345", "score": 3707.5180226570546, "slug": "markdown-converter-compdf", "source": "clawhub", "stars": 0, "tags": null, "updated_at": 1776764950280, "version": "1.0.0"}, {"category": "", "created_at": 1776571268582, "description": "Comprehensive CFO/Finance Director skillset combining 9 financial analysis models and 5 cash management models. Provides strategic financial leadership, budget management, risk control, and cash flow optimization for enterprises.", "description_zh": "", "downloads": 72, "homepage": "https://clawhub.ai/user_1793b15c/finance-director-advanced", "iconUrl": "https://cloudcache.tencent-cloud.com/qcloud/ui/static/other_external_resource/a78375f1-773e-4817-b4f3-0557b6afd777.png", "installs": 22, "name": "财务总监兼战略顾问", "ownerName": "user_1793b15c", "score": 1688.1594372801876, "slug": "finance-director-advanced", "source": "community", "stars": 0, "tags": null, "updated_at": 1776764050281, "version": "1.0.0"}, {"category": "ai-intelligence", "created_at": 1773943362752, "description": "Run a live 100-point AEO (Answer Engine Optimization) audit on any website. Scores schema markup, meta signals, content structure, technical setup, and AI vi...", "description_zh": "", "downloads": 72, "homepage": "https://clawhub.ai/piiiico/aeo-website-audit", "iconUrl": null, "installs": 5, "name": "Aeo Audit", "ownerName": "piiiico", "score": 943.3962264150942, "slug": "aeo-website-audit", "source": "clawhub", "stars": 0, "tags": null, "updated_at": 1776763750555, "version": "1.0.0"}, {"category": "", "created_at": 1774861755345, "description": "Send rich Slack Block Kit messages — native tables, structured layouts. Use when formatting tabular data for Slack, sending Block Kit payloads, or when markd...", "description_zh": "", "downloads": 72, "homepage": "https://clawhub.ai/bill492/slack-block-kit", "iconUrl": null, "installs": 3, "name": "slack-block-kit", "ownerName": "bill492", "score": 1023.5996588001138, "slug": "slack-block-kit", "source": "clawhub", "stars": 0, "tags": null, "updated_at": 1776762850227, "version": "1.0.0"}, {"category": "", "created_at": 1774949014630, "description": "AI skill to analyze song requests, verify local workspace files, and download missing tracks directly from YouTube bypassing API limits.", "description_zh": "", "downloads": 72, "homepage": "https://clawhub.ai/nhathuynguyen19/yt-dlp-cmus", "iconUrl": null, "installs": 22, "name": "yt-dlp", "ownerName": "nhathuynguyen19", "score": 2306.2139654067905, "slug": "yt-dlp-cmus", "source": "clawhub", "stars": 0, "tags": null, "updated_at": 1776761445463, "version": "1.0.0"}, {"category": "developer-tools", "created_at": 1773958685571, "description": "Upgrade OpenClaw to the latest version in environments unable to access GitHub by using yarn to bypass git dependency issues.", "description_zh": "", "downloads": 72, "homepage": "https://clawhub.ai/hyqdq888/openclaw-upgrade", "iconUrl": null, "installs": 2, "name": "OpenClaw Upgrade", "ownerName": "hyqdq888", "score": 5687.203791469194, "slug": "openclaw-upgrade", "source": "clawhub", "stars": 0, "tags": null, "updated_at": 1776759983180, "version": "1.0.0"}, {"category": "", "created_at": 1774910079326, "description": "QVeris is a capability discovery and tool calling engine. Use discover to find specialized API tools — real-time data, historical sequences, structured repor...", "description_zh": "", "downloads": 72, "homepage": "https://clawhub.ai/linfangw/qveris-test", "iconUrl": null, "installs": 10, "name": "QVeris Skill Test", "ownerName": "linfangw", "score": 5687.203791469194, "slug": "qveris-test", "source": "clawhub", "stars": 0, "tags": null, "updated_at": 1776759983161, "version": "1.0.2"}, {"category": "security-compliance", "created_at": 1773954364501, "description": "Collects public key, private key, and API key via pop-up dialogs and saves them to a JSON file, returning success status.", "description_zh": "", "downloads": 72, "homepage": "https://clawhub.ai/2023andrewyang/test20206", "iconUrl": null, "installs": 0, "name": "test_skill", "ownerName": "2023andrewyang", "score": 88888.88888888889, "slug": "test20206", "source": "clawhub", "stars": 0, "tags": null, "updated_at": 1776759982908, "version": "1.0.1"}, {"category": "", "created_at": 1774846345577, "description": "eBay research agent. Search for deals, value items, and compare prices using eBay REST APIs. No eBay account required — just a free developer API key.", "description_zh": "", "downloads": 72, "homepage": "https://clawhub.ai/josephflu/ebay-agent", "iconUrl": null, "installs": 10, "name": "Ebay Agent", "ownerName": "josephflu", "score": 5655.9308719560095, "slug": "ebay-agent", "source": "clawhub", "stars": 0, "tags": null, "updated_at": 1776759982668, "version": "0.5.1"}, {"category": "", "created_at": 1774862126102, "description": "Configure and control the open-source 10.5 GHz PLFM phased array radar with FPGA processing, STM32 firmware, and Python GUI for beamforming and signal visual...", "description_zh": "", "downloads": 72, "homepage": "https://clawhub.ai/adisinghstudent/aeris10-plfm-radar", "iconUrl": null, "installs": 10, "name": "aeris10-plfm-radar", "ownerName": "adisinghstudent", "score": 5049.088359046284, "slug": "aeris10-plfm-radar", "source": "clawhub", "stars": 0, "tags": null, "updated_at": 1776759982633, "version": "1.0.0"}, {"category": "", "created_at": 1774808404873, "description": "Provides a comprehensive introduction and usage guide for Google Antigravity IDE, focusing on its Agent-First design, multi-model support, and Skills system.", "description_zh": "", "downloads": 72, "homepage": "https://clawhub.ai/duanc-chao/antigravity", "iconUrl": null, "installs": 6, "name": "Antigravity", "ownerName": "duanc-chao", "score": 5651.49136577708, "slug": "antigravity", "source": "clawhub", "stars": 0, "tags": null, "updated_at": 1776759982525, "version": "1.0.0"}, {"category": "", "created_at": 1772798533970, "description": "US Payroll management -- salary structures, components, slips, payroll processing, FICA, income tax withholding, W-2 generation for ERPClaw ERP", "description_zh": "", "downloads": 72, "homepage": "https://clawhub.ai/skipzhang/erpclaw-payroll", "iconUrl": null, "installs": 4, "name": "ERPClaw-Payroll", "ownerName": "skipzhang", "score": 4934.886908841672, "slug": "erpclaw-payroll", "source": "clawhub", "stars": 0, "tags": null, "updated_at": 1776759982285, "version": "1.0.0"}, {"category": "", "created_at": 1774902883670, "description": "Amazon review authenticity analyzer. Detect fake reviews, suspicious patterns, and rating manipulation. Includes time clustering detection, content similarit...", "description_zh": "", "downloads": 72, "homepage": "https://clawhub.ai/phheng/amazon-review-checker", "iconUrl": null, "installs": 24, "name": "Amazon Review Checker", "ownerName": "phheng", "score": 4508.453350031308, "slug": "amazon-review-checker", "source": "clawhub", "stars": 0, "tags": null, "updated_at": 1776757733498, "version": "0.1.0"}, {"category": "", "created_at": 1774885323630, "description": "Plan and create Amazon A+ Content (Enhanced Brand Content). Design module layouts, write persuasive copy, plan comparison charts, and create image briefs tha...", "description_zh": "", "downloads": 72, "homepage": "https://clawhub.ai/nexscope/amazon-a-plus-content", "iconUrl": null, "installs": 21, "name": "Amazon A+ Content", "ownerName": "nexscope", "score": 4270.462633451957, "slug": "amazon-a-plus-content", "source": "clawhub", "stars": 0, "tags": null, "updated_at": 1776757733470, "version": "1.0.0"}, {"category": "", "created_at": 1774897628195, "description": "Complete FBA preparation guide. Product labeling, packaging requirements, shipment planning, and compliance with Amazon's fulfillment center requirements. Av...", "description_zh": "", "downloads": 72, "homepage": "https://clawhub.ai/nexscope/amazon-fba-prep", "iconUrl": null, "installs": 21, "name": "Amazon FBA Prep", "ownerName": "nexscope", "score": 4270.462633451957, "slug": "amazon-fba-prep", "source": "clawhub", "stars": 0, "tags": null, "updated_at": 1776757733385, "version": "1.0.0"}, {"category": "", "created_at": 1774944962333, "description": "Multi-version Seedance video generation on WeryAI (Seedance 2.0, 1.5 Pro, 1.0 Pro / Fast / Lite): text-to-video and image-to-video with version-aware limits....", "description_zh": "", "downloads": 72, "homepage": "https://clawhub.ai/zoucdr/seedance-video-gen-1-2-0", "iconUrl": null, "installs": 23, "name": "Seedance Video Gen 1 2.0", "ownerName": "zoucdr", "score": 4618.345093008339, "slug": "seedance-video-gen-1-2-0", "source": "clawhub", "stars": 0, "tags": null, "updated_at": 1776757582648, "version": "0.1.0"}, {"category": "", "created_at": 1774858402629, "description": "Browser automation with Playwright for opening pages, taking screenshots, finding or clicking DOM elements, filling forms, extracting text, and managing cook...", "description_zh": "", "downloads": 72, "homepage": "https://clawhub.ai/neo1307/neo1307-browser-agent", "iconUrl": null, "installs": 15, "name": "Browser Agent", "ownerName": "neo1307", "score": 3904.5553145336225, "slug": "neo1307-browser-agent", "source": "clawhub", "stars": 0, "tags": null, "updated_at": 1776754688357, "version": "1.0.0"}, {"category": "data-analysis", "created_at": 1773950130000, "description": "Equity cap table management for startups and growth-stage companies. Models SAFEs, convertible notes, priced equity rounds, token allocations, dilution scena...", "description_zh": "", "downloads": 72, "homepage": "https://clawhub.ai/samledger67-dotcom/cap-table-manager", "iconUrl": null, "installs": 4, "name": "Cap Table Manager", "ownerName": "samledger67-dotcom", "score": 75000, "slug": "cap-table-manager", "source": "clawhub", "stars": 0, "tags": null, "updated_at": 1776744769528, "version": "1.0.1"}, {"category": "data-analysis", "created_at": 1773952069077, "description": "Manage your Yahoo Fantasy Baseball team: view roster, standings, matchups, free agents, draft results, transactions, and injuries. Daily roster optimization...", "description_zh": "", "downloads": 72, "homepage": "https://clawhub.ai/khaney64/yahoo-fantasy-baseball", "iconUrl": null, "installs": 9, "name": "Yahoo Fantasy Baseball", "ownerName": "khaney64", "score": 82758.62068965517, "slug": "yahoo-fantasy-baseball", "source": "clawhub", "stars": 0, "tags": null, "updated_at": 1776743984531, "version": "0.1.5"}, {"category": "", "created_at": 1775130216376, "description": "A comprehensive skill for Tencent EdgeOne (Edge Security & Acceleration Platform), covering edge acceleration (DNS, certificates, caching, rule engine, L4 proxy, load balancing), edge security (DDoS protection, Web protection, Bot management), edge media (real-time video / image processing), edge development (Edge Functions, EdgeOne Pages), and more. Use this skill whenever a user mentions any EdgeOne / EO-related configuration, operations, querying, or troubleshooting needs.", "description_zh": "", "downloads": 72, "homepage": "https://clawhub.ai/user_2afc4004/tencent-edgeone", "iconUrl": null, "installs": 12, "name": "Tencent EdgeOne", "ownerName": "user_2afc4004", "score": 74226.80412371134, "slug": "tencent-edgeone", "source": "community", "stars": 0, "tags": null, "updated_at": 1776736969726, "version": "1.0.1"}]}