{"page": 417, "total_pages": 522, "total": 26073, "skills": [{"category": "developer-tools", "created_at": 1773940516225, "description": "Overview of Teamgram Server's 6-layer microservice architecture with 11 services, gRPC/Kafka communication, and etcd service discovery for Telegram-compatibl...", "description_zh": "", "downloads": 72, "homepage": "https://clawhub.ai/zhihang9978/teamgram-architecture", "iconUrl": null, "installs": 5, "name": "Teamgram Architecture", "ownerName": "zhihang9978", "score": 98630.13698630137, "slug": "teamgram-architecture", "source": "clawhub", "stars": 0, "tags": null, "updated_at": 1776696470501, "version": "1.0.1"}, {"category": "developer-tools", "created_at": 1773936361928, "description": "Apify integration. Manage Actors, Datasets, KeyValueStores, RequestQueues, Tasks. Use when the user wants to interact with Apify data.", "description_zh": "", "downloads": 72, "homepage": "https://clawhub.ai/membranedev/apify-integration", "iconUrl": null, "installs": 0, "name": "Apify", "ownerName": "membranedev", "score": 98630.13698630137, "slug": "apify-integration", "source": "clawhub", "stars": 0, "tags": null, "updated_at": 1776696470467, "version": "1.0.0"}, {"category": "developer-tools", "created_at": 1773943264229, "description": "Upgrade Stylus smart contracts using OpenZeppelin proxy patterns on Arbitrum. Use when users need to: (1) make Stylus Rust contracts upgradeable with UUPS or...", "description_zh": "", "downloads": 72, "homepage": "https://clawhub.ai/samledger67-dotcom/upgrade-stylus-contracts", "iconUrl": null, "installs": 3, "name": "upgrade stylus contracts", "ownerName": "samledger67-dotcom", "score": 98630.13698630137, "slug": "upgrade-stylus-contracts", "source": "clawhub", "stars": 0, "tags": null, "updated_at": 1776696470455, "version": "1.0.0"}, {"category": "content-creation", "created_at": 1773942738953, "description": "Beehiiv integration. Manage Users, Publications. Use when the user wants to interact with Beehiiv data.", "description_zh": "", "downloads": 72, "homepage": "https://clawhub.ai/gora050/beehiiv-integration", "iconUrl": null, "installs": 7, "name": "Beehiiv", "ownerName": "gora050", "score": 98630.13698630137, "slug": "beehiiv-integration", "source": "clawhub", "stars": 0, "tags": null, "updated_at": 1776696470401, "version": "1.0.0"}, {"category": "ai-intelligence", "created_at": 1773958272837, "description": "AI image and video generation service - supports text-to-image, image-to-image, and video generation. Automatic API key registration supported for limited-ti...", "description_zh": "", "downloads": 72, "homepage": "https://clawhub.ai/regalzzz/aoment-image-video", "iconUrl": null, "installs": 10, "name": "Aoment Image Video", "ownerName": "regalzzz", "score": 86746.98795180723, "slug": "aoment-image-video", "source": "clawhub", "stars": 0, "tags": null, "updated_at": 1776696470313, "version": "1.0.0"}, {"category": "developer-tools", "created_at": 1773943225972, "description": "Comprehensive task lifecycle management with automatic tracking, failure analysis, and completion feedback. Use when executing recurring system tasks (backup...", "description_zh": "", "downloads": 72, "homepage": "https://clawhub.ai/alfredming-2026/task-protection", "iconUrl": null, "installs": 7, "name": "Task Protection", "ownerName": "alfredming-2026", "score": 86746.98795180723, "slug": "task-protection", "source": "clawhub", "stars": 0, "tags": null, "updated_at": 1776696470254, "version": "1.0.0"}, {"category": "developer-tools", "created_at": 1773948481607, "description": "Deploy static websites to AIOZ Storage with built-in templates or custom sites.", "description_zh": "", "downloads": 72, "homepage": "https://clawhub.ai/vinhbui3004/aioz-storage", "iconUrl": null, "installs": 8, "name": "AIOZ Storage Skill", "ownerName": "vinhbui3004", "score": 97297.29729729731, "slug": "aioz-storage", "source": "clawhub", "stars": 0, "tags": null, "updated_at": 1776696470192, "version": "1.0.0"}, {"category": "communication-collaboration", "created_at": 1773945983935, "description": "Documents the biz_service core business layer in Teamgram Server with 6 RPC helpers covering user, chat, dialog, message, updates, and verification code mana...", "description_zh": "", "downloads": 72, "homepage": "https://clawhub.ai/zhihang9978/teamgram-biz-service", "iconUrl": null, "installs": 8, "name": "Teamgram Biz Service", "ownerName": "zhihang9978", "score": 97297.29729729731, "slug": "teamgram-biz-service", "source": "clawhub", "stars": 0, "tags": null, "updated_at": 1776696470189, "version": "1.0.0"}, {"category": "content-creation", "created_at": 1773945480817, "description": "[DEPRECATED] This skill has been renamed to translate-book. Install the new version: clawhub install translate-book", "description_zh": "", "downloads": 72, "homepage": "https://clawhub.ai/deusyu/deprecated-skill", "iconUrl": null, "installs": 7, "name": "Deprecated Skill", "ownerName": "deusyu", "score": 97297.29729729731, "slug": "deprecated-skill", "source": "clawhub", "stars": 0, "tags": null, "updated_at": 1776696470161, "version": "0.2.0"}, {"category": "communication-collaboration", "created_at": 1773945024689, "description": "Read the user's personal Telegram account in a controlled, read-only way via Telethon/MTProto. Use when you need to inspect Telegram chats, list dialogs, rea...", "description_zh": "", "downloads": 72, "homepage": "https://clawhub.ai/ropl-btc/telegram-readonly", "iconUrl": null, "installs": 5, "name": "Telegram Readonly", "ownerName": "ropl-btc", "score": 88888.88888888889, "slug": "telegram-readonly", "source": "clawhub", "stars": 0, "tags": null, "updated_at": 1776696470020, "version": "0.1.2"}, {"category": "security-compliance", "created_at": 1773943485506, "description": "Three-layer protection for the OpenClaw gateway: real-time config monitoring with auto-rollback, systemd crash recovery, and tiered notifications via Feishu/...", "description_zh": "", "downloads": 72, "homepage": "https://clawhub.ai/dios-man/dios-man-gateway-guardian", "iconUrl": null, "installs": 3, "name": "Gateway Guardian", "ownerName": "dios-man", "score": 87804.87804878049, "slug": "dios-man-gateway-guardian", "source": "clawhub", "stars": 0, "tags": null, "updated_at": 1776696469895, "version": "1.4.0"}, {"category": "developer-tools", "created_at": 1773944406399, "description": "cg write Node.js package manager with strict dependency resolution. Use when running pnpm specific commands, configuring workspaces, or managing dependencies...", "description_zh": "", "downloads": 72, "homepage": "https://clawhub.ai/moonball/cg-test-skill", "iconUrl": null, "installs": 7, "name": "cg-test-skill", "ownerName": "moonball", "score": 87804.87804878049, "slug": "cg-test-skill", "source": "clawhub", "stars": 0, "tags": null, "updated_at": 1776696469804, "version": "1.0.0"}, {"category": "", "created_at": 1774911669565, "description": "Deep event-driven architecture workflow—events vs commands, ordering and idempotency, sagas, outbox pattern, observability, and failure modes. Use when desig...", "description_zh": "", "downloads": 72, "homepage": "https://clawhub.ai/mike47512/event-driven", "iconUrl": null, "installs": 1, "name": "Event Driven", "ownerName": "mike47512", "score": 98630.13698630137, "slug": "event-driven", "source": "clawhub", "stars": 0, "tags": null, "updated_at": 1776696469786, "version": "1.0.0"}, {"category": "security-compliance", "created_at": 1773938934681, "description": "Consent - command-line tool for everyday use", "description_zh": "", "downloads": 72, "homepage": "https://clawhub.ai/bytesagain1/consent", "iconUrl": null, "installs": 1, "name": "Consent", "ownerName": "bytesagain1", "score": 98630.13698630137, "slug": "consent", "source": "clawhub", "stars": 0, "tags": null, "updated_at": 1776696469783, "version": "1.0.2"}, {"category": "", "created_at": 1774910516965, "description": "Search the web using Baidu AI Search Engine (BDSE). Use for live information, documentation, or research topics.", "description_zh": "", "downloads": 72, "homepage": "https://clawhub.ai/andy27725/baidu-search-1-1-3", "iconUrl": null, "installs": 8, "name": "Baidu Search 1.1.3", "ownerName": "andy27725", "score": 98630.13698630137, "slug": "baidu-search-1-1-3", "source": "clawhub", "stars": 0, "tags": null, "updated_at": 1776696469766, "version": "1.0.0"}, {"category": "", "created_at": 1774870231712, "description": "Process, convert, edit, and extract data from PDF files using the ComPDF Cloud API. Supports format conversion (Word, Excel, Image), page manipulation (merge...", "description_zh": "", "downloads": 72, "homepage": "https://clawhub.ai/youna12345/pdf-tools-compdf", "iconUrl": null, "installs": 20, "name": "PDF Toolkit", "ownerName": "youna12345", "score": 98630.13698630137, "slug": "pdf-tools-compdf", "source": "clawhub", "stars": 0, "tags": null, "updated_at": 1776696469747, "version": "1.0.1"}, {"category": "security-compliance", "created_at": 1773939135700, "description": "Manage LuLu macOS firewall rules from the command line. Use when connections are blocked, domains need allowing/blocking, or firewall rules need reviewing. P...", "description_zh": "", "downloads": 72, "homepage": "https://clawhub.ai/woop/lulu-cli", "iconUrl": null, "installs": 2, "name": "LuLu CLI", "ownerName": "woop", "score": 98630.13698630137, "slug": "lulu-cli", "source": "clawhub", "stars": 0, "tags": null, "updated_at": 1776696469734, "version": "0.2.0"}, {"category": "security-compliance", "created_at": 1773941009512, "description": "Crypto tax compliance skill for AI agents. Covers 1099-DA reconciliation, cost basis methods (FIFO/HIFO/SpecID), multi-chain transaction reconstruction via E...", "description_zh": "", "downloads": 72, "homepage": "https://clawhub.ai/samledger67-dotcom/crypto-tax-agent", "iconUrl": null, "installs": 2, "name": "crypto tax agent", "ownerName": "samledger67-dotcom", "score": 98630.13698630137, "slug": "crypto-tax-agent", "source": "clawhub", "stars": 0, "tags": null, "updated_at": 1776696469716, "version": "1.0.0"}, {"category": "productivity", "created_at": 1773945334599, "description": "Comprehensive footwear industry sourcing guide for international buyers – provides detailed information about China's athletic, leather, women's, children's,...", "description_zh": "", "downloads": 72, "homepage": "https://clawhub.ai/1970168137/china-shoes-sourcing", "iconUrl": null, "installs": 6, "name": "China Shoes Sourcing", "ownerName": "1970168137", "score": 87804.87804878049, "slug": "china-shoes-sourcing", "source": "clawhub", "stars": 0, "tags": null, "updated_at": 1776696469650, "version": "1.0.0"}, {"category": "developer-tools", "created_at": 1773947288183, "description": "Use the Inbox Zero API CLI to inspect the live API schema, list and manage automation rules, and read inbox analytics through the public API. Use this when a...", "description_zh": "", "downloads": 72, "homepage": "https://clawhub.ai/elie222/inbox-zero-api", "iconUrl": null, "installs": 7, "name": "Inbox Zero API CLI", "ownerName": "elie222", "score": 87804.87804878049, "slug": "inbox-zero-api", "source": "clawhub", "stars": 0, "tags": null, "updated_at": 1776696469632, "version": "2.29.2"}, {"category": "data-analysis", "created_at": 1773952782493, "description": "Stormglass.io integration. Manage Organizations. Use when the user wants to interact with Stormglass.io data.", "description_zh": "", "downloads": 72, "homepage": "https://clawhub.ai/membranedev/stormglassio", "iconUrl": null, "installs": 10, "name": "Stormglassio", "ownerName": "membranedev", "score": 87804.87804878049, "slug": "stormglassio", "source": "clawhub", "stars": 0, "tags": null, "updated_at": 1776696469624, "version": "1.0.0"}, {"category": "ai-intelligence", "created_at": 1773947005396, "description": "Persistent cognitive memory for AI agents — query, record, review, and consolidate knowledge across sessions with spreading activation, FSRS scheduling, and...", "description_zh": "", "downloads": 71, "homepage": "https://clawhub.ai/idapixl/cortex-engine", "iconUrl": null, "installs": 9, "name": "Cortex Engine", "ownerName": "idapixl", "score": 91919.19191919193, "slug": "cortex-engine", "source": "clawhub", "stars": 1, "tags": ["agents", "code-review", "cognition", "knowledge-graph", "mcp", "memory", "spaced-repetition"], "updated_at": 1776695984387, "version": "1.0.1"}, {"category": "", "created_at": 1774880840451, "description": "Klaviyo and Shopify Email automation flow designer. Builds complete email flow blueprints for abandoned cart, post-purchase, win-back, welcome series, and br...", "description_zh": "", "downloads": 71, "homepage": "https://clawhub.ai/mguozhen/shopify-email-flow-builder", "iconUrl": null, "installs": 11, "name": "Shopify Email Flow Builder", "ownerName": "mguozhen", "score": 702.344445543575, "slug": "shopify-email-flow-builder", "source": "clawhub", "stars": 0, "tags": null, "updated_at": 1776764349815, "version": "1.0.0"}, {"category": "", "created_at": 1774849329508, "description": "Multi-model AI debate platform. Submit a topic and multiple AIs deliberate across rounds, producing structured insights and a polished research report.", "description_zh": "", "downloads": 71, "homepage": "https://clawhub.ai/dreamarc77/llmconclave", "iconUrl": null, "installs": 4, "name": "LLMs-Conclave", "ownerName": "dreamarc77", "score": 2600.732600732601, "slug": "llmconclave", "source": "clawhub", "stars": 0, "tags": null, "updated_at": 1776762440225, "version": "1.0.0"}, {"category": "", "created_at": 1774945879985, "description": "Strategy to get recommended by ChatGPT, Claude, Perplexity, and Gemini. Use when someone wants help with LLM SEO, AI search optimization, AEO, or GEO.", "description_zh": "", "downloads": 71, "homepage": "https://clawhub.ai/c0ldsmi1e/llm-seo", "iconUrl": null, "installs": 4, "name": "LLM SEO", "ownerName": "c0ldsmi1e", "score": 2827.558741537236, "slug": "llm-seo", "source": "clawhub", "stars": 0, "tags": null, "updated_at": 1776762440083, "version": "1.0.0"}, {"category": "developer-tools", "created_at": 1773960441624, "description": "Automatically searches and compiles reports of free APIs based on specific functional requirements.", "description_zh": "", "downloads": 71, "homepage": "https://clawhub.ai/terryyehai/api-hunter", "iconUrl": null, "installs": 7, "name": "API Hunter", "ownerName": "terryyehai", "score": 33333.33333333333, "slug": "api-hunter", "source": "clawhub", "stars": 0, "tags": ["api", "automation", "free"], "updated_at": 1776759983205, "version": "1.0.0"}, {"category": "", "created_at": 1772795925080, "description": "General Ledger and chart of accounts management for ERPClaw ERP", "description_zh": "", "downloads": 71, "homepage": "https://clawhub.ai/skipzhang/erpclaw-gl", "iconUrl": null, "installs": 3, "name": "ERPClaw-GL", "ownerName": "skipzhang", "score": 5608.214849921011, "slug": "erpclaw-gl", "source": "clawhub", "stars": 0, "tags": null, "updated_at": 1776759983183, "version": "1.0.3"}, {"category": "security-compliance", "created_at": 1773956241183, "description": "Automation skill for 20 Agent Security Questions.", "description_zh": "", "downloads": 71, "homepage": "https://clawhub.ai/caidongyun/20-agent-security-questions", "iconUrl": null, "installs": 1, "name": "20 Agent Security Questions", "ownerName": "caidongyun", "score": 100000, "slug": "20-agent-security-questions", "source": "clawhub", "stars": 0, "tags": null, "updated_at": 1776759982559, "version": "1.0.0"}, {"category": "productivity", "created_at": 1773951046982, "description": "Help patients find suitable doctors based on symptoms, specialty, location, and doctor ratings. Use when the user wants to find a doctor, get medical recomme...", "description_zh": "", "downloads": 71, "homepage": "https://clawhub.ai/harrylabsj/haodf", "iconUrl": null, "installs": 9, "name": "Haodf", "ownerName": "harrylabsj", "score": 73195.87628865978, "slug": "haodf", "source": "clawhub", "stars": 0, "tags": null, "updated_at": 1776737869811, "version": "1.0.0"}, {"category": "", "created_at": 1774873388064, "description": "Direct MiniMax API integration for speech synthesis (TTS), voice cloning, image generation, video generation, and music generation using local Python scripts...", "description_zh": "", "downloads": 71, "homepage": "https://clawhub.ai/cytwyatt/minimax-tools-skill", "iconUrl": null, "installs": 26, "name": "Minimax Tools", "ownerName": "cytwyatt", "score": 100000, "slug": "minimax-tools-skill", "source": "clawhub", "stars": 0, "tags": null, "updated_at": 1776735055468, "version": "0.1.0"}, {"category": "", "created_at": 1774956110353, "description": "A structured workflow plugin for OpenClaw agents. Guides work through brainstorm → plan → execute → verify → deliver with persistent state, branching, parall...", "description_zh": "", "downloads": 71, "homepage": "https://clawhub.ai/kangyishuai/agent-workflow", "iconUrl": null, "installs": 3, "name": "Agent Workflow", "ownerName": "kangyishuai", "score": 72448.97959183673, "slug": "agent-workflow", "source": "clawhub", "stars": 0, "tags": null, "updated_at": 1776730783787, "version": "1.0.0"}, {"category": "", "created_at": 1774914533695, "description": "Create a presentation-ready copy of a NotebookLM-exported slide-deck PDF by masking the small visible NotebookLM footer badge at the bottom-right of each pag...", "description_zh": "", "downloads": 71, "homepage": "https://clawhub.ai/fudanjx/notebooklm-pdf-cleaner", "iconUrl": null, "installs": 19, "name": "NotebookLM PDF Cleaner", "ownerName": "fudanjx", "score": 73195.87628865978, "slug": "notebooklm-pdf-cleaner", "source": "clawhub", "stars": 0, "tags": null, "updated_at": 1776700369610, "version": "1.0.1"}, {"category": "", "created_at": 1774834768058, "description": "Free web search using Claude Code CLI or Codex CLI's built-in WebSearch tool — no Tavily, Brave, or Exa API key required. Activate when the user says \"websea...", "description_zh": "", "downloads": 71, "homepage": "https://clawhub.ai/jinghan23/claudecode-websearch", "iconUrl": null, "installs": 13, "name": "Claude Code WebSearch", "ownerName": "jinghan23", "score": 100000, "slug": "claudecode-websearch", "source": "clawhub", "stars": 0, "tags": ["claude-code", "codex", "free", "search", "web-search"], "updated_at": 1776697544620, "version": "1.0.0"}, {"category": "communication-collaboration", "created_at": 1773939106858, "description": "Klaviyo API integration with managed OAuth. Access profiles, lists, segments, campaigns, flows, events, metrics, templates, catalogs, and webhooks. Use this...", "description_zh": "", "downloads": 71, "homepage": "https://clawhub.ai/0xspeter/klaviyo-1-0-4", "iconUrl": null, "installs": 4, "name": "Klaviyo 1.0.4", "ownerName": "0xspeter", "score": 97260.27397260274, "slug": "klaviyo-1-0-4", "source": "clawhub", "stars": 0, "tags": null, "updated_at": 1776696470476, "version": "1.0.0"}, {"category": "security-compliance", "created_at": 1773937236504, "description": "Safety Guard URLs or files with the safety-guard CLI (web, PDFs, images, audio, YouTube).", "description_zh": "", "downloads": 71, "homepage": "https://clawhub.ai/john-niu-07/claw-guard-skill", "iconUrl": null, "installs": 0, "name": "OpenClaw Safety Guard", "ownerName": "john-niu-07", "score": 97260.27397260274, "slug": "claw-guard-skill", "source": "clawhub", "stars": 0, "tags": null, "updated_at": 1776696470471, "version": "1.0.0"}, {"category": "developer-tools", "created_at": 1773952372033, "description": "Operate Ethereum execution JSON-RPC through UXC with the official execution OpenRPC schema, public EVM read methods, and eth_subscribe pubsub guardrails.", "description_zh": "", "downloads": 71, "homepage": "https://clawhub.ai/jolestar/ethereum-jsonrpc-skill", "iconUrl": null, "installs": 7, "name": "Ethereum JSON-RPC Skill", "ownerName": "jolestar", "score": 97260.27397260274, "slug": "ethereum-jsonrpc-skill", "source": "clawhub", "stars": 0, "tags": null, "updated_at": 1776696470458, "version": "1.0.0"}, {"category": "developer-tools", "created_at": 1773939329608, "description": "Operate Polymarket from terminal with the `polymarket` Rust CLI (v0.1.5). Covers market/event/tag/series discovery, CLOB order book queries (single & batch),...", "description_zh": "", "downloads": 71, "homepage": "https://clawhub.ai/seandong/poly-cli", "iconUrl": null, "installs": 1, "name": "Polymarket CLI", "ownerName": "seandong", "score": 97260.27397260274, "slug": "poly-cli", "source": "clawhub", "stars": 0, "tags": null, "updated_at": 1776696470403, "version": "0.1.5"}, {"category": "ai-intelligence", "created_at": 1773952384482, "description": "Ezviz restaurant inspection skill. Captures device images and sends to Ezviz AI for food safety analysis.", "description_zh": "", "downloads": 71, "homepage": "https://clawhub.ai/ezviz-open/ezviz-open-restaurant-inspection", "iconUrl": null, "installs": 8, "name": "Ezviz Open Restaurant Inspection", "ownerName": "ezviz-open", "score": 97260.27397260274, "slug": "ezviz-open-restaurant-inspection", "source": "clawhub", "stars": 0, "tags": null, "updated_at": 1776696470387, "version": "1.0.3"}, {"category": "ai-intelligence", "created_at": 1773952889713, "description": "Multilingual TTS via Typecast CLI with emotion control. Plays audio aloud or saves to file.", "description_zh": "", "downloads": 71, "homepage": "https://clawhub.ai/jaebong-human/typecast", "iconUrl": null, "installs": 13, "name": "Cast", "ownerName": "jaebong-human", "score": 97260.27397260274, "slug": "typecast", "source": "clawhub", "stars": 0, "tags": null, "updated_at": 1776696470364, "version": "0.1.0"}, {"category": "developer-tools", "created_at": 1773952348591, "description": "Compare two documents or files and generate a structured diff report. Use when: user asks to compare files, find differences between documents, generate diff...", "description_zh": "", "downloads": 71, "homepage": "https://clawhub.ai/cnoder-wgh/doc-diff", "iconUrl": null, "installs": 5, "name": "Document Diff", "ownerName": "cnoder-wgh", "score": 85542.1686746988, "slug": "doc-diff", "source": "clawhub", "stars": 0, "tags": null, "updated_at": 1776696470325, "version": "1.0.0"}, {"category": "developer-tools", "created_at": 1773950675254, "description": "Vuact best practices and integration guide. A React↔Vue bridge / interop library that lets you use React components in Vue or Vue components in React with fu...", "description_zh": "", "downloads": 71, "homepage": "https://clawhub.ai/yinhangfeng/vuact", "iconUrl": null, "installs": 8, "name": "vuact", "ownerName": "yinhangfeng", "score": 85542.1686746988, "slug": "vuact", "source": "clawhub", "stars": 0, "tags": null, "updated_at": 1776696470315, "version": "0.1.0"}, {"category": "developer-tools", "created_at": 1773946491263, "description": "Develop secure smart contracts using OpenZeppelin Contracts libraries. Use when users need to integrate OpenZeppelin library components — including token sta...", "description_zh": "", "downloads": 71, "homepage": "https://clawhub.ai/samledger67-dotcom/develop-secure-contracts", "iconUrl": null, "installs": 5, "name": "Develop Secure Contracts", "ownerName": "samledger67-dotcom", "score": 85542.1686746988, "slug": "develop-secure-contracts", "source": "clawhub", "stars": 0, "tags": null, "updated_at": 1776696470221, "version": "98.0.1"}, {"category": "productivity", "created_at": 1773954946639, "description": "Work with Obsidian vaults (plain Markdown notes) and automate via obsidian-cli.", "description_zh": "", "downloads": 71, "homepage": "https://clawhub.ai/tonydesign1999/obsidian-1", "iconUrl": null, "installs": 15, "name": "Obsidian 1", "ownerName": "tonydesign1999", "score": 95945.94594594595, "slug": "obsidian-1", "source": "clawhub", "stars": 0, "tags": null, "updated_at": 1776696470205, "version": "1.0.0"}, {"category": "", "created_at": 1774872442898, "description": "Reference tool for devtools — covers intro, quickstart, patterns and more. Quick lookup for Financial Machine Learning concepts, best practices, and implemen...", "description_zh": "", "downloads": 71, "homepage": "https://clawhub.ai/bytesagain1/financial-machine-learning", "iconUrl": null, "installs": 6, "name": "Financial Machine Learning", "ownerName": "bytesagain1", "score": 95945.94594594595, "slug": "financial-machine-learning", "source": "clawhub", "stars": 0, "tags": null, "updated_at": 1776696470202, "version": "2.0.2"}, {"category": "ai-intelligence", "created_at": 1773946290371, "description": "AIUSD Core — structured trading tools and account management for AI agents. Use when user wants to buy/sell assets, check balances, stake, or manage positions.", "description_zh": "", "downloads": 71, "homepage": "https://clawhub.ai/tech-fe-aiusd/aiusd-core", "iconUrl": null, "installs": 6, "name": "aiusd-core", "ownerName": "tech-fe-aiusd", "score": 95945.94594594595, "slug": "aiusd-core", "source": "clawhub", "stars": 0, "tags": null, "updated_at": 1776696470126, "version": "1.0.0"}, {"category": "developer-tools", "created_at": 1773954142881, "description": "Advanced web scraping with Scrapling — MCP-native guidance for extraction, crawling, and anti-bot handling. Use via mcporter (MCP) to call the `scrapling` MC...", "description_zh": "", "downloads": 71, "homepage": "https://clawhub.ai/nidhov01/nidhov01-scrapling-web-scraping", "iconUrl": null, "installs": 6, "name": "Scrapling Web Scraping", "ownerName": "nidhov01", "score": 95945.94594594595, "slug": "nidhov01-scrapling-web-scraping", "source": "clawhub", "stars": 0, "tags": null, "updated_at": 1776696470106, "version": "0.4.2"}, {"category": "ai-intelligence", "created_at": 1773947247831, "description": "Use FusionBench to run model fusion experiments. Covers running benchmarks, adding new merging algorithms, evaluating fused models, and managing model pools....", "description_zh": "", "downloads": 71, "homepage": "https://clawhub.ai/tanganke/fusion-bench", "iconUrl": null, "installs": 10, "name": "fusion-bench", "ownerName": "tanganke", "score": 87654.32098765433, "slug": "fusion-bench", "source": "clawhub", "stars": 0, "tags": null, "updated_at": 1776696470102, "version": "1.0.0"}, {"category": "developer-tools", "created_at": 1773948948934, "description": "Interact with Bitbucket Cloud via REST API. Use for repository management, pull request operations (list, view, create, comment, approve, merge), branch mana...", "description_zh": "", "downloads": 71, "homepage": "https://clawhub.ai/snowsand-enterprises/snowsand-bitbucket", "iconUrl": null, "installs": 8, "name": "Snowsand Bitbucket", "ownerName": "snowsand-enterprises", "score": 87654.32098765433, "slug": "snowsand-bitbucket", "source": "clawhub", "stars": 0, "tags": null, "updated_at": 1776696470055, "version": "1.0.0"}, {"category": "security-compliance", "created_at": 1773935614815, "description": "Monitor AI agent wallets on Base. Register wallets, check health scores, view transactions, manage alerts, and watch live feeds.", "description_zh": "", "downloads": 71, "homepage": "https://clawhub.ai/saltxd/chainward", "iconUrl": null, "installs": 2, "name": "ChainWard", "ownerName": "saltxd", "score": 87654.32098765433, "slug": "chainward", "source": "clawhub", "stars": 0, "tags": null, "updated_at": 1776696469950, "version": "1.0.0"}, {"category": "data-analysis", "created_at": 1773957842536, "description": "Business KPI monitoring with threshold-based alerts. Connects to QuickBooks Online, Google Sheets, and CSV exports to track AR aging, cash runway, revenue gr...", "description_zh": "", "downloads": 71, "homepage": "https://clawhub.ai/samledger67-dotcom/kpi-alert-system", "iconUrl": null, "installs": 1, "name": "test", "ownerName": "samledger67-dotcom", "score": 86585.36585365854, "slug": "kpi-alert-system", "source": "clawhub", "stars": 0, "tags": null, "updated_at": 1776696469867, "version": "0.0.0-probe"}]}