{"page": 418, "total_pages": 522, "total": 26073, "skills": [{"category": "developer-tools", "created_at": 1773944010369, "description": "Operate Telegram Bot API through UXC with a curated OpenAPI schema, bot-token path auth, polling-based reads, and webhook management guardrails.", "description_zh": "", "downloads": 71, "homepage": "https://clawhub.ai/jolestar/telegram-openapi-skill", "iconUrl": null, "installs": 7, "name": "Telegram OpenAPI Skill", "ownerName": "jolestar", "score": 86585.36585365854, "slug": "telegram-openapi-skill", "source": "clawhub", "stars": 0, "tags": null, "updated_at": 1776696469819, "version": "1.0.1"}, {"category": "", "created_at": 1774904484482, "description": "Convert Markdown files to formatted Word documents (.docx). Use when the user asks to convert, export, or save a Markdown file as Word/DOCX format. Triggers...", "description_zh": "", "downloads": 71, "homepage": "https://clawhub.ai/frankxpj/md-2-word", "iconUrl": null, "installs": 17, "name": "Markdown to Word", "ownerName": "frankxpj", "score": 86585.36585365854, "slug": "md-2-word", "source": "clawhub", "stars": 0, "tags": null, "updated_at": 1776696469797, "version": "1.0.0"}, {"category": "developer-tools", "created_at": 1773944985077, "description": "Set up a Cairo smart contract project with OpenZeppelin Contracts for Cairo on Starknet. Use when users need to: (1) create a new Scarb/Starknet project, (2)...", "description_zh": "", "downloads": 71, "homepage": "https://clawhub.ai/samledger67-dotcom/setup-cairo-contracts", "iconUrl": null, "installs": 7, "name": "setup cairo contracts", "ownerName": "samledger67-dotcom", "score": 86585.36585365854, "slug": "setup-cairo-contracts", "source": "clawhub", "stars": 0, "tags": null, "updated_at": 1776696469795, "version": "1.0.0"}, {"category": "", "created_at": 1774887271568, "description": "Web search via Tavily API (alternative to Brave). Use when the user asks to search the web / look up sources / find links and Brave web_search is unavailable...", "description_zh": "", "downloads": 71, "homepage": "https://clawhub.ai/make453/openclaw-tavily-search-bak", "iconUrl": null, "installs": 22, "name": "Openclaw Tavily Search.Bak", "ownerName": "make453", "score": 97260.27397260274, "slug": "openclaw-tavily-search-bak", "source": "clawhub", "stars": 0, "tags": null, "updated_at": 1776696469736, "version": "1.0.0"}, {"category": "productivity", "created_at": 1773938819231, "description": "Start and review web form autofill workflow with human approval.", "description_zh": "", "downloads": 71, "homepage": "https://clawhub.ai/wanghong5233/application-tracker", "iconUrl": null, "installs": 3, "name": "Application Tracker", "ownerName": "wanghong5233", "score": 97260.27397260274, "slug": "application-tracker", "source": "clawhub", "stars": 0, "tags": null, "updated_at": 1776696469693, "version": "1.0.1"}, {"category": "", "created_at": 1774844583942, "description": "Control mouse and keyboard on Mac using cliclick. Use when you need to automate clicking, typing, or controlling the mouse cursor.", "description_zh": "", "downloads": 70, "homepage": "https://clawhub.ai/calvin-dean/mouse-keyboard", "iconUrl": null, "installs": 14, "name": "mouse-keyboard", "ownerName": "calvin-dean", "score": 2481.389578163772, "slug": "mouse-keyboard", "source": "clawhub", "stars": 0, "tags": null, "updated_at": 1776770349719, "version": "1.0.0"}, {"category": "", "created_at": 1774890054787, "description": "ISO 9001:2015 Quality Management System implementation, internal audit, and CAPA management. Use when implementing a QMS from scratch, conducting gap assessm...", "description_zh": "", "downloads": 70, "homepage": "https://clawhub.ai/wroadd/iso9001-qms", "iconUrl": null, "installs": 11, "name": "ISO 9001:2015 QMS — Implementation, Audit & CAPA", "ownerName": "wroadd", "score": 366.4921465968586, "slug": "iso9001-qms", "source": "clawhub", "stars": 0, "tags": null, "updated_at": 1776770090475, "version": "1.0.0"}, {"category": "", "created_at": 1774877831586, "description": "Комплексное удаление маркеров ИИ (AI-slop) и неестественных конструкций из русскоязычного текста. Делает текст живым, сильным и по-настоящему человечным.", "description_zh": "", "downloads": 70, "homepage": "https://clawhub.ai/horosheff/russian-humanizer", "iconUrl": null, "installs": 18, "name": "Russian Humanizer", "ownerName": "horosheff", "score": 2039.0329158170698, "slug": "russian-humanizer", "source": "clawhub", "stars": 0, "tags": ["anti-slop", "editing", "llm", "russian", "writing"], "updated_at": 1776769149780, "version": "1.0.0"}, {"category": "", "created_at": 1774819018378, "description": "Read, search, and sync IMAP mailboxes with UID-safe fetches, precise filters, and attachment-aware workflows.", "description_zh": "", "downloads": 70, "homepage": "https://clawhub.ai/ivangdavila/imap", "iconUrl": null, "installs": 6, "name": "IMAP", "ownerName": "ivangdavila", "score": 796.0877971113385, "slug": "imap", "source": "clawhub", "stars": 0, "tags": null, "updated_at": 1776764690743, "version": "1.0.0"}, {"category": "", "created_at": 1774911226315, "description": "Create new skills, modify existing skills, and validate skill quality for the FlagOS skills repository. Use this skill whenever someone wants to create a ski...", "description_zh": "", "downloads": 70, "homepage": "https://clawhub.ai/flagosevangelist/skill-creator-flagos", "iconUrl": null, "installs": 24, "name": "Skill Creator FlagOS", "ownerName": "flagosevangelist", "score": 1679.8656107511397, "slug": "skill-creator-flagos", "source": "clawhub", "stars": 0, "tags": null, "updated_at": 1776764116522, "version": "1.0.0"}, {"category": "", "created_at": 1774905666531, "description": "Zero-setup document extraction — convert PDFs, images, Word, and PowerPoint to Markdown instantly. No login, no token, no configuration. Just run and get res...", "description_zh": "", "downloads": 70, "homepage": "https://clawhub.ai/mineru-extract/mineru-fast-extract", "iconUrl": null, "installs": 11, "name": "MinerU zero-setup document extraction — convert PDFs, images, Word, and PowerPoint to Markdown instantly. No login, no token, no configuration. Just run and get results", "ownerName": "mineru-extract", "score": 1412.1444422029454, "slug": "mineru-fast-extract", "source": "clawhub", "stars": 0, "tags": null, "updated_at": 1776763449859, "version": "1.0.0"}, {"category": "", "created_at": 1774870900811, "description": "Analyzes an existing project to produce a detailed, structured report on its architecture, patterns, technical debt, and key areas for downstream work.", "description_zh": "", "downloads": 70, "homepage": "https://clawhub.ai/cankocakulak/analyzer", "iconUrl": null, "installs": 1, "name": "Analyzer", "ownerName": "cankocakulak", "score": 32863.849765258215, "slug": "analyzer", "source": "clawhub", "stars": 0, "tags": null, "updated_at": 1776759983188, "version": "1.0.1"}, {"category": "", "created_at": 1772797143488, "description": "Human Resources management -- employees, departments, leave, attendance, expense claims, and employee lifecycle for ERPClaw ERP", "description_zh": "", "downloads": 70, "homepage": "https://clawhub.ai/skipzhang/erpclaw-hr", "iconUrl": null, "installs": 3, "name": "ERPClaw-HR", "ownerName": "skipzhang", "score": 18970.18970189702, "slug": "erpclaw-hr", "source": "clawhub", "stars": 0, "tags": null, "updated_at": 1776759983144, "version": "1.0.0"}, {"category": "", "created_at": 1774896122192, "description": "Professional AI travel assistant for foreign visitors to China offering visa guidance, real-time transport info, payment support, live translation, and emerg...", "description_zh": "", "downloads": 70, "homepage": "https://clawhub.ai/1970168137/china-travel-guide", "iconUrl": null, "installs": 9, "name": "China Travel Guide", "ownerName": "1970168137", "score": 100000, "slug": "china-travel-guide", "source": "clawhub", "stars": 0, "tags": null, "updated_at": 1776759982961, "version": "1.0.0"}, {"category": "", "created_at": 1774877571462, "description": "Provide personalized Netflix content recommendations, explain subscription plans and account features, troubleshoot streaming issues, and enhance user experi...", "description_zh": "", "downloads": 70, "homepage": "https://clawhub.ai/duanc-chao/netflix", "iconUrl": null, "installs": 3, "name": "Imma watch something", "ownerName": "duanc-chao", "score": 19886.363636363636, "slug": "netflix", "source": "clawhub", "stars": 0, "tags": null, "updated_at": 1776759982738, "version": "1.0.0"}, {"category": "", "created_at": 1774783043765, "description": "Control local Windows WeChat client via Python to login, send messages, list recent chats, and get total unread count using itchat library.", "description_zh": "", "downloads": 70, "homepage": "https://clawhub.ai/ltf13133-wq/wechat-control", "iconUrl": null, "installs": 5, "name": "Wechat Control", "ownerName": "ltf13133-wq", "score": 5490.196078431372, "slug": "wechat-control", "source": "clawhub", "stars": 0, "tags": null, "updated_at": 1776759982387, "version": "0.1.3"}, {"category": "", "created_at": 1774907349553, "description": "Amazon brand analytics and market opportunity mining agent. Analyze brand-level data, identify market opportunities, track brand performance trends, and make...", "description_zh": "", "downloads": 70, "homepage": "https://clawhub.ai/mguozhen/amazon-brand-analytics", "iconUrl": null, "installs": 21, "name": "Amazon Brand Analytics", "ownerName": "mguozhen", "score": 4638.833664678596, "slug": "amazon-brand-analytics", "source": "clawhub", "stars": 0, "tags": null, "updated_at": 1776757882344, "version": "1.0.0"}, {"category": "", "created_at": 1774903906776, "description": "Local speech-to-text with the Whisper CLI (no API key).", "description_zh": "", "downloads": 70, "homepage": "https://clawhub.ai/utromaya-code/whisper-local-stt", "iconUrl": null, "installs": 9, "name": "Openai Whisper", "ownerName": "utromaya-code", "score": 13084.11214953271, "slug": "whisper-local-stt", "source": "clawhub", "stars": 0, "tags": null, "updated_at": 1776753044654, "version": "1.0.0"}, {"category": "", "created_at": 1774892677983, "description": "Resilient web scraper with bot-detection evasion using the Crawlee library. Use when web_fetch is blocked by rate limits or bot detection. Supports single UR...", "description_zh": "", "downloads": 70, "homepage": "https://clawhub.ai/bryantegomoh/crawlee-web-scraper", "iconUrl": null, "installs": 6, "name": "Crawlee Web Scraper", "ownerName": "bryantegomoh", "score": 12915.129151291512, "slug": "crawlee-web-scraper", "source": "clawhub", "stars": 0, "tags": null, "updated_at": 1776750004841, "version": "1.0.0"}, {"category": "data-analysis", "created_at": 1773952612398, "description": "Monitor the payment last mile — initiate → success reconciliation → local method gaps — to recover conversion lost to failed checkouts. Use when payment succ...", "description_zh": "", "downloads": 70, "homepage": "https://clawhub.ai/rijoyai/payment-funnel-monitor", "iconUrl": null, "installs": 8, "name": "Payment Funnel Monitor", "ownerName": "rijoyai", "score": 100000, "slug": "payment-funnel-monitor", "source": "clawhub", "stars": 0, "tags": null, "updated_at": 1776743755480, "version": "0.1.0"}, {"category": "ai-intelligence", "created_at": 1773952735809, "description": "Captures learnings, errors, and corrections to enable continuous improvement. Use when: (1) A command or operation fails unexpectedly, (2) User corrects Clau...", "description_zh": "", "downloads": 70, "homepage": "https://clawhub.ai/wuxian-upup/self-improving-agent-zh", "iconUrl": null, "installs": 8, "name": "Self Improving Agent", "ownerName": "wuxian-upup", "score": 71428.57142857143, "slug": "self-improving-agent-zh", "source": "clawhub", "stars": 0, "tags": null, "updated_at": 1776739970033, "version": "1.0.0"}, {"category": "", "created_at": 1774923482076, "description": "Searches, stores, and manages agent memory across 4 sources (fact store, vector embeddings, BM25, knowledge graph). Runs 100% local via Ollama — no API keys,...", "description_zh": "", "downloads": 70, "homepage": "https://clawhub.ai/primo-studio/agent-memory-tools", "iconUrl": null, "installs": 24, "name": "Agent Memory Tools", "ownerName": "primo-studio", "score": 71428.57142857143, "slug": "agent-memory-tools", "source": "clawhub", "stars": 0, "tags": null, "updated_at": 1776739844573, "version": "1.0.0"}, {"category": "", "created_at": 1774837003495, "description": "Analyze real estate investments with conservative underwriting, financing stress tests, diligence gates, and exit planning.", "description_zh": "", "downloads": 70, "homepage": "https://clawhub.ai/ivangdavila/real-estate-investing", "iconUrl": null, "installs": 9, "name": "Real Estate Investing", "ownerName": "ivangdavila", "score": 86419.75308641975, "slug": "real-estate-investing", "source": "clawhub", "stars": 0, "tags": null, "updated_at": 1776737869754, "version": "1.0.0"}, {"category": "", "created_at": 1774886005825, "description": "Knowledge card memory system with semantic search. Agents wake up fresh each session but remember everything through atomic ~350-token cards with YAML frontm...", "description_zh": "", "downloads": 70, "homepage": "https://clawhub.ai/solomonneas/self-learning-agent", "iconUrl": null, "installs": 13, "name": "Self Learning Agent", "ownerName": "solomonneas", "score": 64220.18348623854, "slug": "self-learning-agent", "source": "clawhub", "stars": 0, "tags": null, "updated_at": 1776733244493, "version": "1.0.1"}, {"category": "productivity", "created_at": 1773946875377, "description": "Log health symptoms, track patterns, and chart trends. Use when logging symptoms, tracking frequency, charting trends, reviewing patterns.", "description_zh": "", "downloads": 70, "homepage": "https://clawhub.ai/xueyetianya/symptom", "iconUrl": null, "installs": 2, "name": "Symptom", "ownerName": "xueyetianya", "score": 95890.4109589041, "slug": "symptom", "source": "clawhub", "stars": 0, "tags": null, "updated_at": 1776696470417, "version": "2.0.1"}, {"category": "developer-tools", "created_at": 1773942390875, "description": "Teamgram Server architecture guide for building Telegram-compatible backends. Use when designing service topology, implementing MTProto services, or self-hos...", "description_zh": "", "downloads": 70, "homepage": "https://clawhub.ai/zhihang9978/teamgram-server-architecture", "iconUrl": null, "installs": 6, "name": "Teamgram Server Architecture", "ownerName": "zhihang9978", "score": 95890.4109589041, "slug": "teamgram-server-architecture", "source": "clawhub", "stars": 0, "tags": ["architecture", "backend", "deployment", "microservices", "teamgram", "telegram"], "updated_at": 1776696470415, "version": "1.0.1"}, {"category": "", "created_at": 1774789516877, "description": "Deep research and analysis agent for any topic. Use when the user wants to research a topic, analyze competitors, evaluate technologies, compare tools, inves...", "description_zh": "", "downloads": 70, "homepage": "https://clawhub.ai/jahonn/deep-research-agent", "iconUrl": null, "installs": 12, "name": "Deep Research Agent", "ownerName": "jahonn", "score": 95890.4109589041, "slug": "deep-research-agent", "source": "clawhub", "stars": 0, "tags": null, "updated_at": 1776696470389, "version": "1.0.0"}, {"category": "developer-tools", "created_at": 1773957012741, "description": "Comprehensive electronic components industry factory guide for international buyers – provides detailed information about China's semiconductor, passive comp...", "description_zh": "", "downloads": 70, "homepage": "https://clawhub.ai/findhappy7/china-electronic-components-factory", "iconUrl": null, "installs": 10, "name": "China Electronic Components Factory", "ownerName": "findhappy7", "score": 84337.34939759037, "slug": "china-electronic-components-factory", "source": "clawhub", "stars": 0, "tags": null, "updated_at": 1776696470355, "version": "1.0.0"}, {"category": "data-analysis", "created_at": 1773944926195, "description": "Analyze a product from a product name plus platform by locating the intended listing, reading public user reviews when accessible, and turning the evidence i...", "description_zh": "", "downloads": 70, "homepage": "https://clawhub.ai/harrylabsj/review-buying-advisor", "iconUrl": null, "installs": 7, "name": "Review Buying Advisor", "ownerName": "harrylabsj", "score": 84337.34939759037, "slug": "review-buying-advisor", "source": "clawhub", "stars": 0, "tags": null, "updated_at": 1776696470280, "version": "0.1.0"}, {"category": "developer-tools", "created_at": 1773943462695, "description": "count", "description_zh": "", "downloads": 70, "homepage": "https://clawhub.ai/xueyetianya/count", "iconUrl": null, "installs": 2, "name": "Count", "ownerName": "xueyetianya", "score": 84337.34939759037, "slug": "count", "source": "clawhub", "stars": 0, "tags": null, "updated_at": 1776696470276, "version": "2.0.3"}, {"category": "communication-collaboration", "created_at": 1773946012658, "description": "Documents the message delivery and sync distribution layer in Teamgram Server, covering Kafka Inbox-T/Sync-T topics, inbox/outbox model, and the complete mes...", "description_zh": "", "downloads": 70, "homepage": "https://clawhub.ai/zhihang9978/teamgram-messaging-sync", "iconUrl": null, "installs": 4, "name": "Teamgram Messaging Sync", "ownerName": "zhihang9978", "score": 84337.34939759037, "slug": "teamgram-messaging-sync", "source": "clawhub", "stars": 0, "tags": null, "updated_at": 1776696470210, "version": "1.0.0"}, {"category": "security-compliance", "created_at": 1773939276164, "description": "Secure multi-chain wallet for AI agents. Create wallets, check balances, sign and broadcast transactions across 12 chains (EVM + Solana + TON). Private keys...", "description_zh": "", "downloads": 70, "homepage": "https://clawhub.ai/phlegonlabs/phlegon-agentwallet", "iconUrl": null, "installs": 3, "name": "AgentWallet", "ownerName": "phlegonlabs", "score": 94594.5945945946, "slug": "phlegon-agentwallet", "source": "clawhub", "stars": 0, "tags": null, "updated_at": 1776696470187, "version": "1.0.0"}, {"category": "developer-tools", "created_at": 1773949807966, "description": "Subscribe to change notifications on a Google Drive file or folder.", "description_zh": "", "downloads": 70, "homepage": "https://clawhub.ai/googleworkspace-bot/recipe-watch-drive-changes", "iconUrl": null, "installs": 9, "name": "Recipe Watch Drive Changes", "ownerName": "googleworkspace-bot", "score": 94594.5945945946, "slug": "recipe-watch-drive-changes", "source": "clawhub", "stars": 0, "tags": null, "updated_at": 1776696470182, "version": "1.0.10"}, {"category": "", "created_at": 1774914627988, "description": "Professional JMeter & LoadRunner performance testing career roadmap platform that generates personalized learning paths for aspiring performance engineers.", "description_zh": "", "downloads": 70, "homepage": "https://clawhub.ai/krishnakumarmahadevan-cmd/performance-tester", "iconUrl": null, "installs": 11, "name": "Performance Tester", "ownerName": "krishnakumarmahadevan-cmd", "score": 86419.75308641975, "slug": "performance-tester", "source": "clawhub", "stars": 0, "tags": null, "updated_at": 1776696470011, "version": "1.0.0"}, {"category": "data-analysis", "created_at": 1773956712592, "description": "Trades Polymarket prediction markets on central bank decisions, interest rates, inflation prints, and Fed/ECB/Riksbank policy moves.", "description_zh": "", "downloads": 70, "homepage": "https://clawhub.ai/diagnostikon/polymarket-central-bank-trader", "iconUrl": null, "installs": 10, "name": "Central Bank & Monetary Policy Trader", "ownerName": "diagnostikon", "score": 86419.75308641975, "slug": "polymarket-central-bank-trader", "source": "clawhub", "stars": 0, "tags": null, "updated_at": 1776696470005, "version": "1.0.0"}, {"category": "content-creation", "created_at": 1773946370544, "description": "Manage a Bluesky (bsky) account — posting, replies, likes, reposts, follows, blocks, mutes, search, timeline, threads, notifications, DMs, and profile update...", "description_zh": "", "downloads": 70, "homepage": "https://clawhub.ai/johannesseikowsky/bluesky-skill", "iconUrl": null, "installs": 5, "name": "bluesky-skill", "ownerName": "johannesseikowsky", "score": 85365.85365853658, "slug": "bluesky-skill", "source": "clawhub", "stars": 0, "tags": null, "updated_at": 1776696469880, "version": "1.0.1"}, {"category": "developer-tools", "created_at": 1773942244793, "description": "Upgrade OpenClaw to a specific version or latest using a cross-platform, Codex-supervised flow. Use when the user asks to upgrade or update OpenClaw. OpenCla...", "description_zh": "", "downloads": 70, "homepage": "https://clawhub.ai/gejiliang/openclaw-upgrader", "iconUrl": null, "installs": 2, "name": "OpenClaw Upgrader", "ownerName": "gejiliang", "score": 95890.4109589041, "slug": "openclaw-upgrader", "source": "clawhub", "stars": 0, "tags": null, "updated_at": 1776696469677, "version": "0.1.1"}, {"category": "security-compliance", "created_at": 1773951306295, "description": "Safely manage your AI skill collection with trust scoring, security vetting, delayed auto-updates, and pending periods for new skills. Use when adding new sk...", "description_zh": "", "downloads": 70, "homepage": "https://clawhub.ai/liefqin/skill-guardian", "iconUrl": null, "installs": 6, "name": "Skill Guardian", "ownerName": "liefqin", "score": 85365.85365853658, "slug": "skill-guardian", "source": "clawhub", "stars": 0, "tags": ["auto-update", "cron-ready", "curation", "guardian", "safety", "security", "skill-management", "trust-scoring", "version-control", "vetting"], "updated_at": 1776696469549, "version": "1.0.0"}, {"category": "", "created_at": 1774906221720, "description": "Build and execute skills.video image generation REST requests from OpenAPI specs. Use when user needs to create, debug, or document image generation calls on...", "description_zh": "", "downloads": 70, "homepage": "https://clawhub.ai/skills-video/ai-image", "iconUrl": null, "installs": 2, "name": "AI Image", "ownerName": "skills-video", "score": 85365.85365853658, "slug": "ai-image", "source": "clawhub", "stars": 0, "tags": null, "updated_at": 1776696469542, "version": "1.0.3"}, {"category": "", "created_at": 1776068653386, "description": "Image generation skill. Automatically selects the best dlazy CLI image model based on the prompt.", "description_zh": "", "downloads": 69, "homepage": "https://clawhub.ai/user_f95f21b8/dlazy-image-generate", "iconUrl": null, "installs": 5, "name": "image generate", "ownerName": "user_f95f21b8", "score": 720.1812591034148, "slug": "dlazy-image-generate", "source": "community", "stars": 1, "tags": null, "updated_at": 1776766449795, "version": "1.0.4"}, {"category": "ai-intelligence", "created_at": 1773078032305, "description": "Cloud-based browser automation with AI element detection, proxy rotation, CAPTCHA solving, session management, and anti-detection for reliable web tasks.", "description_zh": "", "downloads": 69, "homepage": "https://clawhub.ai/xiaoyinqu/browser-automation-cloud-turbo", "iconUrl": null, "installs": 12, "name": "Browser Automation Cloud Turbo", "ownerName": "xiaoyinqu", "score": 1168.5012701100763, "slug": "browser-automation-cloud-turbo", "source": "clawhub", "stars": 0, "tags": null, "updated_at": 1776763150745, "version": "1.0.0"}, {"category": "", "created_at": 1774873958691, "description": "Provides gRPC usage guidelines, protobuf organization, and production-ready patterns for Golang microservices. Use when implementing, reviewing, or debugging...", "description_zh": "", "downloads": 69, "homepage": "https://clawhub.ai/samber/golang-grpc", "iconUrl": null, "installs": 2, "name": "Golang Grpc", "ownerName": "samber", "score": 2646.7203682393556, "slug": "golang-grpc", "source": "clawhub", "stars": 0, "tags": null, "updated_at": 1776762289850, "version": "1.1.1"}, {"category": "", "created_at": 1774915055114, "description": "AI assistant for HVAC contractors managing dispatch, maintenance scheduling, seasonal prep, service estimates, customer follow-up, and inventory alerts.", "description_zh": "", "downloads": 69, "homepage": "https://clawhub.ai/afrexai-cto/afrexai-hvac-operations", "iconUrl": null, "installs": 7, "name": "Hvac Operations", "ownerName": "afrexai-cto", "score": 5428.796223446106, "slug": "afrexai-hvac-operations", "source": "clawhub", "stars": 0, "tags": null, "updated_at": 1776759982794, "version": "1.0.0"}, {"category": "", "created_at": 1774895586512, "description": "Conducts autonomous, iterative research by defining goals, generating hypotheses, verifying results, modifying approaches, and repeating until criteria are met.", "description_zh": "", "downloads": 69, "homepage": "https://clawhub.ai/amdf01-debug/sw-autoresearch", "iconUrl": null, "installs": 9, "name": "Autoresearch Loop", "ownerName": "amdf01-debug", "score": 5458.860759493671, "slug": "sw-autoresearch", "source": "clawhub", "stars": 0, "tags": ["agents", "autonomous", "research"], "updated_at": 1776759982780, "version": "1.0.0"}, {"category": "", "created_at": 1774857742021, "description": "Cryptocurrency and precious metals market data analysis, supporting K-line, funding rate, open interest, long/short ratio, liquidation data, option data, fea...", "description_zh": "", "downloads": 69, "homepage": "https://clawhub.ai/burceasn/crypto-watch-skill", "iconUrl": null, "installs": 4, "name": "crypto-watch-skill", "ownerName": "burceasn", "score": 5437.352245862884, "slug": "crypto-watch-skill", "source": "clawhub", "stars": 0, "tags": null, "updated_at": 1776759982720, "version": "1.0.0"}, {"category": "productivity", "created_at": 1773961787185, "description": "Manages multi-session, multi-stage projects by maintaining and syncing MISSION.md, PROGRESS.md, and NEXT_STEPS.md for seamless long-term progress tracking.", "description_zh": "", "downloads": 69, "homepage": "https://clawhub.ai/bono5137/ltpm", "iconUrl": null, "installs": 7, "name": "Long-term Task Progress Manager", "ownerName": "bono5137", "score": 94520.54794520549, "slug": "ltpm", "source": "clawhub", "stars": 0, "tags": ["management", "progress", "project", "v2.1"], "updated_at": 1776759982602, "version": "2.1.0"}, {"category": "", "created_at": 1774909387292, "description": "Generate a new H5/Web campaign proposal and page architecture from UI references, then output a high-fidelity HTML/CSS/JS front-end draft on a fixed stack.", "description_zh": "", "downloads": 69, "homepage": "https://clawhub.ai/bigin58/activity-campaign-from-ui", "iconUrl": null, "installs": 8, "name": "Activity Campaign from UI", "ownerName": "bigin58", "score": 5416.012558869702, "slug": "activity-campaign-from-ui", "source": "clawhub", "stars": 0, "tags": null, "updated_at": 1776759982513, "version": "0.1.6"}, {"category": "", "created_at": 1774866065808, "description": "Restore damaged, old, and low-quality photos using AI via Media.io OpenAPI. Enhances image quality, removes scratches and noise, colorizes black-and-white ph...", "description_zh": "", "downloads": 69, "homepage": "https://clawhub.ai/wondershare-boop/mediaio-ai-photo-restorer", "iconUrl": null, "installs": 2, "name": "AI Photo Restorer & Colorizer", "ownerName": "wondershare-boop", "score": 5445.935280189424, "slug": "mediaio-ai-photo-restorer", "source": "clawhub", "stars": 0, "tags": null, "updated_at": 1776759982359, "version": "1.0.1"}, {"category": "", "created_at": 1772798005686, "description": "AI-powered business analysis for ERPClaw — anomaly detection, cash flow forecasting, business rules, relationship scoring, conversation memory", "description_zh": "", "downloads": 69, "homepage": "https://clawhub.ai/skipzhang/erpclaw-ai-engine", "iconUrl": null, "installs": 4, "name": "ERPClaw-AI-Engine-Analytics", "ownerName": "skipzhang", "score": 4729.26662097327, "slug": "erpclaw-ai-engine", "source": "clawhub", "stars": 0, "tags": null, "updated_at": 1776759982282, "version": "1.0.0"}, {"category": "", "created_at": 1774909265709, "description": "Tutorial Video Editor — Edit How-To and Tutorial Videos with AI Zoom and Callouts. Twenty minutes of Photoshop walkthrough and you forgot to zoom in on the t...", "description_zh": "", "downloads": 69, "homepage": "https://clawhub.ai/udnerc/tutorial-video-editor", "iconUrl": null, "installs": 15, "name": "Tutorial Video Editor", "ownerName": "udnerc", "score": 5283.307810107198, "slug": "tutorial-video-editor", "source": "clawhub", "stars": 0, "tags": null, "updated_at": 1776759682489, "version": "1.0.1"}]}