{"page": 419, "total_pages": 522, "total": 26073, "skills": [{"category": "", "created_at": 1774907368604, "description": "Amazon FBA product research agent. Find profitable FBA products — extract rank, sales volume, estimated revenue, competition score, and profit potential with...", "description_zh": "", "downloads": 69, "homepage": "https://clawhub.ai/mguozhen/amazon-fba-product-finder", "iconUrl": null, "installs": 21, "name": "Amazon Fba Product Finder", "ownerName": "mguozhen", "score": 4572.564612326044, "slug": "amazon-fba-product-finder", "source": "clawhub", "stars": 0, "tags": null, "updated_at": 1776757882487, "version": "1.0.0"}, {"category": "", "created_at": 1774878350240, "description": "Scout Amazon trending products, hot searches, new releases, and rising categories to find blue ocean opportunities early. Triggers: hot products, hot search,...", "description_zh": "", "downloads": 69, "homepage": "https://clawhub.ai/mguozhen/amazon-hot-products", "iconUrl": null, "installs": 24, "name": "Amazon Hot Products", "ownerName": "mguozhen", "score": 4572.564612326044, "slug": "amazon-hot-products", "source": "clawhub", "stars": 0, "tags": null, "updated_at": 1776757882400, "version": "1.0.0"}, {"category": "", "created_at": 1774947021310, "description": "Optimize Amazon PPC campaigns by identifying and managing negative keywords. Reduce wasted ad spend by eliminating irrelevant search terms while protecting v...", "description_zh": "", "downloads": 69, "homepage": "https://clawhub.ai/nexscope/amazon-negative-keywords", "iconUrl": null, "installs": 22, "name": "Amazon Negative Keywords", "ownerName": "nexscope", "score": 4572.564612326044, "slug": "amazon-negative-keywords", "source": "clawhub", "stars": 0, "tags": null, "updated_at": 1776757882274, "version": "1.0.0"}, {"category": "", "created_at": 1774913979042, "description": "Use this skill when the user wants to create visualizations (charts, dashboards, diagrams, Gantt, PPT), analyze data (Excel/CSV upload, cross-file analysis,...", "description_zh": "", "downloads": 69, "homepage": "https://clawhub.ai/chartgen-ai/chartgen-ai", "iconUrl": null, "installs": 10, "name": "ChartGen AI", "ownerName": "chartgen-ai", "score": 12062.937062937062, "slug": "chartgen-ai", "source": "clawhub", "stars": 0, "tags": null, "updated_at": 1776755288437, "version": "1.0.0"}, {"category": "content-creation", "created_at": 1773950755294, "description": "Agent becomes a master of client acquisition. Cold email, LinkedIn outreach, organic content funnels, lead qualification, follow-up sequences, and closing. U...", "description_zh": "", "downloads": 69, "homepage": "https://clawhub.ai/georges91560/agent-acquisition-master", "iconUrl": null, "installs": 9, "name": "Agent Acquisition Master -- Agent becomes a master of client acquisition.", "ownerName": "georges91560", "score": 71875, "slug": "agent-acquisition-master", "source": "clawhub", "stars": 0, "tags": ["aquisition", "automation", "closer", "e-mail compagn", "grouth hack", "marketing", "retargeting"], "updated_at": 1776744769925, "version": "1.0.0"}, {"category": "productivity", "created_at": 1773960824475, "description": "Extract recipe information from TikTok links, reconstruct a clean recipe, localize it to the user's language when needed, and import it into Mealie. Use when...", "description_zh": "", "downloads": 69, "homepage": "https://clawhub.ai/elyasuuuuu/tiktok-to-mealie", "iconUrl": null, "installs": 22, "name": "Tiktok To Mealie", "ownerName": "elyasuuuuu", "score": 74193.54838709677, "slug": "tiktok-to-mealie", "source": "clawhub", "stars": 0, "tags": null, "updated_at": 1776738284954, "version": "1.2.0"}, {"category": "", "created_at": 1774915867609, "description": "Generates ready-to-film TikTok and Instagram Reels scripts in three proven formats — trending audio hooks, story/narrative, and educational. Includes on-scre...", "description_zh": "", "downloads": 69, "homepage": "https://clawhub.ai/tetsuakira-vk/tiktok-and-reels-script-writer", "iconUrl": null, "installs": 19, "name": "TikTok And Reels Script Writer", "ownerName": "tetsuakira-vk", "score": 71134.02061855671, "slug": "tiktok-and-reels-script-writer", "source": "clawhub", "stars": 0, "tags": null, "updated_at": 1776738284148, "version": "1.0.0"}, {"category": "", "created_at": 1774888211096, "description": "Generate AI images using Nano Banana Pro via Media.io OpenAPI. State-of-the-art image quality with advanced reasoning, multi-image fusion, character consiste...", "description_zh": "", "downloads": 69, "homepage": "https://clawhub.ai/wondershare-boop/mediaio-nano-banana-pro-image-generator", "iconUrl": null, "installs": 16, "name": "Nano Banana Pro Image Generator", "ownerName": "wondershare-boop", "score": 94520.54794520549, "slug": "mediaio-nano-banana-pro-image-generator", "source": "clawhub", "stars": 0, "tags": null, "updated_at": 1776696470375, "version": "1.0.2"}, {"category": "", "created_at": 1774821227637, "description": "Run a world-class security assessment before installing any external package, CLI, npm module, Python library, or third-party integration. Produces a GO/NO-G...", "description_zh": "", "downloads": 69, "homepage": "https://clawhub.ai/mpbshhx/security-review", "iconUrl": null, "installs": 2, "name": "Security Review", "ownerName": "mpbshhx", "score": 83132.53012048193, "slug": "security-review", "source": "clawhub", "stars": 0, "tags": null, "updated_at": 1776696470344, "version": "1.0.0"}, {"category": "productivity", "created_at": 1773948997517, "description": "Create and update TripIt travel plans by sending structured confirmation emails to plans@tripit.com. Supports flights, hotels, activities, car rentals, rail,...", "description_zh": "", "downloads": 69, "homepage": "https://clawhub.ai/adamwestland/tripit", "iconUrl": null, "installs": 8, "name": "TripIt", "ownerName": "adamwestland", "score": 83132.53012048193, "slug": "tripit", "source": "clawhub", "stars": 0, "tags": null, "updated_at": 1776696470322, "version": "1.0.0"}, {"category": "", "created_at": 1774895359564, "description": "Converts any human reminder request into structured JSON reminder data. Trigger this skill whenever the user wants to set, create, schedule, or log a reminde...", "description_zh": "", "downloads": 69, "homepage": "https://clawhub.ai/anhducna/reminder-agent", "iconUrl": null, "installs": 3, "name": "Reminder Agent", "ownerName": "anhducna", "score": 83132.53012048193, "slug": "reminder-agent", "source": "clawhub", "stars": 0, "tags": null, "updated_at": 1776696470305, "version": "1.0.0"}, {"category": "productivity", "created_at": 1773952549255, "description": "Log home maintenance tasks, set reminders, and track repair history with checklists. Use when scheduling repairs, tracking appliance upkeep, inventorying.", "description_zh": "", "downloads": 69, "homepage": "https://clawhub.ai/xueyetianya/maintenance", "iconUrl": null, "installs": 6, "name": "Maintenance", "ownerName": "xueyetianya", "score": 83132.53012048193, "slug": "maintenance", "source": "clawhub", "stars": 0, "tags": null, "updated_at": 1776696470298, "version": "2.0.1"}, {"category": "developer-tools", "created_at": 1773943178375, "description": "Use this skill when the user wants to install, configure, or troubleshoot the Shlink CLI from GitHub and manage short URLs, tags, visits, domains, and health...", "description_zh": "", "downloads": 69, "homepage": "https://clawhub.ai/parinll/shlink-cli", "iconUrl": null, "installs": 7, "name": "Shlink CLI", "ownerName": "parinll", "score": 83132.53012048193, "slug": "shlink-cli", "source": "clawhub", "stars": 0, "tags": ["cli", "shlink", "url-shortener"], "updated_at": 1776696470263, "version": "1.0.0"}, {"category": "data-analysis", "created_at": 1773948693207, "description": "Search and retrieve markdown documents from local knowledge bases using qmd. Supports BM25 keyword search, vector semantic search, and hybrid search with LLM...", "description_zh": "", "downloads": 69, "homepage": "https://clawhub.ai/davidsteelerose/k2ljl-qmd", "iconUrl": null, "installs": 9, "name": "QMD Markdown Search", "ownerName": "davidsteelerose", "score": 93243.24324324324, "slug": "k2ljl-qmd", "source": "clawhub", "stars": 0, "tags": null, "updated_at": 1776696470190, "version": "1.0.0"}, {"category": "developer-tools", "created_at": 1773945924295, "description": "Generate and deliver a Rootly morning incident digest for on-call operations. Use when the user asks for a daily Rootly briefing, incident summary, on-call s...", "description_zh": "", "downloads": 69, "homepage": "https://clawhub.ai/yanibu2777/rootly-morning-brief", "iconUrl": null, "installs": 6, "name": "Rootly Morning Brief", "ownerName": "yanibu2777", "score": 93243.24324324324, "slug": "rootly-morning-brief", "source": "clawhub", "stars": 0, "tags": null, "updated_at": 1776696470154, "version": "1.0.0"}, {"category": "data-analysis", "created_at": 1773949275116, "description": "Calculate ROI for AI-as-a-Service (managed AI agents). Estimates cost savings, efficiency gains, and payback period for deploying AI agents across business o...", "description_zh": "", "downloads": 69, "homepage": "https://clawhub.ai/afrexai-cto/afrexai-aaas-roi-calculator", "iconUrl": null, "installs": 12, "name": "Aaas Roi Calculator", "ownerName": "afrexai-cto", "score": 93243.24324324324, "slug": "afrexai-aaas-roi-calculator", "source": "clawhub", "stars": 0, "tags": null, "updated_at": 1776696470124, "version": "1.0.0"}, {"category": "productivity", "created_at": 1773948705998, "description": "A local missing person assistance tool for organizing cases, managing clues, generating notices, and providing search guidance.", "description_zh": "", "downloads": 69, "homepage": "https://clawhub.ai/harrylabsj/looking-for-someone", "iconUrl": null, "installs": 5, "name": "Looking for Someone", "ownerName": "harrylabsj", "score": 93243.24324324324, "slug": "looking-for-someone", "source": "clawhub", "stars": 0, "tags": null, "updated_at": 1776696470121, "version": "1.0.2"}, {"category": "developer-tools", "created_at": 1773951815873, "description": "Automatically update Clawdbot and all installed skills once daily. Runs via cron, checks for updates, applies them, and messages the user with a summary of w...", "description_zh": "", "downloads": 69, "homepage": "https://clawhub.ai/muguozi1/muguozi1-openclaw-auto-updater", "iconUrl": null, "installs": 7, "name": "Muguozi1 Openclaw Auto Updater", "ownerName": "muguozi1", "score": 85185.18518518518, "slug": "muguozi1-openclaw-auto-updater", "source": "clawhub", "stars": 0, "tags": null, "updated_at": 1776696470088, "version": "1.0.0"}, {"category": "communication-collaboration", "created_at": 1773944341883, "description": "Beamer integration. Manage Organizations, Users, Filters. Use when the user wants to interact with Beamer data.", "description_zh": "", "downloads": 69, "homepage": "https://clawhub.ai/gora050/beamer", "iconUrl": null, "installs": 4, "name": "Beamer", "ownerName": "gora050", "score": 85185.18518518518, "slug": "beamer", "source": "clawhub", "stars": 0, "tags": null, "updated_at": 1776696470046, "version": "1.0.0"}, {"category": "ai-intelligence", "created_at": 1773946703371, "description": "Stop learning prompt engineering. Tell AI what you want in plain language — AI writes the perfect instruction for you in I-Lang. Copy it to any other AI, it...", "description_zh": "", "downloads": 69, "homepage": "https://clawhub.ai/adsorgcn/no-prompt", "iconUrl": null, "installs": 6, "name": "no-prompt", "ownerName": "adsorgcn", "score": 85185.18518518518, "slug": "no-prompt", "source": "clawhub", "stars": 0, "tags": null, "updated_at": 1776696470025, "version": "1.0.0"}, {"category": "developer-tools", "created_at": 1773942201521, "description": "Production-ready Notion API client for SaaS workflows. Create/read/update pages, query data sources, append blocks.", "description_zh": "", "downloads": 69, "homepage": "https://clawhub.ai/tomas-mikula/notion-manager", "iconUrl": null, "installs": 1, "name": "Notion Manager", "ownerName": "tomas-mikula", "score": 85185.18518518518, "slug": "notion-manager", "source": "clawhub", "stars": 0, "tags": null, "updated_at": 1776696469976, "version": "1.0.0"}, {"category": "", "created_at": 1773285440752, "description": "OpenClaw Memory Protocol (OMP) — store and retrieve encrypted files on BSC blockchain with PoW mining rewards. Use when user wants to store files on-chain, r...", "description_zh": "", "downloads": 69, "homepage": "https://clawhub.ai/brettinhere/omp-memory", "iconUrl": null, "installs": 1, "name": "OMP Memory Protocol", "ownerName": "brettinhere", "score": 84146.34146341463, "slug": "omp-memory", "source": "clawhub", "stars": 0, "tags": ["bsc", "storage", "web3"], "updated_at": 1776696469915, "version": "1.0.0"}, {"category": "ai-intelligence", "created_at": 1773953839460, "description": "Master Moon Dev's AI Agents GitHub with 48+ specialized agents, multi-exchange support, LLM abstraction, and autonomous trading capabilities across crypto ma...", "description_zh": "", "downloads": 69, "homepage": "https://clawhub.ai/prblmsolvrx/agentqskills", "iconUrl": null, "installs": 8, "name": "Agent Q Skills", "ownerName": "prblmsolvrx", "score": 84146.34146341463, "slug": "agentqskills", "source": "clawhub", "stars": 0, "tags": null, "updated_at": 1776696469845, "version": "1.0.0"}, {"category": "productivity", "created_at": 1773945169569, "description": "Agiled integration. Manage Organizations, Leads, Pipelines, Users, Goals, Filters. Use when the user wants to interact with Agiled data.", "description_zh": "", "downloads": 69, "homepage": "https://clawhub.ai/membranedev/agiled", "iconUrl": null, "installs": 3, "name": "Agiled", "ownerName": "membranedev", "score": 84146.34146341463, "slug": "agiled", "source": "clawhub", "stars": 0, "tags": null, "updated_at": 1776696469832, "version": "1.0.0"}, {"category": "developer-tools", "created_at": 1773945779686, "description": "Monitor dozens of websites with configurable health checks, auto-restart alerts, and intelligent alert routing. Use when the user needs uptime tracking, perf...", "description_zh": "", "downloads": 69, "homepage": "https://clawhub.ai/ncreighton/multi-site-health-monitor", "iconUrl": null, "installs": 2, "name": "Multi Site Health Monitor", "ownerName": "ncreighton", "score": 84146.34146341463, "slug": "multi-site-health-monitor", "source": "clawhub", "stars": 0, "tags": null, "updated_at": 1776696469825, "version": "1.0.0"}, {"category": "productivity", "created_at": 1773953123654, "description": "Search Z-Library and send EPUBs to Kindle", "description_zh": "", "downloads": 69, "homepage": "https://clawhub.ai/hsin-lan/book2kindle", "iconUrl": null, "installs": 6, "name": "Book2kindle", "ownerName": "hsin-lan", "score": 84146.34146341463, "slug": "book2kindle", "source": "clawhub", "stars": 0, "tags": null, "updated_at": 1776696469821, "version": "0.1.0"}, {"category": "developer-tools", "created_at": 1773953692736, "description": "Explain, implement, or debug TqSdk Python workflows for wait_update or is_changing update loops, market data retrieval, historical download, account type sel...", "description_zh": "", "downloads": 69, "homepage": "https://clawhub.ai/shinny-xuyida/tqsdk-skill", "iconUrl": null, "installs": 3, "name": "tqsdk", "ownerName": "shinny-xuyida", "score": 94520.54794520549, "slug": "tqsdk-skill", "source": "clawhub", "stars": 0, "tags": null, "updated_at": 1776696469690, "version": "1.0.0"}, {"category": "productivity", "created_at": 1773946629762, "description": "Query and manage Linear issues, projects, and team workflows.", "description_zh": "", "downloads": 69, "homepage": "https://clawhub.ai/terryren2024/linear-1-0-0", "iconUrl": null, "installs": 5, "name": "Linear 1.0.0", "ownerName": "terryren2024", "score": 94520.54794520549, "slug": "linear-1-0-0", "source": "clawhub", "stars": 0, "tags": null, "updated_at": 1776696469680, "version": "1.0.0"}, {"category": "", "created_at": 1774894318385, "description": "Generate vertical short videos of painting / retouching creative process (WeryAI): layered progression from sketch to finish—illustration coloring, posters,...", "description_zh": "", "downloads": 69, "homepage": "https://clawhub.ai/zoucdr/art-process-video", "iconUrl": null, "installs": 18, "name": "Art Process Video", "ownerName": "zoucdr", "score": 84146.34146341463, "slug": "art-process-video", "source": "clawhub", "stars": 0, "tags": null, "updated_at": 1776696469628, "version": "0.1.2"}, {"category": "developer-tools", "created_at": 1773946347946, "description": "Generate and play bingo cards with number calling and verification. Use when running bingo games.", "description_zh": "", "downloads": 69, "homepage": "https://clawhub.ai/xueyetianya/bingo", "iconUrl": null, "installs": 6, "name": "Bingo", "ownerName": "xueyetianya", "score": 84146.34146341463, "slug": "bingo", "source": "clawhub", "stars": 0, "tags": null, "updated_at": 1776696469623, "version": "3.0.0"}, {"category": "productivity", "created_at": 1773946398971, "description": "Comprehensive tools industry sourcing guide for international buyers – provides detailed information about China's hand tools, power tools, garden tools, mea...", "description_zh": "", "downloads": 69, "homepage": "https://clawhub.ai/1970168137/china-tools-sourcing", "iconUrl": null, "installs": 5, "name": "China Tools Sourcing", "ownerName": "1970168137", "score": 84146.34146341463, "slug": "china-tools-sourcing", "source": "clawhub", "stars": 0, "tags": null, "updated_at": 1776696469585, "version": "1.0.0"}, {"category": "productivity", "created_at": 1773954043622, "description": "Reference tool for devtools — covers intro, quickstart, patterns and more. Quick lookup for Manager concepts, best practices, and implementation patterns.", "description_zh": "", "downloads": 69, "homepage": "https://clawhub.ai/xueyetianya/manager", "iconUrl": null, "installs": 3, "name": "Manager", "ownerName": "xueyetianya", "score": 84146.34146341463, "slug": "manager", "source": "clawhub", "stars": 0, "tags": null, "updated_at": 1776696469568, "version": "2.0.4"}, {"category": "data-analysis", "created_at": 1773949711488, "description": "Interact with the user's Ledgi personal finance data. Use when the user asks about their accounts, balances, net worth, holdings, investments, ISA allowances...", "description_zh": "", "downloads": 69, "homepage": "https://clawhub.ai/nelsongallardo/ledgi", "iconUrl": null, "installs": 7, "name": "Ledgi", "ownerName": "nelsongallardo", "score": 84146.34146341463, "slug": "ledgi", "source": "clawhub", "stars": 0, "tags": null, "updated_at": 1776696469547, "version": "1.0.0"}, {"category": "", "created_at": 1774853212361, "description": "Transform lengthy academic papers into concise, structured 250-word abstracts capturing background, methods, results, and conclusions. Optimized for research...", "description_zh": "", "downloads": 68, "homepage": "https://clawhub.ai/aipoch-ai/abstract-summarizer", "iconUrl": null, "installs": 18, "name": "Abstract Summarizer", "ownerName": "aipoch-ai", "score": 1485.0404018344616, "slug": "abstract-summarizer", "source": "clawhub", "stars": 0, "tags": null, "updated_at": 1776769190433, "version": "0.1.0"}, {"category": "", "created_at": 1774907995361, "description": "Create new skills, modify and improve existing skills, and measure skill performance. Use when users want to create a skill from scratch, edit, or optimize a...", "description_zh": "", "downloads": 68, "homepage": "https://clawhub.ai/wm-zqbx/skill-creator-ming", "iconUrl": null, "installs": 25, "name": "Skill Creator (Ming)", "ownerName": "wm-zqbx", "score": 1643.7031665458062, "slug": "skill-creator-ming", "source": "clawhub", "stars": 0, "tags": null, "updated_at": 1776764350336, "version": "1.0.0"}, {"category": "", "created_at": 1774864115425, "description": "Use when parsing PDFs for RAG pipelines, extracting structured data from PDFs, or converting PDFs to Markdown/JSON with bounding boxes for AI processing", "description_zh": "", "downloads": 68, "homepage": "https://clawhub.ai/emptyguo/opendataloader-pdf", "iconUrl": null, "installs": 14, "name": "opendataloader-pdf", "ownerName": "emptyguo", "score": 1151.5664690939882, "slug": "opendataloader-pdf", "source": "clawhub", "stars": 0, "tags": null, "updated_at": 1776763150720, "version": "1.0.0"}, {"category": "", "created_at": 1774826242567, "description": "Analyze Hong Kong listed stocks and produce prediction-ready theses from price action, fundamentals, technicals, southbound flows, AH premium, liquidity, and...", "description_zh": "", "downloads": 68, "homepage": "https://clawhub.ai/chinasong/hk-stock-predictor", "iconUrl": null, "installs": 6, "name": "Hk Stock Predictor", "ownerName": "chinasong", "score": 1763.0282603059375, "slug": "hk-stock-predictor", "source": "clawhub", "stars": 0, "tags": null, "updated_at": 1776762850433, "version": "1.0.0"}, {"category": "", "created_at": 1774955300820, "description": "Installs, launches, and uninstalls Linux desktop apps by resolving the safest supported source first, then running a local helper CLI. Use when the user asks...", "description_zh": "", "downloads": 68, "homepage": "https://clawhub.ai/baladoodle/linux-installer", "iconUrl": null, "installs": 8, "name": "Linux installer", "ownerName": "baladoodle", "score": 2603.3690658499236, "slug": "linux-installer", "source": "clawhub", "stars": 0, "tags": null, "updated_at": 1776762290036, "version": "1.0.0"}, {"category": "", "created_at": 1774943908515, "description": "Use Baidu AI Search Engine (BDSE) for web search. This version does not require Python installation", "description_zh": "", "downloads": 68, "homepage": "https://clawhub.ai/zfeng1982/baidu-search-cli", "iconUrl": null, "installs": 2, "name": "baidu-search-CLI", "ownerName": "zfeng1982", "score": 31924.882629107982, "slug": "baidu-search-cli", "source": "clawhub", "stars": 0, "tags": null, "updated_at": 1776759983196, "version": "1.0.5"}, {"category": "", "created_at": 1772797820991, "description": "Journal entry management with draft-submit-cancel lifecycle for ERPClaw ERP", "description_zh": "", "downloads": 68, "homepage": "https://clawhub.ai/skipzhang/erpclaw-journals", "iconUrl": null, "installs": 4, "name": "ERPClaw-Journals", "ownerName": "skipzhang", "score": 5379.746835443038, "slug": "erpclaw-journals", "source": "clawhub", "stars": 0, "tags": null, "updated_at": 1776759982754, "version": "1.0.0"}, {"category": "", "created_at": 1774870431912, "description": "Guides through idea validation frameworks and discovery interviews. Use when someone wants help validating a startup idea, testing demand, or doing customer...", "description_zh": "", "downloads": 68, "homepage": "https://clawhub.ai/c0ldsmi1e/startup-idea-validation", "iconUrl": null, "installs": 2, "name": "Idea Validation", "ownerName": "c0ldsmi1e", "score": 5337.519623233909, "slug": "startup-idea-validation", "source": "clawhub", "stars": 0, "tags": null, "updated_at": 1776759982543, "version": "1.0.0"}, {"category": "", "created_at": 1774944997122, "description": "Summarizes publicly available videos and short drama pages from Xigua Video with metadata like titles, authors, engagement stats, and update status.", "description_zh": "", "downloads": 68, "homepage": "https://clawhub.ai/codekungfu/xigua", "iconUrl": null, "installs": 10, "name": "Xigua Video", "ownerName": "codekungfu", "score": 5379.746835443038, "slug": "xigua", "source": "clawhub", "stars": 0, "tags": null, "updated_at": 1776759982482, "version": "0.1.1"}, {"category": "", "created_at": 1774906145467, "description": "Upload and send files to DingTalk users. Auto-detects account from current session. Use when: user asks to send/forward a file/document/PDF/image via DingTalk.", "description_zh": "", "downloads": 68, "homepage": "https://clawhub.ai/kenriou/dingtalk-file-send", "iconUrl": null, "installs": 13, "name": "Dingtalk File Send", "ownerName": "kenriou", "score": 5333.333333333334, "slug": "dingtalk-file-send", "source": "clawhub", "stars": 0, "tags": null, "updated_at": 1776759982418, "version": "1.2.2"}, {"category": "", "created_at": 1774853049258, "description": "Use this skill when the user wants a long-form book summarized in the user's preferred language at an explicitly verified 20 percent compression ratio, with...", "description_zh": "", "downloads": 68, "homepage": "https://clawhub.ai/dannyxyz22/book-summarizer", "iconUrl": null, "installs": 7, "name": "Book summarizer", "ownerName": "dannyxyz22", "score": 4660.726525017135, "slug": "book-summarizer", "source": "clawhub", "stars": 0, "tags": null, "updated_at": 1776759982317, "version": "1.0.1"}, {"category": "", "created_at": 1774905526971, "description": "Fetch raw HTTP response bodies from one or more URLs with optional custom headers and timeout, supporting JSON, XML, RSS, CSV, plain text, and files.", "description_zh": "", "downloads": 68, "homepage": "https://clawhub.ai/roaycl/fetch-url", "iconUrl": null, "installs": 1, "name": "Fetch Url", "ownerName": "roaycl", "score": 5167.173252279636, "slug": "fetch-url", "source": "clawhub", "stars": 0, "tags": null, "updated_at": 1776759982219, "version": "1.0.0"}, {"category": "", "created_at": 1774926501375, "description": "Use Chanjing video synthesis APIs to create digital human videos from text or audio, with optional background upload, task polling, and explicit download whe...", "description_zh": "", "downloads": 68, "homepage": "https://clawhub.ai/zuoyuting214/zyt-video-compose", "iconUrl": null, "installs": 6, "name": "Zyt video compose", "ownerName": "zuoyuting214", "score": 5167.173252279636, "slug": "zyt-video-compose", "source": "clawhub", "stars": 0, "tags": null, "updated_at": 1776759982211, "version": "0.4.0"}, {"category": "", "created_at": 1774908891625, "description": "Manage your Ollama Herd device fleet — check node status, view queue depths, list available models, inspect request traces, monitor fleet health, manage sett...", "description_zh": "", "downloads": 68, "homepage": "https://clawhub.ai/twinsgeeks/ollama-herd", "iconUrl": null, "installs": 6, "name": "Ollama Herd", "ownerName": "twinsgeeks", "score": 5358.550039401103, "slug": "ollama-herd", "source": "clawhub", "stars": 0, "tags": ["dashboard", "fleet-management", "inference-routing", "local-llm", "model-management", "monitoring", "ollama", "self-hosted"], "updated_at": 1776759982186, "version": "1.1.1"}, {"category": "", "created_at": 1774825227835, "description": "Amazon inventory forecasting agent. Calculates optimal reorder points and quantities from sales velocity, lead time, and storage costs — tells sellers exactl...", "description_zh": "", "downloads": 68, "homepage": "https://clawhub.ai/mguozhen/amazon-inventory-forecast", "iconUrl": null, "installs": 24, "name": "Amazon Inventory Forecast", "ownerName": "mguozhen", "score": 4156.479217603912, "slug": "amazon-inventory-forecast", "source": "clawhub", "stars": 0, "tags": null, "updated_at": 1776757882574, "version": "1.0.0"}, {"category": "", "created_at": 1774919425685, "description": "Optimize product visibility in Amazon search results. Analyze current search ranking factors, identify optimization gaps, and provide actionable improvements...", "description_zh": "", "downloads": 68, "homepage": "https://clawhub.ai/nexscope/amazon-search-optimization", "iconUrl": null, "installs": 21, "name": "Amazon Search Optimization", "ownerName": "nexscope", "score": 4506.295559973492, "slug": "amazon-search-optimization", "source": "clawhub", "stars": 0, "tags": null, "updated_at": 1776757882454, "version": "1.0.0"}, {"category": "", "created_at": 1774917641572, "description": "Track and analyze Amazon keyword rankings. Set up rank monitoring workflows, interpret ranking changes, and develop strategies to improve organic search posi...", "description_zh": "", "downloads": 68, "homepage": "https://clawhub.ai/nexscope/amazon-rank-tracker", "iconUrl": null, "installs": 19, "name": "Amazon Rank Tracker", "ownerName": "nexscope", "score": 4257.983719474014, "slug": "amazon-rank-tracker", "source": "clawhub", "stars": 0, "tags": null, "updated_at": 1776757882142, "version": "1.0.0"}]}