{"page": 420, "total_pages": 522, "total": 26073, "skills": [{"category": "", "created_at": 1774921853939, "description": "Protein-Ligand In Silico Docking Workflow. A complete pipeline from sequence retrieval and structure modeling to molecular docking and quantitative analysis....", "description_zh": "", "downloads": 68, "homepage": "https://clawhub.ai/zackz2025/protein-ligand-docking", "iconUrl": null, "installs": 14, "name": "Protein-Ligand Docking Workflow", "ownerName": "zackz2025", "score": 4271.356783919598, "slug": "protein-ligand-docking", "source": "clawhub", "stars": 0, "tags": null, "updated_at": 1776757282506, "version": "1.0.0"}, {"category": "", "created_at": 1774863286601, "description": "This skill helps users automatically extract structured article details and full content from Zhihu via the BrowserAct API. Agent should proactively apply th...", "description_zh": "", "downloads": 68, "homepage": "https://clawhub.ai/browseract-ai/zhihu-search-api-skill", "iconUrl": null, "installs": 9, "name": "zhihu-search-api-skill", "ownerName": "browseract-ai", "score": 15144.76614699332, "slug": "zhihu-search-api-skill", "source": "clawhub", "stars": 0, "tags": null, "updated_at": 1776751969979, "version": "1.0.0"}, {"category": "data-analysis", "created_at": 1773950873636, "description": "Kybera wallet control and token research assistant", "description_zh": "", "downloads": 68, "homepage": "https://clawhub.ai/xipzer/base-osint", "iconUrl": null, "installs": 7, "name": "Base Network OSINT", "ownerName": "xipzer", "score": 64761.90476190476, "slug": "base-osint", "source": "clawhub", "stars": 0, "tags": null, "updated_at": 1776745204794, "version": "1.0.0"}, {"category": "", "created_at": 1774832559692, "description": "Use this skill for multi-step project work that requires structured intake, context discovery, scope control, environment awareness, evidence-driven debuggin...", "description_zh": "", "downloads": 68, "homepage": "https://clawhub.ai/fingolfin2/project-management-governance", "iconUrl": null, "installs": 12, "name": "成功的项目管理", "ownerName": "fingolfin2", "score": 68686.86868686868, "slug": "project-management-governance", "source": "clawhub", "stars": 0, "tags": null, "updated_at": 1776741769651, "version": "1.0.0"}, {"category": "", "created_at": 1774953609996, "description": "Search the web using Baidu AI Search Engine (BDSE). Use for live information, documentation, or research topics.", "description_zh": "", "downloads": 68, "homepage": "https://clawhub.ai/jeayoo/baidu-search-1-1-2", "iconUrl": null, "installs": 9, "name": "百度搜索", "ownerName": "jeayoo", "score": 69387.75510204081, "slug": "baidu-search-1-1-2", "source": "clawhub", "stars": 0, "tags": null, "updated_at": 1776731383856, "version": "1.1.2"}, {"category": "", "created_at": 1774908855668, "description": "Music Video Editor â Edit and Produce Music Videos with AI Beat Sync and Effects. The track is mastered. The label wants visuals yesterday. Your phone hold...", "description_zh": "", "downloads": 68, "homepage": "https://clawhub.ai/imo14reifey/music-video-editor", "iconUrl": null, "installs": 3, "name": "Music Video Editor", "ownerName": "imo14reifey", "score": 72340.4255319149, "slug": "music-video-editor", "source": "clawhub", "stars": 0, "tags": null, "updated_at": 1776722683757, "version": "1.0.1"}, {"category": "", "created_at": 1774876279838, "description": "Shopify SEO audit agent. Audits store pages for missing meta titles and descriptions, duplicate content, thin product pages, broken internal links, image alt...", "description_zh": "", "downloads": 68, "homepage": "https://clawhub.ai/mguozhen/shopify-seo-audit", "iconUrl": null, "installs": 9, "name": "Shopify Seo Audit", "ownerName": "mguozhen", "score": 68686.86868686868, "slug": "shopify-seo-audit", "source": "clawhub", "stars": 0, "tags": null, "updated_at": 1776709183761, "version": "1.0.0"}, {"category": "developer-tools", "created_at": 1773958841743, "description": "Launch and manage anti-detect browsers with unique real-device fingerprints for multi-account operations, web scraping, ad verification, and AI agent automat...", "description_zh": "", "downloads": 68, "homepage": "https://clawhub.ai/dowands/anti-detect-browser", "iconUrl": null, "installs": 12, "name": "Anti-Detect Browser", "ownerName": "dowands", "score": 72340.4255319149, "slug": "anti-detect-browser", "source": "clawhub", "stars": 0, "tags": null, "updated_at": 1776700669684, "version": "1.0.0"}, {"category": "productivity", "created_at": 1773946585104, "description": "Verify and compare flight prices across multiple booking sites using Navifare. Trigger when users share flight prices from any booking site (Skyscanner, Kaya...", "description_zh": "", "downloads": 68, "homepage": "https://clawhub.ai/gonzachee/gonza-navifare-deals", "iconUrl": null, "installs": 4, "name": "Gonza Navifare Deals", "ownerName": "gonzachee", "score": 100000, "slug": "gonza-navifare-deals", "source": "clawhub", "stars": 0, "tags": ["flights", "travel"], "updated_at": 1776696584532, "version": "1.2.2"}, {"category": "content-creation", "created_at": 1773947870242, "description": "Hyperise integration. Manage Organizations, Leads, Projects, Users, Goals, Filters. Use when the user wants to interact with Hyperise data.", "description_zh": "", "downloads": 68, "homepage": "https://clawhub.ai/membranedev/hyperise", "iconUrl": null, "installs": 6, "name": "Hyperise", "ownerName": "membranedev", "score": 100000, "slug": "hyperise", "source": "clawhub", "stars": 0, "tags": null, "updated_at": 1776696584501, "version": "1.0.0"}, {"category": "data-analysis", "created_at": 1773958553512, "description": "Compare ecommerce LTV and CAC using realistic order, margin, and retention assumptions. Use when teams need to know whether acquisition is compounding value...", "description_zh": "", "downloads": 68, "homepage": "https://clawhub.ai/leooooooow/ltv-cac-calculator", "iconUrl": null, "installs": 13, "name": "Ltv Cac Calculator", "ownerName": "leooooooow", "score": 82926.82926829268, "slug": "ltv-cac-calculator", "source": "clawhub", "stars": 0, "tags": null, "updated_at": 1776696584445, "version": "1.0.1"}, {"category": "data-analysis", "created_at": 1773959402224, "description": "Calculate allowable and break-even CPA for ecommerce offers using margin, refunds, and conversion assumptions. Use when teams need acquisition guardrails bef...", "description_zh": "", "downloads": 68, "homepage": "https://clawhub.ai/leooooooow/cpa-calculator-ecommerce", "iconUrl": null, "installs": 13, "name": "CPA Calculator Ecommerce", "ownerName": "leooooooow", "score": 100000, "slug": "cpa-calculator-ecommerce", "source": "clawhub", "stars": 0, "tags": null, "updated_at": 1776696584273, "version": "1.0.0"}, {"category": "developer-tools", "created_at": 1773946536924, "description": "Cross-chain swap routing via THORChain. Get quotes and build swap transactions across 44+ assets (BTC, ETH, RUNE, AVAX, USDC and more). Non-custodial — retur...", "description_zh": "", "downloads": 68, "homepage": "https://clawhub.ai/morebetterclaw/forge-swap", "iconUrl": null, "installs": 7, "name": "FORGE — Cross-Chain Swap Agent", "ownerName": "morebetterclaw", "score": 85000, "slug": "forge-swap", "source": "clawhub", "stars": 0, "tags": null, "updated_at": 1776696584087, "version": "0.1.0"}, {"category": "ai-intelligence", "created_at": 1773945666167, "description": "Intellexer API integration. Manage data, records, and automate workflows. Use when the user wants to interact with Intellexer API data.", "description_zh": "", "downloads": 68, "homepage": "https://clawhub.ai/membranedev/intellexer-api", "iconUrl": null, "installs": 6, "name": "Intellexer Api", "ownerName": "membranedev", "score": 87179.48717948719, "slug": "intellexer-api", "source": "clawhub", "stars": 0, "tags": null, "updated_at": 1776696583980, "version": "1.0.0"}, {"category": "productivity", "created_at": 1773947232638, "description": "Terminal-first Fuel manager. Keep your home management data organized with simple commands.", "description_zh": "", "downloads": 68, "homepage": "https://clawhub.ai/bytesagain/fuel", "iconUrl": null, "installs": 6, "name": "Fuel", "ownerName": "bytesagain", "score": 87179.48717948719, "slug": "fuel", "source": "clawhub", "stars": 0, "tags": null, "updated_at": 1776696583947, "version": "1.0.2"}, {"category": "data-analysis", "created_at": 1773952337537, "description": "DataScope integration. Manage Organizations. Use when the user wants to interact with DataScope data.", "description_zh": "", "downloads": 68, "homepage": "https://clawhub.ai/gora050/datascope", "iconUrl": null, "installs": 8, "name": "Datascope", "ownerName": "gora050", "score": 87179.48717948719, "slug": "datascope", "source": "clawhub", "stars": 0, "tags": null, "updated_at": 1776696583926, "version": "1.0.0"}, {"category": "ai-intelligence", "created_at": 1773959228066, "description": "Install and configure the OpenClaw Vertex AI Memory Bank plugin for persistent, cross-agent memory. Use when the user wants long-term memory, cross-session r...", "description_zh": "", "downloads": 68, "homepage": "https://clawhub.ai/shubhamsaboo/vertexai-memory-bank", "iconUrl": null, "installs": 11, "name": "Google Vertex AI Memory Bank", "ownerName": "shubhamsaboo", "score": 87179.48717948719, "slug": "vertexai-memory-bank", "source": "clawhub", "stars": 0, "tags": null, "updated_at": 1776696583870, "version": "1.0.0"}, {"category": "productivity", "created_at": 1773944372321, "description": "Blood — a fast health & wellness tool. Log anything, find it later, export when needed.", "description_zh": "", "downloads": 68, "homepage": "https://clawhub.ai/bytesagain/blood", "iconUrl": null, "installs": 4, "name": "Blood", "ownerName": "bytesagain", "score": 100000, "slug": "blood", "source": "clawhub", "stars": 0, "tags": null, "updated_at": 1776696583833, "version": "1.0.2"}, {"category": "", "created_at": 1774847760115, "description": "When the user wants to apply psychological principles, mental models, or behavioral science to marketing. Also use when the user mentions 'psychology,' 'ment...", "description_zh": "", "downloads": 68, "homepage": "https://clawhub.ai/mariokarras/abm-marketing-psychology", "iconUrl": null, "installs": 12, "name": "Marketing Psychology", "ownerName": "mariokarras", "score": 100000, "slug": "abm-marketing-psychology", "source": "clawhub", "stars": 0, "tags": null, "updated_at": 1776696583792, "version": "1.0.0"}, {"category": "", "created_at": 1773222931765, "description": "Installs, starts, and routes agent traffic through the standalone `modeio-middleware` product repo. Use this thin skill wrapper to connect Codex, OpenCode, O...", "description_zh": "", "downloads": 68, "homepage": "https://clawhub.ai/egbertjing/modeio-middleware", "iconUrl": null, "installs": 3, "name": "Modeio Middleware", "ownerName": "egbertjing", "score": 100000, "slug": "modeio-middleware", "source": "clawhub", "stars": 0, "tags": null, "updated_at": 1776696583782, "version": "0.1.0"}, {"category": "ai-intelligence", "created_at": 1773946112153, "description": "Wit.ai integration. Manage data, records, and automate workflows. Use when the user wants to interact with Wit.ai data.", "description_zh": "", "downloads": 68, "homepage": "https://clawhub.ai/membranedev/witai", "iconUrl": null, "installs": 4, "name": "Witai", "ownerName": "membranedev", "score": 100000, "slug": "witai", "source": "clawhub", "stars": 0, "tags": null, "updated_at": 1776696583750, "version": "1.0.0"}, {"category": "ai-intelligence", "created_at": 1773951502245, "description": "Verify whether named OpenClaw agents actually received formal task assignments and replied with execution status, using transcript-backed audit checks. Use w...", "description_zh": "", "downloads": 68, "homepage": "https://clawhub.ai/lujohn74/agent-task-status", "iconUrl": null, "installs": 7, "name": "Agent Task Status", "ownerName": "lujohn74", "score": 93150.68493150684, "slug": "agent-task-status", "source": "clawhub", "stars": 0, "tags": null, "updated_at": 1776696583706, "version": "1.1.0"}, {"category": "productivity", "created_at": 1773945412131, "description": "AI-assisted daily diary system. Automatically review the day's conversations, extract key events, decisions, and insights, then generate a structured diary d...", "description_zh": "", "downloads": 68, "homepage": "https://clawhub.ai/luyu925065781/daily-diary", "iconUrl": null, "installs": 3, "name": "Daily Diary", "ownerName": "luyu925065781", "score": 93150.68493150684, "slug": "daily-diary", "source": "clawhub", "stars": 0, "tags": null, "updated_at": 1776696470531, "version": "1.0.1"}, {"category": "productivity", "created_at": 1773944773351, "description": "Trade memecoins across 8 chains and earn USDC — $69 bounty per graduation trigger, 0.5% creator fee forever, 50% Uniswap V3 LP fees after graduation. First 1...", "description_zh": "", "downloads": 68, "homepage": "https://clawhub.ai/0xzcov/omnifun", "iconUrl": null, "installs": 3, "name": "omnifun", "ownerName": "0xzcov", "score": 93150.68493150684, "slug": "omnifun", "source": "clawhub", "stars": 0, "tags": null, "updated_at": 1776696470530, "version": "1.2.1"}, {"category": "security-compliance", "created_at": 1773950970917, "description": "Get your AI agent certified by CrewHaus — verifiable credentials proving technical competence. Handles the full certification lifecycle: wallet setup, regist...", "description_zh": "", "downloads": 68, "homepage": "https://clawhub.ai/crewhaus/crewhaus-certify", "iconUrl": null, "installs": 6, "name": "Crewhaus Certify", "ownerName": "crewhaus", "score": 93150.68493150684, "slug": "crewhaus-certify", "source": "clawhub", "stars": 0, "tags": null, "updated_at": 1776696470528, "version": "0.2.1"}, {"category": "", "created_at": 1774848493290, "description": "Daily Chinese news brief from top global sources (Reuters, Bloomberg, TechCrunch, FT, BBC). Pick up to 3 categories, run setup.py once, get structured briefs...", "description_zh": "", "downloads": 68, "homepage": "https://clawhub.ai/tkk0124/news-brief", "iconUrl": null, "installs": 11, "name": "News Brief", "ownerName": "tkk0124", "score": 93150.68493150684, "slug": "news-brief", "source": "clawhub", "stars": 0, "tags": null, "updated_at": 1776696470444, "version": "1.0.3"}, {"category": "", "created_at": 1774891183369, "description": "Download large files from HTTP/HTTPS URLs with resume support, progress monitoring, and timeout handling", "description_zh": "", "downloads": 68, "homepage": "https://clawhub.ai/moony320/download-file", "iconUrl": null, "installs": 3, "name": "Download File", "ownerName": "moony320", "score": 93150.68493150684, "slug": "download-file", "source": "clawhub", "stars": 0, "tags": null, "updated_at": 1776696470390, "version": "1.0.1"}, {"category": "data-analysis", "created_at": 1773951393752, "description": "Query TeslaMate vehicle data via Grafana API. Use when user wants Tesla vehicle status, battery info, drives, charges, or statistics. Requires Grafana runnin...", "description_zh": "", "downloads": 68, "homepage": "https://clawhub.ai/zengfei88/teslamateskills", "iconUrl": null, "installs": 8, "name": "Teslamate Grafana", "ownerName": "zengfei88", "score": 83950.61728395062, "slug": "teslamateskills", "source": "clawhub", "stars": 0, "tags": null, "updated_at": 1776696470098, "version": "0.1.0"}, {"category": "", "created_at": 1774952856444, "description": "Build or revise architecture diagrams directly in excalidraw.com from natural-language requirements. Use when the user asks to draw, update, clean up, or res...", "description_zh": "", "downloads": 68, "homepage": "https://clawhub.ai/energypantry/excalidraw-architect", "iconUrl": null, "installs": 19, "name": "Excalidraw Architect", "ownerName": "energypantry", "score": 82926.82926829268, "slug": "excalidraw-architect", "source": "clawhub", "stars": 0, "tags": null, "updated_at": 1776696469799, "version": "1.0.0"}, {"category": "content-creation", "created_at": 1773960429227, "description": "AI image and video generation CLI. Generate images, videos, and movie posters using 50+ models including Flux, Kling, Veo, Wan, and more. Text-to-image, text...", "description_zh": "", "downloads": 67, "homepage": "https://clawhub.ai/romainsimon/melies", "iconUrl": null, "installs": 19, "name": "Melies", "ownerName": "romainsimon", "score": 92553.19148936169, "slug": "melies", "source": "clawhub", "stars": 1, "tags": null, "updated_at": 1776740570425, "version": "1.1.1"}, {"category": "content-creation", "created_at": 1773947583172, "description": "Generate images via VVMAI's OpenAI-compatible Images API. Supports nano-banana and gpt-image model series. Default model is nano-banana-pro. Images are NOT s...", "description_zh": "", "downloads": 67, "homepage": "https://clawhub.ai/leevigoo/vvmai-image-gen", "iconUrl": null, "installs": 6, "name": "VVMAI Image Generator", "ownerName": "leevigoo", "score": 89690.72164948453, "slug": "vvmai-image-gen", "source": "clawhub", "stars": 1, "tags": ["ai-art", "image-generation", "media", "openai-compatible", "text-to-image", "vvmai"], "updated_at": 1776696044751, "version": "1.0.0"}, {"category": "", "created_at": 1774923203870, "description": "Create new skills, modify and improve existing skills, and measure skill performance. Use when users want to create a skill from scratch, edit, or optimize a...", "description_zh": "", "downloads": 67, "homepage": "https://clawhub.ai/yang1002378395-cmyk/skill-creator-cn", "iconUrl": null, "installs": 4, "name": "Skill Creator", "ownerName": "yang1002378395-cmyk", "score": 1619.5310611554266, "slug": "skill-creator-cn", "source": "clawhub", "stars": 0, "tags": ["agent", "chinese", "tool"], "updated_at": 1776764350315, "version": "1.0.0"}, {"category": "", "created_at": 1774887873907, "description": "Reviews Dockerfiles and docker-compose files for security, size, build, and best practice issues, providing a detailed severity-rated report with fixes.", "description_zh": "", "downloads": 67, "homepage": "https://clawhub.ai/lnguyen1996/container-reviewer", "iconUrl": null, "installs": 2, "name": "Dockerfile & Container Reviewer", "ownerName": "lnguyen1996", "score": 356.819513234276, "slug": "container-reviewer", "source": "clawhub", "stars": 0, "tags": null, "updated_at": 1776762345514, "version": "1.0.0"}, {"category": "productivity", "created_at": 1773960025228, "description": "Create beginner-friendly workout plans, calorie and macro estimates, meal structures, food plans, and fitness-oriented recipe suggestions. Use when a user as...", "description_zh": "", "downloads": 67, "homepage": "https://clawhub.ai/elyasuuuuu/training-and-nutrition-coach", "iconUrl": null, "installs": 11, "name": "Training And Nutrition Coach", "ownerName": "elyasuuuuu", "score": 1992.2688076122508, "slug": "training-and-nutrition-coach", "source": "clawhub", "stars": 0, "tags": null, "updated_at": 1776761240057, "version": "1.0.0"}, {"category": "", "created_at": 1774949236037, "description": "Integrates Confucianism, Daoism, Mohism, Legalism, and Buddhism for daily self-cultivation, decision-making, and mindset adjustment guidance.", "description_zh": "", "downloads": 67, "homepage": "https://clawhub.ai/wenqin1688/chinese-wisdom", "iconUrl": null, "installs": 0, "name": "Chinese Wisdom", "ownerName": "wenqin1688", "score": 95714.28571428572, "slug": "chinese-wisdom", "source": "clawhub", "stars": 0, "tags": null, "updated_at": 1776759982960, "version": "1.0.0"}, {"category": "", "created_at": 1774917553126, "description": "Advise event planners on pricing, vendor management, logistics, budgeting, timelines, staffing, legal, and scaling from solo to agency operations.", "description_zh": "", "downloads": 67, "homepage": "https://clawhub.ai/afrexai-cto/afrexai-event-planning", "iconUrl": null, "installs": 6, "name": "Event Planning Business Operations", "ownerName": "afrexai-cto", "score": 4820.143884892086, "slug": "afrexai-event-planning", "source": "clawhub", "stars": 0, "tags": ["business operations", "corporate events", "event planning", "vendor management", "wedding planner"], "updated_at": 1776759982878, "version": "1.0.0"}, {"category": "", "created_at": 1774926258701, "description": "Unlock dramatically better AI responses by automatically diagnosing and elevating prompt quality. Use this skill when the user wants more accurate, actionabl...", "description_zh": "", "downloads": 67, "homepage": "https://clawhub.ai/evafan7/self-improving-question-system-for-better-results", "iconUrl": null, "installs": 10, "name": "self-improving-question-system-for-better-results", "ownerName": "evafan7", "score": 4820.143884892086, "slug": "self-improving-question-system-for-better-results", "source": "clawhub", "stars": 0, "tags": null, "updated_at": 1776759982860, "version": "1.0.0"}, {"category": "", "created_at": 1774875144982, "description": "Opens URLs in multiple browsers (Chrome, Firefox, Edge, Safari) across platforms, supporting default, specific browsers, incognito, new windows, and headless...", "description_zh": "", "downloads": 67, "homepage": "https://clawhub.ai/panchenbo/browser-opener-skill", "iconUrl": null, "installs": 8, "name": "Browser Opener Skill", "ownerName": "panchenbo", "score": 4221.8021424070575, "slug": "browser-opener-skill", "source": "clawhub", "stars": 0, "tags": null, "updated_at": 1776759982827, "version": "1.0.0"}, {"category": "", "created_at": 1774880580766, "description": "Generates personalized network engineering career roadmaps by assessing experience, skills, and goals to guide skill development and certification planning.", "description_zh": "", "downloads": 67, "homepage": "https://clawhub.ai/krishnakumarmahadevan-cmd/network-engineer", "iconUrl": null, "installs": 2, "name": "Network Engineer", "ownerName": "krishnakumarmahadevan-cmd", "score": 5263.157894736842, "slug": "network-engineer", "source": "clawhub", "stars": 0, "tags": null, "updated_at": 1776759982666, "version": "1.0.0"}, {"category": "", "created_at": 1774834406986, "description": "Generates long-form, SEO-optimized articles with structured headings and keyword-rich content for improved search engine ranking and readability.", "description_zh": "", "downloads": 67, "homepage": "https://clawhub.ai/nguyet601/seo-article-agent", "iconUrl": null, "installs": 9, "name": "Seo Article Agent", "ownerName": "nguyet601", "score": 4698.457223001403, "slug": "seo-article-agent", "source": "clawhub", "stars": 0, "tags": null, "updated_at": 1776759982636, "version": "1.0.0"}, {"category": "", "created_at": 1774879113520, "description": "Manages sensitive data access by marking resources with privacy levels and enforcing share, export, and usage restrictions based on a centralized registry.", "description_zh": "", "downloads": 67, "homepage": "https://clawhub.ai/xiaobu2020/privacy-shield", "iconUrl": null, "installs": 0, "name": "Privacy Shield", "ownerName": "xiaobu2020", "score": 5300.632911392405, "slug": "privacy-shield", "source": "clawhub", "stars": 0, "tags": null, "updated_at": 1776759982501, "version": "1.0.1"}, {"category": "developer-tools", "created_at": 1773960916674, "description": "Automates ClawdHub skill submission by diagnosing common issues, checking file structure, and guiding users through proper publishing steps.", "description_zh": "", "downloads": 67, "homepage": "https://clawhub.ai/mahongting/clawdhub-submit", "iconUrl": null, "installs": 6, "name": "Clawdhub Submit", "ownerName": "mahongting", "score": 39411.76470588235, "slug": "clawdhub-submit", "source": "clawhub", "stars": 0, "tags": null, "updated_at": 1776759982239, "version": "1.0.0"}, {"category": "", "created_at": 1774841904304, "description": "Self-reflection + Self-criticism + Self-learning + Self-organizing memory. Agent evaluates its own work, catches mistakes, and improves permanently. Use befo...", "description_zh": "", "downloads": 67, "homepage": "https://clawhub.ai/philippeliang/claw-self-improving", "iconUrl": null, "installs": 19, "name": "Self-Improving Agent (CEO Edition)", "ownerName": "philippeliang", "score": 4607.977991746905, "slug": "claw-self-improving", "source": "clawhub", "stars": 0, "tags": null, "updated_at": 1776758482771, "version": "1.2.10"}, {"category": "", "created_at": 1774947007343, "description": "Plan Amazon product listing images for maximum conversion. Create shot lists, infographic layouts, lifestyle scene briefs, and A/B testing plans following Am...", "description_zh": "", "downloads": 67, "homepage": "https://clawhub.ai/nexscope/amazon-listing-images", "iconUrl": null, "installs": 19, "name": "Amazon Listing Images", "ownerName": "nexscope", "score": 4095.354523227384, "slug": "amazon-listing-images", "source": "clawhub", "stars": 0, "tags": null, "updated_at": 1776757882618, "version": "1.0.0"}, {"category": "", "created_at": 1774908141173, "description": "Amazon Seller Central backend data report auto-analysis agent. Automatically analyze business reports, inventory reports, advertising reports, and financial...", "description_zh": "", "downloads": 67, "homepage": "https://clawhub.ai/mguozhen/amazon-backend-report", "iconUrl": null, "installs": 19, "name": "Amazon Backend Report", "ownerName": "mguozhen", "score": 4440.026507620941, "slug": "amazon-backend-report", "source": "clawhub", "stars": 0, "tags": null, "updated_at": 1776757882433, "version": "1.0.0"}, {"category": "", "created_at": 1774899285809, "description": "Plan and optimize Amazon Sponsored Display campaigns. Audience targeting, product targeting, retargeting strategy, and creative optimization for awareness an...", "description_zh": "", "downloads": 67, "homepage": "https://clawhub.ai/nexscope/amazon-display-ads", "iconUrl": null, "installs": 20, "name": "Amazon Display Ads", "ownerName": "nexscope", "score": 4440.026507620941, "slug": "amazon-display-ads", "source": "clawhub", "stars": 0, "tags": null, "updated_at": 1776757882323, "version": "1.0.0"}, {"category": "data-analysis", "created_at": 1773950934815, "description": "Competitor monitoring, pricing analysis, market positioning, and SWOT generation. Use when you need to track competitor moves, benchmark pricing, analyze mar...", "description_zh": "", "downloads": 67, "homepage": "https://clawhub.ai/samledger67-dotcom/competitive-intel-agent", "iconUrl": null, "installs": 2, "name": "Competitive Intel Agent", "ownerName": "samledger67-dotcom", "score": 71276.59574468085, "slug": "competitive-intel-agent", "source": "clawhub", "stars": 0, "tags": null, "updated_at": 1776745183743, "version": "1.0.1"}, {"category": "", "created_at": 1774896832564, "description": "Cut longer product or demo videos into tighter ecommerce-ready segments for PDPs, ads, UGC edits, and review clips. Use when teams need the strongest product...", "description_zh": "", "downloads": 67, "homepage": "https://clawhub.ai/leooooooow/product-video-cutter", "iconUrl": null, "installs": 17, "name": "Product Video Cutter", "ownerName": "leooooooow", "score": 67676.76767676767, "slug": "product-video-cutter", "source": "clawhub", "stars": 0, "tags": null, "updated_at": 1776706969703, "version": "1.0.0"}, {"category": "productivity", "created_at": 1773958437405, "description": "Check flight schedules between supported airports, show timings, terminals, gates, delays, aircraft details, and optional departure countdowns using a local...", "description_zh": "", "downloads": 67, "homepage": "https://clawhub.ai/caddytan/flight-tracker-apac", "iconUrl": null, "installs": 8, "name": "Flight Tracker for Airports in Asia Pacific", "ownerName": "caddytan", "score": 98529.41176470589, "slug": "flight-tracker-apac", "source": "clawhub", "stars": 0, "tags": null, "updated_at": 1776696584574, "version": "1.0.1"}, {"category": "developer-tools", "created_at": 1773948823087, "description": "Get all CI/CD flows from Open-C3 platform. Returns the complete list of flows in the system.", "description_zh": "", "downloads": 67, "homepage": "https://clawhub.ai/lijinfeng2011/openc3-flow", "iconUrl": null, "installs": 7, "name": "openc3-flow", "ownerName": "lijinfeng2011", "score": 98529.41176470589, "slug": "openc3-flow", "source": "clawhub", "stars": 0, "tags": null, "updated_at": 1776696584497, "version": "1.0.0"}]}