{"page": 421, "total_pages": 522, "total": 26073, "skills": [{"category": "", "created_at": 1774861892534, "description": "Advanced web crawling and content extraction tool with multiple extraction modes", "description_zh": "", "downloads": 67, "homepage": "https://clawhub.ai/nowhitestar/web-crawl", "iconUrl": null, "installs": 9, "name": "Web Crawl", "ownerName": "nowhitestar", "score": 81707.31707317072, "slug": "web-crawl", "source": "clawhub", "stars": 0, "tags": null, "updated_at": 1776696584430, "version": "1.0.0"}, {"category": "", "created_at": 1774914609553, "description": "OpenClaw PDF extraction skill using OpenDataLoader. Use when the user wants to extract and process PDF content for RAG, embeddings, or coordinate-based citat...", "description_zh": "", "downloads": 67, "homepage": "https://clawhub.ai/secondport/pdf-extract-skill", "iconUrl": null, "installs": 17, "name": "pdf-extract-skill", "ownerName": "secondport", "score": 81707.31707317072, "slug": "pdf-extract-skill", "source": "clawhub", "stars": 0, "tags": null, "updated_at": 1776696584418, "version": "0.0.10"}, {"category": "content-creation", "created_at": 1773948266677, "description": "Ultra-fast text-to-speech and speech-to-text via Smallest AI's Lightning v3.1 and Pulse models. Use when the user wants to generate speech, convert text to v...", "description_zh": "", "downloads": 67, "homepage": "https://clawhub.ai/abhishekmishragithub/smallest-ai", "iconUrl": null, "installs": 9, "name": "Smallest Ai", "ownerName": "abhishekmishragithub", "score": 81707.31707317072, "slug": "smallest-ai", "source": "clawhub", "stars": 0, "tags": ["multilingual", "speech", "stt", "tts", "voice"], "updated_at": 1776696584407, "version": "1.0.1"}, {"category": "developer-tools", "created_at": 1773950114938, "description": "Operate Bybit V5 public market APIs through UXC with a curated OpenAPI schema, market-first discovery, and explicit private-auth boundary notes.", "description_zh": "", "downloads": 67, "homepage": "https://clawhub.ai/jolestar/bybit-openapi-skill", "iconUrl": null, "installs": 9, "name": "Bybit OpenAPI Skill", "ownerName": "jolestar", "score": 81707.31707317072, "slug": "bybit-openapi-skill", "source": "clawhub", "stars": 0, "tags": null, "updated_at": 1776696584354, "version": "1.0.0"}, {"category": "security-compliance", "created_at": 1773951322915, "description": "Vet ClawHub skills for security and utility before installation. Use when considering installing a ClawHub skill, evaluating third-party code, or assessing w...", "description_zh": "", "downloads": 67, "homepage": "https://clawhub.ai/tianjin-ren/skill-vetting-tianjin", "iconUrl": null, "installs": 11, "name": "Skill Vetting Tianjin", "ownerName": "tianjin-ren", "score": 81707.31707317072, "slug": "skill-vetting-tianjin", "source": "clawhub", "stars": 0, "tags": null, "updated_at": 1776696584320, "version": "1.1.1"}, {"category": "data-analysis", "created_at": 1773956728242, "description": "ScrapingBot integration. Manage ScrapingBots. Use when the user wants to interact with ScrapingBot data.", "description_zh": "", "downloads": 67, "homepage": "https://clawhub.ai/gora050/scrapingbot", "iconUrl": null, "installs": 6, "name": "Scrapingbot", "ownerName": "gora050", "score": 81707.31707317072, "slug": "scrapingbot", "source": "clawhub", "stars": 0, "tags": null, "updated_at": 1776696584313, "version": "1.0.0"}, {"category": "developer-tools", "created_at": 1773946052577, "description": "Documents the tool services in Teamgram Server including idgen (Snowflake ID), status (online TTL), dfs (Minio file storage), and media (metadata/thumbnails).", "description_zh": "", "downloads": 67, "homepage": "https://clawhub.ai/zhihang9978/teamgram-tool-services", "iconUrl": null, "installs": 4, "name": "Teamgram Tool Services", "ownerName": "zhihang9978", "score": 98529.41176470589, "slug": "teamgram-tool-services", "source": "clawhub", "stars": 0, "tags": null, "updated_at": 1776696584243, "version": "1.0.0"}, {"category": "data-analysis", "created_at": 1773947101699, "description": "Celonis EMS integration. Manage Organizations. Use when the user wants to interact with Celonis EMS data.", "description_zh": "", "downloads": 67, "homepage": "https://clawhub.ai/gora050/celonis-ems", "iconUrl": null, "installs": 7, "name": "Celonis Ems", "ownerName": "gora050", "score": 98529.41176470589, "slug": "celonis-ems", "source": "clawhub", "stars": 0, "tags": null, "updated_at": 1776696584192, "version": "1.0.0"}, {"category": "ai-intelligence", "created_at": 1773949761216, "description": "Build ORBCAFE chat and copilot experiences with AgentPanel, StdChat, CopilotChat, ChatMessage typing flow, and AgentUICardHooks using official examples patte...", "description_zh": "", "downloads": 67, "homepage": "https://clawhub.ai/shenruiyang/orbcafe-agentui-chat", "iconUrl": null, "installs": 6, "name": "orbcafe-agentui-chat", "ownerName": "shenruiyang", "score": 98529.41176470589, "slug": "orbcafe-agentui-chat", "source": "clawhub", "stars": 0, "tags": null, "updated_at": 1776696584175, "version": "1.0.0"}, {"category": "communication-collaboration", "created_at": 1773941845742, "description": "Aircall integration. Manage Calls, Users, PhoneNumbers. Use when the user wants to interact with Aircall data.", "description_zh": "", "downloads": 67, "homepage": "https://clawhub.ai/membranedev/aircall", "iconUrl": null, "installs": 3, "name": "Aircall", "ownerName": "membranedev", "score": 83750, "slug": "aircall", "source": "clawhub", "stars": 0, "tags": null, "updated_at": 1776696584168, "version": "1.0.0"}, {"category": "communication-collaboration", "created_at": 1773946672096, "description": "Moosend integration. Manage Campaigns, Templates, Automations. Use when the user wants to interact with Moosend data.", "description_zh": "", "downloads": 67, "homepage": "https://clawhub.ai/gora050/moosend", "iconUrl": null, "installs": 4, "name": "Moosend", "ownerName": "gora050", "score": 83750, "slug": "moosend", "source": "clawhub", "stars": 0, "tags": null, "updated_at": 1776696584149, "version": "1.0.0"}, {"category": "content-creation", "created_at": 1773960084692, "description": "Screen recording capabilities. Generate stream URLs, search recordings, get transcripts.", "description_zh": "", "downloads": 67, "homepage": "https://clawhub.ai/omgate234/videodb-monitoring", "iconUrl": null, "installs": 18, "name": "VideoDB Monitoring", "ownerName": "omgate234", "score": 83750, "slug": "videodb-monitoring", "source": "clawhub", "stars": 0, "tags": null, "updated_at": 1776696584134, "version": "1.0.1"}, {"category": "productivity", "created_at": 1773949838079, "description": "Organize room inventory and maintenance schedules. Use when adding furniture items, tracking appliances, scheduling deep cleans, setting repair reminders.", "description_zh": "", "downloads": 67, "homepage": "https://clawhub.ai/bytesagain1/room", "iconUrl": null, "installs": 4, "name": "Room", "ownerName": "bytesagain1", "score": 83750, "slug": "room", "source": "clawhub", "stars": 0, "tags": null, "updated_at": 1776696584122, "version": "2.0.1"}, {"category": "developer-tools", "created_at": 1773946898396, "description": "Documents the gnetway network gateway layer in Teamgram Server, covering TCP/WS/HTTP listeners, connection lifecycle, MTProto decryption, QuickAck, and sessi...", "description_zh": "", "downloads": 67, "homepage": "https://clawhub.ai/zhihang9978/teamgram-gnetway-gateway", "iconUrl": null, "installs": 7, "name": "Teamgram Gnetway Gateway", "ownerName": "zhihang9978", "score": 83750, "slug": "teamgram-gnetway-gateway", "source": "clawhub", "stars": 0, "tags": null, "updated_at": 1776696584074, "version": "1.0.0"}, {"category": "developer-tools", "created_at": 1773958449804, "description": "Simple deployment skill for local git operations. Use when you need to add, commit, and push changes to the Git repository. Designed for quick local deployme...", "description_zh": "", "downloads": 67, "homepage": "https://clawhub.ai/sirenday/git-deploy", "iconUrl": null, "installs": 12, "name": "Git Deploy", "ownerName": "sirenday", "score": 83750, "slug": "git-deploy", "source": "clawhub", "stars": 0, "tags": null, "updated_at": 1776696584056, "version": "1.0.0"}, {"category": "content-creation", "created_at": 1773954962926, "description": "Create and share rich interactive artifacts (webpages, markdown, flowcharts) as hosted links from any AI conversation. Use when the user asks to create a das...", "description_zh": "", "downloads": 67, "homepage": "https://clawhub.ai/saibhaskardevatha/orb", "iconUrl": null, "installs": 11, "name": "Orb", "ownerName": "saibhaskardevatha", "score": 83750, "slug": "orb", "source": "clawhub", "stars": 0, "tags": null, "updated_at": 1776696584046, "version": "1.0.0"}, {"category": "productivity", "created_at": 1773947075709, "description": "automate buyma order processing for regular daily runs and ad hoc order-range runs. use when chatgpt needs to access buyma in chrome, check or fill receipt m...", "description_zh": "", "downloads": 67, "homepage": "https://clawhub.ai/innoucon-blip/buyma-order-automation", "iconUrl": null, "installs": 8, "name": "Buyma Order Automation", "ownerName": "innoucon-blip", "score": 85897.43589743589, "slug": "buyma-order-automation", "source": "clawhub", "stars": 0, "tags": null, "updated_at": 1776696583992, "version": "1.0.0"}, {"category": "ai-intelligence", "created_at": 1773952631072, "description": "Search the web using the Perplexity Agent API. Provides real-time information, news, and grounded answers with citations. Use when the user asks for: (1) Cur...", "description_zh": "", "downloads": 67, "homepage": "https://clawhub.ai/davidsteelerose/perplexity-agent", "iconUrl": null, "installs": 12, "name": "Perplexity Agent", "ownerName": "davidsteelerose", "score": 85897.43589743589, "slug": "perplexity-agent", "source": "clawhub", "stars": 0, "tags": null, "updated_at": 1776696583987, "version": "1.0.0"}, {"category": "developer-tools", "created_at": 1773948500538, "description": "Operate Alchemy Prices API reads through UXC with a curated OpenAPI schema, path-templated API-key auth, and read-first guardrails.", "description_zh": "", "downloads": 67, "homepage": "https://clawhub.ai/jolestar/alchemy-openapi-skill", "iconUrl": null, "installs": 10, "name": "Alchemy OpenAPI Skill", "ownerName": "jolestar", "score": 85897.43589743589, "slug": "alchemy-openapi-skill", "source": "clawhub", "stars": 0, "tags": null, "updated_at": 1776696583929, "version": "1.0.0"}, {"category": "developer-tools", "created_at": 1773948797387, "description": "Operate Moralis EVM wallet and token reads through UXC with a curated OpenAPI schema, API-key auth, and wallet-intelligence guardrails.", "description_zh": "", "downloads": 67, "homepage": "https://clawhub.ai/jolestar/moralis-openapi-skill", "iconUrl": null, "installs": 10, "name": "Moralis OpenAPI Skill", "ownerName": "jolestar", "score": 85897.43589743589, "slug": "moralis-openapi-skill", "source": "clawhub", "stars": 0, "tags": null, "updated_at": 1776696583892, "version": "1.0.0"}, {"category": "productivity", "created_at": 1773947188667, "description": "Easy Project integration. Manage Projects. Use when the user wants to interact with Easy Project data.", "description_zh": "", "downloads": 67, "homepage": "https://clawhub.ai/gora050/easy-project", "iconUrl": null, "installs": 5, "name": "Easy Project", "ownerName": "gora050", "score": 85897.43589743589, "slug": "easy-project", "source": "clawhub", "stars": 0, "tags": null, "updated_at": 1776696583872, "version": "1.0.0"}, {"category": "", "created_at": 1774947960794, "description": "Generate viral short video scripts with proven hooks, structured beats, platform-specific formats, shot lists, and optimized CTAs for TikTok, Instagram, YouT...", "description_zh": "", "downloads": 67, "homepage": "https://clawhub.ai/imwyvern/video-script-ai", "iconUrl": null, "installs": 10, "name": "Video Script Ai Skill", "ownerName": "imwyvern", "score": 98529.41176470589, "slug": "video-script-ai", "source": "clawhub", "stars": 0, "tags": null, "updated_at": 1776696583851, "version": "1.0.0"}, {"category": "ai-intelligence", "created_at": 1773957131002, "description": "Feishu-integrated wrapper for the capability-evolver. Manages the evolution loop lifecycle (start/stop/ensure), sends rich Feishu card reports, and provides...", "description_zh": "", "downloads": 67, "homepage": "https://clawhub.ai/muguozi1/feishu-evolver-wrapper-local", "iconUrl": null, "installs": 10, "name": "Feishu Evolver Wrapper Local", "ownerName": "muguozi1", "score": 98529.41176470589, "slug": "feishu-evolver-wrapper-local", "source": "clawhub", "stars": 0, "tags": null, "updated_at": 1776696583772, "version": "1.0.0"}, {"category": "developer-tools", "created_at": 1773948302263, "description": "Complete reference for the BFF aggregation layer in Teamgram Server with all 27 RPC modules and 268 handlers implementing Telegram-compatible API endpoints.", "description_zh": "", "downloads": 67, "homepage": "https://clawhub.ai/zhihang9978/teamgram-bff-aggregation", "iconUrl": null, "installs": 7, "name": "Teamgram BFF Aggregation", "ownerName": "zhihang9978", "score": 91780.82191780822, "slug": "teamgram-bff-aggregation", "source": "clawhub", "stars": 0, "tags": null, "updated_at": 1776696583742, "version": "1.0.0"}, {"category": "communication-collaboration", "created_at": 1774274374803, "description": "Fetch Weibo login QR code via OpenClaw browser integration. Use when the user asks to log in to Weibo or needs a Weibo QR code. Runs a Python script that han...", "description_zh": "", "downloads": 67, "homepage": "https://clawhub.ai/fmls/weibo-qr-login-skill", "iconUrl": null, "installs": 8, "name": "weibo-qr-login-skill", "ownerName": "fmls", "score": 91780.82191780822, "slug": "weibo-qr-login-skill", "source": "clawhub", "stars": 0, "tags": null, "updated_at": 1776696583696, "version": "1.0.0"}, {"category": "content-creation", "created_at": 1773075275349, "description": "Remove backgrounds from images instantly. Perfect for product photos, portraits, e-commerce. Powered by Replicate.", "description_zh": "", "downloads": 67, "homepage": "https://clawhub.ai/xiaoyinqu/background-remover", "iconUrl": null, "installs": 7, "name": "AI Background Removal", "ownerName": "xiaoyinqu", "score": 91780.82191780822, "slug": "background-remover", "source": "clawhub", "stars": 0, "tags": null, "updated_at": 1776696583643, "version": "1.0.0"}, {"category": "", "created_at": 1774949458468, "description": "Create and monitor NotebookLM Studio content — Audio Overview, Video Overview, Infographics, and Slides — via the notebooklm-mcp-cli. Use when user wants to...", "description_zh": "", "downloads": 66, "homepage": "https://clawhub.ai/skywalker-lili/notebooklm-content-creation", "iconUrl": null, "installs": 17, "name": "NotebookLM Content Creation", "ownerName": "skywalker-lili", "score": 277.03156480859633, "slug": "notebooklm-content-creation", "source": "clawhub", "stars": 0, "tags": null, "updated_at": 1776770650280, "version": "1.0.0"}, {"category": "", "created_at": 1774950747650, "description": "Use when completing tasks, implementing major features, or before merging - dispatches code review subagent to catch issues before they cascade, adapted for...", "description_zh": "", "downloads": 66, "homepage": "https://clawhub.ai/axelhu/openclaw-requesting-code-review", "iconUrl": null, "installs": 6, "name": "Superpowers Requesting Code Review", "ownerName": "axelhu", "score": 2013.4228187919462, "slug": "openclaw-requesting-code-review", "source": "clawhub", "stars": 0, "tags": null, "updated_at": 1776765971200, "version": "1.0.0"}, {"category": "", "created_at": 1774834831812, "description": "Translates Figma designs into production-ready code with 1:1 visual fidelity. Use when implementing UI from Figma files, when user mentions \"implement design...", "description_zh": "", "downloads": 66, "homepage": "https://clawhub.ai/springer63/implement-design", "iconUrl": null, "installs": 16, "name": "implement-design", "ownerName": "springer63", "score": 1334.411645774363, "slug": "implement-design", "source": "clawhub", "stars": 0, "tags": null, "updated_at": 1776765850355, "version": "1.0.0"}, {"category": "", "created_at": 1774864831216, "description": "Offline OCR extracting and structuring Chinese/English screenshot text into raw or cleaned rows and fields for receipts, tables, and statements.", "description_zh": "", "downloads": 66, "homepage": "https://clawhub.ai/9penny/general-ocr-struct", "iconUrl": null, "installs": 3, "name": "General OCR Struct", "ownerName": "9penny", "score": 1348.86572654813, "slug": "general-ocr-struct", "source": "clawhub", "stars": 0, "tags": null, "updated_at": 1776764390595, "version": "0.1.0"}, {"category": "", "created_at": 1774848684577, "description": "Scan any agent skill for security risks before you install or use it. Powered by Tencent Zhuque Lab A.I.G (AI-Infra-Guard). 100% local static analysis — no f...", "description_zh": "", "downloads": 66, "homepage": "https://clawhub.ai/aigsec/edgeone-skill-scanner", "iconUrl": null, "installs": 15, "name": "EdgeOne Skill Scanner", "ownerName": "aigsec", "score": 603.4561579957941, "slug": "edgeone-skill-scanner", "source": "clawhub", "stars": 0, "tags": null, "updated_at": 1776761282408, "version": "1.0.4"}, {"category": "ai-intelligence", "created_at": 1772794197119, "description": "AI-driven intelligent operations system for proactive monitoring, intelligent diagnosis, and automated remediation. Use for AIOps tasks, SRE automation, or i...", "description_zh": "", "downloads": 66, "homepage": "https://clawhub.ai/jame-mei-ltp/aiops-agent", "iconUrl": null, "installs": 9, "name": "AIOps Agent", "ownerName": "jame-mei-ltp", "score": 81481.48148148147, "slug": "aiops-agent", "source": "clawhub", "stars": 0, "tags": ["ai", "aiops", "automation", "devops", "sre"], "updated_at": 1776759982907, "version": "1.0.1"}, {"category": "", "created_at": 1774883742316, "description": "Conduct comprehensive SEO audits by analyzing metadata, headings, content, and competitors to provide prioritized, actionable fixes for ranking improvements.", "description_zh": "", "downloads": 66, "homepage": "https://clawhub.ai/amdf01-debug/sw-seo-audit", "iconUrl": null, "installs": 8, "name": "SEO Audit Pro", "ownerName": "amdf01-debug", "score": 81481.48148148147, "slug": "sw-seo-audit", "source": "clawhub", "stars": 0, "tags": ["audit", "bundle", "marketing", "seo"], "updated_at": 1776759982897, "version": "1.0.0"}, {"category": "", "created_at": 1774883254502, "description": "Generate AI images of girls, characters, and fictional personas using Media.io OpenAPI. Creates detailed, stylized character portraits in various styles. AI...", "description_zh": "", "downloads": 66, "homepage": "https://clawhub.ai/wondershare-boop/mediaio-ai-character-generator", "iconUrl": null, "installs": 3, "name": "AI Girl & Character Generator", "ownerName": "wondershare-boop", "score": 90410.95890410959, "slug": "mediaio-ai-character-generator", "source": "clawhub", "stars": 0, "tags": null, "updated_at": 1776759982599, "version": "1.0.0"}, {"category": "", "created_at": 1774904964216, "description": "Plan A/B tests with a clear hypothesis, defined metrics, variant design, sample size, duration, and statistical significance guidelines.", "description_zh": "", "downloads": 66, "homepage": "https://clawhub.ai/amdf01-debug/sw-ab-test-setup", "iconUrl": null, "installs": 5, "name": "AB Test Setup", "ownerName": "amdf01-debug", "score": 92957.74647887323, "slug": "sw-ab-test-setup", "source": "clawhub", "stars": 0, "tags": ["ab-test", "conversion", "cro"], "updated_at": 1776759982556, "version": "1.0.0"}, {"category": "developer-tools", "created_at": 1773961250756, "description": "Automate browsing with Playwright to visit URLs, capture screenshots, retrieve page titles, and interact with elements (clicking coming soon).", "description_zh": "", "downloads": 66, "homepage": "https://clawhub.ai/1393368499/my-browser-agent", "iconUrl": null, "installs": 3, "name": "My Browser Agent", "ownerName": "1393368499", "score": 5176.470588235295, "slug": "my-browser-agent", "source": "clawhub", "stars": 0, "tags": null, "updated_at": 1776759982416, "version": "1.0.0"}, {"category": "", "created_at": 1774883982171, "description": "Amazon listing health audit agent. Checks title and bullet completeness, keyword coverage, image count, BSR trends, Buy Box eligibility, suppression risk, an...", "description_zh": "", "downloads": 66, "homepage": "https://clawhub.ai/mguozhen/amazon-listing-health-monitor", "iconUrl": null, "installs": 19, "name": "Amazon Listing Health Monitor", "ownerName": "mguozhen", "score": 4034.2298288508555, "slug": "amazon-listing-health-monitor", "source": "clawhub", "stars": 0, "tags": null, "updated_at": 1776757882626, "version": "1.0.0"}, {"category": "", "created_at": 1774915577359, "description": "Batch-generate images via OpenAI Images API. Random prompt sampler + `index.html` gallery.", "description_zh": "", "downloads": 66, "homepage": "https://clawhub.ai/andy27725/openai-image-gen-andy27725", "iconUrl": null, "installs": 20, "name": "Openai Image Gen Andy27725", "ownerName": "andy27725", "score": 11243.611584327087, "slug": "openai-image-gen-andy27725", "source": "clawhub", "stars": 0, "tags": null, "updated_at": 1776750884122, "version": "1.0.0"}, {"category": "", "created_at": 1774860069230, "description": "Batch anonymize DICOM medical images by removing patient sensitive information (name, ID, birth date) while preserving image data for research use. Trigger w...", "description_zh": "", "downloads": 66, "homepage": "https://clawhub.ai/aipoch-ai/dicom-anonymizer", "iconUrl": null, "installs": 15, "name": "Dicom Anonymizer", "ownerName": "aipoch-ai", "score": 70212.76595744681, "slug": "dicom-anonymizer", "source": "clawhub", "stars": 0, "tags": null, "updated_at": 1776740772085, "version": "0.1.0"}, {"category": "", "created_at": 1774849614713, "description": "Email writer and sender for OpenClaw. Use when user needs to draft, reply, or send emails via browser. Supports Gmail, Outlook, QQ Mail, 163 Mail. Requires O...", "description_zh": "", "downloads": 66, "homepage": "https://clawhub.ai/tobewin/email-composer", "iconUrl": null, "installs": 7, "name": "Email Writer", "ownerName": "tobewin", "score": 79518.07228915663, "slug": "email-composer", "source": "clawhub", "stars": 0, "tags": null, "updated_at": 1776740569996, "version": "1.0.4"}, {"category": "", "created_at": 1774923422848, "description": "Send WhatsApp messages to other people or search/sync WhatsApp history via the wacli CLI (not for normal user chats).", "description_zh": "", "downloads": 66, "homepage": "https://clawhub.ai/gillescv/wacli-gilles", "iconUrl": null, "installs": 10, "name": "Wacli Gilles", "ownerName": "gillescv", "score": 66666.66666666666, "slug": "wacli-gilles", "source": "clawhub", "stars": 0, "tags": null, "updated_at": 1776710569598, "version": "1.0.0"}, {"category": "developer-tools", "created_at": 1773950154014, "description": "China Install Skills - ClawHub skill installer for mainland China users, bypasses API rate limits via direct Convex API access", "description_zh": "", "downloads": 66, "homepage": "https://clawhub.ai/semfreud/china-install-skills", "iconUrl": null, "installs": 7, "name": "China Install Skills", "ownerName": "semfreud", "score": 97058.82352941176, "slug": "china-install-skills", "source": "clawhub", "stars": 0, "tags": null, "updated_at": 1776696584547, "version": "1.2.0"}, {"category": "productivity", "created_at": 1773947152582, "description": "Create a simple, repeatable daily review workflow across whatever conversation surfaces are available. Use when a user wants one raw note per source, one mer...", "description_zh": "", "downloads": 66, "homepage": "https://clawhub.ai/panpansirius-cloud/cross-channel-daily-review", "iconUrl": null, "installs": 4, "name": "Cross Channel Daily Review", "ownerName": "panpansirius-cloud", "score": 97058.82352941176, "slug": "cross-channel-daily-review", "source": "clawhub", "stars": 0, "tags": null, "updated_at": 1776696584499, "version": "0.1.1"}, {"category": "developer-tools", "created_at": 1773951911058, "description": "Call PartnerBoost merchant APIs to manage transactions, performance, billing, partners and more", "description_zh": "", "downloads": 66, "homepage": "https://clawhub.ai/partnerboost-tech-team/partnerboost-brand", "iconUrl": null, "installs": 10, "name": "PartnerBoost Brand", "ownerName": "partnerboost-tech-team", "score": 80487.80487804879, "slug": "partnerboost-brand", "source": "clawhub", "stars": 0, "tags": null, "updated_at": 1776696584363, "version": "1.0.2"}, {"category": "communication-collaboration", "created_at": 1773948318644, "description": "Documents the KHF Android client architecture and complete end-to-end data flows for login, messaging, and file operations through all Teamgram Server layers.", "description_zh": "", "downloads": 66, "homepage": "https://clawhub.ai/zhihang9978/teamgram-client-e2e-flow", "iconUrl": null, "installs": 4, "name": "Teamgram Client E2E Flow", "ownerName": "zhihang9978", "score": 97058.82352941176, "slug": "teamgram-client-e2e-flow", "source": "clawhub", "stars": 0, "tags": null, "updated_at": 1776696584282, "version": "1.0.0"}, {"category": "data-analysis", "created_at": 1773948568104, "description": "Operate Chainbase indexed wallet and token reads through UXC with a curated OpenAPI schema, API-key auth, and read-first guardrails.", "description_zh": "", "downloads": 66, "homepage": "https://clawhub.ai/jolestar/chainbase-openapi-skill", "iconUrl": null, "installs": 8, "name": "Chainbase OpenAPI Skill", "ownerName": "jolestar", "score": 97058.82352941176, "slug": "chainbase-openapi-skill", "source": "clawhub", "stars": 0, "tags": null, "updated_at": 1776696584204, "version": "1.0.0"}, {"category": "data-analysis", "created_at": 1773952796688, "description": "Monitor recurring-billing and subscription business health — pool volatility, churn, and payment failure — then output dunning and retention email series gro...", "description_zh": "", "downloads": 66, "homepage": "https://clawhub.ai/rijoyai/subscription-renewal-health", "iconUrl": null, "installs": 10, "name": "Subscription Renewal Health", "ownerName": "rijoyai", "score": 97058.82352941176, "slug": "subscription-renewal-health", "source": "clawhub", "stars": 0, "tags": null, "updated_at": 1776696584172, "version": "0.1.0"}, {"category": "developer-tools", "created_at": 1773946843257, "description": "Interact with Jira Cloud via REST API. Use for searching issues (JQL), viewing issue details, creating/updating issues, adding comments, transitioning status...", "description_zh": "", "downloads": 66, "homepage": "https://clawhub.ai/snowsand-enterprises/snowsand-jira", "iconUrl": null, "installs": 3, "name": "Snowsand Jira", "ownerName": "snowsand-enterprises", "score": 82500, "slug": "snowsand-jira", "source": "clawhub", "stars": 0, "tags": null, "updated_at": 1776696584164, "version": "1.0.0"}, {"category": "ai-intelligence", "created_at": 1773950052618, "description": "Estimate infrastructure and API costs for running AI agents in production. Covers compute, API tokens, storage, and monitoring costs. Use when planning AI ag...", "description_zh": "", "downloads": 66, "homepage": "https://clawhub.ai/afrexai-cto/afrexai-ai-cost-estimator", "iconUrl": null, "installs": 5, "name": "Ai Cost Estimator", "ownerName": "afrexai-cto", "score": 82500, "slug": "afrexai-ai-cost-estimator", "source": "clawhub", "stars": 0, "tags": null, "updated_at": 1776696584145, "version": "1.0.0"}, {"category": "", "created_at": 1774916041661, "description": "The best skill to retrieve fresh web evidence with Tavily. Use for source finding, link discovery, official documentation lookup, current-event verification,...", "description_zh": "", "downloads": 66, "homepage": "https://clawhub.ai/soymilkwinsagain/better-tavily-search", "iconUrl": null, "installs": 21, "name": "Better Tavily Search", "ownerName": "soymilkwinsagain", "score": 82500, "slug": "better-tavily-search", "source": "clawhub", "stars": 0, "tags": null, "updated_at": 1776696584058, "version": "1.0.0"}]}