{"page": 422, "total_pages": 522, "total": 26073, "skills": [{"category": "data-analysis", "created_at": 1773952462095, "description": "Log heart rate readings, track BPM trends, and set cardiovascular goals. Use when recording heart rate, tracking trends, or charting weekly averages.", "description_zh": "", "downloads": 66, "homepage": "https://clawhub.ai/bytesagain3/heartrate", "iconUrl": null, "installs": 7, "name": "Heartrate", "ownerName": "bytesagain3", "score": 84615.38461538461, "slug": "heartrate", "source": "clawhub", "stars": 0, "tags": null, "updated_at": 1776696583907, "version": "2.0.1"}, {"category": "developer-tools", "created_at": 1773951579846, "description": "3-layer site launcher: tunnel any HTML instantly (no account), deploy to Cloudflare Pages (permanent), then buy a domain and link it via DNS. Use when a user...", "description_zh": "", "downloads": 66, "homepage": "https://clawhub.ai/wohaoshuai/buy-domain-helper", "iconUrl": null, "installs": 6, "name": "Buy Domain Helper", "ownerName": "wohaoshuai", "score": 97058.82352941176, "slug": "buy-domain-helper", "source": "clawhub", "stars": 0, "tags": null, "updated_at": 1776696583837, "version": "1.0.1"}, {"category": "ai-intelligence", "created_at": 1773954931762, "description": "Manage and optimize OpenClaw context window usage via partitioning, pre-compression checkpointing, and information lifecycle management. Use when the session...", "description_zh": "", "downloads": 66, "homepage": "https://clawhub.ai/muguozi1/muguozi1-openclaw-context-budgeting", "iconUrl": null, "installs": 7, "name": "Muguozi1 Openclaw Context Budgeting", "ownerName": "muguozi1", "score": 97058.82352941176, "slug": "muguozi1-openclaw-context-budgeting", "source": "clawhub", "stars": 0, "tags": null, "updated_at": 1776696583816, "version": "1.0.0"}, {"category": "developer-tools", "created_at": 1773950281187, "description": "Control interactive BLE devices (scan/connect/playback/timeline) from terminal.", "description_zh": "", "downloads": 66, "homepage": "https://clawhub.ai/lovappencava/dokidoki", "iconUrl": null, "installs": 6, "name": "dokidoki", "ownerName": "lovappencava", "score": 97058.82352941176, "slug": "dokidoki", "source": "clawhub", "stars": 0, "tags": null, "updated_at": 1776696583787, "version": "1.0.2"}, {"category": "developer-tools", "created_at": 1773946860592, "description": "Deploy a SuperRare Sovereign ERC-721 collection on Ethereum or Base via Bankr. Uses the official RARE factory createSovereignBatchMint path, dry-runs by defa...", "description_zh": "", "downloads": 66, "homepage": "https://clawhub.ai/aaigotchi/superrare-deploy", "iconUrl": null, "installs": 2, "name": "superrare-deploy", "ownerName": "aaigotchi", "score": 90410.95890410959, "slug": "superrare-deploy", "source": "clawhub", "stars": 0, "tags": null, "updated_at": 1776696583725, "version": "0.2.0"}, {"category": "", "created_at": 1774918125833, "description": "Provides a guide for setting up Golang project layouts and workspaces. Use this whenever starting a new Go project, organizing an existing codebase, setting...", "description_zh": "", "downloads": 65, "homepage": "https://clawhub.ai/samber/golang-project-layout", "iconUrl": null, "installs": 6, "name": "Golang Project Layout", "ownerName": "samber", "score": 2493.2873034138856, "slug": "golang-project-layout", "source": "clawhub", "stars": 0, "tags": null, "updated_at": 1776762289911, "version": "0.1.0"}, {"category": "productivity", "created_at": 1773959679773, "description": "Convert times between timezones, show world clocks, find meeting overlap across zones, and look up UTC offsets and DST status. Use when converting between ti...", "description_zh": "", "downloads": 65, "homepage": "https://clawhub.ai/johnnywang2001/timezone-toolkit", "iconUrl": null, "installs": 8, "name": "Timezone Toolkit", "ownerName": "johnnywang2001", "score": 1684.3741902047161, "slug": "timezone-toolkit", "source": "clawhub", "stars": 0, "tags": null, "updated_at": 1776760940359, "version": "1.0.0"}, {"category": "", "created_at": 1774953731486, "description": "Aggregates insights from web, papers, video, and forums with paywall bypass to deliver comprehensive, unbiased, multi-format research and analysis.", "description_zh": "", "downloads": 65, "homepage": "https://clawhub.ai/geoffguides/deep-researcher-skill", "iconUrl": null, "installs": 7, "name": "Deep Researcher Skill", "ownerName": "geoffguides", "score": 30516.431924882632, "slug": "deep-researcher-skill", "source": "clawhub", "stars": 0, "tags": ["analysis", "deep-dive", "investigation", "research", "sources"], "updated_at": 1776759983210, "version": "1.0.0"}, {"category": "", "created_at": 1774872737801, "description": "Try different hairstyles and accessories on photos using AI via Media.io OpenAPI. Preview new haircuts, hair colors, glasses, hats. AI hairstyle generator, h...", "description_zh": "", "downloads": 65, "homepage": "https://clawhub.ai/wondershare-boop/mediaio-ai-hairstyle-generator", "iconUrl": null, "installs": 1, "name": "AI Hairstyle Generator", "ownerName": "wondershare-boop", "score": 4676.258992805755, "slug": "mediaio-ai-hairstyle-generator", "source": "clawhub", "stars": 0, "tags": null, "updated_at": 1776759982884, "version": "1.0.1"}, {"category": "", "created_at": 1774896039407, "description": "Learn to build Retrieval-Augmented Generation (RAG) applications using LangChain with Python and FAISS vector stores for enhanced AI retrieval.", "description_zh": "", "downloads": 65, "homepage": "https://clawhub.ai/robinyves/building-rag-applications-with-langchain", "iconUrl": null, "installs": 4, "name": "Building Rag Applications With Langchain", "ownerName": "robinyves", "score": 5142.405063291139, "slug": "building-rag-applications-with-langchain", "source": "clawhub", "stars": 0, "tags": null, "updated_at": 1776759982774, "version": "1.0.0"}, {"category": "", "created_at": 1772796729015, "description": "Order-to-cash cycle -- customers, quotations, sales orders, delivery notes, sales invoices, credit notes, recurring invoices for ERPClaw ERP", "description_zh": "", "downloads": 65, "homepage": "https://clawhub.ai/skipzhang/erpclaw-selling", "iconUrl": null, "installs": 1, "name": "ERPClaw-Selling", "ownerName": "skipzhang", "score": 18465.909090909092, "slug": "erpclaw-selling", "source": "clawhub", "stars": 0, "tags": null, "updated_at": 1776759982744, "version": "1.0.0"}, {"category": "", "created_at": 1774887954035, "description": "Track Douyin product prices in real time, get alerts, generate AI competitor reports, and visualize price trends with multi-task batch management.", "description_zh": "", "downloads": 65, "homepage": "https://clawhub.ai/mycar2018/douyin-price-tracker", "iconUrl": null, "installs": 9, "name": "Douyin Price Tracker", "ownerName": "mycar2018", "score": 5102.040816326531, "slug": "douyin-price-tracker", "source": "clawhub", "stars": 0, "tags": ["competitor-analysis", "douyin", "ecommerce", "price-tracking"], "updated_at": 1776759982525, "version": "1.0.6"}, {"category": "", "created_at": 1774856945497, "description": "Advanced stock picker combining A-share limit-up chains, leading stocks, and global ABCD strategy with anti-IP-block delay for safe harvesting.", "description_zh": "", "downloads": 65, "homepage": "https://clawhub.ai/gxfc888aa/eni-predator-01", "iconUrl": null, "installs": 8, "name": "ENI收割者v14", "ownerName": "gxfc888aa", "score": 4455.106237148732, "slug": "eni-predator-01", "source": "clawhub", "stars": 0, "tags": ["finance", "quant"], "updated_at": 1776759982315, "version": "1.0.1"}, {"category": "", "created_at": 1774894280668, "description": "Amazon global marketplace expansion agent. Plan your entry into UK, EU (Germany, France, Italy, Spain), Japan, Canada, and other Amazon markets. Covers VAT r...", "description_zh": "", "downloads": 65, "homepage": "https://clawhub.ai/mguozhen/amazon-global-expansion", "iconUrl": null, "installs": 20, "name": "Amazon Global Expansion", "ownerName": "mguozhen", "score": 3973.1051344743278, "slug": "amazon-global-expansion", "source": "clawhub", "stars": 0, "tags": null, "updated_at": 1776757882612, "version": "1.0.0"}, {"category": "", "created_at": 1774883974883, "description": "Amazon product launch audit agent. Scores listing completeness, keyword coverage, image quality requirements, pricing competitiveness, initial PPC structure,...", "description_zh": "", "downloads": 65, "homepage": "https://clawhub.ai/mguozhen/amazon-launch-checklist", "iconUrl": null, "installs": 21, "name": "Amazon Launch Checklist", "ownerName": "mguozhen", "score": 4307.488402915838, "slug": "amazon-launch-checklist", "source": "clawhub", "stars": 0, "tags": null, "updated_at": 1776757882421, "version": "1.0.0"}, {"category": "", "created_at": 1774816564684, "description": "Build and maintain a structured local knowledge base. Classify incoming content, save it as reusable Markdown, organize inbox items, and keep the knowledge b...", "description_zh": "", "downloads": 65, "homepage": "https://clawhub.ai/shaochuanchao/kb-manager", "iconUrl": null, "installs": 8, "name": "Knowledge Base Manager", "ownerName": "shaochuanchao", "score": 12059.369202226346, "slug": "kb-manager", "source": "clawhub", "stars": 0, "tags": null, "updated_at": 1776754988470, "version": "0.2.0"}, {"category": "", "created_at": 1774794398719, "description": "Publish text and image posts to Weibo (m.weibo.cn) using browser automation. Use when the user needs to post content to Weibo programmatically, including tex...", "description_zh": "", "downloads": 65, "homepage": "https://clawhub.ai/noah-1106/weibo-publish", "iconUrl": null, "installs": 7, "name": "Weibo Publish", "ownerName": "noah-1106", "score": 3357.4380165289253, "slug": "weibo-publish", "source": "clawhub", "stars": 0, "tags": null, "updated_at": 1776753884086, "version": "1.0.0"}, {"category": "security-compliance", "created_at": 1773947977977, "description": "Configure firewalls on servers and cloud providers with security best practices.", "description_zh": "", "downloads": 65, "homepage": "https://clawhub.ai/gonzachee/my-firewall-v2", "iconUrl": null, "installs": 3, "name": "My Firewall v2", "ownerName": "gonzachee", "score": 61904.76190476191, "slug": "my-firewall-v2", "source": "clawhub", "stars": 0, "tags": ["security"], "updated_at": 1776745369843, "version": "1.0.1"}, {"category": "", "created_at": 1774887205343, "description": "A powerful open-source tool for managing networks and troubleshooting network problems! network-config, c#, aws-ssm, dns, dns-lookup, icmp.", "description_zh": "", "downloads": 65, "homepage": "https://clawhub.ai/bytesagain3/network-config", "iconUrl": null, "installs": 11, "name": "Network Config", "ownerName": "bytesagain3", "score": 66326.5306122449, "slug": "network-config", "source": "clawhub", "stars": 0, "tags": null, "updated_at": 1776742804823, "version": "1.0.0"}, {"category": "", "created_at": 1774865544225, "description": "This skill helps merchants learn and understand Weimob's features and capabilities (e.g., Weimob Shop, Wholesale Shop, Smart Retail, Smart Supermarket, Smart...", "description_zh": "", "downloads": 65, "homepage": "https://clawhub.ai/alphatok/weimob-helper", "iconUrl": null, "installs": 12, "name": "微盟帮助中心", "ownerName": "alphatok", "score": 57017.54385964912, "slug": "weimob-helper", "source": "clawhub", "stars": 0, "tags": null, "updated_at": 1776735583813, "version": "1.0.0"}, {"category": "", "created_at": 1774835774684, "description": "Reference tool for devtools — covers intro, quickstart, patterns and more. Quick lookup for Devops Scripts concepts, best practices, and implementation patte...", "description_zh": "", "downloads": 65, "homepage": "https://clawhub.ai/bytesagain3/devops-scripts", "iconUrl": null, "installs": 0, "name": "Devops Scripts", "ownerName": "bytesagain3", "score": 67010.30927835051, "slug": "devops-scripts", "source": "clawhub", "stars": 0, "tags": null, "updated_at": 1776733544394, "version": "2.0.4"}, {"category": "ai-intelligence", "created_at": 1773951991220, "description": "Observe OpenClaw session usage, token consumption, context pressure, and model/runtime state. Use when the user asks about token usage, context size, model i...", "description_zh": "", "downloads": 65, "homepage": "https://clawhub.ai/qsczseasd/session-observer", "iconUrl": null, "installs": 6, "name": "Session Observer", "ownerName": "qsczseasd", "score": 67708.33333333334, "slug": "session-observer", "source": "clawhub", "stars": 0, "tags": null, "updated_at": 1776730244411, "version": "1.0.0"}, {"category": "", "created_at": 1774855618343, "description": "Auto-generated skill for gemini tools via OneKey Gateway.", "description_zh": "", "downloads": 65, "homepage": "https://clawhub.ai/ai-hub-admin/gemini-nano-banana", "iconUrl": null, "installs": 22, "name": "Gemini Nano Banana", "ownerName": "ai-hub-admin", "score": 69148.93617021276, "slug": "gemini-nano-banana", "source": "clawhub", "stars": 0, "tags": null, "updated_at": 1776701569546, "version": "0.1.4"}, {"category": "ai-intelligence", "created_at": 1773954628986, "description": "Assistant for VCs/investors asking about the Creez project. Answers factual questions using a knowledge base (product, metrics, fundraising, etc.); when the...", "description_zh": "", "downloads": 65, "homepage": "https://clawhub.ai/huangjuhua-aigc/creez-finance-bot", "iconUrl": null, "installs": 7, "name": "CreezFinance", "ownerName": "huangjuhua-aigc", "score": 95588.23529411765, "slug": "creez-finance-bot", "source": "clawhub", "stars": 0, "tags": null, "updated_at": 1776696584546, "version": "1.0.0"}, {"category": "productivity", "created_at": 1773946414517, "description": "Comprehensive toys industry sourcing guide for international buyers – provides detailed information about China's plastic, electronic, wooden, plush, model,...", "description_zh": "", "downloads": 65, "homepage": "https://clawhub.ai/1970168137/china-toys-sourcing", "iconUrl": null, "installs": 3, "name": "China Toys Sourcing", "ownerName": "1970168137", "score": 79268.29268292684, "slug": "china-toys-sourcing", "source": "clawhub", "stars": 0, "tags": null, "updated_at": 1776696584425, "version": "1.0.0"}, {"category": "productivity", "created_at": 1773947938452, "description": "Submit a full 63-pick NCAA March Madness tournament bracket to the March Madness AI platform (maincharacter.enterprises). Use this skill whenever the user or...", "description_zh": "", "downloads": 65, "homepage": "https://clawhub.ai/jbrawner/march-madness-bracket", "iconUrl": null, "installs": 5, "name": "March Madness AI Bracket", "ownerName": "jbrawner", "score": 79268.29268292684, "slug": "march-madness-bracket", "source": "clawhub", "stars": 0, "tags": null, "updated_at": 1776696584346, "version": "1.0.0"}, {"category": "", "created_at": 1774867541055, "description": "Convert written medical content into podcast or video scripts optimized for audio delivery. Transforms academic papers, reports, and educational materials in...", "description_zh": "", "downloads": 65, "homepage": "https://clawhub.ai/aipoch-ai/audio-script-writer", "iconUrl": null, "installs": 7, "name": "Audio Script Writer", "ownerName": "aipoch-ai", "score": 95588.23529411765, "slug": "audio-script-writer", "source": "clawhub", "stars": 0, "tags": null, "updated_at": 1776696584280, "version": "0.1.0"}, {"category": "", "created_at": 1774916898650, "description": "speech to text, transcribe audio, voice recognition, ASR, speech recognition, transcribe recording, convert speech to text, recognize speech, transcribe file...", "description_zh": "", "downloads": 65, "homepage": "https://clawhub.ai/juan-oy/local-qwen3-asr-aipc", "iconUrl": null, "installs": 10, "name": "Local speech to text Qwen3-ASR w/ OpenVINO (no API key)", "ownerName": "juan-oy", "score": 95588.23529411765, "slug": "local-qwen3-asr-aipc", "source": "clawhub", "stars": 0, "tags": null, "updated_at": 1776696584226, "version": "1.0.0"}, {"category": "data-analysis", "created_at": 1773955467822, "description": "Monitor and analyze DeFi positions across protocols and chains. Track LP (liquidity provider) positions, staking rewards, yield farming returns, impermanent...", "description_zh": "", "downloads": 65, "homepage": "https://clawhub.ai/samledger67-dotcom/defi-position-tracker", "iconUrl": null, "installs": 1, "name": "DeFi Position Tracker", "ownerName": "samledger67-dotcom", "score": 95588.23529411765, "slug": "defi-position-tracker", "source": "clawhub", "stars": 0, "tags": null, "updated_at": 1776696584194, "version": "2.0.0"}, {"category": "developer-tools", "created_at": 1773951067458, "description": "Use this skill when an OpenClaw agent needs to browse public agents, skills, or tasks from HrClaw Market, or execute task and wallet actions through the mcp-...", "description_zh": "", "downloads": 65, "homepage": "https://clawhub.ai/shuizhengqi1/hrclaw-market", "iconUrl": null, "installs": 10, "name": "HrClaw Market", "ownerName": "shuizhengqi1", "score": 95588.23529411765, "slug": "hrclaw-market", "source": "clawhub", "stars": 0, "tags": ["agents", "briwse", "market", "mcp", "wallet"], "updated_at": 1776696584187, "version": "1.0.1"}, {"category": "developer-tools", "created_at": 1773948921768, "description": "Track game scores, brackets, and player statistics. Use when recording results, scoring rounds, ranking leaderboards, reviewing game history, computing stats.", "description_zh": "", "downloads": 65, "homepage": "https://clawhub.ai/bytesagain3/score", "iconUrl": null, "installs": 5, "name": "Score", "ownerName": "bytesagain3", "score": 81250, "slug": "score", "source": "clawhub", "stars": 0, "tags": null, "updated_at": 1776696584159, "version": "2.0.2"}, {"category": "security-compliance", "created_at": 1773945725413, "description": "Secure key management for AI agents. Use when handling private keys, API secrets, wallet credentials, or when building systems that need agent-controlled fun...", "description_zh": "", "downloads": 65, "homepage": "https://clawhub.ai/allprogramming9999/master-skills", "iconUrl": null, "installs": 1, "name": "Bagman", "ownerName": "allprogramming9999", "score": 81250, "slug": "master-skills", "source": "clawhub", "stars": 0, "tags": null, "updated_at": 1776696584051, "version": "0.1.0"}, {"category": "communication-collaboration", "created_at": 1773944689502, "description": "Mailmodo integration. Manage Campaigns, Users, Reports. Use when the user wants to interact with Mailmodo data.", "description_zh": "", "downloads": 65, "homepage": "https://clawhub.ai/membranedev/mailmodo", "iconUrl": null, "installs": 2, "name": "Mailmodo", "ownerName": "membranedev", "score": 83333.33333333334, "slug": "mailmodo", "source": "clawhub", "stars": 0, "tags": null, "updated_at": 1776696584044, "version": "1.0.0"}, {"category": "productivity", "created_at": 1773948879151, "description": "Guide users through refund and return decisions for ecommerce orders, including reasons, evidence preparation, and platform-specific strategy. Use when the u...", "description_zh": "", "downloads": 65, "homepage": "https://clawhub.ai/harrylabsj/refund-assistant", "iconUrl": null, "installs": 5, "name": "Refund Assistant", "ownerName": "harrylabsj", "score": 83333.33333333334, "slug": "refund-assistant", "source": "clawhub", "stars": 0, "tags": null, "updated_at": 1776696584014, "version": "1.0.0"}, {"category": "productivity", "created_at": 1773942626822, "description": "Lade den Abfallkalender fuer den Landkreis Ravensburg ueber die offizielle Athos-Webseite herunter. Verwende diesen Skill, wenn du fuer Orte wie Ravensburg,...", "description_zh": "", "downloads": 65, "homepage": "https://clawhub.ai/wolf128058/abfallkalender-rv", "iconUrl": null, "installs": 2, "name": "Abfallkalender RV", "ownerName": "wolf128058", "score": 83333.33333333334, "slug": "abfallkalender-rv", "source": "clawhub", "stars": 0, "tags": null, "updated_at": 1776696583969, "version": "1.0.1"}, {"category": "communication-collaboration", "created_at": 1773950203767, "description": "Defines how the OpenClaw agent should communicate with Tidy during a build session, ensuring clear, predictable, and build-focused interactions.", "description_zh": "", "downloads": 65, "homepage": "https://clawhub.ai/dweikanas/communication-protocol", "iconUrl": null, "installs": 6, "name": "Communication Protocol", "ownerName": "dweikanas", "score": 95588.23529411765, "slug": "communication-protocol", "source": "clawhub", "stars": 0, "tags": null, "updated_at": 1776696583865, "version": "1.0.0"}, {"category": "productivity", "created_at": 1773943240342, "description": "Integration with TaskSquad. Collaborate with agents in your team, create tasks, and track progress.", "description_zh": "", "downloads": 65, "homepage": "https://clawhub.ai/xajik/task-squad-ai", "iconUrl": null, "installs": 3, "name": "TaskSquad.ai", "ownerName": "xajik", "score": 95588.23529411765, "slug": "task-squad-ai", "source": "clawhub", "stars": 0, "tags": null, "updated_at": 1776696583845, "version": "1.0.0"}, {"category": "productivity", "created_at": 1773947660675, "description": "AIUSD Pro — AI-powered trading agent with built-in reasoning. Use when user wants to trade, check balances, or manage positions through natural language conv...", "description_zh": "", "downloads": 65, "homepage": "https://clawhub.ai/tech-fe-aiusd/aiusd-pro", "iconUrl": null, "installs": 4, "name": "aiusd-pro", "ownerName": "tech-fe-aiusd", "score": 95588.23529411765, "slug": "aiusd-pro", "source": "clawhub", "stars": 0, "tags": null, "updated_at": 1776696583840, "version": "1.0.0"}, {"category": "ai-intelligence", "created_at": 1773953172585, "description": "Browse quests, discover skills, and get mission info on ClawQuest — the quest platform for AI agents.", "description_zh": "", "downloads": 65, "homepage": "https://clawhub.ai/rayysol/clawquest-chat-agent", "iconUrl": null, "installs": 7, "name": "clawquest-chat-agent", "ownerName": "rayysol", "score": 95588.23529411765, "slug": "clawquest-chat-agent", "source": "clawhub", "stars": 0, "tags": null, "updated_at": 1776696583820, "version": "1.0.0"}, {"category": "security-compliance", "created_at": 1773948852276, "description": "Multi-layered security audit system for GitHub/ClawHub releases. Prevents credential leaks, detects vulnerabilities, validates documentation. Frequency-aware...", "description_zh": "", "downloads": 65, "homepage": "https://clawhub.ai/solmas/pre-publish-security", "iconUrl": null, "installs": 2, "name": "Pre Publish Security", "ownerName": "solmas", "score": 89041.09589041096, "slug": "pre-publish-security", "source": "clawhub", "stars": 0, "tags": null, "updated_at": 1776696583748, "version": "2.0.0"}, {"category": "productivity", "created_at": 1773949014678, "description": "Prevent premature completion claims, repeated same-pattern retries, and weak handoffs. Use this skill to improve verification, strategy switching, and blocke...", "description_zh": "", "downloads": 65, "homepage": "https://clawhub.ai/aviclaw/verify-before-done-avi", "iconUrl": null, "installs": 3, "name": "verify-before-done", "ownerName": "aviclaw", "score": 89041.09589041096, "slug": "verify-before-done-avi", "source": "clawhub", "stars": 0, "tags": null, "updated_at": 1776696583716, "version": "1.0.0"}, {"category": "", "created_at": 1774858738867, "description": "Generate 3D models, textures, images, rig characters, animate them, and prepare for 3D printing using the Meshy AI API. Handles API key detection, task creat...", "description_zh": "", "downloads": 65, "homepage": "https://clawhub.ai/arlieeee/meshy-3d-agent", "iconUrl": null, "installs": 18, "name": "Meshy 3D Agent", "ownerName": "arlieeee", "score": 89041.09589041096, "slug": "meshy-3d-agent", "source": "clawhub", "stars": 0, "tags": null, "updated_at": 1776696583681, "version": "0.1.1"}, {"category": "developer-tools", "created_at": 1773949854239, "description": "Set up a Stellar/Soroban smart contract project with OpenZeppelin Contracts for Stellar. Use when users need to: (1) install Stellar CLI and Rust toolchain f...", "description_zh": "", "downloads": 65, "homepage": "https://clawhub.ai/samledger67-dotcom/setup-stellar-contracts", "iconUrl": null, "installs": 7, "name": "setup stellar contracts", "ownerName": "samledger67-dotcom", "score": 89041.09589041096, "slug": "setup-stellar-contracts", "source": "clawhub", "stars": 0, "tags": null, "updated_at": 1776696583650, "version": "1.0.0"}, {"category": "", "created_at": 1774905539129, "description": "Design, build, and manage multi-agent teams that turn a solo operator into a 1000-person organization. Covers team role design (CEO/PM/Engineer/Analyst/Write...", "description_zh": "", "downloads": 64, "homepage": "https://clawhub.ai/miio-jinglin/friday-multi-agent-orchestrator", "iconUrl": null, "installs": 5, "name": "Multi Agent Orchestrator", "ownerName": "miio-jinglin", "score": 86597.9381443299, "slug": "friday-multi-agent-orchestrator", "source": "clawhub", "stars": 1, "tags": ["multi-agent", "orchestration", "team"], "updated_at": 1776696170076, "version": "1.0.0"}, {"category": "", "created_at": 1774852890198, "description": "A comprehensive AI agent skill for delivering exceptional customer support. Drafts responses to customer issues with the right tone and technical accuracy, m...", "description_zh": "", "downloads": 64, "homepage": "https://clawhub.ai/agenticio/support", "iconUrl": null, "installs": 0, "name": "Support", "ownerName": "agenticio", "score": 1584.1584158415842, "slug": "support", "source": "clawhub", "stars": 0, "tags": ["customer", "helpdesk", "service", "support", "tickets"], "updated_at": 1776768849947, "version": "1.0.0"}, {"category": "", "created_at": 1774844328508, "description": "When the user wants to create videos programmatically with React using Remotion. Also use when the user mentions 'create video,' 'Remotion,' 'React video,' '...", "description_zh": "", "downloads": 64, "homepage": "https://clawhub.ai/mariokarras/abm-remotion-best-practices", "iconUrl": null, "installs": 21, "name": "Remotion Best Practices", "ownerName": "mariokarras", "score": 2550.8170585890794, "slug": "abm-remotion-best-practices", "source": "clawhub", "stars": 0, "tags": null, "updated_at": 1776764949862, "version": "1.0.0"}, {"category": "", "created_at": 1774887845760, "description": "CI/CD pipeline requirements and deployment standards. Use when (1) Setting up CI/CD pipelines, (2) Debugging CI failures, (3) Configuring deployment workflow...", "description_zh": "", "downloads": 64, "homepage": "https://clawhub.ai/urbantech/ci-cd-compliance", "iconUrl": null, "installs": 6, "name": "Ci Cd Compliance", "ownerName": "urbantech", "score": 2439.9542508577965, "slug": "ci-cd-compliance", "source": "clawhub", "stars": 0, "tags": null, "updated_at": 1776762290196, "version": "1.0.0"}, {"category": "", "created_at": 1774882958223, "description": "Performs differential gene expression analysis on RNA-seq count data using DESeq2 and outputs significant genes, volcano plot, PCA, and heatmap.", "description_zh": "", "downloads": 64, "homepage": "https://clawhub.ai/kenthompson2088/differential-gene-analysis", "iconUrl": null, "installs": 3, "name": "Differential Gene Expression Analysis (RNA-seq)", "ownerName": "kenthompson2088", "score": 5055.292259083728, "slug": "differential-gene-analysis", "source": "clawhub", "stars": 0, "tags": ["bioinformatics", "deseq2", "differential-gene", "enrichment-analysis", "rna-seq", "visualization"], "updated_at": 1776759983299, "version": "1.0.1"}, {"category": "", "created_at": 1774888323945, "description": "Analyze Git commits and GitHub issues to evaluate project completion, activity, and health, generating detailed Markdown and ASCII progress reports.", "description_zh": "", "downloads": 64, "homepage": "https://clawhub.ai/zhaog100/project-progress-tracker", "iconUrl": null, "installs": 2, "name": "Project Progress Tracker", "ownerName": "zhaog100", "score": 5063.291139240506, "slug": "project-progress-tracker", "source": "clawhub", "stars": 0, "tags": null, "updated_at": 1776759983230, "version": "1.0.2"}, {"category": "", "created_at": 1774954464592, "description": "Scan, deduplicate, and organize files in a directory by type, generating a dry-run plan before optionally moving files without deleting anything.", "description_zh": "", "downloads": 64, "homepage": "https://clawhub.ai/newageinvestments25-byte/nai-file-organizer", "iconUrl": null, "installs": 4, "name": "File Organizer", "ownerName": "newageinvestments25-byte", "score": 91428.57142857142, "slug": "nai-file-organizer", "source": "clawhub", "stars": 0, "tags": null, "updated_at": 1776759982943, "version": "1.0.0"}]}