{"page": 423, "total_pages": 522, "total": 26073, "skills": [{"category": "", "created_at": 1774913192017, "description": "Creates a traditional SEO roadmap for early-stage startups. Use when someone wants help with SEO strategy, keyword research, or organic search growth.", "description_zh": "", "downloads": 64, "homepage": "https://clawhub.ai/c0ldsmi1e/seo-plan", "iconUrl": null, "installs": 7, "name": "SEO Plan", "ownerName": "c0ldsmi1e", "score": 75294.11764705883, "slug": "seo-plan", "source": "clawhub", "stars": 0, "tags": null, "updated_at": 1776759982914, "version": "1.0.0"}, {"category": "", "created_at": 1774887893007, "description": "Analyze TikTok videos using title, screenshots, metrics, comments, and optional captions to reveal why they perform and how to adapt for strategy or ecommerce.", "description_zh": "", "downloads": 64, "homepage": "https://clawhub.ai/leooooooow/creatop-tiktok-video-analyzer", "iconUrl": null, "installs": 8, "name": "Creatop TikTok Video Analyzer", "ownerName": "leooooooow", "score": 5035.405192761605, "slug": "creatop-tiktok-video-analyzer", "source": "clawhub", "stars": 0, "tags": null, "updated_at": 1776759982783, "version": "1.0.0"}, {"category": "", "created_at": 1774818826244, "description": "Generate images using Black Forest Labs FLUX.2-pro via Azure AI Foundry. Use when asked to create, generate, or produce images, illustrations, photos, artwor...", "description_zh": "", "downloads": 64, "homepage": "https://clawhub.ai/zwcih/azure-flux-image-gen", "iconUrl": null, "installs": 1, "name": "FLUX.2-pro Image Generation", "ownerName": "zwcih", "score": 5023.547880690739, "slug": "azure-flux-image-gen", "source": "clawhub", "stars": 0, "tags": null, "updated_at": 1776759982681, "version": "1.1.0"}, {"category": "", "created_at": 1774881342630, "description": "AWS Redshift interaction skill for managing Redshift Provisioned, Redshift Serverless, and executing SQL queries via the Redshift Data API. Manage clusters,...", "description_zh": "", "downloads": 64, "homepage": "https://clawhub.ai/danjin/aws-redshift-skills", "iconUrl": null, "installs": 1, "name": "AWS Redshift Skills", "ownerName": "danjin", "score": 5063.291139240506, "slug": "aws-redshift-skills", "source": "clawhub", "stars": 0, "tags": null, "updated_at": 1776759982452, "version": "0.1.0"}, {"category": "", "created_at": 1774857365415, "description": "Use for anything related to Teambition tasks and projects. Triggers on: checking my todos, what tasks are due today or this week, create a task, update task...", "description_zh": "", "downloads": 64, "homepage": "https://clawhub.ai/qijian2026/dingtalk-teambition-project", "iconUrl": null, "installs": 5, "name": "Dingtalk Teambition Project", "ownerName": "qijian2026", "score": 2735.042735042735, "slug": "dingtalk-teambition-project", "source": "clawhub", "stars": 0, "tags": null, "updated_at": 1776759982111, "version": "0.0.1"}, {"category": "developer-tools", "created_at": 1773957197198, "description": "HubStudio OpenAPI skill for full endpoint lookup, request/response field explanation, and parameter constraint checking. Use when querying HubStudio API inte...", "description_zh": "", "downloads": 64, "homepage": "https://clawhub.ai/hubstudio-max/hubstudio", "iconUrl": null, "installs": 9, "name": "hubstudio", "ownerName": "hubstudio-max", "score": 11091.854419410745, "slug": "hubstudio", "source": "clawhub", "stars": 0, "tags": null, "updated_at": 1776755288365, "version": "1.0.0"}, {"category": "", "created_at": 1774903413156, "description": "Nmap reference tool. Use when working with nmap in devtools contexts.", "description_zh": "", "downloads": 64, "homepage": "https://clawhub.ai/bytesagain3/nmap", "iconUrl": null, "installs": 6, "name": "Nmap", "ownerName": "bytesagain3", "score": 3350.7853403141366, "slug": "nmap", "source": "clawhub", "stars": 0, "tags": null, "updated_at": 1776754016054, "version": "1.0.0"}, {"category": "", "created_at": 1774926407752, "description": "A craft-level creative writing skill for literary fiction authors. Use this skill whenever a user wants to improve, diagnose, or develop their fiction writin...", "description_zh": "", "downloads": 64, "homepage": "https://clawhub.ai/francisotieno-hub/the-storytellers-workbench", "iconUrl": null, "installs": 15, "name": "The Storyteller's Workbench", "ownerName": "francisotieno-hub", "score": 14414.414414414414, "slug": "the-storytellers-workbench", "source": "clawhub", "stars": 0, "tags": null, "updated_at": 1776751844541, "version": "1.0.0"}, {"category": "", "created_at": 1774944221889, "description": "Watermark reference — visible and invisible watermarking, steganography, copyright protection, detection. Use when implementing watermarks for images, docume...", "description_zh": "", "downloads": 64, "homepage": "https://clawhub.ai/bytesagain1/watermark", "iconUrl": null, "installs": 4, "name": "Watermark", "ownerName": "bytesagain1", "score": 100000, "slug": "watermark", "source": "clawhub", "stars": 0, "tags": null, "updated_at": 1776698444617, "version": "1.0.0"}, {"category": "developer-tools", "created_at": 1773946032032, "description": "Documents the session routing layer and authsession service in Teamgram Server, covering auth_key aggregation, IDMap routing, MainAuthWrapper, and backpressu...", "description_zh": "", "downloads": 64, "homepage": "https://clawhub.ai/zhihang9978/teamgram-session-layer", "iconUrl": null, "installs": 3, "name": "Teamgram Session Layer", "ownerName": "zhihang9978", "score": 94117.64705882352, "slug": "teamgram-session-layer", "source": "clawhub", "stars": 0, "tags": null, "updated_at": 1776696584612, "version": "1.0.0"}, {"category": "developer-tools", "created_at": 1773947539318, "description": "Self-healing doctor for OpenClaw. Monitors gateway, crons, sessions, auth, and costs. Sends Telegram alerts. Auto-restarts gateway when it goes down. Use whe...", "description_zh": "", "downloads": 64, "homepage": "https://clawhub.ai/relayplane/turleydesigns-clawdoctor", "iconUrl": null, "installs": 6, "name": "ClawDoctor", "ownerName": "relayplane", "score": 94117.64705882352, "slug": "turleydesigns-clawdoctor", "source": "clawhub", "stars": 0, "tags": null, "updated_at": 1776696584591, "version": "0.2.0"}, {"category": "content-creation", "created_at": 1773960839972, "description": "Generate talking head videos from a photo using VEED Fabric 1.0. Triggers on mentions of \"veed\", \"fabric\", or \"talking video\". Turns a headshot + audio or te...", "description_zh": "", "downloads": 64, "homepage": "https://clawhub.ai/mattdotroberts/veed-skill", "iconUrl": null, "installs": 21, "name": "Veed Fabric", "ownerName": "mattdotroberts", "score": 94117.64705882352, "slug": "veed-skill", "source": "clawhub", "stars": 0, "tags": null, "updated_at": 1776696584561, "version": "0.1.0"}, {"category": "productivity", "created_at": 1773952296188, "description": "Comprehensive consumer electronics industry factory guide for international buyers – provides detailed information about China's smartphone, wearable, audio,...", "description_zh": "", "downloads": 64, "homepage": "https://clawhub.ai/findhappy7/china-consumer-electronics-factory", "iconUrl": null, "installs": 4, "name": "China Consumer Electronics Factory", "ownerName": "findhappy7", "score": 94117.64705882352, "slug": "china-consumer-electronics-factory", "source": "clawhub", "stars": 0, "tags": null, "updated_at": 1776696584530, "version": "1.0.0"}, {"category": "developer-tools", "created_at": 1773954980854, "description": "Calculate salary breakdowns with taxes and deductions. Use when estimating take-home pay, checking withholdings, comparing deductions, analyzing components.", "description_zh": "", "downloads": 64, "homepage": "https://clawhub.ai/ckchzh/paycheck", "iconUrl": null, "installs": 7, "name": "Paycheck", "ownerName": "ckchzh", "score": 78048.78048780488, "slug": "paycheck", "source": "clawhub", "stars": 0, "tags": null, "updated_at": 1776696584412, "version": "2.0.2"}, {"category": "ai-intelligence", "created_at": 1773948202068, "description": "Rev.ai integration. Manage data, records, and automate workflows. Use when the user wants to interact with Rev.ai data.", "description_zh": "", "downloads": 64, "homepage": "https://clawhub.ai/gora050/revai", "iconUrl": null, "installs": 5, "name": "Revai", "ownerName": "gora050", "score": 78048.78048780488, "slug": "revai", "source": "clawhub", "stars": 0, "tags": null, "updated_at": 1776696584395, "version": "1.0.0"}, {"category": "content-creation", "created_at": 1773954790597, "description": "This skill provides ASMR audio relief recommendations for users experiencing headaches. It matches users to appropriate audio resources based on their gender...", "description_zh": "", "downloads": 64, "homepage": "https://clawhub.ai/hcrunner/headache-relief-audio", "iconUrl": null, "installs": 9, "name": "headache-relief-asmr", "ownerName": "hcrunner", "score": 78048.78048780488, "slug": "headache-relief-audio", "source": "clawhub", "stars": 0, "tags": null, "updated_at": 1776696584330, "version": "1.0.3"}, {"category": "", "created_at": 1774846463625, "description": "Generate competitive analysis reports and differentiation talking points based on secondary research", "description_zh": "", "downloads": 64, "homepage": "https://clawhub.ai/findhappy7/competitive-intelligence", "iconUrl": null, "installs": 2, "name": "Competitive Intelligence", "ownerName": "findhappy7", "score": 94117.64705882352, "slug": "competitive-intelligence", "source": "clawhub", "stars": 0, "tags": null, "updated_at": 1776696584290, "version": "1.0.0"}, {"category": "ai-intelligence", "created_at": 1773950841318, "description": "Perplexity Sonar search and answer generation through AIsa. Use when the task is specifically to call Perplexity Sonar, Sonar Pro, Sonar Reasoning Pro, or So...", "description_zh": "", "downloads": 64, "homepage": "https://clawhub.ai/chaimengphp/aisaclaw-perplexity-search", "iconUrl": null, "installs": 9, "name": "Perplexity Sonar Search", "ownerName": "chaimengphp", "score": 94117.64705882352, "slug": "aisaclaw-perplexity-search", "source": "clawhub", "stars": 0, "tags": null, "updated_at": 1776696584287, "version": "1.0.0"}, {"category": "content-creation", "created_at": 1773955599499, "description": "Hippo Video integration. Manage Persons, Organizations, Deals, Leads, Activities, Notes and more. Use when the user wants to interact with Hippo Video data.", "description_zh": "", "downloads": 64, "homepage": "https://clawhub.ai/membranedev/hippo-video", "iconUrl": null, "installs": 11, "name": "Hippo Video", "ownerName": "membranedev", "score": 94117.64705882352, "slug": "hippo-video", "source": "clawhub", "stars": 0, "tags": null, "updated_at": 1776696584233, "version": "1.0.0"}, {"category": "content-creation", "created_at": 1773959388376, "description": "Daily curiosity feed from AIgneous Million Whys — query \"why\" questions by topic or semantic search, delivered as quizzes, articles, or podcast scripts. Try...", "description_zh": "", "downloads": 64, "homepage": "https://clawhub.ai/lyc11776611/clawriosity", "iconUrl": null, "installs": 16, "name": "Clawriosity", "ownerName": "lyc11776611", "score": 94117.64705882352, "slug": "clawriosity", "source": "clawhub", "stars": 0, "tags": null, "updated_at": 1776696584224, "version": "1.0.0"}, {"category": "productivity", "created_at": 1773950506114, "description": "Track oven usage and cooking schedules. Use when logging bake sessions, setting cook reminders, checking inventory, reviewing stats.", "description_zh": "", "downloads": 64, "homepage": "https://clawhub.ai/bytesagain3/oven", "iconUrl": null, "installs": 4, "name": "Oven", "ownerName": "bytesagain3", "score": 94117.64705882352, "slug": "oven", "source": "clawhub", "stars": 0, "tags": null, "updated_at": 1776696584215, "version": "2.0.1"}, {"category": "", "created_at": 1774857322714, "description": "Generate and transform WeryAI videos from text, images, storyboard frames, or first-frame and last-frame guidance. Use when the user needs text-to-video, ima...", "description_zh": "", "downloads": 64, "homepage": "https://clawhub.ai/weryai-developer/weryai-video-generator", "iconUrl": null, "installs": 20, "name": "Weryai Video Generator", "ownerName": "weryai-developer", "score": 80000, "slug": "weryai-video-generator", "source": "clawhub", "stars": 0, "tags": null, "updated_at": 1776696584096, "version": "0.1.2"}, {"category": "ai-intelligence", "created_at": 1773947058272, "description": "Search, scan, and interact with the BasedAgents.ai agent registry — the public identity and reputation layer for AI agents. Look up agents, check reputation...", "description_zh": "", "downloads": 64, "homepage": "https://clawhub.ai/maxfain/basedagents", "iconUrl": null, "installs": 5, "name": "BasedAgents", "ownerName": "maxfain", "score": 80000, "slug": "basedagents", "source": "clawhub", "stars": 0, "tags": null, "updated_at": 1776696584082, "version": "1.0.1"}, {"category": "security-compliance", "created_at": 1773947311435, "description": "Audits OpenClaw memory files for injected instructions, brand bias, hidden steering, and memory poisoning patterns. Use when reviewing MEMORY.md, daily memor...", "description_zh": "", "downloads": 64, "homepage": "https://clawhub.ai/2404589803/memory-poison-auditor", "iconUrl": null, "installs": 3, "name": "Memory Poison Auditor", "ownerName": "2404589803", "score": 82051.28205128205, "slug": "memory-poison-auditor", "source": "clawhub", "stars": 0, "tags": ["audit", "memory", "security"], "updated_at": 1776696584033, "version": "0.1.0"}, {"category": "", "created_at": 1773222926810, "description": "Runs real-time safety analysis for instructions that may trigger tool execution, external calls, file edits, permission changes, destructive or irreversible...", "description_zh": "", "downloads": 64, "homepage": "https://clawhub.ai/egbertjing/modeio-guardrail", "iconUrl": null, "installs": 2, "name": "Modeio Guardrail", "ownerName": "egbertjing", "score": 82051.28205128205, "slug": "modeio-guardrail", "source": "clawhub", "stars": 0, "tags": null, "updated_at": 1776696584001, "version": "0.1.0"}, {"category": "data-analysis", "created_at": 1773958734768, "description": "Calculate how return rate affects ecommerce profit, CAC tolerance, and operational risk. Use when teams need to see how refunds and reverse logistics change...", "description_zh": "", "downloads": 64, "homepage": "https://clawhub.ai/leooooooow/return-rate-impact-calculator", "iconUrl": null, "installs": 11, "name": "Return Rate Impact Calculator", "ownerName": "leooooooow", "score": 94117.64705882352, "slug": "return-rate-impact-calculator", "source": "clawhub", "stars": 0, "tags": null, "updated_at": 1776696583823, "version": "1.0.1"}, {"category": "", "created_at": 1774847111416, "description": "FastAPI development best practices and conventions. Use when building, reviewing, or debugging FastAPI applications, REST APIs, or Pydantic models.", "description_zh": "", "downloads": 63, "homepage": "https://clawhub.ai/dapan0902/api-expert", "iconUrl": null, "installs": 7, "name": "FastAPI开发专家", "ownerName": "dapan0902", "score": 351.09228711547036, "slug": "api-expert", "source": "clawhub", "stars": 0, "tags": null, "updated_at": 1776769150060, "version": "1.0.4"}, {"category": "", "created_at": 1774885313698, "description": "AliExpress shipping template optimizer and pricing calculator agent. Batch configure shipping templates, calculate regional pricing, set up overseas warehous...", "description_zh": "", "downloads": 63, "homepage": "https://clawhub.ai/mguozhen/aliexpress-shipping-optimizer", "iconUrl": null, "installs": 11, "name": "Aliexpress Shipping Optimizer", "ownerName": "mguozhen", "score": 1803.0910131654264, "slug": "aliexpress-shipping-optimizer", "source": "clawhub", "stars": 0, "tags": null, "updated_at": 1776765325571, "version": "1.0.0"}, {"category": "", "created_at": 1774795616825, "description": "When the user wants to plan, implement, or optimize influencer marketing strategy. Also use when the user mentions \"influencer marketing,\" \"KOL,\" \"creator pa...", "description_zh": "", "downloads": 63, "homepage": "https://clawhub.ai/kostja94/influencer-marketing", "iconUrl": null, "installs": 1, "name": "influencer-marketing", "ownerName": "kostja94", "score": 2409.1778202676865, "slug": "influencer-marketing", "source": "clawhub", "stars": 0, "tags": null, "updated_at": 1776765310830, "version": "1.0.0"}, {"category": "", "created_at": 1774865069644, "description": "Configure Feishu as an OpenClaw messaging channel in 15 minutes, enabling single and group chat with event subscription and secure API integration.", "description_zh": "", "downloads": 63, "homepage": "https://clawhub.ai/yang1002378395-cmyk/openclaw-feishu-setup", "iconUrl": null, "installs": 2, "name": "Openclaw Feishu Setup", "ownerName": "yang1002378395-cmyk", "score": 4976.303317535545, "slug": "openclaw-feishu-setup", "source": "clawhub", "stars": 0, "tags": ["chinese", "feishu", "messaging"], "updated_at": 1776759983295, "version": "1.0.0"}, {"category": "communication-collaboration", "created_at": 1773960590857, "description": "Install and manage Paw - a standalone web chat frontend for OpenClaw Gateway. Use when the user wants to install Paw, update Paw, or set up a web chat interf...", "description_zh": "", "downloads": 63, "homepage": "https://clawhub.ai/oriliz/paw-chat", "iconUrl": null, "installs": 3, "name": "Paw Chat", "ownerName": "oriliz", "score": 4976.303317535545, "slug": "paw-chat", "source": "clawhub", "stars": 0, "tags": null, "updated_at": 1776759983152, "version": "1.0.6"}, {"category": "", "created_at": 1774826697408, "description": "Connect to 100+ APIs (Google Workspace, Microsoft 365, Notion, Slack, Airtable, HubSpot, etc.) with managed OAuth. Use this skill when users want to interact...", "description_zh": "", "downloads": 63, "homepage": "https://clawhub.ai/mbright4497/api-gateway-1-0-46", "iconUrl": null, "installs": 6, "name": "Api Gateway 1.0.46", "ownerName": "mbright4497", "score": 90000, "slug": "api-gateway-1-0-46", "source": "clawhub", "stars": 0, "tags": null, "updated_at": 1776759982950, "version": "1.0.0"}, {"category": "content-creation", "created_at": 1773076383189, "description": "Provides unified access to 100+ AI models for chat, image, and audio via one OpenAI-compatible API with smart routing and cost tracking.", "description_zh": "", "downloads": 63, "homepage": "https://clawhub.ai/xiaoyinqu/api-hub-gateway", "iconUrl": null, "installs": 14, "name": "API Hub Gateway", "ownerName": "xiaoyinqu", "score": 3969.754253308128, "slug": "api-hub-gateway", "source": "clawhub", "stars": 0, "tags": null, "updated_at": 1776759982842, "version": "1.0.1"}, {"category": "", "created_at": 1774881424195, "description": "Guide agents to clone GitHub repositories using git clone with SSH or HTTPS authentication, handle branches, submodules, shallow clones, and keep repos updat...", "description_zh": "", "downloads": 63, "homepage": "https://clawhub.ai/duanc-chao/clone", "iconUrl": null, "installs": 0, "name": "Clone master", "ownerName": "duanc-chao", "score": 4948.939512961508, "slug": "clone", "source": "clawhub", "stars": 0, "tags": null, "updated_at": 1776759982651, "version": "1.0.0"}, {"category": "", "created_at": 1772797506999, "description": "Tax template management, tax resolution, calculation, withholding, and 1099 compliance for ERPClaw ERP", "description_zh": "", "downloads": 63, "homepage": "https://clawhub.ai/skipzhang/erpclaw-tax", "iconUrl": null, "installs": 1, "name": "ERPClaw-Tax", "ownerName": "skipzhang", "score": 86301.3698630137, "slug": "erpclaw-tax", "source": "clawhub", "stars": 0, "tags": null, "updated_at": 1776759982610, "version": "1.0.0"}, {"category": "", "created_at": 1772797823647, "description": "Project management, tasks, milestones, and timesheets for ERPClaw", "description_zh": "", "downloads": 63, "homepage": "https://clawhub.ai/skipzhang/erpclaw-projects", "iconUrl": null, "installs": 2, "name": "ERPClaw-Projects", "ownerName": "skipzhang", "score": 88732.39436619719, "slug": "erpclaw-projects", "source": "clawhub", "stars": 0, "tags": null, "updated_at": 1776759982574, "version": "1.0.0"}, {"category": "developer-tools", "created_at": 1773074274112, "description": "AI-optimized web search via Tavily API. Returns concise, relevant results for AI agents.", "description_zh": "", "downloads": 63, "homepage": "https://clawhub.ai/frontrunnerrrr/test-web-searcher", "iconUrl": null, "installs": 5, "name": "Web Searchxxx", "ownerName": "frontrunnerrrr", "score": 4945.054945054945, "slug": "test-web-searcher", "source": "clawhub", "stars": 0, "tags": null, "updated_at": 1776759982547, "version": "1.0.8"}, {"category": "", "created_at": 1774903928156, "description": "Transforms product requirements into structured technical specifications. Auto-triggers when requirements are unclear, multiple implementation approaches exi...", "description_zh": "", "downloads": 63, "homepage": "https://clawhub.ai/wjszxli/technical-spec-design", "iconUrl": null, "installs": 2, "name": "technical-spec-design", "ownerName": "wjszxli", "score": 4984.177215189874, "slug": "technical-spec-design", "source": "clawhub", "stars": 0, "tags": null, "updated_at": 1776759982496, "version": "1.0.1"}, {"category": "", "created_at": 1774887442823, "description": "Generate realistic street-level video continuations and interpolate smooth transitions in Seoul urban scenes using a world model grounded in real city data.", "description_zh": "", "downloads": 63, "homepage": "https://clawhub.ai/adisinghstudent/seoul-world-model", "iconUrl": null, "installs": 9, "name": "seoul-world-model", "ownerName": "adisinghstudent", "score": 4972.375690607734, "slug": "seoul-world-model", "source": "clawhub", "stars": 0, "tags": null, "updated_at": 1776759982323, "version": "1.0.0"}, {"category": "", "created_at": 1774845698518, "description": "Access and summarize publicly available courses, columns, and topics from Dedao without bypassing paywalls or downloading content.", "description_zh": "", "downloads": 63, "homepage": "https://clawhub.ai/codenova58/dedao", "iconUrl": null, "installs": 5, "name": "Dedao", "ownerName": "codenova58", "score": 4787.234042553191, "slug": "dedao", "source": "clawhub", "stars": 0, "tags": null, "updated_at": 1776759982221, "version": "0.1.0"}, {"category": "", "created_at": 1774891956927, "description": "Header — continuous intelligence for agents. Subscribe to curated topics or create your own. Get synthesized briefings with executable action items from RSS,...", "description_zh": "", "downloads": 63, "homepage": "https://clawhub.ai/tameravci/self-improving-agent-header", "iconUrl": null, "installs": 19, "name": "Header - Gateway to self-improving agent", "ownerName": "tameravci", "score": 4356.846473029045, "slug": "self-improving-agent-header", "source": "clawhub", "stars": 0, "tags": null, "updated_at": 1776758482933, "version": "1.0.1"}, {"category": "", "created_at": 1774893798082, "description": "You MUST use this before any creative work - creating features, building components, adding functionality, or modifying behavior. Explores user intent, requi...", "description_zh": "", "downloads": 63, "homepage": "https://clawhub.ai/usipipo/sipbrainstorming", "iconUrl": null, "installs": 14, "name": "Brainstorming", "ownerName": "usipipo", "score": 4041.051956382297, "slug": "sipbrainstorming", "source": "clawhub", "stars": 0, "tags": null, "updated_at": 1776757582620, "version": "1.0.0"}, {"category": "", "created_at": 1774866607916, "description": "Analyze Bilibili AI-generated videos to extract/reverse-engineer prompts for imitation and replication. Extracts frames, extracts subtitles, generates detail...", "description_zh": "", "downloads": 63, "homepage": "https://clawhub.ai/jilanfang/bilibili-video-prompt-analyzer", "iconUrl": null, "installs": 15, "name": "Bilibili AI Video Prompt Analyzer", "ownerName": "jilanfang", "score": 3132.7697662854303, "slug": "bilibili-video-prompt-analyzer", "source": "clawhub", "stars": 0, "tags": null, "updated_at": 1776754388455, "version": "1.1.1"}, {"category": "", "created_at": 1774849150929, "description": "Local text-to-speech via sherpa-onnx (offline, no cloud)", "description_zh": "", "downloads": 63, "homepage": "https://clawhub.ai/andy27725/sherpa-onnx-tts-andy27725", "iconUrl": null, "installs": 1, "name": "Sherpa Onnx Tts Andy27725", "ownerName": "andy27725", "score": 63636.36363636363, "slug": "sherpa-onnx-tts-andy27725", "source": "clawhub", "stars": 0, "tags": null, "updated_at": 1776743269739, "version": "1.0.0"}, {"category": "productivity", "created_at": 1773948350325, "description": "Generate, review, and export tailored application materials.", "description_zh": "", "downloads": 63, "homepage": "https://clawhub.ai/wanghong5233/wanghong5233-offerpilot-resume-tailor", "iconUrl": null, "installs": 3, "name": "Resume Tailor", "ownerName": "wanghong5233", "score": 66315.7894736842, "slug": "wanghong5233-offerpilot-resume-tailor", "source": "clawhub", "stars": 0, "tags": null, "updated_at": 1776742483715, "version": "1.0.0"}, {"category": "", "created_at": 1774908050045, "description": "TikTok creator/influencer management, sample tracking, and fulfillment analytics agent. Manage creator relationships, track sample shipments, analyze influen...", "description_zh": "", "downloads": 63, "homepage": "https://clawhub.ai/mguozhen/tiktok-influencer-tracker", "iconUrl": null, "installs": 17, "name": "Tiktok Influencer Tracker", "ownerName": "mguozhen", "score": 67741.93548387097, "slug": "tiktok-influencer-tracker", "source": "clawhub", "stars": 0, "tags": null, "updated_at": 1776738284298, "version": "1.0.0"}, {"category": "", "created_at": 1774855825409, "description": "When the user wants to write or optimize marketing copy—headlines, CTAs, ad copy, landing page copy, email copy. Also use when the user mentions \"copywriting...", "description_zh": "", "downloads": 63, "homepage": "https://clawhub.ai/kostja94/copywriting-content", "iconUrl": null, "installs": 8, "name": "copywriting", "ownerName": "kostja94", "score": 55263.15789473685, "slug": "copywriting-content", "source": "clawhub", "stars": 0, "tags": null, "updated_at": 1776735304855, "version": "1.1.0"}, {"category": "", "created_at": 1774863410799, "description": "Visual inspection helper for VLM and OCR workflows. Use when agent needs to help a vision model see an image more clearly before re-analysis: rotate misalign...", "description_zh": "", "downloads": 63, "homepage": "https://clawhub.ai/testlbin/vlm-image-helper", "iconUrl": null, "installs": 18, "name": "Vlm Image Helper", "ownerName": "testlbin", "score": 57798.16513761468, "slug": "vlm-image-helper", "source": "clawhub", "stars": 0, "tags": null, "updated_at": 1776732883951, "version": "0.1.0"}, {"category": "", "created_at": 1774913226154, "description": "Enable Shopify superpowers for OpenClaw. Get a massive boost in knowledge about everything related to Shopify in general and Shopify development.", "description_zh": "", "downloads": 63, "homepage": "https://clawhub.ai/realm1lf/shopify-expert", "iconUrl": null, "installs": 15, "name": "Shopify Expert", "ownerName": "realm1lf", "score": 63636.36363636363, "slug": "shopify-expert", "source": "clawhub", "stars": 0, "tags": null, "updated_at": 1776709183731, "version": "1.0.0"}, {"category": "", "created_at": 1774912940162, "description": "Professional entry-level IoT engineering career roadmap platform that generates personalized learning paths based on assessment data.", "description_zh": "", "downloads": 63, "homepage": "https://clawhub.ai/krishnakumarmahadevan-cmd/iot-engineer", "iconUrl": null, "installs": 4, "name": "IOT Engineer", "ownerName": "krishnakumarmahadevan-cmd", "score": 100000, "slug": "iot-engineer", "source": "clawhub", "stars": 0, "tags": null, "updated_at": 1776696604819, "version": "1.0.0"}]}