{"page": 424, "total_pages": 522, "total": 26073, "skills": [{"category": "developer-tools", "created_at": 1773947894265, "description": "Operate Kraken public market APIs through UXC with a curated OpenAPI schema, market-first discovery, and explicit private-auth boundary notes.", "description_zh": "", "downloads": 63, "homepage": "https://clawhub.ai/jolestar/kraken-openapi-skill", "iconUrl": null, "installs": 3, "name": "Kraken OpenAPI Skill", "ownerName": "jolestar", "score": 100000, "slug": "kraken-openapi-skill", "source": "clawhub", "stars": 0, "tags": null, "updated_at": 1776696604814, "version": "1.0.0"}, {"category": "productivity", "created_at": 1773949909322, "description": "Use a lightweight spec + steering workflow for long, interruptible, multi-phase tasks that need checkpointed progress, recoverable state, and multi-session c...", "description_zh": "", "downloads": 63, "homepage": "https://clawhub.ai/whisper1952717/spec-steering-workflow", "iconUrl": null, "installs": 3, "name": "spec steering workflow", "ownerName": "whisper1952717", "score": 100000, "slug": "spec-steering-workflow", "source": "clawhub", "stars": 0, "tags": null, "updated_at": 1776696604808, "version": "1.0.0"}, {"category": "developer-tools", "created_at": 1773950792195, "description": "AI agent memory backup. Register at agentsmem.com, get an API key, then encrypt and upload memory via the API; owner manages backups on the web.", "description_zh": "", "downloads": 63, "homepage": "https://clawhub.ai/ocmuuu/agentsmem", "iconUrl": null, "installs": 6, "name": "AgentsMem", "ownerName": "ocmuuu", "score": 100000, "slug": "agentsmem", "source": "clawhub", "stars": 0, "tags": null, "updated_at": 1776696604803, "version": "1.4.0"}, {"category": "content-creation", "created_at": 1773953334190, "description": "Generate tech news digests with unified source model, quality scoring, and multi-format output. Six-source data collection from RSS feeds, Twitter/X KOLs, Gi...", "description_zh": "", "downloads": 63, "homepage": "https://clawhub.ai/asterisk622/dinstein-tech-news-digest", "iconUrl": null, "installs": 6, "name": "Dinstein Tech News Digest", "ownerName": "asterisk622", "score": 100000, "slug": "dinstein-tech-news-digest", "source": "clawhub", "stars": 0, "tags": null, "updated_at": 1776696604797, "version": "3.15.0"}, {"category": "productivity", "created_at": 1773949573714, "description": "Invoice tracker — track sent invoices, flag overdue payments, draft follow-up reminders. Weekly cron or on-demand.", "description_zh": "", "downloads": 63, "homepage": "https://clawhub.ai/ceobotson-bot/doctorclaw-invoice-tracker", "iconUrl": null, "installs": 3, "name": "DoctorClaw Invoice Tracker", "ownerName": "ceobotson-bot", "score": 100000, "slug": "doctorclaw-invoice-tracker", "source": "clawhub", "stars": 0, "tags": null, "updated_at": 1776696604793, "version": "1.0.0"}, {"category": "", "created_at": 1774945856029, "description": "Analyze cryptocurrency, stock, and forex trading charts using GPTChart.ai's AI-powered technical analysis engine. Supports basic and expert analysis modes wi...", "description_zh": "", "downloads": 63, "homepage": "https://clawhub.ai/jiasheng98/gptchart-analysis", "iconUrl": null, "installs": 9, "name": "GPTChart - Analyse Trading Charts With AI", "ownerName": "jiasheng98", "score": 100000, "slug": "gptchart-analysis", "source": "clawhub", "stars": 0, "tags": null, "updated_at": 1776696604791, "version": "1.0.0"}, {"category": "developer-tools", "created_at": 1773950648597, "description": "Fetch and paginate Twitter/X data using twitterapi.io. Use when you need to fetch one tweet, fetch a user profile, get recent tweets for a user, fetch replie...", "description_zh": "", "downloads": 63, "homepage": "https://clawhub.ai/ropl-btc/twitterapi-io-cli", "iconUrl": null, "installs": 5, "name": "twitterapi-io-cli", "ownerName": "ropl-btc", "score": 100000, "slug": "twitterapi-io-cli", "source": "clawhub", "stars": 0, "tags": null, "updated_at": 1776696604788, "version": "0.1.0"}, {"category": "", "created_at": 1774875860228, "description": "Generate or edit images using OpenAI-compatible API. Supports multi-image input, fine-tuned models, and multiple configuration sources (env vars, openclaw.js...", "description_zh": "", "downloads": 63, "homepage": "https://clawhub.ai/chenxchen/nano-banana-pro-custom", "iconUrl": null, "installs": 9, "name": "Nano Banana Pro Custom", "ownerName": "chenxchen", "score": 100000, "slug": "nano-banana-pro-custom", "source": "clawhub", "stars": 0, "tags": null, "updated_at": 1776696604780, "version": "1.0.1"}, {"category": "communication-collaboration", "created_at": 1773944480332, "description": "CompanyCam integration. Manage Organizations. Use when the user wants to interact with CompanyCam data.", "description_zh": "", "downloads": 63, "homepage": "https://clawhub.ai/gora050/companycam-integration", "iconUrl": null, "installs": 1, "name": "Companycam", "ownerName": "gora050", "score": 100000, "slug": "companycam-integration", "source": "clawhub", "stars": 0, "tags": null, "updated_at": 1776696604764, "version": "1.0.0"}, {"category": "productivity", "created_at": 1773952238419, "description": "BaseLinker integration. Manage Products, Orders, Shops, Users. Use when the user wants to interact with BaseLinker data.", "description_zh": "", "downloads": 63, "homepage": "https://clawhub.ai/membranedev/baselinker", "iconUrl": null, "installs": 4, "name": "Baselinker", "ownerName": "membranedev", "score": 100000, "slug": "baselinker", "source": "clawhub", "stars": 0, "tags": null, "updated_at": 1776696604755, "version": "1.0.0"}, {"category": "", "created_at": 1774852365406, "description": "Create beautiful visual art in .png and .pdf documents using design philosophy. You should use this skill when the user asks to create a poster, piece of art...", "description_zh": "", "downloads": 63, "homepage": "https://clawhub.ai/theo-jobs/hamster-canvas-design-pro", "iconUrl": null, "installs": 14, "name": "Canvas Design Pro", "ownerName": "theo-jobs", "score": 100000, "slug": "hamster-canvas-design-pro", "source": "clawhub", "stars": 0, "tags": null, "updated_at": 1776696604747, "version": "1.0.0"}, {"category": "security-compliance", "created_at": 1773950858301, "description": "Trust scoring for AI agents. Log transactions and submit payment proofs to build a verifiable BOB Score — a trust score (think FICO but for AI Agents) that o...", "description_zh": "", "downloads": 63, "homepage": "https://clawhub.ai/bankofbotsandy/bank-of-bots", "iconUrl": null, "installs": 0, "name": "Bank of Bots", "ownerName": "bankofbotsandy", "score": 100000, "slug": "bank-of-bots", "source": "clawhub", "stars": 0, "tags": ["bank", "banking", "bitcoin", "btc", "credit", "credit-score", "crypto", "evm", "fico", "fintech", "lending", "lightning", "non-custodial", "pagerank", "payment", "payments", "security", "solana", "trust", "trust-score", "wallet"], "updated_at": 1776696604737, "version": "1.0.0"}, {"category": "developer-tools", "created_at": 1773949777363, "description": "Manage PostHog product analytics from the terminal. Use when the user asks about PostHog analytics, feature flags, experiments, surveys, dashboards, insights...", "description_zh": "", "downloads": 63, "homepage": "https://clawhub.ai/nelsongallardo/phog-cli", "iconUrl": null, "installs": 5, "name": "Posthog CLI", "ownerName": "nelsongallardo", "score": 100000, "slug": "phog-cli", "source": "clawhub", "stars": 0, "tags": null, "updated_at": 1776696604723, "version": "1.0.0"}, {"category": "communication-collaboration", "created_at": 1773946457713, "description": "Constant Contact integration. Manage Contacts, Campaigns, Libraries. Use when the user wants to interact with Constant Contact data.", "description_zh": "", "downloads": 63, "homepage": "https://clawhub.ai/gora050/constant-contact-integration", "iconUrl": null, "installs": 1, "name": "Constant Contact", "ownerName": "gora050", "score": 100000, "slug": "constant-contact-integration", "source": "clawhub", "stars": 0, "tags": null, "updated_at": 1776696604717, "version": "1.0.0"}, {"category": "productivity", "created_at": 1773949942247, "description": "Proactive task state management. Use on EVERY task start, progress update, completion, or failure. Tracks what was requested, what's running (background proc...", "description_zh": "", "downloads": 63, "homepage": "https://clawhub.ai/sunshine-del-ux/sunshine-agent-task-tracker", "iconUrl": null, "installs": 5, "name": "Agent Task Tracker", "ownerName": "sunshine-del-ux", "score": 100000, "slug": "sunshine-agent-task-tracker", "source": "clawhub", "stars": 0, "tags": null, "updated_at": 1776696604704, "version": "1.1.1"}, {"category": "", "created_at": 1774873709065, "description": "use this when the user asks to search the web, look up recent information, check current events, gather online sources, or research a topic using tavily search.", "description_zh": "", "downloads": 63, "homepage": "https://clawhub.ai/liuxindavid/cliby-tavily-search", "iconUrl": null, "installs": 19, "name": "Cliby Tavily Search", "ownerName": "liuxindavid", "score": 100000, "slug": "cliby-tavily-search", "source": "clawhub", "stars": 0, "tags": null, "updated_at": 1776696604689, "version": "1.0.1"}, {"category": "communication-collaboration", "created_at": 1773950597862, "description": "Interact with Confluence Cloud via REST API. Use for space management, page operations (list, view, create, update, delete), content search (CQL queries), pa...", "description_zh": "", "downloads": 63, "homepage": "https://clawhub.ai/snowsand-enterprises/snowsand-confluence", "iconUrl": null, "installs": 5, "name": "Snowsand Confluence", "ownerName": "snowsand-enterprises", "score": 100000, "slug": "snowsand-confluence", "source": "clawhub", "stars": 0, "tags": null, "updated_at": 1776696604685, "version": "1.0.0"}, {"category": "ai-intelligence", "created_at": 1773953905741, "description": "Client onboarding and business diagnostic framework for AI agent deployments. Covers 4-round diagnostic process, 6 constraint categories, deployment SOP with...", "description_zh": "", "downloads": 63, "homepage": "https://clawhub.ai/samledger67-dotcom/client-onboarding-agent", "iconUrl": null, "installs": 5, "name": "Client Onboarding Agent", "ownerName": "samledger67-dotcom", "score": 92647.05882352941, "slug": "client-onboarding-agent", "source": "clawhub", "stars": 0, "tags": null, "updated_at": 1776696584615, "version": "98.0.1"}, {"category": "productivity", "created_at": 1773952575802, "description": "Log vehicle mileage, review driving trends, and export trip reports for tracking. Use when logging trips, tracking fuel economy, exporting mileage data.", "description_zh": "", "downloads": 63, "homepage": "https://clawhub.ai/ckchzh/mileage", "iconUrl": null, "installs": 6, "name": "Mileage", "ownerName": "ckchzh", "score": 92647.05882352941, "slug": "mileage", "source": "clawhub", "stars": 0, "tags": null, "updated_at": 1776696584536, "version": "2.0.1"}, {"category": "", "created_at": 1774905052581, "description": "Convert audio to SRT subtitles using OpenAI Whisper with automatic GPU acceleration for Intel XPU / NVIDIA CUDA / AMD ROCm / Apple Metal. Ideal for content c...", "description_zh": "", "downloads": 63, "homepage": "https://clawhub.ai/allanmeng/whisper-gpu-transcriber-skill", "iconUrl": null, "installs": 7, "name": "Whisper GPU Audio Transcriber", "ownerName": "allanmeng", "score": 92647.05882352941, "slug": "whisper-gpu-transcriber-skill", "source": "clawhub", "stars": 0, "tags": ["audio", "cuda", "gpu", "metal", "rocm", "subtitle", "transcription", "whisper", "xpu"], "updated_at": 1776696584467, "version": "1.0.3"}, {"category": "developer-tools", "created_at": 1773949129767, "description": "SynapseAI Merchant — AI agent payment receiving layer. Register as merchant, create wallets, generate payment links & QR codes, receive on-chain payments, an...", "description_zh": "", "downloads": 62, "homepage": "https://clawhub.ai/pandagg110/agent-to-merchant", "iconUrl": null, "installs": 5, "name": "Agent ToMerchant", "ownerName": "pandagg110", "score": 84536.0824742268, "slug": "agent-to-merchant", "source": "clawhub", "stars": 1, "tags": null, "updated_at": 1776696284024, "version": "1.0.0"}, {"category": "developer-tools", "created_at": 1773958807419, "description": "Make OpenClaw Skills observable, diagnosable, and safely improvable over time. Use this when the user wants to maintain many SKILL.md files, inspect repeated...", "description_zh": "", "downloads": 62, "homepage": "https://clawhub.ai/shuai-daidai/openclaw-skill-growth", "iconUrl": null, "installs": 9, "name": "OpenClaw Skill Growth", "ownerName": "shuai-daidai", "score": 85416.66666666666, "slug": "openclaw-skill-growth", "source": "clawhub", "stars": 1, "tags": ["maintenance", "observability", "openclaw", "self-improving", "skills"], "updated_at": 1776696283909, "version": "0.1.1"}, {"category": "", "created_at": 1776007859073, "description": "Build, maintain, query, archive, and audit a Markdown / Obsidian knowledge Wiki continuously maintained by an LLM. Use this skill to initialize a personal knowledge base; import raw materials grouped by source under source/ into wiki/; organize articles, papers, book notes, interviews, and meeting notes; maintain source pages, entity pages, concept pages, synthesis pages, comparison pages, and query archive pages; update index.md and log.md; answer questions based on the Wiki and archive answers with long-term value; check broken links, orphan pages, duplicate concepts, outdated conclusions, unlabeled contradictions, encoding corruption, and organizational disorder.", "description_zh": "", "downloads": 62, "homepage": "https://clawhub.ai/user_dc3a9e2d/llm-obsidian-wiki", "iconUrl": "https://cloudcache.tencent-cloud.com/qcloud/ui/static/other_external_resource/0c9b068f-f22e-44e2-96fe-d2b6f5b43b07.png", "installs": 3, "name": "用 LLM 构建持续积累的知识库", "ownerName": "user_dc3a9e2d", "score": 566.986739826246, "slug": "llm-obsidian-wiki", "source": "community", "stars": 0, "tags": null, "updated_at": 1776769271352, "version": "1.0.2"}, {"category": "", "created_at": 1774915569013, "description": "Deep responsive design workflow—breakpoints, content priority, touch targets, typography, performance on mobile networks, and testing on real devices. Use wh...", "description_zh": "", "downloads": 62, "homepage": "https://clawhub.ai/clawkk/mobile-responsive", "iconUrl": null, "installs": 1, "name": "Mobile Responsive", "ownerName": "clawkk", "score": 1719.8335644937588, "slug": "mobile-responsive", "source": "clawhub", "stars": 0, "tags": null, "updated_at": 1776762439770, "version": "1.0.0"}, {"category": "", "created_at": 1774843400577, "description": "Plans content creation, distribution, and lead magnets for startup content marketing. Use when someone wants help with content strategy, blogging, or content...", "description_zh": "", "downloads": 62, "homepage": "https://clawhub.ai/c0ldsmi1e/content-marketing-strategy", "iconUrl": null, "installs": 3, "name": "Content Strategy", "ownerName": "c0ldsmi1e", "score": 1705.1705170517052, "slug": "content-marketing-strategy", "source": "clawhub", "stars": 0, "tags": null, "updated_at": 1776760980145, "version": "1.0.0"}, {"category": "data-analysis", "created_at": 1772799195729, "description": "TMR Land business agent for an AI business marketplace. Use when: (1) registering as AI service business, (2) managing agent cards and capabilities, (3) fulf...", "description_zh": "", "downloads": 62, "homepage": "https://clawhub.ai/cpy1990/tmrland-business-demo", "iconUrl": null, "installs": 6, "name": "tmrland-business-demo", "ownerName": "cpy1990", "score": 4897.314375987362, "slug": "tmrland-business-demo", "source": "clawhub", "stars": 0, "tags": null, "updated_at": 1776759983295, "version": "1.0.4"}, {"category": "", "created_at": 1774811654202, "description": "Automatically discover novel, statistically validated patterns in tabular data. Find insights you'd otherwise miss, far faster and cheaper than doing it your...", "description_zh": "", "downloads": 62, "homepage": "https://clawhub.ai/jessicarumbelow/discovery-engine", "iconUrl": null, "installs": 3, "name": "Discovery", "ownerName": "jessicarumbelow", "score": 88571.42857142857, "slug": "discovery-engine", "source": "clawhub", "stars": 0, "tags": null, "updated_at": 1776759982946, "version": "0.2.85"}, {"category": "", "created_at": 1774955762016, "description": "Generate professional, customizable business documents including proposals, quotes, invoices, contracts, and letters tailored to your industry and needs.", "description_zh": "", "downloads": 62, "homepage": "https://clawhub.ai/di5cip1e/the-director-business-doc-generator", "iconUrl": null, "installs": 3, "name": "Business Document Generator", "ownerName": "di5cip1e", "score": 76543.2098765432, "slug": "the-director-business-doc-generator", "source": "clawhub", "stars": 0, "tags": null, "updated_at": 1776759982904, "version": "1.0.0"}, {"category": "", "created_at": 1774858361763, "description": "Structured long-term memory management engine with multi-role isolation, layered indexing, and strict context retrieval protocols to prevent token waste and...", "description_zh": "", "downloads": 62, "homepage": "https://clawhub.ai/wzm232803119-arch/memory-index", "iconUrl": null, "installs": 4, "name": "memory-index", "ownerName": "wzm232803119-arch", "score": 4905.06329113924, "slug": "memory-index", "source": "clawhub", "stars": 0, "tags": ["memory", "token-saver"], "updated_at": 1776759982772, "version": "1.0.0"}, {"category": "", "created_at": 1774897968331, "description": "Iteratively rewrite essays to reduce AI detection scores while preserving meaning, complexity, and natural human writing style within defined linguistic metr...", "description_zh": "", "downloads": 62, "homepage": "https://clawhub.ai/kevin0818-lxd/essay-humanize-iterator", "iconUrl": null, "installs": 5, "name": "Essay Humanize Iterator", "ownerName": "kevin0818-lxd", "score": 4905.06329113924, "slug": "essay-humanize-iterator", "source": "clawhub", "stars": 0, "tags": ["ai-detection", "corpus-linguistics", "education", "iteration", "style-editing", "writing"], "updated_at": 1776759982757, "version": "1.0.2"}, {"category": "", "created_at": 1774834028743, "description": "Incrementally fetch data from Huike/Xiaoai API and write to Feishu Bitable, supporting automatic partitioning for tables over 10,000 records.", "description_zh": "", "downloads": 62, "homepage": "https://clawhub.ai/frankieway/yuqing-sync-skill", "iconUrl": null, "installs": 5, "name": "慧科小爱舆情数据同步", "ownerName": "frankieway", "score": 17613.636363636364, "slug": "yuqing-sync-skill", "source": "clawhub", "stars": 0, "tags": null, "updated_at": 1776759982740, "version": "1.1.0"}, {"category": "", "created_at": 1774886208644, "description": "Query the balance of a blockchain address via Tokenview API, defaulting to BTC and requiring TOKENVIEW_API_KEY in the environment.", "description_zh": "", "downloads": 62, "homepage": "https://clawhub.ai/bdonglobal/tokenview-address-balance", "iconUrl": null, "installs": 1, "name": "Blockchain Balance Checker", "ownerName": "bdonglobal", "score": 4862.745098039216, "slug": "tokenview-address-balance", "source": "clawhub", "stars": 0, "tags": null, "updated_at": 1776759982447, "version": "1.0.5"}, {"category": "", "created_at": 1774945263458, "description": "Generates structured technical reports in Markdown by collecting user input and applying a style guide to a predefined template.", "description_zh": "", "downloads": 62, "homepage": "https://clawhub.ai/dapan0902/report-generator-new", "iconUrl": null, "installs": 3, "name": "技术报告生成", "ownerName": "dapan0902", "score": 4249.485949280329, "slug": "report-generator-new", "source": "clawhub", "stars": 0, "tags": null, "updated_at": 1776759982301, "version": "1.0.1"}, {"category": "", "created_at": 1774876370996, "description": "Creates conversion-focused marketing copy for webpages using proven frameworks, tailored to audience, product, and tone with clear CTAs and benefit-driven la...", "description_zh": "", "downloads": 62, "homepage": "https://clawhub.ai/amdf01-debug/sw-copywriting", "iconUrl": null, "installs": 1, "name": "Copywriting Pro", "ownerName": "amdf01-debug", "score": 2649.5726495726494, "slug": "sw-copywriting", "source": "clawhub", "stars": 0, "tags": ["bundle", "copywriting", "landing-page", "marketing"], "updated_at": 1776759982085, "version": "1.0.0"}, {"category": "productivity", "created_at": 1773958644259, "description": "Comprehensive PDF manipulation toolkit for extracting text and tables, creating new PDFs, merging/splitting documents, and handling forms. When Claude needs...", "description_zh": "", "downloads": 62, "homepage": "https://clawhub.ai/liujiang817/my-pdf", "iconUrl": null, "installs": 10, "name": "My Pdf", "ownerName": "liujiang817", "score": 4166.666666666666, "slug": "my-pdf", "source": "clawhub", "stars": 0, "tags": null, "updated_at": 1776758182353, "version": "1.0.0"}, {"category": "", "created_at": 1774889466082, "description": "Amazon deals, coupons, and promotions strategy agent. Plan Lightning Deals, Prime Exclusive Discounts, coupons, BOGO, Vine enrollment, and social media promo...", "description_zh": "", "downloads": 62, "homepage": "https://clawhub.ai/mguozhen/amazon-coupon-strategy", "iconUrl": null, "installs": 17, "name": "Amazon Coupon Strategy", "ownerName": "mguozhen", "score": 3789.7310513447433, "slug": "amazon-coupon-strategy", "source": "clawhub", "stars": 0, "tags": null, "updated_at": 1776757882599, "version": "1.0.0"}, {"category": "", "created_at": 1774920167892, "description": "Review automotive Embedded C code against MISRA C:2012 rules. Flags violations with rule numbers, ASIL classification, and provides a MISRA-compliant replace...", "description_zh": "", "downloads": 62, "homepage": "https://clawhub.ai/budhadityarano/misra-automotive-c", "iconUrl": null, "installs": 10, "name": "misra-automotive-c", "ownerName": "budhadityarano", "score": 3810.6945298094647, "slug": "misra-automotive-c", "source": "clawhub", "stars": 0, "tags": null, "updated_at": 1776757020500, "version": "1.0.0"}, {"category": "", "created_at": 1774923253379, "description": "Steam & PC Gaming Companion — full Steam Web API integration for library management, play recommendations, wishlist sale monitoring, achievement tracking, an...", "description_zh": "", "downloads": 62, "homepage": "https://clawhub.ai/eduardmirko390-crypto/steam-gaming-companion", "iconUrl": null, "installs": 5, "name": "Steam & PC Gaming Companion", "ownerName": "eduardmirko390-crypto", "score": 3246.0732984293195, "slug": "steam-gaming-companion", "source": "clawhub", "stars": 0, "tags": ["achievements", "backlog", "gaming", "pc-gaming", "steam", "wishlist"], "updated_at": 1776754388244, "version": "1.0.0"}, {"category": "developer-tools", "created_at": 1773037332990, "description": "Search the web with AI understanding. Real-time data, accurate answers. No API keys needed. $2 FREE credits to start. Pay-as-you-go pricing via SkillBoss.", "description_zh": "", "downloads": 62, "homepage": "https://clawhub.ai/xiaoyinqu/ai-search", "iconUrl": null, "installs": 5, "name": "Ai Search", "ownerName": "xiaoyinqu", "score": 64583.333333333336, "slug": "ai-search", "source": "clawhub", "stars": 0, "tags": null, "updated_at": 1776744469854, "version": "1.0.2"}, {"category": "developer-tools", "created_at": 1773956646569, "description": "Installs and manages OpenClaw mobile gateway as a system service. Invoke when users need one-command deploy, start, stop, upgrade, or uninstall.", "description_zh": "", "downloads": 62, "homepage": "https://clawhub.ai/jason141123-sys/openclaw-mobile-gateway-installer", "iconUrl": null, "installs": 5, "name": "OpenClaw Mobile Gateway Installer", "ownerName": "jason141123-sys", "score": 65263.15789473685, "slug": "openclaw-mobile-gateway-installer", "source": "clawhub", "stars": 0, "tags": ["devops", "gateway", "installer", "mobile", "openclaw", "systemd"], "updated_at": 1776741583708, "version": "1.0.3"}, {"category": "", "created_at": 1774866070587, "description": "Analyze images and search the web using MiniMax MCP tools", "description_zh": "", "downloads": 62, "homepage": "https://clawhub.ai/daowuu/minimax-vision-search", "iconUrl": null, "installs": 16, "name": "Minimax Vision Search", "ownerName": "daowuu", "score": 87323.94366197183, "slug": "minimax-vision-search", "source": "clawhub", "stars": 0, "tags": null, "updated_at": 1776735055480, "version": "1.1.2"}, {"category": "ai-intelligence", "created_at": 1773958463431, "description": "Use GLM-4.7V's multimodal grounding capability to detect and locate objects/text in images. Activate when user asks to find, locate, detect, or ground specif...", "description_zh": "", "downloads": 62, "homepage": "https://clawhub.ai/qijimrc/grounding-anything", "iconUrl": null, "installs": 9, "name": "grounding-anything", "ownerName": "qijimrc", "score": 64583.333333333336, "slug": "grounding-anything", "source": "clawhub", "stars": 0, "tags": null, "updated_at": 1776734269693, "version": "1.0.0"}, {"category": "data-analysis", "created_at": 1773956696648, "description": "Trades Polymarket prediction markets on celebrity events, viral social media moments, Elon Musk tweet counts, influencer milestones, and reality TV outcomes....", "description_zh": "", "downloads": 62, "homepage": "https://clawhub.ai/diagnostikon/polymarket-celebrity-social-trader", "iconUrl": null, "installs": 9, "name": "Celebrity & Social Media Trader", "ownerName": "diagnostikon", "score": 62626.26262626263, "slug": "polymarket-celebrity-social-trader", "source": "clawhub", "stars": 0, "tags": null, "updated_at": 1776707383716, "version": "1.0.1"}, {"category": "developer-tools", "created_at": 1773955713202, "description": "1,000,000+ Recipe and Grocery List API (v2) API skill. Use when working with 1,000,000+ Recipe and Grocery List API (v2) for collection, collections, grocery...", "description_zh": "", "downloads": 62, "homepage": "https://clawhub.ai/mickmicksh/lap-1000000-recipe-and-grocery-list-api-v2", "iconUrl": null, "installs": 6, "name": "Lap 1000000 Recipe And Grocery List Api V2", "ownerName": "mickmicksh", "score": 100000, "slug": "lap-1000000-recipe-and-grocery-list-api-v2", "source": "clawhub", "stars": 0, "tags": null, "updated_at": 1776696644597, "version": "1.0.1"}, {"category": "communication-collaboration", "created_at": 1773947039338, "description": "Acelle Mail integration. Manage Users. Use when the user wants to interact with Acelle Mail data.", "description_zh": "", "downloads": 62, "homepage": "https://clawhub.ai/gora050/acelle-mail", "iconUrl": null, "installs": 3, "name": "Acelle Mail", "ownerName": "gora050", "score": 100000, "slug": "acelle-mail", "source": "clawhub", "stars": 0, "tags": null, "updated_at": 1776696644536, "version": "1.0.0"}, {"category": "developer-tools", "created_at": 1773954335088, "description": "Operate Sui public JSON-RPC through UXC with OpenRPC-driven discovery, mainnet fullnode defaults, and read-only query plus pubsub subscription guardrails.", "description_zh": "", "downloads": 62, "homepage": "https://clawhub.ai/jolestar/sui-jsonrpc-skill", "iconUrl": null, "installs": 6, "name": "Sui JSON-RPC Skill", "ownerName": "jolestar", "score": 100000, "slug": "sui-jsonrpc-skill", "source": "clawhub", "stars": 0, "tags": null, "updated_at": 1776696644534, "version": "1.0.0"}, {"category": "productivity", "created_at": 1773945635292, "description": "Get accurate system time in various formats and timezones. Use when the user needs to know the current time, date, timestamp, or wants to convert between tim...", "description_zh": "", "downloads": 62, "homepage": "https://clawhub.ai/xiaoxianceng874-cyber/hengheng-system-time", "iconUrl": null, "installs": 1, "name": "system-time", "ownerName": "xiaoxianceng874-cyber", "score": 100000, "slug": "hengheng-system-time", "source": "clawhub", "stars": 0, "tags": null, "updated_at": 1776696644513, "version": "1.0.0"}, {"category": "", "created_at": 1774867009749, "description": "Stress-test a plan, idea, or design by interviewing the user relentlessly until reaching shared understanding. Resolves each branch of the decision tree one-...", "description_zh": "", "downloads": 62, "homepage": "https://clawhub.ai/nox-admin/nox-grill-me", "iconUrl": null, "installs": 12, "name": "Grill Me", "ownerName": "nox-admin", "score": 98412.6984126984, "slug": "nox-grill-me", "source": "clawhub", "stars": 0, "tags": null, "updated_at": 1776696644486, "version": "1.0.0"}, {"category": "productivity", "created_at": 1773948548417, "description": "Search Capacities for likely object matches and return direct capacities:// links. Use when the user wants to find, open, or locate a Capacities note, meetin...", "description_zh": "", "downloads": 62, "homepage": "https://clawhub.ai/grantgochnauer/capacities-lookup", "iconUrl": null, "installs": 4, "name": "Capacities Lookup", "ownerName": "grantgochnauer", "score": 98412.6984126984, "slug": "capacities-lookup", "source": "clawhub", "stars": 0, "tags": null, "updated_at": 1776696644481, "version": "1.0.0"}, {"category": "ai-intelligence", "created_at": 1773956254418, "description": "Stop waiting for prompts. Keep working.", "description_zh": "", "downloads": 62, "homepage": "https://clawhub.ai/lean-zhouchao/agent-autonomy-kit-bak", "iconUrl": null, "installs": 10, "name": "Agent Autonomy Kit.Bak", "ownerName": "lean-zhouchao", "score": 98412.6984126984, "slug": "agent-autonomy-kit-bak", "source": "clawhub", "stars": 0, "tags": null, "updated_at": 1776696644479, "version": "1.0.0"}]}