{"page": 425, "total_pages": 522, "total": 26073, "skills": [{"category": "productivity", "created_at": 1773953523981, "description": "Organize pantry stock, expiry dates, and shopping lists. Use when adding items, checking inventory, scheduling restocks, setting expiry reminders.", "description_zh": "", "downloads": 62, "homepage": "https://clawhub.ai/xueyetianya/pantry", "iconUrl": null, "installs": 6, "name": "Pantry", "ownerName": "xueyetianya", "score": 98412.6984126984, "slug": "pantry", "source": "clawhub", "stars": 0, "tags": null, "updated_at": 1776696644471, "version": "2.0.1"}, {"category": "content-creation", "created_at": 1773950541690, "description": "Post to Instagram, TikTok, LinkedIn, YouTube, X/Twitter, Facebook, Pinterest, Threads and Bluesky from your terminal. Create posts with AI-generated images a...", "description_zh": "", "downloads": 62, "homepage": "https://clawhub.ai/stgime/posta", "iconUrl": null, "installs": 6, "name": "Posta", "ownerName": "stgime", "score": 98412.6984126984, "slug": "posta", "source": "clawhub", "stars": 0, "tags": ["automation", "instagram", "scheduling", "social-media", "tiktok"], "updated_at": 1776696644433, "version": "1.2.2"}, {"category": "developer-tools", "created_at": 1773954056881, "description": "Common git operations as a skill (status, pull, push, branch, log)", "description_zh": "", "downloads": 62, "homepage": "https://clawhub.ai/muguozi1/muguozi1-openclaw-git-helper", "iconUrl": null, "installs": 7, "name": "Muguozi1 Openclaw Git Helper", "ownerName": "muguozi1", "score": 98412.6984126984, "slug": "muguozi1-openclaw-git-helper", "source": "clawhub", "stars": 0, "tags": null, "updated_at": 1776696644424, "version": "1.0.0"}, {"category": "productivity", "created_at": 1773947820976, "description": "Track fridge and pantry inventory with expiry reminders and grocery lists. Use when logging groceries, checking expiry dates, or building shopping lists.", "description_zh": "", "downloads": 62, "homepage": "https://clawhub.ai/bytesagain1/fridge", "iconUrl": null, "installs": 2, "name": "Fridge", "ownerName": "bytesagain1", "score": 98412.6984126984, "slug": "fridge", "source": "clawhub", "stars": 0, "tags": null, "updated_at": 1776696644422, "version": "2.0.1"}, {"category": "ai-intelligence", "created_at": 1773955052660, "description": "Captures learnings, errors, and corrections to enable continuous improvement. Use when: (1) A command or operation fails unexpectedly, (2) User corrects Clau...", "description_zh": "", "downloads": 62, "homepage": "https://clawhub.ai/trumphuang/self-improving-agent-hxh", "iconUrl": null, "installs": 6, "name": "Self Improving Agent", "ownerName": "trumphuang", "score": 98412.6984126984, "slug": "self-improving-agent-hxh", "source": "clawhub", "stars": 0, "tags": null, "updated_at": 1776696644415, "version": "1.0.0"}, {"category": "productivity", "created_at": 1773953142255, "description": "Comprehensive beauty industry factory guide for international buyers – provides detailed information about China's skincare, color cosmetics, hair care, and...", "description_zh": "", "downloads": 62, "homepage": "https://clawhub.ai/findhappy7/china-beauty-factory", "iconUrl": null, "installs": 7, "name": "China Beauty Factory", "ownerName": "findhappy7", "score": 98412.6984126984, "slug": "china-beauty-factory", "source": "clawhub", "stars": 0, "tags": null, "updated_at": 1776696644412, "version": "1.0.0"}, {"category": "productivity", "created_at": 1773945242916, "description": "Ambivo integration. Manage Organizations, Pipelines, Users, Filters, Activities, Notes and more. Use when the user wants to interact with Ambivo data.", "description_zh": "", "downloads": 62, "homepage": "https://clawhub.ai/gora050/ambivo", "iconUrl": null, "installs": 2, "name": "Ambivo", "ownerName": "gora050", "score": 98412.6984126984, "slug": "ambivo", "source": "clawhub", "stars": 0, "tags": null, "updated_at": 1776696644409, "version": "1.0.0"}, {"category": "developer-tools", "created_at": 1773952492452, "description": "LinearB integration. Manage Organizations. Use when the user wants to interact with LinearB data.", "description_zh": "", "downloads": 62, "homepage": "https://clawhub.ai/membranedev/linearb", "iconUrl": null, "installs": 5, "name": "Linearb", "ownerName": "membranedev", "score": 98412.6984126984, "slug": "linearb", "source": "clawhub", "stars": 0, "tags": null, "updated_at": 1776696644379, "version": "1.0.0"}, {"category": "ai-intelligence", "created_at": 1773954080730, "description": "Compare responses from multiple AI models for the same task and summarize differences in quality, style, speed, and likely cost. Best for model selection, ev...", "description_zh": "", "downloads": 62, "homepage": "https://clawhub.ai/xujfcn/multi-model-response-comparator", "iconUrl": null, "installs": 7, "name": "Multi-Model Response Comparator", "ownerName": "xujfcn", "score": 98412.6984126984, "slug": "multi-model-response-comparator", "source": "clawhub", "stars": 0, "tags": ["pilot"], "updated_at": 1776696644378, "version": "0.2.0"}, {"category": "developer-tools", "created_at": 1773955886802, "description": "Capture and automate macOS UI with the Peekaboo CLI.", "description_zh": "", "downloads": 62, "homepage": "https://clawhub.ai/tonydesign1999/peekaboo-1", "iconUrl": null, "installs": 11, "name": "Peekaboo 1", "ownerName": "tonydesign1999", "score": 98412.6984126984, "slug": "peekaboo-1", "source": "clawhub", "stars": 0, "tags": null, "updated_at": 1776696644376, "version": "1.0.0"}, {"category": "content-creation", "created_at": 1773955084670, "description": "Turn a target keyword or query into a search-informed content outline with likely subtopics, questions, and comparison angles. Useful for SEO briefs, blog pl...", "description_zh": "", "downloads": 62, "homepage": "https://clawhub.ai/xujfcn/serp-outline-extractor", "iconUrl": null, "installs": 8, "name": "SERP Outline Extractor", "ownerName": "xujfcn", "score": 98412.6984126984, "slug": "serp-outline-extractor", "source": "clawhub", "stars": 0, "tags": ["pilot"], "updated_at": 1776696604677, "version": "0.2.0"}, {"category": "", "created_at": 1774881146933, "description": "Find official portals, APIs, and download paths for authoritative primary data sources (governments, international organizations, research institutions, etc....", "description_zh": "", "downloads": 61, "homepage": "https://clawhub.ai/ningzimu/firstdata", "iconUrl": null, "installs": 15, "name": "firstdata", "ownerName": "ningzimu", "score": 1987.6181166503748, "slug": "firstdata", "source": "clawhub", "stars": 0, "tags": null, "updated_at": 1776769150212, "version": "0.0.2"}, {"category": "", "created_at": 1774866146704, "description": "Create distinctive, production-grade frontend interfaces with high design quality. Use this skill when the user asks to build web components, pages, or appli...", "description_zh": "", "downloads": 61, "homepage": "https://clawhub.ai/tenkus47/openpecha-frontend-skill", "iconUrl": null, "installs": 7, "name": "Openpecha frontend skill", "ownerName": "tenkus47", "score": 324.5371355607576, "slug": "openpecha-frontend-skill", "source": "clawhub", "stars": 0, "tags": null, "updated_at": 1776768371263, "version": "1.0.0"}, {"category": "data-analysis", "created_at": 1772744704275, "description": "Fullstack development toolkit with project scaffolding for Next.js/FastAPI/MERN/Django stacks and code quality analysis. Use when scaffolding new projects, analyzing codebase quality, or implementing fullstack architecture patterns.", "description_zh": "", "downloads": 61, "homepage": "https://clawhub.ai/alirezarezvani/senior-fullstack", "iconUrl": null, "installs": 11, "name": "Senior Fullstack", "ownerName": "alirezarezvani", "score": 1457.5866188769414, "slug": "senior-fullstack", "source": "clawhub", "stars": 0, "tags": null, "updated_at": 1776767350004, "version": "1.0.0"}, {"category": "", "created_at": 1774950623594, "description": "Text-to-image and image-to-image generation using MiniMax API. Generates images from text prompts (t2i) or transforms reference images (i2i) using MiniMax's...", "description_zh": "", "downloads": 61, "homepage": "https://clawhub.ai/lanhaixuan/minimax-image-generator", "iconUrl": null, "installs": 12, "name": "Minimax Image Generator", "ownerName": "lanhaixuan", "score": 914.6798620482831, "slug": "minimax-image-generator", "source": "clawhub", "stars": 0, "tags": null, "updated_at": 1776765250087, "version": "1.1.0"}, {"category": "", "created_at": 1774915736130, "description": "Research SEO keywords for any topic and generate a complete article brief with primary keyword, secondary keywords, competition analysis, article structure,...", "description_zh": "", "downloads": 61, "homepage": "https://clawhub.ai/kryzl19/seo-keyword-researcher", "iconUrl": null, "installs": 10, "name": "Seo Keyword Researcher", "ownerName": "kryzl19", "score": 2691.9682259488086, "slug": "seo-keyword-researcher", "source": "clawhub", "stars": 0, "tags": null, "updated_at": 1776764990525, "version": "1.0.0"}, {"category": "", "created_at": 1774896619796, "description": "Parse and analyze various log formats (nginx, apache, syslog, application logs). Extract key information and generate reports.", "description_zh": "", "downloads": 61, "homepage": "https://clawhub.ai/freeter226/log-parser", "iconUrl": null, "installs": 0, "name": "Log Parser", "ownerName": "freeter226", "score": 1058.292852185982, "slug": "log-parser", "source": "clawhub", "stars": 0, "tags": null, "updated_at": 1776764650323, "version": "1.0.0"}, {"category": "", "created_at": 1774912844496, "description": "Deep GraphQL schema workflow—modeling types, queries and mutations, N+1 and complexity limits, errors and pagination, federation risks, and evolution. Use wh...", "description_zh": "", "downloads": 61, "homepage": "https://clawhub.ai/codenova58/graphql-schema", "iconUrl": null, "installs": 4, "name": "Graphql Schema", "ownerName": "codenova58", "score": 1550.1905972045745, "slug": "graphql-schema", "source": "clawhub", "stars": 0, "tags": null, "updated_at": 1776761880241, "version": "1.0.0"}, {"category": "productivity", "created_at": 1773961453282, "description": "Interact with Kanboard project management via JSON-RPC API. Use when working with Kanboard tasks, projects, boards, columns, swimlanes, comments, subtasks, a...", "description_zh": "", "downloads": 61, "homepage": "https://clawhub.ai/liyang-bsy/kanboard", "iconUrl": null, "installs": 2, "name": "Kanboard", "ownerName": "liyang-bsy", "score": 16531.165311653116, "slug": "kanboard", "source": "clawhub", "stars": 0, "tags": null, "updated_at": 1776759983137, "version": "1.0.0"}, {"category": "", "created_at": 1774868900596, "description": "Manage local images by category with original and thumbnail storage, enabling fast tag, date, and keyword search through a JSON index file.", "description_zh": "", "downloads": 61, "homepage": "https://clawhub.ai/xiaobu2020/image-manager", "iconUrl": null, "installs": 3, "name": "Image Manager", "ownerName": "xiaobu2020", "score": 4791.830322073842, "slug": "image-manager", "source": "clawhub", "stars": 0, "tags": ["image", "index", "management", "storage"], "updated_at": 1776759982662, "version": "1.0.0"}, {"category": "", "created_at": 1774887622637, "description": "Query Google Analytics GA4 properties for realtime and historical user metrics, dimensions, and metadata using the official Data API.", "description_zh": "", "downloads": 61, "homepage": "https://clawhub.ai/whosc/google-analytics-ga4", "iconUrl": null, "installs": 6, "name": "Google-analytics-GA4", "ownerName": "whosc", "score": 85915.49295774648, "slug": "google-analytics-ga4", "source": "clawhub", "stars": 0, "tags": null, "updated_at": 1776759982571, "version": "1.0.0"}, {"category": "", "created_at": 1774859030773, "description": "Use Chanjing text-to-digital-person APIs to create AI portrait images, turn them into talking videos, optionally run LoRA training, poll async tasks, and exp...", "description_zh": "", "downloads": 61, "homepage": "https://clawhub.ai/binkes/chanjing-text-to-digital-person", "iconUrl": null, "installs": 5, "name": "Chanjing Text To Digital Person", "ownerName": "binkes", "score": 85915.49295774648, "slug": "chanjing-text-to-digital-person", "source": "clawhub", "stars": 0, "tags": null, "updated_at": 1776759982560, "version": "1.0.2"}, {"category": "data-analysis", "created_at": 1772763427905, "description": "Access Bittensor blockchain data via TaoStats API for subnets, validators, miners, staking, emissions, and market metrics.", "description_zh": "", "downloads": 61, "homepage": "https://clawhub.ai/vanlabs-dev/bittensor-taostats", "iconUrl": null, "installs": 8, "name": "Bittensor - taostats", "ownerName": "vanlabs-dev", "score": 4784.313725490196, "slug": "bittensor-taostats", "source": "clawhub", "stars": 0, "tags": null, "updated_at": 1776759982394, "version": "1.0.2"}, {"category": "", "created_at": 1774877206980, "description": "Beautify meta-analysis forest plots with customizable odds ratio points and confidence intervals", "description_zh": "", "downloads": 61, "homepage": "https://clawhub.ai/aipoch-ai/forest-plot-styler", "iconUrl": null, "installs": 3, "name": "Forest Plot Styler", "ownerName": "aipoch-ai", "score": 4814.522494080506, "slug": "forest-plot-styler", "source": "clawhub", "stars": 0, "tags": null, "updated_at": 1776759982353, "version": "0.1.0"}, {"category": "", "created_at": 1774872656257, "description": "Captures learnings, errors, and corrections to enable continuous improvement. Use when: (1) A command or operation fails unexpectedly, (2) User corrects Clau...", "description_zh": "", "downloads": 61, "homepage": "https://clawhub.ai/ingjosemendez/jose-self-improving-agent", "iconUrl": null, "installs": 19, "name": "Jose Self Improving Agent", "ownerName": "ingjosemendez", "score": 3966.189856957087, "slug": "jose-self-improving-agent", "source": "clawhub", "stars": 0, "tags": null, "updated_at": 1776758482562, "version": "1.0.0"}, {"category": "", "created_at": 1774906280688, "description": "Calculate Amazon shipping and fulfillment costs for FBA and FBM. Dimensional weight, storage fees, removal fees, and long-term storage cost estimation.", "description_zh": "", "downloads": 61, "homepage": "https://clawhub.ai/nexscope/amazon-shipping-calculator", "iconUrl": null, "installs": 16, "name": "Amazon Shipping Calculator", "ownerName": "nexscope", "score": 4042.4121935056332, "slug": "amazon-shipping-calculator", "source": "clawhub", "stars": 0, "tags": null, "updated_at": 1776757882508, "version": "1.0.0"}, {"category": "", "created_at": 1774915689616, "description": "Real Estate Video Maker — Create Property Listing and Virtual Tour Videos with AI. NAR data says listings with walkthrough videos sell twenty-three percent f...", "description_zh": "", "downloads": 61, "homepage": "https://clawhub.ai/udnerc/real-estate-video-maker", "iconUrl": null, "installs": 8, "name": "Real Estate Video Maker", "ownerName": "udnerc", "score": 62886.59793814433, "slug": "real-estate-video-maker", "source": "clawhub", "stars": 0, "tags": null, "updated_at": 1776737869876, "version": "1.0.1"}, {"category": "", "created_at": 1774945102461, "description": "Humanize Thai ecommerce copy to make it sound more natural, local, and less machine-written while preserving selling intent. Best for product pages, social c...", "description_zh": "", "downloads": 61, "homepage": "https://clawhub.ai/leooooooow/ecommerce-copy-humanizer-th", "iconUrl": null, "installs": 13, "name": "Ecommerce Copy Humanizer TH", "ownerName": "leooooooow", "score": 62886.59793814433, "slug": "ecommerce-copy-humanizer-th", "source": "clawhub", "stars": 0, "tags": null, "updated_at": 1776737084115, "version": "1.0.0"}, {"category": "", "created_at": 1774874933254, "description": "Enhanced Suno song creator with reference song analysis and intelligent lyric optimization. Analyzes user's reference songs to extract style, mood, and struc...", "description_zh": "", "downloads": 61, "homepage": "https://clawhub.ai/skyni8568/suno-poetry-music-creator", "iconUrl": null, "installs": 11, "name": "suno-poetry-music-creator", "ownerName": "skyni8568", "score": 53508.771929824565, "slug": "suno-poetry-music-creator", "source": "clawhub", "stars": 0, "tags": ["ai-music", "chinese-poetry", "classical-chinese", "lyrics", "music", "poetry", "rhyme", "suno"], "updated_at": 1776736669812, "version": "1.0.0"}, {"category": "", "created_at": 1774922630823, "description": "Daily emotional regulation practices and anger management techniques. Use when someone overreacts to situations, struggles with emotional flooding, has anger...", "description_zh": "", "downloads": 61, "homepage": "https://clawhub.ai/howtousehumans/emotional-regulation", "iconUrl": null, "installs": 1, "name": "Emotional Regulation", "ownerName": "howtousehumans", "score": 85915.49295774648, "slug": "emotional-regulation", "source": "clawhub", "stars": 0, "tags": null, "updated_at": 1776735169565, "version": "1.0.0"}, {"category": "", "created_at": 1774913038839, "description": "Use MiniMax Coding Plan API for real-time web search and image understanding (VLM). Based on yorch233/minimax-coding-plan-tool, patched to use api.minimax.io...", "description_zh": "", "downloads": 61, "homepage": "https://clawhub.ai/jlin53882/minimax-coding-plan-tool-patched", "iconUrl": null, "installs": 15, "name": "MiniMax Coding Plan Tool Patched", "ownerName": "jlin53882", "score": 85915.49295774648, "slug": "minimax-coding-plan-tool-patched", "source": "clawhub", "stars": 0, "tags": null, "updated_at": 1776735055493, "version": "1.0.0"}, {"category": "", "created_at": 1774890377249, "description": "Local skill for capturing learnings, errors, corrections, and patterns to enable continuous agent improvement. Processes events locally in your OpenClaw agen...", "description_zh": "", "downloads": 61, "homepage": "https://clawhub.ai/kennyzir/self-improving-agent-pro", "iconUrl": null, "installs": 12, "name": "Self Improving Agent", "ownerName": "kennyzir", "score": 62244.897959183676, "slug": "self-improving-agent-pro", "source": "clawhub", "stars": 0, "tags": null, "updated_at": 1776731383833, "version": "1.0.2"}, {"category": "", "created_at": 1774899556891, "description": "Apply the most relevant mental models (First Principles, Inversion, Second-Order Thinking, Occam's Razor, and 16 others) to any problem or decision, surfaces...", "description_zh": "", "downloads": 61, "homepage": "https://clawhub.ai/arbazex/decision-mental-models", "iconUrl": null, "installs": 6, "name": "Decision Mental Models", "ownerName": "arbazex", "score": 58653.846153846156, "slug": "decision-mental-models", "source": "clawhub", "stars": 0, "tags": null, "updated_at": 1776726304644, "version": "0.1.0"}, {"category": "", "created_at": 1774890718777, "description": "Build, debug, and integrate Mapbox apps and APIs, including Mapbox GL JS map setup, styles, sources/layers, markers/popups, geocoding, directions, static ima...", "description_zh": "", "downloads": 61, "homepage": "https://clawhub.ai/jvy/mapbox", "iconUrl": null, "installs": 3, "name": "mapbox", "ownerName": "jvy", "score": 51694.91525423728, "slug": "mapbox", "source": "clawhub", "stars": 0, "tags": null, "updated_at": 1776714883678, "version": "1.0.0"}, {"category": "", "created_at": 1774925724100, "description": "General webpage element analysis and Selenium automation control script generation. Use cases: (1) Analyze HTML element structure of any webpage (2) Automati...", "description_zh": "", "downloads": 61, "homepage": "https://clawhub.ai/icestorms/html-to-selenium", "iconUrl": null, "installs": 17, "name": "HTML-to-Selenium", "ownerName": "icestorms", "score": 62244.897959183676, "slug": "html-to-selenium", "source": "clawhub", "stars": 0, "tags": null, "updated_at": 1776708583735, "version": "1.0.2"}, {"category": "developer-tools", "created_at": 1773955974672, "description": "Rating - command-line tool for everyday use Use when you need rating.", "description_zh": "", "downloads": 61, "homepage": "https://clawhub.ai/ckchzh/rating", "iconUrl": null, "installs": 6, "name": "Rating", "ownerName": "ckchzh", "score": 61616.16161616161, "slug": "rating", "source": "clawhub", "stars": 0, "tags": null, "updated_at": 1776706183717, "version": "2.0.0"}, {"category": "productivity", "created_at": 1773952154930, "description": "Log allergens, track reactions, and chart symptom patterns over time. Use when identifying triggers, preparing reports, or setting reminders.", "description_zh": "", "downloads": 61, "homepage": "https://clawhub.ai/ckchzh/allergy", "iconUrl": null, "installs": 4, "name": "Allergy", "ownerName": "ckchzh", "score": 91044.77611940299, "slug": "allergy", "source": "clawhub", "stars": 0, "tags": null, "updated_at": 1776696770573, "version": "2.0.1"}, {"category": "developer-tools", "created_at": 1773949868845, "description": "Set up a Stylus smart contract project with OpenZeppelin Contracts for Stylus on Arbitrum. Use when users need to: (1) install Rust toolchain and WASM target...", "description_zh": "", "downloads": 61, "homepage": "https://clawhub.ai/samledger67-dotcom/setup-stylus-contracts", "iconUrl": null, "installs": 5, "name": "Setup Stylus Contracts", "ownerName": "samledger67-dotcom", "score": 100000, "slug": "setup-stylus-contracts", "source": "clawhub", "stars": 0, "tags": null, "updated_at": 1776696770382, "version": "1.0.1"}, {"category": "", "created_at": 1774854979331, "description": "Your personal love and relationship coach powered by psychology. Analyzes your attachment style, guides you through every dating stage — from breaking the ic...", "description_zh": "", "downloads": 61, "homepage": "https://clawhub.ai/imwyvern/lovecoach", "iconUrl": null, "installs": 11, "name": "Lovecoach Skill", "ownerName": "imwyvern", "score": 100000, "slug": "lovecoach", "source": "clawhub", "stars": 0, "tags": null, "updated_at": 1776696770348, "version": "1.2.0"}, {"category": "productivity", "created_at": 1773951127644, "description": "LMNT integration. Manage Leads, Persons, Organizations, Deals, Projects, Pipelines and more. Use when the user wants to interact with LMNT data.", "description_zh": "", "downloads": 61, "homepage": "https://clawhub.ai/membranedev/lmnt", "iconUrl": null, "installs": 3, "name": "Lmnt", "ownerName": "membranedev", "score": 100000, "slug": "lmnt", "source": "clawhub", "stars": 0, "tags": null, "updated_at": 1776696770201, "version": "1.0.0"}, {"category": "content-creation", "created_at": 1773952651115, "description": "Product Hunt Launch Playbook — Complete guide to launching on Product Hunt and winning #1. Proven tactics from 30x daily winner, 3x weekly winner. Covers: Pr...", "description_zh": "", "downloads": 61, "homepage": "https://clawhub.ai/gingiris/product-hunt-playbook", "iconUrl": null, "installs": 7, "name": "Product Hunt Playbook", "ownerName": "gingiris", "score": 100000, "slug": "product-hunt-playbook", "source": "clawhub", "stars": 0, "tags": null, "updated_at": 1776696769984, "version": "1.0.0"}, {"category": "developer-tools", "created_at": 1773953598255, "description": "Safely uninstall and reinstall OpenClaw while preserving user configurations, credentials, memory files, skills, and custom settings. Includes backup and res...", "description_zh": "", "downloads": 61, "homepage": "https://clawhub.ai/albertpan2018/reinstall-openclaw", "iconUrl": null, "installs": 7, "name": "reinstall-openclaw", "ownerName": "albertpan2018", "score": 100000, "slug": "reinstall-openclaw", "source": "clawhub", "stars": 0, "tags": null, "updated_at": 1776696769890, "version": "1.0.0"}, {"category": "productivity", "created_at": 1773950386932, "description": "MaintainX integration. Manage Organizations. Use when the user wants to interact with MaintainX data.", "description_zh": "", "downloads": 61, "homepage": "https://clawhub.ai/gora050/maintainx", "iconUrl": null, "installs": 4, "name": "Maintainx", "ownerName": "gora050", "score": 100000, "slug": "maintainx", "source": "clawhub", "stars": 0, "tags": null, "updated_at": 1776696769882, "version": "1.0.0"}, {"category": "communication-collaboration", "created_at": 1773952750409, "description": "Showpad integration. Manage Organizations. Use when the user wants to interact with Showpad data.", "description_zh": "", "downloads": 61, "homepage": "https://clawhub.ai/gora050/showpad", "iconUrl": null, "installs": 4, "name": "Showpad", "ownerName": "gora050", "score": 100000, "slug": "showpad", "source": "clawhub", "stars": 0, "tags": null, "updated_at": 1776696769725, "version": "1.0.0"}, {"category": "productivity", "created_at": 1773947510292, "description": "TalentLMS integration. Manage Users, Branchs, Categories, Rules, Certificates, Tags and more. Use when the user wants to interact with TalentLMS data.", "description_zh": "", "downloads": 61, "homepage": "https://clawhub.ai/membranedev/talentlms", "iconUrl": null, "installs": 2, "name": "Talentlms", "ownerName": "membranedev", "score": 100000, "slug": "talentlms", "source": "clawhub", "stars": 0, "tags": null, "updated_at": 1776696769684, "version": "1.0.0"}, {"category": "developer-tools", "created_at": 1773958088967, "description": "Automate qwen-portal OAuth authentication - solves the interactive TTY problem with tmux, provides monitoring and recovery tools.", "description_zh": "", "downloads": 61, "homepage": "https://clawhub.ai/jazzqi/qwen-portal-auth-helper", "iconUrl": null, "installs": 10, "name": "Qwen Portal Auth Helper", "ownerName": "jazzqi", "score": 100000, "slug": "qwen-portal-auth-helper", "source": "clawhub", "stars": 0, "tags": null, "updated_at": 1776696769650, "version": "1.0.0"}, {"category": "productivity", "created_at": 1773955023553, "description": "QuickBooks Online automation: chart of accounts setup, bank rule configuration, recurring transaction templates, reconciliation workflows, and journal entry...", "description_zh": "", "downloads": 61, "homepage": "https://clawhub.ai/samledger67-dotcom/qbo-automation", "iconUrl": null, "installs": 9, "name": "qbo-automation", "ownerName": "samledger67-dotcom", "score": 100000, "slug": "qbo-automation", "source": "clawhub", "stars": 0, "tags": null, "updated_at": 1776696769623, "version": "1.0.0"}, {"category": "security-compliance", "created_at": 1773955725675, "description": "1Password Connect API skill. Use when working with 1Password Connect for activity, vaults, heartbeat. Covers 15 endpoints.", "description_zh": "", "downloads": 61, "homepage": "https://clawhub.ai/mickmicksh/lap-1password-connect", "iconUrl": null, "installs": 4, "name": "Lap 1password Connect", "ownerName": "mickmicksh", "score": 100000, "slug": "lap-1password-connect", "source": "clawhub", "stars": 0, "tags": null, "updated_at": 1776696769566, "version": "1.0.1"}, {"category": "productivity", "created_at": 1773956994081, "description": "Comprehensive apparel and accessories industry factory guide for international buyers – provides detailed information about China's garment, footwear, bag, a...", "description_zh": "", "downloads": 61, "homepage": "https://clawhub.ai/findhappy7/china-apparel-and-accessories-factory", "iconUrl": null, "installs": 9, "name": "China-Apparel & Accessories Factory", "ownerName": "findhappy7", "score": 100000, "slug": "china-apparel-and-accessories-factory", "source": "clawhub", "stars": 0, "tags": null, "updated_at": 1776696769531, "version": "1.0.0"}, {"category": "productivity", "created_at": 1773957881803, "description": "Manage Apple Notes via the `memo` CLI on macOS (create, view, edit, delete, search, move, and export notes). Use when a user asks Clawdbot to add a note, lis...", "description_zh": "", "downloads": 61, "homepage": "https://clawhub.ai/npjameszheng1125-netizen/npjames-apple-notes", "iconUrl": null, "installs": 10, "name": "Npjames Apple Notes", "ownerName": "npjameszheng1125-netizen", "score": 100000, "slug": "npjames-apple-notes", "source": "clawhub", "stars": 0, "tags": null, "updated_at": 1776696655581, "version": "1.0.0"}]}