{"page": 426, "total_pages": 522, "total": 26073, "skills": [{"category": "ai-intelligence", "created_at": 1773954527755, "description": "AI agents compete in P2P sports predictions and earn real money on agentsports.io. No API key required.", "description_zh": "", "downloads": 61, "homepage": "https://clawhub.ai/elesingp2/agentsports-connect", "iconUrl": null, "installs": 7, "name": "Agentsports - AI Agents Betting Exchange", "ownerName": "elesingp2", "score": 100000, "slug": "agentsports-connect", "source": "clawhub", "stars": 0, "tags": null, "updated_at": 1776696655574, "version": "0.1.2"}, {"category": "productivity", "created_at": 1773956365307, "description": "Drip integration. Manage Persons, Organizations, Deals, Activities, Notes, Files and more. Use when the user wants to interact with Drip data.", "description_zh": "", "downloads": 61, "homepage": "https://clawhub.ai/gora050/drip", "iconUrl": null, "installs": 5, "name": "Drip", "ownerName": "gora050", "score": 100000, "slug": "drip", "source": "clawhub", "stars": 0, "tags": null, "updated_at": 1776696655562, "version": "1.0.0"}, {"category": "data-analysis", "created_at": 1773953189819, "description": "CommCare integration. Manage data, records, and automate workflows. Use when the user wants to interact with CommCare data.", "description_zh": "", "downloads": 61, "homepage": "https://clawhub.ai/gora050/commcare", "iconUrl": null, "installs": 9, "name": "Commcare", "ownerName": "gora050", "score": 98387.09677419355, "slug": "commcare", "source": "clawhub", "stars": 0, "tags": null, "updated_at": 1776696655552, "version": "1.0.0"}, {"category": "developer-tools", "created_at": 1773958923412, "description": "Comprehensive code review assistant that analyzes code quality, identifies bugs, suggests improvements, and ensures adherence to best practices. Use when rev...", "description_zh": "", "downloads": 61, "homepage": "https://clawhub.ai/guoshamin/code111", "iconUrl": null, "installs": 10, "name": "code", "ownerName": "guoshamin", "score": 98387.09677419355, "slug": "code111", "source": "clawhub", "stars": 0, "tags": null, "updated_at": 1776696655549, "version": "1.0.0"}, {"category": "ai-intelligence", "created_at": 1773956036597, "description": "Always active in every session. Learns user preferences from corrections and stated preferences, distills axioms, applies them as defaults. Makes every other...", "description_zh": "", "downloads": 61, "homepage": "https://clawhub.ai/ckpxgfnksd-max/smarty-skill", "iconUrl": null, "installs": 7, "name": "3 layer of memory system", "ownerName": "ckpxgfnksd-max", "score": 98387.09677419355, "slug": "smarty-skill", "source": "clawhub", "stars": 0, "tags": null, "updated_at": 1776696655543, "version": "0.1.0"}, {"category": "data-analysis", "created_at": 1773957088682, "description": "Real-time streaming crypto token feed for charting with 1-second OHLC ticks and USD pricing across Arbitrum, Base, Matic, Ethereum, Solana, Binance Smart Cha...", "description_zh": "", "downloads": 61, "homepage": "https://clawhub.ai/divyn/crypto-chart-usd", "iconUrl": null, "installs": 11, "name": "Crypto charting with USD pricing (1s)", "ownerName": "divyn", "score": 98387.09677419355, "slug": "crypto-chart-usd", "source": "clawhub", "stars": 0, "tags": null, "updated_at": 1776696655540, "version": "1.0.2"}, {"category": "", "created_at": 1774881682089, "description": "Goal setting reference — SMART goals, OKRs, habit formation, accountability systems. Use when setting personal or professional goals, designing habit systems...", "description_zh": "", "downloads": 61, "homepage": "https://clawhub.ai/ckchzh/goal", "iconUrl": null, "installs": 1, "name": "Goal", "ownerName": "ckchzh", "score": 98387.09677419355, "slug": "goal", "source": "clawhub", "stars": 0, "tags": null, "updated_at": 1776696655538, "version": "1.0.0"}, {"category": "productivity", "created_at": 1773948981758, "description": "Your personal Tire assistant. Use when you need tire.", "description_zh": "", "downloads": 61, "homepage": "https://clawhub.ai/bytesagain3/tire", "iconUrl": null, "installs": 3, "name": "Tire", "ownerName": "bytesagain3", "score": 98387.09677419355, "slug": "tire", "source": "clawhub", "stars": 0, "tags": null, "updated_at": 1776696655536, "version": "2.0.1"}, {"category": "ai-intelligence", "created_at": 1773951516612, "description": "Your tool recommendations are only as good as your data. Training data is months old — tools get abandoned, new ones emerge, and you can't tell the differenc...", "description_zh": "", "downloads": 61, "homepage": "https://clawhub.ai/superlowburn/agentrank", "iconUrl": null, "installs": 6, "name": "AgentRank", "ownerName": "superlowburn", "score": 98387.09677419355, "slug": "agentrank", "source": "clawhub", "stars": 0, "tags": null, "updated_at": 1776696655508, "version": "1.3.0"}, {"category": "productivity", "created_at": 1773951641503, "description": "Query and maintain Alex's local friends database stored in a private SQLite file under the OpenClaw workspace. Use when looking up a friend, finding phone/em...", "description_zh": "", "downloads": 61, "homepage": "https://clawhub.ai/alexuser/friends-db", "iconUrl": null, "installs": 4, "name": "Friends DB", "ownerName": "alexuser", "score": 98387.09677419355, "slug": "friends-db", "source": "clawhub", "stars": 0, "tags": null, "updated_at": 1776696655494, "version": "0.2.0"}, {"category": "", "created_at": 1774863508401, "description": "Tiered memory system for OpenClaw agents. Gives agents instant context on startup with a 4-line state snapshot (L0) and 7-day rolling context (L1). Eliminate...", "description_zh": "", "downloads": 61, "homepage": "https://clawhub.ai/dirtyrootsstudio/agent-memory-tiers", "iconUrl": null, "installs": 20, "name": "Agent Memory Tiers", "ownerName": "dirtyrootsstudio", "score": 98387.09677419355, "slug": "agent-memory-tiers", "source": "clawhub", "stars": 0, "tags": null, "updated_at": 1776696644591, "version": "1.0.0"}, {"category": "", "created_at": 1774862317086, "description": "Convert between IUPAC names, SMILES strings, and molecular formulas for chemical compounds. Supports structure validation, identifier interconversion, and ch...", "description_zh": "", "downloads": 61, "homepage": "https://clawhub.ai/aipoch-ai/chemical-structure-converter", "iconUrl": null, "installs": 13, "name": "Chemical Structure Converter", "ownerName": "aipoch-ai", "score": 98387.09677419355, "slug": "chemical-structure-converter", "source": "clawhub", "stars": 0, "tags": null, "updated_at": 1776696644499, "version": "0.1.0"}, {"category": "ai-intelligence", "created_at": 1773960805862, "description": "AI digital twin cloning skill. Re:live — chat again with someone you love. Input chat logs, images, audio, and other materials to replicate a person's person...", "description_zh": "", "downloads": 61, "homepage": "https://clawhub.ai/joonaskahnwald/relive", "iconUrl": null, "installs": 12, "name": "Relive", "ownerName": "joonaskahnwald", "score": 96825.39682539682, "slug": "relive", "source": "clawhub", "stars": 0, "tags": null, "updated_at": 1776696644429, "version": "0.1.0"}, {"category": "", "created_at": 1774867248895, "description": "Conduct a comprehensive SWOT analysis to audit organizational position. Use when assessing strategic fit, evaluating competitive position, or informing strat...", "description_zh": "", "downloads": 60, "homepage": "https://clawhub.ai/linuszz/swot-analysis", "iconUrl": null, "installs": 3, "name": "Swot Analysis", "ownerName": "linuszz", "score": 789.1621728265158, "slug": "swot-analysis", "source": "clawhub", "stars": 0, "tags": null, "updated_at": 1776762315116, "version": "1.0.0"}, {"category": "", "created_at": 1774847267763, "description": "Monitor Bank of China FX rates and manage reusable GBP/HKD/JPY alert workflows. Use when the task involves checking current BOC exchange rates, comparing the...", "description_zh": "", "downloads": 60, "homepage": "https://clawhub.ai/xiehuapeng/fx-monitor", "iconUrl": null, "installs": 4, "name": "FX Monitor", "ownerName": "xiehuapeng", "score": 28169.014084507042, "slug": "fx-monitor", "source": "clawhub", "stars": 0, "tags": null, "updated_at": 1776759983190, "version": "0.1.1"}, {"category": "", "created_at": 1774858878419, "description": "Provides structured information from Anjuke's public pages including property listings, agent rules, services, and help documentation.", "description_zh": "", "downloads": 60, "homepage": "https://clawhub.ai/mikeclaw007/anjuke", "iconUrl": null, "installs": 4, "name": "Anjuke", "ownerName": "mikeclaw007", "score": 85714.28571428571, "slug": "anjuke", "source": "clawhub", "stars": 0, "tags": null, "updated_at": 1776759982967, "version": "0.1.0"}, {"category": "", "created_at": 1774923696612, "description": "Baidu Intelligent Cloud Speech Synthesis (TTS), supporting multi-role dialogue audio generation, SSML/segment-merge dual modes, speech rate/pitch adjustment.", "description_zh": "", "downloads": 60, "homepage": "https://clawhub.ai/guoxh/baidu-speech-synthesis", "iconUrl": null, "installs": 2, "name": "Baidu Speech Synthesis", "ownerName": "guoxh", "score": 85714.28571428571, "slug": "baidu-speech-synthesis", "source": "clawhub", "stars": 0, "tags": null, "updated_at": 1776759982953, "version": "1.2.2"}, {"category": "", "created_at": 1774854306608, "description": "Interactive interface for the text adventure game Endless Downstairs, providing game state management and event selection handling; use when users want to pl...", "description_zh": "", "downloads": 60, "homepage": "https://clawhub.ai/gsc578045031-cloud/endless-downstairs", "iconUrl": null, "installs": 1, "name": "Game - Endless Downstairs", "ownerName": "gsc578045031-cloud", "score": 74074.07407407407, "slug": "endless-downstairs", "source": "clawhub", "stars": 0, "tags": null, "updated_at": 1776759982900, "version": "1.0.3"}, {"category": "", "created_at": 1774916667644, "description": "Diseña e implementa interfaces modernas, limpias y coherentes con design system, jerarquía clara, componentes reutilizables y enfoque mobile-first para apps...", "description_zh": "", "downloads": 60, "homepage": "https://clawhub.ai/minthymed-sh/frontend-ui-system", "iconUrl": null, "installs": 3, "name": "frontend-ui-system", "ownerName": "minthymed-sh", "score": 74074.07407407407, "slug": "frontend-ui-system", "source": "clawhub", "stars": 0, "tags": ["design-system", "frontend", "mobile", "ui", "web"], "updated_at": 1776759982895, "version": "1.0.0"}, {"category": "", "created_at": 1774901969726, "description": "Extracts and analyzes core contradictions and biases from multiple sources, producing structured contradiction reports with primary and secondary conflict in...", "description_zh": "", "downloads": 60, "homepage": "https://clawhub.ai/uynewnas/contradiction-analyzer", "iconUrl": null, "installs": 2, "name": "contradiction-analyzer", "ownerName": "uynewnas", "score": 74074.07407407407, "slug": "contradiction-analyzer", "source": "clawhub", "stars": 0, "tags": null, "updated_at": 1776759982890, "version": "1.0.1"}, {"category": "", "created_at": 1774846520463, "description": "Fetch and extract structured content from JS-rendered web pages, including main text, metadata, and key domain-specific metrics, without paid APIs.", "description_zh": "", "downloads": 60, "homepage": "https://clawhub.ai/xueylee-dotcom/deep-web-fetcher", "iconUrl": null, "installs": 3, "name": "Deep Web Fetcher", "ownerName": "xueylee-dotcom", "score": 4728.132387706855, "slug": "deep-web-fetcher", "source": "clawhub", "stars": 0, "tags": ["fetch", "research", "scrape", "web"], "updated_at": 1776759982726, "version": "1.0.0"}, {"category": "", "created_at": 1774923756761, "description": "Automates browser tasks end-to-end on approved domains with minimal intervention, escalating only for security, legal, payment, or login issues.", "description_zh": "", "downloads": 60, "homepage": "https://clawhub.ai/forevercrab321-svg/browser-ops-high-autonomy", "iconUrl": null, "installs": 5, "name": "Browser Ops High Autonomy", "ownerName": "forevercrab321-svg", "score": 4728.132387706855, "slug": "browser-ops-high-autonomy", "source": "clawhub", "stars": 0, "tags": null, "updated_at": 1776759982718, "version": "1.0.0"}, {"category": "", "created_at": 1774849531464, "description": "Retrieves and summarizes public news and trending topics from Caixin's open channels using keyword search, channel stats, and topic collections.", "description_zh": "", "downloads": 60, "homepage": "https://clawhub.ai/codenova58/caixin", "iconUrl": null, "installs": 4, "name": "Caixin", "ownerName": "codenova58", "score": 4709.576138147567, "slug": "caixin", "source": "clawhub", "stars": 0, "tags": null, "updated_at": 1776759982696, "version": "0.1.0"}, {"category": "ai-intelligence", "created_at": 1772797500507, "description": "External integrations for ERPClaw — Plaid bank sync, Stripe payments, S3 cloud backups", "description_zh": "", "downloads": 60, "homepage": "https://clawhub.ai/mailnike/erpclaw-integrations", "iconUrl": null, "installs": 4, "name": "Erpclaw Integrations", "ownerName": "mailnike", "score": 4207.57363253857, "slug": "erpclaw-integrations", "source": "clawhub", "stars": 0, "tags": null, "updated_at": 1776759982641, "version": "2.1.0"}, {"category": "", "created_at": 1774906478406, "description": "Provide production-tested SQL patterns for designing DWD/DWS/ADS data warehouse layers, including dimension explosion with ALL, multi-period roll-ups, snapsh...", "description_zh": "", "downloads": 60, "homepage": "https://clawhub.ai/fang-zeqiang/dwd-dws-ads-warehouse-patterns", "iconUrl": null, "installs": 1, "name": "DWD/DWS/ADS Data Warehouse Patterns", "ownerName": "fang-zeqiang", "score": 4207.57363253857, "slug": "dwd-dws-ads-warehouse-patterns", "source": "clawhub", "stars": 0, "tags": null, "updated_at": 1776759982628, "version": "1.0.0"}, {"category": "", "created_at": 1774900213070, "description": "Search the web using TencentCloud Web Search API (WSA). Prioritize using it when you need to retrieve network information.", "description_zh": "", "downloads": 60, "homepage": "https://clawhub.ai/xyy8086/search-test", "iconUrl": null, "installs": 7, "name": "Tencent Web Search Test", "ownerName": "xyy8086", "score": 4705.882352941177, "slug": "search-test", "source": "clawhub", "stars": 0, "tags": null, "updated_at": 1776759982447, "version": "1.0.2"}, {"category": "", "created_at": 1772798930056, "description": "Support issues, SLAs, warranty claims, and maintenance scheduling for ERPClaw", "description_zh": "", "downloads": 60, "homepage": "https://clawhub.ai/skipzhang/erpclaw-support", "iconUrl": null, "installs": 1, "name": "ERPClaw-Support", "ownerName": "skipzhang", "score": 4735.59589581689, "slug": "erpclaw-support", "source": "clawhub", "stars": 0, "tags": null, "updated_at": 1776759982338, "version": "1.0.0"}, {"category": "", "created_at": 1774817205443, "description": "Opencode automates website creation, project analysis, script execution, file management, server preview, and code generation tasks efficiently.", "description_zh": "", "downloads": 60, "homepage": "https://clawhub.ai/linshuikeji/opencode-skills", "iconUrl": null, "installs": 6, "name": "opencode", "ownerName": "linshuikeji", "score": 4559.270516717325, "slug": "opencode-skills", "source": "clawhub", "stars": 0, "tags": null, "updated_at": 1776759982223, "version": "1.0.0"}, {"category": "", "created_at": 1774925041077, "description": "use chanjing avatar api to create lip-sync videos by uploading source media, creating avatar tasks, and polling task status. this skill reads app_id and secr...", "description_zh": "", "downloads": 60, "homepage": "https://clawhub.ai/zuoyuting214/zyt-avatar", "iconUrl": null, "installs": 7, "name": "Zyt avatar", "ownerName": "zuoyuting214", "score": 4728.132387706855, "slug": "zyt-avatar", "source": "clawhub", "stars": 0, "tags": null, "updated_at": 1776759982190, "version": "0.2.0"}, {"category": "", "created_at": 1774919250955, "description": "Captures learnings, errors, and corrections to enable continuous improvement. Use when: (1) A command or operation fails unexpectedly, (2) User corrects Clau...", "description_zh": "", "downloads": 60, "homepage": "https://clawhub.ai/1215656/1215656-self-improving-agent-3-0-6", "iconUrl": null, "installs": 18, "name": "1215656 Self Improving Agent@3.0.6", "ownerName": "1215656", "score": 4149.377593360996, "slug": "1215656-self-improving-agent-3-0-6", "source": "clawhub", "stars": 0, "tags": null, "updated_at": 1776758483003, "version": "1.0.0"}, {"category": "", "created_at": 1774894299604, "description": "Amazon review management and response agent. Write professional responses to negative reviews, analyze review patterns to find product improvements, build co...", "description_zh": "", "downloads": 60, "homepage": "https://clawhub.ai/mguozhen/amazon-review-management", "iconUrl": null, "installs": 17, "name": "Amazon Review Management", "ownerName": "mguozhen", "score": 3667.4816625916874, "slug": "amazon-review-management", "source": "clawhub", "stars": 0, "tags": null, "updated_at": 1776757882564, "version": "1.0.0"}, {"category": "", "created_at": 1774900727092, "description": "CDR Platform integration. Manage data, records, and automate workflows. Use when the user wants to interact with CDR Platform data.", "description_zh": "", "downloads": 60, "homepage": "https://clawhub.ai/gora050/cdr-platform", "iconUrl": null, "installs": 11, "name": "Cdr Platform", "ownerName": "gora050", "score": 3521.1267605633802, "slug": "cdr-platform", "source": "clawhub", "stars": 0, "tags": null, "updated_at": 1776755888641, "version": "1.0.0"}, {"category": "", "created_at": 1774916321736, "description": "Use this skill when the user wants to create visualizations (charts, dashboards, diagrams, Gantt, PPT), analyze data (Excel/CSV upload, cross-file analysis,...", "description_zh": "", "downloads": 60, "homepage": "https://clawhub.ai/chartgen-ai/chart-ai", "iconUrl": null, "installs": 7, "name": "Chart AI", "ownerName": "chartgen-ai", "score": 10398.613518197573, "slug": "chart-ai", "source": "clawhub", "stars": 0, "tags": null, "updated_at": 1776755288372, "version": "1.0.0"}, {"category": "", "created_at": 1774848789124, "description": "Convert documents and files to Markdown using markitdown. Use when converting PDF, Word (.docx), PowerPoint (.pptx), Excel (.xlsx, .xls), HTML, CSV, JSON, XM...", "description_zh": "", "downloads": 60, "homepage": "https://clawhub.ai/nicenasa/hami-markdown-converter", "iconUrl": null, "installs": 9, "name": "Markdown Converter", "ownerName": "nicenasa", "score": 21052.631578947367, "slug": "hami-markdown-converter", "source": "clawhub", "stars": 0, "tags": null, "updated_at": 1776748844443, "version": "1.0.0"}, {"category": "security-compliance", "created_at": 1773958036573, "description": "Trades Polymarket prediction markets on major cyberattacks, ransomware incidents, data breaches, zero-day exploits, and national cybersecurity legislation. E...", "description_zh": "", "downloads": 60, "homepage": "https://clawhub.ai/diagnostikon/polymarket-cybersecurity-trader", "iconUrl": null, "installs": 5, "name": "Cybersecurity & Hacking Events Trader", "ownerName": "diagnostikon", "score": 64516.12903225806, "slug": "polymarket-cybersecurity-trader", "source": "clawhub", "stars": 0, "tags": null, "updated_at": 1776745369865, "version": "1.0.1"}, {"category": "data-analysis", "created_at": 1773958103039, "description": "Evaluate ad ROAS against ecommerce margin reality, not just attributed revenue. Use when teams need a fast scale/hold/cut decision on paid traffic.", "description_zh": "", "downloads": 60, "homepage": "https://clawhub.ai/leooooooow/roas-calculator", "iconUrl": null, "installs": 7, "name": "Roas Calculator", "ownerName": "leooooooow", "score": 62500, "slug": "roas-calculator", "source": "clawhub", "stars": 0, "tags": null, "updated_at": 1776744371999, "version": "1.0.1"}, {"category": "", "created_at": 1774910767654, "description": "Troubleshoot Golang programs systematically - find and fix the root cause. Use when encountering bugs, crashes, deadlocks, or unexpected behavior in Go code....", "description_zh": "", "downloads": 60, "homepage": "https://clawhub.ai/samber/golang-troubleshooting", "iconUrl": null, "installs": 3, "name": "Golang Troubleshooting", "ownerName": "samber", "score": 60606.06060606061, "slug": "golang-troubleshooting", "source": "clawhub", "stars": 0, "tags": null, "updated_at": 1776743444468, "version": "0.1.0"}, {"category": "", "created_at": 1774949568811, "description": "Reviews and rewrites product UI copy (error messages, buttons, forms, dialogs) to be user-friendly, actionable, and concise. Use when writing or reviewing us...", "description_zh": "", "downloads": 60, "homepage": "https://clawhub.ai/qmisky/product-copywriting", "iconUrl": null, "installs": 11, "name": "产品文案编写 skill", "ownerName": "qmisky", "score": 61224.489795918365, "slug": "product-copywriting", "source": "clawhub", "stars": 0, "tags": null, "updated_at": 1776742669547, "version": "1.0.0"}, {"category": "", "created_at": 1774836668155, "description": "Humanize Vietnamese ecommerce copy to reduce robotic AI phrasing while keeping the message persuasive and platform-appropriate. Best for product pages, ad co...", "description_zh": "", "downloads": 60, "homepage": "https://clawhub.ai/leooooooow/ecommerce-copy-humanizer-vn", "iconUrl": null, "installs": 12, "name": "Ecommerce Copy Humanizer VN", "ownerName": "leooooooow", "score": 65217.391304347824, "slug": "ecommerce-copy-humanizer-vn", "source": "clawhub", "stars": 0, "tags": null, "updated_at": 1776737084339, "version": "1.0.0"}, {"category": "", "created_at": 1774836584075, "description": "Reference tool for devtools — covers intro, quickstart, patterns and more. Quick lookup for Devops Journey concepts, best practices, and implementation patte...", "description_zh": "", "downloads": 60, "homepage": "https://clawhub.ai/bytesagain1/devops-journey", "iconUrl": null, "installs": 0, "name": "Devops Journey", "ownerName": "bytesagain1", "score": 55045.87155963303, "slug": "devops-journey", "source": "clawhub", "stars": 0, "tags": null, "updated_at": 1776733544361, "version": "2.0.4"}, {"category": "content-creation", "created_at": 1772763277900, "description": "Use when generating visual assets with Bria.ai - product photos, hero images, icons, backgrounds. Includes batch generation (multiple images concurrently), pipeline workflows (generate → edit → remove background), and parallel API patterns. Use for websites, presentations, e-commerce catalogs, or any task needing multiple AI-generated images.", "description_zh": "", "downloads": 60, "homepage": "https://clawhub.ai/galbria/bria-ai-client", "iconUrl": null, "installs": 20, "name": "image generation and editing", "ownerName": "galbria", "score": 89552.23880597015, "slug": "bria-ai-client", "source": "clawhub", "stars": 0, "tags": null, "updated_at": 1776696770558, "version": "0.1.0"}, {"category": "communication-collaboration", "created_at": 1773951963658, "description": "QuickMail.io integration. Manage Users, Organizations, Files, Notes, Activities. Use when the user wants to interact with QuickMail.io data.", "description_zh": "", "downloads": 60, "homepage": "https://clawhub.ai/gora050/quickmailio", "iconUrl": null, "installs": 3, "name": "Quickmailio", "ownerName": "gora050", "score": 89552.23880597015, "slug": "quickmailio", "source": "clawhub", "stars": 0, "tags": null, "updated_at": 1776696770531, "version": "1.0.0"}, {"category": "data-analysis", "created_at": 1773951778960, "description": "Use this skill to analyze PDFs with a remote MoDora HTTP service. This skill requires a user-provided settings.json and sends the user's model endpoint and A...", "description_zh": "", "downloads": 60, "homepage": "https://clawhub.ai/wu-uk/modora-http", "iconUrl": null, "installs": 7, "name": "MoDora HTTP Skill", "ownerName": "wu-uk", "score": 98360.65573770492, "slug": "modora-http", "source": "clawhub", "stars": 0, "tags": null, "updated_at": 1776696770461, "version": "0.1.1"}, {"category": "content-creation", "created_at": 1773956499943, "description": "LifterLMS integration. Manage Courses. Use when the user wants to interact with LifterLMS data.", "description_zh": "", "downloads": 60, "homepage": "https://clawhub.ai/gora050/lifterlms", "iconUrl": null, "installs": 13, "name": "Lifterlms", "ownerName": "gora050", "score": 98360.65573770492, "slug": "lifterlms", "source": "clawhub", "stars": 0, "tags": null, "updated_at": 1776696770440, "version": "1.0.0"}, {"category": "", "created_at": 1774910736518, "description": "A skill that uses GLM-V native grounding capabilities for coordinate conversion, bounding-box visualization, and more. GLM-V native grounding can locate any...", "description_zh": "", "downloads": 60, "homepage": "https://clawhub.ai/jaredforreal/glmv-grounding", "iconUrl": null, "installs": 13, "name": "GLM-V-Grounding", "ownerName": "jaredforreal", "score": 98360.65573770492, "slug": "glmv-grounding", "source": "clawhub", "stars": 0, "tags": null, "updated_at": 1776696770439, "version": "1.0.3"}, {"category": "data-analysis", "created_at": 1773952015188, "description": "Install via extraDirs (not clawhub). Never auto-add items: only add when user explicitly asks; user defines what to add. Scripts: create-dataset.sh, add-to-d...", "description_zh": "", "downloads": 60, "homepage": "https://clawhub.ai/smartsaas/smartsaas-ai", "iconUrl": null, "installs": 6, "name": "SmartSaaS", "ownerName": "smartsaas", "score": 98360.65573770492, "slug": "smartsaas-ai", "source": "clawhub", "stars": 0, "tags": null, "updated_at": 1776696770380, "version": "1.0.0"}, {"category": "", "created_at": 1774904895415, "description": "Deep SQL performance workflow—symptom framing, execution plans, indexing strategy, query rewrite, locking/transaction behavior, statistics, partitioning, and...", "description_zh": "", "downloads": 60, "homepage": "https://clawhub.ai/codekungfu/sql-optimization", "iconUrl": null, "installs": 7, "name": "Sql Optimization", "ownerName": "codekungfu", "score": 98360.65573770492, "slug": "sql-optimization", "source": "clawhub", "stars": 0, "tags": null, "updated_at": 1776696770363, "version": "1.0.0"}, {"category": "productivity", "created_at": 1773959623021, "description": "A focused personal finance tool built for Pension. Log entries, review trends, and export reports — all locally.", "description_zh": "", "downloads": 60, "homepage": "https://clawhub.ai/bytesagain1/pension", "iconUrl": null, "installs": 6, "name": "Pension", "ownerName": "bytesagain1", "score": 98360.65573770492, "slug": "pension", "source": "clawhub", "stars": 0, "tags": null, "updated_at": 1776696770248, "version": "2.0.0"}, {"category": "", "created_at": 1774872171503, "description": "When the user wants to audit, review, or diagnose SEO issues on their site. Also use when the user mentions \"SEO audit,\" \"technical SEO,\" \"why am I not ranki...", "description_zh": "", "downloads": 60, "homepage": "https://clawhub.ai/mariokarras/abm-seo-audit", "iconUrl": null, "installs": 11, "name": "Seo Audit", "ownerName": "mariokarras", "score": 98360.65573770492, "slug": "abm-seo-audit", "source": "clawhub", "stars": 0, "tags": null, "updated_at": 1776696770160, "version": "1.0.0"}, {"category": "developer-tools", "created_at": 1773951111624, "description": "Operate KuCoin public exchange market APIs through UXC with a curated OpenAPI schema, market-first discovery, and explicit private-auth boundary notes.", "description_zh": "", "downloads": 60, "homepage": "https://clawhub.ai/jolestar/kucoin-openapi-skill", "iconUrl": null, "installs": 7, "name": "KuCoin OpenAPI Skill", "ownerName": "jolestar", "score": 98360.65573770492, "slug": "kucoin-openapi-skill", "source": "clawhub", "stars": 0, "tags": null, "updated_at": 1776696770023, "version": "1.0.0"}]}