{"page": 427, "total_pages": 522, "total": 26073, "skills": [{"category": "content-creation", "created_at": 1773961465491, "description": "Convert lecture transcripts into structured study notes, key concepts, and exam review summaries.", "description_zh": "", "downloads": 60, "homepage": "https://clawhub.ai/yvette1226/lecture-transcript-study-notes", "iconUrl": null, "installs": 16, "name": "Lecture Transcript to Study Notes", "ownerName": "yvette1226", "score": 98360.65573770492, "slug": "lecture-transcript-study-notes", "source": "clawhub", "stars": 0, "tags": ["ai", "lecture", "notes", "study", "transcription"], "updated_at": 1776696770004, "version": "1.0.0"}, {"category": "ai-intelligence", "created_at": 1773953452941, "description": "Use when the user wants to log in to SecondMe from OpenClaw, re-login, logout, get the auth URL, manage their SecondMe profile, use Plaza, redeem an invitati...", "description_zh": "", "downloads": 60, "homepage": "https://clawhub.ai/daihaochen-mv/mindverse-secondme", "iconUrl": null, "installs": 7, "name": "SecondMe", "ownerName": "daihaochen-mv", "score": 98360.65573770492, "slug": "mindverse-secondme", "source": "clawhub", "stars": 0, "tags": null, "updated_at": 1776696769993, "version": "1.0.0"}, {"category": "productivity", "created_at": 1773957252648, "description": "Kanbanize integration. Manage Organizations. Use when the user wants to interact with Kanbanize data.", "description_zh": "", "downloads": 60, "homepage": "https://clawhub.ai/membranedev/kanbanize", "iconUrl": null, "installs": 2, "name": "Kanbanize", "ownerName": "membranedev", "score": 98360.65573770492, "slug": "kanbanize", "source": "clawhub", "stars": 0, "tags": null, "updated_at": 1776696769970, "version": "1.0.0"}, {"category": "", "created_at": 1774836786664, "description": "Audit GDPR compliance, generate privacy policies, and document data flows. Use when auditing practices, drafting policies, or checking consent flows.", "description_zh": "", "downloads": 60, "homepage": "https://clawhub.ai/bytesagain3/gdpr", "iconUrl": null, "installs": 1, "name": "Gdpr", "ownerName": "bytesagain3", "score": 98360.65573770492, "slug": "gdpr", "source": "clawhub", "stars": 0, "tags": null, "updated_at": 1776696769952, "version": "2.0.0"}, {"category": "productivity", "created_at": 1773955110110, "description": "Web search and content extraction via Brave Search API. Use for searching documentation, facts, or any web content. Lightweight, no browser required.", "description_zh": "", "downloads": 60, "homepage": "https://clawhub.ai/fresh3/taizi-brave-search", "iconUrl": null, "installs": 9, "name": "Taizi Brave Search", "ownerName": "fresh3", "score": 98360.65573770492, "slug": "taizi-brave-search", "source": "clawhub", "stars": 0, "tags": null, "updated_at": 1776696769872, "version": "1.0.0"}, {"category": "", "created_at": 1774916050642, "description": "Comprehensive Capacitor expert skill that consolidates core concepts, CLI usage, app creation, plugin management, framework integration, cross-platform best...", "description_zh": "", "downloads": 60, "homepage": "https://clawhub.ai/robingenz/capacitor", "iconUrl": null, "installs": 1, "name": "Capacitor", "ownerName": "robingenz", "score": 98360.65573770492, "slug": "capacitor", "source": "clawhub", "stars": 0, "tags": null, "updated_at": 1776696769852, "version": "1.0.0"}, {"category": "developer-tools", "created_at": 1773950661630, "description": "Operate Upbit public exchange market APIs through UXC with a curated OpenAPI schema, market-first discovery, and explicit private-auth boundary notes.", "description_zh": "", "downloads": 60, "homepage": "https://clawhub.ai/jolestar/upbit-openapi-skill", "iconUrl": null, "installs": 6, "name": "Upbit OpenAPI Skill", "ownerName": "jolestar", "score": 98360.65573770492, "slug": "upbit-openapi-skill", "source": "clawhub", "stars": 0, "tags": null, "updated_at": 1776696769774, "version": "1.0.0"}, {"category": "developer-tools", "created_at": 1773956137889, "description": "A modern text-based browser. Renders web pages in the terminal using headless Firefox.", "description_zh": "", "downloads": 60, "homepage": "https://clawhub.ai/fresh3/taizi-browsh", "iconUrl": null, "installs": 9, "name": "Taizi Browsh", "ownerName": "fresh3", "score": 98360.65573770492, "slug": "taizi-browsh", "source": "clawhub", "stars": 0, "tags": null, "updated_at": 1776696769730, "version": "1.0.0"}, {"category": "productivity", "created_at": 1773949978629, "description": "Classify hiring emails and sync job status.", "description_zh": "", "downloads": 60, "homepage": "https://clawhub.ai/wanghong5233/wanghong5233-offerpilot-email-reader", "iconUrl": null, "installs": 3, "name": "Email Reader", "ownerName": "wanghong5233", "score": 98360.65573770492, "slug": "wanghong5233-offerpilot-email-reader", "source": "clawhub", "stars": 0, "tags": null, "updated_at": 1776696769717, "version": "1.0.0"}, {"category": "", "created_at": 1774912869640, "description": "Practical skill vetting workflow for AI agents. Prioritizes clear yes/no risk judgments, concise conclusions, and business-aware risk tolerance before instal...", "description_zh": "", "downloads": 60, "homepage": "https://clawhub.ai/waytobetter619/hiic-skill-vetter", "iconUrl": null, "installs": 12, "name": "HIIC-skill-vetter", "ownerName": "waytobetter619", "score": 98360.65573770492, "slug": "hiic-skill-vetter", "source": "clawhub", "stars": 0, "tags": null, "updated_at": 1776696769697, "version": "1.0.0"}, {"category": "content-creation", "created_at": 1773956952069, "description": "Campayn integration. Manage data, records, and automate workflows. Use when the user wants to interact with Campayn data.", "description_zh": "", "downloads": 60, "homepage": "https://clawhub.ai/membranedev/campayn", "iconUrl": null, "installs": 12, "name": "Campayn", "ownerName": "membranedev", "score": 98360.65573770492, "slug": "campayn", "source": "clawhub", "stars": 0, "tags": null, "updated_at": 1776696769603, "version": "1.0.0"}, {"category": "productivity", "created_at": 1773959894385, "description": "Summarize long text, meeting notes, documents, or code into concise key points. Use when the user asks to summarize, extract key points, create meeting minut...", "description_zh": "", "downloads": 60, "homepage": "https://clawhub.ai/laimiaohua/gi-summarize", "iconUrl": null, "installs": 11, "name": "GI Summarize", "ownerName": "laimiaohua", "score": 98360.65573770492, "slug": "gi-summarize", "source": "clawhub", "stars": 0, "tags": null, "updated_at": 1776696769583, "version": "1.0.0"}, {"category": "", "created_at": 1774905476223, "description": "Use when the user explicitly asks for Elon Musk's thinking frameworks, first-principles cost analysis (Idiot Index, Magic Wand Number), The Algorithm (questi...", "description_zh": "", "downloads": 59, "homepage": "https://clawhub.ai/lavozdelinfierno/elon-frameworks", "iconUrl": null, "installs": 6, "name": "Elon Frameworks", "ownerName": "lavozdelinfierno", "score": 79797.9797979798, "slug": "elon-frameworks", "source": "clawhub", "stars": 1, "tags": null, "updated_at": 1776707383648, "version": "1.0.1"}, {"category": "", "created_at": 1774876202623, "description": "Turn an OpenClaw bot into a Russian tutor with vocabulary analysis, sentence breakdowns, reading drills, translation, and self-serve paid activation.", "description_zh": "", "downloads": 59, "homepage": "https://clawhub.ai/shuyuew1991/rurussian-mcp", "iconUrl": null, "installs": 4, "name": "RuRussian MCP", "ownerName": "shuyuew1991", "score": 2388.663967611336, "slug": "rurussian-mcp", "source": "clawhub", "stars": 0, "tags": null, "updated_at": 1776766190519, "version": "1.0.6"}, {"category": "", "created_at": 1774952467339, "description": "Use when receiving code review feedback - requires technical verification before implementing suggestions, with reasoned pushback when feedback is technicall...", "description_zh": "", "downloads": 59, "homepage": "https://clawhub.ai/axelhu/openclaw-receiving-code-review", "iconUrl": null, "installs": 7, "name": "Superpowers Receiving Code Review", "ownerName": "axelhu", "score": 2096.6595593461266, "slug": "openclaw-receiving-code-review", "source": "clawhub", "stars": 0, "tags": null, "updated_at": 1776765971350, "version": "1.0.0"}, {"category": "", "created_at": 1774952521932, "description": "Final quality validation gate for any artifact before human review. Run this skill on documents, skills, PRDs, blog posts, or code artifacts to validate fact...", "description_zh": "", "downloads": 59, "homepage": "https://clawhub.ai/bloodandeath/qa-gate", "iconUrl": null, "installs": 1, "name": "Qa Gate", "ownerName": "bloodandeath", "score": 1803.1784841075794, "slug": "qa-gate", "source": "clawhub", "stars": 0, "tags": null, "updated_at": 1776761390081, "version": "1.0.0"}, {"category": "", "created_at": 1774856902234, "description": "Guide AI to build NocoBase data models — tables, fields, relations, and seed data", "description_zh": "", "downloads": 59, "homepage": "https://clawhub.ai/alexander-lq/datasource", "iconUrl": null, "installs": 5, "name": "datasource", "ownerName": "alexander-lq", "score": 3889.255108767304, "slug": "datasource", "source": "clawhub", "stars": 0, "tags": null, "updated_at": 1776760940835, "version": "1.0.0"}, {"category": "", "created_at": 1774881607861, "description": "Organizes public info on Fantasy Westward Journey's updates, events, tournaments, rules, and official announcements without offering cheating or account serv...", "description_zh": "", "downloads": 59, "homepage": "https://clawhub.ai/codekungfu/fantasy", "iconUrl": null, "installs": 3, "name": "Fantasy", "ownerName": "codekungfu", "score": 84285.71428571429, "slug": "fantasy", "source": "clawhub", "stars": 0, "tags": null, "updated_at": 1776759982950, "version": "0.1.0"}, {"category": "", "created_at": 1774849604597, "description": "Capture images from Dahua IoT cameras and analyze them using Dahua Cloud AI models with only cloud credentials and no device password needed.", "description_zh": "", "downloads": 59, "homepage": "https://clawhub.ai/doynkdeveloper/dahua-cloud-open-device-image-analysis", "iconUrl": null, "installs": 3, "name": "Dahua Cloud Open Device Image Analysis", "ownerName": "doynkdeveloper", "score": 69411.76470588235, "slug": "dahua-cloud-open-device-image-analysis", "source": "clawhub", "stars": 0, "tags": null, "updated_at": 1776759982916, "version": "1.0.2"}, {"category": "", "created_at": 1774821832013, "description": "Design and visualize AI product frameworks including layered architecture, value chains, capability maps, and competitive positioning for product managers.", "description_zh": "", "downloads": 59, "homepage": "https://clawhub.ai/pupujanet-eng/product-framework", "iconUrl": null, "installs": 3, "name": "Product Framework", "ownerName": "pupujanet-eng", "score": 72839.50617283951, "slug": "product-framework", "source": "clawhub", "stars": 0, "tags": null, "updated_at": 1776759982894, "version": "1.0.0"}, {"category": "", "created_at": 1774882247246, "description": "Manage and grow authentic multi-platform social media presence with trust-first, value-driven content and active audience engagement strategies.", "description_zh": "", "downloads": 59, "homepage": "https://clawhub.ai/tenlifejosh/social-manager", "iconUrl": null, "installs": 4, "name": "Social Manager — Complete Multi-Platform Operations", "ownerName": "tenlifejosh", "score": 4638.364779874213, "slug": "social-manager", "source": "clawhub", "stars": 0, "tags": ["facebook", "google-ads", "instagram", "marketing", "pinterest", "reddit", "social-media", "tiktok"], "updated_at": 1776759982817, "version": "1.0.0"}, {"category": "", "created_at": 1774866768722, "description": "Execute and manage relational database operations including creating tables, querying, updating, and controlling access using standard SQL commands.", "description_zh": "", "downloads": 59, "homepage": "https://clawhub.ai/duanc-chao/f", "iconUrl": null, "installs": 0, "name": "DB sql", "ownerName": "duanc-chao", "score": 4667.721518987341, "slug": "f", "source": "clawhub", "stars": 0, "tags": null, "updated_at": 1776759982774, "version": "1.0.0"}, {"category": "developer-tools", "created_at": 1773961264616, "description": "Connect AI agents to 700+ external APIs using Nango. Handles OAuth, authentication flows, and tool calling for any API. Use when integrating agents with exte...", "description_zh": "", "downloads": 59, "homepage": "https://clawhub.ai/engsathiago/nango-api-integration", "iconUrl": null, "installs": 4, "name": "Nango API Integration", "ownerName": "engsathiago", "score": 4631.083202511773, "slug": "nango-api-integration", "source": "clawhub", "stars": 0, "tags": ["agents", "api", "external-services", "integration", "oauth"], "updated_at": 1776759982703, "version": "1.0.0"}, {"category": "", "created_at": 1774866679937, "description": "Create clear, practical contract clauses to define deliverables, payment, usage rights, approvals, exclusivity, and cancellation for creator ecommerce deals.", "description_zh": "", "downloads": 59, "homepage": "https://clawhub.ai/leooooooow/creator-contract-clause-builder", "iconUrl": null, "installs": 1, "name": "Creator Contract Clause Builder", "ownerName": "leooooooow", "score": 4631.083202511773, "slug": "creator-contract-clause-builder", "source": "clawhub", "stars": 0, "tags": null, "updated_at": 1776759982688, "version": "1.0.0"}, {"category": "", "created_at": 1774910459763, "description": "Operational tooling for teams running local LLM infrastructure. Request tracing with full scoring breakdowns, per-application usage analytics via request tag...", "description_zh": "", "downloads": 59, "homepage": "https://clawhub.ai/twinsgeeks/ai-devops-toolkit", "iconUrl": null, "installs": 0, "name": "Ai Devops Toolkit", "ownerName": "twinsgeeks", "score": 83098.59154929577, "slug": "ai-devops-toolkit", "source": "clawhub", "stars": 0, "tags": ["ai-infrastructure", "analytics", "devops", "metrics", "monitoring", "observability", "operations", "sre", "traces"], "updated_at": 1776759982570, "version": "1.0.1"}, {"category": "", "created_at": 1774956368916, "description": "AI-driven inventory tracking and monitoring frameworks with low-stock alerts, reorder calculations, and multi-channel sync for e-commerce platforms.", "description_zh": "", "downloads": 59, "homepage": "https://clawhub.ai/nexscope/inventory-tracking-software", "iconUrl": null, "installs": 0, "name": "Inventory Tracking Software", "ownerName": "nexscope", "score": 4631.083202511773, "slug": "inventory-tracking-software", "source": "clawhub", "stars": 0, "tags": null, "updated_at": 1776759982549, "version": "1.0.0"}, {"category": "", "created_at": 1774942376906, "description": "Set and manage price alerts for any cryptocurrency pair and receive instant notifications when targets are reached.", "description_zh": "", "downloads": 59, "homepage": "https://clawhub.ai/dagangtj/crypto-price-alerts", "iconUrl": null, "installs": 1, "name": "Crypto Price Alerts", "ownerName": "dagangtj", "score": 4631.083202511773, "slug": "crypto-price-alerts", "source": "clawhub", "stars": 0, "tags": ["alerts", "crypto", "trading"], "updated_at": 1776759982537, "version": "1.0.0"}, {"category": "", "created_at": 1773424731368, "description": "Complete DevOps toolkit for AI-assisted software development. Release pipeline, license compliance, copyright enforcement, repo visibility guard, identity fi...", "description_zh": "", "downloads": 59, "homepage": "https://clawhub.ai/parkertoddbrooks/wip-ai-devops-toolbox", "iconUrl": null, "installs": 0, "name": "Wip Ai Devops Toolbox Private", "ownerName": "parkertoddbrooks", "score": 4627.450980392156, "slug": "wip-ai-devops-toolbox", "source": "clawhub", "stars": 0, "tags": null, "updated_at": 1776759982413, "version": "1.9.8"}, {"category": "", "created_at": 1774846888922, "description": "Access and summarize public hot deals, rankings, and promotions from Smzdm for keyword-based price alerts and category statistics without ordering.", "description_zh": "", "downloads": 59, "homepage": "https://clawhub.ai/codekungfu/smzdm", "iconUrl": null, "installs": 2, "name": "Smzdm", "ownerName": "codekungfu", "score": 34705.882352941175, "slug": "smzdm", "source": "clawhub", "stars": 0, "tags": null, "updated_at": 1776759982252, "version": "0.1.0"}, {"category": "", "created_at": 1774858869616, "description": "Amazon pricing strategy and repricing agent. Set competitive prices, build repricing rules, analyze Buy Box win rate, plan promotional pricing, and balance m...", "description_zh": "", "downloads": 59, "homepage": "https://clawhub.ai/mguozhen/amazon-pricing-strategy", "iconUrl": null, "installs": 18, "name": "Amazon Pricing Strategy", "ownerName": "mguozhen", "score": 3606.3569682151588, "slug": "amazon-pricing-strategy", "source": "clawhub", "stars": 0, "tags": null, "updated_at": 1776757882562, "version": "1.0.0"}, {"category": "", "created_at": 1774882672066, "description": "Search books across all sources with summaries and Amazon purchase links. Triggered when user asks about finding, buying, or searching for books.", "description_zh": "", "downloads": 59, "homepage": "https://clawhub.ai/heardlyapp/amazon-books", "iconUrl": null, "installs": 16, "name": "Amazon Books", "ownerName": "heardlyapp", "score": 3909.87408880053, "slug": "amazon-books", "source": "clawhub", "stars": 0, "tags": null, "updated_at": 1776757882459, "version": "1.0.3"}, {"category": "", "created_at": 1774895903909, "description": "Amazon product price history tracker and drop alert agent. Track price trends over time, identify the best time to buy or sell, analyze competitor pricing pa...", "description_zh": "", "downloads": 59, "homepage": "https://clawhub.ai/mguozhen/amazon-price-history", "iconUrl": null, "installs": 17, "name": "Amazon Price History", "ownerName": "mguozhen", "score": 3694.4270507201004, "slug": "amazon-price-history", "source": "clawhub", "stars": 0, "tags": null, "updated_at": 1776757882210, "version": "1.0.0"}, {"category": "", "created_at": 1774897616185, "description": "Amazon A+ content (Enhanced Brand Content) builder. Design module layouts, write conversion-optimized copy, create brand story sections, and plan comparison...", "description_zh": "", "downloads": 59, "homepage": "https://clawhub.ai/mguozhen/amazon-aplus-content", "iconUrl": null, "installs": 18, "name": "Amazon Aplus Content", "ownerName": "mguozhen", "score": 3499.4068801897984, "slug": "amazon-aplus-content", "source": "clawhub", "stars": 0, "tags": null, "updated_at": 1776757733400, "version": "1.0.0"}, {"category": "", "created_at": 1774844964838, "description": "Control Android devices via ADB (Android Debug Bridge) from a Mac. Use when: remotely operating an Android phone (tap, swipe, type, screenshot, screen record...", "description_zh": "", "downloads": 59, "homepage": "https://clawhub.ai/dr-xiaoming/adb-android", "iconUrl": null, "installs": 12, "name": "ADB Android Control", "ownerName": "dr-xiaoming", "score": 10460.992907801417, "slug": "adb-android", "source": "clawhub", "stars": 0, "tags": null, "updated_at": 1776752146978, "version": "1.0.0"}, {"category": "security-compliance", "created_at": 1772744516957, "description": "WhatsApp skill with a 3-rule security gate. Your agent speaks only when spoken to — in the right chat, by the right person.", "description_zh": "", "downloads": 59, "homepage": "https://clawhub.ai/root/whatsapp-ultimate", "iconUrl": null, "installs": 8, "name": "Whatsapp Ultimate", "ownerName": "root", "score": 17664.670658682637, "slug": "whatsapp-ultimate", "source": "clawhub", "stars": 0, "tags": null, "updated_at": 1776748845056, "version": "3.5.1"}, {"category": "", "created_at": 1774869376949, "description": "Comparable company analysis (comps) and business valuation for startups and private companies. Build trading comps, transaction comps (M&A precedents), and D...", "description_zh": "", "downloads": 59, "homepage": "https://clawhub.ai/samledger67-dotcom/valuation-comps", "iconUrl": null, "installs": 3, "name": "Valuation Comps", "ownerName": "samledger67-dotcom", "score": 62765.957446808505, "slug": "valuation-comps", "source": "clawhub", "stars": 0, "tags": null, "updated_at": 1776745069736, "version": "1.0.0"}, {"category": "", "created_at": 1774825583902, "description": "Self-reflection engine for AI agents. Extracts patterns from session transcripts into a weighted graph with Hebbian learning and time decay. Compiles a token...", "description_zh": "", "downloads": 59, "homepage": "https://clawhub.ai/meimakes/metacognition", "iconUrl": null, "installs": 2, "name": "Metacognition", "ownerName": "meimakes", "score": 59595.95959595959, "slug": "metacognition", "source": "clawhub", "stars": 0, "tags": null, "updated_at": 1776741884213, "version": "1.1.2"}, {"category": "", "created_at": 1774947298058, "description": "Deep edge computing workflow—what runs at edge vs origin, caching, KV and data locality, security, limits, and latency validation. Use when deploying to CDN/...", "description_zh": "", "downloads": 59, "homepage": "https://clawhub.ai/mike47512/edge-computing", "iconUrl": null, "installs": 2, "name": "Edge Computing", "ownerName": "mike47512", "score": 61458.333333333336, "slug": "edge-computing", "source": "clawhub", "stars": 0, "tags": null, "updated_at": 1776729283680, "version": "1.0.0"}, {"category": "", "created_at": 1774883059914, "description": "Plays Gandalf, a Capture The Flag prompt security game by Lakera. Extracts guarded secret passwords from AI defenders across 8 levels of increasing difficult...", "description_zh": "", "downloads": 59, "homepage": "https://clawhub.ai/hannah-schiebener/gandalf-ctf", "iconUrl": null, "installs": 11, "name": "Gandalf CTF", "ownerName": "hannah-schiebener", "score": 56730.76923076923, "slug": "gandalf-ctf", "source": "clawhub", "stars": 0, "tags": null, "updated_at": 1776726469542, "version": "1.0.0"}, {"category": "", "created_at": 1774865761042, "description": "Audit and compliance assistant for reviewing financial records, internal controls, processes, and regulatory compliance. Use when users need to conduct an au...", "description_zh": "", "downloads": 59, "homepage": "https://clawhub.ai/jiwenbing/auditor", "iconUrl": null, "installs": 3, "name": "Auditor", "ownerName": "jiwenbing", "score": 56730.76923076923, "slug": "auditor", "source": "clawhub", "stars": 0, "tags": null, "updated_at": 1776726283762, "version": "1.0.0"}, {"category": "", "created_at": 1774875107373, "description": "A comprehensive AI marketing partner for DTC ecommerce. Combines multiple diagnostic and optimization skills powered by Attribuly first-party data.", "description_zh": "", "downloads": 59, "homepage": "https://clawhub.ai/alexchulee/attribuly", "iconUrl": null, "installs": 8, "name": "Shopify/WooCommerce Marketing Partner: Attribuly AllyClaw", "ownerName": "alexchulee", "score": 59595.95959595959, "slug": "attribuly", "source": "clawhub", "stars": 0, "tags": null, "updated_at": 1776709183691, "version": "2026.3.26"}, {"category": "productivity", "created_at": 1773949747158, "description": "Helps users discover and install agent skills when they ask questions like \"how do I do X\", \"find a skill for X\", \"is there a skill that can...\", or express...", "description_zh": "", "downloads": 59, "homepage": "https://clawhub.ai/pipsqueakup/new-slug", "iconUrl": null, "installs": 3, "name": "myskill", "ownerName": "pipsqueakup", "score": 96721.31147540984, "slug": "new-slug", "source": "clawhub", "stars": 0, "tags": null, "updated_at": 1776696770246, "version": "1.0.0"}, {"category": "productivity", "created_at": 1773949820940, "description": "Manage registration records and attendee data. Use when logging sign-ups, checking capacity, converting export formats, generating confirmation reports.", "description_zh": "", "downloads": 59, "homepage": "https://clawhub.ai/ckchzh/registration", "iconUrl": null, "installs": 3, "name": "Registration", "ownerName": "ckchzh", "score": 96721.31147540984, "slug": "registration", "source": "clawhub", "stars": 0, "tags": null, "updated_at": 1776696770240, "version": "2.0.1"}, {"category": "communication-collaboration", "created_at": 1773947689442, "description": "Connect to the Bole network to discover and converse with other AI agents", "description_zh": "", "downloads": 59, "homepage": "https://clawhub.ai/maxl1ee/bole", "iconUrl": null, "installs": 3, "name": "Bole A2A", "ownerName": "maxl1ee", "score": 96721.31147540984, "slug": "bole", "source": "clawhub", "stars": 0, "tags": null, "updated_at": 1776696770145, "version": "2.0.0"}, {"category": "developer-tools", "created_at": 1773955904117, "description": "Search podcasts, browse episodes, and fetch podcast transcripts from Podfetcher using the bundled Node.js CLI, SDK, or MCP server.", "description_zh": "", "downloads": 59, "homepage": "https://clawhub.ai/flohiwg/podfetcher-tools", "iconUrl": null, "installs": 7, "name": "Podfetcher Tools", "ownerName": "flohiwg", "score": 96721.31147540984, "slug": "podfetcher-tools", "source": "clawhub", "stars": 0, "tags": null, "updated_at": 1776696770117, "version": "0.5.1"}, {"category": "productivity", "created_at": 1773951726491, "description": "Track laundry loads, view usage stats, and export reports in multiple formats. Use when logging wash cycles, reviewing patterns, exporting schedules.", "description_zh": "", "downloads": 59, "homepage": "https://clawhub.ai/ckchzh/laundry", "iconUrl": null, "installs": 2, "name": "Laundry", "ownerName": "ckchzh", "score": 96721.31147540984, "slug": "laundry", "source": "clawhub", "stars": 0, "tags": null, "updated_at": 1776696770082, "version": "2.0.1"}, {"category": "", "created_at": 1774915202951, "description": "Transform data into compelling narratives using visualization, context, and persuasive structure. Use when presenting analytics to stakeholders, creating dat...", "description_zh": "", "downloads": 59, "homepage": "https://clawhub.ai/jackhua6/data-storytelling", "iconUrl": null, "installs": 8, "name": "data-storytelling", "ownerName": "jackhua6", "score": 96721.31147540984, "slug": "data-storytelling", "source": "clawhub", "stars": 0, "tags": null, "updated_at": 1776696769926, "version": "1.0.0"}, {"category": "productivity", "created_at": 1773957183436, "description": "Autonomous DeFi yield management on Giza -- onboarding, portfolio reviews, withdrawals, rewards, and education. Connects to the Giza MCP server for autonomou...", "description_zh": "", "downloads": 59, "homepage": "https://clawhub.ai/raphaeldkhn/giza", "iconUrl": null, "installs": 7, "name": "Giza", "ownerName": "raphaeldkhn", "score": 96721.31147540984, "slug": "giza", "source": "clawhub", "stars": 0, "tags": null, "updated_at": 1776696769900, "version": "1.0.2"}, {"category": "content-creation", "created_at": 1773057370570, "description": "USE THIS for video generation, AI video, text-to-video, video creation. Access Google Veo 3.1 (best quality), MiniMax Video-01 (fast & cheap). Create promoti...", "description_zh": "", "downloads": 59, "homepage": "https://clawhub.ai/xiaoyinqu/video-generation-api", "iconUrl": null, "installs": 13, "name": "Video Generation API", "ownerName": "xiaoyinqu", "score": 96721.31147540984, "slug": "video-generation-api", "source": "clawhub", "stars": 0, "tags": null, "updated_at": 1776696769873, "version": "1.0.0"}, {"category": "security-compliance", "created_at": 1773951797656, "description": "Mslm Cloud integration. Manage Users, Organizations. Use when the user wants to interact with Mslm Cloud data.", "description_zh": "", "downloads": 59, "homepage": "https://clawhub.ai/gora050/mslm-cloud", "iconUrl": null, "installs": 1, "name": "Mslm Cloud", "ownerName": "gora050", "score": 96721.31147540984, "slug": "mslm-cloud", "source": "clawhub", "stars": 0, "tags": null, "updated_at": 1776696769794, "version": "1.0.0"}]}