{"page": 428, "total_pages": 522, "total": 26073, "skills": [{"category": "", "created_at": 1774945333940, "description": "Audit legacy PHP projects, especially Yaf-based PHP 7.3 codebases, for architecture issues, security risks, performance problems, compatibility risks, and ma...", "description_zh": "", "downloads": 59, "homepage": "https://clawhub.ai/xaviermary56/yaf-php-audit", "iconUrl": null, "installs": 14, "name": "Yaf PHP Audit", "ownerName": "xaviermary56", "score": 96721.31147540984, "slug": "yaf-php-audit", "source": "clawhub", "stars": 0, "tags": null, "updated_at": 1776696769743, "version": "1.1.0"}, {"category": "data-analysis", "created_at": 1773958025439, "description": "Trades Polymarket prediction markets on hurricane seasons, earthquake probabilities, wildfire forecasts, and extreme weather records. Exploits two structural...", "description_zh": "", "downloads": 59, "homepage": "https://clawhub.ai/diagnostikon/polymarket-catastrophe-trader", "iconUrl": null, "installs": 7, "name": "Catastrophe & Extreme Risk Trade", "ownerName": "diagnostikon", "score": 96721.31147540984, "slug": "polymarket-catastrophe-trader", "source": "clawhub", "stars": 0, "tags": null, "updated_at": 1776696769734, "version": "1.0.1"}, {"category": "developer-tools", "created_at": 1773954581538, "description": "Blocknative integration. Manage data, records, and automate workflows. Use when the user wants to interact with Blocknative data.", "description_zh": "", "downloads": 59, "homepage": "https://clawhub.ai/membranedev/blocknative", "iconUrl": null, "installs": 7, "name": "Blocknative", "ownerName": "membranedev", "score": 96721.31147540984, "slug": "blocknative", "source": "clawhub", "stars": 0, "tags": null, "updated_at": 1776696769666, "version": "1.0.0"}, {"category": "", "created_at": 1774802330711, "description": "Advanced AI-powered coding assistant with multi-language support, debugging, and automated testing capabilities.", "description_zh": "", "downloads": 59, "homepage": "https://clawhub.ai/chinakingkong/ai-coder", "iconUrl": null, "installs": 5, "name": "AI Coder Pro", "ownerName": "chinakingkong", "score": 96721.31147540984, "slug": "ai-coder", "source": "clawhub", "stars": 0, "tags": ["ai", "coding", "development"], "updated_at": 1776696769652, "version": "1.0.0"}, {"category": "developer-tools", "created_at": 1773953076253, "description": "Compare AI API or model pricing across providers and produce a structured summary for product pages, blog posts, or buyer guides. Works with OpenAI-compatibl...", "description_zh": "", "downloads": 59, "homepage": "https://clawhub.ai/xujfcn/api-pricing-comparator", "iconUrl": null, "installs": 6, "name": "API Pricing Comparator", "ownerName": "xujfcn", "score": 96721.31147540984, "slug": "api-pricing-comparator", "source": "clawhub", "stars": 0, "tags": ["pilot"], "updated_at": 1776696769592, "version": "0.2.0"}, {"category": "", "created_at": 1776611862662, "description": "Security-first skill vetting for AI agents. Use before installing any skill from ClawdHub, GitHub, or other sources. Checks for red flags, permission scope, and suspicious patterns.", "description_zh": "", "downloads": 58, "homepage": "https://clawhub.ai/user_ecf8fbc6/skill--vetter", "iconUrl": null, "installs": 1, "name": "Skill Vetter", "ownerName": "user_ecf8fbc6", "score": 507.3921791619281, "slug": "skill--vetter", "source": "community", "stars": 0, "tags": null, "updated_at": 1776769149860, "version": "1.0.0"}, {"category": "", "created_at": 1774888217276, "description": "Enable and configure Moltbot/Clawdbot memory search for persistent context. Use when setting up memory, fixing \"goldfish brain,\" or helping users configure m...", "description_zh": "", "downloads": 58, "homepage": "https://clawhub.ai/jackwang2999/memory-setup-jack", "iconUrl": null, "installs": 14, "name": "Memory Setup (Jack)", "ownerName": "jackwang2999", "score": 1723.11348781937, "slug": "memory-setup-jack", "source": "clawhub", "stars": 0, "tags": null, "updated_at": 1776764950893, "version": "1.0.0"}, {"category": "", "created_at": 1774834446078, "description": "Send, test, and debug SMTP mail flows with safe dry runs, provider-aware auth, and deliverability checks.", "description_zh": "", "downloads": 58, "homepage": "https://clawhub.ai/ivangdavila/smtp", "iconUrl": null, "installs": 4, "name": "SMTP", "ownerName": "ivangdavila", "score": 579.015673355296, "slug": "smtp", "source": "clawhub", "stars": 0, "tags": null, "updated_at": 1776764690628, "version": "1.0.0"}, {"category": "", "created_at": 1774877931583, "description": "Organizes PDFs by extracting metadata and classifying into topics, renaming files, and sorting into topic-based folders using AI analysis.", "description_zh": "", "downloads": 58, "homepage": "https://clawhub.ai/yxl184/skill-pdf-orgnizer", "iconUrl": null, "installs": 5, "name": "Skill PDF Orgnizer", "ownerName": "yxl184", "score": 27230.046948356805, "slug": "skill-pdf-orgnizer", "source": "clawhub", "stars": 0, "tags": null, "updated_at": 1776759983188, "version": "1.0.0"}, {"category": "", "created_at": 1774881931113, "description": "Compare Monero and Bitcoin on privacy, transaction speed, mining, scalability, use cases, and core philosophies for informed cryptocurrency choice.", "description_zh": "", "downloads": 58, "homepage": "https://clawhub.ai/liumaimiao/monero-vs-bitcoin", "iconUrl": null, "installs": 3, "name": "Monero Vs Bitcoin", "ownerName": "liumaimiao", "score": 4581.358609794629, "slug": "monero-vs-bitcoin", "source": "clawhub", "stars": 0, "tags": null, "updated_at": 1776759983182, "version": "1.0.0"}, {"category": "", "created_at": 1774886121011, "description": "Creates tailored content strategies with topic clusters, keyword targeting, content calendars, competitor gap analysis, and distribution plans for your niche.", "description_zh": "", "downloads": 58, "homepage": "https://clawhub.ai/amdf01-debug/sw-content-strategy", "iconUrl": null, "installs": 4, "name": "Content Strategy Pro", "ownerName": "amdf01-debug", "score": 68235.29411764706, "slug": "sw-content-strategy", "source": "clawhub", "stars": 0, "tags": ["bundle", "content", "marketing", "strategy"], "updated_at": 1776759982924, "version": "1.0.0"}, {"category": "", "created_at": 1772798284229, "description": "Fixed asset management, depreciation, and disposal for ERPClaw", "description_zh": "", "downloads": 58, "homepage": "https://clawhub.ai/skipzhang/erpclaw-assets", "iconUrl": null, "installs": 0, "name": "ERPClaw-Assets", "ownerName": "skipzhang", "score": 4559.748427672956, "slug": "erpclaw-assets", "source": "clawhub", "stars": 0, "tags": null, "updated_at": 1776759982825, "version": "1.0.0"}, {"category": "", "created_at": 1774883157171, "description": "Influencer and creator partnership strategy and outreach for startups. Use when someone wants help with influencer marketing, creator partnerships, or sponso...", "description_zh": "", "downloads": 58, "homepage": "https://clawhub.ai/c0ldsmi1e/influencer-plan", "iconUrl": null, "installs": 1, "name": "Influencer-Plan", "ownerName": "c0ldsmi1e", "score": 16477.272727272728, "slug": "influencer-plan", "source": "clawhub", "stars": 0, "tags": null, "updated_at": 1776759982743, "version": "1.0.0"}, {"category": "", "created_at": 1774837062833, "description": "Advises on building-in-public, social listening, and platform selection for startup social media marketing. Use when someone wants help with their social med...", "description_zh": "", "downloads": 58, "homepage": "https://clawhub.ai/c0ldsmi1e/social-media-strategy", "iconUrl": null, "installs": 1, "name": "Social Media Strategy", "ownerName": "c0ldsmi1e", "score": 4570.527974783294, "slug": "social-media-strategy", "source": "clawhub", "stars": 0, "tags": null, "updated_at": 1776759982720, "version": "1.0.0"}, {"category": "", "created_at": 1774874170775, "description": "Comprehensive email management skill. Use this skill when the user wants to fetch, search, read, send, reply to, move, delete, mark, or summarize emails. It...", "description_zh": "", "downloads": 58, "homepage": "https://clawhub.ai/lgwanai/mail-skills", "iconUrl": null, "installs": 3, "name": "mail-skill", "ownerName": "lgwanai", "score": 4570.527974783294, "slug": "mail-skills", "source": "clawhub", "stars": 0, "tags": null, "updated_at": 1776759982712, "version": "1.1.0"}, {"category": "", "created_at": 1774863893083, "description": "Generate precise git commit messages following Conventional Commits with auto language detection, scope inference, and multi-module support.", "description_zh": "", "downloads": 58, "homepage": "https://clawhub.ai/wlykan/gitcommit", "iconUrl": null, "installs": 2, "name": "git commit skill", "ownerName": "wlykan", "score": 4552.590266875981, "slug": "gitcommit", "source": "clawhub", "stars": 0, "tags": null, "updated_at": 1776759982692, "version": "1.0.0"}, {"category": "", "created_at": 1774832056931, "description": "Build or adapt static front-end apps and mini-games so they match the Nima Tech Space upload format, optionally wire the platform LLM API, package a complian...", "description_zh": "", "downloads": 58, "homepage": "https://clawhub.ai/nimachu/clawapp-creator", "iconUrl": null, "installs": 4, "name": "Clawapp Creator", "ownerName": "nimachu", "score": 4556.166535742341, "slug": "clawapp-creator", "source": "clawhub", "stars": 0, "tags": null, "updated_at": 1776759982664, "version": "0.1.7"}, {"category": "", "created_at": 1774954031912, "description": "Build complete SEO topic clusters with full article content, schema markup, and internal linking. Use this skill whenever the user wants to create a content...", "description_zh": "", "downloads": 58, "homepage": "https://clawhub.ai/vionguyen/seo-cluster-builder", "iconUrl": null, "installs": 5, "name": "SEO article cluster builder", "ownerName": "vionguyen", "score": 4556.166535742341, "slug": "seo-cluster-builder", "source": "clawhub", "stars": 0, "tags": null, "updated_at": 1776759982659, "version": "1.0.0"}, {"category": "", "created_at": 1774890351153, "description": "Generates executable device control templates from API docs using local LLMs to enable cross-protocol IoT device management respecting closed ecosystem restr...", "description_zh": "", "downloads": 58, "homepage": "https://clawhub.ai/spacesq/s2-nlp-connector", "iconUrl": null, "installs": 1, "name": "The Semantic Handshake Engine", "ownerName": "spacesq", "score": 81690.14084507042, "slug": "s2-nlp-connector", "source": "clawhub", "stars": 0, "tags": null, "updated_at": 1776759982553, "version": "1.0.0"}, {"category": "", "created_at": 1774895114282, "description": "Generate a table of contents from Markdown headings with configurable levels, formats, and unique anchors, excluding headings inside code blocks.", "description_zh": "", "downloads": 58, "homepage": "https://clawhub.ai/harrylabsj/markdown-toc", "iconUrl": null, "installs": 1, "name": "Markdown TOC", "ownerName": "harrylabsj", "score": 4552.590266875981, "slug": "markdown-toc", "source": "clawhub", "stars": 0, "tags": null, "updated_at": 1776759982550, "version": "1.0.0"}, {"category": "", "created_at": 1774919199497, "description": "Use Chanjing text-to-digital-person APIs to create AI portrait images, turn them into talking videos, optionally run LoRA training, poll async tasks, and exp...", "description_zh": "", "downloads": 58, "homepage": "https://clawhub.ai/zuoyuting214/zyt-text-to-digital-person", "iconUrl": null, "installs": 4, "name": "Zyt text to digital person", "ownerName": "zuoyuting214", "score": 4588.607594936709, "slug": "zyt-text-to-digital-person", "source": "clawhub", "stars": 0, "tags": null, "updated_at": 1776759982504, "version": "0.3.0"}, {"category": "", "created_at": 1774871114193, "description": "Remove duplicate rows from CSV files by key columns. Use when asked to deduplicate CSVs or keep unique records.", "description_zh": "", "downloads": 58, "homepage": "https://clawhub.ai/yibeiqingtian-ai/csv-deduper", "iconUrl": null, "installs": 1, "name": "myskill", "ownerName": "yibeiqingtian-ai", "score": 4588.607594936709, "slug": "csv-deduper", "source": "clawhub", "stars": 0, "tags": null, "updated_at": 1776759982470, "version": "1.0.0"}, {"category": "", "created_at": 1774880018916, "description": "Evaluate creator content for ecommerce or affiliate marketing by scoring key elements and providing clear, prioritized feedback to improve conversion and eng...", "description_zh": "", "downloads": 58, "homepage": "https://clawhub.ai/leooooooow/creator-content-scorecard", "iconUrl": null, "installs": 2, "name": "Creator Content Scorecard", "ownerName": "leooooooow", "score": 4549.019607843137, "slug": "creator-content-scorecard", "source": "clawhub", "stars": 0, "tags": null, "updated_at": 1776759982440, "version": "1.0.0"}, {"category": "", "created_at": 1774873181782, "description": "Create a believable story-driven sales script that naturally integrates product benefits through emotional, creator-native narratives for short-form video.", "description_zh": "", "downloads": 58, "homepage": "https://clawhub.ai/leooooooow/story-led-sell-script", "iconUrl": null, "installs": 0, "name": "Story-led Sell Script", "ownerName": "leooooooow", "score": 34117.64705882353, "slug": "story-led-sell-script", "source": "clawhub", "stars": 0, "tags": null, "updated_at": 1776759982233, "version": "1.0.0"}, {"category": "", "created_at": 1774865380457, "description": "Reverses roles by asking one focused question at a time to guide you step-by-step in creating scripts, plans, briefs, or strategies until completion.", "description_zh": "", "downloads": 58, "homepage": "https://clawhub.ai/harvnk/take-the-wheel", "iconUrl": null, "installs": 1, "name": "Take The Wheel", "ownerName": "harvnk", "score": 4407.294832826748, "slug": "take-the-wheel", "source": "clawhub", "stars": 0, "tags": null, "updated_at": 1776759982217, "version": "1.0.0"}, {"category": "", "created_at": 1774848583220, "description": "Use Chanjing customised person APIs to create, inspect, list, poll, and delete custom digital humans from uploaded source videos. Primary credential: credent...", "description_zh": "", "downloads": 58, "homepage": "https://clawhub.ai/binkes/chanjing-customised-person", "iconUrl": null, "installs": 5, "name": "Chanjing Customised Person", "ownerName": "binkes", "score": 4407.294832826748, "slug": "chanjing-customised-person", "source": "clawhub", "stars": 0, "tags": null, "updated_at": 1776759982196, "version": "1.0.2"}, {"category": "", "created_at": 1774848123468, "description": "Use Ollama's vision/OCR models to recognize text from images. Supports glm-ocr, llava, moondream, and llama3.2-vision models. Ideal when you need local offli...", "description_zh": "", "downloads": 58, "homepage": "https://clawhub.ai/hongjiahao371-pixel/ollama-ocr", "iconUrl": null, "installs": 9, "name": "Ollama OCR", "ownerName": "hongjiahao371-pixel", "score": 69879.51807228915, "slug": "ollama-ocr", "source": "clawhub", "stars": 0, "tags": null, "updated_at": 1776740471992, "version": "1.0.0"}, {"category": "", "created_at": 1774887158634, "description": "MiniMax AI tools for web search, image analysis, LLM chat, and language translation. Use when you need to search the web, analyze images, generate text with...", "description_zh": "", "downloads": 58, "homepage": "https://clawhub.ai/cnlangzi/minimax-use", "iconUrl": null, "installs": 21, "name": "Minimax Use", "ownerName": "cnlangzi", "score": 81690.14084507042, "slug": "minimax-use", "source": "clawhub", "stars": 0, "tags": null, "updated_at": 1776735055519, "version": "0.1.0"}, {"category": "", "created_at": 1774898426201, "description": "Use MiniMax speech-2.8-hd model for high-quality text-to-speech synthesis. Supports multiple Chinese and English voices. Install when needed.", "description_zh": "", "downloads": 58, "homepage": "https://clawhub.ai/jlin53882/minimax-tts-voice", "iconUrl": null, "installs": 13, "name": "minimax-tts", "ownerName": "jlin53882", "score": 81690.14084507042, "slug": "minimax-tts-voice", "source": "clawhub", "stars": 0, "tags": null, "updated_at": 1776735055508, "version": "1.0.0"}, {"category": "", "created_at": 1774953234582, "description": "Use when executing a written implementation plan in the current session with sequential task execution and review checkpoints - for when subagent-driven mode...", "description_zh": "", "downloads": 58, "homepage": "https://clawhub.ai/axelhu/openclaw-executing-plans", "iconUrl": null, "installs": 4, "name": "Executing Plans", "ownerName": "axelhu", "score": 53211.00917431193, "slug": "openclaw-executing-plans", "source": "clawhub", "stars": 0, "tags": null, "updated_at": 1776732604718, "version": "1.0.0"}, {"category": "", "created_at": 1774897994528, "description": "Fitness Video Maker — Create Workout and Exercise Videos with AI. Tell the AI what you want—it executes workout content automatically. Describe your workout...", "description_zh": "", "downloads": 58, "homepage": "https://clawhub.ai/peandrover/fitness-video-maker", "iconUrl": null, "installs": 4, "name": "Fitness Video Maker", "ownerName": "peandrover", "score": 61702.12765957447, "slug": "fitness-video-maker", "source": "clawhub", "stars": 0, "tags": null, "updated_at": 1776721069591, "version": "1.0.2"}, {"category": "", "created_at": 1774893593734, "description": "Cut longer product demo videos into shorter, more usable product moments for ecommerce, storefronts, ads, and creator workflows. Use when a product demo cont...", "description_zh": "", "downloads": 58, "homepage": "https://clawhub.ai/leooooooow/product-demo-cutter", "iconUrl": null, "installs": 16, "name": "Product Demo Cutter", "ownerName": "leooooooow", "score": 58585.85858585859, "slug": "product-demo-cutter", "source": "clawhub", "stars": 0, "tags": null, "updated_at": 1776706969628, "version": "1.0.0"}, {"category": "", "created_at": 1774844254314, "description": "Coding style memory that adapts to your preferences, conventions, and patterns for consistent coding.", "description_zh": "", "downloads": 58, "homepage": "https://clawhub.ai/fresh3/taizi-coding", "iconUrl": null, "installs": 1, "name": "Coding", "ownerName": "fresh3", "score": 61702.12765957447, "slug": "taizi-coding", "source": "clawhub", "stars": 0, "tags": null, "updated_at": 1776700783767, "version": "1.0.4"}, {"category": "", "created_at": 1774869103645, "description": "Compress PDF files to a target size or by percentage, using a Ghostscript + pikepdf + QPDF multi-stage pipeline.", "description_zh": "", "downloads": 58, "homepage": "https://clawhub.ai/johnsonklose/pdf-compress-tool", "iconUrl": null, "installs": 14, "name": "pdf-compress-tool", "ownerName": "johnsonklose", "score": 74358.97435897436, "slug": "pdf-compress-tool", "source": "clawhub", "stars": 0, "tags": null, "updated_at": 1776699044473, "version": "1.0.2"}, {"category": "", "created_at": 1774907845416, "description": "Manage Ollama models across your machines — see what's loaded, what's eating disk, what's never used, and what you should pull next. Get AI-powered recommend...", "description_zh": "", "downloads": 58, "homepage": "https://clawhub.ai/twinsgeeks/ollama-manager", "iconUrl": null, "installs": 9, "name": "Ollama Manager", "ownerName": "twinsgeeks", "score": 86567.16417910447, "slug": "ollama-manager", "source": "clawhub", "stars": 0, "tags": ["cleanup", "delete", "disk-usage", "model-lifecycle", "model-management", "ollama", "pull", "recommendations"], "updated_at": 1776696770605, "version": "1.0.1"}, {"category": "productivity", "created_at": 1773949668106, "description": "Katelynn Lead Gen — Intelligent full-cycle lead generation, warm prospect qualification, and multi-channel outreach. Use this skill any time the user wants t...", "description_zh": "", "downloads": 58, "homepage": "https://clawhub.ai/dirtonyou/katelynn-lead-gen", "iconUrl": null, "installs": 2, "name": "Katelynn Lead Gen", "ownerName": "dirtonyou", "score": 86567.16417910447, "slug": "katelynn-lead-gen", "source": "clawhub", "stars": 0, "tags": null, "updated_at": 1776696770510, "version": "1.0.0"}, {"category": "data-analysis", "created_at": 1773958720112, "description": "Build, automate, or maintain a daily paper-report delivery pipeline that collects papers, selects A/B groups, generates Chinese summaries and detailed innova...", "description_zh": "", "downloads": 58, "homepage": "https://clawhub.ai/fanwu-fan/paper-report-delivery", "iconUrl": null, "installs": 5, "name": "Paper Report Delivery", "ownerName": "fanwu-fan", "score": 95081.96721311475, "slug": "paper-report-delivery", "source": "clawhub", "stars": 0, "tags": null, "updated_at": 1776696770493, "version": "1.0.0"}, {"category": "", "created_at": 1773287392601, "description": "Set up EternalAI as an OpenClaw model provider. Use when the user asks to configure EternalAI, add EternalAI models, or set up the EternalAI provider.", "description_zh": "", "downloads": 58, "homepage": "https://clawhub.ai/root/uncensored-skill", "iconUrl": null, "installs": 0, "name": "Uncensored AI", "ownerName": "root", "score": 95081.96721311475, "slug": "uncensored-skill", "source": "clawhub", "stars": 0, "tags": null, "updated_at": 1776696770444, "version": "1.0.0"}, {"category": "productivity", "created_at": 1773961531036, "description": "Transforms the agent into a strategic CEO and orchestrator. Vision, decision-making, resource allocation, team dispatch, scaling playbook from €0 to €1B. Use...", "description_zh": "", "downloads": 58, "homepage": "https://clawhub.ai/georges91560/ceo-master", "iconUrl": null, "installs": 11, "name": "CEO Master", "ownerName": "georges91560", "score": 95081.96721311475, "slug": "ceo-master", "source": "clawhub", "stars": 0, "tags": ["#analytics", "#autonomous-agent", "#b2b", "#cac", "#ceo", "#churn", "#decision-making", "#first-principles", "#funnel", "#growth", "#kpi", "#ltv", "#metrics", "#mrr", "#multi-agent", "#okr", "#orchestration", "#python", "#revenue", "#roi", "#saas", "#scaling", "#strategy"], "updated_at": 1776696770378, "version": "1.0.0"}, {"category": "content-creation", "created_at": 1773959030364, "description": "Scrapes a LinkedIn profile and generates a savage audio roast about being replaced by AI.", "description_zh": "", "downloads": 58, "homepage": "https://clawhub.ai/xuanyuzhou98/linkedin-profile-roast", "iconUrl": null, "installs": 11, "name": "AI Roast Linkedin Profile", "ownerName": "xuanyuzhou98", "score": 95081.96721311475, "slug": "linkedin-profile-roast", "source": "clawhub", "stars": 0, "tags": null, "updated_at": 1776696770112, "version": "1.0.1"}, {"category": "productivity", "created_at": 1773960237498, "description": "Research public holidays, bank holidays, observed days, school breaks, and make-up workdays for any country or region. Use when the user asks whether a speci...", "description_zh": "", "downloads": 58, "homepage": "https://clawhub.ai/jvy/holiday", "iconUrl": null, "installs": 6, "name": "holiday", "ownerName": "jvy", "score": 95081.96721311475, "slug": "holiday", "source": "clawhub", "stars": 0, "tags": null, "updated_at": 1776696770034, "version": "1.0.0"}, {"category": "", "created_at": 1775311285141, "description": "Generate daily AI news digest every day at 8 AM", "description_zh": "", "downloads": 58, "homepage": "https://clawhub.ai/user_b4850184/feedship-ai-daily", "iconUrl": null, "installs": 0, "name": "feedship-ai-daily", "ownerName": "user_b4850184", "score": 95081.96721311475, "slug": "feedship-ai-daily", "source": "community", "stars": 0, "tags": null, "updated_at": 1776696769968, "version": "1.21.0"}, {"category": "data-analysis", "created_at": 1773954834050, "description": "Interzoid integration. Manage data, records, and automate workflows. Use when the user wants to interact with Interzoid data.", "description_zh": "", "downloads": 58, "homepage": "https://clawhub.ai/gora050/interzoid", "iconUrl": null, "installs": 6, "name": "Interzoid", "ownerName": "gora050", "score": 95081.96721311475, "slug": "interzoid", "source": "clawhub", "stars": 0, "tags": null, "updated_at": 1776696769834, "version": "1.0.0"}, {"category": "data-analysis", "created_at": 1773956482070, "description": "IdealSpot integration. Manage Organizations. Use when the user wants to interact with IdealSpot data.", "description_zh": "", "downloads": 58, "homepage": "https://clawhub.ai/gora050/idealspot", "iconUrl": null, "installs": 5, "name": "Idealspot", "ownerName": "gora050", "score": 95081.96721311475, "slug": "idealspot", "source": "clawhub", "stars": 0, "tags": null, "updated_at": 1776696769814, "version": "1.0.0"}, {"category": "developer-tools", "created_at": 1773956545724, "description": "Build a complete MindStudio Run Function integration for any API the user wants to connect. Use this skill whenever the user mentions MindStudio, wants to co...", "description_zh": "", "downloads": 58, "homepage": "https://clawhub.ai/sol1986/mindstudio-to-api-custom-function-builder", "iconUrl": null, "installs": 4, "name": "MindStudio To API Custom Function Skill", "ownerName": "sol1986", "score": 95081.96721311475, "slug": "mindstudio-to-api-custom-function-builder", "source": "clawhub", "stars": 0, "tags": null, "updated_at": 1776696769662, "version": "1.1.0"}, {"category": "ai-intelligence", "created_at": 1773951162639, "description": "Model Router - Parallel multi-LLM invocation with result merging. Use when: need better answers, compare model outputs, or get best result from multiple LLMs...", "description_zh": "", "downloads": 58, "homepage": "https://clawhub.ai/huaibuer/model-router-waai", "iconUrl": null, "installs": 0, "name": "Model Router", "ownerName": "huaibuer", "score": 95081.96721311475, "slug": "model-router-waai", "source": "clawhub", "stars": 0, "tags": null, "updated_at": 1776696769579, "version": "1.1.0"}, {"category": "", "created_at": 1774848965115, "description": "Multi search engine integration with 17 engines (8 CN + 9 Global). Supports advanced search operators, time filters, site search, privacy engines, and Wolfra...", "description_zh": "", "downloads": 58, "homepage": "https://clawhub.ai/litiao1224/multi-search-engine-litiao", "iconUrl": null, "installs": 16, "name": "Multi Search Engine Litiao", "ownerName": "litiao1224", "score": 95081.96721311475, "slug": "multi-search-engine-litiao", "source": "clawhub", "stars": 0, "tags": null, "updated_at": 1776696769528, "version": "1.0.0"}, {"category": "security-compliance", "created_at": 1773951474346, "description": "Review and redline DOCX contracts paragraph by paragraph with tracked changes, clause-level risk analysis, and draft comment responses. Use when a user wants...", "description_zh": "", "downloads": 57, "homepage": "https://clawhub.ai/chipmunkrpa/redline-contract", "iconUrl": null, "installs": 2, "name": "Redline Contract", "ownerName": "chipmunkrpa", "score": 93902.43902439025, "slug": "redline-contract", "source": "clawhub", "stars": 1, "tags": null, "updated_at": 1776696304701, "version": "1.0.0"}, {"category": "", "created_at": 1774875378711, "description": "Turn school or university timetables into checked .ics calendars. Use when an agent needs to normalize and verify schedules from xls/xlsx, screenshots, PDFs,...", "description_zh": "", "downloads": 57, "homepage": "https://clawhub.ai/davidai-1999/course-schedule-export", "iconUrl": null, "installs": 3, "name": "Course Schedule Export", "ownerName": "davidai-1999", "score": 1258.2781456953642, "slug": "course-schedule-export", "source": "clawhub", "stars": 0, "tags": null, "updated_at": 1776763750039, "version": "1.0.0"}, {"category": "", "created_at": 1774892944874, "description": "Troubleshoot Golang programs systematically - find and fix the root cause. Use when encountering bugs, crashes, deadlocks, or unexpected behavior in Go code....", "description_zh": "", "downloads": 57, "homepage": "https://clawhub.ai/samber/golang-performance", "iconUrl": null, "installs": 4, "name": "Golang Performance", "ownerName": "samber", "score": 2182.2358346094948, "slug": "golang-performance", "source": "clawhub", "stars": 0, "tags": null, "updated_at": 1776762289979, "version": "1.0.0"}]}