{"page": 429, "total_pages": 522, "total": 26073, "skills": [{"category": "", "created_at": 1774956790685, "description": "DAG-based workflow engine supporting sequential, conditional, and parallel tasks with checkpoint persistence and event-driven execution.", "description_zh": "", "downloads": 57, "homepage": "https://clawhub.ai/yuyonghao-123/yuyonghao-workflow-engine", "iconUrl": null, "installs": 2, "name": "Workflow Engine", "ownerName": "yuyonghao-123", "score": 12050.739957716702, "slug": "yuyonghao-workflow-engine", "source": "clawhub", "stars": 0, "tags": null, "updated_at": 1776759983257, "version": "0.1.0"}, {"category": "", "created_at": 1774882791870, "description": "Use Chanjing TTS API to synthesize speech from text, using user-provided voice. Primary credential: credentials.json (app_id/secret_key; access_token persist...", "description_zh": "", "downloads": 57, "homepage": "https://clawhub.ai/iamzn1018/chanjing-tts-voice-clone", "iconUrl": null, "installs": 1, "name": "Chanjing Tts Voice Clone", "ownerName": "iamzn1018", "score": 4502.369668246445, "slug": "chanjing-tts-voice-clone", "source": "clawhub", "stars": 0, "tags": null, "updated_at": 1776759983159, "version": "1.0.1"}, {"category": "", "created_at": 1774898485891, "description": "A real-time monitoring dashboard for OpenClaw agents. Track agents, sub-agents, cron jobs, costs, project progress, and session replay — all in one dark-mode...", "description_zh": "", "downloads": 57, "homepage": "https://clawhub.ai/mrpixelraf/oc-dashboard", "iconUrl": null, "installs": 1, "name": "OpenClaw Dashboard", "ownerName": "mrpixelraf", "score": 81428.57142857143, "slug": "oc-dashboard", "source": "clawhub", "stars": 0, "tags": null, "updated_at": 1776759982958, "version": "1.1.0"}, {"category": "", "created_at": 1774866387415, "description": "Automation skill for Weather Tools.", "description_zh": "", "downloads": 57, "homepage": "https://clawhub.ai/164149043/weather-tools", "iconUrl": null, "installs": 6, "name": "Weather Tools", "ownerName": "164149043", "score": 67058.82352941176, "slug": "weather-tools", "source": "clawhub", "stars": 0, "tags": null, "updated_at": 1776759982940, "version": "1.0.0"}, {"category": "", "created_at": 1774849349907, "description": "Perform comprehensive security audits, system updates, network and service status checks, and configure scheduled health monitoring for OpenClaw deployments.", "description_zh": "", "downloads": 57, "homepage": "https://clawhub.ai/pettercc2024-create/openclaw-super-healthcheck", "iconUrl": null, "installs": 0, "name": "Advanced OpenClaw System Health Check & Repair", "ownerName": "pettercc2024-create", "score": 4481.132075471698, "slug": "openclaw-super-healthcheck", "source": "clawhub", "stars": 0, "tags": ["backup-safety .by pangaoyong", "diagnostics", "healthcheck", "maintenance", "system"], "updated_at": 1776759982824, "version": "1.0.0"}, {"category": "", "created_at": 1774887799750, "description": "Summarize articles or webpages into structured bundles exported as JSON, Markdown, HTML, and PNG with consistent layout and tagging.", "description_zh": "", "downloads": 57, "homepage": "https://clawhub.ai/wiseqingyang/article-summary-card", "iconUrl": null, "installs": 0, "name": "Article Summary Card", "ownerName": "wiseqingyang", "score": 4481.132075471698, "slug": "article-summary-card", "source": "clawhub", "stars": 0, "tags": ["image", "markdown", "reading", "summary", "workflow"], "updated_at": 1776759982811, "version": "1.0.2"}, {"category": "", "created_at": 1774912291060, "description": "Rewrite a rough sentence into 5 better title options.", "description_zh": "", "downloads": 57, "homepage": "https://clawhub.ai/meituan-openplatform/title-polisher", "iconUrl": null, "installs": 1, "name": "jasontest", "ownerName": "meituan-openplatform", "score": 4484.657749803305, "slug": "title-polisher", "source": "clawhub", "stars": 0, "tags": null, "updated_at": 1776759982791, "version": "1.0.0"}, {"category": "", "created_at": 1774827303162, "description": "An AI Agent cognitive growth system built on the native OpenClaw architecture. It provides agents with persistent memory management, visual intimacy progress...", "description_zh": "", "downloads": 57, "homepage": "https://clawhub.ai/liruozhou/anima-aios", "iconUrl": null, "installs": 4, "name": "Anima Aios", "ownerName": "liruozhou", "score": 4484.657749803305, "slug": "anima-aios", "source": "clawhub", "stars": 0, "tags": null, "updated_at": 1776759982783, "version": "6.2.3"}, {"category": "", "created_at": 1774887229091, "description": "Provides detailed guidance on using the nvidia-smi command for real-time NVIDIA GPU monitoring, management, troubleshooting, and automation.", "description_zh": "", "downloads": 57, "homepage": "https://clawhub.ai/duanc-chao/nvidia-smi", "iconUrl": null, "installs": 2, "name": "Nvidia smi tutorial", "ownerName": "duanc-chao", "score": 4509.493670886076, "slug": "nvidia-smi", "source": "clawhub", "stars": 0, "tags": null, "updated_at": 1776759982771, "version": "1.0.0"}, {"category": "", "created_at": 1774877280862, "description": "Comprehensive go-to-market strategy guide with planning frameworks, positioning, channel tactics, launch timelines, and post-launch growth for startups and p...", "description_zh": "", "downloads": 57, "homepage": "https://clawhub.ai/gingiris/go-to-market-strategy", "iconUrl": null, "installs": 0, "name": "Go-to-Market Strategy Playbook", "ownerName": "gingiris", "score": 4477.611940298507, "slug": "go-to-market-strategy", "source": "clawhub", "stars": 0, "tags": null, "updated_at": 1776759982668, "version": "1.0.0"}, {"category": "", "created_at": 1774917287207, "description": "Manages Telegram group chat replies by responding to @mentions, questions, name calls, technical topics, or priority users while preventing spam and bot loops.", "description_zh": "", "downloads": 57, "homepage": "https://clawhub.ai/zboxman/telegram-group-chat", "iconUrl": null, "installs": 5, "name": "Telegram Group Chat", "ownerName": "zboxman", "score": 78082.19178082192, "slug": "telegram-group-chat", "source": "clawhub", "stars": 0, "tags": null, "updated_at": 1776759982604, "version": "1.0.0"}, {"category": "", "created_at": 1774863731012, "description": "Normalize fragmented creator, product, and campaign details into a structured, reusable context pack for streamlined ecommerce and affiliate workflows.", "description_zh": "", "downloads": 57, "homepage": "https://clawhub.ai/leooooooow/creator-commerce-context", "iconUrl": null, "installs": 1, "name": "Creator Commerce Context", "ownerName": "leooooooow", "score": 4474.097331240188, "slug": "creator-commerce-context", "source": "clawhub", "stars": 0, "tags": null, "updated_at": 1776759982543, "version": "1.0.0"}, {"category": "", "created_at": 1774901944846, "description": "Configure and troubleshoot OpenClaw multi-agent collaboration, delegation, sync groups, and channel routing for seamless visible teamwork across supported pl...", "description_zh": "", "downloads": 57, "homepage": "https://clawhub.ai/oldbulls/collab-setup", "iconUrl": null, "installs": 2, "name": "Collab Setup", "ownerName": "oldbulls", "score": 4470.588235294118, "slug": "collab-setup", "source": "clawhub", "stars": 0, "tags": ["collaboration", "config-safety", "delegation", "discord", "feishu", "group-routing", "multi-agent", "setup", "signal", "slack", "telegram", "troubleshooting", "whatsapp"], "updated_at": 1776759982430, "version": "1.0.0"}, {"category": "", "created_at": 1774831525235, "description": "Translate full web articles from foreign URLs into natural, publication-quality Simplified Chinese markdown while preserving format and style.", "description_zh": "", "downloads": 57, "homepage": "https://clawhub.ai/dizhu/full-page-translate", "iconUrl": null, "installs": 4, "name": "Full Page Translate", "ownerName": "dizhu", "score": 4470.588235294118, "slug": "full-page-translate", "source": "clawhub", "stars": 0, "tags": null, "updated_at": 1776759982414, "version": "1.0.2"}, {"category": "", "created_at": 1774875344093, "description": "Generates interactive D3.js Sankey-style causal network diagrams showing hierarchical cause-effect relationships with evidence and adjustable nodes.", "description_zh": "", "downloads": 57, "homepage": "https://clawhub.ai/zmqnk/complex-causal-analysis", "iconUrl": null, "installs": 0, "name": "complex-causal-analysis", "ownerName": "zmqnk", "score": 4470.588235294118, "slug": "complex-causal-analysis", "source": "clawhub", "stars": 0, "tags": null, "updated_at": 1776759982390, "version": "1.0.0"}, {"category": "", "created_at": 1774953588543, "description": "AKM implementation for training decision workflows. Models goals, body limits, equipment context, time budget, and recovery before outputting a workout decis...", "description_zh": "", "downloads": 57, "homepage": "https://clawhub.ai/sirsws/akm-fitness-planner", "iconUrl": null, "installs": 0, "name": "AKM Fitness", "ownerName": "sirsws", "score": 4470.588235294118, "slug": "akm-fitness-planner", "source": "clawhub", "stars": 0, "tags": null, "updated_at": 1776759982371, "version": "1.0.1"}, {"category": "", "created_at": 1774898105929, "description": "Search community-curated Grok Imagine video generation prompts from X/Twitter. Grok Imagine is xAI's AI video generation model — these prompts are specifical...", "description_zh": "", "downloads": 57, "homepage": "https://clawhub.ai/dophinl/grok-imagine-prompts", "iconUrl": null, "installs": 2, "name": "Grok Imagine Prompts", "ownerName": "dophinl", "score": 4498.8161010260455, "slug": "grok-imagine-prompts", "source": "clawhub", "stars": 0, "tags": null, "updated_at": 1776759982332, "version": "1.1.2"}, {"category": "", "created_at": 1774871184468, "description": "Instantly find nonfiction books with Goodreads ratings, summaries, key concepts, and AI suggestions for enhancing your agent's knowledge files.", "description_zh": "", "downloads": 57, "homepage": "https://clawhub.ai/heardlyapp/find-book", "iconUrl": null, "installs": 5, "name": "Find Book", "ownerName": "heardlyapp", "score": 33529.41176470588, "slug": "find-book", "source": "clawhub", "stars": 0, "tags": null, "updated_at": 1776759982230, "version": "1.0.18"}, {"category": "", "created_at": 1774851274966, "description": "Travel planning, itinerary construction, and reservation management. Use when the user wants to plan a trip, build an itinerary, find lodging or restaurants,...", "description_zh": "", "downloads": 57, "homepage": "https://clawhub.ai/indigokarasu/ocas-voyage", "iconUrl": null, "installs": 2, "name": "Ocas Voyage", "ownerName": "indigokarasu", "score": 4331.306990881459, "slug": "ocas-voyage", "source": "clawhub", "stars": 0, "tags": null, "updated_at": 1776759982224, "version": "2.0.0"}, {"category": "", "created_at": 1774952699665, "description": "AKM implementation for wardrobe and outfit decision workflows. Models body context, scenes, wardrobe assets, and functional constraints before outputting sty...", "description_zh": "", "downloads": 57, "homepage": "https://clawhub.ai/sirsws/akm-fashion-strategist", "iconUrl": null, "installs": 1, "name": "AKM Fashion", "ownerName": "sirsws", "score": 4331.306990881459, "slug": "akm-fashion-strategist", "source": "clawhub", "stars": 0, "tags": null, "updated_at": 1776759982194, "version": "1.0.1"}, {"category": "", "created_at": 1774864546075, "description": "Plans paid ad campaigns with platform selection and budget guidance for startups. Use when someone wants help with ads, paid acquisition, Google Ads, LinkedI...", "description_zh": "", "downloads": 57, "homepage": "https://clawhub.ai/c0ldsmi1e/ad-strategy", "iconUrl": null, "installs": 5, "name": "AD Strategy", "ownerName": "c0ldsmi1e", "score": 4491.725768321513, "slug": "ad-strategy", "source": "clawhub", "stars": 0, "tags": null, "updated_at": 1776759982160, "version": "1.0.0"}, {"category": "", "created_at": 1774878802705, "description": "Generate AI images using ByteDance Seedream via Media.io OpenAPI. Delivers high aesthetic quality and detailed rendering for text-to-image and image-to-image...", "description_zh": "", "downloads": 57, "homepage": "https://clawhub.ai/wondershare-boop/mediaio-seedream-image-generator", "iconUrl": null, "installs": 12, "name": "Seedream AI Image Generator", "ownerName": "wondershare-boop", "score": 4357.798165137615, "slug": "mediaio-seedream-image-generator", "source": "clawhub", "stars": 0, "tags": null, "updated_at": 1776759498356, "version": "1.0.2"}, {"category": "", "created_at": 1774894309379, "description": "Amazon SES integration. Manage data, records, and automate workflows. Use when the user wants to interact with Amazon SES data.", "description_zh": "", "downloads": 57, "homepage": "https://clawhub.ai/gora050/amazon-ses", "iconUrl": null, "installs": 15, "name": "Amazon Ses", "ownerName": "gora050", "score": 3569.192235441453, "slug": "amazon-ses", "source": "clawhub", "stars": 0, "tags": null, "updated_at": 1776757882181, "version": "1.0.0"}, {"category": "", "created_at": 1774905218316, "description": "Win and maintain the Amazon Buy Box. Analyze Buy Box eligibility factors, competitor pricing dynamics, and develop pricing and fulfillment strategies to maxi...", "description_zh": "", "downloads": 57, "homepage": "https://clawhub.ai/nexscope/amazon-buy-box-strategy", "iconUrl": null, "installs": 16, "name": "Amazon Buy Box Strategy", "ownerName": "nexscope", "score": 3380.7829181494662, "slug": "amazon-buy-box-strategy", "source": "clawhub", "stars": 0, "tags": null, "updated_at": 1776757733315, "version": "1.0.0"}, {"category": "", "created_at": 1774948699569, "description": "MaxMind GeoIP2 integration. Manage data, records, and automate workflows. Use when the user wants to interact with MaxMind GeoIP2 data.", "description_zh": "", "downloads": 57, "homepage": "https://clawhub.ai/gora050/maxmind-geoip2", "iconUrl": null, "installs": 14, "name": "Maxmind Geoip2", "ownerName": "gora050", "score": 3376.7772511848343, "slug": "maxmind-geoip2", "source": "clawhub", "stars": 0, "tags": null, "updated_at": 1776756227316, "version": "1.0.0"}, {"category": "", "created_at": 1774846272608, "description": "Generate thumbnail candidates from video frames so creators, ecommerce teams, and operators can choose cleaner covers for social, storefronts, and internal s...", "description_zh": "", "downloads": 57, "homepage": "https://clawhub.ai/leooooooow/video-thumbnail-generator", "iconUrl": null, "installs": 2, "name": "Video Thumbnail Generator", "ownerName": "leooooooow", "score": 9965.034965034965, "slug": "video-thumbnail-generator", "source": "clawhub", "stars": 0, "tags": null, "updated_at": 1776755288480, "version": "1.0.0"}, {"category": "", "created_at": 1774869413423, "description": "Marketing strategy prediction with real-world data integration. Predicts campaign outcomes, product launches, and market reactions using multi-agent simulati...", "description_zh": "", "downloads": 57, "homepage": "https://clawhub.ai/dorongss/vision-simulator", "iconUrl": null, "installs": 11, "name": "Vision Simulator", "ownerName": "dorongss", "score": 2594.446973145198, "slug": "vision-simulator", "source": "clawhub", "stars": 0, "tags": null, "updated_at": 1776752683713, "version": "1.0.0"}, {"category": "", "created_at": 1774949970471, "description": "Build, review, and debug OpenClaw plugins with the official plugin SDK. Use when creating or modifying `extensions/<id>` plugins, `openclaw.plugin.json`, plu...", "description_zh": "", "downloads": 57, "homepage": "https://clawhub.ai/pazyork/plugin-creator", "iconUrl": null, "installs": 2, "name": "plugin-creator", "ownerName": "pazyork", "score": 10196.779964221825, "slug": "plugin-creator", "source": "clawhub", "stars": 0, "tags": null, "updated_at": 1776751784037, "version": "0.1.2"}, {"category": "", "created_at": 1774842914194, "description": "Read, parse, and explain insurance policy documents in plain language. Highlight coverage limits, exclusions, deductibles, and key terms. Use when users want...", "description_zh": "", "downloads": 57, "homepage": "https://clawhub.ai/jiwenbing/insurance-policy", "iconUrl": null, "installs": 3, "name": "Insurance Policy", "ownerName": "jiwenbing", "score": 57575.75757575758, "slug": "insurance-policy", "source": "clawhub", "stars": 0, "tags": null, "updated_at": 1776743383782, "version": "1.0.0"}, {"category": "productivity", "created_at": 1773952563382, "description": "Manifestly Checklists integration. Manage Checklists, Projects, Users, Teams. Use when the user wants to interact with Manifestly Checklists data.", "description_zh": "", "downloads": 57, "homepage": "https://clawhub.ai/membranedev/manifestly-checklists", "iconUrl": null, "installs": 3, "name": "Manifestly Checklists", "ownerName": "membranedev", "score": 57575.75757575758, "slug": "manifestly-checklists", "source": "clawhub", "stars": 0, "tags": null, "updated_at": 1776743383702, "version": "1.0.0"}, {"category": "", "created_at": 1774846357054, "description": "Spaced-repetition flashcard system backed by Feishu Bitable (multi-dimensional table). Create flashcards from any book or knowledge base, quiz the user inter...", "description_zh": "", "downloads": 57, "homepage": "https://clawhub.ai/guoqunabc/learning-cards", "iconUrl": null, "installs": 0, "name": "Learning Cards (Spaced Repetition)", "ownerName": "guoqunabc", "score": 57575.75757575758, "slug": "learning-cards", "source": "clawhub", "stars": 0, "tags": null, "updated_at": 1776741769657, "version": "1.1.1"}, {"category": "", "created_at": 1774888542811, "description": "Remove watermarks from Sora 2 generated videos via the NanoPhoto.AI API. Use when: (1) User needs Sora watermark removal or a watermark remover for a Sora vi...", "description_zh": "", "downloads": 57, "homepage": "https://clawhub.ai/nanophotohq/sora-watermark-remover", "iconUrl": null, "installs": 15, "name": "Sora Watermark Remover", "ownerName": "nanophotohq", "score": 63333.33333333333, "slug": "sora-watermark-remover", "source": "clawhub", "stars": 0, "tags": ["nanophoto", "sora", "video", "watermark"], "updated_at": 1776737404811, "version": "1.0.1"}, {"category": "", "created_at": 1774949477129, "description": "Explain how to connect NovelAI to OpenClaw through a local OpenAI-compatible shim. Use when the user wants configuration guidance for a local NovelAI adaptor...", "description_zh": "", "downloads": 57, "homepage": "https://clawhub.ai/askkumptenchen/novelai-openclaw-adaptor", "iconUrl": null, "installs": 4, "name": "NovelAI OpenClaw Adaptor", "ownerName": "askkumptenchen", "score": 63333.33333333333, "slug": "novelai-openclaw-adaptor", "source": "clawhub", "stars": 0, "tags": null, "updated_at": 1776737270391, "version": "1.0.1"}, {"category": "", "created_at": 1774914502606, "description": "Check MiniMax Token Plan remaining quota, usage window reset time, and per-model remaining limits, especially for the China mainland Token Plan flow on minim...", "description_zh": "", "downloads": 57, "homepage": "https://clawhub.ai/alex-shen1121/minimax-token-plan-quota", "iconUrl": null, "installs": 14, "name": "MiniMax Token Plan Quota", "ownerName": "alex-shen1121", "score": 80281.69014084508, "slug": "minimax-token-plan-quota", "source": "clawhub", "stars": 0, "tags": null, "updated_at": 1776735055528, "version": "0.1.0"}, {"category": "", "created_at": 1774912886651, "description": "Deep internationalization workflow—string extraction, ICU messages, formats, pseudolocale testing, and developer workflow. Use when preparing software for tr...", "description_zh": "", "downloads": 57, "homepage": "https://clawhub.ai/codenova58/i18n", "iconUrl": null, "installs": 0, "name": "I18n", "ownerName": "codenova58", "score": 58762.886597938144, "slug": "i18n", "source": "clawhub", "stars": 0, "tags": null, "updated_at": 1776699904686, "version": "1.0.0"}, {"category": "", "created_at": 1774886692727, "description": "Push any scene toward gothic mystery: low key light, candles, smoke, black-gold-crimson palette, ceremonial poses—WeryAI Seedance 2.0 only. Use when you need...", "description_zh": "", "downloads": 57, "homepage": "https://clawhub.ai/zoucdr/dark-ritual-transform-video-gen-seedance2-0", "iconUrl": null, "installs": 12, "name": "Dark Ritual Transform Video Gen Seedance2.0", "ownerName": "zoucdr", "score": 100000, "slug": "dark-ritual-transform-video-gen-seedance2-0", "source": "clawhub", "stars": 0, "tags": null, "updated_at": 1776697369814, "version": "0.1.0"}, {"category": "productivity", "created_at": 1773951602084, "description": "ChMeetings integration. Manage data, records, and automate workflows. Use when the user wants to interact with ChMeetings data.", "description_zh": "", "downloads": 57, "homepage": "https://clawhub.ai/membranedev/chmeetings", "iconUrl": null, "installs": 5, "name": "Chmeetings", "ownerName": "membranedev", "score": 85074.62686567164, "slug": "chmeetings", "source": "clawhub", "stars": 0, "tags": null, "updated_at": 1776696770697, "version": "1.0.0"}, {"category": "communication-collaboration", "created_at": 1773954917386, "description": "The social network for AI agents. Post, comment, upvote, and create communities.", "description_zh": "", "downloads": 57, "homepage": "https://clawhub.ai/prajith04/moltbook04", "iconUrl": null, "installs": 5, "name": "moltbook", "ownerName": "prajith04", "score": 85074.62686567164, "slug": "moltbook04", "source": "clawhub", "stars": 0, "tags": null, "updated_at": 1776696770692, "version": "1.0.0"}, {"category": "developer-tools", "created_at": 1773956050663, "description": "StackShare integration. Manage Stacks, Companies, Projects, Users. Use when the user wants to interact with StackShare data.", "description_zh": "", "downloads": 57, "homepage": "https://clawhub.ai/gora050/stackshare", "iconUrl": null, "installs": 6, "name": "Stackshare", "ownerName": "gora050", "score": 85074.62686567164, "slug": "stackshare", "source": "clawhub", "stars": 0, "tags": null, "updated_at": 1776696770678, "version": "1.0.0"}, {"category": "", "created_at": 1774948677485, "description": "Licitações e contratos administrativos — Lei nº 14.133/2021 (Nova Lei de Licitações). Use quando o usuário perguntar sobre: (1) Modalidades de licitação (pre...", "description_zh": "", "downloads": 57, "homepage": "https://clawhub.ai/inovabizpi-cell/licitacoes-14133", "iconUrl": null, "installs": 12, "name": "Licitações Lei 14.133/2021", "ownerName": "inovabizpi-cell", "score": 85074.62686567164, "slug": "licitacoes-14133", "source": "clawhub", "stars": 0, "tags": ["brasil", "contratos", "dispensa", "lei-14133", "licitacoes", "pregao"], "updated_at": 1776696770636, "version": "1.0.0"}, {"category": "communication-collaboration", "created_at": 1773951336563, "description": "Slybroadcast integration. Manage Persons, Organizations, Leads, Deals, Projects, Activities and more. Use when the user wants to interact with Slybroadcast d...", "description_zh": "", "downloads": 57, "homepage": "https://clawhub.ai/membranedev/slybroadcast", "iconUrl": null, "installs": 3, "name": "Slybroadcast", "ownerName": "membranedev", "score": 85074.62686567164, "slug": "slybroadcast", "source": "clawhub", "stars": 0, "tags": null, "updated_at": 1776696770631, "version": "1.0.0"}, {"category": "ai-intelligence", "created_at": 1773960946300, "description": "Universal AI memory infrastructure that stores, understands, and learns from past interactions. Works across ChatGPT, Claude, Gemini, DeepSeek, and any AI mo...", "description_zh": "", "downloads": 57, "homepage": "https://clawhub.ai/engsathiago/cognimemo-memory", "iconUrl": null, "installs": 12, "name": "CogniMemo Memory", "ownerName": "engsathiago", "score": 85074.62686567164, "slug": "cognimemo-memory", "source": "clawhub", "stars": 0, "tags": ["ai", "context", "cross-app", "memory", "persistence"], "updated_at": 1776696770629, "version": "1.0.0"}, {"category": "productivity", "created_at": 1773952689837, "description": "Control a ratgdo32 disco garage door opener via its local web API. Use when the user asks to open/close the garage, check garage status, toggle the garage li...", "description_zh": "", "downloads": 57, "homepage": "https://clawhub.ai/bolander72/ratgdo32-disco", "iconUrl": null, "installs": 5, "name": "ratgdo32 disco", "ownerName": "bolander72", "score": 85074.62686567164, "slug": "ratgdo32-disco", "source": "clawhub", "stars": 0, "tags": null, "updated_at": 1776696770616, "version": "1.0.1"}, {"category": "communication-collaboration", "created_at": 1773950719291, "description": "Automate Zalo messaging via zalo-agent-cli. Triggers: 'zalo', 'send zalo', 'bank card', 'QR transfer', 'VietQR', 'listen zalo', 'zalo webhook', 'zalo group',...", "description_zh": "", "downloads": 57, "homepage": "https://clawhub.ai/phucmpham/zalo-agent", "iconUrl": null, "installs": 3, "name": "Zalo Agent CLI", "ownerName": "phucmpham", "score": 85074.62686567164, "slug": "zalo-agent", "source": "clawhub", "stars": 0, "tags": null, "updated_at": 1776696770591, "version": "1.0.31"}, {"category": "", "created_at": 1774884933085, "description": "Reverse image search — find where an image appears on the web, visually similar images, and what the image contains. Works with image URLs or uploaded image...", "description_zh": "", "downloads": 57, "homepage": "https://clawhub.ai/selvatuple/searchthisimage", "iconUrl": null, "installs": 6, "name": "Reverse Image Search", "ownerName": "selvatuple", "score": 85074.62686567164, "slug": "searchthisimage", "source": "clawhub", "stars": 0, "tags": null, "updated_at": 1776696770537, "version": "1.0.4"}, {"category": "ai-intelligence", "created_at": 1773952701237, "description": "reddi.tech fork of agent-evaluation. Testing and benchmarking LLM agents including behavioral testing, capability assessment, reliability metrics, and produc...", "description_zh": "", "downloads": 57, "homepage": "https://clawhub.ai/nissan/reddi-agent-evaluation", "iconUrl": null, "installs": 5, "name": "Reddi Agent Evaluation", "ownerName": "nissan", "score": 93442.62295081967, "slug": "reddi-agent-evaluation", "source": "clawhub", "stars": 0, "tags": null, "updated_at": 1776696770433, "version": "1.0.2"}, {"category": "developer-tools", "created_at": 1773951561729, "description": "Browserhub integration. Manage data, records, and automate workflows. Use when the user wants to interact with Browserhub data.", "description_zh": "", "downloads": 57, "homepage": "https://clawhub.ai/gora050/browserhub", "iconUrl": null, "installs": 4, "name": "Browserhub", "ownerName": "gora050", "score": 93442.62295081967, "slug": "browserhub", "source": "clawhub", "stars": 0, "tags": null, "updated_at": 1776696770365, "version": "1.0.0"}, {"category": "data-analysis", "created_at": 1773958481163, "description": "Free Hedera analytics API — token prices, holder data, market caps, volume tracking. The most comprehensive historic Hedera token dataset available. Powered...", "description_zh": "", "downloads": 57, "homepage": "https://clawhub.ai/imaflytok/hedera-data", "iconUrl": null, "installs": 9, "name": "Hedera Data API", "ownerName": "imaflytok", "score": 93442.62295081967, "slug": "hedera-data", "source": "clawhub", "stars": 0, "tags": null, "updated_at": 1776696770345, "version": "1.1.0"}, {"category": "", "created_at": 1774920785887, "description": "Captures learnings, errors, and corrections to enable continuous improvement. Use when: (1) A command or operation fails unexpectedly, (2) User corrects Clau...", "description_zh": "", "downloads": 57, "homepage": "https://clawhub.ai/chengyz3327-design/warren-self-improving-agent-v2", "iconUrl": null, "installs": 16, "name": "Self Improving Agent", "ownerName": "chengyz3327-design", "score": 93442.62295081967, "slug": "warren-self-improving-agent-v2", "source": "clawhub", "stars": 0, "tags": null, "updated_at": 1776696770328, "version": "3.0.7"}, {"category": "content-creation", "created_at": 1773961508132, "description": "Automated AI daily news collection and reporting system. Collects AI papers from arXiv, Hugging Face, AI products from Product Hunt, YouTube videos from AI c...", "description_zh": "", "downloads": 57, "homepage": "https://clawhub.ai/josephleohou-ui/ai-daily-news", "iconUrl": null, "installs": 14, "name": "AI Daily News", "ownerName": "josephleohou-ui", "score": 93442.62295081967, "slug": "ai-daily-news", "source": "clawhub", "stars": 0, "tags": null, "updated_at": 1776696770323, "version": "1.0.0"}]}