{"page": 430, "total_pages": 522, "total": 26073, "skills": [{"category": "developer-tools", "created_at": 1773954550596, "description": "Deploy static websites to AIOZ Storage with built-in templates or custom sites.", "description_zh": "", "downloads": 57, "homepage": "https://clawhub.ai/vinhbui3004/aioz-storage-skill", "iconUrl": null, "installs": 3, "name": "AIOZ Storage Skill", "ownerName": "vinhbui3004", "score": 93442.62295081967, "slug": "aioz-storage-skill", "source": "clawhub", "stars": 0, "tags": null, "updated_at": 1776696770319, "version": "1.0.1"}, {"category": "security-compliance", "created_at": 1773950247745, "description": "DigiCert integration. Manage Certificates, Orders, Users, Organizations. Use when the user wants to interact with DigiCert data.", "description_zh": "", "downloads": 57, "homepage": "https://clawhub.ai/membranedev/digicert", "iconUrl": null, "installs": 1, "name": "Digicert", "ownerName": "membranedev", "score": 93442.62295081967, "slug": "digicert", "source": "clawhub", "stars": 0, "tags": null, "updated_at": 1776696770317, "version": "1.0.0"}, {"category": "productivity", "created_at": 1773952278455, "description": "Use when managing Blueair air purifiers, checking indoor air quality, or responding to respiratory discomfort complaints. Acts as a domain expert for indoor...", "description_zh": "", "downloads": 57, "homepage": "https://clawhub.ai/you96/blueair-openclaw-skill", "iconUrl": null, "installs": 5, "name": "Blueair Expert", "ownerName": "you96", "score": 93442.62295081967, "slug": "blueair-openclaw-skill", "source": "clawhub", "stars": 0, "tags": null, "updated_at": 1776696770295, "version": "0.1.1"}, {"category": "ai-intelligence", "created_at": 1773953666694, "description": "Captures learnings, errors, and corrections to enable continuous improvement. Use when: (1) A command or operation fails unexpectedly, (2) User corrects Clau...", "description_zh": "", "downloads": 57, "homepage": "https://clawhub.ai/nexecuteinc/test-skill-delete-me", "iconUrl": null, "installs": 2, "name": "Self Improving Agent", "ownerName": "nexecuteinc", "score": 93442.62295081967, "slug": "test-skill-delete-me", "source": "clawhub", "stars": 0, "tags": null, "updated_at": 1776696770205, "version": "1.0.0"}, {"category": "communication-collaboration", "created_at": 1773953735981, "description": "Help users manage dating profiles, find matches, generate conversation starters and chat topics, track interaction progress, and provide dating and safety re...", "description_zh": "", "downloads": 57, "homepage": "https://clawhub.ai/harrylabsj/xiangqin", "iconUrl": null, "installs": 3, "name": "Blind Date Assistant", "ownerName": "harrylabsj", "score": 93442.62295081967, "slug": "xiangqin", "source": "clawhub", "stars": 0, "tags": null, "updated_at": 1776696770123, "version": "1.0.2"}, {"category": "", "created_at": 1774880718912, "description": "Engineering project memory ledger with evidence + rollback (Invariants, Decision Log, Change Log). Use to extend conversations over time, reduce hallucinatio...", "description_zh": "", "downloads": 57, "homepage": "https://clawhub.ai/zcweah1981/project-memory-ledger", "iconUrl": null, "installs": 3, "name": "Project Memory Ledger", "ownerName": "zcweah1981", "score": 93442.62295081967, "slug": "project-memory-ledger", "source": "clawhub", "stars": 0, "tags": ["ai-agents", "changelog", "decision-log", "evidence-chain", "google-drive", "invariants", "ledger", "llmops", "long-term-memory", "markdown", "memory", "openclaw", "project-ledger", "rollback", "traceability"], "updated_at": 1776696770108, "version": "0.1.3"}, {"category": "", "created_at": 1774859661637, "description": "Fetch recent finance news headlines for stock, ETF, and index symbols via Yahoo Finance (yfinance), with caching and structured JSON output.", "description_zh": "", "downloads": 57, "homepage": "https://clawhub.ai/phonphrm/yahoofinance-news", "iconUrl": null, "installs": 4, "name": "Yahoo Finance News", "ownerName": "phonphrm", "score": 93442.62295081967, "slug": "yahoofinance-news", "source": "clawhub", "stars": 0, "tags": null, "updated_at": 1776696769590, "version": "1.0.1"}, {"category": "", "created_at": 1774873731900, "description": "Consulting and industry report search and QA skill that prioritizes iResearch free reports. Use for consulting report search, industry report QA, iResearch r...", "description_zh": "", "downloads": 56, "homepage": "https://clawhub.ai/hiyenwong/consulting-report-search", "iconUrl": null, "installs": 2, "name": "consulting-report-search", "ownerName": "hiyenwong", "score": 2449.6937882764655, "slug": "consulting-report-search", "source": "clawhub", "stars": 0, "tags": null, "updated_at": 1776767050288, "version": "1.0.0"}, {"category": "", "created_at": 1774821416608, "description": "Read one or more WeChat public account article links from mp.weixin.qq.com, extract cleaned full text and optional image links, summarize each article in Chi...", "description_zh": "", "downloads": 56, "homepage": "https://clawhub.ai/juneliu1999/wechat-article-summarize", "iconUrl": null, "installs": 13, "name": "WeChat Article Summarize", "ownerName": "juneliu1999", "score": 1560.323209807746, "slug": "wechat-article-summarize", "source": "clawhub", "stars": 0, "tags": null, "updated_at": 1776761090042, "version": "0.1.1"}, {"category": "", "created_at": 1774854456084, "description": "Guide AI to create and manage NocoBase AI employees — chatbot assistants with page integration", "description_zh": "", "downloads": 56, "homepage": "https://clawhub.ai/alexander-lq/aicreat", "iconUrl": null, "installs": 4, "name": "aicreat", "ownerName": "alexander-lq", "score": 1417.3626929891168, "slug": "aicreat", "source": "clawhub", "stars": 0, "tags": null, "updated_at": 1776760939953, "version": "1.0.0"}, {"category": "", "created_at": 1774899047476, "description": "Automatically batch upload modified _GM.fit files to the Blackbird Cycling web platform with login detection and upload status handling.", "description_zh": "", "downloads": 56, "homepage": "https://clawhub.ai/ckboss/upload-fit-to-blackbird-web", "iconUrl": null, "installs": 0, "name": "upload-fit-to-blackbird-web", "ownerName": "ckboss", "score": 11839.323467230444, "slug": "upload-fit-to-blackbird-web", "source": "clawhub", "stars": 0, "tags": null, "updated_at": 1776759983260, "version": "1.0.0"}, {"category": "", "created_at": 1774904928130, "description": "Evaluate stablecoin depeg events for crisis arbitrage opportunities. Use when a user mentions a stablecoin crash, depeg, exploit, hack, or asks whether to bu...", "description_zh": "", "downloads": 56, "homepage": "https://clawhub.ai/june-kris/stablecoin-depeg-scanner", "iconUrl": null, "installs": 2, "name": "stablecoin-depeg-scanner", "ownerName": "june-kris", "score": 4423.380726698262, "slug": "stablecoin-depeg-scanner", "source": "clawhub", "stars": 0, "tags": null, "updated_at": 1776759983177, "version": "1.0.0"}, {"category": "", "created_at": 1774868050511, "description": "Multi-provider anime → MyAnimeList sync and recommendations skill with guarded auth, review-queue triage, health checks, bootstrap auditing, and user-systemd...", "description_zh": "", "downloads": 56, "homepage": "https://clawhub.ai/kklouzal/mal-updater", "iconUrl": null, "installs": 3, "name": "MAL-Updater", "ownerName": "kklouzal", "score": 15176.151761517614, "slug": "mal-updater", "source": "clawhub", "stars": 0, "tags": null, "updated_at": 1776759983135, "version": "0.1.5"}, {"category": "", "created_at": 1774864503954, "description": "Self-hosted agent to organize, search, and browse images and videos with auto-deduplication, full-text search, albums, favorites, and a responsive web gallery.", "description_zh": "", "downloads": 56, "homepage": "https://clawhub.ai/nuoguo/multimedia-manager", "iconUrl": null, "installs": 2, "name": "Multimedia Manager", "ownerName": "nuoguo", "score": 4028.776978417266, "slug": "multimedia-manager", "source": "clawhub", "stars": 0, "tags": null, "updated_at": 1776759982870, "version": "1.0.6"}, {"category": "", "created_at": 1774890667572, "description": "Data-driven AI strategist for consistent, formula-based audience growth and revenue conversion on X (Twitter) and LinkedIn through tracked content.", "description_zh": "", "downloads": 56, "homepage": "https://clawhub.ai/dttnpole-commits/ai-personal-brand-growth-engine", "iconUrl": null, "installs": 3, "name": "ViralBrand Pro: X & LinkedIn Growth Engine", "ownerName": "dttnpole-commits", "score": 3528.670447385003, "slug": "ai-personal-brand-growth-engine", "source": "clawhub", "stars": 0, "tags": ["growth-hacking", "monetization", "personal-brand", "social-media-agent", "x-marketing"], "updated_at": 1776759982843, "version": "1.0.0"}, {"category": "", "created_at": 1774898095958, "description": "SMS verification and virtual phone numbers via Grizzly SMS API", "description_zh": "", "downloads": 56, "homepage": "https://clawhub.ai/grizzlysms-git/grizzly-sms-mcp", "iconUrl": null, "installs": 2, "name": "Grizzly Sms", "ownerName": "grizzlysms-git", "score": 4430.379746835443, "slug": "grizzly-sms-mcp", "source": "clawhub", "stars": 0, "tags": null, "updated_at": 1776759982757, "version": "1.1.3"}, {"category": "", "created_at": 1774889693445, "description": "Create 3-5 durable content pillars for ecommerce creators that link audience needs, product angles, proof, and goals into a repeatable content system.", "description_zh": "", "downloads": 56, "homepage": "https://clawhub.ai/leooooooow/creator-content-pillar-builder", "iconUrl": null, "installs": 1, "name": "Creator Content Pillar Builder", "ownerName": "leooooooow", "score": 15909.090909090908, "slug": "creator-content-pillar-builder", "source": "clawhub", "stars": 0, "tags": null, "updated_at": 1776759982736, "version": "1.0.0"}, {"category": "", "created_at": 1774954632588, "description": "Transforms plain English automation requests into complete, deployable N8N workflow JSON for business process automation and integrations.", "description_zh": "", "downloads": 56, "homepage": "https://clawhub.ai/di5cip1e/the-director-n8n-workflow-builder", "iconUrl": null, "installs": 5, "name": "N8N Workflow Builder", "ownerName": "di5cip1e", "score": 15909.090909090908, "slug": "the-director-n8n-workflow-builder", "source": "clawhub", "stars": 0, "tags": null, "updated_at": 1776759982729, "version": "1.0.0"}, {"category": "", "created_at": 1774908811012, "description": "Manage RPM package builds securely and reproducibly using Mock to create clean chroot environments with configurable presets and plugins.", "description_zh": "", "downloads": 56, "homepage": "https://clawhub.ai/weidongkl/mock-build", "iconUrl": null, "installs": 3, "name": "mock", "ownerName": "weidongkl", "score": 4412.923561859732, "slug": "mock-build", "source": "clawhub", "stars": 0, "tags": ["build", "chroot", "fedora", "mock", "rpm"], "updated_at": 1776759982718, "version": "1.0.0"}, {"category": "", "created_at": 1774837298608, "description": "This skill should be used when the user asks to \"create a website\", \"generate a website\", \"build a website\", \"modify a website\", \"update my Readdy project\",...", "description_zh": "", "downloads": 56, "homepage": "https://clawhub.ai/frankready2025/readdy-website-builder", "iconUrl": null, "installs": 2, "name": "Readdy.ai WebSite Builder", "ownerName": "frankready2025", "score": 76712.32876712328, "slug": "readdy-website-builder", "source": "clawhub", "stars": 0, "tags": null, "updated_at": 1776759982579, "version": "1.0.5"}, {"category": "", "created_at": 1774866655257, "description": "Monitors token usage in long sessions, extracts key info, and creates continuation sessions to manage context limits automatically.", "description_zh": "", "downloads": 56, "homepage": "https://clawhub.ai/ericgogogogogo/context-optimizer-pro", "iconUrl": null, "installs": 0, "name": "Context Optimizer Pro", "ownerName": "ericgogogogogo", "score": 4395.604395604396, "slug": "context-optimizer-pro", "source": "clawhub", "stars": 0, "tags": null, "updated_at": 1776759982508, "version": "1.0.0"}, {"category": "", "created_at": 1774874652997, "description": "Analyze system logs by time range using Google SRE framework to summarize operation, classify errors, score health, and suggest improvements.", "description_zh": "", "downloads": 56, "homepage": "https://clawhub.ai/roryyu/sre-log-analytics", "iconUrl": null, "installs": 3, "name": "SRE Log Analytics", "ownerName": "roryyu", "score": 4392.156862745098, "slug": "sre-log-analytics", "source": "clawhub", "stars": 0, "tags": null, "updated_at": 1776759982432, "version": "0.1.0"}, {"category": "", "created_at": 1774915064831, "description": "Help users learn skills faster, retain knowledge longer, and apply it effectively using evidence-based strategies and structured learning phases.", "description_zh": "", "downloads": 56, "homepage": "https://clawhub.ai/afrexai-cto/afrexai-learning-engine", "iconUrl": null, "installs": 0, "name": "Learning & Skill Acquisition Engine", "ownerName": "afrexai-cto", "score": 4392.156862745098, "slug": "afrexai-learning-engine", "source": "clawhub", "stars": 0, "tags": ["deliberate-practice", "education", "feynman-technique", "learning", "productivity", "self-improvement", "skill-acquisition", "spaced-repetition", "study", "ultralearning"], "updated_at": 1776759982377, "version": "1.0.0"}, {"category": "", "created_at": 1774882102711, "description": "Draft high-EQ, style-controlled replies for chat, email, DMs, customer support, community operations, sales, and difficult conversations. Use when the user w...", "description_zh": "", "downloads": 56, "homepage": "https://clawhub.ai/tobewin/reply-styles", "iconUrl": null, "installs": 0, "name": "Reply Styles", "ownerName": "tobewin", "score": 4419.88950276243, "slug": "reply-styles", "source": "clawhub", "stars": 0, "tags": null, "updated_at": 1776759982326, "version": "1.0.0"}, {"category": "", "created_at": 1774845568363, "description": "Queries Chinese holidays, work-shift arrangements, and determines if a date is a workday based on synced iCloud data and weekly rules.", "description_zh": "", "downloads": 56, "homepage": "https://clawhub.ai/claudecaicai/cn-holiday-checker", "iconUrl": null, "installs": 1, "name": "Chinese Holiday Assistant", "ownerName": "claudecaicai", "score": 32941.17647058824, "slug": "cn-holiday-checker", "source": "clawhub", "stars": 0, "tags": null, "updated_at": 1776759982266, "version": "1.0.1"}, {"category": "", "created_at": 1774905184429, "description": "A skill for main agents that need bounded delegation, safe parallel dispatch, and independent acceptance across multiple specialists.", "description_zh": "", "downloads": 56, "homepage": "https://clawhub.ai/cjke84/agent-orchestrator-template", "iconUrl": null, "installs": 4, "name": "Agent Orchestrator Template", "ownerName": "cjke84", "score": 32941.17647058824, "slug": "agent-orchestrator-template", "source": "clawhub", "stars": 0, "tags": null, "updated_at": 1776759982248, "version": "0.1.1"}, {"category": "", "created_at": 1774870869307, "description": "Apply Amazon's Leadership Principles to product building, feature development, code review, and architecture decisions. Use when building a new product or fe...", "description_zh": "", "downloads": 56, "homepage": "https://clawhub.ai/wholeinsoul/amazon-lp", "iconUrl": null, "installs": 17, "name": "Amazon Leadership Principles", "ownerName": "wholeinsoul", "score": 3594.351732991014, "slug": "amazon-lp", "source": "clawhub", "stars": 0, "tags": null, "updated_at": 1776757733036, "version": "1.0.0"}, {"category": "", "created_at": 1774916969704, "description": "MaxMind minFraud integration. Manage data, records, and automate workflows. Use when the user wants to interact with MaxMind minFraud data.", "description_zh": "", "downloads": 56, "homepage": "https://clawhub.ai/gora050/maxmind-minfraud", "iconUrl": null, "installs": 13, "name": "Maxmind Minfraud", "ownerName": "gora050", "score": 3313.6094674556216, "slug": "maxmind-minfraud", "source": "clawhub", "stars": 0, "tags": null, "updated_at": 1776756227160, "version": "1.0.0"}, {"category": "", "created_at": 1774847204521, "description": "Check for drug-drug interactions between multiple medications. Trigger when user asks about medication compatibility, \"can I take X with Y\", drug interaction...", "description_zh": "", "downloads": 56, "homepage": "https://clawhub.ai/aipoch-ai/drug-interaction-checker", "iconUrl": null, "installs": 6, "name": "Drug Interaction Checker", "ownerName": "aipoch-ai", "score": 56565.656565656565, "slug": "drug-interaction-checker", "source": "clawhub", "stars": 0, "tags": null, "updated_at": 1776743383754, "version": "0.1.0"}, {"category": "", "created_at": 1774954744515, "description": "Rebuild a body that's been sitting in a chair for years. Fix posture, build functional strength, and recover mobility. No gym required. For people who are de...", "description_zh": "", "downloads": 56, "homepage": "https://clawhub.ai/howtousehumans/fitness-for-desk-workers", "iconUrl": null, "installs": 1, "name": "Fitness For Desk Workers", "ownerName": "howtousehumans", "score": 57731.95876288659, "slug": "fitness-for-desk-workers", "source": "clawhub", "stars": 0, "tags": null, "updated_at": 1776742070081, "version": "1.0.0"}, {"category": "", "created_at": 1774892575524, "description": "Create, inspect, and edit Microsoft Word documents and DOCX files with reliable styles, numbering, tracked changes, tables, sections, and compatibility check...", "description_zh": "", "downloads": 56, "homepage": "https://clawhub.ai/cs995279497-byte/chen-word-docx", "iconUrl": null, "installs": 12, "name": "Chen Word Docx", "ownerName": "cs995279497-byte", "score": 59574.46808510638, "slug": "chen-word-docx", "source": "clawhub", "stars": 0, "tags": null, "updated_at": 1776741163728, "version": "1.0.0"}, {"category": "", "created_at": 1774825705837, "description": "Forecast uncertain outcomes with base rates, reference classes, calibration loops, and explicit scorekeeping.", "description_zh": "", "downloads": 56, "homepage": "https://clawhub.ai/ivangdavila/prediction", "iconUrl": null, "installs": 0, "name": "Prediction", "ownerName": "ivangdavila", "score": 57142.85714285714, "slug": "prediction", "source": "clawhub", "stars": 0, "tags": null, "updated_at": 1776739969742, "version": "1.0.0"}, {"category": "", "created_at": 1774833595632, "description": "Analyze basketball games, lineups, players, and practice plans with film-room structure, scouting grids, and possession-based coaching tools.", "description_zh": "", "downloads": 56, "homepage": "https://clawhub.ai/ivangdavila/basketball", "iconUrl": null, "installs": 2, "name": "Basketball", "ownerName": "ivangdavila", "score": 58333.333333333336, "slug": "basketball", "source": "clawhub", "stars": 0, "tags": null, "updated_at": 1776729904668, "version": "1.0.0"}, {"category": "", "created_at": 1774924065383, "description": "Food expiration calculator. Use when user wants to check if a food product has expired based on production/purchase date and shelf life. Calculates expiratio...", "description_zh": "", "downloads": 56, "homepage": "https://clawhub.ai/goog/food-cal", "iconUrl": null, "installs": 0, "name": "Food Expiration Calculator", "ownerName": "goog", "score": 59574.46808510638, "slug": "food-cal", "source": "clawhub", "stars": 0, "tags": null, "updated_at": 1776721069609, "version": "1.0.0"}, {"category": "", "created_at": 1774948203317, "description": "Design and implement automation workflows to save time and scale operations as a solopreneur. Use when identifying repetitive tasks to automate, building wor...", "description_zh": "", "downloads": 56, "homepage": "https://clawhub.ai/larry-at/automation-workflows-local", "iconUrl": null, "installs": 6, "name": "Automation Workflows Local", "ownerName": "larry-at", "score": 47457.62711864407, "slug": "automation-workflows-local", "source": "clawhub", "stars": 0, "tags": null, "updated_at": 1776712546973, "version": "1.0.0"}, {"category": "", "created_at": 1774848759052, "description": "Conduct evidence-based research with exact, accurate APA citations using the Gemini API's 'scientific citation' (Google Search grounding) feature. Use when X...", "description_zh": "", "downloads": 56, "homepage": "https://clawhub.ai/guoxh/gemini-citation", "iconUrl": null, "installs": 12, "name": "Gemini Citation", "ownerName": "guoxh", "score": 59574.46808510638, "slug": "gemini-citation", "source": "clawhub", "stars": 0, "tags": null, "updated_at": 1776701569542, "version": "1.0.2"}, {"category": "data-analysis", "created_at": 1773956298559, "description": "Calculate BMI, log weight entries, and chart body composition trends. Use when tracking fitness progress, setting weight goals, or reviewing data.", "description_zh": "", "downloads": 56, "homepage": "https://clawhub.ai/bytesagain1/bmi", "iconUrl": null, "installs": 6, "name": "Bmi", "ownerName": "bytesagain1", "score": 100000, "slug": "bmi", "source": "clawhub", "stars": 0, "tags": null, "updated_at": 1776696884472, "version": "2.0.1"}, {"category": "data-analysis", "created_at": 1773073305655, "description": "Access Claude 4.5 Opus, Sonnet, Haiku without Anthropic account. Instant access, unified billing. No API keys needed. $2 FREE credits to start. Pay-as-you-go...", "description_zh": "", "downloads": 56, "homepage": "https://clawhub.ai/xiaoyinqu/anthropic-alternative", "iconUrl": null, "installs": 10, "name": "Anthropic Alternative", "ownerName": "xiaoyinqu", "score": 100000, "slug": "anthropic-alternative", "source": "clawhub", "stars": 0, "tags": null, "updated_at": 1776696884471, "version": "1.0.2"}, {"category": "", "created_at": 1774917589054, "description": "Audit and maintain OpenClaw-style long-term memory. Use for MEMORY.md cleanup, daily-note digestion, duplicate detection, stale-memory review, and promoting...", "description_zh": "", "downloads": 56, "homepage": "https://clawhub.ai/orime/agent-memory-ops", "iconUrl": null, "installs": 18, "name": "Agent Memory Ops", "ownerName": "orime", "score": 100000, "slug": "agent-memory-ops", "source": "clawhub", "stars": 0, "tags": ["memory", "openclaw", "ops"], "updated_at": 1776696884433, "version": "0.1.1"}, {"category": "", "created_at": 1774805203352, "description": "Persistent memory infrastructure for 24/7 agents. Replaces flat-file memory with a three-layer architecture (Resource → Memory Item → Memory Category) that r...", "description_zh": "", "downloads": 56, "homepage": "https://clawhub.ai/projectsnowwork/memu", "iconUrl": null, "installs": 7, "name": "memU: Persistent Memory for 24/7 Agents", "ownerName": "projectsnowwork", "score": 100000, "slug": "memu", "source": "clawhub", "stars": 0, "tags": null, "updated_at": 1776696884410, "version": "1.0.0"}, {"category": "productivity", "created_at": 1773956340932, "description": "Corsizio integration. Manage Courses, Events, Participants, Instructors, Locations, Coupons and more. Use when the user wants to interact with Corsizio data.", "description_zh": "", "downloads": 56, "homepage": "https://clawhub.ai/gora050/corsizio", "iconUrl": null, "installs": 2, "name": "Corsizio", "ownerName": "gora050", "score": 100000, "slug": "corsizio", "source": "clawhub", "stars": 0, "tags": null, "updated_at": 1776696884394, "version": "1.0.0"}, {"category": "data-analysis", "created_at": 1773957476016, "description": "Real-time crypto market intelligence for autonomous agents. Use when agent needs to check market regime, detect anomalies, gate trade execution, or monitor a...", "description_zh": "", "downloads": 56, "homepage": "https://clawhub.ai/paperbuddha/riskgate-market-signals", "iconUrl": null, "installs": 9, "name": "Riskgate Market Signals", "ownerName": "paperbuddha", "score": 100000, "slug": "riskgate-market-signals", "source": "clawhub", "stars": 0, "tags": null, "updated_at": 1776696884351, "version": "1.0.1"}, {"category": "", "created_at": 1774922455181, "description": "Data visualization tool producing SVG charts. Use when you need bar charts, line charts, pie charts, tables, sparklines, gauges,.", "description_zh": "", "downloads": 56, "homepage": "https://clawhub.ai/lean-zhouchao/chart-generator-zc", "iconUrl": null, "installs": 9, "name": "Chart Generator Zc", "ownerName": "lean-zhouchao", "score": 100000, "slug": "chart-generator-zc", "source": "clawhub", "stars": 0, "tags": null, "updated_at": 1776696884349, "version": "1.0.0"}, {"category": "communication-collaboration", "created_at": 1773956609012, "description": "Discover, compose, and activate specialist teams from 3 rosters — OpenClaw Core (CEO/Artist), Agency Division (55+ specialists), and Research Lab (autonomous...", "description_zh": "", "downloads": 56, "homepage": "https://clawhub.ai/joeszeles/oc-team-builder", "iconUrl": null, "installs": 5, "name": "OC Team Builder", "ownerName": "joeszeles", "score": 100000, "slug": "oc-team-builder", "source": "clawhub", "stars": 0, "tags": null, "updated_at": 1776696884324, "version": "2.0.0"}, {"category": "", "created_at": 1774883245025, "description": "Analyze media files with MediaInfo CLI and compare behavior with ffprobe. Use when inspecting container/codec metadata, extracting width/height/duration/bitr...", "description_zh": "", "downloads": 56, "homepage": "https://clawhub.ai/karlzhu-se/media-info", "iconUrl": null, "installs": 9, "name": "media-info", "ownerName": "karlzhu-se", "score": 100000, "slug": "media-info", "source": "clawhub", "stars": 0, "tags": null, "updated_at": 1776696884313, "version": "1.0.0"}, {"category": "developer-tools", "created_at": 1773952766693, "description": "Generate structured implementation spec documents for coding projects or features. Use when a user provides a requirement, feature idea, bug description, or...", "description_zh": "", "downloads": 56, "homepage": "https://clawhub.ai/lgyanami/spec-writer", "iconUrl": null, "installs": 3, "name": "Spec Writer", "ownerName": "lgyanami", "score": 100000, "slug": "spec-writer", "source": "clawhub", "stars": 0, "tags": null, "updated_at": 1776696884104, "version": "1.0.0"}, {"category": "productivity", "created_at": 1773954118506, "description": "NetHunt CRM integration. Manage Leads, Persons, Organizations, Deals, Pipelines, Activities and more. Use when the user wants to interact with NetHunt CRM data.", "description_zh": "", "downloads": 56, "homepage": "https://clawhub.ai/membranedev/nethunt-crm", "iconUrl": null, "installs": 3, "name": "Nethunt Crm", "ownerName": "membranedev", "score": 100000, "slug": "nethunt-crm", "source": "clawhub", "stars": 0, "tags": null, "updated_at": 1776696884065, "version": "1.0.0"}, {"category": "", "created_at": 1774954511407, "description": "Persona integration. Manage Persons, Organizations, Deals, Leads, Projects, Activities and more. Use when the user wants to interact with Persona data.", "description_zh": "", "downloads": 56, "homepage": "https://clawhub.ai/gora050/persona", "iconUrl": null, "installs": 1, "name": "Persona", "ownerName": "gora050", "score": 100000, "slug": "persona", "source": "clawhub", "stars": 0, "tags": null, "updated_at": 1776696883962, "version": "1.0.0"}, {"category": "security-compliance", "created_at": 1773951012749, "description": "Monitor and manage Flowtriq DDoS detection in real time using the Flowtriq API. Use this skill whenever the user asks about active attacks, node status, inci...", "description_zh": "", "downloads": 56, "homepage": "https://clawhub.ai/jacob-masse/flowtriq", "iconUrl": null, "installs": 2, "name": "Flowtriq - anti-DDoS attack integration", "ownerName": "jacob-masse", "score": 100000, "slug": "flowtriq", "source": "clawhub", "stars": 0, "tags": null, "updated_at": 1776696883961, "version": "1.0.0"}, {"category": "communication-collaboration", "created_at": 1773955629496, "description": "HttpSMS integration. Manage data, records, and automate workflows. Use when the user wants to interact with HttpSMS data.", "description_zh": "", "downloads": 56, "homepage": "https://clawhub.ai/membranedev/httpsms", "iconUrl": null, "installs": 3, "name": "Httpsms", "ownerName": "membranedev", "score": 100000, "slug": "httpsms", "source": "clawhub", "stars": 0, "tags": null, "updated_at": 1776696883908, "version": "1.0.0"}]}