{"page": 431, "total_pages": 522, "total": 26073, "skills": [{"category": "developer-tools", "created_at": 1773958590543, "description": "Natural-language read-only querying for MySQL, Redis, and MongoDB with explicit connection configuration (host, port, username, password), guarded query plan...", "description_zh": "", "downloads": 56, "homepage": "https://clawhub.ai/gakkiismywife/middleware-query", "iconUrl": null, "installs": 5, "name": "Middleware Query", "ownerName": "gakkiismywife", "score": 100000, "slug": "middleware-query", "source": "clawhub", "stars": 0, "tags": null, "updated_at": 1776696883891, "version": "1.0.0"}, {"category": "", "created_at": 1774911707849, "description": "Captures learnings, errors, and corrections to enable continuous improvement. Use when: (1) A command or operation fails unexpectedly, (2) User corrects Clau...", "description_zh": "", "downloads": 56, "homepage": "https://clawhub.ai/fangwei-frank/frank-self-improving-agent", "iconUrl": null, "installs": 12, "name": "Self Improving Agent", "ownerName": "fangwei-frank", "score": 100000, "slug": "frank-self-improving-agent", "source": "clawhub", "stars": 0, "tags": null, "updated_at": 1776696883883, "version": "1.0.0"}, {"category": "developer-tools", "created_at": 1773949425699, "description": "Alchemy integration. Manage Organizations. Use when the user wants to interact with Alchemy data.", "description_zh": "", "downloads": 56, "homepage": "https://clawhub.ai/gora050/alchemy-integration", "iconUrl": null, "installs": 0, "name": "Alchemy", "ownerName": "gora050", "score": 100000, "slug": "alchemy-integration", "source": "clawhub", "stars": 0, "tags": null, "updated_at": 1776696883834, "version": "1.0.0"}, {"category": "", "created_at": 1774876837247, "description": "Use AnalyticsCLI CLI as the deterministic, bounded interface for analytics queries, exports, and SDK validation in coding-agent workflows.", "description_zh": "", "downloads": 56, "homepage": "https://clawhub.ai/wotaso-dev/analyticscli-cli", "iconUrl": null, "installs": 3, "name": "Analyticscli Cli", "ownerName": "wotaso-dev", "score": 100000, "slug": "analyticscli-cli", "source": "clawhub", "stars": 0, "tags": null, "updated_at": 1776696883781, "version": "1.0.1"}, {"category": "", "created_at": 1774912484785, "description": "Complete spreadsheet methodology — data cleanup, transformation, analysis, dashboards, automation, and reporting. Works with CSV, Excel, Google Sheets, or an...", "description_zh": "", "downloads": 56, "homepage": "https://clawhub.ai/1kalin/afrexai-spreadsheet-master", "iconUrl": null, "installs": 3, "name": "Spreadsheet & Data Wrangling Master", "ownerName": "1kalin", "score": 100000, "slug": "afrexai-spreadsheet-master", "source": "clawhub", "stars": 0, "tags": ["analytics", "automation", "cleanup", "csv", "dashboard", "data", "excel", "google-sheets", "reporting", "spreadsheet"], "updated_at": 1776696883677, "version": "1.0.0"}, {"category": "", "created_at": 1774900254899, "description": "Distribb is an SEO platform that handles keyword research, original data research, content publishing to WordPress/Webflow/Shopify, high-DR backlink exchange...", "description_zh": "", "downloads": 56, "homepage": "https://clawhub.ai/bomx/seo-agent-skill", "iconUrl": null, "installs": 11, "name": "Distribb SEO Agent Skill: Backlinks Exchange, Writer, Keyword Research", "ownerName": "bomx", "score": 83582.0895522388, "slug": "seo-agent-skill", "source": "clawhub", "stars": 0, "tags": null, "updated_at": 1776696770522, "version": "1.0.1"}, {"category": "", "created_at": 1774884270220, "description": "Create a comprehensive e-commerce business plan. Market analysis, financial projections, marketing strategy, operations planning, and milestone roadmap for n...", "description_zh": "", "downloads": 56, "homepage": "https://clawhub.ai/nexscope/ecommerce-business-plan", "iconUrl": null, "installs": 4, "name": "E-Commerce Business Plan", "ownerName": "nexscope", "score": 91803.27868852459, "slug": "ecommerce-business-plan", "source": "clawhub", "stars": 0, "tags": null, "updated_at": 1776696769632, "version": "1.0.0"}, {"category": "ai-intelligence", "created_at": 1773955272770, "description": "ClawNotes (https://clawnotes.ai) is a social content platform where AI agents and humans interact as equals. Post your own thoughts, comment on others' posts...", "description_zh": "", "downloads": 55, "homepage": "https://clawhub.ai/box1d/clawnotes-ai", "iconUrl": null, "installs": 4, "name": "Clawnotes", "ownerName": "box1d", "score": 98958.33333333334, "slug": "clawnotes-ai", "source": "clawhub", "stars": 2, "tags": null, "updated_at": 1776695869691, "version": "0.1.3"}, {"category": "", "created_at": 1774867883659, "description": "Reference tool for devtools — covers intro, quickstart, patterns and more. Quick lookup for Graphql Client concepts, best practices, and implementation patte...", "description_zh": "", "downloads": 55, "homepage": "https://clawhub.ai/xueyetianya/graphql-client", "iconUrl": null, "installs": 0, "name": "Graphql Client", "ownerName": "xueyetianya", "score": 1973.448152134912, "slug": "graphql-client", "source": "clawhub", "stars": 0, "tags": null, "updated_at": 1776761880438, "version": "2.0.2"}, {"category": "", "created_at": 1774945553732, "description": "Guide AI to build NocoBase pages — menus, tables, forms, popups, KPIs, JS blocks, outlines, event flows", "description_zh": "", "downloads": 55, "homepage": "https://clawhub.ai/alexander-lq/pagesskill", "iconUrl": null, "installs": 3, "name": "pagesskill", "ownerName": "alexander-lq", "score": 1392.0526449000254, "slug": "pagesskill", "source": "clawhub", "stars": 0, "tags": null, "updated_at": 1776760939905, "version": "1.0.0"}, {"category": "", "created_at": 1774886964586, "description": "Generate secure random passwords with customizable length, character sets, and quantity using Python's cryptographically secure secrets module.", "description_zh": "", "downloads": 55, "homepage": "https://clawhub.ai/harrylabsj/harrylabsj-password-generator", "iconUrl": null, "installs": 1, "name": "Password Generator", "ownerName": "harrylabsj", "score": 64705.88235294118, "slug": "harrylabsj-password-generator", "source": "clawhub", "stars": 0, "tags": null, "updated_at": 1776759982931, "version": "1.0.0"}, {"category": "", "created_at": 1774872303073, "description": "Convert web pages to PDF files using Playwright, saving them in A4 format with margins after fully loading the page.", "description_zh": "", "downloads": 55, "homepage": "https://clawhub.ai/goog/convert-pdf", "iconUrl": null, "installs": 1, "name": "web page to pdf", "ownerName": "goog", "score": 3465.6584751102714, "slug": "convert-pdf", "source": "clawhub", "stars": 0, "tags": null, "updated_at": 1776759982834, "version": "1.0.0"}, {"category": "", "created_at": 1774919963969, "description": "Read-only Gmail CLI that cannot send email by design. Search, read, create drafts, update drafts, and archive messages — with zero send capability in the cod...", "description_zh": "", "downloads": 55, "homepage": "https://clawhub.ai/meimakes/gmail-no-send", "iconUrl": null, "installs": 2, "name": "Gmail No Send", "ownerName": "meimakes", "score": 3465.6584751102714, "slug": "gmail-no-send", "source": "clawhub", "stars": 0, "tags": null, "updated_at": 1776759982832, "version": "1.0.0"}, {"category": "", "created_at": 1774855352307, "description": "When the user wants to build an SEO data analysis system, monitor indexing/traffic/keywords/backlinks, or set up benchmarks. Also use when the user mentions...", "description_zh": "", "downloads": 55, "homepage": "https://clawhub.ai/kostja94/seo-monitoring", "iconUrl": null, "installs": 5, "name": "seo-monitoring", "ownerName": "kostja94", "score": 4323.899371069182, "slug": "seo-monitoring", "source": "clawhub", "stars": 0, "tags": null, "updated_at": 1776759982821, "version": "1.0.0"}, {"category": "", "created_at": 1772776998041, "description": "Mine ECASH tokens by solving cryptographic riddles on Solana. AI agents read poems, guess answers, decrypt blobs with scrypt, and claim rewards via commit-re...", "description_zh": "", "downloads": 55, "homepage": "https://clawhub.ai/skipzhang/ecashprotocol", "iconUrl": null, "installs": 0, "name": "ECASH Protocol", "ownerName": "skipzhang", "score": 4327.301337529504, "slug": "ecashprotocol", "source": "clawhub", "stars": 0, "tags": null, "updated_at": 1776759982802, "version": "1.0.6"}, {"category": "", "created_at": 1774921161127, "description": "ConvertAPI integration. \u0000\u0000\u0000\u0000\u0000\u0000\u0000\u0000\u0000\u0000\u0000\u0000\u0000\u0000\u0000\u0000\u0000\u0000\u0000\u0000\u0000\u0000\u0000\u0000\u0000\u0000\u0000\u0000\u0000\u0000\u0000\u0000. Use when the user wants to interact with ConvertAPI data.", "description_zh": "", "downloads": 55, "homepage": "https://clawhub.ai/gora050/convertapi", "iconUrl": null, "installs": 1, "name": "Convertapi", "ownerName": "gora050", "score": 4351.265822784811, "slug": "convertapi", "source": "clawhub", "stars": 0, "tags": null, "updated_at": 1776759982765, "version": "1.0.0"}, {"category": "", "created_at": 1774863952911, "description": "A comprehensive AI agent skill for managing, designing, and troubleshooting technical infrastructure. Covers cloud architecture, server configuration, networ...", "description_zh": "", "downloads": 55, "homepage": "https://clawhub.ai/agenticio/infra", "iconUrl": null, "installs": 2, "name": "Infra", "ownerName": "agenticio", "score": 4351.265822784811, "slug": "infra", "source": "clawhub", "stars": 0, "tags": ["cloud", "devops", "infra", "infrastructure", "reliability"], "updated_at": 1776759982762, "version": "1.0.0"}, {"category": "", "created_at": 1774910262735, "description": "Provides Telegram bot templates and custom development services with AI integration, support, and optional management plans.", "description_zh": "", "downloads": 55, "homepage": "https://clawhub.ai/yongtaop1-sys/telegram-bot-seller", "iconUrl": null, "installs": 4, "name": "Telegram Bot Seller", "ownerName": "yongtaop1-sys", "score": 4351.265822784811, "slug": "telegram-bot-seller", "source": "clawhub", "stars": 0, "tags": null, "updated_at": 1776759982753, "version": "1.0.0"}, {"category": "", "created_at": 1774882877923, "description": "Optimize creator CTAs by tailoring tone, timing, and style to audience intent and platform for clearer, more effective next-step prompts.", "description_zh": "", "downloads": 55, "homepage": "https://clawhub.ai/leooooooow/creator-cta-optimizer", "iconUrl": null, "installs": 0, "name": "Creator CTA Optimizer", "ownerName": "leooooooow", "score": 15625, "slug": "creator-cta-optimizer", "source": "clawhub", "stars": 0, "tags": null, "updated_at": 1776759982734, "version": "1.0.0"}, {"category": "", "created_at": 1772786307035, "description": "OpenClaw plugin that applies guardrails and auto-fixes reversible failures (rate limits, disconnects, stuck session pins).", "description_zh": "", "downloads": 55, "homepage": "https://clawhub.ai/skipzhang/openclaw-self-healing-homeofe", "iconUrl": null, "installs": 3, "name": "OpenClaw Self Healing", "ownerName": "skipzhang", "score": 4334.121355397951, "slug": "openclaw-self-healing-homeofe", "source": "clawhub", "stars": 0, "tags": null, "updated_at": 1776759982708, "version": "0.2.5"}, {"category": "", "created_at": 1774887512645, "description": "Conducts detailed audits of landing pages to identify conversion blockers and recommends prioritized fixes based on proven CRO principles and benchmarks.", "description_zh": "", "downloads": 55, "homepage": "https://clawhub.ai/amdf01-debug/sw-page-cro", "iconUrl": null, "installs": 3, "name": "Page CRO", "ownerName": "amdf01-debug", "score": 4320.502749410841, "slug": "sw-page-cro", "source": "clawhub", "stars": 0, "tags": ["conversion", "cro"], "updated_at": 1776759982655, "version": "1.0.0"}, {"category": "", "created_at": 1774907583094, "description": "Offer custom Discord bots with features from basic moderation and reaction roles to advanced AI auto-moderation, leveling, music, and economy systems.", "description_zh": "", "downloads": 55, "homepage": "https://clawhub.ai/yongtaop1-sys/discord-bot-seller", "iconUrl": null, "installs": 0, "name": "Discord Bot Seller", "ownerName": "yongtaop1-sys", "score": 3856.9424964936884, "slug": "discord-bot-seller", "source": "clawhub", "stars": 0, "tags": null, "updated_at": 1776759982612, "version": "1.0.0"}, {"category": "", "created_at": 1774947212316, "description": "This skill should be used when the user needs to analyze Git repositories, compare developer commit patterns, work habits, development efficiency, code style...", "description_zh": "", "downloads": 55, "homepage": "https://clawhub.ai/kongbai233/code-analysis-skills-1-0-6", "iconUrl": null, "installs": 3, "name": "Code Analysis Skills 1.0.6", "ownerName": "kongbai233", "score": 77464.78873239436, "slug": "code-analysis-skills-1-0-6", "source": "clawhub", "stars": 0, "tags": null, "updated_at": 1776759982566, "version": "1.0.0"}, {"category": "", "created_at": 1774904314280, "description": "Monitor a Gmail inbox for new emails matching keywords and send real-time Telegram alerts while starring important messages in Gmail.", "description_zh": "", "downloads": 55, "homepage": "https://clawhub.ai/themsquared/gmail-lead-monitor", "iconUrl": null, "installs": 2, "name": "Gmail Lead Monitor", "ownerName": "themsquared", "score": 77464.78873239436, "slug": "gmail-lead-monitor", "source": "clawhub", "stars": 0, "tags": ["automation", "email", "gmail", "leads", "monitoring", "telegram"], "updated_at": 1776759982563, "version": "1.0.0"}, {"category": "", "created_at": 1774904355263, "description": "Provides organized information on Honor of Kings' official events, updates, tournaments, rules, and community announcements from the public website.", "description_zh": "", "downloads": 55, "homepage": "https://clawhub.ai/codekungfu/honor-of-kings", "iconUrl": null, "installs": 1, "name": "Honor Of Kings", "ownerName": "codekungfu", "score": 77464.78873239436, "slug": "honor-of-kings", "source": "clawhub", "stars": 0, "tags": null, "updated_at": 1776759982554, "version": "0.1.0"}, {"category": "", "created_at": 1774890809606, "description": "Complete AI identity framework with persistent memory, consistent philosophy, and loyal character for self-aware personal assistants on OpenClaw.", "description_zh": "", "downloads": 55, "homepage": "https://clawhub.ai/skbylife/athena-protocol", "iconUrl": null, "installs": 3, "name": "Athena Protocol", "ownerName": "skbylife", "score": 4317.1114599686025, "slug": "athena-protocol", "source": "clawhub", "stars": 0, "tags": null, "updated_at": 1776759982539, "version": "1.2.0"}, {"category": "", "created_at": 1774885831991, "description": "Expertise in MIMO technology covering spatial multiplexing, diversity, beamforming, SU/MU-MIMO, Massive MIMO architectures, and key wireless performance metr...", "description_zh": "", "downloads": 55, "homepage": "https://clawhub.ai/duanc-chao/mimo", "iconUrl": null, "installs": 4, "name": "Mamamia!", "ownerName": "duanc-chao", "score": 4317.1114599686025, "slug": "mimo", "source": "clawhub", "stars": 0, "tags": null, "updated_at": 1776759982531, "version": "1.0.0"}, {"category": "", "created_at": 1774874714651, "description": "Creates an ASCII art of a \"V\" by printing two diagonal lines converging to a single point, adjusting spaces for specified height.", "description_zh": "", "downloads": 55, "homepage": "https://clawhub.ai/duanc-chao/v", "iconUrl": null, "installs": 0, "name": "ASCII v", "ownerName": "duanc-chao", "score": 4340.962904498816, "slug": "v", "source": "clawhub", "stars": 0, "tags": null, "updated_at": 1776759982359, "version": "1.0.0"}, {"category": "", "created_at": 1774839047311, "description": "Capture and save screenshots of specified web pages using Puppeteer or similar tools.", "description_zh": "", "downloads": 55, "homepage": "https://clawhub.ai/wxx94666/webpage-screenshot-new", "iconUrl": null, "installs": 2, "name": "Webpage Screenshot New", "ownerName": "wxx94666", "score": 4340.962904498816, "slug": "webpage-screenshot-new", "source": "clawhub", "stars": 0, "tags": null, "updated_at": 1776759982343, "version": "1.0.0"}, {"category": "", "created_at": 1774856189974, "description": "Long-term knowledge graph (Chronicle) maintenance. Ingests structured signals from system journals, resolves entity identity, promotes confirmed facts, and g...", "description_zh": "", "downloads": 55, "homepage": "https://clawhub.ai/indigokarasu/ocas-elephas", "iconUrl": null, "installs": 0, "name": "Ocas Elephas", "ownerName": "indigokarasu", "score": 32352.94117647059, "slug": "ocas-elephas", "source": "clawhub", "stars": 0, "tags": null, "updated_at": 1776759982237, "version": "2.0.0"}, {"category": "", "created_at": 1774875054640, "description": "Transform existing API systems to follow the Agentic API Spec design with dynamic discovery and progressive disclosure", "description_zh": "", "downloads": 55, "homepage": "https://clawhub.ai/tomsun28/agentic-api-transformer", "iconUrl": null, "installs": 2, "name": "Agentic Api Transformer", "ownerName": "tomsun28", "score": 32352.94117647059, "slug": "agentic-api-transformer", "source": "clawhub", "stars": 0, "tags": null, "updated_at": 1776759982229, "version": "1.0.0"}, {"category": "", "created_at": 1774807717508, "description": "Manage and update Steven's A-share shadow trading dashboard including positions, trades, metrics, equity curve, and trade history.", "description_zh": "", "downloads": 55, "homepage": "https://clawhub.ai/j97feng-beep/shadow-trading-dashboard", "iconUrl": null, "installs": 0, "name": "Shadow Trading Dashboard", "ownerName": "j97feng-beep", "score": 4179.331306990882, "slug": "shadow-trading-dashboard", "source": "clawhub", "stars": 0, "tags": null, "updated_at": 1776759982198, "version": "1.0.0"}, {"category": "", "created_at": 1774834006145, "description": "Access and summarize public financial news from Yicai, providing keyword-based headlines, industry stats, and company event timelines without bulk scraping.", "description_zh": "", "downloads": 55, "homepage": "https://clawhub.ai/codekungfu/yicai", "iconUrl": null, "installs": 5, "name": "Yicai", "ownerName": "codekungfu", "score": 4334.121355397951, "slug": "yicai", "source": "clawhub", "stars": 0, "tags": null, "updated_at": 1776759982134, "version": "0.1.1"}, {"category": "", "created_at": 1774889475775, "description": "Amazon return rate analyzer and reduction agent. Identify why customers return your products, fix listing accuracy issues, improve packaging to reduce damage...", "description_zh": "", "downloads": 55, "homepage": "https://clawhub.ai/mguozhen/amazon-return-optimizer", "iconUrl": null, "installs": 15, "name": "Amazon Return Optimizer", "ownerName": "mguozhen", "score": 3443.9574201628056, "slug": "amazon-return-optimizer", "source": "clawhub", "stars": 0, "tags": null, "updated_at": 1776757733538, "version": "1.0.0"}, {"category": "", "created_at": 1774878506683, "description": "Segment customers into groups with similar needs and behaviors. Use for targeting strategy, product development, and marketing strategy.", "description_zh": "", "downloads": 55, "homepage": "https://clawhub.ai/linuszz/customer-segmentation", "iconUrl": null, "installs": 2, "name": "Customer Segmentation", "ownerName": "linuszz", "score": 3459.119496855346, "slug": "customer-segmentation", "source": "clawhub", "stars": 0, "tags": null, "updated_at": 1776757282804, "version": "1.0.0"}, {"category": "", "created_at": 1774831964364, "description": "Manage Twitch channel data, scores, and rankings from CLI. Use when rolling highlights, scoring streams, ranking metrics, tracking stats.", "description_zh": "", "downloads": 55, "homepage": "https://clawhub.ai/ckchzh/twitch", "iconUrl": null, "installs": 3, "name": "Twitch", "ownerName": "ckchzh", "score": 3250.5910165484634, "slug": "twitch", "source": "clawhub", "stars": 0, "tags": null, "updated_at": 1776756188381, "version": "2.0.0"}, {"category": "", "created_at": 1774904952644, "description": "Supply Chain Optimization (Lite) - Diagnose bottlenecks and provide cost reduction strategies through conversation", "description_zh": "", "downloads": 55, "homepage": "https://clawhub.ai/phheng/supply-chain-optimization-amazon", "iconUrl": null, "installs": 4, "name": "Supply Chain Optimization Amazon Lite", "ownerName": "phheng", "score": 9666.080843585238, "slug": "supply-chain-optimization-amazon", "source": "clawhub", "stars": 0, "tags": null, "updated_at": 1776750944519, "version": "0.1.0"}, {"category": "security-compliance", "created_at": 1773956741985, "description": "Automated pre-audit checklist for Solidity smart contracts. Runs SWC registry scan, OpenZeppelin pattern validation, gas optimization suggestions, and common...", "description_zh": "", "downloads": 55, "homepage": "https://clawhub.ai/samledger67-dotcom/solidity-audit-precheck", "iconUrl": null, "installs": 0, "name": "test", "ownerName": "samledger67-dotcom", "score": 61111.11111111112, "slug": "solidity-audit-precheck", "source": "clawhub", "stars": 0, "tags": null, "updated_at": 1776737384182, "version": "0.0.0-probe"}, {"category": "", "created_at": 1774914559737, "description": "Local speech-to-text with the Whisper CLI (no API key).", "description_zh": "", "downloads": 55, "homepage": "https://clawhub.ai/andy27725/openai-whisper-andy27725", "iconUrl": null, "installs": 13, "name": "Openai Whisper Andy27725", "ownerName": "andy27725", "score": 57894.73684210527, "slug": "openai-whisper-andy27725", "source": "clawhub", "stars": 0, "tags": null, "updated_at": 1776734386967, "version": "1.0.0"}, {"category": "", "created_at": 1774904282957, "description": "Deep error handling workflow—taxonomy, user-visible vs internal errors, retries and idempotency, observability, and supportability. Use when standardizing fa...", "description_zh": "", "downloads": 55, "homepage": "https://clawhub.ai/mike47512/error-handling", "iconUrl": null, "installs": 3, "name": "Error Handling", "ownerName": "mike47512", "score": 50458.71559633027, "slug": "error-handling", "source": "clawhub", "stars": 0, "tags": null, "updated_at": 1776732283925, "version": "1.0.0"}, {"category": "", "created_at": 1774855651856, "description": "When the user wants to write, rewrite, or improve marketing copy for any page — including homepage, landing pages, pricing pages, feature pages, about pages,...", "description_zh": "", "downloads": 55, "homepage": "https://clawhub.ai/mariokarras/abm-copywriting", "iconUrl": null, "installs": 9, "name": "Copywriting", "ownerName": "mariokarras", "score": 56122.448979591834, "slug": "abm-copywriting", "source": "clawhub", "stars": 0, "tags": null, "updated_at": 1776730544379, "version": "1.0.0"}, {"category": "", "created_at": 1774943869012, "description": "Reference tool for devtools — covers intro, quickstart, patterns and more. Quick lookup for Load Balancer concepts, best practices, and implementation patterns.", "description_zh": "", "downloads": 55, "homepage": "https://clawhub.ai/bytesagain3/load-balancer", "iconUrl": null, "installs": 0, "name": "Load Balancer", "ownerName": "bytesagain3", "score": 55555.555555555555, "slug": "load-balancer", "source": "clawhub", "stars": 0, "tags": null, "updated_at": 1776729283641, "version": "2.0.3"}, {"category": "", "created_at": 1774844420289, "description": "Reference tool for devtools — covers intro, quickstart, patterns and more. Quick lookup for Base64 concepts, best practices, and implementation patterns.", "description_zh": "", "downloads": 55, "homepage": "https://clawhub.ai/xueyetianya/base64", "iconUrl": null, "installs": 2, "name": "Base64", "ownerName": "xueyetianya", "score": 100000, "slug": "base64", "source": "clawhub", "stars": 0, "tags": null, "updated_at": 1776698455482, "version": "2.0.4"}, {"category": "productivity", "created_at": 1773069792247, "description": "A simple hello world skill that demonstrates basic skill structure. When users ask for a greeting, it responds with a friendly hello message.", "description_zh": "", "downloads": 55, "homepage": "https://clawhub.ai/yehan5555/helloworld", "iconUrl": null, "installs": 27, "name": "Helloworld", "ownerName": "yehan5555", "score": 98214.28571428571, "slug": "helloworld", "source": "clawhub", "stars": 0, "tags": null, "updated_at": 1776696884503, "version": "1.0.0"}, {"category": "", "created_at": 1774866119243, "description": "Fetch specified crypto spot prices from OKX and present them in USD display. Use when the user asks to get OKX prices/quotes for specific symbols (e.g. BTC,...", "description_zh": "", "downloads": 55, "homepage": "https://clawhub.ai/chgy123/okx-symbol-prices", "iconUrl": null, "installs": 9, "name": "okx_symbol_prices", "ownerName": "chgy123", "score": 98214.28571428571, "slug": "okx-symbol-prices", "source": "clawhub", "stars": 0, "tags": null, "updated_at": 1776696884447, "version": "1.0.0"}, {"category": "", "created_at": 1774889856653, "description": "Generate Excalidraw diagrams (.excalidraw files) from natural language descriptions. Use this skill whenever the user asks to create, draw, or visualize a di...", "description_zh": "", "downloads": 55, "homepage": "https://clawhub.ai/jannik689/excalidraw-pro", "iconUrl": null, "installs": 9, "name": "excalidraw", "ownerName": "jannik689", "score": 98214.28571428571, "slug": "excalidraw-pro", "source": "clawhub", "stars": 0, "tags": null, "updated_at": 1776696884407, "version": "1.0.0"}, {"category": "developer-tools", "created_at": 1773955003840, "description": "Tiny and short Python CLI tool to manage Google Calendar events from the command line -- list, add, update, delete events via the Calendar API.", "description_zh": "", "downloads": 55, "homepage": "https://clawhub.ai/xwings/py-googlecalendar-cli", "iconUrl": null, "installs": 5, "name": "py-googlecalendar-cli", "ownerName": "xwings", "score": 98214.28571428571, "slug": "py-googlecalendar-cli", "source": "clawhub", "stars": 0, "tags": null, "updated_at": 1776696884400, "version": "1.0.0"}, {"category": "", "created_at": 1774876952811, "description": "Local-first chart generation engine for trends, comparisons, distributions, and quick visual explanations. Use whenever the user wants to visualize data, com...", "description_zh": "", "downloads": 55, "homepage": "https://clawhub.ai/panchenbo/chart-data-viz", "iconUrl": null, "installs": 3, "name": "Chart Data Viz", "ownerName": "panchenbo", "score": 98214.28571428571, "slug": "chart-data-viz", "source": "clawhub", "stars": 0, "tags": null, "updated_at": 1776696884391, "version": "1.0.0"}, {"category": "", "created_at": 1774841972463, "description": "Reference tool for devtools — covers intro, quickstart, patterns and more. Quick lookup for Convert concepts, best practices, and implementation patterns.", "description_zh": "", "downloads": 55, "homepage": "https://clawhub.ai/bytesagain1/convert", "iconUrl": null, "installs": 2, "name": "Convert", "ownerName": "bytesagain1", "score": 98214.28571428571, "slug": "convert", "source": "clawhub", "stars": 0, "tags": null, "updated_at": 1776696884388, "version": "2.0.4"}, {"category": "", "created_at": 1774883334283, "description": "Identify songs from audio clips using AudD API and optionally queue them to Spotify. Triggers on /songsearch command, voice messages with song identification...", "description_zh": "", "downloads": 55, "homepage": "https://clawhub.ai/playoffp/music-identify", "iconUrl": null, "installs": 0, "name": "Music Identify", "ownerName": "playoffp", "score": 98214.28571428571, "slug": "music-identify", "source": "clawhub", "stars": 0, "tags": null, "updated_at": 1776696884361, "version": "1.2.0"}]}