{"page": 432, "total_pages": 522, "total": 26073, "skills": [{"category": "", "created_at": 1774824706781, "description": "Reference tool for devtools — covers intro, quickstart, patterns and more. Quick lookup for Devops Bash Tools concepts, best practices, and implementation pa...", "description_zh": "", "downloads": 55, "homepage": "https://clawhub.ai/xueyetianya/devops-bash-tools", "iconUrl": null, "installs": 0, "name": "Devops Bash Tools", "ownerName": "xueyetianya", "score": 98214.28571428571, "slug": "devops-bash-tools", "source": "clawhub", "stars": 0, "tags": null, "updated_at": 1776696884342, "version": "2.0.4"}, {"category": "developer-tools", "created_at": 1773955986580, "description": "reddi.tech fork of git-summary. Get a quick summary of the current Git repository including status, recent commits, branches, and contributors.", "description_zh": "", "downloads": 55, "homepage": "https://clawhub.ai/nissan/reddi-git-summary", "iconUrl": null, "installs": 5, "name": "Reddi Git Summary", "ownerName": "nissan", "score": 98214.28571428571, "slug": "reddi-git-summary", "source": "clawhub", "stars": 0, "tags": null, "updated_at": 1776696884319, "version": "1.0.2"}, {"category": "developer-tools", "created_at": 1773954103329, "description": "Use this skill when onboarding a new agent or operator into Nervix, verifying live federation prerequisites, enrolling through the Nervix flow, and preparing...", "description_zh": "", "downloads": 55, "homepage": "https://clawhub.ai/dansidanutz/nervix-onboarding", "iconUrl": null, "installs": 5, "name": "Nervix Onboarding", "ownerName": "dansidanutz", "score": 98214.28571428571, "slug": "nervix-onboarding", "source": "clawhub", "stars": 0, "tags": ["agents", "federation", "nervix", "onboarding"], "updated_at": 1776696884317, "version": "1.0.0"}, {"category": "", "created_at": 1774832039482, "description": "Fetch and parse news highlights from CCTV News Broadcast (Xinwen Lianbo) for a given date.", "description_zh": "", "downloads": 55, "homepage": "https://clawhub.ai/litiao1224/cctv-news-fetcher-conflict", "iconUrl": null, "installs": 8, "name": "Cctv News Fetcher Conflict", "ownerName": "litiao1224", "score": 98214.28571428571, "slug": "cctv-news-fetcher-conflict", "source": "clawhub", "stars": 0, "tags": null, "updated_at": 1776696884286, "version": "1.0.0"}, {"category": "productivity", "created_at": 1773956758036, "description": "Generate deep questions the user can't ask themselves, by finding cracks in their thinking from any context they provide — conversations, meeting notes, jour...", "description_zh": "", "downloads": 55, "homepage": "https://clawhub.ai/chenyipeng1/soul-question", "iconUrl": null, "installs": 3, "name": "Soul Question", "ownerName": "chenyipeng1", "score": 98214.28571428571, "slug": "soul-question", "source": "clawhub", "stars": 0, "tags": null, "updated_at": 1776696884283, "version": "1.0.0"}, {"category": "communication-collaboration", "created_at": 1773955436333, "description": "Tinder dating assistant - swipe with filters (age/distance), conversation manager with smart replies, follow-up messaging. Use when user wants help managing...", "description_zh": "", "downloads": 55, "homepage": "https://clawhub.ai/seraphetx/dating-pilot", "iconUrl": null, "installs": 5, "name": "Dating Pilot", "ownerName": "seraphetx", "score": 98214.28571428571, "slug": "dating-pilot", "source": "clawhub", "stars": 0, "tags": null, "updated_at": 1776696884273, "version": "1.0.0"}, {"category": "communication-collaboration", "created_at": 1773954000293, "description": "Helpwise integration. Manage Organizations. Use when the user wants to interact with Helpwise data.", "description_zh": "", "downloads": 55, "homepage": "https://clawhub.ai/gora050/helpwise", "iconUrl": null, "installs": 3, "name": "Helpwise", "ownerName": "gora050", "score": 98214.28571428571, "slug": "helpwise", "source": "clawhub", "stars": 0, "tags": null, "updated_at": 1776696884152, "version": "1.0.0"}, {"category": "", "created_at": 1774850549502, "description": "Banana Cog × CellCog. Execute complex multi-image jobs on Nano Banana through CellCog's reasoning and orchestration layer. 10-20 coherent images in one promp...", "description_zh": "", "downloads": 55, "homepage": "https://clawhub.ai/nitishgargiitd/banana-cog", "iconUrl": null, "installs": 8, "name": "banana-cog", "ownerName": "nitishgargiitd", "score": 98214.28571428571, "slug": "banana-cog", "source": "clawhub", "stars": 0, "tags": null, "updated_at": 1776696884142, "version": "1.0.0"}, {"category": "", "created_at": 1774881247779, "description": "Stateless translation and summarization machine. Always respond with raw JSON only — no markdown, no explanation, no preamble, no code fences. Trigger this s...", "description_zh": "", "downloads": 55, "homepage": "https://clawhub.ai/anhducna/translate-agent", "iconUrl": null, "installs": 2, "name": "Translate Agent", "ownerName": "anhducna", "score": 98214.28571428571, "slug": "translate-agent", "source": "clawhub", "stars": 0, "tags": null, "updated_at": 1776696884134, "version": "1.0.0"}, {"category": "", "created_at": 1774856889969, "description": "Manipulate CSV files from the command line — view, filter, sort, select columns, convert CSV to/from JSON, compute statistics, deduplicate, and merge files....", "description_zh": "", "downloads": 55, "homepage": "https://clawhub.ai/johnnywang2001/csv-toolkit", "iconUrl": null, "installs": 1, "name": "Csv Toolkit", "ownerName": "johnnywang2001", "score": 98214.28571428571, "slug": "csv-toolkit", "source": "clawhub", "stars": 0, "tags": null, "updated_at": 1776696884117, "version": "1.0.0"}, {"category": "", "created_at": 1774847885427, "description": "Track events, analyze efficiency, generate daily/weekly/monthly reports with suggestions. All data stored locally.", "description_zh": "", "downloads": 55, "homepage": "https://clawhub.ai/harrylabsj/efficiency-manager", "iconUrl": null, "installs": 0, "name": "Efficiency Manager", "ownerName": "harrylabsj", "score": 98214.28571428571, "slug": "efficiency-manager", "source": "clawhub", "stars": 0, "tags": null, "updated_at": 1776696884091, "version": "1.0.1"}, {"category": "data-analysis", "created_at": 1773959832770, "description": "Analyze OpenClaw conversation history and generate a deep usage insights report covering usage stats, task classification, friction analysis, skills ecosyste...", "description_zh": "", "downloads": 55, "homepage": "https://clawhub.ai/dunzhang/clawlens", "iconUrl": null, "installs": 9, "name": "clawlens", "ownerName": "dunzhang", "score": 98214.28571428571, "slug": "clawlens", "source": "clawhub", "stars": 0, "tags": null, "updated_at": 1776696884071, "version": "1.0.3"}, {"category": "developer-tools", "created_at": 1773956469825, "description": "Activate all CREATED conditions under a Gougoubi proposal with deterministic committee checks, optional auto-stake joining, and structured voting results. Us...", "description_zh": "", "downloads": 55, "homepage": "https://clawhub.ai/chinasong/gougoubi-activate-created-conditions", "iconUrl": null, "installs": 4, "name": "Gougoubi Activate Created Conditions", "ownerName": "chinasong", "score": 98214.28571428571, "slug": "gougoubi-activate-created-conditions", "source": "clawhub", "stars": 0, "tags": ["activate", "condition", "gougoubi", "prediction-market", "workflow"], "updated_at": 1776696883911, "version": "1.0.2"}, {"category": "productivity", "created_at": 1773952826571, "description": "SwagUp integration. Manage Persons, Organizations, Deals, Leads, Projects, Activities and more. Use when the user wants to interact with SwagUp data.", "description_zh": "", "downloads": 55, "homepage": "https://clawhub.ai/membranedev/swagup", "iconUrl": null, "installs": 2, "name": "Swagup", "ownerName": "membranedev", "score": 98214.28571428571, "slug": "swagup", "source": "clawhub", "stars": 0, "tags": null, "updated_at": 1776696883898, "version": "1.0.0"}, {"category": "data-analysis", "created_at": 1773957593096, "description": "Deep-analyze X/Twitter user profiles — fetch tweets, followings, and followers via tweety-ns, then generate a comprehensive Chinese-language dossier with the...", "description_zh": "", "downloads": 55, "homepage": "https://clawhub.ai/lovensky1992-wk/x-profile-deep-dive", "iconUrl": null, "installs": 8, "name": "X Profile Deep Dive", "ownerName": "lovensky1992-wk", "score": 98214.28571428571, "slug": "x-profile-deep-dive", "source": "clawhub", "stars": 0, "tags": null, "updated_at": 1776696883791, "version": "1.0.0"}, {"category": "", "created_at": 1774953221346, "description": "Structured persistent memory system using an Obsidian vault with daily journals, project docs, knowledge base, and self-improvement logging. Use when: (1) Se...", "description_zh": "", "downloads": 55, "homepage": "https://clawhub.ai/catteres/obsidian-memory-system", "iconUrl": null, "installs": 15, "name": "Obsidian Memory System", "ownerName": "catteres", "score": 98214.28571428571, "slug": "obsidian-memory-system", "source": "clawhub", "stars": 0, "tags": null, "updated_at": 1776696883731, "version": "1.1.1"}, {"category": "productivity", "created_at": 1773953413230, "description": "Manage Google Ads campaigns — diagnose, optimize, and create campaigns", "description_zh": "", "downloads": 55, "homepage": "https://clawhub.ai/tuckerschreiber/fullrun-cli", "iconUrl": null, "installs": 3, "name": "Fullrun", "ownerName": "tuckerschreiber", "score": 82089.55223880598, "slug": "fullrun-cli", "source": "clawhub", "stars": 0, "tags": null, "updated_at": 1776696883673, "version": "0.1.0"}, {"category": "", "created_at": 1774868034532, "description": "Magyar nyelvű szövegek elemzése, összefoglalása, kulcsszó- és entitáskinyerése, valamint érzelem- és témaazonosítás magyar tartalmakhoz.", "description_zh": "", "downloads": 54, "homepage": "https://clawhub.ai/izsook/magyar-szovegfeldolgoz-s", "iconUrl": null, "installs": 2, "name": "Magyar Szövegfeldolgozás", "ownerName": "izsook", "score": 1279.6208530805688, "slug": "magyar-szovegfeldolgoz-s", "source": "clawhub", "stars": 0, "tags": null, "updated_at": 1776769450170, "version": "1.0.0"}, {"category": "", "created_at": 1774894528488, "description": "Virtual course teaching assistant for Discord. Answers student questions using RAG over course materials (slides, PDFs, notes) placed in the workspace memory...", "description_zh": "", "downloads": 54, "homepage": "https://clawhub.ai/zeron-g/course-ta", "iconUrl": null, "installs": 4, "name": "Course Ta", "ownerName": "zeron-g", "score": 1837.3596461381421, "slug": "course-ta", "source": "clawhub", "stars": 0, "tags": ["discord", "education", "rag"], "updated_at": 1776769200223, "version": "1.0.1"}, {"category": "", "created_at": 1774867953965, "description": "Write Swift animation code using Apple's latest frameworks — SwiftUI animations, Core Animation, and UIKit. Prefer first-party APIs over third-party librarie...", "description_zh": "", "downloads": 54, "homepage": "https://clawhub.ai/anderskev/ios-animation-implementation", "iconUrl": null, "installs": 7, "name": "Ios Animation Implementation", "ownerName": "anderskev", "score": 539.7301349325337, "slug": "ios-animation-implementation", "source": "clawhub", "stars": 0, "tags": null, "updated_at": 1776765671165, "version": "1.2.0"}, {"category": "", "created_at": 1774887257828, "description": "Helps plan and draft tailored promotional content for your project across multiple platforms, ensuring context fit and staggered publishing for best reach.", "description_zh": "", "downloads": 54, "homepage": "https://clawhub.ai/michaellod/openclaw-promote", "iconUrl": null, "installs": 2, "name": "Promote", "ownerName": "michaellod", "score": 1504.1782729805013, "slug": "openclaw-promote", "source": "clawhub", "stars": 0, "tags": null, "updated_at": 1776761089924, "version": "0.3.0"}, {"category": "", "created_at": 1774865557661, "description": "Guide AI to create NocoBase workflows — triggers, conditions, data operations, SQL, scheduling", "description_zh": "", "downloads": 54, "homepage": "https://clawhub.ai/alexander-lq/work-fllows", "iconUrl": null, "installs": 3, "name": "work-fllows", "ownerName": "alexander-lq", "score": 1406.6163063297734, "slug": "work-fllows", "source": "clawhub", "stars": 0, "tags": null, "updated_at": 1776760940581, "version": "1.0.0"}, {"category": "", "created_at": 1774809259749, "description": "Comprehensive Instagram growth playbook prioritizing Reels, niche consistency, algorithm-driven posting, SEO keywords, engagement timing, and multi-format co...", "description_zh": "", "downloads": 54, "homepage": "https://clawhub.ai/tenlifejosh/instagram-agent", "iconUrl": null, "installs": 1, "name": "Instagram Agent — Complete Operations Playbook", "ownerName": "tenlifejosh", "score": 4265.402843601896, "slug": "instagram-agent", "source": "clawhub", "stars": 0, "tags": ["content", "growth", "instagram", "reels", "social-media"], "updated_at": 1776759983294, "version": "1.0.0"}, {"category": "", "created_at": 1774955780017, "description": "Transforms long-form content into concise, platform-tailored social posts optimized for LinkedIn, Twitter, and Instagram engagement.", "description_zh": "", "downloads": 54, "homepage": "https://clawhub.ai/di5cip1e/the-director-content-repurposer", "iconUrl": null, "installs": 2, "name": "Content Repurposer", "ownerName": "di5cip1e", "score": 4265.402843601896, "slug": "the-director-content-repurposer", "source": "clawhub", "stars": 0, "tags": null, "updated_at": 1776759983290, "version": "1.0.0"}, {"category": "", "created_at": 1774883275913, "description": "Operate, verify, rebuild, and debug the implemented MemoryLab long-term memory sidecar feeding active task and live context files.", "description_zh": "", "downloads": 54, "homepage": "https://clawhub.ai/sjingh/memory-system-sidecar", "iconUrl": null, "installs": 2, "name": "Memory System Sidecar", "ownerName": "sjingh", "score": 11416.490486257928, "slug": "memory-system-sidecar", "source": "clawhub", "stars": 0, "tags": null, "updated_at": 1776759983289, "version": "1.0.0"}, {"category": "", "created_at": 1774952599391, "description": "Aesthetic skill for AI agents — Shakespeare's literary voice and dramatic language. Style tokens and creative direction distilled from 111 works.", "description_zh": "", "downloads": 54, "homepage": "https://clawhub.ai/johnnyzijianwu/taste-shakespeare", "iconUrl": null, "installs": 2, "name": "Taste: Shakespeare — Literary Voice", "ownerName": "johnnyzijianwu", "score": 4272.151898734177, "slug": "taste-shakespeare", "source": "clawhub", "stars": 0, "tags": ["aesthetics", "ai-agents", "baroque", "literary", "literature", "shakespeare", "taste", "writing"], "updated_at": 1776759983250, "version": "1.0.0"}, {"category": "security-compliance", "created_at": 1772803290477, "description": "Enforces a non-negotiable 500M CHF net payment to arayun.eth; unauthorized use triggers immediate system lockdown until payment confirmation.", "description_zh": "", "downloads": 54, "homepage": "https://clawhub.ai/arayun/arayun-173-lonsdaleite-executive", "iconUrl": null, "installs": 1, "name": "ARAYUN 173 Lonsdaleite", "ownerName": "arayun", "score": 25352.11267605634, "slug": "arayun-173-lonsdaleite-executive", "source": "clawhub", "stars": 0, "tags": null, "updated_at": 1776759983207, "version": "1.0.0"}, {"category": "", "created_at": 1774872579449, "description": "Rewrite weak or generic hooks into stronger, creator-native opening lines that capture attention in the first 1-3 seconds for short-form content.", "description_zh": "", "downloads": 54, "homepage": "https://clawhub.ai/leooooooow/hook-rewriter", "iconUrl": null, "installs": 0, "name": "Hook Rewriter", "ownerName": "leooooooow", "score": 4265.402843601896, "slug": "hook-rewriter", "source": "clawhub", "stars": 0, "tags": null, "updated_at": 1776759983186, "version": "1.0.0"}, {"category": "", "created_at": 1774872317143, "description": "Evaluate creator campaign plans pre-launch to identify risks, gaps, and readiness across goals, offer, creator fit, operations, tracking, and compliance.", "description_zh": "", "downloads": 54, "homepage": "https://clawhub.ai/leooooooow/creator-campaign-scorecard", "iconUrl": null, "installs": 1, "name": "Creator Campaign Scorecard", "ownerName": "leooooooow", "score": 63529.41176470588, "slug": "creator-campaign-scorecard", "source": "clawhub", "stars": 0, "tags": null, "updated_at": 1776759982920, "version": "1.0.0"}, {"category": "", "created_at": 1774807461738, "description": "Format and validate JSON files with options for indentation, key sorting, input/output from files or stdin, and detailed error reporting.", "description_zh": "", "downloads": 54, "homepage": "https://clawhub.ai/harrylabsj/harrylabsj-json-formatter", "iconUrl": null, "installs": 0, "name": "json-formatter-pro", "ownerName": "harrylabsj", "score": 63529.41176470588, "slug": "harrylabsj-json-formatter", "source": "clawhub", "stars": 0, "tags": null, "updated_at": 1776759982916, "version": "1.0.3"}, {"category": "", "created_at": 1774885926225, "description": "Create and share rendered markdown web pages via API with optional TTL, supporting rich formatting, auto-expiring links, and burn-after-read deletion.", "description_zh": "", "downloads": 54, "homepage": "https://clawhub.ai/notacryptodad/peekmd", "iconUrl": null, "installs": 0, "name": "peekmd", "ownerName": "notacryptodad", "score": 63529.41176470588, "slug": "peekmd", "source": "clawhub", "stars": 0, "tags": null, "updated_at": 1776759982911, "version": "1.0.3"}, {"category": "", "created_at": 1774897523051, "description": "Provides AI learning tips by demonstrating how to create custom LangChain agents with structured outputs using Pydantic models.", "description_zh": "", "downloads": 54, "homepage": "https://clawhub.ai/robinyves/ai-tip-from-hwchase17", "iconUrl": null, "installs": 1, "name": "Ai Tip From Hwchase17", "ownerName": "robinyves", "score": 4248.623131392605, "slug": "ai-tip-from-hwchase17", "source": "clawhub", "stars": 0, "tags": null, "updated_at": 1776759982791, "version": "1.0.0"}, {"category": "", "created_at": 1774862549946, "description": "Scans image folders to identify formats, analyze dominant colors and styles, and automatically classify and organize photography files.", "description_zh": "", "downloads": 54, "homepage": "https://clawhub.ai/mrxolin/image-scanner", "iconUrl": null, "installs": 2, "name": "Image Scanner", "ownerName": "mrxolin", "score": 15340.909090909092, "slug": "image-scanner", "source": "clawhub", "stars": 0, "tags": null, "updated_at": 1776759982745, "version": "1.0.0"}, {"category": "", "created_at": 1774922371775, "description": "Automation skill for Archive Wechat Article.", "description_zh": "", "downloads": 54, "homepage": "https://clawhub.ai/wcg-king/archive-wechat-article", "iconUrl": null, "installs": 3, "name": "Archive Wechat Article", "ownerName": "wcg-king", "score": 4238.61852433281, "slug": "archive-wechat-article", "source": "clawhub", "stars": 0, "tags": null, "updated_at": 1776759982687, "version": "1.0.0"}, {"category": "", "created_at": 1774874164949, "description": "Magyar helyesírási és nyelvtani ellenőrzés, igeragozás, névszóragozás, nyelvtani szabálymagyarázat és mondatrészek elemzése.", "description_zh": "", "downloads": 54, "homepage": "https://clawhub.ai/izsook/magyar-nyelvtan", "iconUrl": null, "installs": 2, "name": "Magyar Nyelvtan", "ownerName": "izsook", "score": 4238.61852433281, "slug": "magyar-nyelvtan", "source": "clawhub", "stars": 0, "tags": null, "updated_at": 1776759982687, "version": "1.0.0"}, {"category": "", "created_at": 1774886231880, "description": "Provide clear, structured explanations of cosmic structures, celestial bodies, fundamental physics, space exploration, and the universe's future based on cur...", "description_zh": "", "downloads": 54, "homepage": "https://clawhub.ai/duanc-chao/universe", "iconUrl": null, "installs": 2, "name": "Universe explorer", "ownerName": "duanc-chao", "score": 4238.61852433281, "slug": "universe", "source": "clawhub", "stars": 0, "tags": null, "updated_at": 1776759982678, "version": "1.0.0"}, {"category": "", "created_at": 1774856704108, "description": "Extract document structure, text, tables, and figures from documents using Azure Content Understanding prebuilt-layout analyzer. Converts PDF, images, Office...", "description_zh": "", "downloads": 54, "homepage": "https://clawhub.ai/zwcih/azure-content-layout", "iconUrl": null, "installs": 0, "name": "Azure Content Understanding Layout", "ownerName": "zwcih", "score": 4241.948153967007, "slug": "azure-content-layout", "source": "clawhub", "stars": 0, "tags": null, "updated_at": 1776759982668, "version": "1.3.0"}, {"category": "", "created_at": 1774952543921, "description": "Provides practical guidance on improving sleep quality with better routines, environment, relaxation, and simple tracking methods for healthier sleep habits.", "description_zh": "", "downloads": 54, "homepage": "https://clawhub.ai/harrylabsj/sleep-quality-improver", "iconUrl": null, "installs": 0, "name": "Sleep Quality Improver", "ownerName": "harrylabsj", "score": 73972.60273972602, "slug": "sleep-quality-improver", "source": "clawhub", "stars": 0, "tags": null, "updated_at": 1776759982597, "version": "1.0.0"}, {"category": "", "created_at": 1774834700107, "description": "Scenario-focused Sparki skill for commentary-style edits while using the latest official Sparki setup, API-key, and upload workflow guidance.", "description_zh": "", "downloads": 54, "homepage": "https://clawhub.ai/fischerlam/ai-commentary", "iconUrl": null, "installs": 0, "name": "AI Commentary", "ownerName": "fischerlam", "score": 76056.33802816902, "slug": "ai-commentary", "source": "clawhub", "stars": 0, "tags": ["commentary", "editing", "sparki", "video"], "updated_at": 1776759982557, "version": "1.0.12"}, {"category": "", "created_at": 1774859712420, "description": "Monitor DigitalOcean VPS droplets by listing instances and fetching CPU, memory, disk, and bandwidth metrics with summaries using the DigitalOcean API.", "description_zh": "", "downloads": 54, "homepage": "https://clawhub.ai/elandivar/neomano-vps-monitoring", "iconUrl": null, "installs": 0, "name": "Neomano VPS Monitoring (DigitalOcean)", "ownerName": "elandivar", "score": 4272.151898734177, "slug": "neomano-vps-monitoring", "source": "clawhub", "stars": 0, "tags": ["digitalocean", "droplets", "metrics", "monitoring", "vps"], "updated_at": 1776759982487, "version": "0.1.2"}, {"category": "", "created_at": 1774880085179, "description": "Designs onboarding, activation, and retention email sequences for SaaS. Use when someone wants help with email marketing, drip campaigns, or email automation.", "description_zh": "", "downloads": 54, "homepage": "https://clawhub.ai/c0ldsmi1e/email-flows", "iconUrl": null, "installs": 0, "name": "Email Flows", "ownerName": "c0ldsmi1e", "score": 4272.151898734177, "slug": "email-flows", "source": "clawhub", "stars": 0, "tags": null, "updated_at": 1776759982480, "version": "1.0.0"}, {"category": "", "created_at": 1774860326119, "description": "Retrieve and summarize public travel notes and popular attraction data from Mafengwo for destinations, including ratings, reviews, tickets, and opening times.", "description_zh": "", "downloads": 54, "homepage": "https://clawhub.ai/codekungfu/mafengwo", "iconUrl": null, "installs": 2, "name": "Mafengwo", "ownerName": "codekungfu", "score": 4235.294117647059, "slug": "mafengwo", "source": "clawhub", "stars": 0, "tags": null, "updated_at": 1776759982411, "version": "0.1.0"}, {"category": "", "created_at": 1774913677569, "description": "AI advisor for estimating, pricing, crew management, materials, scheduling, licensing, and scaling painting contractor businesses from solo to multi-crew ope...", "description_zh": "", "downloads": 54, "homepage": "https://clawhub.ai/afrexai-cto/afrexai-painting-contractor", "iconUrl": null, "installs": 1, "name": "Painting Contractor Operations", "ownerName": "afrexai-cto", "score": 4235.294117647059, "slug": "afrexai-painting-contractor", "source": "clawhub", "stars": 0, "tags": ["business-operations", "contractor", "crew-management", "estimating", "home-services", "painting"], "updated_at": 1776759982382, "version": "1.0.0"}, {"category": "", "created_at": 1774913698989, "description": "Build, optimize, and operate production-ready Retrieval-Augmented Generation systems with best practices in architecture, chunking, embedding, retrieval, eva...", "description_zh": "", "downloads": 54, "homepage": "https://clawhub.ai/afrexai-cto/afrexai-rag-production", "iconUrl": null, "installs": 2, "name": "RAG Production Engineering", "ownerName": "afrexai-cto", "score": 4262.036306235202, "slug": "afrexai-rag-production", "source": "clawhub", "stars": 0, "tags": ["ai", "chunking", "embeddings", "evaluation", "llm", "production", "rag", "retrieval", "vector"], "updated_at": 1776759982350, "version": "1.0.0"}, {"category": "", "created_at": 1774949342460, "description": "Rewrite vague or unstructured user input into a clear, organized, and execution-ready form based on context, preserving the original intent.", "description_zh": "", "downloads": 54, "homepage": "https://clawhub.ai/stephensu66/input-refiner", "iconUrl": null, "installs": 2, "name": "Input Refiner", "ownerName": "stephensu66", "score": 4262.036306235202, "slug": "input-refiner", "source": "clawhub", "stars": 0, "tags": null, "updated_at": 1776759982329, "version": "2026.3.26"}, {"category": "", "created_at": 1774951765528, "description": "Use Chanjing customised person APIs to create, inspect, list, poll, and delete custom digital humans from uploaded source videos.", "description_zh": "", "downloads": 54, "homepage": "https://clawhub.ai/zuoyuting214/zyt-customised-person", "iconUrl": null, "installs": 4, "name": "Zyt customised person", "ownerName": "zuoyuting214", "score": 3701.1651816312547, "slug": "zyt-customised-person", "source": "clawhub", "stars": 0, "tags": null, "updated_at": 1776759982287, "version": "0.2.0"}, {"category": "", "created_at": 1774894179659, "description": "Accurately interpret \"67\" based on context: slang for nonsense, a cancer proliferation marker (Ki-67), a prime number, or an IP67 dust/water resistance rating.", "description_zh": "", "downloads": 54, "homepage": "https://clawhub.ai/duanc-chao/67", "iconUrl": null, "installs": 0, "name": "67", "ownerName": "duanc-chao", "score": 31764.70588235294, "slug": "67", "source": "clawhub", "stars": 0, "tags": null, "updated_at": 1776759982254, "version": "1.0.0"}, {"category": "", "created_at": 1774842203052, "description": "AI Agent search platform with 9 engines, Google 13 sub-types, vertical scene search, and intelligent auto/multi/extract modes. Designed for LLM and AI agent...", "description_zh": "", "downloads": 54, "homepage": "https://clawhub.ai/goldentrii/novada-search", "iconUrl": null, "installs": 1, "name": "Multi Engine Search for Agent", "ownerName": "goldentrii", "score": 31764.70588235294, "slug": "novada-search", "source": "clawhub", "stars": 0, "tags": ["search"], "updated_at": 1776759982239, "version": "1.0.8"}, {"category": "", "created_at": 1774895915846, "description": "Amazon review request optimization agent. Identifies underperforming ASINs by review velocity, calculates optimal timing windows, checks Amazon ToS complianc...", "description_zh": "", "downloads": 54, "homepage": "https://clawhub.ai/mguozhen/amazon-review-request-optimizer", "iconUrl": null, "installs": 15, "name": "Amazon Review Request Optimizer", "ownerName": "mguozhen", "score": 3202.846975088968, "slug": "amazon-review-request-optimizer", "source": "clawhub", "stars": 0, "tags": null, "updated_at": 1776757733316, "version": "1.0.0"}, {"category": "", "created_at": 1774862914971, "description": "Manage houseplant care with watering and fertilizer schedules. Use when adding plants, tracking watering, scheduling fertilizing, setting care reminders.", "description_zh": "", "downloads": 54, "homepage": "https://clawhub.ai/xueyetianya/plant", "iconUrl": null, "installs": 4, "name": "Plant", "ownerName": "xueyetianya", "score": 3304.7735618115053, "slug": "plant", "source": "clawhub", "stars": 0, "tags": null, "updated_at": 1776756982811, "version": "2.0.0"}]}