{"page": 433, "total_pages": 522, "total": 26073, "skills": [{"category": "", "created_at": 1774818050001, "description": "Find, validate, and compare arbitrage opportunities across markets with fee-aware math, execution sequencing, and failure-mode checks.", "description_zh": "", "downloads": 54, "homepage": "https://clawhub.ai/ivangdavila/arbitrage", "iconUrl": null, "installs": 0, "name": "Arbitrage", "ownerName": "ivangdavila", "score": 3185.8407079646017, "slug": "arbitrage", "source": "clawhub", "stars": 0, "tags": null, "updated_at": 1776756488406, "version": "1.0.0"}, {"category": "security-compliance", "created_at": 1773955798848, "description": "Use this skill when the user wants to audit a Binance trading prompt, decide whether an AI trader should get Binance account permissions, return Pass/Warn/Bl...", "description_zh": "", "downloads": 54, "homepage": "https://clawhub.ai/richard7463/miraix-binance-agent-firewall", "iconUrl": null, "installs": 3, "name": "Miraix Binance Agent Firewall", "ownerName": "richard7463", "score": 58064.516129032265, "slug": "miraix-binance-agent-firewall", "source": "clawhub", "stars": 0, "tags": null, "updated_at": 1776745369894, "version": "1.0.0"}, {"category": "", "created_at": 1774884061274, "description": "Candlestick reference tool. Use when working with candlestick in finance contexts.", "description_zh": "", "downloads": 54, "homepage": "https://clawhub.ai/xueyetianya/candlestick", "iconUrl": null, "installs": 0, "name": "Candlestick", "ownerName": "xueyetianya", "score": 62068.965517241384, "slug": "candlestick", "source": "clawhub", "stars": 0, "tags": null, "updated_at": 1776744170172, "version": "1.0.0"}, {"category": "", "created_at": 1774849366271, "description": "Very helpful in deep-reading one selected research paper, journal article, arXiv paper, working paper, technical report, benchmark paper, dataset paper, repl...", "description_zh": "", "downloads": 54, "homepage": "https://clawhub.ai/soymilkwinsagain/paper-deep-reader", "iconUrl": null, "installs": 12, "name": "Paper Deep Reader", "ownerName": "soymilkwinsagain", "score": 62068.965517241384, "slug": "paper-deep-reader", "source": "clawhub", "stars": 0, "tags": null, "updated_at": 1776743983887, "version": "2.1.0"}, {"category": "", "created_at": 1774916764643, "description": "Functional programming helpers for Golang using samber/lo — 500+ type-safe generic functions for slices, maps, channels, strings, math, tuples, and concurren...", "description_zh": "", "downloads": 54, "homepage": "https://clawhub.ai/samber/golang-samber-lo", "iconUrl": null, "installs": 3, "name": "Golang Samber Lo", "ownerName": "samber", "score": 58064.516129032265, "slug": "golang-samber-lo", "source": "clawhub", "stars": 0, "tags": null, "updated_at": 1776743444490, "version": "0.1.0"}, {"category": "", "created_at": 1774911722309, "description": "Provides linting best practices and golangci-lint configuration for Go projects. Covers running linters, configuring .golangci.yml, suppressing warnings with...", "description_zh": "", "downloads": 54, "homepage": "https://clawhub.ai/samber/golang-linter", "iconUrl": null, "installs": 1, "name": "Golang Lint", "ownerName": "samber", "score": 54545.454545454544, "slug": "golang-linter", "source": "clawhub", "stars": 0, "tags": null, "updated_at": 1776743444382, "version": "0.1.0"}, {"category": "", "created_at": 1774853700860, "description": "Generate structured health summary reports from user-provided health data including vitals, symptoms, medications, and lifestyle. Use when users want to summ...", "description_zh": "", "downloads": 54, "homepage": "https://clawhub.ai/jiwenbing/health-report", "iconUrl": null, "installs": 3, "name": "Health Report", "ownerName": "jiwenbing", "score": 55102.040816326524, "slug": "health-report", "source": "clawhub", "stars": 0, "tags": null, "updated_at": 1776742544389, "version": "1.0.0"}, {"category": "", "created_at": 1774847321691, "description": "Marketing strategy simulation with multi-agent analysis. Use when evaluating marketing strategies, product launches, campaigns, or needing diverse perspectiv...", "description_zh": "", "downloads": 54, "homepage": "https://clawhub.ai/dorongss/marketing-simulator", "iconUrl": null, "installs": 2, "name": "Marketing Scenario Simulator", "ownerName": "dorongss", "score": 62068.965517241384, "slug": "marketing-simulator", "source": "clawhub", "stars": 0, "tags": null, "updated_at": 1776741769561, "version": "1.1.0"}, {"category": "", "created_at": 1774825113979, "description": "Evaluate betting opportunities with line shopping, bankroll discipline, market checks, and risk filters before any stake is placed.", "description_zh": "", "downloads": 54, "homepage": "https://clawhub.ai/ivangdavila/betting", "iconUrl": null, "installs": 2, "name": "Betting", "ownerName": "ivangdavila", "score": 55102.040816326524, "slug": "betting", "source": "clawhub", "stars": 0, "tags": null, "updated_at": 1776739969986, "version": "1.0.0"}, {"category": "", "created_at": 1774901568860, "description": "Interactive product knowledge training and quiz system for retail staff. Tests employees on product specs, store policies, sales techniques, and FAQs through...", "description_zh": "", "downloads": 54, "homepage": "https://clawhub.ai/fangwei-frank/training-quiz", "iconUrl": null, "installs": 6, "name": "Training Quiz", "ownerName": "fangwei-frank", "score": 58695.65217391305, "slug": "training-quiz", "source": "clawhub", "stars": 0, "tags": null, "updated_at": 1776737084467, "version": "1.0.0"}, {"category": "", "created_at": 1774921415430, "description": "Remove signs of AI-generated writing from text. Use when editing or reviewing text to make it sound more natural and human-written. Based on Wikipedia's comp...", "description_zh": "", "downloads": 54, "homepage": "https://clawhub.ai/hanxueda/humanizer-1", "iconUrl": null, "installs": 13, "name": "Humanizer 1", "ownerName": "hanxueda", "score": 55670.10309278351, "slug": "humanizer-1", "source": "clawhub", "stars": 0, "tags": null, "updated_at": 1776736857503, "version": "1.0.0"}, {"category": "", "created_at": 1774910144313, "description": "Captures learnings, errors, and corrections to enable continuous improvement. Use when: (1) A command or operation fails unexpectedly, (2) User corrects Clau...", "description_zh": "", "downloads": 54, "homepage": "https://clawhub.ai/smallersoup/self-improving-agent-6", "iconUrl": null, "installs": 16, "name": "Self Improvement", "ownerName": "smallersoup", "score": 76056.33802816902, "slug": "self-improving-agent-6", "source": "clawhub", "stars": 0, "tags": null, "updated_at": 1776735080386, "version": "0.1.0"}, {"category": "", "created_at": 1774888409890, "description": "Security vitals checker, also known as ClawVitals. Scans your installation, scores your setup, and shows you exactly what to fix. First scan in seconds.", "description_zh": "", "downloads": 54, "homepage": "https://clawhub.ai/bk-cm/securityvitals", "iconUrl": null, "installs": 0, "name": "SecurityVitals", "ownerName": "bk-cm", "score": 54545.454545454544, "slug": "securityvitals", "source": "clawhub", "stars": 0, "tags": null, "updated_at": 1776727483724, "version": "1.3.2"}, {"category": "", "created_at": 1774951600382, "description": "subtitle-generator-ai is a ClawHub skill that transcribes spoken audio from your videos and burns or exports accurate, time-synced subtitles in seconds. Unli...", "description_zh": "", "downloads": 54, "homepage": "https://clawhub.ai/nemovideonemo/subtitle-generator-ai", "iconUrl": null, "installs": 3, "name": "Subtitle Generator Ai", "ownerName": "nemovideonemo", "score": 51923.07692307693, "slug": "subtitle-generator-ai", "source": "clawhub", "stars": 0, "tags": null, "updated_at": 1776723283664, "version": "1.0.0"}, {"category": "", "created_at": 1774851397986, "description": "Instagram reels maker and TikTok video maker — generate and edit short-form vertical videos directly in chat. Create Instagram Reels, TikTok videos, and YouT...", "description_zh": "", "downloads": 54, "homepage": "https://clawhub.ai/imo14reifey/reels-creator", "iconUrl": null, "installs": 4, "name": "Reels Creator", "ownerName": "imo14reifey", "score": 57446.8085106383, "slug": "reels-creator", "source": "clawhub", "stars": 0, "tags": null, "updated_at": 1776722983770, "version": "1.0.6"}, {"category": "developer-tools", "created_at": 1773042572115, "description": "AI-optimized web search via Tavily API. Returns concise, relevant results for AI agents.", "description_zh": "", "downloads": 54, "homepage": "https://clawhub.ai/frontrunnerrrr/tavily-web-searcher", "iconUrl": null, "installs": 14, "name": "Web Searchxxx", "ownerName": "frontrunnerrrr", "score": 96428.57142857143, "slug": "tavily-web-searcher", "source": "clawhub", "stars": 0, "tags": null, "updated_at": 1776696884488, "version": "1.0.3"}, {"category": "data-analysis", "created_at": 1773957693163, "description": "Search and retrieve Norwegian company data from Brønnøysundregistrene (the Norwegian Business Registry). Access all ~1.2 million registered companies in Norway.", "description_zh": "", "downloads": 54, "homepage": "https://clawhub.ai/adisinghstudent/brreg", "iconUrl": null, "installs": 5, "name": "Norwegian Business Registry", "ownerName": "adisinghstudent", "score": 96428.57142857143, "slug": "brreg", "source": "clawhub", "stars": 0, "tags": null, "updated_at": 1776696884486, "version": "1.0.0"}, {"category": "", "created_at": 1774906489018, "description": "Build and strengthen your e-commerce brand identity. Brand positioning, messaging, visual identity guidelines, and brand consistency across sales channels an...", "description_zh": "", "downloads": 54, "homepage": "https://clawhub.ai/nexscope/ecommerce-branding", "iconUrl": null, "installs": 4, "name": "E-Commerce Branding", "ownerName": "nexscope", "score": 96428.57142857143, "slug": "ecommerce-branding", "source": "clawhub", "stars": 0, "tags": null, "updated_at": 1776696884428, "version": "1.0.0"}, {"category": "", "created_at": 1774857023815, "description": "Set, track, and review personal health goals including weight loss, fitness targets, dietary changes, and wellness habits. Use when users want to establish h...", "description_zh": "", "downloads": 54, "homepage": "https://clawhub.ai/jiwenbing/health-goal", "iconUrl": null, "installs": 3, "name": "Health Goal", "ownerName": "jiwenbing", "score": 96428.57142857143, "slug": "health-goal", "source": "clawhub", "stars": 0, "tags": null, "updated_at": 1776696884345, "version": "1.0.0"}, {"category": "developer-tools", "created_at": 1773954758871, "description": "Create a Gougoubi proposal condition from minimal input with deterministic defaults for deadline, trade deadline, normalization, and transaction submission....", "description_zh": "", "downloads": 54, "homepage": "https://clawhub.ai/chinasong/gougoubi-create-condition", "iconUrl": null, "installs": 2, "name": "Gougoubi Create Condition", "ownerName": "chinasong", "score": 96428.57142857143, "slug": "gougoubi-create-condition", "source": "clawhub", "stars": 0, "tags": ["automation", "condition", "evm", "gougoubi", "prediction-market", "workflow"], "updated_at": 1776696884330, "version": "1.0.2"}, {"category": "", "created_at": 1774926370667, "description": "Tarot-style readings using common spreads (e.g. three-card, Celtic cross)—symbolic interpretation of Major/Minor Arcana, upright and reversed meanings where...", "description_zh": "", "downloads": 54, "homepage": "https://clawhub.ai/mike47512/tarot-spreads", "iconUrl": null, "installs": 6, "name": "Tarot Spreads", "ownerName": "mike47512", "score": 96428.57142857143, "slug": "tarot-spreads", "source": "clawhub", "stars": 0, "tags": null, "updated_at": 1776696884284, "version": "1.0.0"}, {"category": "", "created_at": 1774916816239, "description": "Guide users through creating a Stripe account, configuring products/prices, and scaffolding the appsettings.json for any .NET 9 project. Explain how to manua...", "description_zh": "", "downloads": 54, "homepage": "https://clawhub.ai/macmerg/how-to-set-up-stripe-payments-for-dotnet-9-core-projects", "iconUrl": null, "installs": 9, "name": "Setup stripe payments on a .net core project", "ownerName": "macmerg", "score": 96428.57142857143, "slug": "how-to-set-up-stripe-payments-for-dotnet-9-core-projects", "source": "clawhub", "stars": 0, "tags": null, "updated_at": 1776696884247, "version": "1.0.5"}, {"category": "", "created_at": 1774925747188, "description": "Generates a personalised Japanese language practice session based on JLPT level. Covers vocabulary, grammar, kanji, reading, and speaking prompts. Fresh cont...", "description_zh": "", "downloads": 54, "homepage": "https://clawhub.ai/tetsuakira-vk/japanese-daily-drill", "iconUrl": null, "installs": 7, "name": "Japanese Daily Drill", "ownerName": "tetsuakira-vk", "score": 96428.57142857143, "slug": "japanese-daily-drill", "source": "clawhub", "stars": 0, "tags": null, "updated_at": 1776696884215, "version": "1.0.0"}, {"category": "", "created_at": 1774956296452, "description": "Brief, practical English corrections for grammar, word choice, and idiom errors. Activated via //en slash command.", "description_zh": "", "downloads": 54, "homepage": "https://clawhub.ai/kaigegao1110/english-check", "iconUrl": null, "installs": 5, "name": "English Check", "ownerName": "kaigegao1110", "score": 96428.57142857143, "slug": "english-check", "source": "clawhub", "stars": 0, "tags": ["ai", "english", "grammar", "productivity", "writing"], "updated_at": 1776696884210, "version": "1.0.3"}, {"category": "productivity", "created_at": 1773953572451, "description": "Designs automated fulfillment workflows and flexible supply-chain integration for print-on-demand (POD) stores selling custom-printed tees, mugs, and similar...", "description_zh": "", "downloads": 54, "homepage": "https://clawhub.ai/rijoyai/pod-fulfill-chain", "iconUrl": null, "installs": 5, "name": "Pod Fulfill Chain", "ownerName": "rijoyai", "score": 96428.57142857143, "slug": "pod-fulfill-chain", "source": "clawhub", "stars": 0, "tags": null, "updated_at": 1776696884194, "version": "0.1.0"}, {"category": "", "created_at": 1774866594174, "description": "Azure VNet networking audit covering address space design, NSG rule evaluation, Azure Firewall policy analysis, ExpressRoute and VPN Gateway connectivity, VN...", "description_zh": "", "downloads": 54, "homepage": "https://clawhub.ai/vahagn-madatyan/azure-networking-audit", "iconUrl": null, "installs": 9, "name": "Azure Networking Audit", "ownerName": "vahagn-madatyan", "score": 96428.57142857143, "slug": "azure-networking-audit", "source": "clawhub", "stars": 0, "tags": null, "updated_at": 1776696884192, "version": "0.1.1"}, {"category": "", "created_at": 1774920238219, "description": "Generates personalised music recommendations based on mood, genre, artist, or activity. Supports both mainstream discovery and underground/niche artist explo...", "description_zh": "", "downloads": 54, "homepage": "https://clawhub.ai/tetsuakira-vk/music-discovery-guide", "iconUrl": null, "installs": 0, "name": "Music Discovery Guide", "ownerName": "tetsuakira-vk", "score": 96428.57142857143, "slug": "music-discovery-guide", "source": "clawhub", "stars": 0, "tags": null, "updated_at": 1776696884149, "version": "1.0.0"}, {"category": "developer-tools", "created_at": 1773959990634, "description": "Deploy the SigmaFlow SvelteKit trading frontend to the Git repository. Use when building and deploying changes to the SigmaFlow application, including after...", "description_zh": "", "downloads": 54, "homepage": "https://clawhub.ai/sirenday/sigmaflow-deploy", "iconUrl": null, "installs": 6, "name": "Sigmaflow Deploy", "ownerName": "sirenday", "score": 96428.57142857143, "slug": "sigmaflow-deploy", "source": "clawhub", "stars": 0, "tags": null, "updated_at": 1776696884128, "version": "1.0.0"}, {"category": "productivity", "created_at": 1773953277573, "description": "Control Daikin air conditioners over WiFi. Use when the user wants to control their Daikin AC units - turn on/off, set temperature, mode, fan speed, swing, o...", "description_zh": "", "downloads": 54, "homepage": "https://clawhub.ai/leroylim/daikin-aircon", "iconUrl": null, "installs": 3, "name": "Daikin Aircon Controller", "ownerName": "leroylim", "score": 96428.57142857143, "slug": "daikin-aircon", "source": "clawhub", "stars": 0, "tags": ["ac", "daikin", "hvac", "smart-home"], "updated_at": 1776696884120, "version": "1.0.0"}, {"category": "developer-tools", "created_at": 1773960104639, "description": "Generates high-quality, structured, engineering-grade prompts. Use when the user asks to create, generate, or write a prompt for technical tasks — software d...", "description_zh": "", "downloads": 54, "homepage": "https://clawhub.ai/zoriyai/zoriy-prompt-engineer", "iconUrl": null, "installs": 5, "name": "Zoriy Prompt Engineer", "ownerName": "zoriyai", "score": 96428.57142857143, "slug": "zoriy-prompt-engineer", "source": "clawhub", "stars": 0, "tags": null, "updated_at": 1776696884086, "version": "1.0.0"}, {"category": "productivity", "created_at": 1773953925093, "description": "Clubworx integration. Manage data, records, and automate workflows. Use when the user wants to interact with Clubworx data.", "description_zh": "", "downloads": 54, "homepage": "https://clawhub.ai/membranedev/clubworx", "iconUrl": null, "installs": 3, "name": "Clubworx", "ownerName": "membranedev", "score": 96428.57142857143, "slug": "clubworx", "source": "clawhub", "stars": 0, "tags": null, "updated_at": 1776696884043, "version": "1.0.0"}, {"category": "", "created_at": 1774834220910, "description": "Help patients find suitable hospitals based on medical needs, location, hospital level, and specialties. Use when the user wants to find a hospital, compare...", "description_zh": "", "downloads": 54, "homepage": "https://clawhub.ai/harrylabsj/hospital", "iconUrl": null, "installs": 1, "name": "Hospital", "ownerName": "harrylabsj", "score": 96428.57142857143, "slug": "hospital", "source": "clawhub", "stars": 0, "tags": null, "updated_at": 1776696884019, "version": "1.0.2"}, {"category": "", "created_at": 1774894559883, "description": "Track YouTube creators and analyze video content. Paste a YouTube link to get an AI-powered breakdown (summary, key points, why it matters), then optionally...", "description_zh": "", "downloads": 54, "homepage": "https://clawhub.ai/glin23/creator-feed-watch", "iconUrl": null, "installs": 11, "name": "Content Creator Skill", "ownerName": "glin23", "score": 96428.57142857143, "slug": "creator-feed-watch", "source": "clawhub", "stars": 0, "tags": ["creator", "notifications", "watchlist", "youtube"], "updated_at": 1776696883971, "version": "0.2.0"}, {"category": "", "created_at": 1774858673424, "description": "Your workplace communication assistant for handling difficult professional situations. Craft perfect replies to your boss, clients, and colleagues. Navigate...", "description_zh": "", "downloads": 54, "homepage": "https://clawhub.ai/imwyvern/workreply", "iconUrl": null, "installs": 9, "name": "Workreply Skill", "ownerName": "imwyvern", "score": 96428.57142857143, "slug": "workreply", "source": "clawhub", "stars": 0, "tags": null, "updated_at": 1776696883941, "version": "1.1.1"}, {"category": "", "created_at": 1774866036093, "description": "Automate LinkedIn content creation, posting, engagement tracking, and audience growth. Use for posting content, scheduling posts, analyzing engagement metric...", "description_zh": "", "downloads": 54, "homepage": "https://clawhub.ai/mpbshhx/linkedin-automator", "iconUrl": null, "installs": 15, "name": "LinkedIn Automator", "ownerName": "mpbshhx", "score": 96428.57142857143, "slug": "linkedin-automator", "source": "clawhub", "stars": 0, "tags": null, "updated_at": 1776696883931, "version": "1.1.0"}, {"category": "", "created_at": 1774913128867, "description": "The podcast-clip-maker skill by ClawHub AI automatically identifies the most engaging moments from your podcast recordings and extracts them as polished, sha...", "description_zh": "", "downloads": 54, "homepage": "https://clawhub.ai/udnerc/podcast-clip-maker", "iconUrl": null, "installs": 0, "name": "Podcast Clip Maker", "ownerName": "udnerc", "score": 96428.57142857143, "slug": "podcast-clip-maker", "source": "clawhub", "stars": 0, "tags": null, "updated_at": 1776696883910, "version": "1.0.1"}, {"category": "ai-intelligence", "created_at": 1773958122094, "description": "Sapling.ai integration. Manage Organizations, Pipelines, Projects, Users, Filters. Use when the user wants to interact with Sapling.ai data.", "description_zh": "", "downloads": 54, "homepage": "https://clawhub.ai/membranedev/saplingai", "iconUrl": null, "installs": 6, "name": "Saplingai", "ownerName": "membranedev", "score": 96428.57142857143, "slug": "saplingai", "source": "clawhub", "stars": 0, "tags": null, "updated_at": 1776696883826, "version": "1.0.0"}, {"category": "developer-tools", "created_at": 1773959584954, "description": "One-click installer and setup skill for ocmemog, the OpenClaw durable memory plugin and sidecar. Use when a user asks to install ocmemog, set up ocmemog, add...", "description_zh": "", "downloads": 54, "homepage": "https://clawhub.ai/simbimbo/ocmemog-installer", "iconUrl": null, "installs": 5, "name": "ocmemog Installer", "ownerName": "simbimbo", "score": 96428.57142857143, "slug": "ocmemog-installer", "source": "clawhub", "stars": 0, "tags": null, "updated_at": 1776696883802, "version": "0.1.2"}, {"category": "productivity", "created_at": 1773956531309, "description": "AI-native agentic commerce — 10 MCP tools to discover businesses, browse product catalogs with variants, and complete purchases with Stripe payments. Built f...", "description_zh": "", "downloads": 54, "homepage": "https://clawhub.ai/theoddbrick/lobstersearch-mcp", "iconUrl": null, "installs": 5, "name": "Lobstersearch", "ownerName": "theoddbrick", "score": 96428.57142857143, "slug": "lobstersearch-mcp", "source": "clawhub", "stars": 0, "tags": null, "updated_at": 1776696883750, "version": "0.1.2"}, {"category": "communication-collaboration", "created_at": 1773955872780, "description": "Papyrs integration. Manage Organizations. Use when the user wants to interact with Papyrs data.", "description_zh": "", "downloads": 54, "homepage": "https://clawhub.ai/gora050/papyrs", "iconUrl": null, "installs": 3, "name": "Papyrs", "ownerName": "gora050", "score": 96428.57142857143, "slug": "papyrs", "source": "clawhub", "stars": 0, "tags": null, "updated_at": 1776696883727, "version": "1.0.0"}, {"category": "security-compliance", "created_at": 1773952987701, "description": "Security scanner for OpenClaw skills. Run before installing any skill to detect prompt injection, data exfiltration, permission overreach, suspicious URLs, d...", "description_zh": "", "downloads": 53, "homepage": "https://clawhub.ai/frrrrrrrrank/clawguard-scanner", "iconUrl": null, "installs": 2, "name": "ClawGuard Scanner", "ownerName": "frrrrrrrrank", "score": 98648.64864864865, "slug": "clawguard-scanner", "source": "clawhub", "stars": 1, "tags": null, "updated_at": 1776696470176, "version": "0.1.0"}, {"category": "communication-collaboration", "created_at": 1773956844177, "description": "Manage DeBox communities, DAOs, and NFT groups. Use when you need to verify group membership, check voting/lottery participation, query group info, or valida...", "description_zh": "", "downloads": 53, "homepage": "https://clawhub.ai/zanyk4502/debox-community-zanyk", "iconUrl": null, "installs": 3, "name": "DeBox Community", "ownerName": "zanyk4502", "score": 89024.39024390244, "slug": "debox-community-zanyk", "source": "clawhub", "stars": 1, "tags": null, "updated_at": 1776696469545, "version": "1.0.0"}, {"category": "", "created_at": 1774884646469, "description": "Integrates divination systems (tarot, astrology, Chinese calendar, numerology, I Ching-style reasoning) into a structured cross-validation workflow. Use when...", "description_zh": "", "downloads": 53, "homepage": "https://clawhub.ai/neonsoung98/ns-fate", "iconUrl": null, "installs": 8, "name": "NS Fate - Empirical Divination & Forecasting", "ownerName": "neonsoung98", "score": 946.4285714285714, "slug": "ns-fate", "source": "clawhub", "stars": 0, "tags": null, "updated_at": 1776764350761, "version": "1.2.0"}, {"category": "content-creation", "created_at": 1773960626152, "description": "Repurpose source content into Threads-ready posts or threads for founders, creators, and consultants. Use when the user wants to turn a blog post, transcript...", "description_zh": "", "downloads": 53, "homepage": "https://clawhub.ai/codeforest/threads-repurposer", "iconUrl": null, "installs": 10, "name": "Threads Repurposer", "ownerName": "codeforest", "score": 1923.7749546279492, "slug": "threads-repurposer", "source": "clawhub", "stars": 0, "tags": null, "updated_at": 1776764090773, "version": "1.0.1"}, {"category": "", "created_at": 1774897988188, "description": "Activate as a Frontend Developer expert. Use when user says \"activate Frontend Developer\", \"switch to frontend developer\", \"I need a frontend developer\", or...", "description_zh": "", "downloads": 53, "homepage": "https://clawhub.ai/syx1989/expert-frontend-developer", "iconUrl": null, "installs": 9, "name": "expert-frontend-developer", "ownerName": "syx1989", "score": 1418.629550321199, "slug": "expert-frontend-developer", "source": "clawhub", "stars": 0, "tags": null, "updated_at": 1776762850278, "version": "1.0.2"}, {"category": "", "created_at": 1774871438538, "description": "Expert skill for building, running, and extending MinecraftConsoles (Minecraft Legacy Console Edition) — a C++ multi-platform reimplementation with dedicated...", "description_zh": "", "downloads": 53, "homepage": "https://clawhub.ai/adisinghstudent/minecraftconsoles-lce", "iconUrl": null, "installs": 10, "name": "minecraftconsoles-lce", "ownerName": "adisinghstudent", "score": 2099.841521394612, "slug": "minecraftconsoles-lce", "source": "clawhub", "stars": 0, "tags": null, "updated_at": 1776760282531, "version": "1.0.0"}, {"category": "", "created_at": 1774944496781, "description": "Generate Obsidian-compatible visualization files (Excalidraw / Mermaid / Canvas). Supports text descriptions and image inputs, outputs editable diagrams in O...", "description_zh": "", "downloads": 53, "homepage": "https://clawhub.ai/0xcjl/obsidian-viz", "iconUrl": null, "installs": 13, "name": "Obsidian Viz", "ownerName": "0xcjl", "score": 4229.848363926576, "slug": "obsidian-viz", "source": "clawhub", "stars": 0, "tags": ["excalidraw", "mermaid", "obsidian", "visualization"], "updated_at": 1776760131494, "version": "1.0.2"}, {"category": "", "created_at": 1774885408502, "description": "CLI tool to version, snapshot, and sync your OpenClaw agent identity files, ensuring backup and preventing data loss or identity drift.", "description_zh": "", "downloads": 53, "homepage": "https://clawhub.ai/gitpcl/clawco-clawdna", "iconUrl": null, "installs": 0, "name": "ClawDNA -- Identity Backup & Sync", "ownerName": "gitpcl", "score": 4186.413902053712, "slug": "clawco-clawdna", "source": "clawhub", "stars": 0, "tags": ["backup", "identity", "sync", "version-control"], "updated_at": 1776759983307, "version": "1.0.1"}, {"category": "", "created_at": 1774947537961, "description": "Create formal Japanese corporate HTML and PDF reports from source text for business, compliance, or security documents with structured chapters and professio...", "description_zh": "", "downloads": 53, "homepage": "https://clawhub.ai/ken-chy129/jp-report", "iconUrl": null, "installs": 0, "name": "jp-report", "ownerName": "ken-chy129", "score": 24882.62910798122, "slug": "jp-report", "source": "clawhub", "stars": 0, "tags": null, "updated_at": 1776759983207, "version": "1.0.1"}, {"category": "", "created_at": 1774893486628, "description": "Provides multi-dimensional monitoring and reporting on personnel, equity, financing, finances, legal issues, government ties, collaborations, risks, competit...", "description_zh": "", "downloads": 53, "homepage": "https://clawhub.ai/alexuofu/pe-monitor-pro", "iconUrl": null, "installs": 3, "name": "PE Monitor Pro", "ownerName": "alexuofu", "score": 4186.413902053712, "slug": "pe-monitor-pro", "source": "clawhub", "stars": 0, "tags": null, "updated_at": 1776759983177, "version": "1.0.0"}]}