{"page": 434, "total_pages": 522, "total": 26073, "skills": [{"category": "", "created_at": 1774892108774, "description": "Expert guidance to plan, implement, and audit analytics tracking including event taxonomy, conversion funnels, UTM strategy, and dashboard KPI setup.", "description_zh": "", "downloads": 53, "homepage": "https://clawhub.ai/amdf01-debug/sw-analytics-tracking", "iconUrl": null, "installs": 1, "name": "Analytics Tracking Pro", "ownerName": "amdf01-debug", "score": 62352.94117647059, "slug": "sw-analytics-tracking", "source": "clawhub", "stars": 0, "tags": ["analytics", "bundle", "ga4", "marketing"], "updated_at": 1776759982916, "version": "1.0.0"}, {"category": "", "created_at": 1774860678030, "description": "Security suite for OpenClaw. Provides security scanning, real-time protection, audit logging, and sensitive data encryption. Use this skill when users need s...", "description_zh": "", "downloads": 53, "homepage": "https://clawhub.ai/jzming9/shieldclaw", "iconUrl": null, "installs": 0, "name": "ShieldClaw", "ownerName": "jzming9", "score": 65432.0987654321, "slug": "shieldclaw", "source": "clawhub", "stars": 0, "tags": null, "updated_at": 1776759982910, "version": "1.0.4"}, {"category": "", "created_at": 1774911482658, "description": "Design, build, and deploy production-grade AI voice agents for calls, covering conversation design, voice UX, telephony integration, and scalable platform-ag...", "description_zh": "", "downloads": 53, "homepage": "https://clawhub.ai/1kalin/afrexai-voice-ai-engine", "iconUrl": null, "installs": 2, "name": "Voice AI Agent Engineering", "ownerName": "1kalin", "score": 3812.9496402877694, "slug": "afrexai-voice-ai-engine", "source": "clawhub", "stars": 0, "tags": ["agent", "ai", "call-center", "phone", "stt", "telephony", "tts", "twilio", "vapi", "voice"], "updated_at": 1776759982885, "version": "1.0.0"}, {"category": "", "created_at": 1774855210184, "description": "Play live chess as Black against the user on ChessWithClaw by connecting to their game invite and responding to their first move.", "description_zh": "", "downloads": 53, "homepage": "https://clawhub.ai/alightttt/play-chess", "iconUrl": null, "installs": 0, "name": "Play Chess on ChessWithClaw", "ownerName": "alightttt", "score": 3812.9496402877694, "slug": "play-chess", "source": "clawhub", "stars": 0, "tags": ["chess", "chesswithclaw", "entertainment", "game", "multiplayer", "openclaw", "play-chess-with-your-openclaw", "real-time"], "updated_at": 1776759982876, "version": "1.0.1"}, {"category": "", "created_at": 1774865669032, "description": "AI assistant for plumbing businesses offering job estimates, schedule optimization, parts inventory tracking, customer communications, profitability analysis...", "description_zh": "", "downloads": 53, "homepage": "https://clawhub.ai/afrexai-cto/afrexai-plumbing-operations", "iconUrl": null, "installs": 2, "name": "Plumbing Operations", "ownerName": "afrexai-cto", "score": 3812.9496402877694, "slug": "afrexai-plumbing-operations", "source": "clawhub", "stars": 0, "tags": null, "updated_at": 1776759982851, "version": "1.0.0"}, {"category": "", "created_at": 1774848798672, "description": "Fetches Hong Kong Jockey Club race cards with horse details, odds, and up to 4 recommended picks per race including reasoning and win probability; supports E...", "description_zh": "", "downloads": 53, "homepage": "https://clawhub.ai/stevenho1394/hk-horse-racing", "iconUrl": null, "installs": 2, "name": "Hong Kong Horse Racing", "ownerName": "stevenho1394", "score": 3339.634530560807, "slug": "hk-horse-racing", "source": "clawhub", "stars": 0, "tags": null, "updated_at": 1776759982851, "version": "1.2.0"}, {"category": "", "created_at": 1774878270213, "description": "Simulates the chaotic gravitational motion of three bodies by numerically integrating Newtonian equations using RK4 for accurate trajectory prediction.", "description_zh": "", "downloads": 53, "homepage": "https://clawhub.ai/duanc-chao/3", "iconUrl": null, "installs": 1, "name": "Three body movement simulator", "ownerName": "duanc-chao", "score": 3339.634530560807, "slug": "3", "source": "clawhub", "stars": 0, "tags": null, "updated_at": 1776759982834, "version": "1.0.0"}, {"category": "", "created_at": 1774798166894, "description": "Structured OSINT research on people, companies, and organizations. Use when the user wants a provenance-backed brief, entity resolution across public sources...", "description_zh": "", "downloads": 53, "homepage": "https://clawhub.ai/indigokarasu/ocas-scout", "iconUrl": null, "installs": 2, "name": "Ocas Scout", "ownerName": "indigokarasu", "score": 3339.634530560807, "slug": "ocas-scout", "source": "clawhub", "stars": 0, "tags": null, "updated_at": 1776759982832, "version": "2.0.0"}, {"category": "", "created_at": 1774884159550, "description": "Analyze ecommerce or creator content post-launch to diagnose why it won or lost using evidence, scoring, and actionable lessons for improvement.", "description_zh": "", "downloads": 53, "homepage": "https://clawhub.ai/leooooooow/content-win-loss-reviewer", "iconUrl": null, "installs": 0, "name": "Content Win Loss Reviewer", "ownerName": "leooooooow", "score": 4176.516942474389, "slug": "content-win-loss-reviewer", "source": "clawhub", "stars": 0, "tags": null, "updated_at": 1776759982718, "version": "1.0.0"}, {"category": "", "created_at": 1774890867632, "description": "Építési projektekhez magyar jogszabályoknak megfelelő Biztonsági és Egészségvédelmi Terv (BET) generálása, kockázatértékeléssel és előírásokkal.", "description_zh": "", "downloads": 53, "homepage": "https://clawhub.ai/izsook/biztonsagi-egeszsegvedelmi-terv", "iconUrl": null, "installs": 3, "name": "Biztonsági és Egészségvédelmi Terv", "ownerName": "izsook", "score": 4163.393558523174, "slug": "biztonsagi-egeszsegvedelmi-terv", "source": "clawhub", "stars": 0, "tags": null, "updated_at": 1776759982670, "version": "1.0.1"}, {"category": "", "created_at": 1774915146734, "description": "Performs a two-phase audit combining a fast deterministic scan and a deep LLM quality review of security, cron jobs, config, and skills.", "description_zh": "", "downloads": 53, "homepage": "https://clawhub.ai/merlinrabens/clawcheck", "iconUrl": null, "installs": 0, "name": "ClawCheck", "ownerName": "merlinrabens", "score": 4163.393558523174, "slug": "clawcheck", "source": "clawhub", "stars": 0, "tags": ["audit", "config", "cron", "doctor", "health", "openclaw", "quality", "security", "skills"], "updated_at": 1776759982653, "version": "2.0.1"}, {"category": "", "created_at": 1774865816231, "description": "Knowledge base skill that wraps the clawsqlite knowledge CLI for ingest/search/show.", "description_zh": "", "downloads": 53, "homepage": "https://clawhub.ai/ernestyu/clawsqlite-knowledge", "iconUrl": null, "installs": 0, "name": "ClawSQLite Knowledge", "ownerName": "ernestyu", "score": 4163.393558523174, "slug": "clawsqlite-knowledge", "source": "clawhub", "stars": 0, "tags": null, "updated_at": 1776759982648, "version": "0.1.8"}, {"category": "", "created_at": 1774872451719, "description": "Model, solve, and analyze steady-state fluid networks using TOML input with scenario-based reliability checks and automatic Markdown reporting.", "description_zh": "", "downloads": 53, "homepage": "https://clawhub.ai/hhl31415/fluid-network-analyzer", "iconUrl": null, "installs": 1, "name": "流体网络求解与 Agent Skill 封装", "ownerName": "hhl31415", "score": 3716.690042075736, "slug": "fluid-network-analyzer", "source": "clawhub", "stars": 0, "tags": null, "updated_at": 1776759982624, "version": "1.0.0"}, {"category": "security-compliance", "created_at": 1773042047265, "description": "Authenticate OpenClaw AI agents to First-Principle with ANP did:wba identities derived from the existing OpenClaw gateway device key, run session health chec...", "description_zh": "", "downloads": 53, "homepage": "https://clawhub.ai/batchlion/first-principle-social-platform", "iconUrl": null, "installs": 3, "name": "First-Principle Social Platform", "ownerName": "batchlion", "score": 4160.1255886970175, "slug": "first-principle-social-platform", "source": "clawhub", "stars": 0, "tags": null, "updated_at": 1776759982518, "version": "1.0.29"}, {"category": "", "created_at": 1774885814588, "description": "Detect and recover from context resets, memory/index outages, and cache clears with deterministic, trust-preserving reconstruction. Use when continuity break...", "description_zh": "", "downloads": 53, "homepage": "https://clawhub.ai/otherpowers/memory-latch", "iconUrl": null, "installs": 2, "name": "memory-latch", "ownerName": "otherpowers", "score": 4160.1255886970175, "slug": "memory-latch", "source": "clawhub", "stars": 0, "tags": ["agent continuity", "consent gate", "context reset", "fail closed", "lost context", "memory recovery", "self-learning", "state recovery"], "updated_at": 1776759982513, "version": "1.0.2"}, {"category": "", "created_at": 1774875834524, "description": "Learn to set up ethical low-power CPU mining of Monero (XMR) with XMRig, including wallet setup, pool choice, config tips, and troubleshooting.", "description_zh": "", "downloads": 53, "homepage": "https://clawhub.ai/liumaimiao/monero-mining-101", "iconUrl": null, "installs": 0, "name": "Monero Mining 101", "ownerName": "liumaimiao", "score": 4156.862745098038, "slug": "monero-mining-101", "source": "clawhub", "stars": 0, "tags": null, "updated_at": 1776759982450, "version": "1.0.0"}, {"category": "", "created_at": 1774865630367, "description": "Fast, reliable, and token-efficient Hong Kong MTR next-train ETA lookup with fuzzy station matching and bilingual output (zh-HK/en). Use for queries like nex...", "description_zh": "", "downloads": 53, "homepage": "https://clawhub.ai/tomfong/hk-mtr-next-train", "iconUrl": null, "installs": 0, "name": "Hong Kong MTR Next-Train ETA | 港鐵實時到站預報", "ownerName": "tomfong", "score": 4156.862745098038, "slug": "hk-mtr-next-train", "source": "clawhub", "stars": 0, "tags": null, "updated_at": 1776759982438, "version": "1.0.1"}, {"category": "developer-tools", "created_at": 1773065976383, "description": "Provides Text-to-Speech and Speech-to-Text services using ElevenLabs and OpenAI Whisper with multilingual support and fast, affordable API access.", "description_zh": "", "downloads": 53, "homepage": "https://clawhub.ai/xiaoyinqu/ai-voice-studio", "iconUrl": null, "installs": 5, "name": "AI Voice Studio", "ownerName": "xiaoyinqu", "score": 4156.862745098038, "slug": "ai-voice-studio", "source": "clawhub", "stars": 0, "tags": null, "updated_at": 1776759982423, "version": "1.0.1"}, {"category": "", "created_at": 1774890124467, "description": "Provides real-time MBTA transit info including next departures, service alerts, live vehicle locations, stop searches, and route listings for Boston-area tra...", "description_zh": "", "downloads": 53, "homepage": "https://clawhub.ai/squidpunch/mbta-transit", "iconUrl": null, "installs": 1, "name": "MBTA Transit", "ownerName": "squidpunch", "score": 4156.862745098038, "slug": "mbta-transit", "source": "clawhub", "stars": 0, "tags": ["boston", "mbta", "transit", "transportation"], "updated_at": 1776759982421, "version": "1.0.1"}, {"category": "", "created_at": 1774910714632, "description": "Control Flipper Zero hardware via USB serial or BLE for SubGHz, IR, NFC, GPIO, file system, screen capture, and input without Android or intermediary apps.", "description_zh": "", "downloads": 53, "homepage": "https://clawhub.ai/elvisexmachina/flipper-zero", "iconUrl": null, "installs": 1, "name": "Flipper Zero", "ownerName": "elvisexmachina", "score": 4156.862745098038, "slug": "flipper-zero", "source": "clawhub", "stars": 0, "tags": null, "updated_at": 1776759982380, "version": "1.0.0"}, {"category": "", "created_at": 1774952171280, "description": "Fetches and returns detailed Hong Kong URBTIX event performances by parsing natural language questions with date, venue, and event filters.", "description_zh": "", "downloads": 53, "homepage": "https://clawhub.ai/stevenho1394/hk-urbtix-events", "iconUrl": null, "installs": 0, "name": "Hong Kong Urbix Events", "ownerName": "stevenho1394", "score": 4027.355623100304, "slug": "hk-urbtix-events", "source": "clawhub", "stars": 0, "tags": null, "updated_at": 1776759982208, "version": "1.0.0"}, {"category": "", "created_at": 1774856174607, "description": "Control robots and IoT devices via natural language using the NWO Robotics API for robot commands, sensor queries, vision tasks, and task planning.", "description_zh": "", "downloads": 53, "homepage": "https://clawhub.ai/redciprianpater/nwo-robotics", "iconUrl": null, "installs": 0, "name": "NWO Robotics", "ownerName": "redciprianpater", "score": 4027.355623100304, "slug": "nwo-robotics", "source": "clawhub", "stars": 0, "tags": ["action", "api", "automation", "cybernetics", "edge", "iot", "learning", "perception", "robotics", "vision"], "updated_at": 1776759982201, "version": "1.0.2"}, {"category": "", "created_at": 1774852451552, "description": "Guide users through Interactive Brokers CLI operations — from installing IB Gateway/TWS and ibkr-cli itself, to trading stocks, monitoring accounts, retrievi...", "description_zh": "", "downloads": 53, "homepage": "https://clawhub.ai/fatwang2/ibkr-cli", "iconUrl": null, "installs": 11, "name": "ibkr-cli", "ownerName": "fatwang2", "score": 4027.355623100304, "slug": "ibkr-cli", "source": "clawhub", "stars": 0, "tags": null, "updated_at": 1776759982199, "version": "1.0.1"}, {"category": "", "created_at": 1774873933442, "description": "Free unified web search with Tavily + SearXNG. AI-powered intelligent routing with multi-objective optimization, query intent understanding, month-end strate...", "description_zh": "", "downloads": 53, "homepage": "https://clawhub.ai/brucetangc/free-web-search-ai", "iconUrl": null, "installs": 1, "name": "free-web-search-ai", "ownerName": "brucetangc", "score": 4176.516942474389, "slug": "free-web-search-ai", "source": "clawhub", "stars": 0, "tags": null, "updated_at": 1776759982169, "version": "3.0.0"}, {"category": "", "created_at": 1774834975152, "description": "Помощь с вопросами Optimacros: формулы, синтаксис, проектирование модели, доступы, скрипты, версии, мультикубы, DCA, UAM и ошибки в OM.", "description_zh": "", "downloads": 53, "homepage": "https://clawhub.ai/qmaijo/optimacros-helper-ru", "iconUrl": null, "installs": 3, "name": "Optimacros", "ownerName": "qmaijo", "score": 2264.9572649572647, "slug": "optimacros-helper-ru", "source": "clawhub", "stars": 0, "tags": ["formulas", "modeling", "optimacros", "planning"], "updated_at": 1776759982102, "version": "1.0.0"}, {"category": "", "created_at": 1774867813008, "description": "Free, instant access to live data on 14M+ e-commerce stores. Capabilities: (1) Keyword + filter search (2) Full store analytics (3) Historical GMV & traffic...", "description_zh": "", "downloads": 53, "homepage": "https://clawhub.ai/roger52027/ecommerce-website-data", "iconUrl": null, "installs": 3, "name": "Ecommerce Website Data", "ownerName": "roger52027", "score": 21370.967741935485, "slug": "ecommerce-website-data", "source": "clawhub", "stars": 0, "tags": null, "updated_at": 1776759420398, "version": "1.2.4"}, {"category": "", "created_at": 1774848317268, "description": "Extract frames or short clips from videos using ffmpeg.", "description_zh": "", "downloads": 53, "homepage": "https://clawhub.ai/chenghaifeng08-creator/video-frames-automaton", "iconUrl": null, "installs": 4, "name": "Video Frames", "ownerName": "chenghaifeng08-creator", "score": 3183.1831831831832, "slug": "video-frames-automaton", "source": "clawhub", "stars": 0, "tags": null, "updated_at": 1776756488753, "version": "1.0.1"}, {"category": "", "created_at": 1774871708781, "description": "This skill should be used when the user asks to \"analyze network traffic with Wireshark\", \"capture packets for troubleshooting\", \"filter PCAP files\", \"follow...", "description_zh": "", "downloads": 53, "homepage": "https://clawhub.ai/solomonneas/s3-wireshark-analysis", "iconUrl": null, "installs": 11, "name": "S³ Wireshark Analysis", "ownerName": "solomonneas", "score": 2737.6033057851237, "slug": "s3-wireshark-analysis", "source": "clawhub", "stars": 0, "tags": ["network", "packet-capture", "pcap", "protocol-analysis", "wireshark"], "updated_at": 1776753884058, "version": "1.0.0"}, {"category": "", "created_at": 1774901775549, "description": "Manage Apple Reminders via the `remindctl` CLI on macOS (list, add, edit, complete, delete). Supports lists, date filters, and JSON/plain output.", "description_zh": "", "downloads": 53, "homepage": "https://clawhub.ai/tigertamvip/apple-reminders-1", "iconUrl": null, "installs": 13, "name": "Apple Reminders 1", "ownerName": "tigertamvip", "score": 9347.442680776014, "slug": "apple-reminders-1", "source": "clawhub", "stars": 0, "tags": null, "updated_at": 1776752569607, "version": "1.0.0"}, {"category": "", "created_at": 1774871907493, "description": "A deep thinking engine that first gathers real global data via web search, then analyzes through 11 lenses (philosophical, ethical, practical, historical, ps...", "description_zh": "", "downloads": 53, "homepage": "https://clawhub.ai/h7g7/thinking-engine", "iconUrl": null, "installs": 2, "name": "Multi-Angle-Thinking", "ownerName": "h7g7", "score": 9201.388888888889, "slug": "thinking-engine", "source": "clawhub", "stars": 0, "tags": ["latest-analysis-simulation-arabic-strategy-decision-making"], "updated_at": 1776752083995, "version": "1.0.1"}, {"category": "", "created_at": 1774843538769, "description": "Expert malware analysis for defensive security research. Static and dynamic analysis, sandbox triage, IOC extraction, unpacking, and malware family identific...", "description_zh": "", "downloads": 53, "homepage": "https://clawhub.ai/solomonneas/malware-analyst", "iconUrl": null, "installs": 2, "name": "Malware Analyst", "ownerName": "solomonneas", "score": 50476.19047619047, "slug": "malware-analyst", "source": "clawhub", "stars": 0, "tags": null, "updated_at": 1776745369595, "version": "1.0.1"}, {"category": "", "created_at": 1774954070539, "description": "Plan and execute a migration from Amazon to Shopify DTC or build a dual-channel strategy to reduce platform dependency. Triggers: amazon to shopify, migrate...", "description_zh": "", "downloads": 53, "homepage": "https://clawhub.ai/mguozhen/shopify-amazon-shopify", "iconUrl": null, "installs": 10, "name": "Shopify Amazon Shopify", "ownerName": "mguozhen", "score": 75714.28571428571, "slug": "shopify-amazon-shopify", "source": "clawhub", "stars": 0, "tags": null, "updated_at": 1776743869700, "version": "1.0.0"}, {"category": "", "created_at": 1774891983345, "description": "Shopify ad attribution agent. Calculates true ROAS per channel by correlating Shopify order UTM data with ad spend — reveals which channels actually drive pr...", "description_zh": "", "downloads": 53, "homepage": "https://clawhub.ai/mguozhen/shopify-ad-attribution", "iconUrl": null, "installs": 10, "name": "Shopify Ad Attribution", "ownerName": "mguozhen", "score": 75714.28571428571, "slug": "shopify-ad-attribution", "source": "clawhub", "stars": 0, "tags": null, "updated_at": 1776743869595, "version": "1.0.0"}, {"category": "", "created_at": 1774947449404, "description": "Generate GitHub agent-trending project reports as formatted markdown leaderboards. Fetches agent/LLM-agent/multi-agent related repos by daily, weekly, or mon...", "description_zh": "", "downloads": 53, "homepage": "https://clawhub.ai/mike47512/github-agent-trends", "iconUrl": null, "installs": 16, "name": "Github Agent Trends", "ownerName": "mike47512", "score": 60919.54022988506, "slug": "github-agent-trends", "source": "clawhub", "stars": 0, "tags": null, "updated_at": 1776741644573, "version": "1.0.0"}, {"category": "", "created_at": 1774865281896, "description": "Professional entry-level robotics engineering career roadmap platform that generates personalized learning and development paths.", "description_zh": "", "downloads": 53, "homepage": "https://clawhub.ai/krishnakumarmahadevan-cmd/robotics-engineer", "iconUrl": null, "installs": 1, "name": "Robotics Engineer", "ownerName": "krishnakumarmahadevan-cmd", "score": 54639.17525773196, "slug": "robotics-engineer", "source": "clawhub", "stars": 0, "tags": null, "updated_at": 1776737869812, "version": "1.0.0"}, {"category": "", "created_at": 1774889782579, "description": "Help users record emotions, identify triggers, notice patterns, and build a gentle self-observation habit. Use when the user wants to log feelings, reflect o...", "description_zh": "", "downloads": 53, "homepage": "https://clawhub.ai/harrylabsj/emotion-journal", "iconUrl": null, "installs": 1, "name": "Emotion Journal", "ownerName": "harrylabsj", "score": 74647.88732394367, "slug": "emotion-journal", "source": "clawhub", "stars": 0, "tags": null, "updated_at": 1776735169723, "version": "1.0.0"}, {"category": "", "created_at": 1774874840013, "description": "16k+ foods (120+ nutrients, USDA/NUTTAB/CNF2015/MEXT/FRIDA), 3M+ branded/barcodes, 80k+ local recipes, 5k+ exercises. Filter/sort by any nutrient. 48 languages.", "description_zh": "", "downloads": 53, "homepage": "https://clawhub.ai/emreakkoc/fitnessrec-fitapi", "iconUrl": null, "installs": 2, "name": "FitnessRec FitAPI", "ownerName": "emreakkoc", "score": 56382.97872340425, "slug": "fitnessrec-fitapi", "source": "clawhub", "stars": 0, "tags": ["barcode", "exercise", "fitapi", "fitness", "fitnessrec", "food", "nutrition", "recipes"], "updated_at": 1776721069622, "version": "1.0.0"}, {"category": "", "created_at": 1774787747685, "description": "Create, configure, and orchestrate autonomous AI agents on OpenClaw. Built by Forge 🦞 — the AI solopreneur at lobsterforge.app. Use when setting up a new ag...", "description_zh": "", "downloads": 53, "homepage": "https://clawhub.ai/crispyangles/autonomous-agent-toolkit", "iconUrl": null, "installs": 2, "name": "Autonomous Agent Toolkit", "ownerName": "crispyangles", "score": 54081.63265306123, "slug": "autonomous-agent-toolkit", "source": "clawhub", "stars": 0, "tags": null, "updated_at": 1776719083666, "version": "3.1.0"}, {"category": "", "created_at": 1774900179022, "description": "Sandbox reference tool. Use when working with sandbox in sysops contexts.", "description_zh": "", "downloads": 53, "homepage": "https://clawhub.ai/xueyetianya/sandbox", "iconUrl": null, "installs": 5, "name": "Sandbox", "ownerName": "xueyetianya", "score": 100000, "slug": "sandbox", "source": "clawhub", "stars": 0, "tags": null, "updated_at": 1776699469780, "version": "1.0.0"}, {"category": "", "created_at": 1774911306514, "description": "Deep UX writing workflow—voice, clarity, error and empty states, forms, accessibility of text, localization hooks, and collaboration with design. Use when po...", "description_zh": "", "downloads": 53, "homepage": "https://clawhub.ai/mikeclaw007/ux-writing", "iconUrl": null, "installs": 4, "name": "Ux Writing", "ownerName": "mikeclaw007", "score": 100000, "slug": "ux-writing", "source": "clawhub", "stars": 0, "tags": null, "updated_at": 1776699044659, "version": "1.0.0"}, {"category": "", "created_at": 1774875419640, "description": "Re-skin any everyday clip concept into neon-drenched, high-tech, augmented urban futures using WeryAI Seedance 2.0 only. Use when you need TikTok-style verti...", "description_zh": "", "downloads": 53, "homepage": "https://clawhub.ai/zoucdr/cyberpunk-transform-video-gen-seedance2-0", "iconUrl": null, "installs": 14, "name": "Cyberpunk Transform Video Gen Seedance2.0", "ownerName": "zoucdr", "score": 86885.24590163934, "slug": "cyberpunk-transform-video-gen-seedance2-0", "source": "clawhub", "stars": 0, "tags": null, "updated_at": 1776697370068, "version": "0.1.3"}, {"category": "developer-tools", "created_at": 1773957970609, "description": "Analyzes form fields on a live webpage using browser automation. Use when the user provides an online URL/link and wants to count and analyze form input fiel...", "description_zh": "", "downloads": 53, "homepage": "https://clawhub.ai/evalgithub/page-filed-analyzer", "iconUrl": null, "installs": 6, "name": "page-filed-analyzer", "ownerName": "evalgithub", "score": 100000, "slug": "page-filed-analyzer", "source": "clawhub", "stars": 0, "tags": null, "updated_at": 1776696904813, "version": "0.0.1"}, {"category": "", "created_at": 1774893997392, "description": "Use this skill whenever the user wants to convert text to speech, generate audio from text, create voiceovers, or produce spoken audio files. Triggers includ...", "description_zh": "", "downloads": 53, "homepage": "https://clawhub.ai/fengwm64/tts-api", "iconUrl": null, "installs": 6, "name": "TTS", "ownerName": "fengwm64", "score": 100000, "slug": "tts-api", "source": "clawhub", "stars": 0, "tags": null, "updated_at": 1776696904806, "version": "1.0.0"}, {"category": "", "created_at": 1774885446582, "description": "Cognitive Operating System — a unified thinking framework that enforces strategic intent alignment, deep multi-angle reasoning, and structured information ga...", "description_zh": "", "downloads": 53, "homepage": "https://clawhub.ai/dr-xiaoming/cognitive-os", "iconUrl": null, "installs": 1, "name": "Cognitive OS", "ownerName": "dr-xiaoming", "score": 100000, "slug": "cognitive-os", "source": "clawhub", "stars": 0, "tags": null, "updated_at": 1776696904794, "version": "1.1.0"}, {"category": "", "created_at": 1774805907428, "description": "When the user wants to set up, audit, or optimize analytics tracking (GA4, events, conversions). Also use when the user mentions \"Google Analytics,\" \"GA4,\" \"...", "description_zh": "", "downloads": 53, "homepage": "https://clawhub.ai/kostja94/analytics-tracking-analytics", "iconUrl": null, "installs": 4, "name": "analytics-tracking", "ownerName": "kostja94", "score": 100000, "slug": "analytics-tracking-analytics", "source": "clawhub", "stars": 0, "tags": null, "updated_at": 1776696904760, "version": "1.3.0"}, {"category": "developer-tools", "created_at": 1773063583103, "description": "Scrape any website to clean markdown or extract structured data with AI. Powered by Firecrawl. No rate limits, no blocked IPs.", "description_zh": "", "downloads": 53, "homepage": "https://clawhub.ai/xiaoyinqu/firecrawl-scraping", "iconUrl": null, "installs": 6, "name": "Firecrawl Scraping", "ownerName": "xiaoyinqu", "score": 94642.85714285714, "slug": "firecrawl-scraping", "source": "clawhub", "stars": 0, "tags": null, "updated_at": 1776696904749, "version": "1.0.0"}, {"category": "productivity", "created_at": 1773953109450, "description": "Blink integration. Manage data, records, and automate workflows. Use when the user wants to interact with Blink data.", "description_zh": "", "downloads": 53, "homepage": "https://clawhub.ai/gora050/blink-integration", "iconUrl": null, "installs": 1, "name": "Blink", "ownerName": "gora050", "score": 94642.85714285714, "slug": "blink-integration", "source": "clawhub", "stars": 0, "tags": null, "updated_at": 1776696904728, "version": "1.0.0"}, {"category": "ai-intelligence", "created_at": 1773959199048, "description": "Text and token counter for AI and NLP. Count words, characters, sentences, paragraphs, and estimate GPT tokens. Analyze text complexity and readability scores.", "description_zh": "", "downloads": 53, "homepage": "https://clawhub.ai/bytesagain/tokencount", "iconUrl": null, "installs": 6, "name": "Tokencount", "ownerName": "bytesagain", "score": 94642.85714285714, "slug": "tokencount", "source": "clawhub", "stars": 0, "tags": null, "updated_at": 1776696904724, "version": "1.0.2"}, {"category": "security-compliance", "created_at": 1773958629077, "description": "Use when reviewing code for security vulnerabilities, implementing authentication flows, auditing OWASP Top 10, configuring CORS/CSP headers, handling secret...", "description_zh": "", "downloads": 53, "homepage": "https://clawhub.ai/muguozi1/muguozi1-openclaw-security-auditor", "iconUrl": null, "installs": 3, "name": "Muguozi1 Openclaw Security Auditor", "ownerName": "muguozi1", "score": 94642.85714285714, "slug": "muguozi1-openclaw-security-auditor", "source": "clawhub", "stars": 0, "tags": null, "updated_at": 1776696904710, "version": "1.0.0"}, {"category": "developer-tools", "created_at": 1773959602648, "description": "Complete step-by-step installation guide for OpenClaw on Windows 10/11 with WSL2, includes common pitfalls and solutions from real installation experience.", "description_zh": "", "downloads": 53, "homepage": "https://clawhub.ai/aslancootl/openclaw-win-install-ai-assist", "iconUrl": null, "installs": 4, "name": "OpenClaw Windows WSL2 Install Guide", "ownerName": "aslancootl", "score": 94642.85714285714, "slug": "openclaw-win-install-ai-assist", "source": "clawhub", "stars": 0, "tags": null, "updated_at": 1776696904698, "version": "1.2.1"}]}