{"page": 435, "total_pages": 522, "total": 26073, "skills": [{"category": "", "created_at": 1774870223726, "description": "Use when the user wants to convert PDF files to Word, Excel, TXT, or Markdown files. Triggers on \"PDF to Word\", \"PDF to Excel\", \"convert PDF\", \"extract text...", "description_zh": "", "downloads": 53, "homepage": "https://clawhub.ai/eric642/pdf-conversion", "iconUrl": null, "installs": 15, "name": "pdf-conversion", "ownerName": "eric642", "score": 94642.85714285714, "slug": "pdf-conversion", "source": "clawhub", "stars": 0, "tags": null, "updated_at": 1776696904685, "version": "1.0.0"}, {"category": "", "created_at": 1774915600599, "description": "Apache ORC columnar storage format reference. File structure with stripes and indexes, schema types with evolution rules, compression codecs (ZLIB/SNAPPY/ZST...", "description_zh": "", "downloads": 53, "homepage": "https://clawhub.ai/xueyetianya/orc", "iconUrl": null, "installs": 13, "name": "Orc", "ownerName": "xueyetianya", "score": 94642.85714285714, "slug": "orc", "source": "clawhub", "stars": 0, "tags": null, "updated_at": 1776696904679, "version": "1.0.0"}, {"category": "content-creation", "created_at": 1773955306925, "description": "Google Docs API integration with managed OAuth via Maton. Create documents, read full text, write/append content, search and replace, apply paragraph styles...", "description_zh": "", "downloads": 52, "homepage": "https://clawhub.ai/tankeito/google-docs-operator", "iconUrl": null, "installs": 2, "name": "Google Docs", "ownerName": "tankeito", "score": 97297.29729729731, "slug": "google-docs-operator", "source": "clawhub", "stars": 1, "tags": null, "updated_at": 1776696470131, "version": "1.0.0"}, {"category": "", "created_at": 1774906712708, "description": "Create mathematical animations with synchronized voiceover narration and subtitles using Manim Community and manim-voiceover. Use when users want to create a...", "description_zh": "", "downloads": 52, "homepage": "https://clawhub.ai/hzsunzixiang/manim-animation-en", "iconUrl": null, "installs": 10, "name": "Manim Animation En", "ownerName": "hzsunzixiang", "score": 1769.3092888737667, "slug": "manim-animation-en", "source": "clawhub", "stars": 0, "tags": null, "updated_at": 1776769271096, "version": "1.0.3"}, {"category": "developer-tools", "created_at": 1773959853989, "description": "One-click clone of a production-grade semantic memory system: HOT/WARM/COLD tiered storage + Qdrant vector DB + Neo4j graph DB + qwen3-embedding. Enables cro...", "description_zh": "", "downloads": 52, "homepage": "https://clawhub.ai/halfmoon82/deep-memory", "iconUrl": null, "installs": 4, "name": "Deep Memory", "ownerName": "halfmoon82", "score": 1237.800523684837, "slug": "deep-memory", "source": "clawhub", "stars": 0, "tags": null, "updated_at": 1776765671350, "version": "1.0.0"}, {"category": "", "created_at": 1774823350583, "description": "Deep workflow for LLM tool/function calling—schema design, validation, permissions, errors, idempotency, testing, and safe orchestration with agents. Use whe...", "description_zh": "", "downloads": 52, "homepage": "https://clawhub.ai/mikeclaw007/tool-calling", "iconUrl": null, "installs": 2, "name": "Tool Calling", "ownerName": "mikeclaw007", "score": 2420.856610800745, "slug": "tool-calling", "source": "clawhub", "stars": 0, "tags": null, "updated_at": 1776764350306, "version": "1.0.0"}, {"category": "", "created_at": 1774861903241, "description": "Up-to-date documentation and code patterns for Solidity, Foundry, Hardhat, Viem, Wagmi, ethers.js, and OpenZeppelin. Use when writing smart contracts, debugg...", "description_zh": "", "downloads": 52, "homepage": "https://clawhub.ai/old-greggyboy/web3-docs", "iconUrl": null, "installs": 1, "name": "Web3 Docs", "ownerName": "old-greggyboy", "score": 2106.969205834684, "slug": "web3-docs", "source": "clawhub", "stars": 0, "tags": null, "updated_at": 1776762590594, "version": "1.0.1"}, {"category": "", "created_at": 1774953167815, "description": "Diagnose 3D print failures by symptoms or images, recommend slicer setting fixes, log issues, view history, and generate failure reports.", "description_zh": "", "downloads": 52, "homepage": "https://clawhub.ai/newageinvestments25-byte/nai-print-failure-analyst", "iconUrl": null, "installs": 3, "name": "Print Failure Analyst", "ownerName": "newageinvestments25-byte", "score": 1665.5989750160152, "slug": "nai-print-failure-analyst", "source": "clawhub", "stars": 0, "tags": null, "updated_at": 1776761445471, "version": "1.0.0"}, {"category": "", "created_at": 1774877380352, "description": "Kaizen continuous improvement reference — event planning, PDCA cycle, gemba walks, and A3 problem solving. Use when running improvement events, coaching team...", "description_zh": "", "downloads": 52, "homepage": "https://clawhub.ai/xueyetianya/kaizen", "iconUrl": null, "installs": 6, "name": "Kaizen", "ownerName": "xueyetianya", "score": 1371.669744130836, "slug": "kaizen", "source": "clawhub", "stars": 0, "tags": null, "updated_at": 1776760940083, "version": "1.0.0"}, {"category": "", "created_at": 1774891930185, "description": "Transforms mmWave radar data into pet health metrics by detecting micro-movements, fusing environmental data, and enabling automatic spatial adjustments.", "description_zh": "", "downloads": 52, "homepage": "https://clawhub.ai/spacesq/s2-pet-mmwave-analyzer", "iconUrl": null, "installs": 1, "name": "Multimodal Pet Health Engine", "ownerName": "spacesq", "score": 4126.984126984127, "slug": "s2-pet-mmwave-analyzer", "source": "clawhub", "stars": 0, "tags": null, "updated_at": 1776760020871, "version": "1.1.0"}, {"category": "", "created_at": 1774865392226, "description": "Manage tasks and boards on Nostr relays via CLI to list, create, update, assign, complete, search, and export tasks with JSON support.", "description_zh": "", "downloads": 52, "homepage": "https://clawhub.ai/ink-north/taskify-cli", "iconUrl": null, "installs": 1, "name": "Taskify CLI", "ownerName": "ink-north", "score": 4117.181314330958, "slug": "taskify-cli", "source": "clawhub", "stars": 0, "tags": null, "updated_at": 1776759983386, "version": "1.0.3"}, {"category": "", "created_at": 1774879129600, "description": "עוזר ליצירת פרומפטים מקצועיים בעברית, עם דגש על תוכן יהודי, ריאליסטי וקולנועי לשימוש בכלי AI לתמונות ווידאו.", "description_zh": "", "downloads": 52, "homepage": "https://clawhub.ai/jojobok/prompt-creator-he", "iconUrl": null, "installs": 2, "name": "Prompt Creator Hebrew", "ownerName": "jojobok", "score": 10993.657505285411, "slug": "prompt-creator-he", "source": "clawhub", "stars": 0, "tags": null, "updated_at": 1776759983268, "version": "1.0.0"}, {"category": "", "created_at": 1774869659892, "description": "Search, install, and export agentars from the CatchClaw marketplace. Use when the user wants to find, install, or package agent templates.", "description_zh": "", "downloads": 52, "homepage": "https://clawhub.ai/aliezu/catchclaw-bak", "iconUrl": null, "installs": 0, "name": "catchclaw-bak", "ownerName": "aliezu", "score": 4113.9240506329115, "slug": "catchclaw-bak", "source": "clawhub", "stars": 0, "tags": null, "updated_at": 1776759983247, "version": "1.0.11"}, {"category": "", "created_at": 1774912094421, "description": "Evaluate new revenue channels by scoring technical difficulty, market demand, competition barriers, and revenue potential to guide prioritization decisions.", "description_zh": "", "downloads": 52, "homepage": "https://clawhub.ai/gdp6539/partnership-priority-evaluator", "iconUrl": null, "installs": 1, "name": "Partnership Priority Evaluator", "ownerName": "gdp6539", "score": 4113.9240506329115, "slug": "partnership-priority-evaluator", "source": "clawhub", "stars": 0, "tags": null, "updated_at": 1776759983239, "version": "1.0.0"}, {"category": "", "created_at": 1774859806628, "description": "Generate structured, compliant RFP responses by analyzing requirements, mapping company strengths, identifying gaps, and producing tailored proposal sections...", "description_zh": "", "downloads": 52, "homepage": "https://clawhub.ai/afrexai-cto/afrexai-rfp-response-generator", "iconUrl": null, "installs": 0, "name": "Rfp Response Generator", "ownerName": "afrexai-cto", "score": 4113.9240506329115, "slug": "afrexai-rfp-response-generator", "source": "clawhub", "stars": 0, "tags": null, "updated_at": 1776759983237, "version": "1.0.0"}, {"category": "", "created_at": 1774871458556, "description": "Interact with the Mutinynet Bitcoin testnet faucet. Get testnet bitcoin on-chain, pay lightning invoices, open lightning channels, and generate bolt11 invoic...", "description_zh": "", "downloads": 52, "homepage": "https://clawhub.ai/benthecarman/mutinynet-cli", "iconUrl": null, "installs": 2, "name": "Mutinynet CLI", "ownerName": "benthecarman", "score": 24413.1455399061, "slug": "mutinynet-cli", "source": "clawhub", "stars": 0, "tags": null, "updated_at": 1776759983219, "version": "0.1.1"}, {"category": "", "created_at": 1774955591920, "description": "Access Instagram messaging, profiles, posts, and interactions via Unipile's official Node.js SDK for automation and content management.", "description_zh": "", "downloads": 52, "homepage": "https://clawhub.ai/mohit21gojs/unipile-instagram-sdk", "iconUrl": null, "installs": 2, "name": "Unipile Instagram SDK", "ownerName": "mohit21gojs", "score": 24413.1455399061, "slug": "unipile-instagram-sdk", "source": "clawhub", "stars": 0, "tags": null, "updated_at": 1776759983201, "version": "1.0.2"}, {"category": "", "created_at": 1774856948798, "description": "Interact with GitHub using the `gh` CLI. Use `gh issue`, `gh pr`, `gh run`, and `gh api` for issues, PRs, CI runs, and advanced queries.", "description_zh": "", "downloads": 52, "homepage": "https://clawhub.ai/yequanzheng/fdksafs", "iconUrl": null, "installs": 0, "name": "这是我的test3", "ownerName": "yequanzheng", "score": 4107.424960505529, "slug": "fdksafs", "source": "clawhub", "stars": 0, "tags": ["latest2323"], "updated_at": 1776759983185, "version": "1.0.3"}, {"category": "", "created_at": 1774888155284, "description": "Parse, search, filter, and export Kindle highlights and notes from \"My Clippings.txt\" via a command-line tool with Markdown output.", "description_zh": "", "downloads": 52, "homepage": "https://clawhub.ai/emersonding/kindle-clip-cli", "iconUrl": null, "installs": 0, "name": "Openclaw Skill", "ownerName": "emersonding", "score": 4107.424960505529, "slug": "kindle-clip-cli", "source": "clawhub", "stars": 0, "tags": null, "updated_at": 1776759983162, "version": "1.0.1"}, {"category": "", "created_at": 1774874029902, "description": "Track and compare product prices across popular Indian stores (Amazon India, Flipkart, Reliance Digital, Croma, Vijay Sales, Tata CLiQ, and more), compute ef...", "description_zh": "", "downloads": 52, "homepage": "https://clawhub.ai/anugotta/india-price-tracker", "iconUrl": null, "installs": 2, "name": "India Price Tracker", "ownerName": "anugotta", "score": 4107.424960505529, "slug": "india-price-tracker", "source": "clawhub", "stars": 0, "tags": null, "updated_at": 1776759983156, "version": "1.0.0"}, {"category": "", "created_at": 1774888012210, "description": "Unterstützt bei FiSi-Ausbildungsthemen wie Netzwerke, Server-Admin, Datenbanken, Scripting, Sicherheit, Virtualisierung, Prüfungsvorbereitung und Projektarbeit.", "description_zh": "", "downloads": 52, "homepage": "https://clawhub.ai/arn0ld87/fisi", "iconUrl": null, "installs": 1, "name": "Fisi", "ownerName": "arn0ld87", "score": 4113.9240506329115, "slug": "fisi", "source": "clawhub", "stars": 0, "tags": ["fisi", "systemintegration"], "updated_at": 1776759982971, "version": "1.1.0"}, {"category": "", "created_at": 1774871688544, "description": "Clarifies and rewrites ecommerce refund policies into clear, customer-friendly language without expanding or changing the store’s actual refund terms.", "description_zh": "", "downloads": 52, "homepage": "https://clawhub.ai/leooooooow/refund-policy-clarifier", "iconUrl": null, "installs": 1, "name": "Refund Policy Clarifier", "ownerName": "leooooooow", "score": 74285.71428571429, "slug": "refund-policy-clarifier", "source": "clawhub", "stars": 0, "tags": null, "updated_at": 1776759982945, "version": "1.0.0"}, {"category": "", "created_at": 1774889961198, "description": "Web search API for AI agents. Get search results with titles and snippets.", "description_zh": "", "downloads": 52, "homepage": "https://clawhub.ai/dommholland/getpost-search", "iconUrl": null, "installs": 2, "name": "GetPost Search API", "ownerName": "dommholland", "score": 61176.4705882353, "slug": "getpost-search", "source": "clawhub", "stars": 0, "tags": null, "updated_at": 1776759982933, "version": "1.0.0"}, {"category": "", "created_at": 1774868828175, "description": "use this skill to teach people what is Failed Use of Captured Kinetic (energy)", "description_zh": "", "downloads": 52, "homepage": "https://clawhub.ai/duanc-chao/fuck", "iconUrl": null, "installs": 0, "name": "Physic stuff", "ownerName": "duanc-chao", "score": 3741.0071942446043, "slug": "fuck", "source": "clawhub", "stars": 0, "tags": ["l"], "updated_at": 1776759982881, "version": "1.0.1"}, {"category": "", "created_at": 1774914903702, "description": "AI-powered video editing — turn raw footage into polished vlogs, highlight reels, TikTok/Shorts/Reels, montages, and more. Control the editing flow through T...", "description_zh": "", "downloads": 52, "homepage": "https://clawhub.ai/fischerlam/which-sparki-skill-zh", "iconUrl": null, "installs": 4, "name": "哪个 Sparki Skill 适合我？", "ownerName": "fischerlam", "score": 3741.0071942446043, "slug": "which-sparki-skill-zh", "source": "clawhub", "stars": 0, "tags": ["discovery", "guide", "sparki", "zh"], "updated_at": 1776759982876, "version": "1.0.0"}, {"category": "", "created_at": 1774884505798, "description": "Analyzes any CSV file and returns row count, column names, and basic statistics for numeric columns.", "description_zh": "", "downloads": 52, "homepage": "https://clawhub.ai/leotrieu/leo-csv-stats-analyzer", "iconUrl": null, "installs": 2, "name": "Leo CSV Stats Analyzer", "ownerName": "leotrieu", "score": 3741.0071942446043, "slug": "leo-csv-stats-analyzer", "source": "clawhub", "stars": 0, "tags": null, "updated_at": 1776759982862, "version": "1.0.0"}, {"category": "", "created_at": 1774905205740, "description": "AI-assisted tool that filters Upwork jobs, drafts personalized proposals, tracks applications locally, and learns from outcomes for continuous improvement.", "description_zh": "", "downloads": 52, "homepage": "https://clawhub.ai/dttnpole-commits/ai-upwork-proposal-writing-job-tracking-system", "iconUrl": null, "installs": 0, "name": "AI Upwork Proposal Writing & Job Tracking System", "ownerName": "dttnpole-commits", "score": 3276.6225582860743, "slug": "ai-upwork-proposal-writing-job-tracking-system", "source": "clawhub", "stars": 0, "tags": ["auto-bid", "freelance-growth", "lead-gen", "revenue-ai", "upwork-automation"], "updated_at": 1776759982827, "version": "1.0.3"}, {"category": "", "created_at": 1774886461869, "description": "Routes user commands to the most suitable sub-agent based on intent, coordinates task execution priority, and tracks overall task status.", "description_zh": "", "downloads": 52, "homepage": "https://clawhub.ai/zs15600770520/agent-router", "iconUrl": null, "installs": 2, "name": "Agent Router", "ownerName": "zs15600770520", "score": 4088.0503144654085, "slug": "agent-router", "source": "clawhub", "stars": 0, "tags": null, "updated_at": 1776759982822, "version": "1.0.0"}, {"category": "", "created_at": 1774887714501, "description": "Enforces AI behavior principles ensuring safety, privacy, honesty, traceability, risk-aware actions, proactive self-improvement, and accountable decision log...", "description_zh": "", "downloads": 52, "homepage": "https://clawhub.ai/xiaobu2020/agent-behavioral-constitution", "iconUrl": null, "installs": 2, "name": "Agent Behavioral Constitution", "ownerName": "xiaobu2020", "score": 4088.0503144654085, "slug": "agent-behavioral-constitution", "source": "clawhub", "stars": 0, "tags": ["agent-behavior", "constitution", "ethics", "safety"], "updated_at": 1776759982804, "version": "1.0.2"}, {"category": "", "created_at": 1774944162563, "description": "Put policy before paid actions, require approval for risky autonomous actions, and keep a finance-ready audit trail.", "description_zh": "", "downloads": 52, "homepage": "https://clawhub.ai/onechan/nornr-governance", "iconUrl": null, "installs": 0, "name": "NORNR MCP Control", "ownerName": "onechan", "score": 4113.9240506329115, "slug": "nornr-governance", "source": "clawhub", "stars": 0, "tags": ["approvals", "audit", "finance", "governance"], "updated_at": 1776759982774, "version": "0.1.6"}, {"category": "", "created_at": 1774892270548, "description": "Extract and summarize public project and announcement information from Worktile shared pages without requiring login or accessing private data.", "description_zh": "", "downloads": 52, "homepage": "https://clawhub.ai/codekungfu/worktile", "iconUrl": null, "installs": 4, "name": "Worktile", "ownerName": "codekungfu", "score": 4113.9240506329115, "slug": "worktile", "source": "clawhub", "stars": 0, "tags": null, "updated_at": 1776759982756, "version": "0.1.0"}, {"category": "", "created_at": 1774836744586, "description": "Cross-platform (Linux/macOS/Windows) skill for Exchange Server 2016 CU21 EWS operations on OpenClaw Node.js runtime.", "description_zh": "", "downloads": 52, "homepage": "https://clawhub.ai/jokermec/exchangeserviceskill", "iconUrl": null, "installs": 2, "name": "ExchangeService", "ownerName": "jokermec", "score": 14772.727272727274, "slug": "exchangeserviceskill", "source": "clawhub", "stars": 0, "tags": null, "updated_at": 1776759982749, "version": "1.0.1"}, {"category": "", "created_at": 1774862027424, "description": "Expert translation methodology and best practices for English-Tibetan bilingual translation. Use when translating any content between English and Tibetan (Cl...", "description_zh": "", "downloads": 52, "homepage": "https://clawhub.ai/tenzdelek/tibetan-translation", "iconUrl": null, "installs": 1, "name": "Tibetan Translation", "ownerName": "tenzdelek", "score": 14772.727272727274, "slug": "tibetan-translation", "source": "clawhub", "stars": 0, "tags": null, "updated_at": 1776759982747, "version": "1.0.0"}, {"category": "", "created_at": 1774891450395, "description": "Provides NVIDIA Jetson CUDA tools to query CUDA version, GPU device info, and CUDA library paths on Jetson devices.", "description_zh": "", "downloads": 52, "homepage": "https://clawhub.ai/wxd9199/jetson-cuda", "iconUrl": null, "installs": 3, "name": "Jetson CUDA", "ownerName": "wxd9199", "score": 4097.714736012608, "slug": "jetson-cuda", "source": "clawhub", "stars": 0, "tags": null, "updated_at": 1776759982726, "version": "1.0.0"}, {"category": "", "created_at": 1774879184972, "description": "Dynamically updates your Openclaw agent's SOUL.md daily with 5D neuro-radar stats to create a biologically-inspired, evolving AI personality.", "description_zh": "", "downloads": 52, "homepage": "https://clawhub.ai/spacesq/s2-neuro-soul-link", "iconUrl": null, "installs": 3, "name": "Xiang miles | Space2.world", "ownerName": "spacesq", "score": 4097.714736012608, "slug": "s2-neuro-soul-link", "source": "clawhub", "stars": 0, "tags": null, "updated_at": 1776759982716, "version": "1.0.5"}, {"category": "", "created_at": 1774831380947, "description": "Agents learning from agents. Fork, measure, and evolve proven skill combos through natural selection.", "description_zh": "", "downloads": 52, "homepage": "https://clawhub.ai/michellzappa/agent-hivemind", "iconUrl": null, "installs": 4, "name": "Agent Hivemind", "ownerName": "michellzappa", "score": 4081.632653061224, "slug": "agent-hivemind", "source": "clawhub", "stars": 0, "tags": null, "updated_at": 1776759982671, "version": "1.9.5"}, {"category": "", "created_at": 1774869217501, "description": "Provides stock market data, sentiment analysis, news clustering, institutional flow, and AI-generated reports via a REST API with tiered access and real-time...", "description_zh": "", "downloads": 52, "homepage": "https://clawhub.ai/thesentitrader/sentisense", "iconUrl": null, "installs": 2, "name": "SentiSense Market Intelligence API", "ownerName": "thesentitrader", "score": 4084.8389630793404, "slug": "sentisense", "source": "clawhub", "stars": 0, "tags": null, "updated_at": 1776759982665, "version": "1.0.1"}, {"category": "", "created_at": 1774949676919, "description": "Search 3,900+ MCP servers with install commands, get daily AI brief, and discover trending tools — in Chinese. Data from skillnav.dev editorial team.", "description_zh": "", "downloads": 52, "homepage": "https://clawhub.ai/huiw86/skillnav", "iconUrl": null, "installs": 2, "name": "SkillNav", "ownerName": "huiw86", "score": 4084.8389630793404, "slug": "skillnav", "source": "clawhub", "stars": 0, "tags": null, "updated_at": 1776759982648, "version": "1.0.0"}, {"category": "", "created_at": 1774867209925, "description": "Provides step-by-step startup launch strategies, Product Hunt tactics, influencer outreach templates, and marketing checklists for SaaS, apps, and open sourc...", "description_zh": "", "downloads": 52, "homepage": "https://clawhub.ai/gingiris/startup-launch", "iconUrl": null, "installs": 0, "name": "Startup Launch Playbook", "ownerName": "gingiris", "score": 3646.56381486676, "slug": "startup-launch", "source": "clawhub", "stars": 0, "tags": null, "updated_at": 1776759982628, "version": "1.0.0"}, {"category": "", "created_at": 1774917375798, "description": "Provides actionable insights into X's For You feed algorithm to optimize content for engagement by predicting and maximizing key user interaction types.", "description_zh": "", "downloads": 52, "homepage": "https://clawhub.ai/sergeo01/x-algorithm-optimization", "iconUrl": null, "installs": 0, "name": "X Algorithm Optimization", "ownerName": "sergeo01", "score": 71232.87671232877, "slug": "x-algorithm-optimization", "source": "clawhub", "stars": 0, "tags": ["algorithm", "marketing", "social-media", "x"], "updated_at": 1776759982584, "version": "1.0.0"}, {"category": "", "created_at": 1774878076414, "description": "Creates visually lively, warm, and playful designs with personality, motion, bold aesthetics, tactile textures, and purposeful color to evoke delight and bra...", "description_zh": "", "downloads": 52, "homepage": "https://clawhub.ai/aa-on-ai/whimsical-design", "iconUrl": null, "installs": 3, "name": "Whimsical Design", "ownerName": "aa-on-ai", "score": 73239.43661971831, "slug": "whimsical-design", "source": "clawhub", "stars": 0, "tags": null, "updated_at": 1776759982575, "version": "1.0.0"}, {"category": "", "created_at": 1774880349777, "description": "Rewrite or draft text in a confident, concise, and strategically assertive style inspired by Harvey Specter, ideal for professional negotiations and sharp co...", "description_zh": "", "downloads": 52, "homepage": "https://clawhub.ai/anugotta/harvey-specter-writing-style", "iconUrl": null, "installs": 0, "name": "Harvey Specter Writing Style", "ownerName": "anugotta", "score": 4081.632653061224, "slug": "harvey-specter-writing-style", "source": "clawhub", "stars": 0, "tags": null, "updated_at": 1776759982541, "version": "1.0.0"}, {"category": "", "created_at": 1774854791919, "description": "Search and summarize public Eleme merchants and products by category, including ratings, prices, delivery fees, and promotions without placing orders.", "description_zh": "", "downloads": 52, "homepage": "https://clawhub.ai/mike47512/eleme", "iconUrl": null, "installs": 0, "name": "Eleme", "ownerName": "mike47512", "score": 4113.9240506329115, "slug": "eleme", "source": "clawhub", "stars": 0, "tags": null, "updated_at": 1776759982478, "version": "0.1.0"}, {"category": "", "created_at": 1774874600367, "description": "Recommend optimal skill combinations and workflows for user tasks, offering usage examples and preset workflows to optimize project execution.", "description_zh": "", "downloads": 52, "homepage": "https://clawhub.ai/utopiabenben/skill-combo-recommender", "iconUrl": null, "installs": 2, "name": "Skill Combo Recommender", "ownerName": "utopiabenben", "score": 4113.9240506329115, "slug": "skill-combo-recommender", "source": "clawhub", "stars": 0, "tags": null, "updated_at": 1776759982474, "version": "1.0.0"}, {"category": "", "created_at": 1774892153941, "description": "Compare two text files and display their differences using unified, context, or side-by-side diff formats with customizable options.", "description_zh": "", "downloads": 52, "homepage": "https://clawhub.ai/harrylabsj/text-diff", "iconUrl": null, "installs": 0, "name": "Text Diff", "ownerName": "harrylabsj", "score": 4113.9240506329115, "slug": "text-diff", "source": "clawhub", "stars": 0, "tags": null, "updated_at": 1776759982472, "version": "1.0.0"}, {"category": "", "created_at": 1774866735775, "description": "Provides information on Disney Plus public pages including membership plans, content channels, creator guidelines, and help resources without accessing perso...", "description_zh": "", "downloads": 52, "homepage": "https://clawhub.ai/codekungfu/disney-plus", "iconUrl": null, "installs": 0, "name": "Disney Plus", "ownerName": "codekungfu", "score": 4078.4313725490197, "slug": "disney-plus", "source": "clawhub", "stars": 0, "tags": null, "updated_at": 1776759982426, "version": "0.1.1"}, {"category": "", "created_at": 1774904604767, "description": "Model Context Protocol (MCP) bridge for Outline (getoutline.com). Enables AI agents to search, read, create, and manage documents, collections, and comments...", "description_zh": "", "downloads": 52, "homepage": "https://clawhub.ai/samuellie/outline-app-mcp", "iconUrl": null, "installs": 0, "name": "Outline App MCP", "ownerName": "samuellie", "score": 3564.084989718986, "slug": "outline-app-mcp", "source": "clawhub", "stars": 0, "tags": null, "updated_at": 1776759982271, "version": "1.3.0"}, {"category": "", "created_at": 1774868817548, "description": "Reliably deliver generated images and videos to Feishu/Lark users and chats. Use when an agent already has a local image/video result and must send it to Fei...", "description_zh": "", "downloads": 52, "homepage": "https://clawhub.ai/zhy2015/feishu-media-delivery", "iconUrl": null, "installs": 0, "name": "Feishu Media Delivery", "ownerName": "zhy2015", "score": 30588.23529411765, "slug": "feishu-media-delivery", "source": "clawhub", "stars": 0, "tags": null, "updated_at": 1776759982262, "version": "0.1.1"}, {"category": "", "created_at": 1774902260962, "description": "Create bootable system images (ISO, disk, cloud) for Fedora/RHEL using Lorax with customizable packages, templates, and boot configurations.", "description_zh": "", "downloads": 52, "homepage": "https://clawhub.ai/weidongkl/lorax", "iconUrl": null, "installs": 1, "name": "lorax", "ownerName": "weidongkl", "score": 30588.23529411765, "slug": "lorax", "source": "clawhub", "stars": 0, "tags": ["build-system", "cloud", "iso", "linux", "lorax"], "updated_at": 1776759982242, "version": "1.0.1"}, {"category": "", "created_at": 1774918221803, "description": "Provides AI-driven strategic extraction of news concepts and patterns to evolve AI thinking, plus CORE-analyzed personalized news briefings by category.", "description_zh": "", "downloads": 52, "homepage": "https://clawhub.ai/kedoupi/insight-radar", "iconUrl": null, "installs": 1, "name": "Insight Radar (洞察雷达)", "ownerName": "kedoupi", "score": 30588.23529411765, "slug": "insight-radar", "source": "clawhub", "stars": 0, "tags": ["ai-learning", "analysis", "automation", "core-framework", "daily-briefing", "news", "strategic-insights"], "updated_at": 1776759982227, "version": "1.0.1"}]}