{"page": 436, "total_pages": 522, "total": 26073, "skills": [{"category": "", "created_at": 1774848370805, "description": "Evaluate AI training and RAG data quality using rule-based or LLM-based metrics with Dingo's flexible, multi-format assessment framework and CLI/SDK support.", "description_zh": "", "downloads": 52, "homepage": "https://clawhub.ai/e06084/dingo", "iconUrl": null, "installs": 0, "name": "dingo data quality", "ownerName": "e06084", "score": 3951.367781155015, "slug": "dingo", "source": "clawhub", "stars": 0, "tags": null, "updated_at": 1776759982196, "version": "1.0.4"}, {"category": "", "created_at": 1774849907357, "description": "Generate immersive audio scenes—complete with speech, sound effects, music, and ambient sounds by text descriptions.", "description_zh": "", "downloads": 52, "homepage": "https://clawhub.ai/jimbozhang/midasheng-audio-generate", "iconUrl": null, "installs": 2, "name": "midasheng-audio-generate", "ownerName": "jimbozhang", "score": 4097.714736012608, "slug": "midasheng-audio-generate", "source": "clawhub", "stars": 0, "tags": null, "updated_at": 1776759982152, "version": "1.1.5"}, {"category": "", "created_at": 1774902472825, "description": "Reviews pull requests by detecting logic bugs, security risks, test gaps, API changes, and style issues, providing a structured report prioritizing block mer...", "description_zh": "", "downloads": 52, "homepage": "https://clawhub.ai/lnguyen1996/pull-request-reviewer", "iconUrl": null, "installs": 0, "name": "PR Reviewer", "ownerName": "lnguyen1996", "score": 4097.714736012608, "slug": "pull-request-reviewer", "source": "clawhub", "stars": 0, "tags": null, "updated_at": 1776759982144, "version": "1.0.0"}, {"category": "", "created_at": 1774916140164, "description": "A 12-phase system guiding podcast launch, production, guest management, audience growth, monetization, and repurposing without platform restrictions.", "description_zh": "", "downloads": 52, "homepage": "https://clawhub.ai/afrexai-cto/afrexai-podcast-engine", "iconUrl": null, "installs": 1, "name": "Podcast Growth Engine", "ownerName": "afrexai-cto", "score": 4097.714736012608, "slug": "afrexai-podcast-engine", "source": "clawhub", "stars": 0, "tags": ["audio", "content", "growth", "marketing", "monetization", "podcast", "youtube"], "updated_at": 1776759982138, "version": "1.0.0"}, {"category": "", "created_at": 1774857005510, "description": "Read existing Grafana dashboards and panels without modifying them. Use when answering questions about values already visible in Grafana, locating the right...", "description_zh": "", "downloads": 52, "homepage": "https://clawhub.ai/qwqcode/grafana-readonly", "iconUrl": null, "installs": 6, "name": "Grafana Readonly", "ownerName": "qwqcode", "score": 3270.440251572327, "slug": "grafana-readonly", "source": "clawhub", "stars": 0, "tags": null, "updated_at": 1776757282873, "version": "1.0.0"}, {"category": "", "created_at": 1774878234472, "description": "Learn cybersecurity on LabEx with defensive and offensive-skills courses plus security challenge labs. Cybersecurity courses and labs via LabEx MCP; catalog-...", "description_zh": "", "downloads": 52, "homepage": "https://clawhub.ai/huhuhang/learn-cybersecurity", "iconUrl": null, "installs": 6, "name": "Learn Cybersecurity", "ownerName": "huhuhang", "score": 3182.374541003672, "slug": "learn-cybersecurity", "source": "clawhub", "stars": 0, "tags": null, "updated_at": 1776756982739, "version": "1.0.1"}, {"category": "", "created_at": 1774850182327, "description": "Monitor Steam game prices and alert when a game hits historical low or a user target price. Use when users ask to track Steam discounts, watch specific games...", "description_zh": "", "downloads": 52, "homepage": "https://clawhub.ai/g-zoe/steam-lowest-price-skill", "iconUrl": null, "installs": 4, "name": "Steam Lowest Price Skill", "ownerName": "g-zoe", "score": 74285.71428571429, "slug": "steam-lowest-price-skill", "source": "clawhub", "stars": 0, "tags": ["alert", "discount", "price", "steam"], "updated_at": 1776743869826, "version": "1.0.0"}, {"category": "", "created_at": 1774954043244, "description": "Set up AI-powered customer service for Shopify stores to automate support, reduce tickets, and improve customer satisfaction. Triggers: ai customer service,...", "description_zh": "", "downloads": 52, "homepage": "https://clawhub.ai/mguozhen/shopify-ai-customer-service", "iconUrl": null, "installs": 9, "name": "Shopify Ai Customer Service", "ownerName": "mguozhen", "score": 74285.71428571429, "slug": "shopify-ai-customer-service", "source": "clawhub", "stars": 0, "tags": null, "updated_at": 1776743869622, "version": "1.0.0"}, {"category": "", "created_at": 1774847968053, "description": "Compare insurance products side by side on key parameters including premium, coverage, exclusions, deductibles, and insurer ratings. Use when users are shopp...", "description_zh": "", "downloads": 52, "homepage": "https://clawhub.ai/jiwenbing/insurance-compare", "iconUrl": null, "installs": 0, "name": "Insurance Compare", "ownerName": "jiwenbing", "score": 64197.53086419753, "slug": "insurance-compare", "source": "clawhub", "stars": 0, "tags": null, "updated_at": 1776737683873, "version": "1.0.0"}, {"category": "", "created_at": 1774853609717, "description": "Humanize Bahasa Indonesia ecommerce copy to sound more natural, local, and conversion-ready without obvious AI tone. Best for product pages, live selling scr...", "description_zh": "", "downloads": 52, "homepage": "https://clawhub.ai/leooooooow/ecommerce-copy-humanizer-id", "iconUrl": null, "installs": 10, "name": "Ecommerce Copy Humanizer ID", "ownerName": "leooooooow", "score": 53608.24742268041, "slug": "ecommerce-copy-humanizer-id", "source": "clawhub", "stars": 0, "tags": null, "updated_at": 1776736973138, "version": "1.0.0"}, {"category": "", "created_at": 1774872664480, "description": "Generate voice audio and transcribe speech using MiniMax TTS API. Use when responding with voice or transcribing audio files.", "description_zh": "", "downloads": 52, "homepage": "https://clawhub.ai/ogdegenblaze/kai-minimax-tts", "iconUrl": null, "installs": 9, "name": "Kai Minimax Tts", "ownerName": "ogdegenblaze", "score": 73239.43661971831, "slug": "kai-minimax-tts", "source": "clawhub", "stars": 0, "tags": ["audio", "kai", "minimax", "tts", "voice"], "updated_at": 1776735072514, "version": "1.0.7"}, {"category": "", "created_at": 1774859082447, "description": "Monitor all OpenClaw cron jobs for failures and auto-fix common errors (model-not-allowed, timeouts). Posts to Slack only when issues are found. Runs every 6...", "description_zh": "", "downloads": 52, "homepage": "https://clawhub.ai/mpbshhx/cron-watchdog", "iconUrl": null, "installs": 10, "name": "Cron Watchdog", "ownerName": "mpbshhx", "score": 54166.666666666664, "slug": "cron-watchdog", "source": "clawhub", "stars": 0, "tags": null, "updated_at": 1776730204662, "version": "1.0.0"}, {"category": "", "created_at": 1774857230565, "description": "Read and manage IoT sensor data from the terminal. Use when polling readings, checking device connectivity, converting units, analyzing telemetry trends.", "description_zh": "", "downloads": 52, "homepage": "https://clawhub.ai/ckchzh/sensor", "iconUrl": null, "installs": 2, "name": "Sensor", "ownerName": "ckchzh", "score": 54166.666666666664, "slug": "sensor", "source": "clawhub", "stars": 0, "tags": null, "updated_at": 1776729283799, "version": "2.0.0"}, {"category": "", "created_at": 1774956036306, "description": "Identify profitable product niches for Shopify stores using market demand data, competition analysis, and profitability assessment. Triggers: niche finder, f...", "description_zh": "", "downloads": 52, "homepage": "https://clawhub.ai/mguozhen/shopify-niche-finder", "iconUrl": null, "installs": 11, "name": "Shopify Niche Finder", "ownerName": "mguozhen", "score": 52525.25252525253, "slug": "shopify-niche-finder", "source": "clawhub", "stars": 0, "tags": null, "updated_at": 1776709183776, "version": "1.0.0"}, {"category": "security-compliance", "created_at": 1773953622057, "description": "Mandatory Revenium budget enforcement for every agent operation. Checks token spend against your configured budget before each tool call, warns when threshol...", "description_zh": "", "downloads": 52, "homepage": "https://clawhub.ai/johndemic/revenium", "iconUrl": null, "installs": 1, "name": "Revenium Budget Enforcement", "ownerName": "johndemic", "score": 66666.66666666666, "slug": "revenium", "source": "clawhub", "stars": 0, "tags": null, "updated_at": 1776696955485, "version": "0.1.0"}, {"category": "", "created_at": 1774867296568, "description": "Guide users to VideoAny Video Compressor tool to reduce video file size with quality/scale/format controls.", "description_zh": "", "downloads": 52, "homepage": "https://clawhub.ai/gaoq1/video-compressor", "iconUrl": null, "installs": 7, "name": "Video Compressor", "ownerName": "gaoq1", "score": 66666.66666666666, "slug": "video-compressor", "source": "clawhub", "stars": 0, "tags": null, "updated_at": 1776696946982, "version": "1.0.0"}, {"category": "", "created_at": 1774849142329, "description": "SEO & GEO expert assistant with 200+ curated articles covering keyword research, on-page optimization, backlink building, technical SEO, new site cold start,...", "description_zh": "", "downloads": 52, "homepage": "https://clawhub.ai/justinbao19/seo-expert", "iconUrl": null, "installs": 9, "name": "SEO Expert Knowledge Base", "ownerName": "justinbao19", "score": 66666.66666666666, "slug": "seo-expert", "source": "clawhub", "stars": 0, "tags": ["ai-tools", "chinese", "english", "geo", "growth", "marketing", "seo", "workflow"], "updated_at": 1776696946980, "version": "1.1.0"}, {"category": "developer-tools", "created_at": 1773956313270, "description": "BugBug integration. Manage data, records, and automate workflows. Use when the user wants to interact with BugBug data.", "description_zh": "", "downloads": 52, "homepage": "https://clawhub.ai/membranedev/bugbug", "iconUrl": null, "installs": 3, "name": "Bugbug", "ownerName": "membranedev", "score": 66666.66666666666, "slug": "bugbug", "source": "clawhub", "stars": 0, "tags": null, "updated_at": 1776696946973, "version": "1.0.0"}, {"category": "ai-intelligence", "created_at": 1773958616965, "description": "Anticipates needs, keeps work moving, and improves through use so the agent gets more proactive over time.", "description_zh": "", "downloads": 52, "homepage": "https://clawhub.ai/muguozi1/muguozi1-openclaw-proactivity", "iconUrl": null, "installs": 5, "name": "Muguozi1 Openclaw Proactivity", "ownerName": "muguozi1", "score": 66666.66666666666, "slug": "muguozi1-openclaw-proactivity", "source": "clawhub", "stars": 0, "tags": null, "updated_at": 1776696944653, "version": "1.0.0"}, {"category": "ai-intelligence", "created_at": 1773957827470, "description": "Deploy Jarvis, your Chief of AI Staff, on OpenClaw. Optimized for Dell Pro Max GB10 (NVIDIA DGX Spark) edge devices. Use when setting up Jarvis, configuring...", "description_zh": "", "downloads": 52, "homepage": "https://clawhub.ai/gignaati/jarvis-chief-of-ai-staff", "iconUrl": null, "installs": 6, "name": "Jarvis - Chief of AI Staff on NVIDIA GB10", "ownerName": "gignaati", "score": 66666.66666666666, "slug": "jarvis-chief-of-ai-staff", "source": "clawhub", "stars": 0, "tags": null, "updated_at": 1776696944643, "version": "1.0.0"}, {"category": "data-analysis", "created_at": 1772744980725, "description": "Frontend development skill for React, Next.js, TypeScript, and Tailwind CSS applications. Use when building React components, optimizing Next.js performance, analyzing bundle sizes, scaffolding frontend projects, implementing accessibility, or reviewing frontend code quality.", "description_zh": "", "downloads": 52, "homepage": "https://clawhub.ai/alirezarezvani/senior-frontend", "iconUrl": null, "installs": 13, "name": "Senior Frontend", "ownerName": "alirezarezvani", "score": 66666.66666666666, "slug": "senior-frontend", "source": "clawhub", "stars": 0, "tags": null, "updated_at": 1776696944639, "version": "1.0.0"}, {"category": "productivity", "created_at": 1773956415470, "description": "Design or implement a paper-management workflow built on a Feishu bot plus OpenClaw. Use when the user wants to ingest papers from Feishu messages, save PDFs...", "description_zh": "", "downloads": 52, "homepage": "https://clawhub.ai/ch1hyaanon/feishu-paper-manager", "iconUrl": null, "installs": 2, "name": "feishu paper manager", "ownerName": "ch1hyaanon", "score": 66666.66666666666, "slug": "feishu-paper-manager", "source": "clawhub", "stars": 0, "tags": null, "updated_at": 1776696944628, "version": "1.0.0"}, {"category": "", "created_at": 1774902149808, "description": "Generate images from text prompts and iterate on style/composition for posters, thumbnails, product mockups, logos, concept art, and social visuals. Use when...", "description_zh": "", "downloads": 52, "homepage": "https://clawhub.ai/wallaby16/image-create", "iconUrl": null, "installs": 5, "name": "Image Create", "ownerName": "wallaby16", "score": 66666.66666666666, "slug": "image-create", "source": "clawhub", "stars": 0, "tags": null, "updated_at": 1776696944597, "version": "1.0.0"}, {"category": "ai-intelligence", "created_at": 1773958007383, "description": "Teaches the agent how to list, inspect, diff, and restore Plakar snapshots. Invoke when the user says \"undo\", \"rollback\", \"restore\", or \"revert\".", "description_zh": "", "downloads": 52, "homepage": "https://clawhub.ai/misterflop/plakar-backup", "iconUrl": null, "installs": 4, "name": "Plakar backup", "ownerName": "misterflop", "score": 66666.66666666666, "slug": "plakar-backup", "source": "clawhub", "stars": 0, "tags": null, "updated_at": 1776696944577, "version": "1.0.1"}, {"category": "content-creation", "created_at": 1773073397169, "description": "Feishu image upload and send tool. Send images to Feishu chats by uploading first then sending with image_key. Usage: `node feishu-image-tool.js send --targe...", "description_zh": "", "downloads": 52, "homepage": "https://clawhub.ai/bo170814/feishu-img-tool", "iconUrl": null, "installs": 16, "name": "Feishu Img Tool", "ownerName": "bo170814", "score": 66666.66666666666, "slug": "feishu-img-tool", "source": "clawhub", "stars": 0, "tags": null, "updated_at": 1776696944571, "version": "1.0.1"}, {"category": "data-analysis", "created_at": 1773957918261, "description": "OpenGraph.io integration. Manage data, records, and automate workflows. Use when the user wants to interact with OpenGraph.io data.", "description_zh": "", "downloads": 52, "homepage": "https://clawhub.ai/gora050/opengraphio", "iconUrl": null, "installs": 5, "name": "Opengraphio", "ownerName": "gora050", "score": 66666.66666666666, "slug": "opengraphio", "source": "clawhub", "stars": 0, "tags": null, "updated_at": 1776696944570, "version": "1.0.0"}, {"category": "", "created_at": 1774860955626, "description": "Accessing the Douyin homepage through browser automation, entering keywords in the search bar and collecting relevant keyword suggestions in the automated pr...", "description_zh": "", "downloads": 52, "homepage": "https://clawhub.ai/openlark/douyin-keyword-collector", "iconUrl": null, "installs": 12, "name": "Douyin Keyword Collector", "ownerName": "openlark", "score": 66666.66666666666, "slug": "douyin-keyword-collector", "source": "clawhub", "stars": 0, "tags": null, "updated_at": 1776696944564, "version": "1.0.2"}, {"category": "security-compliance", "created_at": 1773955743963, "description": "Abuse API skill. Use when working with Abuse for abuse. Covers 6 endpoints.", "description_zh": "", "downloads": 52, "homepage": "https://clawhub.ai/mickmicksh/lap-abuse-api", "iconUrl": null, "installs": 3, "name": "Lap Abuse Api", "ownerName": "mickmicksh", "score": 98113.20754716982, "slug": "lap-abuse-api", "source": "clawhub", "stars": 0, "tags": null, "updated_at": 1776696944555, "version": "1.0.0"}, {"category": "", "created_at": 1774818646628, "description": "When the user wants to design, optimize, or audit list layouts for content display. Also use when the user mentions \"list layout,\" \"list design,\" \"vertical l...", "description_zh": "", "downloads": 52, "homepage": "https://clawhub.ai/kostja94/list", "iconUrl": null, "installs": 0, "name": "list", "ownerName": "kostja94", "score": 98113.20754716982, "slug": "list", "source": "clawhub", "stars": 0, "tags": null, "updated_at": 1776696944546, "version": "1.1.0"}, {"category": "", "created_at": 1774815405772, "description": "Read and write data with an Obsidian vault used as a shared knowledge base. Use when an agent needs to read vault notes (business plan, tasks, milestones, te...", "description_zh": "", "downloads": 52, "homepage": "https://clawhub.ai/dmanock/obsidian-vault-integration", "iconUrl": null, "installs": 13, "name": "Obsidian Vault Integration", "ownerName": "dmanock", "score": 98113.20754716982, "slug": "obsidian-vault-integration", "source": "clawhub", "stars": 0, "tags": ["latest obsidian vault"], "updated_at": 1776696944491, "version": "1.0.3"}, {"category": "", "created_at": 1774895093219, "description": "Find and recommend free Linux Journey lessons on LabEx when the user wants to learn Linux fundamentals, Linux basics, command line concepts, filesystems, per...", "description_zh": "", "downloads": 52, "homepage": "https://clawhub.ai/huhuhang/linux-journey", "iconUrl": null, "installs": 4, "name": "Linux Journey", "ownerName": "huhuhang", "score": 98113.20754716982, "slug": "linux-journey", "source": "clawhub", "stars": 0, "tags": null, "updated_at": 1776696944452, "version": "1.0.1"}, {"category": "developer-tools", "created_at": 1773959046413, "description": "Dispatch coding tasks to Warp Oz cloud agents and chain them into multi-agent pipelines — all from chat. Includes a bash wrapper covering every Oz API endpoi...", "description_zh": "", "downloads": 52, "homepage": "https://clawhub.ai/in-liberty420/oz", "iconUrl": null, "installs": 3, "name": "Warp Oz", "ownerName": "in-liberty420", "score": 98113.20754716982, "slug": "oz", "source": "clawhub", "stars": 0, "tags": null, "updated_at": 1776696944424, "version": "1.1.0"}, {"category": "", "created_at": 1774918999348, "description": "Long-term Telegram memory for AI agents — search conversations, get digests, extract decisions. Connects to any Telegram channel via user's own account.", "description_zh": "", "downloads": 52, "homepage": "https://clawhub.ai/may4vfx/telegram-agent-memory", "iconUrl": null, "installs": 16, "name": "Telegram Agent Memory", "ownerName": "may4vfx", "score": 98113.20754716982, "slug": "telegram-agent-memory", "source": "clawhub", "stars": 0, "tags": null, "updated_at": 1776696944409, "version": "0.2.0"}, {"category": "", "created_at": 1774945309492, "description": "this skill is for generate a word cloud from text/file/directory and save it to a picture, you can use it visualize the text", "description_zh": "", "downloads": 52, "homepage": "https://clawhub.ai/lijiahao885/wordcloud-skill", "iconUrl": null, "installs": 11, "name": "wordcloud-skill", "ownerName": "lijiahao885", "score": 98113.20754716982, "slug": "wordcloud-skill", "source": "clawhub", "stars": 0, "tags": null, "updated_at": 1776696944407, "version": "1.0.1"}, {"category": "security-compliance", "created_at": 1773953539707, "description": "Monitorea las bandejas de Gmail y Outlook en busca de correos de phishing. Analiza cada correo entrante usando reglas estaticas e IA (Claude API). Asigna un...", "description_zh": "", "downloads": 52, "homepage": "https://clawhub.ai/lichq1337/phishguard", "iconUrl": null, "installs": 2, "name": "phishguard", "ownerName": "lichq1337", "score": 98113.20754716982, "slug": "phishguard", "source": "clawhub", "stars": 0, "tags": null, "updated_at": 1776696944374, "version": "1.0.0"}, {"category": "ai-intelligence", "created_at": 1773958702319, "description": "Chat with Pallio AI knowledge-base personas. Ask questions against curated document collections with RAG-powered citations.", "description_zh": "", "downloads": 51, "homepage": "https://clawhub.ai/jayx-cloud/pallio", "iconUrl": null, "installs": 6, "name": "Pallio AI", "ownerName": "jayx-cloud", "score": 2450.7448342143202, "slug": "pallio", "source": "clawhub", "stars": 0, "tags": null, "updated_at": 1776763750675, "version": "1.0.0"}, {"category": "", "created_at": 1774902348467, "description": "Deep OpenAPI workflow—design-first vs code-first, reusable schemas, security schemes, errors, examples, linting, compatibility, and codegen. Use when documen...", "description_zh": "", "downloads": 51, "homepage": "https://clawhub.ai/codenova58/openapi-spec", "iconUrl": null, "installs": 1, "name": "Openapi Spec", "ownerName": "codenova58", "score": 271.6088832081802, "slug": "openapi-spec", "source": "clawhub", "stars": 0, "tags": null, "updated_at": 1776762345464, "version": "1.0.0"}, {"category": "", "created_at": 1774896695823, "description": "Create and manage ISO 9660 images using mkisofs, genisoimage, or xorriso for standard, bootable, UEFI, hybrid, and multi-boot ISO creation.", "description_zh": "", "downloads": 51, "homepage": "https://clawhub.ai/weidongkl/mkisofs", "iconUrl": null, "installs": 0, "name": "mkisofs", "ownerName": "weidongkl", "score": 4038.0047505938246, "slug": "mkisofs", "source": "clawhub", "stars": 0, "tags": ["build-system", "iso", "linux", "mkisofs", "xorriso"], "updated_at": 1776759983378, "version": "1.0.1"}, {"category": "", "created_at": 1775872788326, "description": "Remote control 96Push desktop client — query platforms/accounts, create content, publish to multiple social media platforms, poll results. Use when user mentions 96push, publishing, social media, multi-platform, or content distribution.", "description_zh": "", "downloads": 51, "homepage": "https://clawhub.ai/user_4e93203a/96push", "iconUrl": "https://cloudcache.tencent-cloud.com/qcloud/ui/static/other_external_resource/62f73a9b-1aca-4f8e-921d-6102e258c768.png", "installs": 0, "name": "96push", "ownerName": "user_4e93203a", "score": 42148.76033057851, "slug": "96push", "source": "community", "stars": 0, "tags": null, "updated_at": 1776759983375, "version": "1.0.2"}, {"category": "", "created_at": 1774923970449, "description": "Use for Dokploy-specific API operations (apps, deployments, databases, domains, backups, settings) when tasks explicitly involve Dokploy. Route requests to d...", "description_zh": "", "downloads": 51, "homepage": "https://clawhub.ai/achals-iglu/dokploy-api", "iconUrl": null, "installs": 0, "name": "Dokploy API", "ownerName": "achals-iglu", "score": 42148.76033057851, "slug": "dokploy-api", "source": "clawhub", "stars": 0, "tags": null, "updated_at": 1776759983356, "version": "1.0.0"}, {"category": "", "created_at": 1774891853414, "description": "Builds a Product Hunt launch timeline and strategy. Use when someone wants help planning, preparing for, or optimizing a Product Hunt launch.", "description_zh": "", "downloads": 51, "homepage": "https://clawhub.ai/c0ldsmi1e/product-hunt-launch-strategy", "iconUrl": null, "installs": 0, "name": "Product Hunt Launch Strategy", "ownerName": "c0ldsmi1e", "score": 42148.76033057851, "slug": "product-hunt-launch-strategy", "source": "clawhub", "stars": 0, "tags": null, "updated_at": 1776759983340, "version": "1.0.0"}, {"category": "", "created_at": 1774876780015, "description": "Provides standardized after-sales procedures covering returns, complaints, escalation, service recovery, compensation, quality metrics, and team training mat...", "description_zh": "", "downloads": 51, "homepage": "https://clawhub.ai/1970168137/aftersale-sop", "iconUrl": null, "installs": 2, "name": "Aftersale Sop", "ownerName": "1970168137", "score": 42148.76033057851, "slug": "aftersale-sop", "source": "clawhub", "stars": 0, "tags": null, "updated_at": 1776759983338, "version": "1.0.0"}, {"category": "", "created_at": 1774841093267, "description": "Official-core Sparki video editor listing kept under the ai-video-editor-fixed slug for compatibility, now aligned with the latest sparki-video-editor setup,...", "description_zh": "", "downloads": 51, "homepage": "https://clawhub.ai/fischerlam/ai-video-editor-fixed", "iconUrl": null, "installs": 1, "name": "AI Video Editor", "ownerName": "fischerlam", "score": 42148.76033057851, "slug": "ai-video-editor-fixed", "source": "clawhub", "stars": 0, "tags": ["editing", "sparki", "video"], "updated_at": 1776759983335, "version": "1.0.11"}, {"category": "", "created_at": 1774894688882, "description": "Convert ICS calendar files to JSON format for importing, exporting, or processing Feishu calendar events and data integration.", "description_zh": "", "downloads": 51, "homepage": "https://clawhub.ai/goog/feishu-candy", "iconUrl": null, "installs": 1, "name": "Feishu calendar sync, local ics to json data for AI agent", "ownerName": "goog", "score": 4028.436018957346, "slug": "feishu-candy", "source": "clawhub", "stars": 0, "tags": null, "updated_at": 1776759983324, "version": "1.0.1"}, {"category": "", "created_at": 1774897430577, "description": "Provides predictions with quantified uncertainty by evaluating data completeness, prediction type, and confidence to inform decision-making risks.", "description_zh": "", "downloads": 51, "homepage": "https://clawhub.ai/keys-li/self-aware-prediction-system", "iconUrl": null, "installs": 4, "name": "Self Aware Prediction System", "ownerName": "keys-li", "score": 4028.436018957346, "slug": "self-aware-prediction-system", "source": "clawhub", "stars": 0, "tags": null, "updated_at": 1776759983318, "version": "1.0.0"}, {"category": "", "created_at": 1774863813744, "description": "this skill describes all about Ethopia Thursday Helicopter", "description_zh": "", "downloads": 51, "homepage": "https://clawhub.ai/duanc-chao/eth", "iconUrl": null, "installs": 0, "name": "Ethopia Thursday Helicopter", "ownerName": "duanc-chao", "score": 4028.436018957346, "slug": "eth", "source": "clawhub", "stars": 0, "tags": null, "updated_at": 1776759983297, "version": "1.0.2"}, {"category": "", "created_at": 1774896301139, "description": "Send text, image (jpg/png/gif), or file (md/pdf/doc) messages via Feishu to user ou_a05417a566dc000ad40fed2beb9fe057 using files in ~/.openclaw/workspace/.", "description_zh": "", "downloads": 51, "homepage": "https://clawhub.ai/zh6/feishu-zh6", "iconUrl": null, "installs": 1, "name": "Feishu Zh6", "ownerName": "zh6", "score": 4034.8101265822784, "slug": "feishu-zh6", "source": "clawhub", "stars": 0, "tags": null, "updated_at": 1776759983244, "version": "1.0.5"}, {"category": "", "created_at": 1774885879526, "description": "Configure a Discord Bot as an OpenClaw message channel with token setup, server authorization, and slash command support in 10 minutes.", "description_zh": "", "downloads": 51, "homepage": "https://clawhub.ai/yang1002378395-cmyk/openclaw-discord-setup", "iconUrl": null, "installs": 1, "name": "Openclaw Discord Setup", "ownerName": "yang1002378395-cmyk", "score": 23943.661971830985, "slug": "openclaw-discord-setup", "source": "clawhub", "stars": 0, "tags": ["discord", "messaging", "setup"], "updated_at": 1776759983216, "version": "1.0.0"}, {"category": "", "created_at": 1774945655896, "description": "Access and summarize public SegmentFault Q&A and articles by keyword, extracting titles, tags, metrics, technology stacks, and key technical points.", "description_zh": "", "downloads": 51, "homepage": "https://clawhub.ai/codekungfu/segmentfault", "iconUrl": null, "installs": 0, "name": "Segmentfault", "ownerName": "codekungfu", "score": 4028.436018957346, "slug": "segmentfault", "source": "clawhub", "stars": 0, "tags": null, "updated_at": 1776759983174, "version": "0.1.0"}, {"category": "", "created_at": 1774847780626, "description": "Control internet radio playback with stream/ station search, favorites, volume, pause/resume, stop, next, and show current playback using mpv or ffplay.", "description_zh": "", "downloads": 51, "homepage": "https://clawhub.ai/art-ps/agent-radio", "iconUrl": null, "installs": 2, "name": "Agent Radio", "ownerName": "art-ps", "score": 4028.436018957346, "slug": "agent-radio", "source": "clawhub", "stars": 0, "tags": null, "updated_at": 1776759983172, "version": "0.1.1"}]}