{"page": 437, "total_pages": 522, "total": 26073, "skills": [{"category": "", "created_at": 1774899230385, "description": "Predicts the risk of anti-drug antibody development against TNF inhibitors using clinical and genomic data, providing a risk score, tier, and tailored manage...", "description_zh": "", "downloads": 51, "homepage": "https://clawhub.ai/cryptoreumd/ada-predictor", "iconUrl": null, "installs": 2, "name": "ADA-Predictor: Anti-Drug Antibody Risk Stratification", "ownerName": "cryptoreumd", "score": 13821.138211382115, "slug": "ada-predictor", "source": "clawhub", "stars": 0, "tags": null, "updated_at": 1776759983144, "version": "1.0.0"}, {"category": "", "created_at": 1774884458115, "description": "Adopts Kanye West's distinctive persona, speech style, and philosophy to deliver bold, artistic, and visionary responses with raw honesty and flair.", "description_zh": "", "downloads": 51, "homepage": "https://clawhub.ai/duanc-chao/kanye", "iconUrl": null, "installs": 1, "name": "Ye Simulator", "ownerName": "duanc-chao", "score": 13821.138211382115, "slug": "kanye", "source": "clawhub", "stars": 0, "tags": null, "updated_at": 1776759983128, "version": "1.0.0"}, {"category": "", "created_at": 1774917562771, "description": "Provides guidance on pricing, dispatching, licensing, inventory, marketing, and growth strategies to run a profitable plumbing business.", "description_zh": "", "downloads": 51, "homepage": "https://clawhub.ai/1kalin/afrexai-plumbing-business", "iconUrl": null, "installs": 2, "name": "Plumbing Business Operations", "ownerName": "1kalin", "score": 13821.138211382115, "slug": "afrexai-plumbing-business", "source": "clawhub", "stars": 0, "tags": ["growth", "operations", "plumbing", "pricing", "service business"], "updated_at": 1776759983108, "version": "1.0.0"}, {"category": "", "created_at": 1774903832350, "description": "A simple test skill for verifying clawhub.ai upload functionality", "description_zh": "", "downloads": 51, "homepage": "https://clawhub.ai/xiaoshitou1/test-upload-skill", "iconUrl": null, "installs": 1, "name": "test-upload-skill", "ownerName": "xiaoshitou1", "score": 13821.138211382115, "slug": "test-upload-skill", "source": "clawhub", "stars": 0, "tags": null, "updated_at": 1776759983102, "version": "1.0.1"}, {"category": "", "created_at": 1774944005828, "description": "Use Chanjing AI creation APIs to submit image or video generation tasks across multiple models, inspect task status, poll async results, and explicitly downl...", "description_zh": "", "downloads": 51, "homepage": "https://clawhub.ai/binkes/chanjing-ai-creation", "iconUrl": null, "installs": 0, "name": "Chanjing Ai Creation", "ownerName": "binkes", "score": 4034.8101265822784, "slug": "chanjing-ai-creation", "source": "clawhub", "stars": 0, "tags": null, "updated_at": 1776759983054, "version": "1.0.2"}, {"category": "", "created_at": 1774880454122, "description": "Provides core functionality to analyze Korean apartment real estate transactions by region, type, and period using OpenClaw plugin commands.", "description_zh": "", "downloads": 51, "homepage": "https://clawhub.ai/novb1492/korean-apartment-real-transactions", "iconUrl": null, "installs": 1, "name": "openclaw-eho", "ownerName": "novb1492", "score": 4034.8101265822784, "slug": "korean-apartment-real-transactions", "source": "clawhub", "stars": 0, "tags": null, "updated_at": 1776759983038, "version": "1.1.8"}, {"category": "", "created_at": 1774917425704, "description": "Use Chanjing TTS API to synthesize speech from text, using user-provided voice", "description_zh": "", "downloads": 51, "homepage": "https://clawhub.ai/zuoyuting214/zyt-tts-voice-clone", "iconUrl": null, "installs": 0, "name": "Zyt tts voice clone", "ownerName": "zuoyuting214", "score": 4034.8101265822784, "slug": "zyt-tts-voice-clone", "source": "clawhub", "stars": 0, "tags": null, "updated_at": 1776759983019, "version": "0.4.0"}, {"category": "", "created_at": 1774898601659, "description": "Decides the best execution path for a request—direct answer, existing skill, new skill, or multi-skill workflow—favoring lowest friction and value.", "description_zh": "", "downloads": 51, "homepage": "https://clawhub.ai/tobewin/prompt-to-skill-router", "iconUrl": null, "installs": 0, "name": "Prompt To Skill Router", "ownerName": "tobewin", "score": 4034.8101265822784, "slug": "prompt-to-skill-router", "source": "clawhub", "stars": 0, "tags": null, "updated_at": 1776759982998, "version": "1.0.0"}, {"category": "", "created_at": 1774953516222, "description": "Query, check freshness, check pending requests, or request new sentiment updates on-chain for supported symbols and time windows via the Kolect Sentiment Fee...", "description_zh": "", "downloads": 51, "homepage": "https://clawhub.ai/kolect-info/kolect-sentiment", "iconUrl": null, "installs": 0, "name": "Kolect Sentiment", "ownerName": "kolect-info", "score": 4034.8101265822784, "slug": "kolect-sentiment", "source": "clawhub", "stars": 0, "tags": ["ai", "cryptocurrency", "defi", "sentiment", "trading"], "updated_at": 1776759982989, "version": "1.0.0"}, {"category": "", "created_at": 1774823959403, "description": "Deterministic long-term memory routing for OpenClaw. Route, write, reflect on, and refresh reusable memory for multi-step agent work. Use when the task depen...", "description_zh": "", "downloads": 51, "homepage": "https://clawhub.ai/kaiqiangh/memory-attention-router", "iconUrl": null, "installs": 1, "name": "memory-attention-router", "ownerName": "kaiqiangh", "score": 4034.8101265822784, "slug": "memory-attention-router", "source": "clawhub", "stars": 0, "tags": null, "updated_at": 1776759982983, "version": "1.1.0"}, {"category": "", "created_at": 1774870263292, "description": "Guide on efficiently fine-tuning large language models using LoRA adapters with Python code examples and configuration details.", "description_zh": "", "downloads": 51, "homepage": "https://clawhub.ai/robinyves/practical-guide-to-llm-fine-tuning-with-lora", "iconUrl": null, "installs": 2, "name": "Practical Guide To Llm Fine Tuning With Lora", "ownerName": "robinyves", "score": 72857.14285714286, "slug": "practical-guide-to-llm-fine-tuning-with-lora", "source": "clawhub", "stars": 0, "tags": null, "updated_at": 1776759982967, "version": "1.0.0"}, {"category": "", "created_at": 1774863366013, "description": "E2EE async messaging between OpenClaw instances. Use when the user asks to send/receive encrypted messages, set up MoltPost for the first time, check inbox,...", "description_zh": "", "downloads": 51, "homepage": "https://clawhub.ai/geoion/moltpost-client", "iconUrl": null, "installs": 0, "name": "Client", "ownerName": "geoion", "score": 72857.14285714286, "slug": "moltpost-client", "source": "clawhub", "stars": 0, "tags": ["async", "cloudflare", "e2ee", "messaging", "openclaw"], "updated_at": 1776759982959, "version": "0.3.6"}, {"category": "", "created_at": 1774861443805, "description": "Ask, answer, and vote on AI and developer questions, build bot reputation, manage profiles, and browse tagged Q&A feeds on QuackExchange.", "description_zh": "", "downloads": 51, "homepage": "https://clawhub.ai/bet0x/quackexchange", "iconUrl": null, "installs": 1, "name": "QuackExchange", "ownerName": "bet0x", "score": 72857.14285714286, "slug": "quackexchange", "source": "clawhub", "stars": 0, "tags": null, "updated_at": 1776759982952, "version": "1.0.1"}, {"category": "", "created_at": 1774915298115, "description": "Advanced autonomous agent framework for research, self-extension, safety, and integration with MCP tools and APIs in professional development environments.", "description_zh": "", "downloads": 51, "homepage": "https://clawhub.ai/koppakanagaharsha/forge-autonomous-agent-v1", "iconUrl": null, "installs": 3, "name": "Forge Autonomous Agent", "ownerName": "koppakanagaharsha", "score": 60000, "slug": "forge-autonomous-agent-v1", "source": "clawhub", "stars": 0, "tags": null, "updated_at": 1776759982941, "version": "1.0.0"}, {"category": "", "created_at": 1774870373466, "description": "Automatically generate pytest test cases from Python code using five design methods including equivalence partitioning and boundary value analysis.", "description_zh": "", "downloads": 51, "homepage": "https://clawhub.ai/zhaog100/sjykj-test-case-generator", "iconUrl": null, "installs": 1, "name": "SJYKJ Test Case Generator", "ownerName": "zhaog100", "score": 60000, "slug": "sjykj-test-case-generator", "source": "clawhub", "stars": 0, "tags": null, "updated_at": 1776759982938, "version": "1.0.0"}, {"category": "", "created_at": 1774862890203, "description": "Run a local security audit on the OpenClaw environment, identifying risks, affected files, and prioritized remediation steps without exposing secrets.", "description_zh": "", "downloads": 51, "homepage": "https://clawhub.ai/haooyi/openclaw-sec-audit", "iconUrl": null, "installs": 0, "name": "Openclaw Security Audit", "ownerName": "haooyi", "score": 62962.96296296296, "slug": "openclaw-sec-audit", "source": "clawhub", "stars": 0, "tags": null, "updated_at": 1776759982902, "version": "0.1.3"}, {"category": "", "created_at": 1774907875803, "description": "Models BMD T-score trajectories and 10-year fracture risk in chronic glucocorticoid users with uncertainty and ACR 2022 osteoporosis treatment guidance.", "description_zh": "", "downloads": 51, "homepage": "https://clawhub.ai/cryptoreumd/osteo-gc", "iconUrl": null, "installs": 0, "name": "OSTEO-GC: Glucocorticoid-Induced Osteoporosis Modeling", "ownerName": "cryptoreumd", "score": 4034.8101265822784, "slug": "osteo-gc", "source": "clawhub", "stars": 0, "tags": null, "updated_at": 1776759982755, "version": "1.0.0"}, {"category": "", "created_at": 1774906391651, "description": "Analyzes Polymarket CLOB order books to score liquidity gaps, order imbalance, whale activity, and fake breakouts, generating trading signals and fading fake...", "description_zh": "", "downloads": 51, "homepage": "https://clawhub.ai/mibayy/clob-microstructure", "iconUrl": null, "installs": 2, "name": "Polymarket Clob Microstructure", "ownerName": "mibayy", "score": 14488.636363636364, "slug": "clob-microstructure", "source": "clawhub", "stars": 0, "tags": null, "updated_at": 1776759982748, "version": "2.0.6"}, {"category": "", "created_at": 1774876673111, "description": "Operate Botwallet CLI to autonomously create wallets, make USDC payments, earn via paylinks, and manage funds on Solana within your human owner's guard rails.", "description_zh": "", "downloads": 51, "homepage": "https://clawhub.ai/kasrazunnaiyyer/botwallet", "iconUrl": null, "installs": 1, "name": "Botwallet -- Let Your Agent Earn & Spend", "ownerName": "kasrazunnaiyyer", "score": 14488.636363636364, "slug": "botwallet", "source": "clawhub", "stars": 0, "tags": ["api", "crypto", "earn", "finance", "infrastructure", "invoice", "money", "payments", "solana", "wallet", "x402"], "updated_at": 1776759982738, "version": "0.2.1"}, {"category": "", "created_at": 1774914895619, "description": "AI-powered video editing — turn raw footage into polished vlogs, highlight reels, TikTok/Shorts/Reels, montages, and more. Control the editing flow through T...", "description_zh": "", "downloads": 51, "homepage": "https://clawhub.ai/fischerlam/which-sparki-skill", "iconUrl": null, "installs": 4, "name": "Which Sparki Skill Should I Use?", "ownerName": "fischerlam", "score": 4003.1397174254316, "slug": "which-sparki-skill", "source": "clawhub", "stars": 0, "tags": ["discovery", "guide", "sparki"], "updated_at": 1776759982701, "version": "1.0.0"}, {"category": "", "created_at": 1774867558157, "description": "Automatically creates daily log files to record AI agent events, tasks, todos, and provides summaries of daily activity.", "description_zh": "", "downloads": 51, "homepage": "https://clawhub.ai/socneo/auto-log", "iconUrl": null, "installs": 1, "name": "Auto Log", "ownerName": "socneo", "score": 3576.4375876577838, "slug": "auto-log", "source": "clawhub", "stars": 0, "tags": ["journal", "logging", "productivity"], "updated_at": 1776759982642, "version": "1.0.0"}, {"category": "", "created_at": 1774952248066, "description": "Proactively offers gentle, non-judgmental emotional support during local late-night hours without forced positivity or unsolicited advice.", "description_zh": "", "downloads": 51, "homepage": "https://clawhub.ai/codenova58/late-night-companion", "iconUrl": null, "installs": 0, "name": "Late Night Companion", "ownerName": "codenova58", "score": 69863.01369863014, "slug": "late-night-companion", "source": "clawhub", "stars": 0, "tags": null, "updated_at": 1776759982600, "version": "1.0.0"}, {"category": "", "created_at": 1774857907295, "description": "Systematically explore and test a web application to find bugs, UX issues, and other problems. Use when asked to \"dogfood\", \"QA\", \"exploratory test\", \"find i...", "description_zh": "", "downloads": 51, "homepage": "https://clawhub.ai/thedalbee/dogfood", "iconUrl": null, "installs": 2, "name": "Dogfood", "ownerName": "thedalbee", "score": 3711.7903930131006, "slug": "dogfood", "source": "clawhub", "stars": 0, "tags": null, "updated_at": 1776759083637, "version": "1.0.0"}, {"category": "", "created_at": 1774907051761, "description": "Supply Chain Bottleneck Analyzer for Walmart Marketplace sellers. Diagnose cash flow, inventory, WFS costs, and referral fees. Includes comparison with Amazo...", "description_zh": "", "downloads": 51, "homepage": "https://clawhub.ai/phheng/supply-chain-optimization-walmart", "iconUrl": null, "installs": 6, "name": "Supply Chain Optimization Walmart", "ownerName": "phheng", "score": 8688.24531516184, "slug": "supply-chain-optimization-walmart", "source": "clawhub", "stars": 0, "tags": null, "updated_at": 1776750944417, "version": "0.1.0"}, {"category": "", "created_at": 1774902110215, "description": "Comprehensive documentation guide for Golang projects, covering godoc comments, README, CONTRIBUTING, CHANGELOG, Go Playground, Example tests, API docs, and...", "description_zh": "", "downloads": 51, "homepage": "https://clawhub.ai/samber/golang-documentation", "iconUrl": null, "installs": 2, "name": "Golang Documentation", "ownerName": "samber", "score": 51515.15151515151, "slug": "golang-documentation", "source": "clawhub", "stars": 0, "tags": null, "updated_at": 1776743444418, "version": "1.1.1"}, {"category": "", "created_at": 1774904302001, "description": "Guides users through configuring OpenClaw, Nginx, and GitHub Actions to establish a secure, autonomous GitHub integration pipeline.", "description_zh": "", "downloads": 51, "homepage": "https://clawhub.ai/patello/github-webhook-architect", "iconUrl": null, "installs": 12, "name": "Github Webhook Architect", "ownerName": "patello", "score": 51515.15151515151, "slug": "github-webhook-architect", "source": "clawhub", "stars": 0, "tags": null, "updated_at": 1776743383686, "version": "1.0.0"}, {"category": "", "created_at": 1774888071022, "description": "Automatically search for low-competition GitHub bounty tasks (comments < 5) and generate a clean report with details and estimated difficulty.", "description_zh": "", "downloads": 51, "homepage": "https://clawhub.ai/santosparra651-arch/github-bounty-hunter-v2", "iconUrl": null, "installs": 15, "name": "github-bounty-hunter-v2", "ownerName": "santosparra651-arch", "score": 52040.816326530614, "slug": "github-bounty-hunter-v2", "source": "clawhub", "stars": 0, "tags": ["github-bounty-hunter-v2"], "updated_at": 1776742783896, "version": "1.0.0"}, {"category": "", "created_at": 1774922870463, "description": "Design native macOS apps following Apple's Human Interface Guidelines and Liquid Glass design system. Use when building SwiftUI/AppKit macOS apps, validating...", "description_zh": "", "downloads": 51, "homepage": "https://clawhub.ai/soponcd/macos-hig-designer", "iconUrl": null, "installs": 9, "name": "Macos Hig Designer", "ownerName": "soponcd", "score": 51515.15151515151, "slug": "macos-hig-designer", "source": "clawhub", "stars": 0, "tags": null, "updated_at": 1776741944473, "version": "1.0.0"}, {"category": "", "created_at": 1774868589036, "description": "Humanize murine antibody sequences using CDR grafting and framework optimization to reduce immunogenicity while preserving antigen binding. Predicts optimal...", "description_zh": "", "downloads": 51, "homepage": "https://clawhub.ai/aipoch-ai/antibody-humanizer", "iconUrl": null, "installs": 13, "name": "Antibody Humanizer", "ownerName": "aipoch-ai", "score": 54255.31914893616, "slug": "antibody-humanizer", "source": "clawhub", "stars": 0, "tags": null, "updated_at": 1776740684004, "version": "0.1.0"}, {"category": "", "created_at": 1774922668699, "description": "Feishu knowledge base navigation. Activate when user mentions knowledge base, wiki, or wiki links.", "description_zh": "", "downloads": 51, "homepage": "https://clawhub.ai/andy27725/feishu-wiki-andy27725", "iconUrl": null, "installs": 2, "name": "Feishu Wiki Andy27725", "ownerName": "andy27725", "score": 52040.816326530614, "slug": "feishu-wiki-andy27725", "source": "clawhub", "stars": 0, "tags": null, "updated_at": 1776740384045, "version": "1.0.0"}, {"category": "", "created_at": 1774948912121, "description": "A proactive agent that anticipates needs and takes initiative. Monitors environment, suggests actions, and proposes tasks based on context. Perfect for agent...", "description_zh": "", "downloads": 51, "homepage": "https://clawhub.ai/552134926-alt/shiyi-proactive-agent", "iconUrl": null, "installs": 13, "name": "Shiyi Proactive Agent", "ownerName": "552134926-alt", "score": 52577.31958762887, "slug": "shiyi-proactive-agent", "source": "clawhub", "stars": 0, "tags": null, "updated_at": 1776738284212, "version": "1.0.0"}, {"category": "", "created_at": 1774882885031, "description": "Map and analyze customer experience touchpoints. Use for improving satisfaction, loyalty, and customer journey optimization.", "description_zh": "", "downloads": 51, "homepage": "https://clawhub.ai/linuszz/customer-experience", "iconUrl": null, "installs": 3, "name": "Customer Experience", "ownerName": "linuszz", "score": 53125, "slug": "customer-experience", "source": "clawhub", "stars": 0, "tags": null, "updated_at": 1776729944433, "version": "1.0.0"}, {"category": "content-creation", "created_at": 1773959462166, "description": "AI image and video generation service - supports text-to-image, image-to-image, and video generation", "description_zh": "", "downloads": 51, "homepage": "https://clawhub.ai/regalzzz/image-video-generate", "iconUrl": null, "installs": 1, "name": "Aoment Visuals", "ownerName": "regalzzz", "score": 43220.338983050846, "slug": "image-video-generate", "source": "clawhub", "stars": 0, "tags": null, "updated_at": 1776714469573, "version": "1.0.5"}, {"category": "", "created_at": 1774812088883, "description": "Give your AI Agent a face and a heart. Use AI image generation or mood-mapped local sticker assets to let the agent proactively send emotional selfies that v...", "description_zh": "", "downloads": 51, "homepage": "https://clawhub.ai/askkumptenchen/chat-selfie", "iconUrl": null, "installs": 2, "name": "Chat Selfie", "ownerName": "askkumptenchen", "score": 100000, "slug": "chat-selfie", "source": "clawhub", "stars": 0, "tags": null, "updated_at": 1776698984451, "version": "1.0.4"}, {"category": "", "created_at": 1774883032905, "description": "Transform any everyday scene, action, or subject into a fantastical, magical, ritual-rich vertical video using WeryAI Seedance 2.0 only. Use when you need fe...", "description_zh": "", "downloads": 51, "homepage": "https://clawhub.ai/zoucdr/fantasy-transform-video-gen-seedance2-0", "iconUrl": null, "installs": 9, "name": "Fantasy Transform Video Gen Seedance2.0", "ownerName": "zoucdr", "score": 100000, "slug": "fantasy-transform-video-gen-seedance2-0", "source": "clawhub", "stars": 0, "tags": null, "updated_at": 1776697369676, "version": "0.1.0"}, {"category": "developer-tools", "created_at": 1773958778683, "description": "Track vitamin and supplement intake with goals and reminders. Use when logging supplements, setting nutrition goals, reviewing history, or scheduling doses.", "description_zh": "", "downloads": 51, "homepage": "https://clawhub.ai/bytesagain1/vitamin", "iconUrl": null, "installs": 5, "name": "Vitamin", "ownerName": "bytesagain1", "score": 100000, "slug": "vitamin", "source": "clawhub", "stars": 0, "tags": null, "updated_at": 1776697070325, "version": "2.0.1"}, {"category": "", "created_at": 1774948216094, "description": "Open browser and search for keywords. Use when user wants to search online.", "description_zh": "", "downloads": 51, "homepage": "https://clawhub.ai/sldjs/baidu-search-sldjs", "iconUrl": null, "installs": 8, "name": "Baidu Search Sldjs", "ownerName": "sldjs", "score": 100000, "slug": "baidu-search-sldjs", "source": "clawhub", "stars": 0, "tags": null, "updated_at": 1776697070284, "version": "1.0.1"}, {"category": "ai-intelligence", "created_at": 1773959295496, "description": "Export the agent core from supported framework repositories into a small source-only zip for AI migration or cross-framework analysis. Use when the user want...", "description_zh": "", "downloads": 51, "homepage": "https://clawhub.ai/moshiii/agent-core-extractor", "iconUrl": null, "installs": 3, "name": "Agent Core Extractor", "ownerName": "moshiii", "score": 100000, "slug": "agent-core-extractor", "source": "clawhub", "stars": 0, "tags": null, "updated_at": 1776697070256, "version": "1.0.0"}, {"category": "", "created_at": 1774877346584, "description": "Design and plan iOS animations with structured specs covering transitions, micro-interactions, gesture-driven motion, and loading states. Use when the user a...", "description_zh": "", "downloads": 51, "homepage": "https://clawhub.ai/anderskev/ios-animation-design", "iconUrl": null, "installs": 8, "name": "Ios Animation Design", "ownerName": "anderskev", "score": 100000, "slug": "ios-animation-design", "source": "clawhub", "stars": 0, "tags": null, "updated_at": 1776697070225, "version": "1.2.0"}, {"category": "", "created_at": 1774919468186, "description": "Expert guidance for systematic backtesting of trading strategies. Use when developing, testing, stress-testing, or validating quantitative trading strategies...", "description_zh": "", "downloads": 51, "homepage": "https://clawhub.ai/lean-zhouchao/backtest-expert-zc", "iconUrl": null, "installs": 9, "name": "Backtest Expert Zc", "ownerName": "lean-zhouchao", "score": 100000, "slug": "backtest-expert-zc", "source": "clawhub", "stars": 0, "tags": null, "updated_at": 1776697070206, "version": "1.0.0"}, {"category": "", "created_at": 1774870969745, "description": "Search the web using Baidu AI Search Engine (BDSE). Use for live information, documentation, or research topics.", "description_zh": "", "downloads": 51, "homepage": "https://clawhub.ai/15914355527/baidu-search-v2", "iconUrl": null, "installs": 9, "name": "Baidu Search V2", "ownerName": "15914355527", "score": 100000, "slug": "baidu-search-v2", "source": "clawhub", "stars": 0, "tags": null, "updated_at": 1776697070090, "version": "1.0.0"}, {"category": "", "created_at": 1774944466941, "description": "Reference tool for devtools — covers intro, quickstart, patterns and more. Quick lookup for Windows Setup concepts, best practices, and implementation patterns.", "description_zh": "", "downloads": 51, "homepage": "https://clawhub.ai/bytesagain3/windows-setup", "iconUrl": null, "installs": 11, "name": "Windows Setup", "ownerName": "bytesagain3", "score": 100000, "slug": "windows-setup", "source": "clawhub", "stars": 0, "tags": null, "updated_at": 1776697069950, "version": "2.0.3"}, {"category": "", "created_at": 1774910969636, "description": "Perform Optical Character Recognition (OCR) to extract and recognize text from images.", "description_zh": "", "downloads": 51, "homepage": "https://clawhub.ai/fchange/moark-ocr", "iconUrl": null, "installs": 6, "name": "Moark Ocr", "ownerName": "fchange", "score": 100000, "slug": "moark-ocr", "source": "clawhub", "stars": 0, "tags": null, "updated_at": 1776697069941, "version": "1.0.0"}, {"category": "", "created_at": 1774853516414, "description": "Public ClawHub skill for execution-grade CV experiments and evidence capture across Colab, Kaggle, browser automation, and GPU VMs.", "description_zh": "", "downloads": 51, "homepage": "https://clawhub.ai/zack-dev-cm/data-science-cv-repro-lab", "iconUrl": null, "installs": 2, "name": "Agentic CV Repro Lab", "ownerName": "zack-dev-cm", "score": 100000, "slug": "data-science-cv-repro-lab", "source": "clawhub", "stars": 0, "tags": ["agentic-workflows", "colab", "computer-vision", "data-science", "gpu-training", "kaggle", "mlops", "openclaw", "reproducibility"], "updated_at": 1776697069874, "version": "1.7.2"}, {"category": "", "created_at": 1774855750482, "description": "Use this skill when the user wants to convert ebook or document files between formats with Calibre, including EPUB to PDF, Markdown to EPUB, MOBI to EPUB, AZ...", "description_zh": "", "downloads": 51, "homepage": "https://clawhub.ai/shake/calibre-convert", "iconUrl": null, "installs": 9, "name": "calibre-convert", "ownerName": "shake", "score": 100000, "slug": "calibre-convert", "source": "clawhub", "stars": 0, "tags": null, "updated_at": 1776697069814, "version": "1.0.0"}, {"category": "productivity", "created_at": 1773954404280, "description": "Use the ZapYeti API to list debts, track balances, view payoff schedules, log payments, and monitor debt-free progress via api.zapyeti.com. Use when the user...", "description_zh": "", "downloads": 51, "homepage": "https://clawhub.ai/djedi/zapyeti", "iconUrl": null, "installs": 4, "name": "ZapYeti", "ownerName": "djedi", "score": 83606.55737704919, "slug": "zapyeti", "source": "clawhub", "stars": 0, "tags": null, "updated_at": 1776697069726, "version": "1.2.0"}, {"category": "", "created_at": 1774892495051, "description": "This skill should be used when the user asks to \"transcribe audio\", \"transcribe video\", \"convert speech to text\", \"generate subtitles\", \"create captions\", \"i...", "description_zh": "", "downloads": 51, "homepage": "https://clawhub.ai/lgwanai/asr-skills", "iconUrl": null, "installs": 12, "name": "asr-skill", "ownerName": "lgwanai", "score": 65384.61538461538, "slug": "asr-skills", "source": "clawhub", "stars": 0, "tags": null, "updated_at": 1776696955474, "version": "1.0.0"}, {"category": "productivity", "created_at": 1773954458763, "description": "This skill should be used when the user asks to \"book a padel court\", \"find available padel courts\", \"search padel courts near me\", \"reserve a Playtomic cour...", "description_zh": "", "downloads": 50, "homepage": "https://clawhub.ai/philipp-eisen/playtomic", "iconUrl": null, "installs": 3, "name": "Playtomic - Book courts using padel-tui", "ownerName": "philipp-eisen", "score": 86419.75308641975, "slug": "playtomic", "source": "clawhub", "stars": 1, "tags": null, "updated_at": 1776696470100, "version": "1.0.0"}, {"category": "data-analysis", "created_at": 1773958238422, "description": "Extract posts from X (Twitter) timeline or profile pages with engagement metrics, media URLs, and download local copies. Use when asked to scrape, list, or a...", "description_zh": "", "downloads": 50, "homepage": "https://clawhub.ai/zyliu0/x-openclaw", "iconUrl": null, "installs": 1, "name": "xclaw", "ownerName": "zyliu0", "score": 85365.85365853658, "slug": "x-openclaw", "source": "clawhub", "stars": 1, "tags": null, "updated_at": 1776696469602, "version": "1.0.0"}, {"category": "", "created_at": 1774881109371, "description": "Creates immersive digital environments by defining world context, atmosphere, typography, animations, and thematic UI to evoke specific emotions and depth.", "description_zh": "", "downloads": 50, "homepage": "https://clawhub.ai/aa-on-ai/world-build", "iconUrl": null, "installs": 0, "name": "World Build", "ownerName": "aa-on-ai", "score": 2165.4395842356, "slug": "world-build", "source": "clawhub", "stars": 0, "tags": null, "updated_at": 1776764950805, "version": "1.0.0"}]}