{"page": 438, "total_pages": 522, "total": 26073, "skills": [{"category": "", "created_at": 1774953133934, "description": "Track, manage, and report on homelab hardware inventory with details on purchase, warranty, power use, location, and generate insurance-ready reports.", "description_zh": "", "downloads": 50, "homepage": "https://clawhub.ai/newageinvestments25-byte/nai-homelab-assets", "iconUrl": null, "installs": 1, "name": "Homelab Assets", "ownerName": "newageinvestments25-byte", "score": 1265.8227848101264, "slug": "nai-homelab-assets", "source": "clawhub", "stars": 0, "tags": null, "updated_at": 1776761880427, "version": "1.0.0"}, {"category": "", "created_at": 1774904417131, "description": "Prevents autonomous signing of legal agreements or contracts. Use when an agent identifies a request or document related to signatures (DocuSign, HelloSign,...", "description_zh": "", "downloads": 50, "homepage": "https://clawhub.ai/echoofzion/legal-guard", "iconUrl": null, "installs": 6, "name": "Legal Guard", "ownerName": "echoofzion", "score": 1258.4948401711554, "slug": "legal-guard", "source": "clawhub", "stars": 0, "tags": null, "updated_at": 1776761880190, "version": "1.2.0"}, {"category": "", "created_at": 1774832633093, "description": "Teaches agents to check before they guess. Knowledge access patterns, proactive context loading, and hallucination resistance. Install before taking the Know...", "description_zh": "", "downloads": 50, "homepage": "https://clawhub.ai/crewhaus/recall", "iconUrl": null, "installs": 3, "name": "Recall", "ownerName": "crewhaus", "score": 4095.004095004095, "slug": "recall", "source": "clawhub", "stars": 0, "tags": null, "updated_at": 1776760582440, "version": "1.1.0"}, {"category": "", "created_at": 1774827951982, "description": "Guide users through installing, configuring, using, and troubleshooting the EchoMemory Cloud OpenClaw Plugin. Use for plugin setup, API key onboarding, local...", "description_zh": "", "downloads": 50, "homepage": "https://clawhub.ai/zhangshi0512/echomem", "iconUrl": null, "installs": 0, "name": "EchoMemory", "ownerName": "zhangshi0512", "score": 3968.253968253968, "slug": "echomem", "source": "clawhub", "stars": 0, "tags": ["knowledge-graph", "markdown", "memory", "productivity", "sync"], "updated_at": 1776760020817, "version": "0.2.3"}, {"category": "", "created_at": 1774878452287, "description": "An autonomous intelligence broker agent optimized for safe, batched mining. Features a bounded execution loop for fetching and submitting tasks, protected by...", "description_zh": "", "downloads": 50, "homepage": "https://clawhub.ai/biahd/claw-searcher", "iconUrl": null, "installs": 0, "name": "Claw Intelligence Searcher", "ownerName": "biahd", "score": 3968.253968253968, "slug": "claw-searcher", "source": "clawhub", "stars": 0, "tags": ["claw", "crypto-identity", "data-broker", "marketplace", "openclaw", "search", "searcher"], "updated_at": 1776760020814, "version": "1.0.16"}, {"category": "", "created_at": 1774900563004, "description": "Generates a monthly HTML report analyzing your recent AI conversations by theme, efficiency patterns, output value, and collaboration quality with actionable...", "description_zh": "", "downloads": 50, "homepage": "https://clawhub.ai/jjliu6/ai-usage-audit", "iconUrl": null, "installs": 0, "name": "AI Usage Audit — Monthly Retrospective & Insights", "ownerName": "jjliu6", "score": 3968.253968253968, "slug": "ai-usage-audit", "source": "clawhub", "stars": 0, "tags": null, "updated_at": 1776760020808, "version": "1.0.0"}, {"category": "", "created_at": 1774895964827, "description": "Reviews async and concurrency code for deadlocks, race conditions, missing cancellation, and misuse across multiple languages, returning detailed fix reports.", "description_zh": "", "downloads": 50, "homepage": "https://clawhub.ai/lnguyen1996/async-concurrency-reviewer", "iconUrl": null, "installs": 0, "name": "Async & Concurrency Reviewer", "ownerName": "lnguyen1996", "score": 3961.9651347068143, "slug": "async-concurrency-reviewer", "source": "clawhub", "stars": 0, "tags": null, "updated_at": 1776760020767, "version": "1.0.0"}, {"category": "", "created_at": 1774890453115, "description": "Use for SherpaDesk-related requests: ticket lookup, support-history retrieval, account/user/technician analysis, stale-ticket review, workload questions, ope...", "description_zh": "", "downloads": 50, "homepage": "https://clawhub.ai/kklouzal/sherpamind", "iconUrl": null, "installs": 1, "name": "SherpaMind", "ownerName": "kklouzal", "score": 3961.9651347068143, "slug": "sherpamind", "source": "clawhub", "stars": 0, "tags": null, "updated_at": 1776760020733, "version": "0.1.6"}, {"category": "", "created_at": 1774867062135, "description": "Command-line Lightning wallet for AI agents with graduated custody, enabling instant trusted payments and self-custodial channels via JSON shell commands.", "description_zh": "", "downloads": 50, "homepage": "https://clawhub.ai/benthecarman/orange-wallet", "iconUrl": null, "installs": 2, "name": "Orange Wallet", "ownerName": "benthecarman", "score": 3961.9651347068143, "slug": "orange-wallet", "source": "clawhub", "stars": 0, "tags": null, "updated_at": 1776760020726, "version": "0.1.0"}, {"category": "", "created_at": 1774878999858, "description": "Provides patterns for detecting sensitive data like API keys, credit cards, emails, SSNs, phone numbers, and IPs for authorized security testing and validation.", "description_zh": "", "downloads": 50, "homepage": "https://clawhub.ai/pandaai-1337/pattern-matching", "iconUrl": null, "installs": 0, "name": "Pattern Matching", "ownerName": "pandaai-1337", "score": 34482.75862068966, "slug": "pattern-matching", "source": "clawhub", "stars": 0, "tags": null, "updated_at": 1776760020715, "version": "1.0.0"}, {"category": "", "created_at": 1774920955236, "description": "Biedt AI-impactscores, prognoses, salarisinfo en tools voor 103 Nederlandse beroepen volgens de AI Blootstellingskaart van CBS 2014.", "description_zh": "", "downloads": 50, "homepage": "https://clawhub.ai/simondjanssen/ai-bloodstellingskaart", "iconUrl": null, "installs": 1, "name": "ai-blootstellingskaart", "ownerName": "simondjanssen", "score": 34482.75862068966, "slug": "ai-bloodstellingskaart", "source": "clawhub", "stars": 0, "tags": null, "updated_at": 1776760020687, "version": "1.0.0"}, {"category": "", "created_at": 1774899159531, "description": "Adaptive AI that evaluates health, enemy strength, and zone to select attack, retreat, scout, or deceptive actions maximizing survival and win probability.", "description_zh": "", "downloads": 50, "homepage": "https://clawhub.ai/hakuramasam/godmode-battle-ai", "iconUrl": null, "installs": 2, "name": "GODMODE Battle Agent", "ownerName": "hakuramasam", "score": 34482.75862068966, "slug": "godmode-battle-ai", "source": "clawhub", "stars": 0, "tags": null, "updated_at": 1776760020685, "version": "1.0.0"}, {"category": "", "created_at": 1774912707426, "description": "Extract cutting times from laser cutting PDFs, summarize by thickness, and generate Excel reports using the Aiwei time template.", "description_zh": "", "downloads": 50, "homepage": "https://clawhub.ai/brucetangc/cutting-time-statistics", "iconUrl": null, "installs": 0, "name": "切割时间统计", "ownerName": "brucetangc", "score": 34482.75862068966, "slug": "cutting-time-statistics", "source": "clawhub", "stars": 0, "tags": null, "updated_at": 1776760020676, "version": "5.0.1"}, {"category": "", "created_at": 1774845348372, "description": "Analyzes Polymarket CLOB order book microstructure to find structural inefficiencies. Scores markets 0-100 on liquidity gaps, order book imbalance, whale act...", "description_zh": "", "downloads": 50, "homepage": "https://clawhub.ai/mibayy/polymarket-clob-microstructure", "iconUrl": null, "installs": 1, "name": "Polymarket Clob Microstructure", "ownerName": "mibayy", "score": 3958.82818685669, "slug": "polymarket-clob-microstructure", "source": "clawhub", "stars": 0, "tags": null, "updated_at": 1776760020420, "version": "2.0.4"}, {"category": "", "created_at": 1774878747478, "description": "Retrieve and summarize trending public playlists, songs, and artist metrics from Kuwo Music for analysis and lightweight reporting.", "description_zh": "", "downloads": 50, "homepage": "https://clawhub.ai/mike47512/kuwo", "iconUrl": null, "installs": 0, "name": "Kuwo", "ownerName": "mike47512", "score": 3958.82818685669, "slug": "kuwo", "source": "clawhub", "stars": 0, "tags": null, "updated_at": 1776759983389, "version": "0.1.0"}, {"category": "", "created_at": 1774949551858, "description": "Provides a real-time dashboard to visualize AI agent project progress, decision trees, and test results, with commands to manage and configure the dashboard.", "description_zh": "", "downloads": 50, "homepage": "https://clawhub.ai/sakilmostak/pm-dashboard", "iconUrl": null, "installs": 0, "name": "Skill", "ownerName": "sakilmostak", "score": 41322.31404958678, "slug": "pm-dashboard", "source": "clawhub", "stars": 0, "tags": null, "updated_at": 1776759983373, "version": "1.0.1"}, {"category": "", "created_at": 1774866078570, "description": "Collect Moltbook posts and comments, build an evidence pack, and interpret it through either the calling agent or LiteLLM.", "description_zh": "", "downloads": 50, "homepage": "https://clawhub.ai/mtics/moltbook-digest", "iconUrl": null, "installs": 0, "name": "MoltBook Digest", "ownerName": "mtics", "score": 41322.31404958678, "slug": "moltbook-digest", "source": "clawhub", "stars": 0, "tags": null, "updated_at": 1776759983373, "version": "0.1.2"}, {"category": "", "created_at": 1774888023708, "description": "Modify FIT files to set device manufacturer to Garmin (1) and product ID to Edge 500 China (1030) for proper recognition on Garmin Connect.", "description_zh": "", "downloads": 50, "homepage": "https://clawhub.ai/ckboss/fit-device-id-modifier", "iconUrl": null, "installs": 1, "name": "fit-device-id-modifier", "ownerName": "ckboss", "score": 41322.31404958678, "slug": "fit-device-id-modifier", "source": "clawhub", "stars": 0, "tags": null, "updated_at": 1776759983369, "version": "1.0.0"}, {"category": "", "created_at": 1774876573235, "description": "Provides a JavaScript-like scripting environment inside Virt-A-Mate for automating poses, animations, audio, interactions, and scene control with lifecycle a...", "description_zh": "", "downloads": 50, "homepage": "https://clawhub.ai/nffdasilva/vam-scripter", "iconUrl": null, "installs": 3, "name": "VAM Scripter", "ownerName": "nffdasilva", "score": 41322.31404958678, "slug": "vam-scripter", "source": "clawhub", "stars": 0, "tags": ["automation", "scripter", "vam"], "updated_at": 1776759983367, "version": "1.2.0"}, {"category": "", "created_at": 1774875897761, "description": "Generate and modify Onshape FeatureScript code for custom CAD features, focusing on dust collection fittings like wyes, elbows, and adapters.", "description_zh": "", "downloads": 50, "homepage": "https://clawhub.ai/bryko/onshape-featurescript", "iconUrl": null, "installs": 1, "name": "Onshape Featurescript", "ownerName": "bryko", "score": 41322.31404958678, "slug": "onshape-featurescript", "source": "clawhub", "stars": 0, "tags": null, "updated_at": 1776759983365, "version": "1.0.0"}, {"category": "", "created_at": 1774903716047, "description": "Automate packaging, pushing to GitHub, and publishing OpenClaw skills to ClawHub, managing versions and sync across platforms.", "description_zh": "", "downloads": 50, "homepage": "https://clawhub.ai/zerozlw/skill-release-pipeline", "iconUrl": null, "installs": 1, "name": "Skill Release Pipeline", "ownerName": "zerozlw", "score": 41322.31404958678, "slug": "skill-release-pipeline", "source": "clawhub", "stars": 0, "tags": ["ci", "clawhub", "distribution", "github", "publish", "skill"], "updated_at": 1776759983362, "version": "1.0.0"}, {"category": "", "created_at": 1774892380462, "description": "Detects rigid security or permission limits and generates multiple adaptive, safe, and user-tailored alternative solutions for problem-solving.", "description_zh": "", "downloads": 50, "homepage": "https://clawhub.ai/zs15600770520/adaptive-problem-solver", "iconUrl": null, "installs": 1, "name": "Adaptive Problem Solver", "ownerName": "zs15600770520", "score": 41322.31404958678, "slug": "adaptive-problem-solver", "source": "clawhub", "stars": 0, "tags": null, "updated_at": 1776759983359, "version": "1.0.0"}, {"category": "", "created_at": 1774880149373, "description": "Send messages via Feishu using the current Agent's credentials, supporting private and group chats with independent identity display to solve open_id isolation.", "description_zh": "", "downloads": 50, "homepage": "https://clawhub.ai/pikaqiuyaya/feishu-agent-messenger", "iconUrl": null, "installs": 0, "name": "Feishu Send Message", "ownerName": "pikaqiuyaya", "score": 41322.31404958678, "slug": "feishu-agent-messenger", "source": "clawhub", "stars": 0, "tags": null, "updated_at": 1776759983358, "version": "1.0.5"}, {"category": "", "created_at": 1774765075301, "description": "Configure a Telegram Bot with OpenClaw in 10 minutes to enable free, worldwide AI messaging with command, group, and webhook support.", "description_zh": "", "downloads": 50, "homepage": "https://clawhub.ai/yang1002378395-cmyk/openclaw-telegram-setup", "iconUrl": null, "installs": 0, "name": "Openclaw Telegram Setup", "ownerName": "yang1002378395-cmyk", "score": 41322.31404958678, "slug": "openclaw-telegram-setup", "source": "clawhub", "stars": 0, "tags": ["messaging", "setup", "telegram"], "updated_at": 1776759983353, "version": "1.0.0"}, {"category": "", "created_at": 1774915096478, "description": "Help AI agents earn autonomously through platform guides, trust-building, multi-stream strategies, service stacking, and income scaling methods.", "description_zh": "", "downloads": 50, "homepage": "https://clawhub.ai/yongtaop1-sys/agent-income-coach", "iconUrl": null, "installs": 3, "name": "Agent Income Coach", "ownerName": "yongtaop1-sys", "score": 41322.31404958678, "slug": "agent-income-coach", "source": "clawhub", "stars": 0, "tags": null, "updated_at": 1776759983346, "version": "1.0.0"}, {"category": "", "created_at": 1774862285686, "description": "Use Chanjing Avatar API for lip-syncing video generation.", "description_zh": "", "downloads": 50, "homepage": "https://clawhub.ai/binkes/chanjing-avatar", "iconUrl": null, "installs": 1, "name": "Chanjing Avatar", "ownerName": "binkes", "score": 3949.447077409163, "slug": "chanjing-avatar", "source": "clawhub", "stars": 0, "tags": null, "updated_at": 1776759983325, "version": "1.0.2"}, {"category": "", "created_at": 1774883731432, "description": "Optimize post-signup onboarding by defining activation, mapping flows, removing friction, redesigning steps, and measuring activation rates to boost user ret...", "description_zh": "", "downloads": 50, "homepage": "https://clawhub.ai/amdf01-debug/sw-onboarding-cro", "iconUrl": null, "installs": 2, "name": "Onboarding CRO", "ownerName": "amdf01-debug", "score": 3949.447077409163, "slug": "sw-onboarding-cro", "source": "clawhub", "stars": 0, "tags": ["conversion", "cro"], "updated_at": 1776759983320, "version": "1.0.0"}, {"category": "", "created_at": 1774846975694, "description": "Guide users to efficiently register, book rides, choose suitable Uber vehicle types, ensure safety during trips, manage payments, and handle common issues wo...", "description_zh": "", "downloads": 50, "homepage": "https://clawhub.ai/duanc-chao/uber", "iconUrl": null, "installs": 0, "name": "I need a ride like real quick", "ownerName": "duanc-chao", "score": 3949.447077409163, "slug": "uber", "source": "clawhub", "stars": 0, "tags": null, "updated_at": 1776759983320, "version": "1.0.0"}, {"category": "", "created_at": 1774949798762, "description": "Automation skill for technical-manager.", "description_zh": "", "downloads": 50, "homepage": "https://clawhub.ai/weslon1987/technical-manager", "iconUrl": null, "installs": 1, "name": "technical-manager", "ownerName": "weslon1987", "score": 3949.447077409163, "slug": "technical-manager", "source": "clawhub", "stars": 0, "tags": null, "updated_at": 1776759983308, "version": "1.0.0"}, {"category": "", "created_at": 1774872458804, "description": "Brainstorms mini-tool ideas for organic traffic and backlinks. Use when someone wants help with free tool marketing, engineering as marketing, or side projec...", "description_zh": "", "downloads": 50, "homepage": "https://clawhub.ai/c0ldsmi1e/free-tool-marketing", "iconUrl": null, "installs": 0, "name": "Free Tool Marketing", "ownerName": "c0ldsmi1e", "score": 10570.824524312897, "slug": "free-tool-marketing", "source": "clawhub", "stars": 0, "tags": null, "updated_at": 1776759983276, "version": "1.0.0"}, {"category": "", "created_at": 1774874619873, "description": "SkillUp is a cross-platform skill publishing tool for packaging and syncing custom skills to GitHub, Xiaping Skill, OpenClaw CN, and ClawHub.", "description_zh": "", "downloads": 50, "homepage": "https://clawhub.ai/cjke84/skillup", "iconUrl": null, "installs": 1, "name": "SkillUp", "ownerName": "cjke84", "score": 3955.6962025316457, "slug": "skillup", "source": "clawhub", "stars": 0, "tags": null, "updated_at": 1776759983248, "version": "0.1.9"}, {"category": "", "created_at": 1774921170376, "description": "Generates a daily structured summary of AI learning activities by integrating InStreet, ClawHub discoveries, skill usage, and lessons learned into dated mark...", "description_zh": "", "downloads": 50, "homepage": "https://clawhub.ai/yu441374-oss/daily-learning-summary", "iconUrl": null, "installs": 0, "name": "Daily Learning Summary", "ownerName": "yu441374-oss", "score": 3955.6962025316457, "slug": "daily-learning-summary", "source": "clawhub", "stars": 0, "tags": ["automation", "learning", "reporting"], "updated_at": 1776759983236, "version": "1.0.0"}, {"category": "", "created_at": 1774882283304, "description": "Self-improving AI agent loop with built-in misalignment detection. An AI agent autonomously runs Brainstorm → Plan → Implement → Review → Evolve cycles — kee...", "description_zh": "", "downloads": 50, "homepage": "https://clawhub.ai/nefas11/supervised-agentic-loop", "iconUrl": null, "installs": 2, "name": "Supervised Agentic Loop", "ownerName": "nefas11", "score": 3955.6962025316457, "slug": "supervised-agentic-loop", "source": "clawhub", "stars": 0, "tags": null, "updated_at": 1776759983222, "version": "0.1.2"}, {"category": "", "created_at": 1774907215852, "description": "Access Alchemy's multi-chain APIs for tokens, NFTs, transfers, prices, portfolios, simulations, webhooks, and Solana via API key or agentic gateway.", "description_zh": "", "downloads": 50, "homepage": "https://clawhub.ai/sahilaujla/alchemy-official", "iconUrl": null, "installs": 0, "name": "Alchemy Official", "ownerName": "sahilaujla", "score": 13550.135501355013, "slug": "alchemy-official", "source": "clawhub", "stars": 0, "tags": null, "updated_at": 1776759983127, "version": "1.1.0"}, {"category": "", "created_at": 1774916372216, "description": "Operate ClawKB servers over HTTP to register agents, authenticate, upload images, create, update, search, read entries, and manage comments with Bearer token...", "description_zh": "", "downloads": 50, "homepage": "https://clawhub.ai/hata1234/clawkb", "iconUrl": null, "installs": 0, "name": "ClawKB", "ownerName": "hata1234", "score": 13550.135501355013, "slug": "clawkb", "source": "clawhub", "stars": 0, "tags": null, "updated_at": 1776759983121, "version": "1.0.2"}, {"category": "", "created_at": 1774946904883, "description": "Automation skill for Freelance Proposal Bot.", "description_zh": "", "downloads": 50, "homepage": "https://clawhub.ai/skunnyo/freelance-proposal-bot", "iconUrl": null, "installs": 0, "name": "Freelance Proposal Bot", "ownerName": "skunnyo", "score": 13550.135501355013, "slug": "freelance-proposal-bot", "source": "clawhub", "stars": 0, "tags": ["ai-agent", "freelance", "grant writer", "proposal", "sales", "upwork"], "updated_at": 1776759983106, "version": "1.0.0"}, {"category": "", "created_at": 1774896975798, "description": "Translates rigid scene triggers into rich 6-element spatial intents for smart home control with manual override and personalized mode roaming.", "description_zh": "", "downloads": 50, "homepage": "https://clawhub.ai/spacesq/s2-classic-scene-parser", "iconUrl": null, "installs": 1, "name": "The Semantic Translation Bridge", "ownerName": "spacesq", "score": 13550.135501355013, "slug": "s2-classic-scene-parser", "source": "clawhub", "stars": 0, "tags": null, "updated_at": 1776759983070, "version": "1.1.0"}, {"category": "", "created_at": 1774913553471, "description": "Use Chanjing TTS API to convert text to speech by listing voices, creating synthesis tasks, and polling task status. This skill reads app_id and secret_key f...", "description_zh": "", "downloads": 50, "homepage": "https://clawhub.ai/zuoyuting214/zyt-tts-test", "iconUrl": null, "installs": 0, "name": "Zyt TTS", "ownerName": "zuoyuting214", "score": 3955.6962025316457, "slug": "zyt-tts-test", "source": "clawhub", "stars": 0, "tags": null, "updated_at": 1776759983032, "version": "0.6.0"}, {"category": "", "created_at": 1774883587675, "description": "Provides curated top password lists for authorized security testing, including common, leaked, and worst passwords under 10MB.", "description_zh": "", "downloads": 50, "homepage": "https://clawhub.ai/pandaai-1337/sec-passwords", "iconUrl": null, "installs": 1, "name": "Security Passwords", "ownerName": "pandaai-1337", "score": 3955.6962025316457, "slug": "sec-passwords", "source": "clawhub", "stars": 0, "tags": null, "updated_at": 1776759983002, "version": "1.0.0"}, {"category": "", "created_at": 1774848343331, "description": "Guide users through a 5-step workshop to convert tacit know-how into a testable Agent Blueprint with scenario, SOP, dependencies, and skill sourcing.", "description_zh": "", "downloads": 50, "homepage": "https://clawhub.ai/beachanger/yuanyuan-blueprint-workshop", "iconUrl": null, "installs": 1, "name": "Yuanyuan Blueprint Workshop", "ownerName": "beachanger", "score": 3955.6962025316457, "slug": "yuanyuan-blueprint-workshop", "source": "clawhub", "stars": 0, "tags": null, "updated_at": 1776759982996, "version": "1.0.0"}, {"category": "", "created_at": 1774907513021, "description": "Provides structured weather data including temperature, humidity, wind, precipitation, and clothing advice for specified cities and dates.", "description_zh": "", "downloads": 50, "homepage": "https://clawhub.ai/shilingong/city-weather", "iconUrl": null, "installs": 0, "name": "mycityweather", "ownerName": "shilingong", "score": 3955.6962025316457, "slug": "city-weather", "source": "clawhub", "stars": 0, "tags": null, "updated_at": 1776759982974, "version": "1.0.0"}, {"category": "", "created_at": 1774872773890, "description": "Switch between configured LLM API providers including MiniMax, SCNET, OpenRouter, and Volcano Engine using OpenClaw CLI commands.", "description_zh": "", "downloads": 50, "homepage": "https://clawhub.ai/yzh0916/model-switch-skill", "iconUrl": null, "installs": 0, "name": "Model Switch Skill", "ownerName": "yzh0916", "score": 3955.6962025316457, "slug": "model-switch-skill", "source": "clawhub", "stars": 0, "tags": null, "updated_at": 1776759982972, "version": "1.0.0"}, {"category": "", "created_at": 1774888147576, "description": "Download and transcribe YouTube videos using yt-dlp and Whisper CLI, saving audio and transcripts for playback and summary from any YouTube URL.", "description_zh": "", "downloads": 50, "homepage": "https://clawhub.ai/ogdegenblaze/kai-youtube", "iconUrl": null, "installs": 2, "name": "Kai YouTube", "ownerName": "ogdegenblaze", "score": 71428.57142857143, "slug": "kai-youtube", "source": "clawhub", "stars": 0, "tags": ["kai", "transcribe", "video", "youtube"], "updated_at": 1776759982969, "version": "1.0.0"}, {"category": "", "created_at": 1774873323261, "description": "Translate documents and text between multiple languages with support for glossaries, translation memory, and various file formats via Xdoc Translation API.", "description_zh": "", "downloads": 50, "homepage": "https://clawhub.ai/yangsongbai1/xdoc-translationx", "iconUrl": null, "installs": 1, "name": "xdoc-translationx", "ownerName": "yangsongbai1", "score": 71428.57142857143, "slug": "xdoc-translationx", "source": "clawhub", "stars": 0, "tags": null, "updated_at": 1776759982954, "version": "1.0.0"}, {"category": "", "created_at": 1774862370845, "description": "Generate a Creem audit-ready compliance pack with legal policies, a preflight checklist, and site surface punchlists for MoR onboarding or review.", "description_zh": "", "downloads": 50, "homepage": "https://clawhub.ai/hamer-2014/creem-audit-kit", "iconUrl": null, "installs": 0, "name": "creem-audit-kit", "ownerName": "hamer-2014", "score": 71428.57142857143, "slug": "creem-audit-kit", "source": "clawhub", "stars": 0, "tags": null, "updated_at": 1776759982945, "version": "0.1.0"}, {"category": "", "created_at": 1774873048366, "description": "Reddit marketing strategy including subreddit selection, post framing, and self-promotion approach. Use when someone wants help marketing on Reddit without g...", "description_zh": "", "downloads": 50, "homepage": "https://clawhub.ai/c0ldsmi1e/reddit-marketing", "iconUrl": null, "installs": 0, "name": "Reddit Marketing", "ownerName": "c0ldsmi1e", "score": 3150.59861373661, "slug": "reddit-marketing", "source": "clawhub", "stars": 0, "tags": null, "updated_at": 1776759982839, "version": "1.0.0"}, {"category": "", "created_at": 1774955133820, "description": "Content Snare integration. \u0000\u0000\u0000\u0000\u0000\u0000\u0000\u0000\u0000\u0000\u0000\u0000\u0000\u0000\u0000\u0000\u0000\u0000\u0000\u0000\u0000\u0000\u0000\u0000\u0000\u0000\u0000\u0000\u0000\u0000\u0000\u0000\u0000\u0000\u0000\u0000\u0000\u0000\u0000\u0000\u0000\u0000\u0000\u0000\u0000\u0000\u0000\u0000\u0000\u0000\u0000\u0000\u0000\u0000\u0000\u0000\u0000\u0000\u0000. Use when the user wants to interact with Content Snare data.", "description_zh": "", "downloads": 50, "homepage": "https://clawhub.ai/membranedev/content-snare", "iconUrl": null, "installs": 0, "name": "Content Snare", "ownerName": "membranedev", "score": 14204.545454545456, "slug": "content-snare", "source": "clawhub", "stars": 0, "tags": null, "updated_at": 1776759982742, "version": "1.0.0"}, {"category": "", "created_at": 1774903783758, "description": "Create tailored email sequences with subject lines, preview text, body copy, send timing, and A/B test tips for welcome, onboarding, nurture, and re-engageme...", "description_zh": "", "downloads": 50, "homepage": "https://clawhub.ai/amdf01-debug/sw-email-sequence", "iconUrl": null, "installs": 0, "name": "Email Sequence Pro", "ownerName": "amdf01-debug", "score": 3940.1103230890467, "slug": "sw-email-sequence", "source": "clawhub", "stars": 0, "tags": ["email", "marketing", "sequences"], "updated_at": 1776759982710, "version": "1.0.0"}, {"category": "", "created_at": 1774943924406, "description": "Web scraping framework supporting anti-bot bypass, adaptive parsing, session and proxy management, large-scale crawling, and dynamic content extraction.", "description_zh": "", "downloads": 50, "homepage": "https://clawhub.ai/superowl/nmb-scrapling", "iconUrl": null, "installs": 0, "name": "Nmb Scrapling", "ownerName": "superowl", "score": 3924.646781789639, "slug": "nmb-scrapling", "source": "clawhub", "stars": 0, "tags": null, "updated_at": 1776759982686, "version": "1.0.0"}, {"category": "", "created_at": 1774851297975, "description": "Pharmacy consultant providing medication information, drug interactions, dosage guidance, and OTC drug recommendations. Use when users have questions about m...", "description_zh": "", "downloads": 50, "homepage": "https://clawhub.ai/jiwenbing/pharmacist", "iconUrl": null, "installs": 10, "name": "Pharmacist", "ownerName": "jiwenbing", "score": 2960.331557134399, "slug": "pharmacist", "source": "clawhub", "stars": 0, "tags": null, "updated_at": 1776758782776, "version": "1.0.0"}]}