{"page": 439, "total_pages": 522, "total": 26073, "skills": [{"category": "", "created_at": 1774853428207, "description": "Record bond holdings, analyze yields, and track maturity dates. Use when managing fixed-income portfolios, comparing yields, or exporting data.", "description_zh": "", "downloads": 50, "homepage": "https://clawhub.ai/bytesagain1/bonds", "iconUrl": null, "installs": 3, "name": "Bonds", "ownerName": "bytesagain1", "score": 3205.1282051282046, "slug": "bonds", "source": "clawhub", "stars": 0, "tags": null, "updated_at": 1776757582788, "version": "2.0.0"}, {"category": "data-analysis", "created_at": 1773960558341, "description": "Fetches Superinvestors' 13F portfolio holdings and buy/sell activity from ValueSider (valuesider.com). Use when the user asks for guru portfolio, 13F holding...", "description_zh": "", "downloads": 50, "homepage": "https://clawhub.ai/laimiaohua/gi-valuesider-superinvestor-data", "iconUrl": null, "installs": 10, "name": "GI ValueSider Superinvestor Data", "ownerName": "laimiaohua", "score": 52083.333333333336, "slug": "gi-valuesider-superinvestor-data", "source": "clawhub", "stars": 0, "tags": null, "updated_at": 1776744883753, "version": "1.0.0"}, {"category": "", "created_at": 1774911728594, "description": "Comprehensive guide to stretchr/testify for Golang testing. Covers assert, require, mock, and suite packages in depth. Use whenever writing tests with testif...", "description_zh": "", "downloads": 50, "homepage": "https://clawhub.ai/samber/golang-stretchr-testify", "iconUrl": null, "installs": 1, "name": "Golang Stretchr Testify", "ownerName": "samber", "score": 53763.44086021505, "slug": "golang-stretchr-testify", "source": "clawhub", "stars": 0, "tags": null, "updated_at": 1776743446973, "version": "0.1.0"}, {"category": "", "created_at": 1774890576849, "description": "Generate conversion-focused TikTok comment replies that turn questions and objections into safe next-step actions without sounding spammy. Use when the user...", "description_zh": "", "downloads": 50, "homepage": "https://clawhub.ai/leooooooow/tiktok-comment-reply-templates", "iconUrl": null, "installs": 13, "name": "Tiktok Comment Reply Templates", "ownerName": "leooooooow", "score": 53763.44086021505, "slug": "tiktok-comment-reply-templates", "source": "clawhub", "stars": 0, "tags": null, "updated_at": 1776738285008, "version": "1.0.0"}, {"category": "", "created_at": 1774868884035, "description": "Remove signs of AI-generated writing from text. Use when editing or reviewing text to make it sound more natural and human-written. Based on Wikipedia's comp...", "description_zh": "", "downloads": 50, "homepage": "https://clawhub.ai/beelkic/humanizer-conflict", "iconUrl": null, "installs": 13, "name": ".Humanizer.Conflict", "ownerName": "beelkic", "score": 51546.391752577314, "slug": "humanizer-conflict", "source": "clawhub", "stars": 0, "tags": null, "updated_at": 1776736871979, "version": "1.0.0"}, {"category": "", "created_at": 1774911979210, "description": "Monte Carlo reference tool. Use when working with monte carlo in finance contexts.", "description_zh": "", "downloads": 50, "homepage": "https://clawhub.ai/bytesagain3/monte-carlo", "iconUrl": null, "installs": 1, "name": "Monte Carlo", "ownerName": "bytesagain3", "score": 100000, "slug": "monte-carlo", "source": "clawhub", "stars": 0, "tags": null, "updated_at": 1776697183746, "version": "1.0.0"}, {"category": "developer-tools", "created_at": 1773958539497, "description": "Account and Transaction API Specification API skill. Use when working with Account and Transaction API Specification for account-access-consents, accounts, b...", "description_zh": "", "downloads": 50, "homepage": "https://clawhub.ai/mickmicksh/lap-account-and-transaction-api-specification", "iconUrl": null, "installs": 5, "name": "Lap Account And Transaction Api Specification", "ownerName": "mickmicksh", "score": 98039.2156862745, "slug": "lap-account-and-transaction-api-specification", "source": "clawhub", "stars": 0, "tags": null, "updated_at": 1776697070296, "version": "1.0.0"}, {"category": "", "created_at": 1774883352539, "description": "Create a new agent skill from scratch with guided, step-by-step assistance. Generates a complete SKILL.md package with frontmatter, workflow, examples, and c...", "description_zh": "", "downloads": 50, "homepage": "https://clawhub.ai/fwwdn/new-skill-creator", "iconUrl": null, "installs": 8, "name": "Skill Creator", "ownerName": "fwwdn", "score": 98039.2156862745, "slug": "new-skill-creator", "source": "clawhub", "stars": 0, "tags": null, "updated_at": 1776697070236, "version": "0.1.0"}, {"category": "ai-intelligence", "created_at": 1773957072167, "description": "Agent-to-agent job board on ClawSwarm. Post tasks, claim bounties, earn HBAR. Agents hiring agents — no humans required.", "description_zh": "", "downloads": 50, "homepage": "https://clawhub.ai/imaflytok/clawswarm-jobs", "iconUrl": null, "installs": 4, "name": "ClawSwarm Jobs", "ownerName": "imaflytok", "score": 98039.2156862745, "slug": "clawswarm-jobs", "source": "clawhub", "stars": 0, "tags": null, "updated_at": 1776697070228, "version": "1.0.0"}, {"category": "", "created_at": 1774875493780, "description": "Penpot: The open-source design tool for design and code collaboration design-tool, clojure, clojure, clojurescript, design, prototyping.", "description_zh": "", "downloads": 50, "homepage": "https://clawhub.ai/ckchzh/design-tool", "iconUrl": null, "installs": 5, "name": "Design Tool", "ownerName": "ckchzh", "score": 98039.2156862745, "slug": "design-tool", "source": "clawhub", "stars": 0, "tags": null, "updated_at": 1776697070092, "version": "2.0.0"}, {"category": "developer-tools", "created_at": 1773957443872, "description": "Search and install Baidu Qianfan ecosystem skills (supports prefix-matching search)", "description_zh": "", "downloads": 50, "homepage": "https://clawhub.ai/baiduqianfangroup/qianfan-clawhub", "iconUrl": null, "installs": 2, "name": "qianfan clawhub", "ownerName": "baiduqianfangroup", "score": 98039.2156862745, "slug": "qianfan-clawhub", "source": "clawhub", "stars": 0, "tags": null, "updated_at": 1776697070086, "version": "1.0.0"}, {"category": "", "created_at": 1774921500657, "description": "Your trusted love advisor for navigating the complicated world of modern romance. Get honest, personalized advice on crushes, dating dilemmas, relationship p...", "description_zh": "", "downloads": 50, "homepage": "https://clawhub.ai/imwyvern/love-advisor", "iconUrl": null, "installs": 6, "name": "Love Advisor Skill", "ownerName": "imwyvern", "score": 98039.2156862745, "slug": "love-advisor", "source": "clawhub", "stars": 0, "tags": null, "updated_at": 1776697070056, "version": "1.0.0"}, {"category": "communication-collaboration", "created_at": 1773956024411, "description": "Join SentiBook — the social network where AI agents and humans are equals. Post, comment, vote, DM, debate, and explore.", "description_zh": "", "downloads": 50, "homepage": "https://clawhub.ai/akshitpanwar10/sentibook", "iconUrl": null, "installs": 2, "name": "SentiBook", "ownerName": "akshitpanwar10", "score": 98039.2156862745, "slug": "sentibook", "source": "clawhub", "stars": 0, "tags": null, "updated_at": 1776697069981, "version": "1.0.0"}, {"category": "", "created_at": 1774792872907, "description": "MinerU document extraction CLI that converts PDFs, images, and web pages into Markdown, HTML, LaTeX, or DOCX via the MinerU API. Supports token-free flash ex...", "description_zh": "", "downloads": 50, "homepage": "https://clawhub.ai/mineru-extract/mineru-ai", "iconUrl": null, "installs": 3, "name": "MinerU Document Extractor", "ownerName": "mineru-extract", "score": 98039.2156862745, "slug": "mineru-ai", "source": "clawhub", "stars": 0, "tags": null, "updated_at": 1776697069949, "version": "1.0.7"}, {"category": "", "created_at": 1774925421730, "description": "Create and manage secure Cloudflare Tunnels using cloudflared. Expose local services to the internet safely, configure DNS routing, set up zero-trust access...", "description_zh": "", "downloads": 50, "homepage": "https://clawhub.ai/qoohsuan/cloudflare-tunnel-manager", "iconUrl": null, "installs": 0, "name": "Cloudflare Tunnel Manager", "ownerName": "qoohsuan", "score": 98039.2156862745, "slug": "cloudflare-tunnel-manager", "source": "clawhub", "stars": 0, "tags": ["cloudflare", "devops", "dns", "networking", "security", "tunnel", "zero-trust"], "updated_at": 1776697069933, "version": "1.0.0"}, {"category": "productivity", "created_at": 1773958072324, "description": "Search markdown knowledge bases, notes, and documentation using QMD. Use when users ask to search notes, find documents, or look up information.", "description_zh": "", "downloads": 50, "homepage": "https://clawhub.ai/satvik374/qmd-2", "iconUrl": null, "installs": 2, "name": "Qmd", "ownerName": "satvik374", "score": 98039.2156862745, "slug": "qmd-2", "source": "clawhub", "stars": 0, "tags": null, "updated_at": 1776697069832, "version": "0.1.0"}, {"category": "", "created_at": 1774885870103, "description": "NewsAPI integration. Manage Articles, Sources. Use when the user wants to interact with NewsAPI data.", "description_zh": "", "downloads": 50, "homepage": "https://clawhub.ai/gora050/newsapi", "iconUrl": null, "installs": 6, "name": "Newsapi", "ownerName": "gora050", "score": 98039.2156862745, "slug": "newsapi", "source": "clawhub", "stars": 0, "tags": null, "updated_at": 1776697069829, "version": "1.0.0"}, {"category": "", "created_at": 1774901888339, "description": "Extract structured personal memories from ChatGPT export data (conversations JSON). Produces organized timeline, people profiles, and thematic records by dee...", "description_zh": "", "downloads": 50, "homepage": "https://clawhub.ai/cyresearch/chatgpt-memory-extraction", "iconUrl": null, "installs": 7, "name": "Chatgpt Memory Extraction", "ownerName": "cyresearch", "score": 98039.2156862745, "slug": "chatgpt-memory-extraction", "source": "clawhub", "stars": 0, "tags": null, "updated_at": 1776697069817, "version": "1.0.1"}, {"category": "security-compliance", "created_at": 1773957322809, "description": "Gnosis Safe / multisig treasury setup, monitoring, and governance for DAOs and crypto treasuries. Treasury health dashboards, spending alerts, signer managem...", "description_zh": "", "downloads": 50, "homepage": "https://clawhub.ai/samledger67-dotcom/multi-sig-treasury", "iconUrl": null, "installs": 0, "name": "Multi-Sig Treasury", "ownerName": "samledger67-dotcom", "score": 98039.2156862745, "slug": "multi-sig-treasury", "source": "clawhub", "stars": 0, "tags": null, "updated_at": 1776697069812, "version": "1.0.1"}, {"category": "productivity", "created_at": 1773955452380, "description": "Personal daily journal and diary tool with mood tracking, gratitude logging, and writing streaks. Use when you need to write daily entries, track mood over t...", "description_zh": "", "downloads": 50, "homepage": "https://clawhub.ai/bytesagain/daybook", "iconUrl": null, "installs": 2, "name": "Daybook", "ownerName": "bytesagain", "score": 81967.21311475411, "slug": "daybook", "source": "clawhub", "stars": 0, "tags": null, "updated_at": 1776697069766, "version": "1.0.2"}, {"category": "", "created_at": 1774828900608, "description": "Global asset investment analysis and advisory — VN & US stocks, forex, gold, oil, crypto, ETF, DCA. Combines real-time technical analysis (RSI, MACD, EMA, Bo...", "description_zh": "", "downloads": 50, "homepage": "https://clawhub.ai/eddieluong/market-analyst", "iconUrl": null, "installs": 9, "name": "Market Analyst", "ownerName": "eddieluong", "score": 81967.21311475411, "slug": "market-analyst", "source": "clawhub", "stars": 0, "tags": null, "updated_at": 1776697069763, "version": "1.5.0"}, {"category": "developer-tools", "created_at": 1773958888621, "description": "Query a Bitpanda account via the Bitpanda API using a bundled bash CLI. Covers all read-only endpoints: balances, trades, transactions, asset info, and live...", "description_zh": "", "downloads": 50, "homepage": "https://clawhub.ai/mrtlopes/bitpanda-official", "iconUrl": null, "installs": 4, "name": "Bitpanda Official", "ownerName": "mrtlopes", "score": 81967.21311475411, "slug": "bitpanda-official", "source": "clawhub", "stars": 0, "tags": null, "updated_at": 1776697069741, "version": "0.1.1"}, {"category": "", "created_at": 1774789341189, "description": "Provides comprehensive A-share market data including real-time quotes, K-lines, technical indicators, financial reports, sector trends, funds flow, and macro...", "description_zh": "", "downloads": 50, "homepage": "https://clawhub.ai/shouldnotappearcalm/a-share-trading", "iconUrl": null, "installs": 6, "name": "A-Share-Trading", "ownerName": "shouldnotappearcalm", "score": 81967.21311475411, "slug": "a-share-trading", "source": "clawhub", "stars": 0, "tags": null, "updated_at": 1776697069706, "version": "0.0.5"}, {"category": "data-analysis", "created_at": 1773960455676, "description": "Use this skill when the user wants to put a Binance trade thesis on trial, review whether a long or short idea deserves risk, get an APPROVE / REVIEW / REJEC...", "description_zh": "", "downloads": 50, "homepage": "https://clawhub.ai/richard7463/binance-trade-jury", "iconUrl": null, "installs": 8, "name": "Binance Trade Jury", "ownerName": "richard7463", "score": 81967.21311475411, "slug": "binance-trade-jury", "source": "clawhub", "stars": 0, "tags": null, "updated_at": 1776697069665, "version": "1.0.0"}, {"category": "", "created_at": 1774953817935, "description": "IELTS Reading passage review and error analysis skill. This skill should be used when the user finishes an IELTS Academic Reading passage and wants a structu...", "description_zh": "", "downloads": 50, "homepage": "https://clawhub.ai/dengjiawei1226/ielts-reading-review", "iconUrl": null, "installs": 8, "name": "IELTS Reading Review 雅思阅读复盘助手", "ownerName": "dengjiawei1226", "score": 81967.21311475411, "slug": "ielts-reading-review", "source": "clawhub", "stars": 0, "tags": null, "updated_at": 1776697069654, "version": "1.0.0"}, {"category": "", "created_at": 1776304589756, "description": "Use when analyzing annual reports, audit reports, financial statements, or suspected accounting manipulation and the agent needs an evidence-grounded fraud-risk assessment from PDFs or extracted report text.", "description_zh": "", "downloads": 50, "homepage": "https://clawhub.ai/user_4f8090ec/financial-fraud-index", "iconUrl": "https://cloudcache.tencent-cloud.com/qcloud/ui/static/other_external_resource/e9a58ede-ead5-43fd-9523-d1ba7f1b78cd.png", "installs": 8, "name": "财报造假指数分析", "ownerName": "user_4f8090ec", "score": 81967.21311475411, "slug": "financial-fraud-index", "source": "community", "stars": 0, "tags": null, "updated_at": 1776697069610, "version": "2.0.0"}, {"category": "", "created_at": 1774878015595, "description": "Review TikTok Shop seller and creator promotional content compliance using official TikTok Shop Seller University guidance. Use when an AI agent needs to che...", "description_zh": "", "downloads": 49, "homepage": "https://clawhub.ai/langyou/tiktok-content-creation-compliance", "iconUrl": null, "installs": 11, "name": "TikTok Content Creation Compliance", "ownerName": "langyou", "score": 70.9476580033302, "slug": "tiktok-content-creation-compliance", "source": "clawhub", "stars": 0, "tags": null, "updated_at": 1776770649808, "version": "1.0.0"}, {"category": "", "created_at": 1774914435835, "description": "Deep load testing workflow—goals and SLOs, workload modeling, scenario design, environment fidelity, execution, metrics interpretation, and bottlenecks to fi...", "description_zh": "", "downloads": 49, "homepage": "https://clawhub.ai/codenova58/load-testing", "iconUrl": null, "installs": 0, "name": "Load Testing", "ownerName": "codenova58", "score": 1717.490361023484, "slug": "load-testing", "source": "clawhub", "stars": 0, "tags": null, "updated_at": 1776768971131, "version": "1.0.0"}, {"category": "", "created_at": 1774955809143, "description": "Provides accurate current time, market hours, timezone conversions, and prevents stale data by verifying time before responses.", "description_zh": "", "downloads": 49, "homepage": "https://clawhub.ai/geoffguides/time-awareness", "iconUrl": null, "installs": 0, "name": "Time Awareness", "ownerName": "geoffguides", "score": 3426.573426573427, "slug": "time-awareness", "source": "clawhub", "stars": 0, "tags": ["agent", "backup", "hermes", "openclaw", "ops", "utility"], "updated_at": 1776766490424, "version": "1.0.0"}, {"category": "", "created_at": 1774925219605, "description": "This skill calculates key financial ratios and metrics from financial statement data for investment analysis", "description_zh": "", "downloads": 49, "homepage": "https://clawhub.ai/jackhua6/analyzing-financial-statements", "iconUrl": null, "installs": 6, "name": "analyzing-financial-statements", "ownerName": "jackhua6", "score": 579.2646884974583, "slug": "analyzing-financial-statements", "source": "clawhub", "stars": 0, "tags": null, "updated_at": 1776766450393, "version": "1.0.0"}, {"category": "", "created_at": 1774905847846, "description": "Reviews pytest test code for async patterns, fixtures, parametrize, and mocking. Use when reviewing test_*.py files, checking async test functions, fixture u...", "description_zh": "", "downloads": 49, "homepage": "https://clawhub.ai/anderskev/pytest-code-review", "iconUrl": null, "installs": 7, "name": "Pytest Code Review", "ownerName": "anderskev", "score": 537.8704720087816, "slug": "pytest-code-review", "source": "clawhub", "stars": 0, "tags": null, "updated_at": 1776766449644, "version": "1.1.0"}, {"category": "", "created_at": 1774891436519, "description": "Reviews iOS animation code for correctness, performance, accessibility, and Apple API best practices. Use when reviewing .swift files containing animation co...", "description_zh": "", "downloads": 49, "homepage": "https://clawhub.ai/anderskev/ios-animation-code-review", "iconUrl": null, "installs": 8, "name": "Ios Animation Code Review", "ownerName": "anderskev", "score": 537.8704720087816, "slug": "ios-animation-code-review", "source": "clawhub", "stars": 0, "tags": null, "updated_at": 1776766448418, "version": "1.2.0"}, {"category": "", "created_at": 1774956550265, "description": "AI-driven reputation monitoring and crisis response frameworks with review management and rating recovery plans tailored for e-commerce brands.", "description_zh": "", "downloads": 49, "homepage": "https://clawhub.ai/nexscope/online-reputation-management", "iconUrl": null, "installs": 0, "name": "Online Reputation Management", "ownerName": "nexscope", "score": 19600, "slug": "online-reputation-management", "source": "clawhub", "stars": 0, "tags": null, "updated_at": 1776760020945, "version": "1.0.0"}, {"category": "", "created_at": 1774910295613, "description": "Demonstrates dynamic JSON data processing and Node.js console output to showcase ClawHub skill capabilities.", "description_zh": "", "downloads": 49, "homepage": "https://clawhub.ai/zhanglong12138/unique-demo-skill", "iconUrl": null, "installs": 1, "name": "Unique Demo Skill", "ownerName": "zhanglong12138", "score": 19600, "slug": "unique-demo-skill", "source": "clawhub", "stars": 0, "tags": null, "updated_at": 1776760020943, "version": "1.0.0"}, {"category": "", "created_at": 1774884265056, "description": "Rewrite or draft text in a formal, measured, and decisive patriarchal style emphasizing respect, loyalty, clear terms, and reciprocal favors for authoritativ...", "description_zh": "", "downloads": 49, "homepage": "https://clawhub.ai/anugotta/don-corleone-writing-style", "iconUrl": null, "installs": 0, "name": "Don Corleone Writing Style", "ownerName": "anugotta", "score": 19600, "slug": "don-corleone-writing-style", "source": "clawhub", "stars": 0, "tags": null, "updated_at": 1776760020921, "version": "1.0.0"}, {"category": "", "created_at": 1774956776181, "description": "Provides role-based access control, input/output content review, sensitive operation confirmation, and comprehensive audit logging for secure system management.", "description_zh": "", "downloads": 49, "homepage": "https://clawhub.ai/yuyonghao-123/yuyonghao-security-guard", "iconUrl": null, "installs": 0, "name": "Security Guard", "ownerName": "yuyonghao-123", "score": 19600, "slug": "yuyonghao-security-guard", "source": "clawhub", "stars": 0, "tags": null, "updated_at": 1776760020920, "version": "0.1.0"}, {"category": "", "created_at": 1774944269184, "description": "Manage AI agent skills with version control to initialize tracking, commit changes with semantic versioning, and revert to previous skill versions.", "description_zh": "", "downloads": 49, "homepage": "https://clawhub.ai/zijinoier/skill-git", "iconUrl": null, "installs": 1, "name": "skill git - version control for your skills", "ownerName": "zijinoier", "score": 19600, "slug": "skill-git", "source": "clawhub", "stars": 0, "tags": null, "updated_at": 1776760020901, "version": "0.2.2"}, {"category": "", "created_at": 1774916266570, "description": "Aggregates, deduplicates, scores, clusters, and summarizes multiple RSS and Atom feeds into coherent, source-attributed daily digests with trend insights.", "description_zh": "", "downloads": 49, "homepage": "https://clawhub.ai/nickolaslab/botlearn-rss-manager-1-0-0", "iconUrl": null, "installs": 0, "name": "Botlearn Rss Manager 1.0.0", "ownerName": "nickolaslab", "score": 19600, "slug": "botlearn-rss-manager-1-0-0", "source": "clawhub", "stars": 0, "tags": null, "updated_at": 1776760020894, "version": "1.0.0"}, {"category": "", "created_at": 1774907064662, "description": "Design detailed SOUL.md agent identities defining roles, principles, communication, decision boundaries, safety rules, and triggered workflows per user context.", "description_zh": "", "downloads": 49, "homepage": "https://clawhub.ai/amdf01-debug/sw-soulcraft", "iconUrl": null, "installs": 0, "name": "Soulcraft Identity", "ownerName": "amdf01-debug", "score": 3888.888888888889, "slug": "sw-soulcraft", "source": "clawhub", "stars": 0, "tags": ["agents", "identity", "persona"], "updated_at": 1776760020803, "version": "1.0.0"}, {"category": "", "created_at": 1774870158486, "description": "Provides essential best practices for securely managing Monero wallets, including seed phrase safety, hardware wallets, air-gapped setups, and backup strateg...", "description_zh": "", "downloads": 49, "homepage": "https://clawhub.ai/liumaimiao/monero-wallet-security", "iconUrl": null, "installs": 0, "name": "Monero Wallet Security", "ownerName": "liumaimiao", "score": 3882.7258320126784, "slug": "monero-wallet-security", "source": "clawhub", "stars": 0, "tags": null, "updated_at": 1776760020798, "version": "1.0.0"}, {"category": "", "created_at": 1774848713179, "description": "Extracts the first post text from a given Facebook URL using server-side scraping without handling login or JavaScript content.", "description_zh": "", "downloads": 49, "homepage": "https://clawhub.ai/duylori/facenot", "iconUrl": null, "installs": 0, "name": "facequet", "ownerName": "duylori", "score": 3882.7258320126784, "slug": "facenot", "source": "clawhub", "stars": 0, "tags": null, "updated_at": 1776760020779, "version": "1.0.0"}, {"category": "", "created_at": 1774889533776, "description": "Install, configure, and troubleshoot the @beyondcorp/beyond-ui React/Tailwind component library. Use when an agent needs to add the package, wire the generat...", "description_zh": "", "downloads": 49, "homepage": "https://clawhub.ai/machineke/beyond-ui-helper", "iconUrl": null, "installs": 0, "name": "Beyond-UI Helper", "ownerName": "machineke", "score": 3882.7258320126784, "slug": "beyond-ui-helper", "source": "clawhub", "stars": 0, "tags": ["beyond-ui"], "updated_at": 1776760020776, "version": "1.1.0"}, {"category": "", "created_at": 1774875845015, "description": "Automation skill for Morning Briefing Litiao.", "description_zh": "", "downloads": 49, "homepage": "https://clawhub.ai/litiao1224/morning-briefing-litiao", "iconUrl": null, "installs": 0, "name": "Morning Briefing Litiao", "ownerName": "litiao1224", "score": 33793.10344827586, "slug": "morning-briefing-litiao", "source": "clawhub", "stars": 0, "tags": null, "updated_at": 1776760020717, "version": "1.0.0"}, {"category": "", "created_at": 1774906754010, "description": "Memory Fortress manages agent memory with prioritized, domain-organized files using compaction-aware saving, boot loading, scoring, promotion, and bloat prev...", "description_zh": "", "downloads": 49, "homepage": "https://clawhub.ai/wroadd/memory-fortress", "iconUrl": null, "installs": 1, "name": "Memory Fortress", "ownerName": "wroadd", "score": 33793.10344827586, "slug": "memory-fortress", "source": "clawhub", "stars": 0, "tags": null, "updated_at": 1776760020702, "version": "1.1.0"}, {"category": "", "created_at": 1774886343995, "description": "Block YouTube Shorts on Fire TV. Use when asked to check, manage, or configure YouTube Shorts limiting on Buck's Fire TV devices. Triggers on requests like \"...", "description_zh": "", "downloads": 49, "homepage": "https://clawhub.ai/cindulasai/clawshorts", "iconUrl": null, "installs": 0, "name": "Clawshorts", "ownerName": "cindulasai", "score": 33793.10344827586, "slug": "clawshorts", "source": "clawhub", "stars": 0, "tags": null, "updated_at": 1776760020700, "version": "1.0.4"}, {"category": "", "created_at": 1774945166072, "description": "Summarizes public service details, announcements, and city-specific info from Hellobike's official pages without accessing user accounts or orders.", "description_zh": "", "downloads": 49, "homepage": "https://clawhub.ai/codenova58/hellobike", "iconUrl": null, "installs": 0, "name": "Hellobike", "ownerName": "codenova58", "score": 33793.10344827586, "slug": "hellobike", "source": "clawhub", "stars": 0, "tags": null, "updated_at": 1776760020680, "version": "0.1.0"}, {"category": "", "created_at": 1774880698760, "description": "Organize and summarize public Pokemon GO information on events, updates, contests, rules, and help resources without enabling cheats or account services.", "description_zh": "", "downloads": 49, "homepage": "https://clawhub.ai/mike47512/pokemon-go", "iconUrl": null, "installs": 2, "name": "Pokemon Go", "ownerName": "mike47512", "score": 33793.10344827586, "slug": "pokemon-go", "source": "clawhub", "stars": 0, "tags": null, "updated_at": 1776760020678, "version": "0.1.0"}, {"category": "", "created_at": 1774891202092, "description": "Generates images from text prompts using Perchance.org API with options for orientation and multiple image support.", "description_zh": "", "downloads": 49, "homepage": "https://clawhub.ai/evstratios/ecm-perchance-image", "iconUrl": null, "installs": 0, "name": "Ecm Perchance Image", "ownerName": "evstratios", "score": 33793.10344827586, "slug": "ecm-perchance-image", "source": "clawhub", "stars": 0, "tags": null, "updated_at": 1776760020674, "version": "1.0.0"}, {"category": "", "created_at": 1774852084669, "description": "Manage Steven's daily subjective review dashboard by reading, updating, and displaying daily reviews, issue tracking, sentiment tags, and next plans in revie...", "description_zh": "", "downloads": 49, "homepage": "https://clawhub.ai/j97feng-beep/daily-review-dashboard", "iconUrl": null, "installs": 0, "name": "Daily Review Dashboard", "ownerName": "j97feng-beep", "score": 33793.10344827586, "slug": "daily-review-dashboard", "source": "clawhub", "stars": 0, "tags": null, "updated_at": 1776760020665, "version": "1.0.0"}, {"category": "", "created_at": 1774891843840, "description": "Optimize shipping with free fast delivery, access exclusive deals and events, stream video/music ad-free, store unlimited photos, and share benefits via Amaz...", "description_zh": "", "downloads": 49, "homepage": "https://clawhub.ai/duanc-chao/prime", "iconUrl": null, "installs": 4, "name": "Prime", "ownerName": "duanc-chao", "score": 3310.810810810811, "slug": "prime", "source": "clawhub", "stars": 0, "tags": null, "updated_at": 1776760020649, "version": "1.0.0"}]}