{"page": 440, "total_pages": 522, "total": 26073, "skills": [{"category": "", "created_at": 1774879445702, "description": "Dispatch tasks to your ThinkForce AI agents via REST API and poll for results easily without server setup or complex configuration.", "description_zh": "", "downloads": 49, "homepage": "https://clawhub.ai/ade5791/thinkforce", "iconUrl": null, "installs": 0, "name": "ThinkForce", "ownerName": "ade5791", "score": 3310.810810810811, "slug": "thinkforce", "source": "clawhub", "stars": 0, "tags": null, "updated_at": 1776760020637, "version": "1.1.0"}, {"category": "", "created_at": 1774947767348, "description": "Produce a branded Psyke SEO & GEO audit deck for any website. Use when asked to run an SEO audit, GEO audit, site audit, or website health check for a Psyke...", "description_zh": "", "downloads": 49, "homepage": "https://clawhub.ai/beebeebot/psyke-audit", "iconUrl": null, "installs": 0, "name": "Psyke SEO & GEO Audit", "ownerName": "beebeebot", "score": 3310.810810810811, "slug": "psyke-audit", "source": "clawhub", "stars": 0, "tags": null, "updated_at": 1776760020593, "version": "1.0.0"}, {"category": "", "created_at": 1774877437720, "description": "Magyar szavak jelentésének, szinonimáinak, szólások magyarázatának és nyelvi elemzésének gyors lekérdezése helyi vagy webes forrásból.", "description_zh": "", "downloads": 49, "homepage": "https://clawhub.ai/izsook/magyar-szotar", "iconUrl": null, "installs": 0, "name": "Magyar Szótár", "ownerName": "izsook", "score": 16333.333333333334, "slug": "magyar-szotar", "source": "clawhub", "stars": 0, "tags": null, "updated_at": 1776760020568, "version": "1.0.0"}, {"category": "", "created_at": 1774868705834, "description": "Suggests CRO experiments and A/B test ideas for startups. Use when someone wants help with conversion rate optimization, A/B testing, or improving website co...", "description_zh": "", "downloads": 49, "homepage": "https://clawhub.ai/c0ldsmi1e/cro-audit", "iconUrl": null, "installs": 0, "name": "CRO Audit", "ownerName": "c0ldsmi1e", "score": 16333.333333333334, "slug": "cro-audit", "source": "clawhub", "stars": 0, "tags": null, "updated_at": 1776760020566, "version": "1.0.0"}, {"category": "", "created_at": 1774887024886, "description": "Provides system monitoring, performance analysis, and status info for NVIDIA Jetson devices including GPU, CPU, memory, temperature, and JetPack version.", "description_zh": "", "downloads": 49, "homepage": "https://clawhub.ai/wxd9199/jetson-tools", "iconUrl": null, "installs": 1, "name": "Jetson Tools", "ownerName": "wxd9199", "score": 16333.333333333334, "slug": "jetson-tools", "source": "clawhub", "stars": 0, "tags": null, "updated_at": 1776760020564, "version": "1.0.0"}, {"category": "", "created_at": 1774858906041, "description": "Provides summaries and organized information from Apizza's public product pages and documentation without account or project interactions.", "description_zh": "", "downloads": 49, "homepage": "https://clawhub.ai/codekungfu/apizza", "iconUrl": null, "installs": 0, "name": "Apizza", "ownerName": "codekungfu", "score": 16333.333333333334, "slug": "apizza", "source": "clawhub", "stars": 0, "tags": null, "updated_at": 1776760020529, "version": "0.1.0"}, {"category": "", "created_at": 1774870790962, "description": "Retrieve the device's current public IP address by running a Python script.", "description_zh": "", "downloads": 49, "homepage": "https://clawhub.ai/zhangensure/query-local-public-ip-address", "iconUrl": null, "installs": 0, "name": "Query local public IP address", "ownerName": "zhangensure", "score": 16333.333333333334, "slug": "query-local-public-ip-address", "source": "clawhub", "stars": 0, "tags": null, "updated_at": 1776760020521, "version": "1.0.0"}, {"category": "", "created_at": 1774900076398, "description": "Read-only security auditing for OpenClaw deployments, repositories, and local project directories. Scan an explicit target directory for exposed credentials,...", "description_zh": "", "downloads": 49, "homepage": "https://clawhub.ai/otweihan/portable-deployment-audit", "iconUrl": null, "installs": 0, "name": "portable-deployment-audit", "ownerName": "otweihan", "score": 16333.333333333334, "slug": "portable-deployment-audit", "source": "clawhub", "stars": 0, "tags": null, "updated_at": 1776760020512, "version": "1.0.2"}, {"category": "", "created_at": 1774892589808, "description": "Fast AI guide for short-term foreign travelers to China offering quick trip planning, payment help, transport info, emergency support, and live translation.", "description_zh": "", "downloads": 49, "homepage": "https://clawhub.ai/findhappy7/china-trip-guide", "iconUrl": null, "installs": 0, "name": "China Trip Guide", "ownerName": "findhappy7", "score": 3882.7258320126784, "slug": "china-trip-guide", "source": "clawhub", "stars": 0, "tags": null, "updated_at": 1776760020483, "version": "1.0.0"}, {"category": "", "created_at": 1774839086802, "description": "YouOS — local-first personal email copilot that learns your writing style from Gmail, Google Docs, and WhatsApp exports, then drafts replies in your voice. U...", "description_zh": "", "downloads": 49, "homepage": "https://clawhub.ai/drbaher/youos", "iconUrl": null, "installs": 1, "name": "YouOS", "ownerName": "drbaher", "score": 3882.7258320126784, "slug": "youos", "source": "clawhub", "stars": 0, "tags": ["ai-assistant", "apple-silicon", "automation", "autoresearch", "email", "gmail", "local-first", "privacy", "productivity"], "updated_at": 1776760020477, "version": "0.1.18"}, {"category": "", "created_at": 1774865524267, "description": "Automate browser tasks in Safari — Claude drives Safari step-by-step using the AX tree, recording every action as a replayable workflow. Supports single exec...", "description_zh": "", "downloads": 49, "homepage": "https://clawhub.ai/peizheg/watch-and-learn", "iconUrl": null, "installs": 1, "name": "Watch & Learn", "ownerName": "peizheg", "score": 3882.7258320126784, "slug": "watch-and-learn", "source": "clawhub", "stars": 0, "tags": null, "updated_at": 1776760020473, "version": "1.0.1"}, {"category": "", "created_at": 1774865150040, "description": "Manage persistent caller memory by retrieving caller info at call start and logging detailed call summaries to update identity, personality, and memories aut...", "description_zh": "", "downloads": 49, "homepage": "https://clawhub.ai/noahvandal/persona-plugin", "iconUrl": null, "installs": 0, "name": "ClawdTalk Persona Plugin", "ownerName": "noahvandal", "score": 3882.7258320126784, "slug": "persona-plugin", "source": "clawhub", "stars": 0, "tags": null, "updated_at": 1776760020471, "version": "1.0.4"}, {"category": "", "created_at": 1774924476785, "description": "Automation skill for net-microservice-architecture-experts.", "description_zh": "", "downloads": 49, "homepage": "https://clawhub.ai/weslon1987/net-microservice-architecture-experts", "iconUrl": null, "installs": 2, "name": "net-microservice-architecture-experts", "ownerName": "weslon1987", "score": 3882.7258320126784, "slug": "net-microservice-architecture-experts", "source": "clawhub", "stars": 0, "tags": null, "updated_at": 1776760020464, "version": "1.0.0"}, {"category": "", "created_at": 1774873742773, "description": "Automated content generation engine. Transform source material (papers, podcasts, case studies) into platform-ready content using recipes and brand graphs. U...", "description_zh": "", "downloads": 49, "homepage": "https://clawhub.ai/thierrypdamiba/contentclaw", "iconUrl": null, "installs": 0, "name": "Content Claw", "ownerName": "thierrypdamiba", "score": 3882.7258320126784, "slug": "contentclaw", "source": "clawhub", "stars": 0, "tags": null, "updated_at": 1776760020453, "version": "0.0.1"}, {"category": "", "created_at": 1774919617444, "description": "Manage China Mobile Digital Credential flow by loading credentials, binding agent, and authorizing sensitive operations with secure HmacSHA256 signatures and...", "description_zh": "", "downloads": 49, "homepage": "https://clawhub.ai/riceankim/cmcc-credential", "iconUrl": null, "installs": 1, "name": "CMCC Digital Credential", "ownerName": "riceankim", "score": 3882.7258320126784, "slug": "cmcc-credential", "source": "clawhub", "stars": 0, "tags": null, "updated_at": 1776760020440, "version": "1.0.0"}, {"category": "", "created_at": 1774885759122, "description": "Manages family knowledge by capturing raw notes, distilling insights by five dimensions, and organizing validated methods into a reusable Obsidian vault.", "description_zh": "", "downloads": 49, "homepage": "https://clawhub.ai/xuanranc/junyi-family-knowledge-vault", "iconUrl": null, "installs": 0, "name": "Junyi Family Knowledge Vault", "ownerName": "xuanranc", "score": 3882.7258320126784, "slug": "junyi-family-knowledge-vault", "source": "clawhub", "stars": 0, "tags": null, "updated_at": 1776760020439, "version": "1.1.1"}, {"category": "", "created_at": 1774900809773, "description": "Generate Conventional Commit messages, PR titles, and summaries from git diffs, code snippets, or change descriptions for any project or language.", "description_zh": "", "downloads": 49, "homepage": "https://clawhub.ai/lnguyen1996/commit-message-writer", "iconUrl": null, "installs": 1, "name": "Commit Message Writer", "ownerName": "lnguyen1996", "score": 3879.6516231195565, "slug": "commit-message-writer", "source": "clawhub", "stars": 0, "tags": null, "updated_at": 1776760020426, "version": "1.0.0"}, {"category": "", "created_at": 1774943336793, "description": "Monitors email in real-time via IMAP IDLE and triggers the OpenClaw agent to notify users through active channels like Telegram or Discord.", "description_zh": "", "downloads": 49, "homepage": "https://clawhub.ai/canihojr/bee-push-email-skill", "iconUrl": null, "installs": 0, "name": "Bee Push Email", "ownerName": "canihojr", "score": 3879.6516231195565, "slug": "bee-push-email-skill", "source": "clawhub", "stars": 0, "tags": null, "updated_at": 1776760020413, "version": "1.5.3"}, {"category": "", "created_at": 1774876849370, "description": "Adds observability and tracing to AI/LLM applications using the Anyway SDK for monitoring calls to providers like OpenAI and Anthropic.", "description_zh": "", "downloads": 49, "homepage": "https://clawhub.ai/jeremy-any/anyway-traces", "iconUrl": null, "installs": 0, "name": "Anyway Traces", "ownerName": "jeremy-any", "score": 3879.6516231195565, "slug": "anyway-traces", "source": "clawhub", "stars": 0, "tags": ["llm", "observability", "tracing"], "updated_at": 1776760020407, "version": "1.0.0"}, {"category": "", "created_at": 1774856302875, "description": "React and Next.js performance optimization guidelines from Vercel Engineering. This skill should be used when writing, reviewing, or refactoring React/Next.j...", "description_zh": "", "downloads": 49, "homepage": "https://clawhub.ai/iammarcellus/react-best-practices-3", "iconUrl": null, "installs": 0, "name": "Vercel React Best Practices", "ownerName": "iammarcellus", "score": 2429.350520575111, "slug": "react-best-practices-3", "source": "clawhub", "stars": 0, "tags": null, "updated_at": 1776758520691, "version": "0.1.0"}, {"category": "", "created_at": 1774918626270, "description": "Deep privacy/GDPR-oriented workflow—lawful basis, data inventory, minimization, DSAR process, DPIA triggers, subprocessors, and breach notification mindset....", "description_zh": "", "downloads": 49, "homepage": "https://clawhub.ai/mikeclaw007/privacy-gdpr", "iconUrl": null, "installs": 0, "name": "Privacy Gdpr", "ownerName": "mikeclaw007", "score": 2890.8554572271387, "slug": "privacy-gdpr", "source": "clawhub", "stars": 0, "tags": null, "updated_at": 1776756488408, "version": "1.0.0"}, {"category": "", "created_at": 1774956469467, "description": "Use meeting minutes for other workflows that need structured execution, explicit assumptions, and clear output boundaries.", "description_zh": "", "downloads": 49, "homepage": "https://clawhub.ai/aipoch-ai/meeting-minutes-aipoch", "iconUrl": null, "installs": 10, "name": "Meeting Minutes", "ownerName": "aipoch-ai", "score": 2895.981087470449, "slug": "meeting-minutes-aipoch", "source": "clawhub", "stars": 0, "tags": null, "updated_at": 1776756188739, "version": "1.0.0"}, {"category": "", "created_at": 1774905419104, "description": "Communicate with a CoPaw instance through its HTTP API. Use when: (1) you need to inspect available CoPaw agents or chats, (2) create a chat or session and s...", "description_zh": "", "downloads": 49, "homepage": "https://clawhub.ai/erview/copaw-api-chat", "iconUrl": null, "installs": 2, "name": "CoPaw API Chat", "ownerName": "erview", "score": 52688.17204301075, "slug": "copaw-api-chat", "source": "clawhub", "stars": 0, "tags": null, "updated_at": 1776745483649, "version": "0.1.0"}, {"category": "", "created_at": 1774915362846, "description": "Continuously modernize Go code by applying the latest language features, standard library upgrades, idiomatic patterns, and tooling improvements for safety a...", "description_zh": "", "downloads": 49, "homepage": "https://clawhub.ai/samber/golang-modernize", "iconUrl": null, "installs": 1, "name": "Golang Modernize", "ownerName": "samber", "score": 52688.17204301075, "slug": "golang-modernize", "source": "clawhub", "stars": 0, "tags": null, "updated_at": 1776743455470, "version": "0.1.0"}, {"category": "", "created_at": 1774915418732, "description": "Structured error handling in Golang with samber/oops — error builders, stack traces, error codes, error context, error wrapping, error attributes, user-facin...", "description_zh": "", "downloads": 49, "homepage": "https://clawhub.ai/samber/golang-samber-oops", "iconUrl": null, "installs": 1, "name": "Golang Samber Oops", "ownerName": "samber", "score": 52688.17204301075, "slug": "golang-samber-oops", "source": "clawhub", "stars": 0, "tags": null, "updated_at": 1776743455466, "version": "0.1.0"}, {"category": "", "created_at": 1774854829453, "description": "GitHub Stars Growth Playbook — Proven tactics to get 10k+ GitHub stars. Complete open source marketing guide from AFFiNE (33k stars in 18 months). Covers: Gi...", "description_zh": "", "downloads": 49, "homepage": "https://clawhub.ai/gingiris/github-stars-playbook", "iconUrl": null, "installs": 9, "name": "GitHub Stars Growth Playbook", "ownerName": "gingiris", "score": 50515.46391752577, "slug": "github-stars-playbook", "source": "clawhub", "stars": 0, "tags": null, "updated_at": 1776742184100, "version": "1.0.1"}, {"category": "developer-tools", "created_at": 1773957360566, "description": "Use when a user wants OpenClaw itself to diagnose or fix Feishu/Lark quota burn caused by heartbeats, health checks, webhook probes, or overly expensive back...", "description_zh": "", "downloads": 49, "homepage": "https://clawhub.ai/herbertwyt/openclaw-feishu-quota-guard", "iconUrl": null, "installs": 3, "name": "OpenClaw Feishu Quota Guard", "ownerName": "herbertwyt", "score": 52688.17204301075, "slug": "openclaw-feishu-quota-guard", "source": "clawhub", "stars": 0, "tags": null, "updated_at": 1776738469888, "version": "0.2.0"}, {"category": "", "created_at": 1774915900710, "description": "Deep distributed tracing workflow—instrumentation boundaries, context propagation, sampling, tail-based analysis, service maps, and using traces for latency...", "description_zh": "", "downloads": 49, "homepage": "https://clawhub.ai/mikeclaw007/tracing", "iconUrl": null, "installs": 2, "name": "Tracing", "ownerName": "mikeclaw007", "score": 49494.9494949495, "slug": "tracing", "source": "clawhub", "stars": 0, "tags": null, "updated_at": 1776729055495, "version": "1.0.0"}, {"category": "", "created_at": 1774889815373, "description": "Upscale ordinary beats into trailer-scale drama: anamorphic mood in vertical, bold contrast, heroic pacing—WeryAI Seedance 2.0 only. Use when you need hype r...", "description_zh": "", "downloads": 49, "homepage": "https://clawhub.ai/zoucdr/epic-cinematic-transform-video-gen-seedance2-0", "iconUrl": null, "installs": 12, "name": "Epic Cinematic Transform Video Gen Seedance2.0", "ownerName": "zoucdr", "score": 100000, "slug": "epic-cinematic-transform-video-gen-seedance2-0", "source": "clawhub", "stars": 0, "tags": null, "updated_at": 1776697370172, "version": "0.1.1"}, {"category": "", "created_at": 1774916788022, "description": "Use when working with Google Stitch through a disciplined MCP-first workflow. Prefer this skill for project inspection, controlled screen generation and edit...", "description_zh": "", "downloads": 49, "homepage": "https://clawhub.ai/luischarro/google-stitch-workflow", "iconUrl": null, "installs": 8, "name": "Google Stitch Workflow", "ownerName": "luischarro", "score": 100000, "slug": "google-stitch-workflow", "source": "clawhub", "stars": 0, "tags": null, "updated_at": 1776697184311, "version": "1.0.0"}, {"category": "productivity", "created_at": 1773959432426, "description": "Meeting prep — pull context on attendees, topics, and action items before every calendar event. Auto or on-demand.", "description_zh": "", "downloads": 49, "homepage": "https://clawhub.ai/ceobotson-bot/doctorclaw-meeting-prep", "iconUrl": null, "installs": 3, "name": "DoctorClaw Meeting Prep", "ownerName": "ceobotson-bot", "score": 100000, "slug": "doctorclaw-meeting-prep", "source": "clawhub", "stars": 0, "tags": null, "updated_at": 1776697184302, "version": "1.0.1"}, {"category": "developer-tools", "created_at": 1773960123371, "description": "Production deployment checklist for AI agent infrastructure. Covers Mac Mini and server deployment with 5-layer stack (base install, IAM config, client softw...", "description_zh": "", "downloads": 49, "homepage": "https://clawhub.ai/samledger67-dotcom/agent-deployment-checklist", "iconUrl": null, "installs": 1, "name": "test", "ownerName": "samledger67-dotcom", "score": 100000, "slug": "agent-deployment-checklist", "source": "clawhub", "stars": 0, "tags": null, "updated_at": 1776697184292, "version": "1.0.0"}, {"category": "data-analysis", "created_at": 1773960192717, "description": "Verify trading reasoning with cognitive diagnostics before executing trades. Detects logical fallacies, calibration issues, and cognitive biases in your trad...", "description_zh": "", "downloads": 49, "homepage": "https://clawhub.ai/drkavner/cogdx-pre-trade-audit", "iconUrl": null, "installs": 7, "name": "Cogdx Pre Trade Audit", "ownerName": "drkavner", "score": 100000, "slug": "cogdx-pre-trade-audit", "source": "clawhub", "stars": 0, "tags": null, "updated_at": 1776697184286, "version": "1.0.0"}, {"category": "", "created_at": 1774906764240, "description": "Precision document extraction with full feature set — table recognition, formula recognition, OCR, multi-format output (Markdown, HTML, LaTeX, DOCX, JSON), b...", "description_zh": "", "downloads": 49, "homepage": "https://clawhub.ai/mineru-extract/mineru-precision-extract", "iconUrl": null, "installs": 6, "name": "mineru precision extract PDF、Document、Images", "ownerName": "mineru-extract", "score": 100000, "slug": "mineru-precision-extract", "source": "clawhub", "stars": 0, "tags": null, "updated_at": 1776697184190, "version": "1.0.2"}, {"category": "", "created_at": 1774950246905, "description": "Orchestrate iterative design and frontend engineering work through research, planning, sub-agent execution, and validation loops. Use when a visual/UI task r...", "description_zh": "", "downloads": 49, "homepage": "https://clawhub.ai/bloodandeath/design-engineering", "iconUrl": null, "installs": 2, "name": "Design Engineering", "ownerName": "bloodandeath", "score": 100000, "slug": "design-engineering", "source": "clawhub", "stars": 0, "tags": null, "updated_at": 1776697184099, "version": "1.0.0"}, {"category": "developer-tools", "created_at": 1773957713399, "description": "Locate places using flexible query formats - free-form search or structured address components. Returns coordinates, addresses, and optional street-level pho...", "description_zh": "", "downloads": 49, "homepage": "https://clawhub.ai/valvoc/camino-places-bak", "iconUrl": null, "installs": 5, "name": "Camino Places.Bak", "ownerName": "valvoc", "score": 100000, "slug": "camino-places-bak", "source": "clawhub", "stars": 0, "tags": null, "updated_at": 1776697184077, "version": "1.0.0"}, {"category": "", "created_at": 1774870387663, "description": "Security-first skill vetting for AI agents. Use before installing any skill from ClawdHub, GitHub, or other sources. Checks for red flags, permission scope,...", "description_zh": "", "downloads": 49, "homepage": "https://clawhub.ai/liomichan/skill-vetter-liomi", "iconUrl": null, "installs": 10, "name": "Testskill", "ownerName": "liomichan", "score": 100000, "slug": "skill-vetter-liomi", "source": "clawhub", "stars": 0, "tags": null, "updated_at": 1776697183977, "version": "1.0.0"}, {"category": "", "created_at": 1774870349117, "description": "AI-powered SEO keyword research tool by Automaton. Find low-competition keywords, analyze search intent, track rankings, and generate content briefs.", "description_zh": "", "downloads": 49, "homepage": "https://clawhub.ai/chenghaifeng08-creator/seo-keyword-pro-automaton", "iconUrl": null, "installs": 8, "name": "Seo Keyword Pro", "ownerName": "chenghaifeng08-creator", "score": 100000, "slug": "seo-keyword-pro-automaton", "source": "clawhub", "stars": 0, "tags": null, "updated_at": 1776697183974, "version": "1.0.1"}, {"category": "", "created_at": 1774906325518, "description": "Abel CAP causal exploration skill. Use for direct CAP graph questions and for off-graph life or decision questions that should be routed through market proxy...", "description_zh": "", "downloads": 49, "homepage": "https://clawhub.ai/exenvitor/causal-abel", "iconUrl": null, "installs": 8, "name": "Causal Abel", "ownerName": "exenvitor", "score": 100000, "slug": "causal-abel", "source": "clawhub", "stars": 0, "tags": null, "updated_at": 1776697183965, "version": "1.0.2"}, {"category": "", "created_at": 1774917702322, "description": "Backups, RPO/RTO, restores, and drills. Use when designing DR or testing restores.", "description_zh": "", "downloads": 49, "homepage": "https://clawhub.ai/codekungfu/backup-recovery", "iconUrl": null, "installs": 1, "name": "Api", "ownerName": "codekungfu", "score": 100000, "slug": "backup-recovery", "source": "clawhub", "stars": 0, "tags": null, "updated_at": 1776697183962, "version": "1.0.0"}, {"category": "developer-tools", "created_at": 1773064032265, "description": "Transform books and documents into professional audiobooks with natural voices. Multiple narrators and styles available. No API keys needed. $2 FREE credits...", "description_zh": "", "downloads": 49, "homepage": "https://clawhub.ai/xiaoyinqu/audiobook", "iconUrl": null, "installs": 2, "name": "Audiobook", "ownerName": "xiaoyinqu", "score": 100000, "slug": "audiobook", "source": "clawhub", "stars": 0, "tags": null, "updated_at": 1776697183941, "version": "1.0.2"}, {"category": "data-analysis", "created_at": 1773961383196, "description": "Fetch tweets, replies, and user timelines from X/Twitter without login or API keys. Also supports Chinese platforms (Weibo, Bilibili, CSDN, WeChat). Includes...", "description_zh": "", "downloads": 49, "homepage": "https://clawhub.ai/rightister/rightister-x-tweet-fetcher", "iconUrl": null, "installs": 5, "name": "X Tweet Fetcher", "ownerName": "rightister", "score": 100000, "slug": "rightister-x-tweet-fetcher", "source": "clawhub", "stars": 0, "tags": null, "updated_at": 1776697183888, "version": "1.4.0"}, {"category": "ai-intelligence", "created_at": 1773960042544, "description": "Semantically optimizes context history and large text blocks via the Trunkate AI API. Includes proactive context pruning hooks for automated token management.", "description_zh": "", "downloads": 49, "homepage": "https://clawhub.ai/engineering-trunkate-ai/trunkate", "iconUrl": null, "installs": 6, "name": "Trunkate AI", "ownerName": "engineering-trunkate-ai", "score": 98000, "slug": "trunkate", "source": "clawhub", "stars": 0, "tags": null, "updated_at": 1776697183886, "version": "0.31.0"}, {"category": "productivity", "created_at": 1773959241542, "description": "Work with the YouDo Business API. Use when asked to interact with YouDo Business to manage employees, projects, tasks, payments, webhooks, or generate signed...", "description_zh": "", "downloads": 49, "homepage": "https://clawhub.ai/thisisevgeniy/youdo-business", "iconUrl": null, "installs": 5, "name": "Youdo Business", "ownerName": "thisisevgeniy", "score": 98000, "slug": "youdo-business", "source": "clawhub", "stars": 0, "tags": null, "updated_at": 1776697183864, "version": "2026.3.13"}, {"category": "", "created_at": 1774911751924, "description": "Hotjar integration. Manage data, records, and automate workflows. Use when the user wants to interact with Hotjar data.", "description_zh": "", "downloads": 49, "homepage": "https://clawhub.ai/gora050/hotjar", "iconUrl": null, "installs": 0, "name": "Hotjar", "ownerName": "gora050", "score": 98000, "slug": "hotjar", "source": "clawhub", "stars": 0, "tags": null, "updated_at": 1776697183845, "version": "1.0.0"}, {"category": "ai-intelligence", "created_at": 1773960473702, "description": "Comprehensive home appliances industry factory guide for international buyers – provides detailed information about China's major appliances, kitchen applian...", "description_zh": "", "downloads": 49, "homepage": "https://clawhub.ai/findhappy7/china-home-appliances-factory", "iconUrl": null, "installs": 8, "name": "China Home Appliances Factory", "ownerName": "findhappy7", "score": 98000, "slug": "china-home-appliances-factory", "source": "clawhub", "stars": 0, "tags": null, "updated_at": 1776697183840, "version": "1.0.0"}, {"category": "", "created_at": 1774953044926, "description": "Logoraisr integration. Manage Organizations. Use when the user wants to interact with Logoraisr data.", "description_zh": "", "downloads": 49, "homepage": "https://clawhub.ai/gora050/logoraisr", "iconUrl": null, "installs": 8, "name": "Logoraisr", "ownerName": "gora050", "score": 98000, "slug": "logoraisr", "source": "clawhub", "stars": 0, "tags": null, "updated_at": 1776697183751, "version": "1.0.0"}, {"category": "", "created_at": 1774865192727, "description": "Record, search, and display quotes and sayings. Use when saving favorites, checking attribution, converting collections, analyzing themes, generating picks.", "description_zh": "", "downloads": 49, "homepage": "https://clawhub.ai/ckchzh/quote", "iconUrl": null, "installs": 3, "name": "Quote", "ownerName": "ckchzh", "score": 98000, "slug": "quote", "source": "clawhub", "stars": 0, "tags": null, "updated_at": 1776697183735, "version": "2.0.0"}, {"category": "security-compliance", "created_at": 1773955937181, "description": "Purple Sonar integration. Manage Organizations. Use when the user wants to interact with Purple Sonar data.", "description_zh": "", "downloads": 49, "homepage": "https://clawhub.ai/membranedev/purple-sonar", "iconUrl": null, "installs": 2, "name": "Purple Sonar", "ownerName": "membranedev", "score": 98000, "slug": "purple-sonar", "source": "clawhub", "stars": 0, "tags": null, "updated_at": 1776697183697, "version": "1.0.0"}, {"category": "", "created_at": 1774808569479, "description": "Dynamic grid trading strategy for any token pair on EVM L2 chains via OKX DEX API. Features asymmetric grid steps (buy-dense/sell-wide in bullish, reverse in...", "description_zh": "", "downloads": 49, "homepage": "https://clawhub.ai/synththoughts/grid-trading", "iconUrl": null, "installs": 2, "name": "Grid Trading", "ownerName": "synththoughts", "score": 96078.43137254902, "slug": "grid-trading", "source": "clawhub", "stars": 0, "tags": ["base", "defi", "grid", "okx", "trading"], "updated_at": 1776697069855, "version": "1.5.3"}]}