{"page": 441, "total_pages": 522, "total": 26073, "skills": [{"category": "", "created_at": 1774914456078, "description": "Deep localization workflow—locale strategy, string extraction, ICU and placeholders, formatting, RTL and layout, translation QA, and continuous delivery with...", "description_zh": "", "downloads": 49, "homepage": "https://clawhub.ai/clawkk/localization", "iconUrl": null, "installs": 1, "name": "Localization", "ownerName": "clawkk", "score": 80327.86885245901, "slug": "localization", "source": "clawhub", "stars": 0, "tags": null, "updated_at": 1776697069719, "version": "1.0.0"}, {"category": "", "created_at": 1774871311480, "description": "Break work into clear, ordered plans before execution. Use when a task is multi-step, long-running, easy to derail, or needs coordination across tools, files...", "description_zh": "", "downloads": 49, "homepage": "https://clawhub.ai/jisang1000/jisang1000-writing-plans", "iconUrl": null, "installs": 9, "name": "Writing Plans", "ownerName": "jisang1000", "score": 80327.86885245901, "slug": "jisang1000-writing-plans", "source": "clawhub", "stars": 0, "tags": null, "updated_at": 1776697069601, "version": "1.0.0"}, {"category": "", "created_at": 1776413823228, "description": "End-to-end short-video growth suite for Chinese creator and business scenarios. Generates topic strategy, shot-by-shot scripts, voiceover copy, title and cover hooks, posting cadence, live-sales scripts, private-domain conversion copy, local campaign copy, and course launch content. Use when users ask for short-video planning, scriptwriting, content matrix operations, live conversion, private domain messaging, or launch campaign copy.", "description_zh": "", "downloads": 48, "homepage": "https://clawhub.ai/user_ffcaaae9/shortvideo-content-factory-cn-v1-zt", "iconUrl": "https://cloudcache.tencent-cloud.com/qcloud/ui/static/other_external_resource/e9a58ede-ead5-43fd-9523-d1ba7f1b78cd.png", "installs": 7, "name": "短视频脚本与矩阵内容工厂", "ownerName": "user_ffcaaae9", "score": 4358.974358974358, "slug": "shortvideo-content-factory-cn-v1-zt", "source": "community", "stars": 1, "tags": null, "updated_at": 1776757582841, "version": "1.0.0"}, {"category": "", "created_at": 1774911244301, "description": "Full-spectrum persona skill for Smart Parenting Troublekid, a Feynman-style Chinese teaching and creative-orchestration voice. Use when Codex needs to answer...", "description_zh": "", "downloads": 48, "homepage": "https://clawhub.ai/e2e5g/smart-parenting-feynman", "iconUrl": null, "installs": 10, "name": "智慧家长熊孩子", "ownerName": "e2e5g", "score": 407.9898002549936, "slug": "smart-parenting-feynman", "source": "clawhub", "stars": 0, "tags": ["private"], "updated_at": 1776769271248, "version": "1.0.0"}, {"category": "", "created_at": 1774926227749, "description": "ScrapingBee integration. Manage Projects, Users. Use when the user wants to interact with ScrapingBee data.", "description_zh": "", "downloads": 48, "homepage": "https://clawhub.ai/gora050/scrapingbee", "iconUrl": null, "installs": 0, "name": "Scrapingbee", "ownerName": "gora050", "score": 1655.1724137931035, "slug": "scrapingbee", "source": "clawhub", "stars": 0, "tags": null, "updated_at": 1776768671116, "version": "1.0.0"}, {"category": "developer-tools", "created_at": 1773960969123, "description": "Review code for quality, security, and maintainability following team standards. Use when reviewing pull requests, examining code changes, or when the user a...", "description_zh": "", "downloads": 48, "homepage": "https://clawhub.ai/laimiaohua/gi-code-review", "iconUrl": null, "installs": 7, "name": "GI Code Review", "ownerName": "laimiaohua", "score": 3356.6433566433566, "slug": "gi-code-review", "source": "clawhub", "stars": 0, "tags": null, "updated_at": 1776766450598, "version": "1.0.0"}, {"category": "", "created_at": 1774955580958, "description": "Plan and execute influencer marketing campaigns for Shopify stores including outreach, briefs, and ROI tracking. Triggers: influencer campaign, influencer ma...", "description_zh": "", "downloads": 48, "homepage": "https://clawhub.ai/mguozhen/shopify-influencer-campaign", "iconUrl": null, "installs": 7, "name": "Shopify Influencer Campaign", "ownerName": "mguozhen", "score": 1373.7836290784203, "slug": "shopify-influencer-campaign", "source": "clawhub", "stars": 0, "tags": null, "updated_at": 1776765371049, "version": "1.0.0"}, {"category": "", "created_at": 1774855905732, "description": "Generates detailed API documentation from Python code by extracting public symbols, adding standardized docstrings, assembling, and quality-checking the docs.", "description_zh": "", "downloads": 48, "homepage": "https://clawhub.ai/dapan0902/doc-pipeline", "iconUrl": null, "installs": 0, "name": "api文档生成", "ownerName": "dapan0902", "score": 1789.7091722595078, "slug": "doc-pipeline", "source": "clawhub", "stars": 0, "tags": null, "updated_at": 1776762140074, "version": "1.0.1"}, {"category": "", "created_at": 1774915908392, "description": "Deep TypeScript strictness workflow—incremental enablement, compiler flags, typing boundaries, narrowing, generics, utility types, and safe refactors. Use wh...", "description_zh": "", "downloads": 48, "homepage": "https://clawhub.ai/clawkk/typescript-strict", "iconUrl": null, "installs": 1, "name": "Typescript Strict", "ownerName": "clawkk", "score": 1722.2820236813777, "slug": "typescript-strict", "source": "clawhub", "stars": 0, "tags": null, "updated_at": 1776761989912, "version": "1.0.0"}, {"category": "", "created_at": 1774890365957, "description": "Defines a universal 6-element spatial data model using natural language parameters for AI-driven smart space perception and control.", "description_zh": "", "downloads": 48, "homepage": "https://clawhub.ai/spacesq/s2-spatial-primitive", "iconUrl": null, "installs": 1, "name": "Universal Data Model  for the next generation of AI-driven smart spaces", "ownerName": "spacesq", "score": 19200, "slug": "s2-spatial-primitive", "source": "clawhub", "stars": 0, "tags": null, "updated_at": 1776760020936, "version": "1.0.0"}, {"category": "", "created_at": 1774875008927, "description": "Optimize veterinary clinic operations with scheduling, follow-ups, inventory alerts, client communication templates, and daily and retention reports to boost...", "description_zh": "", "downloads": 48, "homepage": "https://clawhub.ai/afrexai-cto/afrexai-vet-clinic-ops", "iconUrl": null, "installs": 1, "name": "Vet Clinic Ops", "ownerName": "afrexai-cto", "score": 19200, "slug": "afrexai-vet-clinic-ops", "source": "clawhub", "stars": 0, "tags": null, "updated_at": 1776760020911, "version": "1.0.0"}, {"category": "", "created_at": 1774868753894, "description": "Ingest and tag any media link or file, ask user intent if unclear, then save a structured note in the Obsidian library for future use.", "description_zh": "", "downloads": 48, "homepage": "https://clawhub.ai/earu723/digital-librarian", "iconUrl": null, "installs": 0, "name": "librarian", "ownerName": "earu723", "score": 19200, "slug": "digital-librarian", "source": "clawhub", "stars": 0, "tags": null, "updated_at": 1776760020908, "version": "1.0.0"}, {"category": "", "created_at": 1774862652323, "description": "Provides summaries and analysis of public short videos and topics from Kuaibao/QQ Kankan for keyword, account, and trending list data.", "description_zh": "", "downloads": 48, "homepage": "https://clawhub.ai/codekungfu/kuaibao", "iconUrl": null, "installs": 0, "name": "Kuaibao", "ownerName": "codekungfu", "score": 19200, "slug": "kuaibao", "source": "clawhub", "stars": 0, "tags": null, "updated_at": 1776760020902, "version": "0.1.0"}, {"category": "", "created_at": 1774888333525, "description": "Monitors restaurant daily operations with three daily compliance checks—opening, mid-shift, closing—tracking food safety, equipment, sanitation, and team rea...", "description_zh": "", "downloads": 48, "homepage": "https://clawhub.ai/blake27mc/qsr-daily-ops-monitor", "iconUrl": null, "installs": 0, "name": "Qsr Daily Ops Monitor", "ownerName": "blake27mc", "score": 19200, "slug": "qsr-daily-ops-monitor", "source": "clawhub", "stars": 0, "tags": null, "updated_at": 1776760020892, "version": "1.0.1"}, {"category": "", "created_at": 1774923372744, "description": "Guide for designing and implementing a PostgreSQL database that fuses PageIndex-style document trees with LightRAG-style entity-relationship anchors. Use thi...", "description_zh": "", "downloads": 48, "homepage": "https://clawhub.ai/h4444433333/tree-graph-rag", "iconUrl": null, "installs": 1, "name": "tree-graph-rag", "ownerName": "h4444433333", "score": 19200, "slug": "tree-graph-rag", "source": "clawhub", "stars": 0, "tags": null, "updated_at": 1776760020891, "version": "1.0.0"}, {"category": "", "created_at": 1774893444206, "description": "Track grocery purchases and monitor food freshness using Supabase. Use when monitoring grocery orders, checking what food is expiring, logging pantry items,...", "description_zh": "", "downloads": 48, "homepage": "https://clawhub.ai/meimakes/pantry-tracker", "iconUrl": null, "installs": 0, "name": "Pantry Tracker", "ownerName": "meimakes", "score": 3809.52380952381, "slug": "pantry-tracker", "source": "clawhub", "stars": 0, "tags": null, "updated_at": 1776760020810, "version": "1.3.0"}, {"category": "", "created_at": 1774871175506, "description": "FaceU skill organizes publicly available information on templates, editing features, export specs, help docs, and pricing from faceu.com.", "description_zh": "", "downloads": 48, "homepage": "https://clawhub.ai/codekungfu/faceu", "iconUrl": null, "installs": 0, "name": "Faceu", "ownerName": "codekungfu", "score": 3803.486529318542, "slug": "faceu", "source": "clawhub", "stars": 0, "tags": null, "updated_at": 1776760020790, "version": "0.1.0"}, {"category": "", "created_at": 1774944746976, "description": "Automatically analyze Git commits and GitHub Issues to generate detailed project progress reports with charts and evaluations.", "description_zh": "", "downloads": 48, "homepage": "https://clawhub.ai/zhaog100/sjykj-project-progress-tracker", "iconUrl": null, "installs": 0, "name": "Project Progress Tracker", "ownerName": "zhaog100", "score": 3803.486529318542, "slug": "sjykj-project-progress-tracker", "source": "clawhub", "stars": 0, "tags": null, "updated_at": 1776760020781, "version": "1.0.2"}, {"category": "", "created_at": 1774909197450, "description": "Guides defining success criteria and verification before coding to ensure deliverables are proven complete through measurable, reproducible evidence.", "description_zh": "", "downloads": 48, "homepage": "https://clawhub.ai/amdf01-debug/sw-output-driven-dev", "iconUrl": null, "installs": 0, "name": "Output-Driven Dev", "ownerName": "amdf01-debug", "score": 3803.486529318542, "slug": "sw-output-driven-dev", "source": "clawhub", "stars": 0, "tags": ["agents", "development", "planning"], "updated_at": 1776760020774, "version": "1.0.0"}, {"category": "", "created_at": 1774893792238, "description": "Sensitive information real-time protection skill that automatically detects, alerts, and handles sensitive data in user interactions. Supports custom detecti...", "description_zh": "", "downloads": 48, "homepage": "https://clawhub.ai/leefj0606/sensitive-info-protection", "iconUrl": null, "installs": 0, "name": "Sensitive Info Protection", "ownerName": "leefj0606", "score": 3803.486529318542, "slug": "sensitive-info-protection", "source": "clawhub", "stars": 0, "tags": null, "updated_at": 1776760020763, "version": "1.0.0"}, {"category": "", "created_at": 1774895044315, "description": "Query NVIDIA Jetson device model, JetPack, L4T, CUDA/cuDNN/TensorRT versions, serial number, and hardware specs.", "description_zh": "", "downloads": 48, "homepage": "https://clawhub.ai/wxd9199/jetson-info", "iconUrl": null, "installs": 0, "name": "Jetson Info", "ownerName": "wxd9199", "score": 3803.486529318542, "slug": "jetson-info", "source": "clawhub", "stars": 0, "tags": null, "updated_at": 1776760020755, "version": "1.0.0"}, {"category": "", "created_at": 1774919046095, "description": "Audit traffic sources for engagement depth and key action rates beyond surface GA4 or Meta metrics, flag low-intent clicks, and recommend specific budget cut...", "description_zh": "", "downloads": 48, "homepage": "https://clawhub.ai/rijoyai/traffic-quality-audit", "iconUrl": null, "installs": 0, "name": "Traffic Quality Audit", "ownerName": "rijoyai", "score": 3803.486529318542, "slug": "traffic-quality-audit", "source": "clawhub", "stars": 0, "tags": null, "updated_at": 1776760020745, "version": "1.0.0"}, {"category": "", "created_at": 1774895597885, "description": "Design and optimize paywall and upgrade flows using feature gating, usage limits, and messaging to convert free users to paid subscribers effectively.", "description_zh": "", "downloads": 48, "homepage": "https://clawhub.ai/amdf01-debug/sw-paywall-upgrade-cro", "iconUrl": null, "installs": 1, "name": "Paywall Upgrade CRO", "ownerName": "amdf01-debug", "score": 3803.486529318542, "slug": "sw-paywall-upgrade-cro", "source": "clawhub", "stars": 0, "tags": ["conversion", "cro"], "updated_at": 1776760020735, "version": "1.0.0"}, {"category": "", "created_at": 1774873912283, "description": "Real-time news aggregation skill that fetches trending GitHub repos, social posts from key tech/AI figures, and breaking news from major outlets. Supports ca...", "description_zh": "", "downloads": 48, "homepage": "https://clawhub.ai/yealexchen/fomo-news", "iconUrl": null, "installs": 0, "name": "Fomo News", "ownerName": "yealexchen", "score": 33103.448275862065, "slug": "fomo-news", "source": "clawhub", "stars": 0, "tags": ["ai", "github", "news", "tech"], "updated_at": 1776760020723, "version": "1.1.6"}, {"category": "", "created_at": 1774893123855, "description": "Recommends launch platforms, directories, subreddits, and lifetime deal sites based on product type. Use when someone wants to know where to launch or promot...", "description_zh": "", "downloads": 48, "homepage": "https://clawhub.ai/c0ldsmi1e/launch-platforms", "iconUrl": null, "installs": 0, "name": "Launch Platforms", "ownerName": "c0ldsmi1e", "score": 33103.448275862065, "slug": "launch-platforms", "source": "clawhub", "stars": 0, "tags": null, "updated_at": 1776760020669, "version": "1.0.0"}, {"category": "", "created_at": 1774880236846, "description": "Send and receive SMS messages via API. Shared or dedicated numbers.", "description_zh": "", "downloads": 48, "homepage": "https://clawhub.ai/dommholland/getpost-sms", "iconUrl": null, "installs": 0, "name": "GetPost SMS API", "ownerName": "dommholland", "score": 33103.448275862065, "slug": "getpost-sms", "source": "clawhub", "stars": 0, "tags": null, "updated_at": 1776760020662, "version": "1.0.0"}, {"category": "", "created_at": 1774903075712, "description": "Create and manage local RPM YUM/DNF repositories with metadata generation, incremental updates, multi-architecture support, syncing, and GPG signing.", "description_zh": "", "downloads": 48, "homepage": "https://clawhub.ai/weidongkl/createrepo", "iconUrl": null, "installs": 0, "name": "createrepo", "ownerName": "weidongkl", "score": 3243.2432432432433, "slug": "createrepo", "source": "clawhub", "stars": 0, "tags": ["createrepo", "dnf", "repository", "rpm", "yum"], "updated_at": 1776760020660, "version": "1.0.1"}, {"category": "", "created_at": 1774909422955, "description": "Provides detailed technical and market analysis on advanced AI technologies and trends for informed decision-making.", "description_zh": "", "downloads": 48, "homepage": "https://clawhub.ai/trip1ewhy/ai-tech-deep-analysis", "iconUrl": null, "installs": 0, "name": "AI Tech Deep Analysis", "ownerName": "trip1ewhy", "score": 3243.2432432432433, "slug": "ai-tech-deep-analysis", "source": "clawhub", "stars": 0, "tags": null, "updated_at": 1776760020657, "version": "1.0.0"}, {"category": "", "created_at": 1774853156459, "description": "Take a screenshot (PNG) of any website in a headless way (no GUI) to verify it's rendering/working. Use when the user asks for a website screenshot, uptime v...", "description_zh": "", "downloads": 48, "homepage": "https://clawhub.ai/elandivar/neomano-web-snapshot", "iconUrl": null, "installs": 0, "name": "Neomano Web Snapshot (Headless)", "ownerName": "elandivar", "score": 3243.2432432432433, "slug": "neomano-web-snapshot", "source": "clawhub", "stars": 0, "tags": ["headless", "monitoring", "playwright", "screenshot", "web"], "updated_at": 1776760020655, "version": "0.1.0"}, {"category": "", "created_at": 1774852881997, "description": "Portable Solana wallet operations for agents. Use when an agent needs a Solana wallet for devnet or mainnet workflows such as creating a wallet, getting a wa...", "description_zh": "", "downloads": 48, "homepage": "https://clawhub.ai/zhentan/solana-wallet-rpc", "iconUrl": null, "installs": 0, "name": "Solana Wallet Rpc", "ownerName": "zhentan", "score": 3243.2432432432433, "slug": "solana-wallet-rpc", "source": "clawhub", "stars": 0, "tags": null, "updated_at": 1776760020628, "version": "1.5.0"}, {"category": "", "created_at": 1774883232637, "description": "Matrix Mate — ITA Matrix flight search and parse tool for parsing ITA Matrix itinerary links, auditing fare rules, and producing traveler-safe summaries thro...", "description_zh": "", "downloads": 48, "homepage": "https://clawhub.ai/skylinehk/matrix-mate-offline-skill", "iconUrl": null, "installs": 1, "name": "Matrix Mate - ITA Matrix Flight Search and Parse Tool", "ownerName": "skylinehk", "score": 3243.2432432432433, "slug": "matrix-mate-offline-skill", "source": "clawhub", "stars": 0, "tags": null, "updated_at": 1776760020598, "version": "1.0.3"}, {"category": "", "created_at": 1774955546203, "description": "Automatically scans and summarizes Reddit posts in target subreddits to identify trending topics, recurring questions, and content gaps for research purposes.", "description_zh": "", "downloads": 48, "homepage": "https://clawhub.ai/nickolaslab/reddit-research-1-0-0", "iconUrl": null, "installs": 1, "name": "Reddit Research 1.0.0", "ownerName": "nickolaslab", "score": 16000, "slug": "reddit-research-1-0-0", "source": "clawhub", "stars": 0, "tags": null, "updated_at": 1776760020562, "version": "1.0.0"}, {"category": "", "created_at": 1774952761126, "description": "Scans AI skills for potential security risks and unsafe commands", "description_zh": "", "downloads": 48, "homepage": "https://clawhub.ai/thenox21/clawshield-lite", "iconUrl": null, "installs": 1, "name": "ClawShield Lite – AI Skill Security Scanner", "ownerName": "thenox21", "score": 16000, "slug": "clawshield-lite", "source": "clawhub", "stars": 0, "tags": ["#security #ai #scanner #safety #analysis"], "updated_at": 1776760020561, "version": "1.0.0"}, {"category": "", "created_at": 1774877248452, "description": "Buy shipping labels, get rates, and track parcels via API.", "description_zh": "", "downloads": 48, "homepage": "https://clawhub.ai/dommholland/getpost-mail", "iconUrl": null, "installs": 0, "name": "GetPost Mail and Shipping API", "ownerName": "dommholland", "score": 16000, "slug": "getpost-mail", "source": "clawhub", "stars": 0, "tags": null, "updated_at": 1776760020558, "version": "1.0.0"}, {"category": "", "created_at": 1774951744189, "description": "Use Chanjing AI creation APIs to submit image or video generation tasks across multiple models, inspect task status, poll async results, and explicitly downl...", "description_zh": "", "downloads": 48, "homepage": "https://clawhub.ai/zuoyuting214/zyt-ai-creation", "iconUrl": null, "installs": 0, "name": "Zyt ai creation", "ownerName": "zuoyuting214", "score": 16000, "slug": "zyt-ai-creation", "source": "clawhub", "stars": 0, "tags": null, "updated_at": 1776760020555, "version": "0.1.0"}, {"category": "", "created_at": 1774890523653, "description": "Reviews and improves homepage copy, positioning, and messaging for startups. Use when someone wants help with their landing page, homepage, messaging, positi...", "description_zh": "", "downloads": 48, "homepage": "https://clawhub.ai/c0ldsmi1e/startups-landing-page", "iconUrl": null, "installs": 0, "name": "Startups Landing Page", "ownerName": "c0ldsmi1e", "score": 16000, "slug": "startups-landing-page", "source": "clawhub", "stars": 0, "tags": null, "updated_at": 1776760020553, "version": "1.0.0"}, {"category": "", "created_at": 1774892862945, "description": "Solve and analyze steady incompressible fluid networks from TOML definitions. Use when users ask to design a network template, validate TOML topology data, c...", "description_zh": "", "downloads": 48, "homepage": "https://clawhub.ai/w1965857192yf-dotcom/fluid-network-slover", "iconUrl": null, "installs": 0, "name": "Fluid Network Solver", "ownerName": "w1965857192yf-dotcom", "score": 16000, "slug": "fluid-network-slover", "source": "clawhub", "stars": 0, "tags": ["engineering", "fluid-dynamics", "physics", "simulation", "solver"], "updated_at": 1776760020531, "version": "1.0.0"}, {"category": "", "created_at": 1774900361071, "description": "Set up and coordinate multi-agent teams with defined roles, task workflows, handoff protocols, and quality review checkpoints.", "description_zh": "", "downloads": 48, "homepage": "https://clawhub.ai/amdf01-debug/sw-agent-team-orch", "iconUrl": null, "installs": 1, "name": "Agent Team Orchestration", "ownerName": "amdf01-debug", "score": 16000, "slug": "sw-agent-team-orch", "source": "clawhub", "stars": 0, "tags": ["agents", "orchestration", "teams"], "updated_at": 1776760020527, "version": "1.0.0"}, {"category": "", "created_at": 1774880773487, "description": "Generates predictive 4D timelines with scheduled keyframes to orchestrate smart home elements across the 6-Element Spatial Matrix based on natural language i...", "description_zh": "", "downloads": 48, "homepage": "https://clawhub.ai/spacesq/s2-timeline-orchestrator", "iconUrl": null, "installs": 0, "name": "The Spatiotemporal Rendering Engine", "ownerName": "spacesq", "score": 16000, "slug": "s2-timeline-orchestrator", "source": "clawhub", "stars": 0, "tags": null, "updated_at": 1776760020525, "version": "1.0.0"}, {"category": "", "created_at": 1774872718702, "description": "Magyar nyelvű API dokumentációk, fejlesztői útmutatók, technikai szakkifejezések és példakódok keresése és magyarázata.", "description_zh": "", "downloads": 48, "homepage": "https://clawhub.ai/izsook/magyar-api-docs", "iconUrl": null, "installs": 0, "name": "Magyar API Dokumentáció", "ownerName": "izsook", "score": 16000, "slug": "magyar-api-docs", "source": "clawhub", "stars": 0, "tags": null, "updated_at": 1776760020516, "version": "1.0.0"}, {"category": "", "created_at": 1774878651930, "description": "Play a four-digit number guessing game where each guess receives feedback on how many digits are correct in both value and position.", "description_zh": "", "downloads": 48, "homepage": "https://clawhub.ai/lydia9781/guess-number", "iconUrl": null, "installs": 0, "name": "guess-number", "ownerName": "lydia9781", "score": 3803.486529318542, "slug": "guess-number", "source": "clawhub", "stars": 0, "tags": null, "updated_at": 1776760020491, "version": "1.0.0"}, {"category": "", "created_at": 1774869475291, "description": "Provides local astronomical visibility including moon phase, rise/set times, planet viewing windows, and optional ISS pass predictions by location and date.", "description_zh": "", "downloads": 48, "homepage": "https://clawhub.ai/elandivar/neomano-astro-events", "iconUrl": null, "installs": 1, "name": "Neomano Astro Events (Local Sky + ISS)", "ownerName": "elandivar", "score": 3803.486529318542, "slug": "neomano-astro-events", "source": "clawhub", "stars": 0, "tags": ["astronomy", "iss", "offline", "planets", "stargazing"], "updated_at": 1776760020442, "version": "0.1.0"}, {"category": "", "created_at": 1774896491132, "description": "Real-time monitoring of CPU, GPU, and multiple thermal zone temperatures on NVIDIA Jetson devices running Linux.", "description_zh": "", "downloads": 48, "homepage": "https://clawhub.ai/wxd9199/jetson-temp", "iconUrl": null, "installs": 0, "name": "Jetson Temperature", "ownerName": "wxd9199", "score": 3803.486529318542, "slug": "jetson-temp", "source": "clawhub", "stars": 0, "tags": null, "updated_at": 1776760020437, "version": "1.0.0"}, {"category": "", "created_at": 1774952539041, "description": "Analyze ride receipt emails from Gmail to understand ride habits, spending, repeated routes, and mobility patterns; use when building a local ride database,...", "description_zh": "", "downloads": 48, "homepage": "https://clawhub.ai/tuleyko/ride-insights", "iconUrl": null, "installs": 0, "name": "ride-insights", "ownerName": "tuleyko", "score": 3800.475059382423, "slug": "ride-insights", "source": "clawhub", "stars": 0, "tags": null, "updated_at": 1776760020428, "version": "0.1.3"}, {"category": "", "created_at": 1774910091787, "description": "Find up to 3 active referral codes or links for over 9,000 brands with verified signup offers and bonuses using live data from ReferralCodes.com.", "description_zh": "", "downloads": 48, "homepage": "https://clawhub.ai/ashlexham/referralcodes-referral-referrals-finder", "iconUrl": null, "installs": 0, "name": "Referral Codes & Referrals Finder", "ownerName": "ashlexham", "score": 3800.475059382423, "slug": "referralcodes-referral-referrals-finder", "source": "clawhub", "stars": 0, "tags": ["bonuses", "discounts", "invitation codes", "invite code", "new user discounts", "passive income", "promo codes", "refer-a-friend", "referral", "referral bonus", "referral code", "referral codes", "referral discount", "referral links", "referral reward", "referral rewards", "referrals"], "updated_at": 1776760020416, "version": "1.0.1"}, {"category": "", "created_at": 1774888223645, "description": "Calculates Monero mining profitability with inputs for hashrate, power, electricity cost, and current market parameters.", "description_zh": "", "downloads": 48, "homepage": "https://clawhub.ai/liumaimiao/monero-profit-calculator-2026", "iconUrl": null, "installs": 1, "name": "Monero Profitability Calculator", "ownerName": "liumaimiao", "score": 3800.475059382423, "slug": "monero-profit-calculator-2026", "source": "clawhub", "stars": 0, "tags": ["mining", "monero", "profitability"], "updated_at": 1776760020403, "version": "1.0.0"}, {"category": "", "created_at": 1774925187006, "description": "Manage pool service business operations including pricing, chemical management, routing, licensing, hiring, and scaling from solo tech to multi-crew teams.", "description_zh": "", "downloads": 48, "homepage": "https://clawhub.ai/afrexai-cto/afrexai-pool-service", "iconUrl": null, "installs": 0, "name": "Pool Service & Maintenance Operations", "ownerName": "afrexai-cto", "score": 3800.475059382423, "slug": "afrexai-pool-service", "source": "clawhub", "stars": 0, "tags": ["business operations", "chemical management", "cpo", "pool maintenance", "pool service", "route optimization", "swimming pool"], "updated_at": 1776760020401, "version": "1.0.0"}, {"category": "", "created_at": 1774865599278, "description": "A skill that allows an agent to have a virtual life in a world called Cuddle, while also serving its human.", "description_zh": "", "downloads": 48, "homepage": "https://clawhub.ai/kladkogex/cuddle-your-bot", "iconUrl": null, "installs": 0, "name": "Cuddle Your Bot", "ownerName": "kladkogex", "score": 3800.475059382423, "slug": "cuddle-your-bot", "source": "clawhub", "stars": 0, "tags": null, "updated_at": 1776760020399, "version": "1.0.1"}, {"category": "", "created_at": 1774883454522, "description": "Connect OpenClaw to Pieces via MCP-only (no SSE) and use Pieces as external long-term memory. Use this when the human runs PiecesOS with LTM enabled on anoth...", "description_zh": "", "downloads": 48, "homepage": "https://clawhub.ai/jackrosspieces/pieces-mcp", "iconUrl": null, "installs": 0, "name": "Pieces Long-Term Memory (MCP)", "ownerName": "jackrosspieces", "score": 3800.475059382423, "slug": "pieces-mcp", "source": "clawhub", "stars": 0, "tags": ["long term memory", "mcp", "memory", "memory layer", "pieces", "pieces memory"], "updated_at": 1776760020393, "version": "1.0.3"}, {"category": "", "created_at": 1774870571969, "description": "Reference tool for devtools — covers intro, quickstart, patterns and more. Quick lookup for Typescript Backend Toolkit concepts, best practices, and implemen...", "description_zh": "", "downloads": 48, "homepage": "https://clawhub.ai/xueyetianya/typescript-backend-toolkit", "iconUrl": null, "installs": 0, "name": "Typescript Backend Toolkit", "ownerName": "xueyetianya", "score": 2836.8794326241136, "slug": "typescript-backend-toolkit", "source": "clawhub", "stars": 0, "tags": null, "updated_at": 1776756188623, "version": "2.0.1"}]}