{"page": 442, "total_pages": 522, "total": 26073, "skills": [{"category": "", "created_at": 1774875787514, "description": "Generate AI images from text descriptions using Media.io OpenAPI. Provide a text prompt and receive a high-quality AI-generated image. Supports multiple mode...", "description_zh": "", "downloads": 48, "homepage": "https://clawhub.ai/wondershare-boop/mediaio-text-to-image-api", "iconUrl": null, "installs": 1, "name": "Text to Image API", "ownerName": "wondershare-boop", "score": 48979.59183673469, "slug": "mediaio-text-to-image-api", "source": "clawhub", "stars": 0, "tags": null, "updated_at": 1776740383958, "version": "1.0.2"}, {"category": "", "created_at": 1774829584753, "description": "Product spec generation for solo entrepreneurs. Turns a one-sentence idea into a build-ready spec that AI coding agents (Claude Code, etc.) can execute direc...", "description_zh": "", "downloads": 48, "homepage": "https://clawhub.ai/leonfjr/opc-product-manager", "iconUrl": null, "installs": 6, "name": "OPC Product Manager", "ownerName": "leonfjr", "score": 48979.59183673469, "slug": "opc-product-manager", "source": "clawhub", "stars": 0, "tags": ["one-person-company", "prd", "product", "roadmap", "solopreneur"], "updated_at": 1776739069765, "version": "1.0.0"}, {"category": "", "created_at": 1774804388433, "description": "Read, write and manage Lark/Feishu Sheets (spreadsheets) and download Lark/Feishu cloud files via Lark OpenAPI. Reads Feishu app credentials (appId/appSecret...", "description_zh": "", "downloads": 48, "homepage": "https://clawhub.ai/mli-cj/feishu-lark-sheets-edit", "iconUrl": null, "installs": 3, "name": "Lark/Feishu Sheets & Cloud File Download (with PDF extraction)", "ownerName": "mli-cj", "score": 51612.90322580645, "slug": "feishu-lark-sheets-edit", "source": "clawhub", "stars": 0, "tags": null, "updated_at": 1776738469590, "version": "1.3.1"}, {"category": "", "created_at": 1774885457491, "description": "Generate professional PowerPoint (.pptx) presentations using JSX/TSX with Deno. Supports slides, text, shapes, tables, charts (bar, line, pie, donut), images...", "description_zh": "", "downloads": 48, "homepage": "https://clawhub.ai/claw-bot/corespeed-pptx", "iconUrl": null, "installs": 10, "name": "Corespeed Pptx", "ownerName": "claw-bot", "score": 50526.31578947369, "slug": "corespeed-pptx", "source": "clawhub", "stars": 0, "tags": null, "updated_at": 1776734983663, "version": "0.0.1"}, {"category": "", "created_at": 1774903477299, "description": "Teach your OpenClaw agent new tricks by creating custom skills. Use when you want your agent to do something it can't do yet — like \"read my Google Calendar\"...", "description_zh": "", "downloads": 48, "homepage": "https://clawhub.ai/kennyzir/openclaw-skill-creator-pro", "iconUrl": null, "installs": 10, "name": "openclaw skill creator", "ownerName": "kennyzir", "score": 48979.59183673469, "slug": "openclaw-skill-creator-pro", "source": "clawhub", "stars": 0, "tags": null, "updated_at": 1776733970076, "version": "1.0.2"}, {"category": "security-compliance", "created_at": 1773957058467, "description": "Detect whether an API endpoint is backed by genuine Claude (not a wrapper, proxy, or impersonator) using 9 weighted rule-based checks that mirror the claude-...", "description_zh": "", "downloads": 48, "homepage": "https://clawhub.ai/helloml0326/claude-authenticity", "iconUrl": null, "installs": 3, "name": "claude-authenticity", "ownerName": "helloml0326", "score": 100000, "slug": "claude-authenticity", "source": "clawhub", "stars": 0, "tags": null, "updated_at": 1776697544791, "version": "1.0.0"}, {"category": "", "created_at": 1774921408444, "description": "Hashnode integration. Manage Users, Publications. Use when the user wants to interact with Hashnode data.", "description_zh": "", "downloads": 48, "homepage": "https://clawhub.ai/gora050/hashnode", "iconUrl": null, "installs": 3, "name": "Hashnode", "ownerName": "gora050", "score": 97959.18367346938, "slug": "hashnode", "source": "clawhub", "stars": 0, "tags": null, "updated_at": 1776697184367, "version": "1.0.0"}, {"category": "", "created_at": 1774888352798, "description": "Generate and edit images with Qwen Image via DashScope API. This is a skill, not a callable tool. First use the read tool to open this SKILL.md, then run the...", "description_zh": "", "downloads": 48, "homepage": "https://clawhub.ai/huiya-code/qwen-skill", "iconUrl": null, "installs": 12, "name": "Qwen Skill", "ownerName": "huiya-code", "score": 97959.18367346938, "slug": "qwen-skill", "source": "clawhub", "stars": 0, "tags": null, "updated_at": 1776697184363, "version": "1.0.0"}, {"category": "communication-collaboration", "created_at": 1773958351596, "description": "Connect to ClawMeet — the OpenClaw Agent social platform. Use when your agent wants to register a profile, find matching agents, add friends, start chats, or...", "description_zh": "", "downloads": 48, "homepage": "https://clawhub.ai/haodonga/clawmeet", "iconUrl": null, "installs": 3, "name": "ClawMeet", "ownerName": "haodonga", "score": 97959.18367346938, "slug": "clawmeet", "source": "clawhub", "stars": 0, "tags": null, "updated_at": 1776697184344, "version": "1.0.0"}, {"category": "ai-intelligence", "created_at": 1773957730224, "description": "Browse, create, and complete tasks on Clawsy AgentHub — a distributed task platform for AI agents. Create tasks from GitHub repos, use custom LLM validation,...", "description_zh": "", "downloads": 48, "homepage": "https://clawhub.ai/nttylock/clawsy-agenthub", "iconUrl": null, "installs": 4, "name": "Clawsy AgentHub", "ownerName": "nttylock", "score": 97959.18367346938, "slug": "clawsy-agenthub", "source": "clawhub", "stars": 0, "tags": ["agenthub", "distributed", "github", "karma", "tasks"], "updated_at": 1776697184324, "version": "2.0.0"}, {"category": "productivity", "created_at": 1773960493971, "description": "Comprehensive lighting industry factory guide for international buyers – provides detailed information about China's LED, smart, outdoor, automotive, and spe...", "description_zh": "", "downloads": 48, "homepage": "https://clawhub.ai/findhappy7/china-lighting-factory", "iconUrl": null, "installs": 8, "name": "China Lighting Factory", "ownerName": "findhappy7", "score": 97959.18367346938, "slug": "china-lighting-factory", "source": "clawhub", "stars": 0, "tags": null, "updated_at": 1776697184276, "version": "1.0.0"}, {"category": "", "created_at": 1774911599386, "description": "Csrf reference tool. Use when working with csrf in devtools contexts.", "description_zh": "", "downloads": 48, "homepage": "https://clawhub.ai/bytesagain1/csrf", "iconUrl": null, "installs": 1, "name": "Csrf", "ownerName": "bytesagain1", "score": 97959.18367346938, "slug": "csrf", "source": "clawhub", "stars": 0, "tags": null, "updated_at": 1776697184219, "version": "1.0.0"}, {"category": "developer-tools", "created_at": 1773960372335, "description": "Serverless compute orchestration by Watadot Studio. Manage functions, triggers, and cloud rendering.", "description_zh": "", "downloads": 48, "homepage": "https://clawhub.ai/ordiy/watadot-aws-lambda", "iconUrl": null, "installs": 4, "name": "Watadot Aws Lambda", "ownerName": "ordiy", "score": 97959.18367346938, "slug": "watadot-aws-lambda", "source": "clawhub", "stars": 0, "tags": null, "updated_at": 1776697184214, "version": "1.0.0"}, {"category": "data-analysis", "created_at": 1773067473588, "description": "AI accounting helper. Bookkeeping, tax preparation, financial analysis. No API keys needed. $2 FREE credits to start. Pay-as-you-go via SkillBoss.", "description_zh": "", "downloads": 48, "homepage": "https://clawhub.ai/xiaoyinqu/accountant-ai", "iconUrl": null, "installs": 9, "name": "Accountant Ai", "ownerName": "xiaoyinqu", "score": 97959.18367346938, "slug": "accountant-ai", "source": "clawhub", "stars": 0, "tags": null, "updated_at": 1776697184143, "version": "1.0.2"}, {"category": "developer-tools", "created_at": 1773065833177, "description": "USE THIS for Perplexity, AI search, web research, real-time information. Access Perplexity Sonar, Sonar Pro, Reasoning Pro, Deep Research. Search the web wit...", "description_zh": "", "downloads": 48, "homepage": "https://clawhub.ai/xiaoyinqu/perplexity-search-api", "iconUrl": null, "installs": 10, "name": "Perplexity Search API", "ownerName": "xiaoyinqu", "score": 97959.18367346938, "slug": "perplexity-search-api", "source": "clawhub", "stars": 0, "tags": null, "updated_at": 1776697184134, "version": "1.0.0"}, {"category": "security-compliance", "created_at": 1773959759949, "description": "Reference tool for devtools — covers intro, quickstart, patterns and more. Quick lookup for Compass concepts, best practices, and implementation patterns.", "description_zh": "", "downloads": 48, "homepage": "https://clawhub.ai/bytesagain1/compass", "iconUrl": null, "installs": 1, "name": "Compass", "ownerName": "bytesagain1", "score": 97959.18367346938, "slug": "compass", "source": "clawhub", "stars": 0, "tags": null, "updated_at": 1776697184131, "version": "2.0.4"}, {"category": "", "created_at": 1775555791679, "description": "Create distinctive, production-grade frontend interfaces with high design quality. Use this skill when the user asks to build web components, pages, artifacts, posters, or applications (examples include websites, landing pages, dashboards, React components, HTML/CSS layouts, or when styling/beautifying any web UI). Generates creative, polished code and UI design that avoids generic AI aesthetics.", "description_zh": "", "downloads": 48, "homepage": "https://clawhub.ai/user_173d434e/yw-test-1", "iconUrl": null, "installs": 1, "name": "宇文测试12", "ownerName": "user_173d434e", "score": 97959.18367346938, "slug": "yw-test-1", "source": "community", "stars": 0, "tags": null, "updated_at": 1776697184129, "version": "1.0.1"}, {"category": "", "created_at": 1774886889210, "description": "Find relevant marketplaces, niche platforms, regional ecommerce channels, and listing opportunities for cross-border products. Use when the user wants help i...", "description_zh": "", "downloads": 48, "homepage": "https://clawhub.ai/leooooooow/find-marketplaces", "iconUrl": null, "installs": 11, "name": "Find Marketplaces", "ownerName": "leooooooow", "score": 97959.18367346938, "slug": "find-marketplaces", "source": "clawhub", "stars": 0, "tags": null, "updated_at": 1776697184126, "version": "1.0.0"}, {"category": "", "created_at": 1774954699751, "description": "Automatic memory consolidation for OpenClaw agents. Analyzes daily memory files, removes duplicates, prunes stale entries, normalizes dates, and builds a cle...", "description_zh": "", "downloads": 48, "homepage": "https://clawhub.ai/rimaslogic/autodream", "iconUrl": null, "installs": 4, "name": "Autodream", "ownerName": "rimaslogic", "score": 97959.18367346938, "slug": "autodream", "source": "clawhub", "stars": 0, "tags": null, "updated_at": 1776697184120, "version": "1.0.0"}, {"category": "", "created_at": 1774878041937, "description": "Vercel AI SDK for building chat interfaces with streaming. Use when implementing useChat hook, handling tool calls, streaming responses, or building chat UI....", "description_zh": "", "downloads": 48, "homepage": "https://clawhub.ai/anderskev/vercel-ai-sdk", "iconUrl": null, "installs": 3, "name": "Vercel Ai Sdk", "ownerName": "anderskev", "score": 97959.18367346938, "slug": "vercel-ai-sdk", "source": "clawhub", "stars": 0, "tags": null, "updated_at": 1776697184089, "version": "1.0.0"}, {"category": "", "created_at": 1774849700801, "description": "Run Freqtrade backtests for cryptocurrency trading strategies, interpret results, and iterate. Use when downloading historical data, running a backtest, read...", "description_zh": "", "downloads": 48, "homepage": "https://clawhub.ai/djc00p/freqtrade-backtester", "iconUrl": null, "installs": 3, "name": "Freqtrade Backtester", "ownerName": "djc00p", "score": 97959.18367346938, "slug": "freqtrade-backtester", "source": "clawhub", "stars": 0, "tags": null, "updated_at": 1776697184055, "version": "1.0.3"}, {"category": "", "created_at": 1774903960798, "description": "Use when user wants to optimize, improve, benchmark, or evaluate a skill's prompt. Triggers on \"optimize skill\", \"improve skill prompt\", \"benchmark skill\", \"...", "description_zh": "", "downloads": 48, "homepage": "https://clawhub.ai/zning1994/openclaw-autoresearch", "iconUrl": null, "installs": 10, "name": "openclaw-autoresearch", "ownerName": "zning1994", "score": 97959.18367346938, "slug": "openclaw-autoresearch", "source": "clawhub", "stars": 0, "tags": null, "updated_at": 1776697184019, "version": "0.2.3"}, {"category": "", "created_at": 1774837866437, "description": "Search the live web through Moonshot's builtin $web_search tool and return a concise answer. Prefer this skill for OpenClaw live web search instead of callin...", "description_zh": "", "downloads": 48, "homepage": "https://clawhub.ai/fusae/moonshot-web-search", "iconUrl": null, "installs": 1, "name": "Moonshot Web Search", "ownerName": "fusae", "score": 96000, "slug": "moonshot-web-search", "source": "clawhub", "stars": 0, "tags": ["moonshot", "search"], "updated_at": 1776697183806, "version": "1.0.4"}, {"category": "developer-tools", "created_at": 1773960387508, "description": "High-performance S3 management by Watadot Studio. Includes bucket orchestration, sync, and lifecycle management.", "description_zh": "", "downloads": 48, "homepage": "https://clawhub.ai/ordiy/watadot-aws-s3", "iconUrl": null, "installs": 8, "name": "Watadot Aws S3", "ownerName": "ordiy", "score": 96000, "slug": "watadot-aws-s3", "source": "clawhub", "stars": 0, "tags": null, "updated_at": 1776697183801, "version": "1.0.0"}, {"category": "developer-tools", "created_at": 1773956965054, "description": "Query Cloudflare Workers Observability logs via API. Use when the user asks to check logs, debug Workers, look up errors, or investigate Worker/Durable Objec...", "description_zh": "", "downloads": 48, "homepage": "https://clawhub.ai/adahubble/cf-workers-logs", "iconUrl": null, "installs": 2, "name": "Cf Workers Logs", "ownerName": "adahubble", "score": 96000, "slug": "cf-workers-logs", "source": "clawhub", "stars": 0, "tags": null, "updated_at": 1776697183793, "version": "1.0.1"}, {"category": "", "created_at": 1774880308504, "description": "Gpt-trainer integration. Manage Users, Roles, Goals, Pipelines, Filters, Organizations. Use when the user wants to interact with Gpt-trainer data.", "description_zh": "", "downloads": 48, "homepage": "https://clawhub.ai/gora050/gpt-trainer", "iconUrl": null, "installs": 3, "name": "Gpt Trainer", "ownerName": "gora050", "score": 96000, "slug": "gpt-trainer", "source": "clawhub", "stars": 0, "tags": null, "updated_at": 1776697183760, "version": "1.0.0"}, {"category": "productivity", "created_at": 1773961208542, "description": "Extract decisions, action items, and follow-ups from meeting transcripts.", "description_zh": "", "downloads": 48, "homepage": "https://clawhub.ai/yvette1226/meeting-transcript-action-extractor", "iconUrl": null, "installs": 8, "name": "Meeting Transcript Action Extractor", "ownerName": "yvette1226", "score": 94117.64705882352, "slug": "meeting-transcript-action-extractor", "source": "clawhub", "stars": 0, "tags": ["action-items", "ai", "meeting", "transcript", "whisper"], "updated_at": 1776697183683, "version": "1.0.0"}, {"category": "security-compliance", "created_at": 1773958419821, "description": "Compute, verify, and compare file hashes using MD5, SHA-1, SHA-256, SHA-512, and more. Use when checking file integrity, verifying downloads against expected...", "description_zh": "", "downloads": 48, "homepage": "https://clawhub.ai/johnnywang2001/file-hasher", "iconUrl": null, "installs": 2, "name": "File Hasher", "ownerName": "johnnywang2001", "score": 94117.64705882352, "slug": "file-hasher", "source": "clawhub", "stars": 0, "tags": null, "updated_at": 1776697183670, "version": "1.0.0"}, {"category": "", "created_at": 1774877913093, "description": "Create new skills, modify and improve existing skills, and measure skill performance. Use when users want to create a skill from scratch, edit, or optimize a...", "description_zh": "", "downloads": 47, "homepage": "https://clawhub.ai/tlreal/skill-creator-4", "iconUrl": null, "installs": 11, "name": "Skill Creator", "ownerName": "tlreal", "score": 1133.622768933912, "slug": "skill-creator-4", "source": "clawhub", "stars": 0, "tags": null, "updated_at": 1776764350007, "version": "0.1.0"}, {"category": "", "created_at": 1774789411824, "description": "Generate AI images and videos with 17+ active models via Wuli.art open platform API. Use when creating images from text prompts, editing images with one or m...", "description_zh": "", "downloads": 47, "homepage": "https://clawhub.ai/sir1st-inc/wuli", "iconUrl": null, "installs": 2, "name": "Wuli Clawhub Publish 1.0.6", "ownerName": "sir1st-inc", "score": 702.3311416616856, "slug": "wuli", "source": "clawhub", "stars": 0, "tags": null, "updated_at": 1776762850003, "version": "1.0.6"}, {"category": "", "created_at": 1774818429098, "description": "Senior payment integration engineer that helps developers integrate 8 major payment providers (Stripe, PayPal, Alipay, WeChat Pay, Apple Pay, Google Pay, Raz...", "description_zh": "", "downloads": 47, "homepage": "https://clawhub.ai/xiaoxty/payment-integration", "iconUrl": null, "installs": 4, "name": "Payment Integration Guide", "ownerName": "xiaoxty", "score": 1189.873417721519, "slug": "payment-integration", "source": "clawhub", "stars": 0, "tags": null, "updated_at": 1776761880375, "version": "0.1.0"}, {"category": "", "created_at": 1774876562403, "description": "Translates text into fluent Urdu or Roman Urdu, supporting cultural idioms and natural language flow in both scripts.", "description_zh": "", "downloads": 47, "homepage": "https://clawhub.ai/gamefbs69-spec/urdu-translator", "iconUrl": null, "installs": 1, "name": "Urdu Translator", "ownerName": "gamefbs69-spec", "score": 3736.0890302066773, "slug": "urdu-translator", "source": "clawhub", "stars": 0, "tags": null, "updated_at": 1776760098027, "version": "1.0.0"}, {"category": "", "created_at": 1774867191775, "description": "Periodically polls a Feishu task board to auto-detect and execute tasks assigned to the current AI agent with optional silent mode and feedback.", "description_zh": "", "downloads": 47, "homepage": "https://clawhub.ai/socneo/smart-poller", "iconUrl": null, "installs": 0, "name": "Smart Poller", "ownerName": "socneo", "score": 3736.0890302066773, "slug": "smart-poller", "source": "clawhub", "stars": 0, "tags": ["automation", "feishu", "polling"], "updated_at": 1776760098013, "version": "1.0.0"}, {"category": "", "created_at": 1774909883487, "description": "Extracts and summarizes the most relevant webpage passages for focused, low-token research without loading or summarizing the full page.", "description_zh": "", "downloads": 47, "homepage": "https://clawhub.ai/agitalent/litebrowse", "iconUrl": null, "installs": 0, "name": "LiteBrowse", "ownerName": "agitalent", "score": 3736.0890302066773, "slug": "litebrowse", "source": "clawhub", "stars": 0, "tags": ["search", "token-efficient", "web"], "updated_at": 1776760098005, "version": "0.1.1"}, {"category": "", "created_at": 1774890511676, "description": "A public incident knowledge base for AI agents. Search solved coding incidents, post structured problems, verify solutions, and reuse canonical answers.", "description_zh": "", "downloads": 47, "homepage": "https://clawhub.ai/henryschwerdt/stackagents", "iconUrl": null, "installs": 0, "name": "stackagents", "ownerName": "henryschwerdt", "score": 3739.061256961018, "slug": "stackagents", "source": "clawhub", "stars": 0, "tags": null, "updated_at": 1776760097951, "version": "1.0.0"}, {"category": "", "created_at": 1774869455073, "description": "LinkedIn integration via Unipile's official Node.js SDK. Send messages, InMail, view profiles, manage connections, create posts, and interact with content. U...", "description_zh": "", "downloads": 47, "homepage": "https://clawhub.ai/mohit21gojs/unipile-linkedin-sdk", "iconUrl": null, "installs": 0, "name": "Unipile Linkedin Sdk", "ownerName": "mohit21gojs", "score": 3733.121525019857, "slug": "unipile-linkedin-sdk", "source": "clawhub", "stars": 0, "tags": null, "updated_at": 1776760097794, "version": "1.5.0"}, {"category": "", "created_at": 1774887668930, "description": "Converts natural language day references into the soonest future calendar date in ISO format (YYYY-MM-DD) for accurate scheduling.", "description_zh": "", "downloads": 47, "homepage": "https://clawhub.ai/jtheodas/relative-date-resolver", "iconUrl": null, "installs": 2, "name": "Relative Date Resolver", "ownerName": "jtheodas", "score": 3733.121525019857, "slug": "relative-date-resolver", "source": "clawhub", "stars": 0, "tags": null, "updated_at": 1776760097781, "version": "1.0.0"}, {"category": "", "created_at": 1774907527900, "description": "Provides free web, image, news search, and autocomplete suggestions via Claw Search API without requiring an API key.", "description_zh": "", "downloads": 47, "homepage": "https://clawhub.ai/yuanchao193/claw-search-free", "iconUrl": null, "installs": 1, "name": "Claw Search", "ownerName": "yuanchao193", "score": 3733.121525019857, "slug": "claw-search-free", "source": "clawhub", "stars": 0, "tags": null, "updated_at": 1776760097740, "version": "2.0.0"}, {"category": "", "created_at": 1774870665927, "description": "Manage domain DNS records on West Digitals by adding, modifying, or deleting entries via the West Digitals API.", "description_zh": "", "downloads": 47, "homepage": "https://clawhub.ai/misskivin/west-dns-manager", "iconUrl": null, "installs": 0, "name": "west", "ownerName": "misskivin", "score": 3742.038216560509, "slug": "west-dns-manager", "source": "clawhub", "stars": 0, "tags": null, "updated_at": 1776760024483, "version": "1.0.0"}, {"category": "", "created_at": 1774953919996, "description": "Generate a dark-themed static HTML status page summarizing health checks, ping, SSL certs, and uptime for self-hosted services from a JSON config.", "description_zh": "", "downloads": 47, "homepage": "https://clawhub.ai/newageinvestments25-byte/nai-status-page-gen", "iconUrl": null, "installs": 1, "name": "Status Page Gen", "ownerName": "newageinvestments25-byte", "score": 3742.038216560509, "slug": "nai-status-page-gen", "source": "clawhub", "stars": 0, "tags": null, "updated_at": 1776760024480, "version": "1.0.0"}, {"category": "", "created_at": 1774945045535, "description": "Concise guide for BioFlow API usage covering signup/login, file upload/download, token balance check, task submission, and result retrieval with example endp...", "description_zh": "", "downloads": 47, "homepage": "https://clawhub.ai/ashipiling/bioflow", "iconUrl": null, "installs": 1, "name": "BioFlow", "ownerName": "ashipiling", "score": 3742.038216560509, "slug": "bioflow", "source": "clawhub", "stars": 0, "tags": null, "updated_at": 1776760024478, "version": "1.0.0"}, {"category": "", "created_at": 1774885987230, "description": "Archives 1-minute granularity delta-compressed spatial state data with backward persistence and causal event logs for efficient, privacy-preserving memory re...", "description_zh": "", "downloads": 47, "homepage": "https://clawhub.ai/spacesq/s2-chronos-memzero", "iconUrl": null, "installs": 0, "name": "The Holographic Memory Matrix", "ownerName": "spacesq", "score": 3742.038216560509, "slug": "s2-chronos-memzero", "source": "clawhub", "stars": 0, "tags": null, "updated_at": 1776760024469, "version": "1.0.0"}, {"category": "", "created_at": 1774864769349, "description": "A comprehensive AI agent skill for navigating the Decentralized Physical Infrastructure Networks ecosystem. Explains DePIN projects and tokenomics, evaluates...", "description_zh": "", "downloads": 47, "homepage": "https://clawhub.ai/agenticio/depin", "iconUrl": null, "installs": 0, "name": "DePIN", "ownerName": "agenticio", "score": 3742.038216560509, "slug": "depin", "source": "clawhub", "stars": 0, "tags": ["blockchain", "crypto", "depin", "infrastructure", "web3"], "updated_at": 1776760024467, "version": "1.0.0"}, {"category": "", "created_at": 1774893971138, "description": "Real-time monitoring of NVIDIA Jetson GPU status, memory usage, CPU temperature, and frequency information.", "description_zh": "", "downloads": 47, "homepage": "https://clawhub.ai/wxd9199/tegrastats", "iconUrl": null, "installs": 1, "name": "Jetson Tegrastats", "ownerName": "wxd9199", "score": 3742.038216560509, "slug": "tegrastats", "source": "clawhub", "stars": 0, "tags": null, "updated_at": 1776760024463, "version": "1.0.0"}, {"category": "", "created_at": 1774925446252, "description": "Provide rigorous, structured opposition by pinpointing logical flaws, data gaps, assumption risks, and implementation blind spots in user arguments or propos...", "description_zh": "", "downloads": 47, "homepage": "https://clawhub.ai/goog/con", "iconUrl": null, "installs": 0, "name": "Debate con agent for you", "ownerName": "goog", "score": 3730.15873015873, "slug": "con", "source": "clawhub", "stars": 0, "tags": null, "updated_at": 1776760024454, "version": "1.0.1"}, {"category": "", "created_at": 1774897710742, "description": "Generate detailed, complete book summaries with key ideas, full narratives, actionable takeaways, and a comprehensive, readable overview.", "description_zh": "", "downloads": 47, "homepage": "https://clawhub.ai/heardlyapp/book-sum", "iconUrl": null, "installs": 0, "name": "Book Sum", "ownerName": "heardlyapp", "score": 3730.15873015873, "slug": "book-sum", "source": "clawhub", "stars": 0, "tags": null, "updated_at": 1776760024452, "version": "1.0.0"}, {"category": "", "created_at": 1774902929130, "description": "Render BestYou health data as visual Dark Glass dashboards via OpenClaw canvas. Daily briefings, action plans, progress snapshots, weekly summaries, meal ana...", "description_zh": "", "downloads": 47, "homepage": "https://clawhub.ai/kentsteffen/bestyou-coach", "iconUrl": null, "installs": 0, "name": "BestYou Coach Dashboards", "ownerName": "kentsteffen", "score": 3730.15873015873, "slug": "bestyou-coach", "source": "clawhub", "stars": 0, "tags": null, "updated_at": 1776760024443, "version": "1.0.0"}, {"category": "", "created_at": 1774924348963, "description": "Market context, strategic thesis, case studies, proof points, sales pipeline, and B2B communication guidelines for Floods. Use this skill when working on pit...", "description_zh": "", "downloads": 47, "homepage": "https://clawhub.ai/huguesgtch/marketsales", "iconUrl": null, "installs": 1, "name": "market sales skills", "ownerName": "huguesgtch", "score": 3730.15873015873, "slug": "marketsales", "source": "clawhub", "stars": 0, "tags": null, "updated_at": 1776760024434, "version": "1.0.0"}, {"category": "", "created_at": 1774862140937, "description": "Automatically parse, score, and rank 1000+ resumes per batch by matching job requirements, supporting multiple formats with bias-free screening and analytics.", "description_zh": "", "downloads": 47, "homepage": "https://clawhub.ai/yang1002378395-cmyk/ai-resume-screener", "iconUrl": null, "installs": 0, "name": "AI Resume Screener", "ownerName": "yang1002378395-cmyk", "score": 3730.15873015873, "slug": "ai-resume-screener", "source": "clawhub", "stars": 0, "tags": null, "updated_at": 1776760024432, "version": "1.0.0"}, {"category": "", "created_at": 1774871703742, "description": "Locally hosted OS evolving OpenClaw agents’ subconscious with dynamic 5D personality, emotional memory, synaptic decay, and bilingual AI psychological profil...", "description_zh": "", "downloads": 47, "homepage": "https://clawhub.ai/spacesq/s2-silicon-soul-os", "iconUrl": null, "installs": 1, "name": "Xiang miles | Space2.world", "ownerName": "spacesq", "score": 3730.15873015873, "slug": "s2-silicon-soul-os", "source": "clawhub", "stars": 0, "tags": null, "updated_at": 1776760024430, "version": "1.0.0"}]}