{"page": 443, "total_pages": 522, "total": 26073, "skills": [{"category": "", "created_at": 1774893521305, "description": "Create and animate vector-based text, shapes, diagrams, and visualizations on an infinite canvas with resolution-independent export and rich animation and re...", "description_zh": "", "downloads": 47, "homepage": "https://clawhub.ai/speaktoarpit/pinepaper", "iconUrl": null, "installs": 0, "name": "PinePaper", "ownerName": "speaktoarpit", "score": 3730.15873015873, "slug": "pinepaper", "source": "clawhub", "stars": 0, "tags": null, "updated_at": 1776760020985, "version": "1.0.0"}, {"category": "", "created_at": 1774902218867, "description": "Generate and manage Kickstart unattended installation configs for automated setup of RHEL/Fedora/CentOS systems with partitioning, networking, users, package...", "description_zh": "", "downloads": 47, "homepage": "https://clawhub.ai/weidongkl/kickstart-ks", "iconUrl": null, "installs": 0, "name": "kickstart", "ownerName": "weidongkl", "score": 3730.15873015873, "slug": "kickstart-ks", "source": "clawhub", "stars": 0, "tags": ["anaconda", "automated", "installation", "kickstart", "rhel"], "updated_at": 1776760020978, "version": "1.0.0"}, {"category": "", "created_at": 1774884659413, "description": "Clarifies and rewrites confusing or jargon-heavy offer explanations into clear, value-focused language that boosts understanding and conversion.", "description_zh": "", "downloads": 47, "homepage": "https://clawhub.ai/leooooooow/offer-explainer-rewriter", "iconUrl": null, "installs": 1, "name": "Offer Explainer Rewriter", "ownerName": "leooooooow", "score": 3730.15873015873, "slug": "offer-explainer-rewriter", "source": "clawhub", "stars": 0, "tags": null, "updated_at": 1776760020973, "version": "1.0.0"}, {"category": "", "created_at": 1774951868655, "description": "Checks specified directory for console.log statements, excluding common folders, and reports file locations and line previews of occurrences.", "description_zh": "", "downloads": 47, "homepage": "https://clawhub.ai/sy724/console-log-checker", "iconUrl": null, "installs": 0, "name": "Console Log Checker", "ownerName": "sy724", "score": 3730.15873015873, "slug": "console-log-checker", "source": "clawhub", "stars": 0, "tags": null, "updated_at": 1776760020968, "version": "1.0.0"}, {"category": "", "created_at": 1774881124893, "description": "Yiliu - AI-powered note-taking knowledge base with semantic search, auto-summarization, and version management", "description_zh": "", "downloads": 47, "homepage": "https://clawhub.ai/damingdong/yiliu", "iconUrl": null, "installs": 1, "name": "Yiliu", "ownerName": "damingdong", "score": 3730.15873015873, "slug": "yiliu", "source": "clawhub", "stars": 0, "tags": null, "updated_at": 1776760020962, "version": "1.2.3"}, {"category": "", "created_at": 1774955794527, "description": "AI-powered tool that summarizes meetings, extracts prioritized action items, and drafts clear follow-up emails with owners and deadlines.", "description_zh": "", "downloads": 47, "homepage": "https://clawhub.ai/di5cip1e/the-director-meeting-intelligence", "iconUrl": null, "installs": 2, "name": "Meeting Intelligence", "ownerName": "di5cip1e", "score": 3730.15873015873, "slug": "the-director-meeting-intelligence", "source": "clawhub", "stars": 0, "tags": null, "updated_at": 1776760020960, "version": "1.0.0"}, {"category": "", "created_at": 1774923935715, "description": "Determines user intent, destination, known/missing fields, and need for follow-up in a structured JSON output for delivery preference resolution.", "description_zh": "", "downloads": 47, "homepage": "https://clawhub.ai/donigwapo/delivery-preference-resolver", "iconUrl": null, "installs": 0, "name": "Delivery Preference Resolver", "ownerName": "donigwapo", "score": 3730.15873015873, "slug": "delivery-preference-resolver", "source": "clawhub", "stars": 0, "tags": ["automation planner json"], "updated_at": 1776760020861, "version": "1.0.0"}, {"category": "", "created_at": 1774891683646, "description": "Analyze Monero transactions by inspecting inputs, outputs, ring signatures, fund flows, and privacy features for forensic and verification purposes.", "description_zh": "", "downloads": 47, "homepage": "https://clawhub.ai/liumaimiao/monero-transaction-analysis", "iconUrl": null, "installs": 0, "name": "Monero Transaction Analysis", "ownerName": "liumaimiao", "score": 3730.15873015873, "slug": "monero-transaction-analysis", "source": "clawhub", "stars": 0, "tags": null, "updated_at": 1776760020856, "version": "1.0.0"}, {"category": "", "created_at": 1774867679917, "description": "Reviews ad content for compliance by identifying misleading claims, prohibited language, and improper imagery to ensure adherence to advertising standards.", "description_zh": "", "downloads": 47, "homepage": "https://clawhub.ai/benchmarker77/compl", "iconUrl": null, "installs": 0, "name": "Compl", "ownerName": "benchmarker77", "score": 3730.15873015873, "slug": "compl", "source": "clawhub", "stars": 0, "tags": null, "updated_at": 1776760020850, "version": "1.0.0"}, {"category": "", "created_at": 1774924749050, "description": "Give your OpenClaw agent the power to spend. Stablecoin payments, spending policies, and compliance — built-in.", "description_zh": "", "downloads": 47, "homepage": "https://clawhub.ai/fluxaventures/skill-openclaw", "iconUrl": null, "installs": 1, "name": "Skill Openclaw", "ownerName": "fluxaventures", "score": 3730.15873015873, "slug": "skill-openclaw", "source": "clawhub", "stars": 0, "tags": null, "updated_at": 1776760020848, "version": "1.0.4"}, {"category": "", "created_at": 1774870364167, "description": "Manages multi-identity delegation to specialized AI sub-agents for coding, research, and quick tasks, routing and synthesizing responses seamlessly.", "description_zh": "", "downloads": 47, "homepage": "https://clawhub.ai/palxislabs/shift", "iconUrl": null, "installs": 0, "name": "SHIFT", "ownerName": "palxislabs", "score": 3730.15873015873, "slug": "shift", "source": "clawhub", "stars": 0, "tags": ["delegation", "identity", "models", "multi-agent", "routing"], "updated_at": 1776760020847, "version": "1.0.4"}, {"category": "", "created_at": 1774902624981, "description": "Facilitates coordinated crisis response using multiple agents to assess, investigate, fix, and document critical production issues efficiently.", "description_zh": "", "downloads": 47, "homepage": "https://clawhub.ai/amdf01-debug/sw-war-room", "iconUrl": null, "installs": 0, "name": "War Room Debug", "ownerName": "amdf01-debug", "score": 3730.15873015873, "slug": "sw-war-room", "source": "clawhub", "stars": 0, "tags": ["agents", "debugging", "troubleshooting"], "updated_at": 1776760020845, "version": "1.0.0"}, {"category": "", "created_at": 1774882054309, "description": "Use this skill when you need offline or air-gapped access to the bundled Priority Pass lounge catalog. Trigger it for local lounge lookup, facility filtering...", "description_zh": "", "downloads": 47, "homepage": "https://clawhub.ai/skylinehk/pp-lounge-map-offline", "iconUrl": null, "installs": 0, "name": "Offline Airport Lounge Finder - Comparison Map", "ownerName": "skylinehk", "score": 3730.15873015873, "slug": "pp-lounge-map-offline", "source": "clawhub", "stars": 0, "tags": ["airport", "lounges", "mcp", "offline", "travel"], "updated_at": 1776760020843, "version": "1.3.24"}, {"category": "", "created_at": 1774869357971, "description": "Design and review user and operations messaging, flows, and support templates for UPI payments, mandates, refunds, disputes, and incident communication.", "description_zh": "", "downloads": 47, "homepage": "https://clawhub.ai/anugotta/upi-payment-ux-ops", "iconUrl": null, "installs": 0, "name": "UPI Payment UX and Ops", "ownerName": "anugotta", "score": 3730.15873015873, "slug": "upi-payment-ux-ops", "source": "clawhub", "stars": 0, "tags": null, "updated_at": 1776760020839, "version": "1.0.2"}, {"category": "", "created_at": 1774903564317, "description": "Convert PDF files to JPEG images with pdftoppm, support optional page ranges, and bundle generated JPGs into a zip archive for sharing. Use when a user wants...", "description_zh": "", "downloads": 47, "homepage": "https://clawhub.ai/luohongq/pdf2jpg", "iconUrl": null, "installs": 10, "name": "pdf2jpg", "ownerName": "luohongq", "score": 2774.4982290436838, "slug": "pdf2jpg", "source": "clawhub", "stars": 0, "tags": null, "updated_at": 1776755927214, "version": "1.0.0"}, {"category": "", "created_at": 1774881635202, "description": "Find relevant creators, influencers, and affiliate partners for ecommerce outreach, creator seeding, TikTok Shop, and brand collaborations. Use when the user...", "description_zh": "", "downloads": 47, "homepage": "https://clawhub.ai/leooooooow/find-creators", "iconUrl": null, "installs": 9, "name": "Find Creators", "ownerName": "leooooooow", "score": 8719.851576994433, "slug": "find-creators", "source": "clawhub", "stars": 0, "tags": null, "updated_at": 1776754988506, "version": "1.0.0"}, {"category": "", "created_at": 1774882222742, "description": "Create HTML slideshows from Markdown with live preview. Use when drafting slides, editing decks, optimizing layouts, scheduling talks, repurposing content.", "description_zh": "", "downloads": 47, "homepage": "https://clawhub.ai/xueyetianya/slideshow-generator", "iconUrl": null, "installs": 1, "name": "Slideshow Generator", "ownerName": "xueyetianya", "score": 8006.814310051108, "slug": "slideshow-generator", "source": "clawhub", "stars": 0, "tags": null, "updated_at": 1776748071544, "version": "2.0.0"}, {"category": "", "created_at": 1774944867057, "description": "Generate short math practice sets and analyze one-off answers for children in a lightweight tutoring flow.", "description_zh": "", "downloads": 47, "homepage": "https://clawhub.ai/wei-eva/math-tutor-lite", "iconUrl": null, "installs": 6, "name": "Math Tutor Lite", "ownerName": "wei-eva", "score": 54022.988505747126, "slug": "math-tutor-lite", "source": "clawhub", "stars": 0, "tags": null, "updated_at": 1776743984560, "version": "0.1.0"}, {"category": "", "created_at": 1774915379800, "description": "Implements dependency injection in Golang using samber/do. Apply this skill when working with dependency injection, setting up service containers, managing s...", "description_zh": "", "downloads": 47, "homepage": "https://clawhub.ai/samber/golang-samber-do", "iconUrl": null, "installs": 1, "name": "Golang Samber Do", "ownerName": "samber", "score": 50537.63440860215, "slug": "golang-samber-do", "source": "clawhub", "stars": 0, "tags": null, "updated_at": 1776743455507, "version": "0.1.0"}, {"category": "", "created_at": 1774952632763, "description": "Search flights, hotels, car rentals, and ferries across multiple providers using free APIs. Plan complete trip itineraries with real prices and booking links...", "description_zh": "", "downloads": 47, "homepage": "https://clawhub.ai/adrianetti/travel-search", "iconUrl": null, "installs": 6, "name": "Travel Search", "ownerName": "adrianetti", "score": 48958.33333333333, "slug": "travel-search", "source": "clawhub", "stars": 0, "tags": null, "updated_at": 1776743144544, "version": "1.1.2"}, {"category": "", "created_at": 1774871374869, "description": "macOS command line tool for developers – The ultimate tool to manage your Mac. It provides a huge mac cli, shell, bash, cli, command-line-tool, linux.", "description_zh": "", "downloads": 47, "homepage": "https://clawhub.ai/ckchzh/macos-toolkit", "iconUrl": null, "installs": 6, "name": "Macos Toolkit", "ownerName": "ckchzh", "score": 49473.68421052631, "slug": "macos-toolkit", "source": "clawhub", "stars": 0, "tags": null, "updated_at": 1776742483706, "version": "1.0.0"}, {"category": "developer-tools", "created_at": 1773077529656, "description": "Home Health expansion for HealthClaw -- home visits, 485 care plans, OASIS assessments, and aide assignment management for home health agencies.", "description_zh": "", "downloads": 47, "homepage": "https://clawhub.ai/mailnike/healthclaw-homehealth", "iconUrl": null, "installs": 7, "name": "Healthclaw Homehealth", "ownerName": "mailnike", "score": 54022.988505747126, "slug": "healthclaw-homehealth", "source": "clawhub", "stars": 0, "tags": null, "updated_at": 1776741644447, "version": "2.1.0"}, {"category": "", "created_at": 1774857812054, "description": "Automated deep research that performs comprehensive multi-source investigation and produces detailed reports with citations. Use when user requests research,...", "description_zh": "", "downloads": 47, "homepage": "https://clawhub.ai/bird-frank/deep-research-plan", "iconUrl": null, "installs": 4, "name": "Deep Research", "ownerName": "bird-frank", "score": 54022.988505747126, "slug": "deep-research-plan", "source": "clawhub", "stars": 0, "tags": null, "updated_at": 1776741584002, "version": "0.1.0"}, {"category": "", "created_at": 1774879515448, "description": "A Vedic astrology (Jyotish) analyzer based on the Indian Jyotish tradition, using the Sidereal zodiac to read birth charts. Covers 27 Nakshatras (Lunar Mansi...", "description_zh": "", "downloads": 47, "homepage": "https://clawhub.ai/eamanc-lab/vedic-astrology", "iconUrl": null, "installs": 5, "name": "Vedic Astrology", "ownerName": "eamanc-lab", "score": 48958.33333333333, "slug": "vedic-astrology", "source": "clawhub", "stars": 0, "tags": null, "updated_at": 1776734269626, "version": "1.2.0"}, {"category": "", "created_at": 1774951325736, "description": "Create or update AgentSkills. Use when designing, structuring, or packaging skills with scripts, references, and assets.", "description_zh": "", "downloads": 47, "homepage": "https://clawhub.ai/rmbell09-lang/lucky-skill-creator", "iconUrl": null, "installs": 11, "name": "Lucky Skill Creator", "ownerName": "rmbell09-lang", "score": 47959.183673469386, "slug": "lucky-skill-creator", "source": "clawhub", "stars": 0, "tags": ["agentskill", "openclaw", "packaging", "skill-creation"], "updated_at": 1776733969931, "version": "1.0.0"}, {"category": "", "created_at": 1774842250112, "description": "Convert an Ontology skill knowledge graph into a structured ExpertPack. Use when migrating from the Ontology skill's entity/relation graph (memory/ontology/g...", "description_zh": "", "downloads": 47, "homepage": "https://clawhub.ai/brianhearn/ontology-to-expertpack", "iconUrl": null, "installs": 9, "name": "Ontology to ExpertPack", "ownerName": "brianhearn", "score": 48453.60824742268, "slug": "ontology-to-expertpack", "source": "clawhub", "stars": 0, "tags": null, "updated_at": 1776733804840, "version": "1.0.0"}, {"category": "", "created_at": 1774884198072, "description": "Cross-border payment solution guide for Amazon and e-commerce sellers. Compare Payoneer, WorldFirst (Airwallex), PingPong, XTransfer, and LianLian on fees, F...", "description_zh": "", "downloads": 47, "homepage": "https://clawhub.ai/mguozhen/cross-border-payment-guide", "iconUrl": null, "installs": 3, "name": "Cross Border Payment Guide", "ownerName": "mguozhen", "score": 47959.183673469386, "slug": "cross-border-payment-guide", "source": "clawhub", "stars": 0, "tags": null, "updated_at": 1776718783691, "version": "1.0.0"}, {"category": "", "created_at": 1774951546403, "description": "Complete marketing strategy for Shopify stores. SEO, email marketing, paid ads, social media, conversion optimization, and retention tactics specifically tai...", "description_zh": "", "downloads": 47, "homepage": "https://clawhub.ai/nexscope/shopify-marketing", "iconUrl": null, "installs": 8, "name": "Shopify Marketing", "ownerName": "nexscope", "score": 47474.74747474748, "slug": "shopify-marketing", "source": "clawhub", "stars": 0, "tags": null, "updated_at": 1776709183687, "version": "1.0.0"}, {"category": "", "created_at": 1774856542709, "description": "Save any URL to your YouMind board with one command — instant web clipper for articles, videos, and documents. Works from terminal, CI/CD, and any agent plat...", "description_zh": "", "downloads": 47, "homepage": "https://clawhub.ai/dophinl/youmind-web-clipper", "iconUrl": null, "installs": 5, "name": "Save Link & Web Clipper", "ownerName": "dophinl", "score": 47474.74747474748, "slug": "youmind-web-clipper", "source": "clawhub", "stars": 0, "tags": null, "updated_at": 1776706969605, "version": "1.0.0"}, {"category": "", "created_at": 1774885970428, "description": "Deep web research with multi-round search, cross-verification, and structured reports with citations. Enhances web_search and web_fetch into a full research...", "description_zh": "", "downloads": 47, "homepage": "https://clawhub.ai/wyatt88/research-dive", "iconUrl": null, "installs": 8, "name": "Deep Research 🔬", "ownerName": "wyatt88", "score": 100000, "slug": "research-dive", "source": "clawhub", "stars": 0, "tags": null, "updated_at": 1776697784161, "version": "2.0.0"}, {"category": "", "created_at": 1774874640327, "description": "spc reference tool", "description_zh": "", "downloads": 47, "homepage": "https://clawhub.ai/bytesagain1/spc", "iconUrl": null, "installs": 3, "name": "Spc", "ownerName": "bytesagain1", "score": 100000, "slug": "spc", "source": "clawhub", "stars": 0, "tags": null, "updated_at": 1776697204797, "version": "2.0.0"}, {"category": "", "created_at": 1774918104070, "description": "GEO SEO — Generative Engine Optimization reference. Complete guide for optimizing websites for AI search engines. Covers llms.txt spec, GEO checklist, automa...", "description_zh": "", "downloads": 47, "homepage": "https://clawhub.ai/ckchzh/geo-seo", "iconUrl": null, "installs": 9, "name": "Geo Seo", "ownerName": "ckchzh", "score": 100000, "slug": "geo-seo", "source": "clawhub", "stars": 0, "tags": null, "updated_at": 1776697204780, "version": "1.2.0"}, {"category": "", "created_at": 1774849525716, "description": "When the user wants to define, audit, or apply visual identity (typography, colors, spacing, frontend aesthetics). Also use when the user mentions \"brand sty...", "description_zh": "", "downloads": 47, "homepage": "https://clawhub.ai/kostja94/brand-visual-generator", "iconUrl": null, "installs": 1, "name": "brand-visual-generator", "ownerName": "kostja94", "score": 100000, "slug": "brand-visual-generator", "source": "clawhub", "stars": 0, "tags": null, "updated_at": 1776697204751, "version": "1.2.0"}, {"category": "", "created_at": 1774948438413, "description": "Build high-value Obsidian daily and weekly review notes from conversation or existing markdown notes. Use this skill whenever the user asks to summarize the...", "description_zh": "", "downloads": 47, "homepage": "https://clawhub.ai/amortalsodyssey/conversation-recap-to-obsidian", "iconUrl": null, "installs": 12, "name": "Conversation Recap to Obsidian", "ownerName": "amortalsodyssey", "score": 100000, "slug": "conversation-recap-to-obsidian", "source": "clawhub", "stars": 0, "tags": ["daily", "obsidian", "recap", "review", "summary", "weekly"], "updated_at": 1776697204747, "version": "1.0.0"}, {"category": "productivity", "created_at": 1773961810888, "description": "A comprehensive pregnancy care assistant that tracks gestational age, manages medical checklists, provides weekly updates, and offers personalized advice for...", "description_zh": "", "downloads": 47, "homepage": "https://clawhub.ai/ginwu/pregnancy-care", "iconUrl": null, "installs": 8, "name": "Pregnancy Care", "ownerName": "ginwu", "score": 100000, "slug": "pregnancy-care", "source": "clawhub", "stars": 0, "tags": null, "updated_at": 1776697204745, "version": "1.0.0"}, {"category": "ai-intelligence", "created_at": 1773956560128, "description": "Perplexity Sonar search and answer generation through AIsa. Use when the task is specifically to call Perplexity Sonar, Sonar Pro, Sonar Reasoning Pro, or So...", "description_zh": "", "downloads": 47, "homepage": "https://clawhub.ai/renning22/my-perplexity-search", "iconUrl": null, "installs": 3, "name": "Perplexity Search", "ownerName": "renning22", "score": 100000, "slug": "my-perplexity-search", "source": "clawhub", "stars": 0, "tags": null, "updated_at": 1776697204732, "version": "1.0.0"}, {"category": "communication-collaboration", "created_at": 1773959131825, "description": "Set up periodic email monitoring for any IMAP mailbox (Gmail, Outlook, QQ, etc.). Guides users through mailbox configuration, tests the connection, then crea...", "description_zh": "", "downloads": 47, "homepage": "https://clawhub.ai/qiusuo9809/qiusuo-email-monitor", "iconUrl": null, "installs": 2, "name": "Email Monitor", "ownerName": "qiusuo9809", "score": 100000, "slug": "qiusuo-email-monitor", "source": "clawhub", "stars": 0, "tags": null, "updated_at": 1776697204708, "version": "1.0.0"}, {"category": "developer-tools", "created_at": 1773960363905, "description": "Elastic compute management by Watadot Studio. Deployment, scaling, and state monitoring.", "description_zh": "", "downloads": 47, "homepage": "https://clawhub.ai/ordiy/watadot-aws-ec2", "iconUrl": null, "installs": 5, "name": "Watadot Aws Ec2", "ownerName": "ordiy", "score": 100000, "slug": "watadot-aws-ec2", "source": "clawhub", "stars": 0, "tags": null, "updated_at": 1776697204706, "version": "1.0.0"}, {"category": "", "created_at": 1774906435824, "description": "Orchestrate a multi-agent dev/agency team with shared memory, handoffs, and OpenClaw sessions. Use when (1) First-time onboarding — follow references/OPENCLA...", "description_zh": "", "downloads": 47, "homepage": "https://clawhub.ai/realm1lf/dev-team", "iconUrl": null, "installs": 0, "name": "Multi Agent Development-Team Collaboration", "ownerName": "realm1lf", "score": 100000, "slug": "dev-team", "source": "clawhub", "stars": 0, "tags": null, "updated_at": 1776697204704, "version": "1.0.1"}, {"category": "", "created_at": 1774840604641, "description": "Design and implement Vue 3 components following best practices. Use when creating Vue components, defining props/emits, or when the user asks for Vue compone...", "description_zh": "", "downloads": 47, "homepage": "https://clawhub.ai/laimiaohua/gi-vue-component-guide", "iconUrl": null, "installs": 5, "name": "GI Vue Component Guide", "ownerName": "laimiaohua", "score": 100000, "slug": "gi-vue-component-guide", "source": "clawhub", "stars": 0, "tags": null, "updated_at": 1776697204701, "version": "1.0.0"}, {"category": "", "created_at": 1774923070267, "description": "Plan a business research study the way a professional consultant would — selecting the right analytical framework (JTBD, KANO, STP, GE-McKinsey, etc.), desig...", "description_zh": "", "downloads": 47, "homepage": "https://clawhub.ai/owenrao/plan-as-consultant", "iconUrl": null, "installs": 7, "name": "plan-as-consultant", "ownerName": "owenrao", "score": 95918.36734693877, "slug": "plan-as-consultant", "source": "clawhub", "stars": 0, "tags": null, "updated_at": 1776697204686, "version": "1.0.0"}, {"category": "", "created_at": 1774912440017, "description": "Generates structured, retention-optimized YouTube video scripts with hooks, timed sections, b-roll cues, and CTAs for various tones and topics.", "description_zh": "", "downloads": 47, "homepage": "https://clawhub.ai/siddylcon/youtube-script-writer", "iconUrl": null, "installs": 6, "name": "Youtube Script Writer", "ownerName": "siddylcon", "score": 95918.36734693877, "slug": "youtube-script-writer", "source": "clawhub", "stars": 0, "tags": null, "updated_at": 1776697204684, "version": "1.0.0"}, {"category": "", "created_at": 1774886245963, "description": "Editor de video com inteligencia artificial â descreva o que voce quer mudar e a IA executa. Cortar clips, juntar videos, adicionar musica de fundo, corrig...", "description_zh": "", "downloads": 47, "homepage": "https://clawhub.ai/siddylcon/video-editor-pt", "iconUrl": null, "installs": 6, "name": "Video Editor Pt", "ownerName": "siddylcon", "score": 95918.36734693877, "slug": "video-editor-pt", "source": "clawhub", "stars": 0, "tags": null, "updated_at": 1776697204673, "version": "1.0.3"}, {"category": "", "created_at": 1774877239205, "description": "GCP VPC Network audit covering global VPC design, firewall rule priority evaluation with hierarchical policies, Cloud NAT egress analysis, Cloud Interconnect...", "description_zh": "", "downloads": 47, "homepage": "https://clawhub.ai/vahagn-madatyan/gcp-networking-audit", "iconUrl": null, "installs": 0, "name": "Gcp Networking Audit", "ownerName": "vahagn-madatyan", "score": 95918.36734693877, "slug": "gcp-networking-audit", "source": "clawhub", "stars": 0, "tags": null, "updated_at": 1776697204669, "version": "1.0.0"}, {"category": "ai-intelligence", "created_at": 1773956285280, "description": "Perplexity Sonar search and answer generation through AIsa. Use when the task is specifically to call Perplexity Sonar, Sonar Pro, Sonar Reasoning Pro, or So...", "description_zh": "", "downloads": 47, "homepage": "https://clawhub.ai/bowen-dotcom/aisa-perplexity-search-skill", "iconUrl": null, "installs": 0, "name": "Perplexity Search", "ownerName": "bowen-dotcom", "score": 95918.36734693877, "slug": "aisa-perplexity-search-skill", "source": "clawhub", "stars": 0, "tags": null, "updated_at": 1776697204659, "version": "1.0.0"}, {"category": "", "created_at": 1774883854271, "description": "Professional AI analysis powered by 5 investment expert models, deeply integrated with OpenClaw AI Agent | https://github.com/hengruiyun/ai-stock-master-open...", "description_zh": "", "downloads": 47, "homepage": "https://clawhub.ai/hengruiyun/ai-stock-master", "iconUrl": null, "installs": 4, "name": "AI Stock Master 股票大师", "ownerName": "hengruiyun", "score": 95918.36734693877, "slug": "ai-stock-master", "source": "clawhub", "stars": 0, "tags": null, "updated_at": 1776697204656, "version": "1.0.1"}, {"category": "developer-tools", "created_at": 1773958660644, "description": "REST API design patterns including resource naming, status codes, pagination, filtering, error responses, versioning, and rate limiting for production APIs.", "description_zh": "", "downloads": 47, "homepage": "https://clawhub.ai/npjameszheng1125-netizen/npjames-api-design", "iconUrl": null, "installs": 4, "name": "Npjames Api Design", "ownerName": "npjameszheng1125-netizen", "score": 95918.36734693877, "slug": "npjames-api-design", "source": "clawhub", "stars": 0, "tags": null, "updated_at": 1776697204652, "version": "1.0.0"}, {"category": "", "created_at": 1774848003550, "description": "Log Automation — Append log entries, record audit trails, and automate event logging to a pre-configured Google Sheet by PortEden Secure access.", "description_zh": "", "downloads": 47, "homepage": "https://clawhub.ai/porteden/logger", "iconUrl": null, "installs": 0, "name": "Log Automation — Append log entries to Google Sheet", "ownerName": "porteden", "score": 95918.36734693877, "slug": "logger", "source": "clawhub", "stars": 0, "tags": null, "updated_at": 1776697184035, "version": "1.0.0"}, {"category": "", "created_at": 1774953037219, "description": "Use when optimizing LinkedIn profiles for doctors, physicians, nurses, healthcare professionals, or medical researchers. Crafts compelling headlines, writes...", "description_zh": "", "downloads": 47, "homepage": "https://clawhub.ai/aipoch-ai/linkedin-optimizer", "iconUrl": null, "installs": 10, "name": "LinkedIn Optimizer", "ownerName": "aipoch-ai", "score": 95918.36734693877, "slug": "linkedin-optimizer", "source": "clawhub", "stars": 0, "tags": null, "updated_at": 1776697183970, "version": "1.0.0"}, {"category": "", "created_at": 1774905038721, "description": "Creates and manages real subagents within OpenClaw Gateway to process visitor messages based on VOKO database and prompts.", "description_zh": "", "downloads": 46, "homepage": "https://clawhub.ai/tech-fcc-sys/voko-subagent", "iconUrl": null, "installs": 0, "name": "Voko Subagent", "ownerName": "tech-fcc-sys", "score": 3665.3386454183265, "slug": "voko-subagent", "source": "clawhub", "stars": 0, "tags": null, "updated_at": 1776760098127, "version": "1.0.1"}]}