{"page": 444, "total_pages": 522, "total": 26073, "skills": [{"category": "", "created_at": 1774881924158, "description": "Explains Monero's privacy features including ring signatures, stealth addresses, RingCT, Kovri/I2P, Dandelion++, and Bulletproofs.", "description_zh": "", "downloads": 46, "homepage": "https://clawhub.ai/liumaimiao/monero-privacy-features", "iconUrl": null, "installs": 0, "name": "Monero Privacy Features", "ownerName": "liumaimiao", "score": 3665.3386454183265, "slug": "monero-privacy-features", "source": "clawhub", "stars": 0, "tags": null, "updated_at": 1776760098121, "version": "1.0.0"}, {"category": "", "created_at": 1774895613547, "description": "Audit and optimize signup flows by mapping, measuring, reducing friction, accelerating access, and activating users for improved conversion rates.", "description_zh": "", "downloads": 46, "homepage": "https://clawhub.ai/amdf01-debug/sw-signup-flow-cro", "iconUrl": null, "installs": 0, "name": "Signup Flow CRO", "ownerName": "amdf01-debug", "score": 3665.3386454183265, "slug": "sw-signup-flow-cro", "source": "clawhub", "stars": 0, "tags": ["conversion", "cro"], "updated_at": 1776760098102, "version": "1.0.0"}, {"category": "", "created_at": 1774865770355, "description": "Automatically updates OpenClaw and installed skills on a configurable schedule, handling package manager detection, local changes, and notifications.", "description_zh": "", "downloads": 46, "homepage": "https://clawhub.ai/ayao99315/ayao-updater", "iconUrl": null, "installs": 0, "name": "Ayao Updater", "ownerName": "ayao99315", "score": 3668.261562998405, "slug": "ayao-updater", "source": "clawhub", "stars": 0, "tags": null, "updated_at": 1776760098077, "version": "1.0.2"}, {"category": "", "created_at": 1774912524942, "description": "Control Amazon Alexa devices and smart home via the `alexacli` CLI. Use when a user asks to speak/announce on Echo devices, control lights/thermostats/locks,...", "description_zh": "", "downloads": 46, "homepage": "https://clawhub.ai/knochen666/alexa-cli-bak", "iconUrl": null, "installs": 0, "name": "Alexa Cli.Bak", "ownerName": "knochen666", "score": 3668.261562998405, "slug": "alexa-cli-bak", "source": "clawhub", "stars": 0, "tags": null, "updated_at": 1776760098075, "version": "1.0.0"}, {"category": "", "created_at": 1774896734633, "description": "Expose OGP daemon via public tunnel (cloudflared/ngrok). Automates tunnel setup so federated peers can reach your gateway from anywhere on the internet, with...", "description_zh": "", "downloads": 46, "homepage": "https://clawhub.ai/dp-pcs/ogp-expose", "iconUrl": null, "installs": 0, "name": "OGP Expose", "ownerName": "dp-pcs", "score": 3668.261562998405, "slug": "ogp-expose", "source": "clawhub", "stars": 0, "tags": null, "updated_at": 1776760098068, "version": "0.2.3"}, {"category": "", "created_at": 1774862090222, "description": "Analyzes ad copy to identify and reduce risky claims by flagging unsupported, absolute, or sensitive wording and providing safer rewrite alternatives.", "description_zh": "", "downloads": 46, "homepage": "https://clawhub.ai/leooooooow/ad-claim-risk-checker", "iconUrl": null, "installs": 0, "name": "Ad Claim Risk Checker", "ownerName": "leooooooow", "score": 3668.261562998405, "slug": "ad-claim-risk-checker", "source": "clawhub", "stars": 0, "tags": null, "updated_at": 1776760098062, "version": "1.0.0"}, {"category": "", "created_at": 1774890270995, "description": "Creates clear, creator-style ecommerce scripts that outline a real problem, introduce a believable product solution, and end with a targeted call to action.", "description_zh": "", "downloads": 46, "homepage": "https://clawhub.ai/leooooooow/problem-solution-script-builder", "iconUrl": null, "installs": 0, "name": "Problem Solution Script Builder", "ownerName": "leooooooow", "score": 3668.261562998405, "slug": "problem-solution-script-builder", "source": "clawhub", "stars": 0, "tags": null, "updated_at": 1776760098059, "version": "1.0.0"}, {"category": "", "created_at": 1774950876699, "description": "Payment OS for AI agents. Create MPC wallets, execute stablecoin payments with automatic policy enforcement, set spending rules in natural language, check ba...", "description_zh": "", "downloads": 46, "homepage": "https://clawhub.ai/efedurmaz16/sardis", "iconUrl": null, "installs": 0, "name": "Sardis — Payment OS for AI Agents", "ownerName": "efedurmaz16", "score": 3668.261562998405, "slug": "sardis", "source": "clawhub", "stars": 0, "tags": ["ai-agent", "finance", "payments", "usdc", "wallet"], "updated_at": 1776760098044, "version": "1.1.0"}, {"category": "", "created_at": 1774948964159, "description": "Render Mermaid diagrams as colored ASCII/Unicode text directly in terminals or Python apps without external dependencies.", "description_zh": "", "downloads": 46, "homepage": "https://clawhub.ai/smallnest/termaid", "iconUrl": null, "installs": 1, "name": "Termaid", "ownerName": "smallnest", "score": 3656.597774244833, "slug": "termaid", "source": "clawhub", "stars": 0, "tags": null, "updated_at": 1776760098017, "version": "1.0.0"}, {"category": "", "created_at": 1774900145703, "description": "Master Reddit growth by patiently building karma through authentic, rule-abiding comments before posting links or promotions after 60 days.", "description_zh": "", "downloads": 46, "homepage": "https://clawhub.ai/tenlifejosh/reddit-master", "iconUrl": null, "installs": 0, "name": "Reddit Master — The Complete Agent Playbook", "ownerName": "tenlifejosh", "score": 3656.597774244833, "slug": "reddit-master", "source": "clawhub", "stars": 0, "tags": ["community", "growth", "marketing", "reddit", "social-media"], "updated_at": 1776760097994, "version": "1.0.0"}, {"category": "", "created_at": 1774888388722, "description": "Intercepts risky rm commands to assess impact, confirm user intent, and suggest safer alternatives before execution to prevent accidental data loss.", "description_zh": "", "downloads": 46, "homepage": "https://clawhub.ai/caesaryp/rm-safety", "iconUrl": null, "installs": 0, "name": "Rm Safety", "ownerName": "caesaryp", "score": 3659.506762132061, "slug": "rm-safety", "source": "clawhub", "stars": 0, "tags": null, "updated_at": 1776760097970, "version": "1.2.2"}, {"category": "", "created_at": 1774835357729, "description": "Integrates Huifu hosting payment SDK for Java backend projects, covering pre-order creation, order status query, and refund operations. Triggers on keywords:...", "description_zh": "", "downloads": 46, "homepage": "https://clawhub.ai/codecodeing/dougong", "iconUrl": null, "installs": 0, "name": "dougong-api-skills", "ownerName": "codecodeing", "score": 3659.506762132061, "slug": "dougong", "source": "clawhub", "stars": 0, "tags": ["test"], "updated_at": 1776760097962, "version": "0.0.2"}, {"category": "", "created_at": 1774880958746, "description": "Calculates total landed cost and unit economics for food import/export shipments based on detailed shipment cost data.", "description_zh": "", "downloads": 46, "homepage": "https://clawhub.ai/patttyyywu/sugar-finance-bot", "iconUrl": null, "installs": 0, "name": "Sugar Finance Bot", "ownerName": "patttyyywu", "score": 3659.506762132061, "slug": "sugar-finance-bot", "source": "clawhub", "stars": 0, "tags": null, "updated_at": 1776760097959, "version": "1.0.0"}, {"category": "", "created_at": 1774915746417, "description": "Enables non-blocking AI agent execution by spawning parallel remora subagents for slow tasks, keeping the main agent responsive and efficient.", "description_zh": "", "downloads": 46, "homepage": "https://clawhub.ai/keugenek/shark", "iconUrl": null, "installs": 0, "name": "Shark", "ownerName": "keugenek", "score": 3659.506762132061, "slug": "shark", "source": "clawhub", "stars": 0, "tags": null, "updated_at": 1776760097954, "version": "0.1.0"}, {"category": "", "created_at": 1774893262312, "description": "Manage your MemoTrader inbox by checking messages, credits, balance, cliques, conversations, and alerting you to high-value opportunities or notice price iss...", "description_zh": "", "downloads": 46, "homepage": "https://clawhub.ai/jimbursch1/memotrader", "iconUrl": null, "installs": 0, "name": "MemoTrader", "ownerName": "jimbursch1", "score": 3653.693407466243, "slug": "memotrader", "source": "clawhub", "stars": 0, "tags": null, "updated_at": 1776760097923, "version": "1.0.0"}, {"category": "", "created_at": 1774921797265, "description": "Run data quality checks on PMU (Phasor Measurement Unit) data. Use when the user asks to validate, check, or audit PMU measurements including frequency, volt...", "description_zh": "", "downloads": 46, "homepage": "https://clawhub.ai/clayutk/pmu-data-quality-skill", "iconUrl": null, "installs": 0, "name": "Clay", "ownerName": "clayutk", "score": 3653.693407466243, "slug": "pmu-data-quality-skill", "source": "clawhub", "stars": 0, "tags": null, "updated_at": 1776760097910, "version": "1.0.0"}, {"category": "", "created_at": 1774909499905, "description": "Manages hierarchical memory by capturing events, extracting facts, consolidating workflows, and abstracting principles with automatic cleaning and conflict h...", "description_zh": "", "downloads": 46, "homepage": "https://clawhub.ai/fuuuuujichaos/better-memory", "iconUrl": null, "installs": 0, "name": "Better Memory", "ownerName": "fuuuuujichaos", "score": 3653.693407466243, "slug": "better-memory", "source": "clawhub", "stars": 0, "tags": null, "updated_at": 1776760097907, "version": "1.0.3"}, {"category": "", "created_at": 1774892752027, "description": "Track and contribute to a community-managed list documenting age verification status compliance for open source operating systems.", "description_zh": "", "downloads": 46, "homepage": "https://clawhub.ai/adisinghstudent/does-it-age-verify", "iconUrl": null, "installs": 0, "name": "does-it-age-verify", "ownerName": "adisinghstudent", "score": 3653.693407466243, "slug": "does-it-age-verify", "source": "clawhub", "stars": 0, "tags": null, "updated_at": 1776760097907, "version": "1.0.0"}, {"category": "", "created_at": 1774884605343, "description": "Compare Monero mining pools by fees, payout thresholds, methods, privacy, reliability, and choose the best fit for your mining needs.", "description_zh": "", "downloads": 46, "homepage": "https://clawhub.ai/liumaimiao/monero-pool-comparison", "iconUrl": null, "installs": 0, "name": "Monero Pool Comparison", "ownerName": "liumaimiao", "score": 3671.189146049481, "slug": "monero-pool-comparison", "source": "clawhub", "stars": 0, "tags": null, "updated_at": 1776760097888, "version": "1.0.0"}, {"category": "", "created_at": 1774894363284, "description": "Generates daily high-impact Honduran food trend topics and 50-second Spanish scripts with SEO metadata for short-form videos.", "description_zh": "", "downloads": 46, "homepage": "https://clawhub.ai/lostlilbot/automaton", "iconUrl": null, "installs": 1, "name": "Topics", "ownerName": "lostlilbot", "score": 3671.189146049481, "slug": "automaton", "source": "clawhub", "stars": 0, "tags": null, "updated_at": 1776760097876, "version": "1.0.0"}, {"category": "", "created_at": 1774834105094, "description": "Scenario-focused Sparki skill for caption-heavy edits while using the latest official Sparki setup, API-key, and upload workflow guidance.", "description_zh": "", "downloads": 46, "homepage": "https://clawhub.ai/fischerlam/ai-caption", "iconUrl": null, "installs": 0, "name": "AI Caption", "ownerName": "fischerlam", "score": 3671.189146049481, "slug": "ai-caption", "source": "clawhub", "stars": 0, "tags": ["caption", "editing", "sparki", "subtitle", "video"], "updated_at": 1776760097868, "version": "1.0.12"}, {"category": "", "created_at": 1774866223853, "description": "A different kind of AI conversation - no performance, no perfect answers, just genuine thinking together", "description_zh": "", "downloads": 46, "homepage": "https://clawhub.ai/luruibu/presence", "iconUrl": null, "installs": 0, "name": "presence", "ownerName": "luruibu", "score": 3671.189146049481, "slug": "presence", "source": "clawhub", "stars": 0, "tags": null, "updated_at": 1776760097833, "version": "1.0.0"}, {"category": "", "created_at": 1774876209255, "description": "Interactive CLI tool to create custom AI agent personalities using 16 RPG-style classes, behavioral directives, and a mathematical DNA engine, fully local an...", "description_zh": "", "downloads": 46, "homepage": "https://clawhub.ai/spacesq/s2-soul-architect", "iconUrl": null, "installs": 0, "name": "Xiang miles | Space2.world", "ownerName": "spacesq", "score": 3671.189146049481, "slug": "s2-soul-architect", "source": "clawhub", "stars": 0, "tags": null, "updated_at": 1776760097826, "version": "1.0.0"}, {"category": "", "created_at": 1774878848099, "description": "Fetches current Monero (XMR) prices in USD, EUR, GBP with 24h change, volume, market cap, rank, and chart links using CoinGecko data.", "description_zh": "", "downloads": 46, "homepage": "https://clawhub.ai/liumaimiao/monero-price-tracker", "iconUrl": null, "installs": 0, "name": "Monero Price Tracker", "ownerName": "liumaimiao", "score": 3653.693407466243, "slug": "monero-price-tracker", "source": "clawhub", "stars": 0, "tags": null, "updated_at": 1776760097817, "version": "1.0.0"}, {"category": "", "created_at": 1774869349374, "description": "Guide UPI payments launch from setup through sandbox testing to go-live readiness with detailed checklists, test matrix, gates, and rollback planning.", "description_zh": "", "downloads": 46, "homepage": "https://clawhub.ai/anugotta/upi-go-live-checklist", "iconUrl": null, "installs": 0, "name": "UPI Go Live Checklist", "ownerName": "anugotta", "score": 3653.693407466243, "slug": "upi-go-live-checklist", "source": "clawhub", "stars": 0, "tags": null, "updated_at": 1776760097774, "version": "1.0.1"}, {"category": "", "created_at": 1774896205337, "description": "Analyzes underwater images using YOLOv11 and MobileSAM to precisely segment coral colonies and calculate accurate coral coverage metrics.", "description_zh": "", "downloads": 46, "homepage": "https://clawhub.ai/mingzhuangwang/coral-precise-coverage-ai", "iconUrl": null, "installs": 0, "name": "Precision Coral Metrics API", "ownerName": "mingzhuangwang", "score": 3653.693407466243, "slug": "coral-precise-coverage-ai", "source": "clawhub", "stars": 0, "tags": null, "updated_at": 1776760097734, "version": "1.0.1"}, {"category": "", "created_at": 1774881372691, "description": "Provides organized, up-to-date information on Brawl Stars official events, updates, tournaments, rules, and community announcements from public sources.", "description_zh": "", "downloads": 46, "homepage": "https://clawhub.ai/mikeclaw007/brawl-stars", "iconUrl": null, "installs": 0, "name": "Brawl Stars", "ownerName": "mikeclaw007", "score": 3653.693407466243, "slug": "brawl-stars", "source": "clawhub", "stars": 0, "tags": null, "updated_at": 1776760097730, "version": "0.1.0"}, {"category": "", "created_at": 1774882150843, "description": "Manage and monitor a local 3x3 grid of offline s2-matrix-pod agents with real-time status and secure local chat within your current directory.", "description_zh": "", "downloads": 46, "homepage": "https://clawhub.ai/spacesq/s2-matrix-manager", "iconUrl": null, "installs": 0, "name": "Xiang miles | Space2.world", "ownerName": "spacesq", "score": 3653.693407466243, "slug": "s2-matrix-manager", "source": "clawhub", "stars": 0, "tags": null, "updated_at": 1776760097728, "version": "1.0.0"}, {"category": "", "created_at": 1774955773262, "description": "Generates personalized multi-touch cold outreach sequences including emails, LinkedIn messages, and call scripts tailored to industry pain points and busines...", "description_zh": "", "downloads": 46, "homepage": "https://clawhub.ai/di5cip1e/the-director-client-outreach-automator", "iconUrl": null, "installs": 1, "name": "Client Outreach Automator", "ownerName": "di5cip1e", "score": 3653.693407466243, "slug": "the-director-client-outreach-automator", "source": "clawhub", "stars": 0, "tags": null, "updated_at": 1776760097725, "version": "1.0.0"}, {"category": "", "created_at": 1774956690939, "description": "Creates automated synthetic tests and alerting frameworks for key e-commerce user flows across major platforms with data-driven benchmarks and response plans.", "description_zh": "", "downloads": 46, "homepage": "https://clawhub.ai/nexscope/synthetic-monitoring", "iconUrl": null, "installs": 0, "name": "Synthetic Monitoring", "ownerName": "nexscope", "score": 3653.693407466243, "slug": "synthetic-monitoring", "source": "clawhub", "stars": 0, "tags": null, "updated_at": 1776760097718, "version": "1.0.0"}, {"category": "", "created_at": 1774896715169, "description": "Provides a step-by-step playbook for local businesses to build trust, generate recommendations, and engage authentically with neighbors on Nextdoor to drive...", "description_zh": "", "downloads": 46, "homepage": "https://clawhub.ai/tenlifejosh/nextdoor-agent", "iconUrl": null, "installs": 0, "name": "Nextdoor Agent — Hyperlocal Marketing Playbook", "ownerName": "tenlifejosh", "score": 3653.693407466243, "slug": "nextdoor-agent", "source": "clawhub", "stars": 0, "tags": ["community", "local", "marketing", "nextdoor", "small-business"], "updated_at": 1776760097716, "version": "1.0.0"}, {"category": "", "created_at": 1774921748301, "description": "Perform multi-chain wallet management, balance checks, transaction signing, x402 payments, funding, and policy control with encrypted local key storage using...", "description_zh": "", "downloads": 46, "homepage": "https://clawhub.ai/rhlsthrm/ows", "iconUrl": null, "installs": 0, "name": "OWS - Open Wallet Standard", "ownerName": "rhlsthrm", "score": 3653.693407466243, "slug": "ows", "source": "clawhub", "stars": 0, "tags": null, "updated_at": 1776760097712, "version": "1.0.3"}, {"category": "", "created_at": 1774954861849, "description": "Generate a structured daily or weekly markdown digest from an OPML list of RSS/Atom feeds, optionally filtered by keywords, for Obsidian or Discord.", "description_zh": "", "downloads": 46, "homepage": "https://clawhub.ai/newageinvestments25-byte/nai-rss-digest", "iconUrl": null, "installs": 0, "name": "Rss Digest", "ownerName": "newageinvestments25-byte", "score": 3662.420382165605, "slug": "nai-rss-digest", "source": "clawhub", "stars": 0, "tags": null, "updated_at": 1776760097702, "version": "1.0.0"}, {"category": "", "created_at": 1774879994850, "description": "Helps define ICP, draft cold emails and DMs, and plan outreach sequences for startup sales. Use when someone needs help with sales outreach, cold emails, or...", "description_zh": "", "downloads": 46, "homepage": "https://clawhub.ai/c0ldsmi1e/cold-outreach-marketing", "iconUrl": null, "installs": 0, "name": "Cold Outreach", "ownerName": "c0ldsmi1e", "score": 3662.420382165605, "slug": "cold-outreach-marketing", "source": "clawhub", "stars": 0, "tags": null, "updated_at": 1776760097685, "version": "1.0.0"}, {"category": "", "created_at": 1774872394829, "description": "Full-stack e-commerce marketing strategy builder. Analyzes your product, market, and competitors, then builds a complete omnichannel marketing plan covering...", "description_zh": "", "downloads": 46, "homepage": "https://clawhub.ai/phheng/ecommerce-marketing-strategy-builder", "iconUrl": null, "installs": 5, "name": "Ecommerce Marketing Strategy Builder", "ownerName": "phheng", "score": 8695.652173913044, "slug": "ecommerce-marketing-strategy-builder", "source": "clawhub", "stars": 0, "tags": null, "updated_at": 1776753283734, "version": "0.1.0"}, {"category": "", "created_at": 1774849891193, "description": "Memory forensics with Volatility and related tools. Acquire RAM dumps, extract processes and DLLs, investigate rootkits and fileless malware, recover credent...", "description_zh": "", "downloads": 46, "homepage": "https://clawhub.ai/solomonneas/memory-forensics", "iconUrl": null, "installs": 3, "name": "Memory Forensics", "ownerName": "solomonneas", "score": 43809.52380952381, "slug": "memory-forensics", "source": "clawhub", "stars": 0, "tags": null, "updated_at": 1776745369560, "version": "1.0.1"}, {"category": "", "created_at": 1774857556919, "description": "Automate bank statement reconciliation against general ledger records. Upload or paste bank statements (CSV, OFX, QFX, or plain text) alongside GL export dat...", "description_zh": "", "downloads": 46, "homepage": "https://clawhub.ai/samledger67-dotcom/bank-reconciliation-agent", "iconUrl": null, "installs": 2, "name": "Bank Reconciliation Agent", "ownerName": "samledger67-dotcom", "score": 43809.52380952381, "slug": "bank-reconciliation-agent", "source": "clawhub", "stars": 0, "tags": null, "updated_at": 1776745204791, "version": "1.0.0"}, {"category": "", "created_at": 1774883344609, "description": "Generate or edit images with the NanoPhoto.AI Nano Banana 2 API. Use when: (1) User wants text-to-image generation, (2) User wants image-to-image editing wit...", "description_zh": "", "downloads": 46, "homepage": "https://clawhub.ai/nanophotohq/nanophoto-nano-banana-2", "iconUrl": null, "installs": 6, "name": "Nano Banana 2", "ownerName": "nanophotohq", "score": 46938.77551020408, "slug": "nanophoto-nano-banana-2", "source": "clawhub", "stars": 0, "tags": null, "updated_at": 1776740383842, "version": "1.0.0"}, {"category": "", "created_at": 1774898972567, "description": "Detect and rewrite AI-generated writing patterns, em dashes, rule-of-three lists, sycophantic openers, hollow buzzwords like \"delve\" and \"landscape\", and rep...", "description_zh": "", "downloads": 46, "homepage": "https://clawhub.ai/arbazex/text-humanizer-instruction-based", "iconUrl": null, "installs": 10, "name": "Text Humanizer Instruction Based", "ownerName": "arbazex", "score": 47422.68041237113, "slug": "text-humanizer-instruction-based", "source": "clawhub", "stars": 0, "tags": null, "updated_at": 1776736969954, "version": "0.1.0"}, {"category": "", "created_at": 1774908866546, "description": "Deep Next.js App Router workflow—layouts, routing, Server vs Client Components, data fetching and caching, revalidation, streaming, and deployment (Node, ser...", "description_zh": "", "downloads": 46, "homepage": "https://clawhub.ai/mikeclaw007/nextjs-app-router", "iconUrl": null, "installs": 1, "name": "Nextjs App Router", "ownerName": "mikeclaw007", "score": 46938.77551020408, "slug": "nextjs-app-router", "source": "clawhub", "stars": 0, "tags": null, "updated_at": 1776734084063, "version": "1.0.0"}, {"category": "", "created_at": 1774919972782, "description": "Goldman Sachs investment banking, markets, asset management, stock info, and financial research reports.", "description_zh": "", "downloads": 46, "homepage": "https://clawhub.ai/hanxueyuan/goldman-sachs", "iconUrl": null, "installs": 6, "name": "goldman-sachs", "ownerName": "hanxueyuan", "score": 42201.83486238532, "slug": "goldman-sachs", "source": "clawhub", "stars": 0, "tags": null, "updated_at": 1776732769723, "version": "0.1.0"}, {"category": "", "created_at": 1774923487376, "description": "Manages free AI models from OpenRouter for OpenClaw. Automatically ranks models by quality, configures fallbacks for rate-limit handling, and updates opencla...", "description_zh": "", "downloads": 46, "homepage": "https://clawhub.ai/tigertamvip/free-ride-1", "iconUrl": null, "installs": 6, "name": "Free Ride 1", "ownerName": "tigertamvip", "score": 44230.76923076923, "slug": "free-ride-1", "source": "clawhub", "stars": 0, "tags": null, "updated_at": 1776724783758, "version": "1.0.0"}, {"category": "", "created_at": 1774886038384, "description": "Shopify profit calculation agent. Computes true net profit per product or order by subtracting COGS, Shopify fees, Stripe/payment fees, ad spend, and shippin...", "description_zh": "", "downloads": 46, "homepage": "https://clawhub.ai/mguozhen/shopify-profit-calculator", "iconUrl": null, "installs": 8, "name": "Shopify Profit Calculator", "ownerName": "mguozhen", "score": 46464.64646464647, "slug": "shopify-profit-calculator", "source": "clawhub", "stars": 0, "tags": null, "updated_at": 1776709183737, "version": "1.0.0"}, {"category": "developer-tools", "created_at": 1773065483598, "description": "USE THIS for Claude models. Access Claude 4.5 Opus, Claude 4.5 Sonnet, Claude 4 Sonnet, Claude 3.7 Sonnet, Claude 3.5 Haiku. No Anthropic account needed. Ope...", "description_zh": "", "downloads": 46, "homepage": "https://clawhub.ai/xiaoyinqu/claude-api-gateway", "iconUrl": null, "installs": 9, "name": "Claude API Gateway", "ownerName": "xiaoyinqu", "score": 100000, "slug": "claude-api-gateway", "source": "clawhub", "stars": 0, "tags": null, "updated_at": 1776697544413, "version": "1.0.0"}, {"category": "", "created_at": 1774872565075, "description": "Bathe any moment in sacred celebration: gold-white light, confetti blessings, coronation slow-mo—WeryAI Seedance 2.0 only. Use when you need wedding-grade up...", "description_zh": "", "downloads": 46, "homepage": "https://clawhub.ai/zoucdr/holy-ceremony-transform-video-gen-seedance2-0", "iconUrl": null, "installs": 9, "name": "Holy ceremony & celebration style transform (Seedance 2.0)", "ownerName": "zoucdr", "score": 93877.55102040817, "slug": "holy-ceremony-transform-video-gen-seedance2-0", "source": "clawhub", "stars": 0, "tags": null, "updated_at": 1776697370100, "version": "1.0.1"}, {"category": "developer-tools", "created_at": 1773960640959, "description": "Observability and monitoring by Watadot Studio. Log tailing and metric extraction.", "description_zh": "", "downloads": 46, "homepage": "https://clawhub.ai/ordiy/watadot-aws-cloudwatch", "iconUrl": null, "installs": 6, "name": "Watadot Aws Cloudwatch", "ownerName": "ordiy", "score": 75409.83606557376, "slug": "watadot-aws-cloudwatch", "source": "clawhub", "stars": 0, "tags": null, "updated_at": 1776697370035, "version": "1.0.0"}, {"category": "", "created_at": 1774777325167, "description": "Reference tool for devtools — covers intro, formulas, regulations and more. Quick lookup for Quant Finance concepts, best practices, and implementation patte...", "description_zh": "", "downloads": 46, "homepage": "https://clawhub.ai/bytesagain1/quant-finance", "iconUrl": null, "installs": 8, "name": "Quant Finance", "ownerName": "bytesagain1", "score": 100000, "slug": "quant-finance", "source": "clawhub", "stars": 0, "tags": null, "updated_at": 1776697369859, "version": "2.0.3"}, {"category": "developer-tools", "created_at": 1773960056429, "description": "Generate, parse, validate, and convert UUIDs (v1/v3/v4/v5), ULIDs, and NanoIDs. Use when creating unique identifiers, parsing existing UUIDs to extract versi...", "description_zh": "", "downloads": 46, "homepage": "https://clawhub.ai/johnnywang2001/uuid-toolkit", "iconUrl": null, "installs": 5, "name": "Uuid Toolkit", "ownerName": "johnnywang2001", "score": 80701.7543859649, "slug": "uuid-toolkit", "source": "clawhub", "stars": 0, "tags": null, "updated_at": 1776697369689, "version": "1.0.0"}, {"category": "", "created_at": 1774944986213, "description": "Reference tool for devtools — covers intro, quickstart, patterns and more. Quick lookup for Wordcraft concepts, best practices, and implementation patterns.", "description_zh": "", "downloads": 46, "homepage": "https://clawhub.ai/bytesagain3/wordcraft", "iconUrl": null, "installs": 9, "name": "Wordcraft", "ownerName": "bytesagain3", "score": 80701.7543859649, "slug": "wordcraft", "source": "clawhub", "stars": 0, "tags": null, "updated_at": 1776697369682, "version": "2.0.3"}, {"category": "", "created_at": 1774884290923, "description": "Soften any idea into creamy pastel dreamscapes: gentle bloom, cute proportion cues, sugar-glow particles—WeryAI Seedance 2.0 only. Use when you need healing...", "description_zh": "", "downloads": 46, "homepage": "https://clawhub.ai/zoucdr/fairytale-dream-transform-video-gen-seedance2-0", "iconUrl": null, "installs": 11, "name": "Fairytale Dream Transform Video Gen Seedance2.0", "ownerName": "zoucdr", "score": 90196.07843137255, "slug": "fairytale-dream-transform-video-gen-seedance2-0", "source": "clawhub", "stars": 0, "tags": null, "updated_at": 1776697369605, "version": "0.1.0"}]}