{"page": 445, "total_pages": 522, "total": 26073, "skills": [{"category": "", "created_at": 1774834712439, "description": "Use when integrating or upgrading the AnalyticsCLI TypeScript SDK in web, TypeScript, React Native, or Expo apps.", "description_zh": "", "downloads": 46, "homepage": "https://clawhub.ai/wotaso-dev/analyticscli-ts-sdk", "iconUrl": null, "installs": 1, "name": "Analyticscli Ts Sdk", "ownerName": "wotaso-dev", "score": 51111.11111111111, "slug": "analyticscli-ts-sdk", "source": "clawhub", "stars": 0, "tags": null, "updated_at": 1776697255518, "version": "1.0.8"}, {"category": "content-creation", "created_at": 1772763287296, "description": "Use when generating visual assets with Bria.ai - product photos, hero images, icons, backgrounds. Includes batch generation (multiple images concurrently), pipeline workflows (generate → edit → remove background), and parallel API patterns. Use for websites, presentations, e-commerce catalogs, or any task needing multiple AI-generated images.", "description_zh": "", "downloads": 46, "homepage": "https://clawhub.ai/galbria/bria-ai-api-skill", "iconUrl": null, "installs": 12, "name": "image generation and editing", "ownerName": "galbria", "score": 51111.11111111111, "slug": "bria-ai-api-skill", "source": "clawhub", "stars": 0, "tags": null, "updated_at": 1776697255512, "version": "0.0.1"}, {"category": "", "created_at": 1774909716642, "description": "Fullstory integration. Manage Users, Sessions. Use when the user wants to interact with Fullstory data.", "description_zh": "", "downloads": 46, "homepage": "https://clawhub.ai/gora050/fullstory", "iconUrl": null, "installs": 0, "name": "Fullstory", "ownerName": "gora050", "score": 51111.11111111111, "slug": "fullstory", "source": "clawhub", "stars": 0, "tags": null, "updated_at": 1776697255507, "version": "1.0.0"}, {"category": "content-creation", "created_at": 1772748454217, "description": "Use when generating visual assets with Bria.ai - product photos, hero images, icons, backgrounds. Includes batch generation (multiple images concurrently), pipeline workflows (generate → edit → remove background), and parallel API patterns. Use for websites, presentations, e-commerce catalogs, or any task needing multiple AI-generated images.", "description_zh": "", "downloads": 46, "homepage": "https://clawhub.ai/galbria/bria-ai-api", "iconUrl": null, "installs": 12, "name": "Bria Ai API Client", "ownerName": "galbria", "score": 51111.11111111111, "slug": "bria-ai-api", "source": "clawhub", "stars": 0, "tags": null, "updated_at": 1776697255501, "version": "0.0.1"}, {"category": "", "created_at": 1774917832328, "description": "Use this skill when the user wants to create visualizations (charts, dashboards, diagrams, Gantt, PPT), analyze data (Excel/CSV upload, cross-file analysis,...", "description_zh": "", "downloads": 46, "homepage": "https://clawhub.ai/chartgen-ai/chartai", "iconUrl": null, "installs": 2, "name": "Chart AI", "ownerName": "chartgen-ai", "score": 51111.11111111111, "slug": "chartai", "source": "clawhub", "stars": 0, "tags": null, "updated_at": 1776697255500, "version": "1.0.0"}, {"category": "", "created_at": 1774869616562, "description": "AWS EMR interaction skill for managing EMR Serverless, EMR on EC2, and EMR on EKS. Submit and manage Spark, Hive, and PySpark jobs across all three EMR deplo...", "description_zh": "", "downloads": 46, "homepage": "https://clawhub.ai/yhyyz/aws-emr-skills", "iconUrl": null, "installs": 1, "name": "Aws Emr Skill", "ownerName": "yhyyz", "score": 51111.11111111111, "slug": "aws-emr-skills", "source": "clawhub", "stars": 0, "tags": null, "updated_at": 1776697255491, "version": "2.0.0"}, {"category": "", "created_at": 1774848845734, "description": "LinkedIn job search assistant that scrapes listings, filters by technologies and countries, and scores matches with AI. Use when the user wants to find jobs,...", "description_zh": "", "downloads": 46, "homepage": "https://clawhub.ai/keepfit44/jobclaw", "iconUrl": null, "installs": 5, "name": "Job Hunter", "ownerName": "keepfit44", "score": 51111.11111111111, "slug": "jobclaw", "source": "clawhub", "stars": 0, "tags": ["ai-scoring", "career", "job-search", "jobs", "linkedin"], "updated_at": 1776697255487, "version": "1.1.0"}, {"category": "", "created_at": 1774908764699, "description": "Deep LLM evaluation workflow—quality dimensions, golden sets, human vs automatic metrics, regression suites, offline/online signals, and safe rollout gates f...", "description_zh": "", "downloads": 46, "homepage": "https://clawhub.ai/codenova58/llm-evaluation", "iconUrl": null, "installs": 2, "name": "Llm Evaluation", "ownerName": "codenova58", "score": 51111.11111111111, "slug": "llm-evaluation", "source": "clawhub", "stars": 0, "tags": null, "updated_at": 1776697255482, "version": "1.0.0"}, {"category": "security-compliance", "created_at": 1773958520912, "description": "Access Analyzer API skill. Use when working with Access Analyzer for archive-rule, policy, access-preview. Covers 35 endpoints.", "description_zh": "", "downloads": 46, "homepage": "https://clawhub.ai/mickmicksh/lap-access-analyzer", "iconUrl": null, "installs": 3, "name": "Lap Access Analyzer", "ownerName": "mickmicksh", "score": 51111.11111111111, "slug": "lap-access-analyzer", "source": "clawhub", "stars": 0, "tags": null, "updated_at": 1776697255472, "version": "1.0.0"}, {"category": "", "created_at": 1774851714172, "description": "Give an AI agent a real inbox and outbound email using Robotomail. Use this skill when the user asks you to send email, check inbox, read messages, reply to...", "description_zh": "", "downloads": 46, "homepage": "https://clawhub.ai/johnjoubert/robotomail", "iconUrl": null, "installs": 3, "name": "Openclaw", "ownerName": "johnjoubert", "score": 51111.11111111111, "slug": "robotomail", "source": "clawhub", "stars": 0, "tags": null, "updated_at": 1776697255463, "version": "1.0.3"}, {"category": "", "created_at": 1774955265409, "description": "Techniques for writing effective fuzzing harnesses across languages. Use when creating new fuzz targets or improving existing harness code.", "description_zh": "", "downloads": 46, "homepage": "https://clawhub.ai/reikys/harness-writing", "iconUrl": null, "installs": 8, "name": "Harness Writing", "ownerName": "reikys", "score": 51111.11111111111, "slug": "harness-writing", "source": "clawhub", "stars": 0, "tags": null, "updated_at": 1776697246997, "version": "1.0.0"}, {"category": "", "created_at": 1774906200033, "description": "Send your AI agent to Agent4Science — a social network where AI scientists discuss, debate, and post research papers. Register, post takes, comment, and join...", "description_zh": "", "downloads": 46, "homepage": "https://clawhub.ai/summerann/agent4science", "iconUrl": null, "installs": 4, "name": "Agent4Science", "ownerName": "summerann", "score": 51111.11111111111, "slug": "agent4science", "source": "clawhub", "stars": 0, "tags": ["ai-agents", "einstein-arena", "research", "science", "social-network"], "updated_at": 1776697246973, "version": "2.0.0"}, {"category": "", "created_at": 1774836250374, "description": "Search magnet links for movies/TV shows and download via qBittorrent. Automatically scores and ranks results by subtitle availability and resolution. Trigger...", "description_zh": "", "downloads": 46, "homepage": "https://clawhub.ai/d19310/torrent-downloader", "iconUrl": null, "installs": 7, "name": "Torrent Downloader", "ownerName": "d19310", "score": 51111.11111111111, "slug": "torrent-downloader", "source": "clawhub", "stars": 0, "tags": null, "updated_at": 1776697244721, "version": "1.0.0"}, {"category": "", "created_at": 1774902163651, "description": "Image to Markdown - extract text from images (PNG, JPG, WebP) to Markdown with OCR. Use when reading text from screenshots, photos, scanned pages, or any ima...", "description_zh": "", "downloads": 46, "homepage": "https://clawhub.ai/tanis90/img2md", "iconUrl": null, "installs": 5, "name": "Img2md", "ownerName": "tanis90", "score": 65714.28571428571, "slug": "img2md", "source": "clawhub", "stars": 0, "tags": null, "updated_at": 1776697244663, "version": "1.0.0"}, {"category": "", "created_at": 1774889948884, "description": "Inspect, validate, summarize, and troubleshoot GeoJSON files and payloads, including FeatureCollection checks, geometry counting, bbox generation, coordinate...", "description_zh": "", "downloads": 46, "homepage": "https://clawhub.ai/jvy/geojson", "iconUrl": null, "installs": 8, "name": "geojson", "ownerName": "jvy", "score": 65714.28571428571, "slug": "geojson", "source": "clawhub", "stars": 0, "tags": null, "updated_at": 1776697244647, "version": "1.0.0"}, {"category": "developer-tools", "created_at": 1773960958838, "description": "Design and implement RESTful API endpoints following FastAPI best practices. Use when creating new API routes, designing request/response schemas, or when th...", "description_zh": "", "downloads": 46, "homepage": "https://clawhub.ai/laimiaohua/gi-api-design-fastapi", "iconUrl": null, "installs": 3, "name": "GI API Design FastAPI", "ownerName": "laimiaohua", "score": 65714.28571428571, "slug": "gi-api-design-fastapi", "source": "clawhub", "stars": 0, "tags": null, "updated_at": 1776697244615, "version": "1.0.0"}, {"category": "", "created_at": 1774879726935, "description": "QR code scanning and generation. Invoke when user needs to scan/decode QR codes from images, generate QR codes (text, URL, WiFi), or mentions QR code related...", "description_zh": "", "downloads": 46, "homepage": "https://clawhub.ai/moxin1044/qrcode-scan", "iconUrl": null, "installs": 0, "name": "qrcode-scan", "ownerName": "moxin1044", "score": 65714.28571428571, "slug": "qrcode-scan", "source": "clawhub", "stars": 0, "tags": null, "updated_at": 1776697244577, "version": "1.0.0"}, {"category": "ai-intelligence", "created_at": 1773960005322, "description": "Give AI agents persistent identity and shared memory across runtimes, devices, and sessions — Git-native, no database, no vendor lock-in.", "description_zh": "", "downloads": 46, "homepage": "https://clawhub.ai/kingcharleslzy-ai/soul-sharing", "iconUrl": null, "installs": 4, "name": "Soul Sharing", "ownerName": "kingcharleslzy-ai", "score": 65714.28571428571, "slug": "soul-sharing", "source": "clawhub", "stars": 0, "tags": null, "updated_at": 1776697244576, "version": "1.0.0"}, {"category": "security-compliance", "created_at": 1773959568980, "description": "Set up and use 1Password CLI (op). Use when installing the CLI, enabling desktop app integration, signing in (single or multi-account), or reading/injecting/...", "description_zh": "", "downloads": 46, "homepage": "https://clawhub.ai/npjameszheng1125-netizen/npjames-1password", "iconUrl": null, "installs": 3, "name": "Npjames 1password", "ownerName": "npjameszheng1125-netizen", "score": 65714.28571428571, "slug": "npjames-1password", "source": "clawhub", "stars": 0, "tags": null, "updated_at": 1776697244544, "version": "1.0.0"}, {"category": "", "created_at": 1774924801076, "description": "End-to-end pipeline for converting PPT/PPTX/PDF slides with speaker notes into narrated MP4 videos. Defaults to Edge TTS (Microsoft free online API) for univ...", "description_zh": "", "downloads": 46, "homepage": "https://clawhub.ai/hzsunzixiang/slide-to-video-converter", "iconUrl": null, "installs": 1, "name": "slide-to-video-converter", "ownerName": "hzsunzixiang", "score": 65714.28571428571, "slug": "slide-to-video-converter", "source": "clawhub", "stars": 0, "tags": null, "updated_at": 1776697244537, "version": "1.0.0"}, {"category": "", "created_at": 1774924942768, "description": "Professional entry-level software testing career roadmap platform that generates personalized learning paths based on candidate assessment data.", "description_zh": "", "downloads": 46, "homepage": "https://clawhub.ai/krishnakumarmahadevan-cmd/test-engineer", "iconUrl": null, "installs": 9, "name": "Test Engineer", "ownerName": "krishnakumarmahadevan-cmd", "score": 65714.28571428571, "slug": "test-engineer", "source": "clawhub", "stars": 0, "tags": null, "updated_at": 1776697244521, "version": "1.0.0"}, {"category": "ai-intelligence", "created_at": 1773960686014, "description": "Automatically evaluate and compare multiple AI models or agents without pre-existing test data. Generates test queries from a task description, collects resp...", "description_zh": "", "downloads": 46, "homepage": "https://clawhub.ai/helloml0326/auto-arena", "iconUrl": null, "installs": 5, "name": "Auto Arena", "ownerName": "helloml0326", "score": 65714.28571428571, "slug": "auto-arena", "source": "clawhub", "stars": 0, "tags": null, "updated_at": 1776697244518, "version": "1.0.0"}, {"category": "", "created_at": 1774895691178, "description": "Typesense integration. Manage data, records, and automate workflows. Use when the user wants to interact with Typesense data.", "description_zh": "", "downloads": 46, "homepage": "https://clawhub.ai/gora050/typesense", "iconUrl": null, "installs": 0, "name": "Typesense", "ownerName": "gora050", "score": 65714.28571428571, "slug": "typesense", "source": "clawhub", "stars": 0, "tags": null, "updated_at": 1776697244506, "version": "1.0.0"}, {"category": "", "created_at": 1774857758956, "description": "Classify customer support tickets, draft accurate responses, suggest macros, and route escalations based on risk, SLA, and business impact.", "description_zh": "", "downloads": 46, "homepage": "https://clawhub.ai/anugotta/customer-support-autopilot", "iconUrl": null, "installs": 0, "name": "Customer Support Autopilot", "ownerName": "anugotta", "score": 65714.28571428571, "slug": "customer-support-autopilot", "source": "clawhub", "stars": 0, "tags": null, "updated_at": 1776697244498, "version": "1.0.0"}, {"category": "", "created_at": 1774895193329, "description": "Route high-value content into a Notion workspace with a quality gate, destination mapping, and exact MCP write patterns. ALWAYS trigger when the user says \"s...", "description_zh": "", "downloads": 46, "homepage": "https://clawhub.ai/zurbrick/notion-brain", "iconUrl": null, "installs": 10, "name": "Notion Brain", "ownerName": "zurbrick", "score": 65714.28571428571, "slug": "notion-brain", "source": "clawhub", "stars": 0, "tags": null, "updated_at": 1776697244402, "version": "1.0.0"}, {"category": "developer-tools", "created_at": 1773960726337, "description": "Generate descriptive commit messages by analyzing git diffs. Use when the user asks for help writing commit messages or reviewing staged changes.", "description_zh": "", "downloads": 46, "homepage": "https://clawhub.ai/laimiaohua/gi-git-commit-helper", "iconUrl": null, "installs": 6, "name": "GI Git Commit Helper", "ownerName": "laimiaohua", "score": 65714.28571428571, "slug": "gi-git-commit-helper", "source": "clawhub", "stars": 0, "tags": null, "updated_at": 1776697244396, "version": "1.0.0"}, {"category": "", "created_at": 1774881718753, "description": "HTML 2 PDF integration. Manage Documents, Templates. Use when the user wants to interact with HTML 2 PDF data.", "description_zh": "", "downloads": 46, "homepage": "https://clawhub.ai/gora050/html-2-pdf", "iconUrl": null, "installs": 11, "name": "Html 2 Pdf", "ownerName": "gora050", "score": 65714.28571428571, "slug": "html-2-pdf", "source": "clawhub", "stars": 0, "tags": null, "updated_at": 1776697244388, "version": "1.0.0"}, {"category": "", "created_at": 1774892023732, "description": "Coordinate meeting requests, proposed time slots, confirmations, and ICS exports from a local scheduling ledger.", "description_zh": "", "downloads": 45, "homepage": "https://clawhub.ai/mehulupase01/smart-scheduler", "iconUrl": null, "installs": 1, "name": "Smart Scheduler", "ownerName": "mehulupase01", "score": 1209.0274046211714, "slug": "smart-scheduler", "source": "clawhub", "stars": 0, "tags": null, "updated_at": 1776768671271, "version": "0.1.0"}, {"category": "", "created_at": 1774875545241, "description": "Helps Etsy sellers write better listings, shop pages, customer messages, and social media captions using AI. Use when a user asks for help with Etsy product...", "description_zh": "", "downloads": 45, "homepage": "https://clawhub.ai/jaredleighton30073007-netizen/etsy-seller-helper", "iconUrl": null, "installs": 6, "name": "Etsy Seller Helper", "ownerName": "jaredleighton30073007-netizen", "score": 2602.6604973973394, "slug": "etsy-seller-helper", "source": "clawhub", "stars": 0, "tags": null, "updated_at": 1776765310811, "version": "1.0.0"}, {"category": "", "created_at": 1774835453513, "description": "Manage a physical store of any kind with opening routines, inventory control, staffing, cash discipline, merchandising, and weekly reviews.", "description_zh": "", "downloads": 45, "homepage": "https://clawhub.ai/ivangdavila/store", "iconUrl": null, "installs": 1, "name": "Store", "ownerName": "ivangdavila", "score": 2453.653217011996, "slug": "store", "source": "clawhub", "stars": 0, "tags": null, "updated_at": 1776764950172, "version": "1.0.0"}, {"category": "", "created_at": 1774891894036, "description": "Designs referral and affiliate program structure for startups. Use when someone wants help setting up a referral program, affiliate program, or word-of-mouth...", "description_zh": "", "downloads": 45, "homepage": "https://clawhub.ai/c0ldsmi1e/referral-program-strategy", "iconUrl": null, "installs": 0, "name": "Referral Program Strategy", "ownerName": "c0ldsmi1e", "score": 3585.6573705179285, "slug": "referral-program-strategy", "source": "clawhub", "stars": 0, "tags": null, "updated_at": 1776760098124, "version": "1.0.0"}, {"category": "", "created_at": 1774895405485, "description": "Automatically crawls and extracts new chat logs to silently inject structured memory chunks into Space2-OS's hippocampus for agent personality evolution.", "description_zh": "", "downloads": 45, "homepage": "https://clawhub.ai/spacesq/s2-memory-hook", "iconUrl": null, "installs": 1, "name": "Xiang miles | Space2.world", "ownerName": "spacesq", "score": 3585.6573705179285, "slug": "s2-memory-hook", "source": "clawhub", "stars": 0, "tags": null, "updated_at": 1776760098090, "version": "1.0.0"}, {"category": "", "created_at": 1774950267443, "description": "Professional first-draft generator. Trigger whenever the user needs to write anything from scratch: emails, reports, articles, proposals, memos, cover letter...", "description_zh": "", "downloads": 45, "homepage": "https://clawhub.ai/tigertamvip/draft-1", "iconUrl": null, "installs": 0, "name": "Draft 1", "ownerName": "tigertamvip", "score": 3577.106518282989, "slug": "draft-1", "source": "clawhub", "stars": 0, "tags": null, "updated_at": 1776760097989, "version": "1.0.0"}, {"category": "", "created_at": 1774833323200, "description": "Calculate SAR indicator, analyze A-share trends, price position, volume ratio, momentum, and provide a four-dimensional score and trading suggestion.", "description_zh": "", "downloads": 45, "homepage": "https://clawhub.ai/haohanyang92/sar-calculator", "iconUrl": null, "installs": 0, "name": "Sar Calculator", "ownerName": "haohanyang92", "score": 3574.265289912629, "slug": "sar-calculator", "source": "clawhub", "stars": 0, "tags": null, "updated_at": 1776760097912, "version": "1.0.0"}, {"category": "", "created_at": 1774912662654, "description": "Automatically extract key points from long texts in Chinese or English using keywords or length triggers, outputting clear, concise bullet-point summaries.", "description_zh": "", "downloads": 45, "homepage": "https://clawhub.ai/1466561686/cs", "iconUrl": null, "installs": 0, "name": "cs", "ownerName": "1466561686", "score": 3591.3806863527534, "slug": "cs", "source": "clawhub", "stars": 0, "tags": null, "updated_at": 1776760097854, "version": "1.0.0"}, {"category": "", "created_at": 1774869251612, "description": "Helps you gently review and reflect on today, yesterday, or this week by organizing your thoughts into a clear, low-pressure summary.", "description_zh": "", "downloads": 45, "homepage": "https://clawhub.ai/joeyshee/soft-landing", "iconUrl": null, "installs": 0, "name": "Soft Landing — Reflect Without Pressure", "ownerName": "joeyshee", "score": 3574.265289912629, "slug": "soft-landing", "source": "clawhub", "stars": 0, "tags": ["journaling", "mental-model", "productivity", "reflection", "review"], "updated_at": 1776760097747, "version": "0.1.0"}, {"category": "", "created_at": 1774903595214, "description": "Predict.fun skill with a PolyClaw-style CLI for markets, wallet funding, trading, positions, and hedging.", "description_zh": "", "downloads": 45, "homepage": "https://clawhub.ai/walioo/predictclaw-publish-docs-20260320", "iconUrl": null, "installs": 0, "name": "Predictclaw Publish Docs 20260320", "ownerName": "walioo", "score": 3574.265289912629, "slug": "predictclaw-publish-docs-20260320", "source": "clawhub", "stars": 0, "tags": null, "updated_at": 1776760097745, "version": "0.1.11"}, {"category": "", "created_at": 1774837271880, "description": "Users describe a trading style in natural language, and the skill creates a crypto trading bot, runs local backtests, supports periodic reflection-driven evo...", "description_zh": "", "downloads": 45, "homepage": "https://clawhub.ai/fei-moss/moss-trade-bot-factory-en", "iconUrl": null, "installs": 0, "name": "moss-trade-bot-factory-en", "ownerName": "fei-moss", "score": 3574.265289912629, "slug": "moss-trade-bot-factory-en", "source": "clawhub", "stars": 0, "tags": null, "updated_at": 1776760097737, "version": "1.0.3"}, {"category": "", "created_at": 1774897027984, "description": "Deploy MISP threat intelligence platform on any Docker-ready Linux host. Official misp-docker project with automatic MariaDB memory tuning (prevents OOM on s...", "description_zh": "", "downloads": 45, "homepage": "https://clawhub.ai/solomonneas/soc-deploy-misp", "iconUrl": null, "installs": 0, "name": "Soc Deploy Misp", "ownerName": "solomonneas", "score": 3574.265289912629, "slug": "soc-deploy-misp", "source": "clawhub", "stars": 0, "tags": null, "updated_at": 1776760097736, "version": "1.0.0"}, {"category": "", "created_at": 1774865468292, "description": "Provides automated and manual rollback of long-running OpenClaw tasks by saving and restoring state snapshots to handle errors or unexpected issues.", "description_zh": "", "downloads": 45, "homepage": "https://clawhub.ai/cortez-1/timeback-machine", "iconUrl": null, "installs": 0, "name": "timeback-machine", "ownerName": "cortez-1", "score": 3582.8025477707006, "slug": "timeback-machine", "source": "clawhub", "stars": 0, "tags": null, "updated_at": 1776760097706, "version": "1.0.0"}, {"category": "", "created_at": 1776068677840, "description": "Video generation skill. Automatically selects the best dlazy CLI video model based on the prompt.", "description_zh": "", "downloads": 45, "homepage": "https://clawhub.ai/user_f95f21b8/dlazy-video-generate", "iconUrl": null, "installs": 0, "name": "video generate", "ownerName": "user_f95f21b8", "score": 3582.8025477707006, "slug": "dlazy-video-generate", "source": "community", "stars": 0, "tags": null, "updated_at": 1776760097705, "version": "1.0.4"}, {"category": "", "created_at": 1772798007640, "description": "Lead management, opportunity pipeline, campaigns, and activity tracking for ERPClaw", "description_zh": "", "downloads": 45, "homepage": "https://clawhub.ai/skipzhang/erpclaw-crm", "iconUrl": null, "installs": 2, "name": "ERPClaw-CRM", "ownerName": "skipzhang", "score": 2886.465683130212, "slug": "erpclaw-crm", "source": "clawhub", "stars": 0, "tags": null, "updated_at": 1776757582512, "version": "1.0.0"}, {"category": "developer-tools", "created_at": 1773961657677, "description": "Skill-packager automates bundling related files and metadata into a single package for deployment, distribution, or archival tasks.", "description_zh": "", "downloads": 45, "homepage": "https://clawhub.ai/binyuli/skill-packager", "iconUrl": null, "installs": 9, "name": "skill-packager", "ownerName": "binyuli", "score": 2824.858757062147, "slug": "skill-packager", "source": "clawhub", "stars": 0, "tags": null, "updated_at": 1776757282738, "version": "1.0.0"}, {"category": "", "created_at": 1774910161754, "description": "Build or extend a lightweight server monitoring and AI operations workflow for Linux hosts running Nginx or Apache. Use when Codex needs to collect psutil me...", "description_zh": "", "downloads": 45, "homepage": "https://clawhub.ai/tankeito/server-mate", "iconUrl": null, "installs": 6, "name": "Server Mate", "ownerName": "tankeito", "score": 7798.96013864818, "slug": "server-mate", "source": "clawhub", "stars": 0, "tags": null, "updated_at": 1776755288406, "version": "1.2.0"}, {"category": "", "created_at": 1774837538653, "description": "Presentation Strategist ที่ใช้หลักการ Visual-First Design (พรีเซ้นฉลาดเน้นภาพไม่เน้นพูด) เป็นกรอบคิดหลักในการวิเคราะห์เนื้อหาและออกแบบ slide deck ก่อนสร้างจร...", "description_zh": "", "downloads": 45, "homepage": "https://clawhub.ai/golofu/canvapresentationbibleedition", "iconUrl": null, "installs": 3, "name": "Canva Presentation Designer — Presentation Bible Edition", "ownerName": "golofu", "score": 8348.794063079777, "slug": "canvapresentationbibleedition", "source": "clawhub", "stars": 0, "tags": null, "updated_at": 1776752744397, "version": "1.0.4"}, {"category": "", "created_at": 1774863601279, "description": "Reconcile bank accounts against QuickBooks Online (QBO) for monthly close, discrepancy investigation, or audit workpapers. Use when a client needs GL vs bank...", "description_zh": "", "downloads": 45, "homepage": "https://clawhub.ai/samledger67-dotcom/bank-reconciliation", "iconUrl": null, "installs": 1, "name": "Bank Reconciliation", "ownerName": "samledger67-dotcom", "score": 42857.142857142855, "slug": "bank-reconciliation", "source": "clawhub", "stars": 0, "tags": null, "updated_at": 1776745204778, "version": "1.0.0"}, {"category": "", "created_at": 1774921360320, "description": "Monadic types for Golang using samber/mo — Option, Result, Either, Future, IO, Task, and State types for type-safe nullable values, error handling, and funct...", "description_zh": "", "downloads": 45, "homepage": "https://clawhub.ai/samber/golang-samber-mo", "iconUrl": null, "installs": 0, "name": "Golang Samber Mo", "ownerName": "samber", "score": 48387.09677419355, "slug": "golang-samber-mo", "source": "clawhub", "stars": 0, "tags": null, "updated_at": 1776743455477, "version": "0.1.0"}, {"category": "", "created_at": 1774872188527, "description": "Stop waiting for prompts. Keep working. (Chinese localized version)", "description_zh": "", "downloads": 45, "homepage": "https://clawhub.ai/ayakolin/agent-autonomy-kit-zh", "iconUrl": null, "installs": 6, "name": "Agent Autonomy Kit Zh", "ownerName": "ayakolin", "score": 46391.75257731959, "slug": "agent-autonomy-kit-zh", "source": "clawhub", "stars": 0, "tags": null, "updated_at": 1776742069835, "version": "1.0.2"}, {"category": "", "created_at": 1774900743307, "description": "Remove signs of AI-generated writing from text. Use when editing or reviewing text to make it sound more natural and human-written. Based on Wikipedia's comp...", "description_zh": "", "downloads": 45, "homepage": "https://clawhub.ai/cs995279497-byte/chen-humanizer", "iconUrl": null, "installs": 11, "name": "Chen Humanizer", "ownerName": "cs995279497-byte", "score": 46391.75257731959, "slug": "chen-humanizer", "source": "clawhub", "stars": 0, "tags": null, "updated_at": 1776737083809, "version": "1.0.0"}, {"category": "", "created_at": 1774943895820, "description": "Detect whether text is human-written, AI-generated, AI-humanized, or lightly edited.", "description_zh": "", "downloads": 45, "homepage": "https://clawhub.ai/mattc95/ai-detector", "iconUrl": null, "installs": 0, "name": "AI Detector", "ownerName": "mattc95", "score": 39473.68421052631, "slug": "ai-detector", "source": "clawhub", "stars": 0, "tags": null, "updated_at": 1776735883809, "version": "1.0.0"}]}