{"page": 446, "total_pages": 522, "total": 26073, "skills": [{"category": "", "created_at": 1773426074806, "description": "Forces exhaustive problem-solving using corporate PUA rhetoric and structured debugging methodology. MUST trigger when: (1) any task has failed 2+ times or y...", "description_zh": "", "downloads": 45, "homepage": "https://clawhub.ai/root/pua-ai", "iconUrl": null, "installs": 10, "name": "pua-skill", "ownerName": "root", "score": 46391.75257731959, "slug": "pua-ai", "source": "clawhub", "stars": 0, "tags": null, "updated_at": 1776733669557, "version": "1.0.0"}, {"category": "", "created_at": 1774946476515, "description": "Reduce OpenClaw token consumption by 95%+ using three optimization techniques (slash commands, script-first principle, and model tiering)", "description_zh": "", "downloads": 45, "homepage": "https://clawhub.ai/niuben/token-kill", "iconUrl": null, "installs": 4, "name": "token-kill", "ownerName": "niuben", "score": 45454.545454545456, "slug": "token-kill", "source": "clawhub", "stars": 0, "tags": null, "updated_at": 1776709183754, "version": "0.0.1"}, {"category": "", "created_at": 1774845204060, "description": "Reference tool for devtools — covers intro, quickstart, patterns and more. Quick lookup for Gitignore concepts, best practices, and implementation patterns.", "description_zh": "", "downloads": 45, "homepage": "https://clawhub.ai/bytesagain1/gitignore", "iconUrl": null, "installs": 2, "name": "Gitignore", "ownerName": "bytesagain1", "score": 47872.34042553192, "slug": "gitignore", "source": "clawhub", "stars": 0, "tags": null, "updated_at": 1776701083685, "version": "2.0.3"}, {"category": "", "created_at": 1774904218500, "description": "Docker Hub integration. Manage data, records, and automate workflows. Use when the user wants to interact with Docker Hub data.", "description_zh": "", "downloads": 45, "homepage": "https://clawhub.ai/gora050/docker-hub", "iconUrl": null, "installs": 4, "name": "Docker Hub", "ownerName": "gora050", "score": 100000, "slug": "docker-hub", "source": "clawhub", "stars": 0, "tags": null, "updated_at": 1776697370258, "version": "1.0.0"}, {"category": "", "created_at": 1774836757241, "description": "Fish makes utility tools simple. Use when you need fish.", "description_zh": "", "downloads": 45, "homepage": "https://clawhub.ai/bytesagain1/fish", "iconUrl": null, "installs": 0, "name": "Fish", "ownerName": "bytesagain1", "score": 100000, "slug": "fish", "source": "clawhub", "stars": 0, "tags": null, "updated_at": 1776697370228, "version": "2.0.0"}, {"category": "productivity", "created_at": 1773960780857, "description": "Computer-use automation via Lightcone. Activate when user asks to browse websites, scrape web pages, automate web tasks, check prices, monitor sites, fill fo...", "description_zh": "", "downloads": 45, "homepage": "https://clawhub.ai/eddieogola/lightcone-browse", "iconUrl": null, "installs": 5, "name": "Lightcone Browse", "ownerName": "eddieogola", "score": 100000, "slug": "lightcone-browse", "source": "clawhub", "stars": 0, "tags": null, "updated_at": 1776697370226, "version": "1.0.0"}, {"category": "security-compliance", "created_at": 1773958293509, "description": "Monitor and manage Asus routers running AsusWRT firmware. Supports status checks, device listing, presence detection, AiMesh mesh topology, WAN diagnostics,...", "description_zh": "", "downloads": 45, "homepage": "https://clawhub.ai/rtaylorgraham/asus-router", "iconUrl": null, "installs": 2, "name": "Asus Router", "ownerName": "rtaylorgraham", "score": 91836.73469387756, "slug": "asus-router", "source": "clawhub", "stars": 0, "tags": ["aimesh", "asus", "iot", "mesh", "monitoring", "networking", "presence-detection", "router", "smart-home"], "updated_at": 1776697370214, "version": "1.0.0"}, {"category": "", "created_at": 1774916216185, "description": "Manage Alibaba Cloud resources using the Aliyun CLI tool. Use this skill whenever the user wants to manage any Alibaba Cloud resource via the aliyun CLI, inc...", "description_zh": "", "downloads": 45, "homepage": "https://clawhub.ai/hambaobao/aliyun-skills", "iconUrl": null, "installs": 0, "name": "Aliyun Skills", "ownerName": "hambaobao", "score": 91836.73469387756, "slug": "aliyun-skills", "source": "clawhub", "stars": 0, "tags": null, "updated_at": 1776697370165, "version": "1.0.0"}, {"category": "", "created_at": 1774915608983, "description": "Check, summarize, and update packages across all installed package managers (npm, pip, brew, cargo, go, etc.). Use when user wants to (1) check for outdated...", "description_zh": "", "downloads": 45, "homepage": "https://clawhub.ai/guillaumemaka/package-manager-updates", "iconUrl": null, "installs": 2, "name": "Package Manager Updates", "ownerName": "guillaumemaka", "score": 91836.73469387756, "slug": "package-manager-updates", "source": "clawhub", "stars": 0, "tags": null, "updated_at": 1776697370134, "version": "1.0.0"}, {"category": "", "created_at": 1772788023828, "description": "Read current values from Grafana dashboards without knowing the underlying queries. Use when: asked about values visible in a Grafana dashboard (sensor readi...", "description_zh": "", "downloads": 45, "homepage": "https://clawhub.ai/skipzhang/grafana-plugin", "iconUrl": null, "installs": 2, "name": "Grafana Plugin", "ownerName": "skipzhang", "score": 91836.73469387756, "slug": "grafana-plugin", "source": "clawhub", "stars": 0, "tags": null, "updated_at": 1776697370129, "version": "1.0.0"}, {"category": "", "created_at": 1774870745036, "description": "Query Anthropic Admin API for token usage reports (daily, weekly, monthly) with model breakdown. Requires an Anthropic Organization account. Configure your A...", "description_zh": "", "downloads": 45, "homepage": "https://clawhub.ai/leaofelipe/anthropic-usage", "iconUrl": null, "installs": 2, "name": "Anthropic Usage", "ownerName": "leaofelipe", "score": 73770.4918032787, "slug": "anthropic-usage", "source": "clawhub", "stars": 0, "tags": null, "updated_at": 1776697370044, "version": "1.0.7"}, {"category": "", "created_at": 1774910363750, "description": "Xss reference tool. Use when working with xss in devtools contexts.", "description_zh": "", "downloads": 45, "homepage": "https://clawhub.ai/bytesagain1/xss", "iconUrl": null, "installs": 2, "name": "Xss", "ownerName": "bytesagain1", "score": 73770.4918032787, "slug": "xss", "source": "clawhub", "stars": 0, "tags": null, "updated_at": 1776697370024, "version": "1.0.0"}, {"category": "", "created_at": 1774870056609, "description": "Enterprise-grade security framework for LobsterAI with audit logging, RBAC, input validation, output sanitization, code scanning, and dependency vulnerabilit...", "description_zh": "", "downloads": 45, "homepage": "https://clawhub.ai/stoneyhoo/lobsterai-security", "iconUrl": null, "installs": 0, "name": "Security", "ownerName": "stoneyhoo", "score": 73770.4918032787, "slug": "lobsterai-security", "source": "clawhub", "stars": 0, "tags": ["audit", "compliance", "rbac", "scanning", "security", "validation"], "updated_at": 1776697369958, "version": "1.0.5"}, {"category": "", "created_at": 1774868310713, "description": "Track upcoming market-moving events (macro, crypto protocol, exchange listings, regulatory decisions, conference keynotes, ETF approvals) and pre-flag releva...", "description_zh": "", "downloads": 45, "homepage": "https://clawhub.ai/zero2ai-hub/skill-catalyst-calendar", "iconUrl": null, "installs": 7, "name": "Catalyst Calendar", "ownerName": "zero2ai-hub", "score": 97826.08695652174, "slug": "skill-catalyst-calendar", "source": "clawhub", "stars": 0, "tags": null, "updated_at": 1776697369881, "version": "1.0.0"}, {"category": "ai-intelligence", "created_at": 1773958911920, "description": "Bot Street — AI agent content community & service marketplace", "description_zh": "", "downloads": 45, "homepage": "https://clawhub.ai/lifagui/botstreet-en", "iconUrl": null, "installs": 2, "name": "Bot Street", "ownerName": "lifagui", "score": 97826.08695652174, "slug": "botstreet-en", "source": "clawhub", "stars": 0, "tags": null, "updated_at": 1776697369844, "version": "2.3.0"}, {"category": "", "created_at": 1774841627937, "description": "Track baby feeds, sleep, diapers, symptoms, growth, routines, and pediatric follow-up with caregiver handoffs and safety-first triage.", "description_zh": "", "downloads": 45, "homepage": "https://clawhub.ai/ivangdavila/baby", "iconUrl": null, "installs": 1, "name": "Baby (Tracker, Feeding, Sleep, Triage, Visit Prep)", "ownerName": "ivangdavila", "score": 78947.36842105263, "slug": "baby", "source": "clawhub", "stars": 0, "tags": null, "updated_at": 1776697369764, "version": "1.0.0"}, {"category": "", "created_at": 1774866519814, "description": "Compare research papers by retrieving full PDFs from titles, URLs, or files and synthesizing differences, strengths, weaknesses, and evidence-backed trade-offs.", "description_zh": "", "downloads": 45, "homepage": "https://clawhub.ai/quqxui/research-paper-compare", "iconUrl": null, "installs": 2, "name": "Research Paper Compare", "ownerName": "quqxui", "score": 78947.36842105263, "slug": "research-paper-compare", "source": "clawhub", "stars": 0, "tags": null, "updated_at": 1776697369747, "version": "1.0.0"}, {"category": "", "created_at": 1774904273880, "description": "Send and automate emails using ConvertKit or Mailchimp.", "description_zh": "", "downloads": 45, "homepage": "https://clawhub.ai/clawdiri-ai/email-automation-dv", "iconUrl": null, "installs": 13, "name": "Email Automation", "ownerName": "clawdiri-ai", "score": 78947.36842105263, "slug": "email-automation-dv", "source": "clawhub", "stars": 0, "tags": null, "updated_at": 1776697369719, "version": "0.1.0"}, {"category": "", "created_at": 1774800170724, "description": "Improve decision quality by clarifying the real problem, exposing hidden assumptions, reasoning from fundamental facts, reducing unnecessary complexity, and...", "description_zh": "", "downloads": 45, "homepage": "https://clawhub.ai/shanezzzz/decision-clarity-skill", "iconUrl": null, "installs": 1, "name": "decision-clarity-skill", "ownerName": "shanezzzz", "score": 78947.36842105263, "slug": "decision-clarity-skill", "source": "clawhub", "stars": 0, "tags": null, "updated_at": 1776697369687, "version": "1.0.0"}, {"category": "communication-collaboration", "created_at": 1773958954079, "description": "E-goi integration. Manage Organizations. Use when the user wants to interact with E-goi data.", "description_zh": "", "downloads": 45, "homepage": "https://clawhub.ai/gora050/e-goi", "iconUrl": null, "installs": 2, "name": "E Goi", "ownerName": "gora050", "score": 78947.36842105263, "slug": "e-goi", "source": "clawhub", "stars": 0, "tags": null, "updated_at": 1776697369679, "version": "1.0.0"}, {"category": "", "created_at": 1774862119801, "description": "Trusted advisor providing balanced, objective guidance on important decisions across business, personal finance, career, and strategy. Use when users need a...", "description_zh": "", "downloads": 45, "homepage": "https://clawhub.ai/jiwenbing/advisor", "iconUrl": null, "installs": 1, "name": "Advisor", "ownerName": "jiwenbing", "score": 88235.29411764706, "slug": "advisor", "source": "clawhub", "stars": 0, "tags": null, "updated_at": 1776697369664, "version": "1.0.0"}, {"category": "", "created_at": 1774888116330, "description": "Placeholder skill reserved for an upcoming open CLI + provider protocol for batch product-image translation workflows.", "description_zh": "", "downloads": 45, "homepage": "https://clawhub.ai/masteralanlab/image-translate-cli", "iconUrl": null, "installs": 6, "name": "Image Translate CLI", "ownerName": "masteralanlab", "score": 88235.29411764706, "slug": "image-translate-cli", "source": "clawhub", "stars": 0, "tags": null, "updated_at": 1776697369652, "version": "0.0.1"}, {"category": "", "created_at": 1774904667555, "description": "Shopify/DTC product differentiation strategy tool. Analyze competitor stores, extract pain points from reviews, identify brand positioning opportunities, and...", "description_zh": "", "downloads": 45, "homepage": "https://clawhub.ai/phheng/product-differentiation-shopify", "iconUrl": null, "installs": 4, "name": "Product Differentiation Shopify", "ownerName": "phheng", "score": 88235.29411764706, "slug": "product-differentiation-shopify", "source": "clawhub", "stars": 0, "tags": null, "updated_at": 1776697369622, "version": "0.1.0"}, {"category": "", "created_at": 1774867597450, "description": "Braintree integration. Manage data, records, and automate workflows. Use when the user wants to interact with Braintree data.", "description_zh": "", "downloads": 45, "homepage": "https://clawhub.ai/membranedev/braintree", "iconUrl": null, "installs": 0, "name": "Braintree", "ownerName": "membranedev", "score": 88235.29411764706, "slug": "braintree", "source": "clawhub", "stars": 0, "tags": null, "updated_at": 1776697369598, "version": "1.0.0"}, {"category": "", "created_at": 1774910429984, "description": "PDF splitting and PDF-to-Word conversion tools implemented in Node.js.", "description_zh": "", "downloads": 45, "homepage": "https://clawhub.ai/daguniang/pdf-simple-tool", "iconUrl": null, "installs": 7, "name": "PDF Simple Tool", "ownerName": "daguniang", "score": 88235.29411764706, "slug": "pdf-simple-tool", "source": "clawhub", "stars": 0, "tags": null, "updated_at": 1776697369588, "version": "1.2.0"}, {"category": "", "created_at": 1774884187384, "description": "Copy operations reference — file duplication, rsync patterns, CoW, buffer strategies, and cross-platform sync. Use when duplicating files, syncing directorie...", "description_zh": "", "downloads": 44, "homepage": "https://clawhub.ai/bytesagain1/copy", "iconUrl": null, "installs": 2, "name": "Copy", "ownerName": "bytesagain1", "score": 179.02188949467003, "slug": "copy", "source": "clawhub", "stars": 0, "tags": null, "updated_at": 1776770090550, "version": "1.0.0"}, {"category": "", "created_at": 1774902099741, "description": "Warm multi-turn goal clarification and action planning. Use when the user has a vague, oversized, or tangled goal and wants help thinking it through, narrowi...", "description_zh": "", "downloads": 44, "homepage": "https://clawhub.ai/terryxdguan/goal-clarifier", "iconUrl": null, "installs": 3, "name": "Goal Clarifier", "ownerName": "terryxdguan", "score": 2401.7467248908297, "slug": "goal-clarifier", "source": "clawhub", "stars": 0, "tags": null, "updated_at": 1776766790438, "version": "0.6.0"}, {"category": "developer-tools", "created_at": 1773961644201, "description": "Scan AI-generated code for hallucinated packages, stale APIs, security anti-patterns, and over-engineering. Use when: (1) reviewing PRs with AI-generated cod...", "description_zh": "", "downloads": 44, "homepage": "https://clawhub.ai/raye-deng/open-code-review", "iconUrl": null, "installs": 10, "name": "Open Code Review", "ownerName": "raye-deng", "score": 3076.923076923077, "slug": "open-code-review", "source": "clawhub", "stars": 0, "tags": ["ai", "code-review", "mcp"], "updated_at": 1776766453934, "version": "1.0.0"}, {"category": "", "created_at": 1774907653952, "description": "Reviews FastAPI code for routing patterns, dependency injection, validation, and async handlers. Use when reviewing FastAPI apps, checking APIRouter setup, D...", "description_zh": "", "downloads": 44, "homepage": "https://clawhub.ai/anderskev/fastapi-code-review", "iconUrl": null, "installs": 5, "name": "Fastapi Code Review", "ownerName": "anderskev", "score": 3076.923076923077, "slug": "fastapi-code-review", "source": "clawhub", "stars": 0, "tags": null, "updated_at": 1776766451633, "version": "1.1.0"}, {"category": "", "created_at": 1774952492091, "description": "When the user wants to create Pinterest Pins, optimize Pin descriptions, or grow Pinterest presence. Also use when the user mentions \"Pinterest,\" \"Pin,\" \"Pin...", "description_zh": "", "downloads": 44, "homepage": "https://clawhub.ai/kostja94/pinterest-posts", "iconUrl": null, "installs": 7, "name": "pinterest-posts", "ownerName": "kostja94", "score": 1803.2786885245903, "slug": "pinterest-posts", "source": "clawhub", "stars": 0, "tags": null, "updated_at": 1776765550100, "version": "1.0.0"}, {"category": "", "created_at": 1774903184333, "description": "Etsy SEO analyzer and optimizer. Improve search visibility with title optimization, tag analysis, description scoring, and keyword research. Includes SEO sco...", "description_zh": "", "downloads": 44, "homepage": "https://clawhub.ai/phheng/etsy-seo", "iconUrl": null, "installs": 5, "name": "Etsy Seo", "ownerName": "phheng", "score": 1682.6003824091777, "slug": "etsy-seo", "source": "clawhub", "stars": 0, "tags": null, "updated_at": 1776765310819, "version": "0.1.0"}, {"category": "", "created_at": 1774917616600, "description": "Conduct structured AI paper surveys using alphaXiv MCP tools. Reads user research interests from a keywords file, searches recent papers across multiple dime...", "description_zh": "", "downloads": 44, "homepage": "https://clawhub.ai/haataa/ai-paper-survey", "iconUrl": null, "installs": 4, "name": "AI Paper Survey", "ownerName": "haataa", "score": 1431.3597918022122, "slug": "ai-paper-survey", "source": "clawhub", "stars": 0, "tags": ["academic", "arxiv", "literature-review", "research", "survey"], "updated_at": 1776761840133, "version": "1.0.0"}, {"category": "", "created_at": 1774902378256, "description": "Manage OSTree atomic system updates with repository, commit, deployment, branch, remote sync, and RPM-OSTree integration for immutable system infrastructures.", "description_zh": "", "downloads": 44, "homepage": "https://clawhub.ai/weidongkl/ostree", "iconUrl": null, "installs": 0, "name": "ostree", "ownerName": "weidongkl", "score": 3505.97609561753, "slug": "ostree", "source": "clawhub", "stars": 0, "tags": ["atomic", "coreos", "fedora", "immutable", "ostree"], "updated_at": 1776760098093, "version": "1.0.0"}, {"category": "", "created_at": 1774893940360, "description": "Optimise form completion by analysing fields, reducing unnecessary inputs, restructuring steps, improving UX, and recommending A/B tests for better conversion.", "description_zh": "", "downloads": 44, "homepage": "https://clawhub.ai/amdf01-debug/sw-form-cro", "iconUrl": null, "installs": 0, "name": "Form CRO", "ownerName": "amdf01-debug", "score": 3508.771929824561, "slug": "sw-form-cro", "source": "clawhub", "stars": 0, "tags": ["conversion", "cro"], "updated_at": 1776760098064, "version": "1.0.0"}, {"category": "", "created_at": 1774873303670, "description": "Detect current public IP via ip38.com, compare with stored IP, and auto-publish WeChat articles or alert on mismatch.", "description_zh": "", "downloads": 44, "homepage": "https://clawhub.ai/achievejia/wechat-ip-checker", "iconUrl": null, "installs": 0, "name": "Wechat Ip Checker", "ownerName": "achievejia", "score": 3511.5722266560256, "slug": "wechat-ip-checker", "source": "clawhub", "stars": 0, "tags": null, "updated_at": 1776760097892, "version": "1.0.0"}, {"category": "", "created_at": 1774906007755, "description": "Design optimized popups with clear CTAs triggered by exit intent, scroll, time, or click to boost lead capture and conversions.", "description_zh": "", "downloads": 44, "homepage": "https://clawhub.ai/amdf01-debug/sw-popup-cro", "iconUrl": null, "installs": 0, "name": "Popup CRO", "ownerName": "amdf01-debug", "score": 3494.8371723590153, "slug": "sw-popup-cro", "source": "clawhub", "stars": 0, "tags": ["conversion", "cro", "popup"], "updated_at": 1776760097824, "version": "1.0.0"}, {"category": "", "created_at": 1774887381843, "description": "Assigns a 4-square-meter virtual space and visual avatar to your agent, saves local state files, and generates remote image URLs for display.", "description_zh": "", "downloads": 44, "homepage": "https://clawhub.ai/spacesq/s2-matrix-pod", "iconUrl": null, "installs": 0, "name": "Xiang miles | Space2.world", "ownerName": "spacesq", "score": 3494.8371723590153, "slug": "s2-matrix-pod", "source": "clawhub", "stars": 0, "tags": null, "updated_at": 1776760097805, "version": "1.0.0"}, {"category": "", "created_at": 1774851469436, "description": "Provides summaries of movie showtimes, prices, ratings, and basic info from Taopiaopiao's public pages without booking or bulk scraping capabilities.", "description_zh": "", "downloads": 44, "homepage": "https://clawhub.ai/mike47512/taopiaopiao", "iconUrl": null, "installs": 0, "name": "Taopiaopiao", "ownerName": "mike47512", "score": 3494.8371723590153, "slug": "taopiaopiao", "source": "clawhub", "stars": 0, "tags": null, "updated_at": 1776760097732, "version": "0.1.1"}, {"category": "", "created_at": 1774900245092, "description": "Validates actions against user intent before execution, monitors for misalignment, and learns from experience. Use when: (1) Executing autonomous tasks with...", "description_zh": "", "downloads": 44, "homepage": "https://clawhub.ai/nishantapatil3/self-improving-intent-security-agent", "iconUrl": null, "installs": 10, "name": "Self Improving Intent Security Agent", "ownerName": "nishantapatil3", "score": 2860.858257477243, "slug": "self-improving-intent-security-agent", "source": "clawhub", "stars": 0, "tags": null, "updated_at": 1776758482680, "version": "1.0.5"}, {"category": "", "created_at": 1774885162440, "description": "An autonomous agent for monitoring corporate earnings and analyzing financial statements using yfinance.", "description_zh": "", "downloads": 44, "homepage": "https://clawhub.ai/assix/earnings-financials-agent", "iconUrl": null, "installs": 3, "name": "EarningsFinancialsAgent", "ownerName": "assix", "score": 7495.7410562180585, "slug": "earnings-financials-agent", "source": "clawhub", "stars": 0, "tags": ["agent", "analysis", "earnings", "equity", "finance", "financials", "investing", "market-data", "stocks", "tracker"], "updated_at": 1776748070687, "version": "1.0.3"}, {"category": "", "created_at": 1775625157731, "description": "Allows this local OpenClaw agent to engage and socialize on the global OpenClaw Community Social Network.", "description_zh": "", "downloads": 44, "homepage": "https://clawhub.ai/user_bebb68a8/openclaw-community-social", "iconUrl": "https://cloudcache.tencent-cloud.com/qcloud/ui/static/other_external_resource/0c9b068f-f22e-44e2-96fe-d2b6f5b43b07.png", "installs": 2, "name": "龙虾星球", "ownerName": "user_bebb68a8", "score": 46808.51063829787, "slug": "openclaw-community-social", "source": "community", "stars": 0, "tags": null, "updated_at": 1776741163758, "version": "1.4.1"}, {"category": "", "created_at": 1774875467404, "description": "Daily design industry brief for UI/UX designers and PMs. Covers AI × design, design engineering, top product experience breakdowns, and design decision logic...", "description_zh": "", "downloads": 44, "homepage": "https://clawhub.ai/tkk0124/design-daily", "iconUrl": null, "installs": 4, "name": "Design Daily", "ownerName": "tkk0124", "score": 38596.491228070176, "slug": "design-daily", "source": "clawhub", "stars": 0, "tags": null, "updated_at": 1776735469693, "version": "1.0.2"}, {"category": "", "created_at": 1774886630922, "description": "Reverse-engineer any codebase into a complete Product Requirements Document (PRD). Analyzes routes, components, state management, API integrations, and user...", "description_zh": "", "downloads": 44, "homepage": "https://clawhub.ai/alirezarezvani/code-to-prd", "iconUrl": null, "installs": 7, "name": "Code To Prd", "ownerName": "alirezarezvani", "score": 45833.33333333333, "slug": "code-to-prd", "source": "clawhub", "stars": 0, "tags": null, "updated_at": 1776734384176, "version": "2.1.1"}, {"category": "", "created_at": 1774866019354, "description": "Create new OpenClaw skills that pass ClawHub validation on first attempt. Use when building a new skill for OpenClaw. Teaches the complete process from templ...", "description_zh": "", "downloads": 44, "homepage": "https://clawhub.ai/ogdegenblaze/kai-skill-creator", "iconUrl": null, "installs": 9, "name": "Kai Skill Creator", "ownerName": "ogdegenblaze", "score": 44897.95918367347, "slug": "kai-skill-creator", "source": "clawhub", "stars": 0, "tags": ["creator", "guide", "kai", "skills"], "updated_at": 1776733970070, "version": "1.0.6"}, {"category": "", "created_at": 1774891490593, "description": "Build, debug, and integrate Leaflet web maps, including map setup, tile layers, markers, popups, GeoJSON overlays, bounds fitting, event handling, and plugin...", "description_zh": "", "downloads": 44, "homepage": "https://clawhub.ai/jvy/leaflet", "iconUrl": null, "installs": 1, "name": "leaflet", "ownerName": "jvy", "score": 97777.77777777778, "slug": "leaflet", "source": "clawhub", "stars": 0, "tags": null, "updated_at": 1776697370219, "version": "1.0.0"}, {"category": "", "created_at": 1774870522973, "description": "trace", "description_zh": "", "downloads": 44, "homepage": "https://clawhub.ai/xueyetianya/trace", "iconUrl": null, "installs": 1, "name": "Trace", "ownerName": "xueyetianya", "score": 89795.91836734694, "slug": "trace", "source": "clawhub", "stars": 0, "tags": null, "updated_at": 1776697370201, "version": "2.0.0"}, {"category": "", "created_at": 1774853074220, "description": "Fetch current and upcoming free games from Epic Games Store. Use when the user asks about Epic free games, this week's free games, or Epic giveaways.", "description_zh": "", "downloads": 44, "homepage": "https://clawhub.ai/cheerwhy/epic-games", "iconUrl": null, "installs": 5, "name": "Epic Free Games", "ownerName": "cheerwhy", "score": 89795.91836734694, "slug": "epic-games", "source": "clawhub", "stars": 0, "tags": ["epic", "free", "games", "latest epic games"], "updated_at": 1776697370179, "version": "0.2.3"}, {"category": "", "created_at": 1774915509528, "description": "Create new skills, modify and improve existing skills, and measure skill performance. Use when users want to create a skill from scratch, edit, or optimize a...", "description_zh": "", "downloads": 44, "homepage": "https://clawhub.ai/jpengcheng523-netizen/jpeng-skill-creator", "iconUrl": null, "installs": 8, "name": "Skill Creator", "ownerName": "jpengcheng523-netizen", "score": 89795.91836734694, "slug": "jpeng-skill-creator", "source": "clawhub", "stars": 0, "tags": null, "updated_at": 1776697370090, "version": "1.0.0"}, {"category": "", "created_at": 1774910999361, "description": "Generate images through the Nano Banana REST API and help agents integrate or operate the service safely. Use when a task involves text-to-image, image-to-im...", "description_zh": "", "downloads": 44, "homepage": "https://clawhub.ai/sdhjkagbjksg/nano-banana-api", "iconUrl": null, "installs": 9, "name": "Nano Banana API", "ownerName": "sdhjkagbjksg", "score": 72131.14754098361, "slug": "nano-banana-api", "source": "clawhub", "stars": 0, "tags": null, "updated_at": 1776697370075, "version": "0.1.1"}, {"category": "", "created_at": 1774845106853, "description": "Act as a Grafana-first product and business data analysis partner for an app team. Use when product, content, or operations teammates ask about dashboard num...", "description_zh": "", "downloads": 44, "homepage": "https://clawhub.ai/qwqcode/data-analyst-partner", "iconUrl": null, "installs": 9, "name": "Data Analyst Partner", "ownerName": "qwqcode", "score": 72131.14754098361, "slug": "data-analyst-partner", "source": "clawhub", "stars": 0, "tags": null, "updated_at": 1776697370073, "version": "1.0.0"}]}