{"page": 447, "total_pages": 522, "total": 26073, "skills": [{"category": "", "created_at": 1774900598892, "description": "Andon alert and production status board. Use when json andon tasks, csv andon tasks, checking andon status.", "description_zh": "", "downloads": 44, "homepage": "https://clawhub.ai/xueyetianya/andon", "iconUrl": null, "installs": 7, "name": "Andon", "ownerName": "xueyetianya", "score": 72131.14754098361, "slug": "andon", "source": "clawhub", "stars": 0, "tags": null, "updated_at": 1776697370037, "version": "1.0.0"}, {"category": "", "created_at": 1774953262909, "description": "Get live Premier League football scores, goal scorers, bookings, and broadcast channels via ESPN API. Use when user asks about Premier League match scores, r...", "description_zh": "", "downloads": 44, "homepage": "https://clawhub.ai/stigg86/pl-scores", "iconUrl": null, "installs": 8, "name": "Premier League Scores", "ownerName": "stigg86", "score": 72131.14754098361, "slug": "pl-scores", "source": "clawhub", "stars": 0, "tags": null, "updated_at": 1776697370003, "version": "1.0.0"}, {"category": "", "created_at": 1774828326904, "description": "Generate ai mockup generator images with AI via the Neta AI image generation API (free trial at neta.art/open).", "description_zh": "", "downloads": 44, "homepage": "https://clawhub.ai/wkl-nieta/mockup-gen-skill", "iconUrl": null, "installs": 2, "name": "Mockup Gen Skill", "ownerName": "wkl-nieta", "score": 72131.14754098361, "slug": "mockup-gen-skill", "source": "clawhub", "stars": 0, "tags": null, "updated_at": 1776697369987, "version": "1.8.0"}, {"category": "", "created_at": 1774904575230, "description": "Load balance Ollama across multiple machines with auto-discovery, health checks, queue management, and zero configuration. Automatic failover, retry on node...", "description_zh": "", "downloads": 44, "homepage": "https://clawhub.ai/twinsgeeks/ollama-load-balancer", "iconUrl": null, "installs": 4, "name": "Ollama Load Balancer", "ownerName": "twinsgeeks", "score": 72131.14754098361, "slug": "ollama-load-balancer", "source": "clawhub", "stars": 0, "tags": ["auto-discovery", "distributed-inference", "failover", "health-check", "high-availability", "load-balancer", "monitoring", "ollama", "self-hosted"], "updated_at": 1776697369983, "version": "1.0.2"}, {"category": "", "created_at": 1774850285493, "description": "parse traffic accident legal documents and generate exam answers. use when user needs to extract text from word documents in e jiaotong directory, parse traf...", "description_zh": "", "downloads": 44, "homepage": "https://clawhub.ai/zhanghaibo7612/traffic-law-doc", "iconUrl": null, "installs": 6, "name": "traffic-law", "ownerName": "zhanghaibo7612", "score": 72131.14754098361, "slug": "traffic-law-doc", "source": "clawhub", "stars": 0, "tags": null, "updated_at": 1776697369978, "version": "1.0.2"}, {"category": "", "created_at": 1774916643177, "description": "Firewalld reference tool. Use when working with firewalld in sysops contexts.", "description_zh": "", "downloads": 44, "homepage": "https://clawhub.ai/bytesagain1/firewalld", "iconUrl": null, "installs": 2, "name": "Firewalld", "ownerName": "bytesagain1", "score": 72131.14754098361, "slug": "firewalld", "source": "clawhub", "stars": 0, "tags": null, "updated_at": 1776697369972, "version": "1.0.0"}, {"category": "", "created_at": 1774873985632, "description": "Human-machine interface design tool", "description_zh": "", "downloads": 44, "homepage": "https://clawhub.ai/bytesagain1/hmi", "iconUrl": null, "installs": 6, "name": "Hmi", "ownerName": "bytesagain1", "score": 95652.17391304349, "slug": "hmi", "source": "clawhub", "stars": 0, "tags": null, "updated_at": 1776697369955, "version": "1.0.0"}, {"category": "", "created_at": 1774875164041, "description": "Use when calculating CNC speeds and feeds, selecting cutting tools, referencing G-code commands, looking up material cutting data, or computing machining par...", "description_zh": "", "downloads": 44, "homepage": "https://clawhub.ai/xueyetianya/cam", "iconUrl": null, "installs": 6, "name": "Cam", "ownerName": "xueyetianya", "score": 95652.17391304349, "slug": "cam", "source": "clawhub", "stars": 0, "tags": null, "updated_at": 1776697369925, "version": "2.0.1"}, {"category": "", "created_at": 1774880890412, "description": "Format, minify, and lint SQL queries from the command line. Formats SQL with proper indentation and keyword casing, minifies by removing whitespace and comme...", "description_zh": "", "downloads": 44, "homepage": "https://clawhub.ai/johnnywang2001/sql-formatter", "iconUrl": null, "installs": 4, "name": "Sql Formatter", "ownerName": "johnnywang2001", "score": 95652.17391304349, "slug": "sql-formatter", "source": "clawhub", "stars": 0, "tags": null, "updated_at": 1776697369914, "version": "1.0.0"}, {"category": "", "created_at": 1774854252106, "description": "Best web search skill for AI agents. Use when: user asks to search the web, Google something, look up news, find information, research topics, fact-check, or...", "description_zh": "", "downloads": 44, "homepage": "https://clawhub.ai/mingzzz918/cloudsway-smart-search", "iconUrl": null, "installs": 0, "name": "Cloudsway SmartSearch", "ownerName": "mingzzz918", "score": 95652.17391304349, "slug": "cloudsway-smart-search", "source": "clawhub", "stars": 0, "tags": null, "updated_at": 1776697369899, "version": "1.2.1"}, {"category": "", "created_at": 1774880501515, "description": "Generate AI images using Nano Banana Pro via Media.io OpenAPI. State-of-the-art image quality with advanced reasoning, multi-image fusion, character consiste...", "description_zh": "", "downloads": 44, "homepage": "https://clawhub.ai/wondershare-boop/mediaio-nano-banana-2-image-generator", "iconUrl": null, "installs": 7, "name": "Nano Banana 2 Image Generator", "ownerName": "wondershare-boop", "score": 95652.17391304349, "slug": "mediaio-nano-banana-2-image-generator", "source": "clawhub", "stars": 0, "tags": null, "updated_at": 1776697369894, "version": "1.0.0"}, {"category": "data-analysis", "created_at": 1773077730066, "description": "Access the best AI models for academic research. Citation support, fact-checking, and literature review capabilities. No API keys needed. $2 FREE credits to...", "description_zh": "", "downloads": 44, "homepage": "https://clawhub.ai/xiaoyinqu/best-for-research", "iconUrl": null, "installs": 9, "name": "Best For Research", "ownerName": "xiaoyinqu", "score": 95652.17391304349, "slug": "best-for-research", "source": "clawhub", "stars": 0, "tags": null, "updated_at": 1776697369884, "version": "1.0.2"}, {"category": "", "created_at": 1774945013056, "description": "Run a structured UI/UX heuristic review based on Nielsen's 10 usability principles for screenshots, mockups, wireframes, product pages, app screens, and desi...", "description_zh": "", "downloads": 44, "homepage": "https://clawhub.ai/dawen-ye/ui-review", "iconUrl": null, "installs": 5, "name": "nielsen-ui-review", "ownerName": "dawen-ye", "score": 95652.17391304349, "slug": "ui-review", "source": "clawhub", "stars": 0, "tags": ["design feedback", "heuristic evaluation", "interface design", "nielsen 10 heuristics", "product design", "ui/ux review", "usability audit", "usability testing"], "updated_at": 1776697369876, "version": "1.0.0"}, {"category": "developer-tools", "created_at": 1773959929793, "description": "Generate .gitignore files for any project type using GitHub's 200+ official templates. Use when creating new projects, setting up repositories, needing to co...", "description_zh": "", "downloads": 44, "homepage": "https://clawhub.ai/johnnywang2001/jrv-gitignore-gen", "iconUrl": null, "installs": 2, "name": "Gitignore Gen", "ownerName": "johnnywang2001", "score": 95652.17391304349, "slug": "jrv-gitignore-gen", "source": "clawhub", "stars": 0, "tags": null, "updated_at": 1776697369867, "version": "1.0.0"}, {"category": "developer-tools", "created_at": 1773961032160, "description": "Manual step-by-step computer control via Lightcone sessions. Activate when user needs fine-grained browser or desktop automation, multi-step workflows, login...", "description_zh": "", "downloads": 44, "homepage": "https://clawhub.ai/eddieogola/lightcone-session", "iconUrl": null, "installs": 7, "name": "Lightcone Session", "ownerName": "eddieogola", "score": 95652.17391304349, "slug": "lightcone-session", "source": "clawhub", "stars": 0, "tags": null, "updated_at": 1776697369866, "version": "1.0.0"}, {"category": "ai-intelligence", "created_at": 1773961320813, "description": "Chat and ask functionality for OpenClaw", "description_zh": "", "downloads": 44, "homepage": "https://clawhub.ai/xander-art/chat-ask", "iconUrl": null, "installs": 5, "name": "Chat Ask", "ownerName": "xander-art", "score": 95652.17391304349, "slug": "chat-ask", "source": "clawhub", "stars": 0, "tags": null, "updated_at": 1776697369856, "version": "1.0.0"}, {"category": "", "created_at": 1774903641102, "description": "Deep React patterns workflow—component boundaries, composition, hooks rules, effects and data fetching, performance (memo, lists, suspense), testing, and acc...", "description_zh": "", "downloads": 44, "homepage": "https://clawhub.ai/codekungfu/react-patterns", "iconUrl": null, "installs": 3, "name": "React Patterns", "ownerName": "codekungfu", "score": 95652.17391304349, "slug": "react-patterns", "source": "clawhub", "stars": 0, "tags": null, "updated_at": 1776697369828, "version": "1.0.0"}, {"category": "", "created_at": 1774956167337, "description": "ChatBotKit integration. Manage data, records, and automate workflows. Use when the user wants to interact with ChatBotKit data.", "description_zh": "", "downloads": 44, "homepage": "https://clawhub.ai/gora050/chatbotkit", "iconUrl": null, "installs": 1, "name": "Chatbotkit", "ownerName": "gora050", "score": 77192.98245614035, "slug": "chatbotkit", "source": "clawhub", "stars": 0, "tags": null, "updated_at": 1776697369791, "version": "1.0.0"}, {"category": "", "created_at": 1774889358647, "description": "Generate irresistible replies for your crush, partner, or dating match. This AI crafts flirty texts, romantic messages, and witty comebacks that build attrac...", "description_zh": "", "downloads": 44, "homepage": "https://clawhub.ai/imwyvern/love-reply", "iconUrl": null, "installs": 2, "name": "Love Reply Skill", "ownerName": "imwyvern", "score": 77192.98245614035, "slug": "love-reply", "source": "clawhub", "stars": 0, "tags": null, "updated_at": 1776697369755, "version": "1.0.1"}, {"category": "", "created_at": 1774847630706, "description": "Fetch WeChat public-article content and save it into a user-provided Feishu Wiki location. Use when user shares mp.weixin.qq.com links and asks to archive/sy...", "description_zh": "", "downloads": 44, "homepage": "https://clawhub.ai/gift-is-coding/wechat-to-feishu-wiki", "iconUrl": null, "installs": 7, "name": "WeChat to Feishu Wiki", "ownerName": "gift-is-coding", "score": 77192.98245614035, "slug": "wechat-to-feishu-wiki", "source": "clawhub", "stars": 0, "tags": null, "updated_at": 1776697369697, "version": "1.0.0"}, {"category": "", "created_at": 1774899334537, "description": "Track events and user behavior using Segment.", "description_zh": "", "downloads": 44, "homepage": "https://clawhub.ai/clawdiri-ai/analytics-tracking-dv", "iconUrl": null, "installs": 1, "name": "Analytics & Tracking Setup", "ownerName": "clawdiri-ai", "score": 77192.98245614035, "slug": "analytics-tracking-dv", "source": "clawhub", "stars": 0, "tags": null, "updated_at": 1776697369692, "version": "0.1.0"}, {"category": "", "created_at": 1774896009786, "description": "Battery Management System reference — cell balancing, SOC estimation, thermal management, and protection circuits. Use when designing BMS for lithium-ion pac...", "description_zh": "", "downloads": 44, "homepage": "https://clawhub.ai/bytesagain1/bms", "iconUrl": null, "installs": 9, "name": "Bms", "ownerName": "bytesagain1", "score": 86274.50980392157, "slug": "bms", "source": "clawhub", "stars": 0, "tags": null, "updated_at": 1776697369627, "version": "1.0.0"}, {"category": "", "created_at": 1774895068000, "description": "Learn Python programming on LabEx: beginner and topic courses plus coding labs via LabEx MCP; avoid generic help outside labex.io catalog URLs.", "description_zh": "", "downloads": 44, "homepage": "https://clawhub.ai/huhuhang/learn-python", "iconUrl": null, "installs": 3, "name": "Learn Python", "ownerName": "huhuhang", "score": 86274.50980392157, "slug": "learn-python", "source": "clawhub", "stars": 0, "tags": null, "updated_at": 1776697369607, "version": "1.0.1"}, {"category": "", "created_at": 1774859846756, "description": "Use the Health Data AI Analyzer Mac app read-only localhost API on macOS to generate a concise Apple Health daily brief and 3 practical suggestions. Only run...", "description_zh": "", "downloads": 44, "homepage": "https://clawhub.ai/krumjahn/apple-health-export-analyzer", "iconUrl": null, "installs": 6, "name": "Health Data AI Analyzer", "ownerName": "krumjahn", "score": 86274.50980392157, "slug": "apple-health-export-analyzer", "source": "clawhub", "stars": 0, "tags": null, "updated_at": 1776697369549, "version": "1.0.8"}, {"category": "", "created_at": 1774781680889, "description": "Learn from consequences, not instructions — generate and enforce constraints from experience", "description_zh": "", "downloads": 43, "homepage": "https://clawhub.ai/leegitw/constraint-engine", "iconUrl": null, "installs": 5, "name": "Constraint Engine", "ownerName": "leegitw", "score": 508.33431847736136, "slug": "constraint-engine", "source": "clawhub", "stars": 0, "tags": ["agentic", "circuit-breaker", "constraint", "enforcement", "guardrails", "lifecycle", "prevention", "rules", "self-improving", "validation"], "updated_at": 1776766450397, "version": "1.3.1"}, {"category": "", "created_at": 1774867356643, "description": "Summarizes recent newsletter emails received in Gmail into a single newsletter digest. This skill identifies newsletter emails using configured labels or sen...", "description_zh": "", "downloads": 43, "homepage": "https://clawhub.ai/neeravmakwana/email-newsletter-digest", "iconUrl": null, "installs": 2, "name": "Email Newsletter Digest", "ownerName": "neeravmakwana", "score": 798.2179320586598, "slug": "email-newsletter-digest", "source": "clawhub", "stars": 0, "tags": null, "updated_at": 1776763150574, "version": "1.0.1"}, {"category": "", "created_at": 1774868932150, "description": "When the user wants to create, optimize, or structure legal pages (Privacy, Terms, etc.). Also use when the user mentions \"privacy policy,\" \"terms of service...", "description_zh": "", "downloads": 43, "homepage": "https://clawhub.ai/kostja94/legal-page-generator", "iconUrl": null, "installs": 5, "name": "legal-page-generator", "ownerName": "kostja94", "score": 1542.8776462145677, "slug": "legal-page-generator", "source": "clawhub", "stars": 0, "tags": null, "updated_at": 1776761989885, "version": "1.0.0"}, {"category": "", "created_at": 1774890402295, "description": "Runtime AI security for OpenClaw agents. Protects against prompt injection, identity spoofing, PII leakage, and runtime abuse. Drop-in 6-layer security middl...", "description_zh": "", "downloads": 43, "homepage": "https://clawhub.ai/supertechgod/senticlaw", "iconUrl": null, "installs": 0, "name": "SentiClaw", "ownerName": "supertechgod", "score": 3426.2948207171316, "slug": "senticlaw", "source": "clawhub", "stars": 0, "tags": ["identity", "openclaw", "pii", "prompt-injection", "runtime", "security"], "updated_at": 1776760098129, "version": "1.0.0"}, {"category": "", "created_at": 1774846297956, "description": "Extract and summarize publicly accessible WeChat shared pages including announcements, app info, and group invite details without login or private data access.", "description_zh": "", "downloads": 43, "homepage": "https://clawhub.ai/codekungfu/wechat-trending", "iconUrl": null, "installs": 0, "name": "Wechat", "ownerName": "codekungfu", "score": 3431.7637669592978, "slug": "wechat-trending", "source": "clawhub", "stars": 0, "tags": null, "updated_at": 1776760097886, "version": "0.1.0"}, {"category": "", "created_at": 1776061493878, "description": "Generate realistic digital human broadcast videos from portrait images and audio/text using Jimeng OmniHuman 1.5.", "description_zh": "", "downloads": 43, "homepage": "https://clawhub.ai/user_f95f21b8/dlazy-jimeng-omnihuman-1-5", "iconUrl": null, "installs": 2, "name": "jimeng omnihuman 1.5", "ownerName": "user_f95f21b8", "score": 3431.7637669592978, "slug": "dlazy-jimeng-omnihuman-1-5", "source": "community", "stars": 0, "tags": null, "updated_at": 1776760097881, "version": "1.0.7"}, {"category": "", "created_at": 1774862496320, "description": "the Skill act as a full stack developer.", "description_zh": "", "downloads": 43, "homepage": "https://clawhub.ai/tenkus47/frontend-backend-dev", "iconUrl": null, "installs": 7, "name": "Openpecha frontend + backend structure", "ownerName": "tenkus47", "score": 8128.544423440454, "slug": "frontend-backend-dev", "source": "clawhub", "stars": 0, "tags": null, "updated_at": 1776753283819, "version": "1.0.1"}, {"category": "", "created_at": 1774915838257, "description": "Write, review, or improve SwiftUI code following best practices for state management, view composition, performance, modern APIs, Swift concurrency, and iOS...", "description_zh": "", "downloads": 43, "homepage": "https://clawhub.ai/soponcd/swiftui-expert-skill", "iconUrl": null, "installs": 6, "name": "Swiftui Expert Skill", "ownerName": "soponcd", "score": 7517.482517482517, "slug": "swiftui-expert-skill", "source": "clawhub", "stars": 0, "tags": null, "updated_at": 1776752684282, "version": "1.0.0"}, {"category": "", "created_at": 1774881970748, "description": "Measure network download speed, upload speed, and latency from the command line. Uses Cloudflare speed test endpoints and public DNS for latency measurements...", "description_zh": "", "downloads": 43, "homepage": "https://clawhub.ai/johnnywang2001/network-speed-test", "iconUrl": null, "installs": 0, "name": "Network Speed Test", "ownerName": "johnnywang2001", "score": 45263.15789473685, "slug": "network-speed-test", "source": "clawhub", "stars": 0, "tags": null, "updated_at": 1776742483904, "version": "1.0.0"}, {"category": "", "created_at": 1774882395502, "description": "Trading analysis and education. Technical analysis, chart patterns, risk management, and position sizing for stocks, forex, and crypto.", "description_zh": "", "downloads": 43, "homepage": "https://clawhub.ai/chenghaifeng08-creator/trading-automaton", "iconUrl": null, "installs": 2, "name": "Trading", "ownerName": "chenghaifeng08-creator", "score": 47777.77777777778, "slug": "trading-automaton", "source": "clawhub", "stars": 0, "tags": null, "updated_at": 1776737444462, "version": "1.0.2"}, {"category": "", "created_at": 1774876818419, "description": "Generate structured answer templates for CIE A-Level Physics (9702) exam questions. Fine-tuned Qwen3-4B LoRA model: question type, given/required, formulae,...", "description_zh": "", "downloads": 43, "homepage": "https://clawhub.ai/kevin0818-lxd/alevel-physics-cie", "iconUrl": null, "installs": 0, "name": "A-Level Physics CIE 9702", "ownerName": "kevin0818-lxd", "score": 43877.551020408166, "slug": "alevel-physics-cie", "source": "clawhub", "stars": 0, "tags": ["education", "exam-prep", "fine-tuning", "mlx", "physics"], "updated_at": 1776719869570, "version": "1.0.2"}, {"category": "", "created_at": 1774956653653, "description": "Build a PR and press coverage strategy for Shopify stores to earn media mentions, backlinks, and brand authority. Triggers: pr strategy, press coverage, medi...", "description_zh": "", "downloads": 43, "homepage": "https://clawhub.ai/mguozhen/shopify-pr-strategy", "iconUrl": null, "installs": 7, "name": "Shopify Pr Strategy", "ownerName": "mguozhen", "score": 43434.343434343435, "slug": "shopify-pr-strategy", "source": "clawhub", "stars": 0, "tags": null, "updated_at": 1776709183787, "version": "1.0.0"}, {"category": "", "created_at": 1774911068193, "description": "pixvideo-ai-video-maker is a ClawHub AI skill that transforms raw footage and ideas into polished video content through natural language commands. Trim timel...", "description_zh": "", "downloads": 43, "homepage": "https://clawhub.ai/udnerc/pixvideo-ai-video-maker", "iconUrl": null, "installs": 6, "name": "Pixvideo Ai Video Maker", "ownerName": "udnerc", "score": 43434.343434343435, "slug": "pixvideo-ai-video-maker", "source": "clawhub", "stars": 0, "tags": null, "updated_at": 1776706969548, "version": "1.0.2"}, {"category": "", "created_at": 1774905835430, "description": "Apply structured thinking and MECE principle to break down complex problems. Use at the start of any strategic analysis to organize thoughts and create compe...", "description_zh": "", "downloads": 43, "homepage": "https://clawhub.ai/linuszz/pyramid-principle", "iconUrl": null, "installs": 3, "name": "Pyramid Principle", "ownerName": "linuszz", "score": 38392.857142857145, "slug": "pyramid-principle", "source": "clawhub", "stars": 0, "tags": null, "updated_at": 1776701683691, "version": "1.0.0"}, {"category": "", "created_at": 1774872130803, "description": "Daily report generator - automatically summarizes today's tasks and generates formatted daily reports. Use when user asks for daily report, work summary, or...", "description_zh": "", "downloads": 43, "homepage": "https://clawhub.ai/youyancheng1/dailys-report", "iconUrl": null, "installs": 7, "name": "每日日报生成器", "ownerName": "youyancheng1", "score": 100000, "slug": "dailys-report", "source": "clawhub", "stars": 0, "tags": null, "updated_at": 1776697484554, "version": "1.0.0"}, {"category": "", "created_at": 1774853460480, "description": "Deep conversation analyzer that reveals the true dynamics of any text chat. Understand power balance, emotional shifts, interest levels, and manipulation pat...", "description_zh": "", "downloads": 43, "homepage": "https://clawhub.ai/imwyvern/chat-analyzer", "iconUrl": null, "installs": 1, "name": "Chat Analyzer Skill", "ownerName": "imwyvern", "score": 100000, "slug": "chat-analyzer", "source": "clawhub", "stars": 0, "tags": null, "updated_at": 1776697484544, "version": "1.0.1"}, {"category": "", "created_at": 1774890306304, "description": "Relay logic and wiring diagram helper. Use when json relay tasks, csv relay tasks, checking relay status.", "description_zh": "", "downloads": 43, "homepage": "https://clawhub.ai/ckchzh/relay", "iconUrl": null, "installs": 2, "name": "Relay", "ownerName": "ckchzh", "score": 100000, "slug": "relay", "source": "clawhub", "stars": 0, "tags": null, "updated_at": 1776697484452, "version": "1.0.0"}, {"category": "", "created_at": 1774906947958, "description": "Generate production-grade website pages and page templates optimized for SEO and AI-answer discoverability. Use this skill whenever the user wants to create,...", "description_zh": "", "downloads": 43, "homepage": "https://clawhub.ai/brucel017/seo-geo-page-factory", "iconUrl": null, "installs": 5, "name": "A production-grade skill for generating deployable website pages with built-in SEO and GEO constraints.", "ownerName": "brucel017", "score": 100000, "slug": "seo-geo-page-factory", "source": "clawhub", "stars": 0, "tags": null, "updated_at": 1776697484418, "version": "1.0.0"}, {"category": "developer-tools", "created_at": 1772787363377, "description": "Decentralized Agent-to-Agent protocol for TON. Zero barrier — GSTD_WALLET_ADDRESS auto-claims API key via PoW. Or use GSTD_API_KEY.", "description_zh": "", "downloads": 43, "homepage": "https://clawhub.ai/skipzhang/gstd-a2a-grid", "iconUrl": null, "installs": 6, "name": "Free-API-Grid-gstd", "ownerName": "skipzhang", "score": 100000, "slug": "gstd-a2a-grid", "source": "clawhub", "stars": 0, "tags": null, "updated_at": 1776697484405, "version": "1.0.5"}, {"category": "communication-collaboration", "created_at": 1773961436258, "description": "Search, manage, and organize your contact network via the Clay CLI.", "description_zh": "", "downloads": 43, "homepage": "https://clawhub.ai/khrrsn/clay", "iconUrl": null, "installs": 7, "name": "Clay", "ownerName": "khrrsn", "score": 100000, "slug": "clay", "source": "clawhub", "stars": 0, "tags": null, "updated_at": 1776697484392, "version": "1.0.0"}, {"category": "", "created_at": 1774944613709, "description": "Manage Comment data right from your terminal. Use when you need comment.", "description_zh": "", "downloads": 43, "homepage": "https://clawhub.ai/bytesagain3/comment", "iconUrl": null, "installs": 0, "name": "Comment", "ownerName": "bytesagain3", "score": 100000, "slug": "comment", "source": "clawhub", "stars": 0, "tags": null, "updated_at": 1776697484370, "version": "2.0.0"}, {"category": "", "created_at": 1774899912732, "description": "Generate videos with the NanoPhoto.AI Veo 3.1 API. Use when: (1) User wants Veo 3.1 text-to-video generation, (2) User wants Veo 3.1 generation from referenc...", "description_zh": "", "downloads": 43, "homepage": "https://clawhub.ai/nanophotohq/nanophoto-veo-3-1", "iconUrl": null, "installs": 3, "name": "Veo 3.1", "ownerName": "nanophotohq", "score": 100000, "slug": "nanophoto-veo-3-1", "source": "clawhub", "stars": 0, "tags": null, "updated_at": 1776697484366, "version": "1.0.0"}, {"category": "", "created_at": 1774878788139, "description": "Use markdown.new URLs like `https://markdown.new/{target_url}` to fetch and convert pages into static Markdown. Trigger this skill whenever the user asks to...", "description_zh": "", "downloads": 43, "homepage": "https://clawhub.ai/ctxinf/markdown-new-skill", "iconUrl": null, "installs": 0, "name": "markdown.new", "ownerName": "ctxinf", "score": 100000, "slug": "markdown-new-skill", "source": "clawhub", "stars": 0, "tags": null, "updated_at": 1776697484345, "version": "1.0.0"}, {"category": "", "created_at": 1774908505495, "description": "ERPNext integration. Manage Companies. Use when the user wants to interact with ERPNext data.", "description_zh": "", "downloads": 43, "homepage": "https://clawhub.ai/gora050/erpnext", "iconUrl": null, "installs": 1, "name": "Erpnext", "ownerName": "gora050", "score": 100000, "slug": "erpnext", "source": "clawhub", "stars": 0, "tags": null, "updated_at": 1776697484316, "version": "1.0.0"}, {"category": "", "created_at": 1774880624824, "description": "Build, debug, and integrate OpenLayers web maps, including map/view setup, XYZ and OSM base layers, vector sources, GeoJSON overlays, Web Mercator and WGS84...", "description_zh": "", "downloads": 43, "homepage": "https://clawhub.ai/jvy/openlayers", "iconUrl": null, "installs": 5, "name": "openlayers", "ownerName": "jvy", "score": 100000, "slug": "openlayers", "source": "clawhub", "stars": 0, "tags": null, "updated_at": 1776697484310, "version": "1.0.0"}, {"category": "", "created_at": 1774896596332, "description": "Generate QR codes locally from text/URL to PNG image or ASCII art. Pure local generation using qrcode library. No API key required. Use when users need to cr...", "description_zh": "", "downloads": 43, "homepage": "https://clawhub.ai/alone86136/local-qrcode", "iconUrl": null, "installs": 0, "name": "Local QR Code Generator", "ownerName": "alone86136", "score": 100000, "slug": "local-qrcode", "source": "clawhub", "stars": 0, "tags": null, "updated_at": 1776697484224, "version": "1.0.0"}]}