{"page": 448, "total_pages": 522, "total": 26073, "skills": [{"category": "", "created_at": 1774800234981, "description": "Use the ClawHub CLI to search, install, update, and publish agent skills from clawhub.com. Use when you need to fetch new skills on the fly, sync installed s...", "description_zh": "", "downloads": 43, "homepage": "https://clawhub.ai/andy27725/clawhub-local", "iconUrl": null, "installs": 4, "name": "Clawhub Local", "ownerName": "andy27725", "score": 100000, "slug": "clawhub-local", "source": "clawhub", "stars": 0, "tags": null, "updated_at": 1776697484174, "version": "1.0.0"}, {"category": "", "created_at": 1774922508562, "description": "Monitors OpenClaw cron job health, identifies failures, timeouts, and delivery issues.", "description_zh": "", "downloads": 43, "homepage": "https://clawhub.ai/lean-zhouchao/cron-health-check-zc", "iconUrl": null, "installs": 5, "name": "Cron Health Check Zc", "ownerName": "lean-zhouchao", "score": 100000, "slug": "cron-health-check-zc", "source": "clawhub", "stars": 0, "tags": null, "updated_at": 1776697484113, "version": "1.0.0"}, {"category": "", "created_at": 1774954870878, "description": "Teach Claude to use an Obsidian vault as a shared workspace with persistent state across sessions. Covers vault navigation, orchestration file management, ou...", "description_zh": "", "downloads": 43, "homepage": "https://clawhub.ai/tesfandiari1/obsidian-vault-context", "iconUrl": null, "installs": 9, "name": "Obsidian Vault Context", "ownerName": "tesfandiari1", "score": 100000, "slug": "obsidian-vault-context", "source": "clawhub", "stars": 0, "tags": null, "updated_at": 1776697483944, "version": "1.0.1"}, {"category": "", "created_at": 1774838161966, "description": "Real-time global intelligence dashboard with AI-powered news aggregation, geopolitical monitoring, and infrastructure tracking", "description_zh": "", "downloads": 43, "homepage": "https://clawhub.ai/adisinghstudent/worldmonitor-intelligence-dashboard", "iconUrl": null, "installs": 4, "name": "worldmonitor-intelligence-dashboard", "ownerName": "adisinghstudent", "score": 100000, "slug": "worldmonitor-intelligence-dashboard", "source": "clawhub", "stars": 0, "tags": null, "updated_at": 1776697483933, "version": "1.0.0"}, {"category": "", "created_at": 1774863799619, "description": "Rewrite ecommerce ads, creator scripts, landing page lines, or product claims into safer platform-friendly language without killing the selling angle. Use wh...", "description_zh": "", "downloads": 43, "homepage": "https://clawhub.ai/leooooooow/ecommerce-platform-policy-safe-rewrite", "iconUrl": null, "installs": 5, "name": "Ecommerce Platform Policy Safe Rewrite", "ownerName": "leooooooow", "score": 100000, "slug": "ecommerce-platform-policy-safe-rewrite", "source": "clawhub", "stars": 0, "tags": null, "updated_at": 1776697483879, "version": "1.0.0"}, {"category": "", "created_at": 1774872948231, "description": "Helps complete high-quality product planning from requirements to implementation. Invoke when PM needs annual/quarterly/product iteration planning, reporting...", "description_zh": "", "downloads": 43, "homepage": "https://clawhub.ai/orzinfo/product-planning-assistant", "iconUrl": null, "installs": 6, "name": "产品规划助手", "ownerName": "orzinfo", "score": 100000, "slug": "product-planning-assistant", "source": "clawhub", "stars": 0, "tags": null, "updated_at": 1776697483877, "version": "1.0.1"}, {"category": "", "created_at": 1774901083973, "description": "Create distinctive, production-grade frontend interfaces with high design quality. Use this skill when the user asks to build web components, pages, artifact...", "description_zh": "", "downloads": 43, "homepage": "https://clawhub.ai/bloodandeath/keats-frontend-design", "iconUrl": null, "installs": 6, "name": "Frontend Design", "ownerName": "bloodandeath", "score": 100000, "slug": "keats-frontend-design", "source": "clawhub", "stars": 0, "tags": null, "updated_at": 1776697483834, "version": "1.0.1"}, {"category": "", "created_at": 1774880403521, "description": "Automatically accesses the Jinri Toutiao homepage via browser automation, inputs keywords into the search bar, and collects related keyword suggestions from...", "description_zh": "", "downloads": 43, "homepage": "https://clawhub.ai/openlark/jinritoutiao-keyword-collector", "iconUrl": null, "installs": 2, "name": "Jinritoutiao Keyword Collector", "ownerName": "openlark", "score": 100000, "slug": "jinritoutiao-keyword-collector", "source": "clawhub", "stars": 0, "tags": null, "updated_at": 1776697483786, "version": "1.0.2"}, {"category": "", "created_at": 1774908432122, "description": "Delta reference tool. Use when working with delta in finance contexts.", "description_zh": "", "downloads": 43, "homepage": "https://clawhub.ai/xueyetianya/delta", "iconUrl": null, "installs": 0, "name": "Delta", "ownerName": "xueyetianya", "score": 100000, "slug": "delta", "source": "clawhub", "stars": 0, "tags": null, "updated_at": 1776697483774, "version": "1.0.0"}, {"category": "", "created_at": 1774882808834, "description": "Raise citation diversity/density (NO NEW FACTS): generate an in-scope “citation budget” plan per H3 so drafts stop failing the global unique-citation gate an...", "description_zh": "", "downloads": 43, "homepage": "https://clawhub.ai/willoscar/citation-diversifier", "iconUrl": null, "installs": 2, "name": "Citation Diversifier", "ownerName": "willoscar", "score": 95555.55555555556, "slug": "citation-diversifier", "source": "clawhub", "stars": 0, "tags": null, "updated_at": 1776697483650, "version": "1.0.0"}, {"category": "", "created_at": 1774914284438, "description": "Conducts rigorous, structured interviews to stress-test a plan, design, or idea by walking every branch of the decision tree until reaching shared understand...", "description_zh": "", "downloads": 43, "homepage": "https://clawhub.ai/chris-graffagnino/interviewer-claw", "iconUrl": null, "installs": 2, "name": "Interviewer-Claw", "ownerName": "chris-graffagnino", "score": 95555.55555555556, "slug": "interviewer-claw", "source": "clawhub", "stars": 0, "tags": null, "updated_at": 1776697483642, "version": "1.0.0"}, {"category": "", "created_at": 1774909796198, "description": "HAProxy load balancer reference. Frontend binds with ACL routing, backend server pools with health checks, balance algorithms (roundrobin/leastconn/source),...", "description_zh": "", "downloads": 43, "homepage": "https://clawhub.ai/ckchzh/haproxy", "iconUrl": null, "installs": 0, "name": "Haproxy", "ownerName": "ckchzh", "score": 95555.55555555556, "slug": "haproxy", "source": "clawhub", "stars": 0, "tags": null, "updated_at": 1776697370249, "version": "1.0.0"}, {"category": "", "created_at": 1774866911154, "description": "Reference tool for devtools — covers intro, quickstart, patterns and more. Quick lookup for Job Scheduler concepts, best practices, and implementation patterns.", "description_zh": "", "downloads": 43, "homepage": "https://clawhub.ai/bytesagain3/job-scheduler", "iconUrl": null, "installs": 0, "name": "Job Scheduler", "ownerName": "bytesagain3", "score": 87755.10204081633, "slug": "job-scheduler", "source": "clawhub", "stars": 0, "tags": null, "updated_at": 1776697370162, "version": "2.0.1"}, {"category": "", "created_at": 1774900370791, "description": "Systemd reference tool. Use when working with systemd in sysops contexts.", "description_zh": "", "downloads": 43, "homepage": "https://clawhub.ai/ckchzh/systemd", "iconUrl": null, "installs": 2, "name": "Systemd", "ownerName": "ckchzh", "score": 93478.26086956522, "slug": "systemd", "source": "clawhub", "stars": 0, "tags": null, "updated_at": 1776697369936, "version": "1.0.0"}, {"category": "", "created_at": 1774855832876, "description": "Operate DefiLlama Pro analytics APIs through UXC with a curated OpenAPI schema, path-templated API-key auth, and read-first guardrails.", "description_zh": "", "downloads": 43, "homepage": "https://clawhub.ai/jolestar/defillama-pro-openapi-skill", "iconUrl": null, "installs": 1, "name": "DefiLlama Pro OpenAPI Skill", "ownerName": "jolestar", "score": 75438.59649122808, "slug": "defillama-pro-openapi-skill", "source": "clawhub", "stars": 0, "tags": null, "updated_at": 1776697369735, "version": "1.0.0"}, {"category": "", "created_at": 1774895057893, "description": "Reviews LangGraph code for bugs, anti-patterns, and improvements. Use when reviewing code that uses StateGraph, nodes, edges, checkpointing, or other LangGra...", "description_zh": "", "downloads": 42, "homepage": "https://clawhub.ai/anderskev/langgraph-code-review", "iconUrl": null, "installs": 3, "name": "Langgraph Code Review", "ownerName": "anderskev", "score": 2937.062937062937, "slug": "langgraph-code-review", "source": "clawhub", "stars": 0, "tags": null, "updated_at": 1776766455929, "version": "1.0.0"}, {"category": "", "created_at": 1774893947936, "description": "Reviews Swift code for concurrency safety, error handling, memory management, and common mistakes. Use when reviewing .swift files for async/await patterns,...", "description_zh": "", "downloads": 42, "homepage": "https://clawhub.ai/anderskev/swift-code-review", "iconUrl": null, "installs": 8, "name": "Swift Code Review", "ownerName": "anderskev", "score": 2937.062937062937, "slug": "swift-code-review", "source": "clawhub", "stars": 0, "tags": null, "updated_at": 1776766454999, "version": "1.2.0"}, {"category": "", "created_at": 1774942405239, "description": "Designs and outputs n8n workflow JSON with robust triggers, idempotency, error handling, logging, retries, and human-in-the-loop review queues. Use when you...", "description_zh": "", "downloads": 42, "homepage": "https://clawhub.ai/litiao1224/n8n-workflow-automation-litiao", "iconUrl": null, "installs": 5, "name": "N8n Workflow Automation Litiao", "ownerName": "litiao1224", "score": 849.1710473109584, "slug": "n8n-workflow-automation-litiao", "source": "clawhub", "stars": 0, "tags": null, "updated_at": 1776765850380, "version": "1.0.0"}, {"category": "", "created_at": 1774948935883, "description": "Guide for creating effective skills. This skill should be used when users want to create a new skill (or update an existing skill) that extends Claude's capa...", "description_zh": "", "downloads": 42, "homepage": "https://clawhub.ai/raidan-ai/skill-creator-0-1-0-custom", "iconUrl": null, "installs": 10, "name": "Skill Creator 0.1.0", "ownerName": "raidan-ai", "score": 1036.7810417180942, "slug": "skill-creator-0-1-0-custom", "source": "clawhub", "stars": 0, "tags": null, "updated_at": 1776764350366, "version": "1.0.1"}, {"category": "", "created_at": 1774891829147, "description": "Calculates a weighted composite score predicting adverse pregnancy outcomes in SLE/APS patients to guide risk stratification and management.", "description_zh": "", "downloads": 42, "homepage": "https://clawhub.ai/cryptoreumd/pregna-risk", "iconUrl": null, "installs": 0, "name": "PREGNA-RISK: Pregnancy Risk in SLE/APS", "ownerName": "cryptoreumd", "score": 3341.2887828162293, "slug": "pregna-risk", "source": "clawhub", "stars": 0, "tags": null, "updated_at": 1776760097972, "version": "1.0.0"}, {"category": "", "created_at": 1774889841797, "description": "Event-driven architecture reference — event sourcing, pub/sub, CQRS, event buses, and stream processing. Use when designing event systems, implementing pub/s...", "description_zh": "", "downloads": 42, "homepage": "https://clawhub.ai/ckchzh/event", "iconUrl": null, "installs": 1, "name": "Event", "ownerName": "ckchzh", "score": 15162.454873646207, "slug": "event", "source": "clawhub", "stars": 0, "tags": null, "updated_at": 1776759382994, "version": "1.0.0"}, {"category": "", "created_at": 1774943511473, "description": "Convert Self-Improving Agent learnings into a structured ExpertPack. Migrates the .learnings/ directory (LEARNINGS.md, ERRORS.md, FEATURE_REQUESTS.md) and an...", "description_zh": "", "downloads": 42, "homepage": "https://clawhub.ai/brianhearn/self-improving-to-expertpack", "iconUrl": null, "installs": 7, "name": "Self-Improving to ExpertPack", "ownerName": "brianhearn", "score": 2888.583218707015, "slug": "self-improving-to-expertpack", "source": "clawhub", "stars": 0, "tags": null, "updated_at": 1776758482859, "version": "1.0.0"}, {"category": "", "created_at": 1774856000095, "description": "Help users find grants, funding opportunities, subsidies, and charitable foundations relevant to their project or cause. Use when nonprofits, individuals, or...", "description_zh": "", "downloads": 42, "homepage": "https://clawhub.ai/jiwenbing/grant-finder", "iconUrl": null, "installs": 5, "name": "Grant Finder", "ownerName": "jiwenbing", "score": 2514.970059880239, "slug": "grant-finder", "source": "clawhub", "stars": 0, "tags": null, "updated_at": 1776757582673, "version": "1.0.0"}, {"category": "", "created_at": 1774859748201, "description": "Backup and restore the .openclaw agent folder — encrypted snapshots pushed to a private GitHub repo. Use this skill whenever the user mentions backup, restor...", "description_zh": "", "downloads": 42, "homepage": "https://clawhub.ai/krishbhimani/snapshot", "iconUrl": null, "installs": 0, "name": "OpenClaw Backup & Restore — Encrypted OpenClaw Snapshots", "ownerName": "krishbhimani", "score": 2088.51317752362, "slug": "snapshot", "source": "clawhub", "stars": 0, "tags": ["backup", "encryption", "github", "migration", "restore"], "updated_at": 1776754388405, "version": "1.2.0"}, {"category": "", "created_at": 1774909324967, "description": "Real-time Chinese web search powered by 360's search engine API. Use this skill when the user asks to search the web, look up recent news, find current infor...", "description_zh": "", "downloads": 42, "homepage": "https://clawhub.ai/rybobo/360-web-search", "iconUrl": null, "installs": 4, "name": "360-web-search", "ownerName": "rybobo", "score": 7407.407407407407, "slug": "360-web-search", "source": "clawhub", "stars": 0, "tags": null, "updated_at": 1776752383865, "version": "1.0.1"}, {"category": "", "created_at": 1774845061679, "description": "Calculate compound interest and investment growth using financial formulas. Use when you need to plan savings, compare rates, or project wealth.", "description_zh": "", "downloads": 42, "homepage": "https://clawhub.ai/xueyetianya/compound", "iconUrl": null, "installs": 3, "name": "Compound", "ownerName": "xueyetianya", "score": 7381.370826010544, "slug": "compound", "source": "clawhub", "stars": 0, "tags": null, "updated_at": 1776751183982, "version": "1.0.0"}, {"category": "", "created_at": 1774841298125, "description": "Guide users to VideoAny Image-to-Video, an uncensored AI video generator with multi-model support.", "description_zh": "", "downloads": 42, "homepage": "https://clawhub.ai/gaoq1/image-to-video-any", "iconUrl": null, "installs": 2, "name": "Image To Video", "ownerName": "gaoq1", "score": 7155.025553662692, "slug": "image-to-video-any", "source": "clawhub", "stars": 0, "tags": null, "updated_at": 1776750883814, "version": "1.0.0"}, {"category": "", "created_at": 1774905921805, "description": "Cart abandonment recovery system for Shopify stores. Build multi-channel recovery sequences using email, SMS, and retargeting ads to win back lost sales and...", "description_zh": "", "downloads": 42, "homepage": "https://clawhub.ai/mguozhen/shopify-cart-recovery", "iconUrl": null, "installs": 7, "name": "Shopify Cart Recovery", "ownerName": "mguozhen", "score": 60000, "slug": "shopify-cart-recovery", "source": "clawhub", "stars": 0, "tags": null, "updated_at": 1776743869868, "version": "1.0.0"}, {"category": "", "created_at": 1774888184200, "description": "Linux distro playgrounds when the user needs a temporary Linux sandbox, browser-based Linux VM, disposable terminal environment, desktop Linux session, or he...", "description_zh": "", "downloads": 42, "homepage": "https://clawhub.ai/huhuhang/linux-distros", "iconUrl": null, "installs": 3, "name": "Linux Distros", "ownerName": "huhuhang", "score": 43750, "slug": "linux-distros", "source": "clawhub", "stars": 0, "tags": null, "updated_at": 1776743083974, "version": "1.0.0"}, {"category": "", "created_at": 1774920196296, "description": "Diagnose mobile PDP and cart friction where the add-to-cart (ATC) control is hard to see or reach—simulate scroll paths and thumb zones, flag text-stacked \"d...", "description_zh": "", "downloads": 42, "homepage": "https://clawhub.ai/rijoyai/mobile-atc", "iconUrl": null, "installs": 1, "name": "Mobile atc", "ownerName": "rijoyai", "score": 42857.142857142855, "slug": "mobile-atc", "source": "clawhub", "stars": 0, "tags": null, "updated_at": 1776742484092, "version": "1.0.0"}, {"category": "", "created_at": 1774886846501, "description": "Error handling reference — error types, exception patterns, HTTP status codes, retry strategies, and observability. Use when designing error handling, debugg...", "description_zh": "", "downloads": 42, "homepage": "https://clawhub.ai/ckchzh/error", "iconUrl": null, "installs": 1, "name": "Error", "ownerName": "ckchzh", "score": 43298.96907216495, "slug": "error", "source": "clawhub", "stars": 0, "tags": null, "updated_at": 1776742244573, "version": "1.0.0"}, {"category": "", "created_at": 1774866933687, "description": "Replace CleanMyMac, DaisyDisk, and similar paid Mac cleanup apps — for free. Mac Cleaner is an automated weekly macOS disk cleanup agent that runs silently i...", "description_zh": "", "downloads": 42, "homepage": "https://clawhub.ai/josephtandle/macos-mac-cleaner", "iconUrl": null, "installs": 5, "name": "Mac Cleaner", "ownerName": "josephtandle", "score": 42424.242424242424, "slug": "macos-mac-cleaner", "source": "clawhub", "stars": 0, "tags": ["cleanup", "disk", "macos", "system", "utility"], "updated_at": 1776741944383, "version": "1.0.3"}, {"category": "", "created_at": 1774896945780, "description": "Identify and prioritize risks by impact and controllability. Use for risk management, project planning, and strategic decision support.", "description_zh": "", "downloads": 42, "homepage": "https://clawhub.ai/linuszz/risk-matrix", "iconUrl": null, "installs": 0, "name": "Risk Matrix", "ownerName": "linuszz", "score": 44680.85106382979, "slug": "risk-matrix", "source": "clawhub", "stars": 0, "tags": null, "updated_at": 1776741004826, "version": "1.0.0"}, {"category": "", "created_at": 1774860566866, "description": "Expert skill for Voicebox — the open-source local voice cloning and TTS studio built with Tauri, React, and FastAPI", "description_zh": "", "downloads": 42, "homepage": "https://clawhub.ai/adisinghstudent/voicebox-voice-synthesis", "iconUrl": null, "installs": 4, "name": "voicebox-voice-synthesis", "ownerName": "adisinghstudent", "score": 42857.142857142855, "slug": "voicebox-voice-synthesis", "source": "clawhub", "stars": 0, "tags": null, "updated_at": 1776740444470, "version": "1.0.0"}, {"category": "", "created_at": 1774948069075, "description": "Send voice messages on Lark (Feishu) by converting text to speech. Use when the user asks to send a voice message or reply with voice.", "description_zh": "", "downloads": 42, "homepage": "https://clawhub.ai/cheerwhy/lark-voice", "iconUrl": null, "installs": 1, "name": "Lark (Feishu) Voice", "ownerName": "cheerwhy", "score": 45161.290322580644, "slug": "lark-voice", "source": "clawhub", "stars": 0, "tags": ["audio", "feishu", "lark", "tts", "voice"], "updated_at": 1776738346976, "version": "0.1.1"}, {"category": "", "created_at": 1774913989919, "description": "Calculate legal working days in China according to official government holiday schedules. Uses State Council-published arrangements to exclude weekends, publ...", "description_zh": "", "downloads": 42, "homepage": "https://clawhub.ai/manucode2000-max/chinese-workdays", "iconUrl": null, "installs": 3, "name": "Chinese Workdays", "ownerName": "manucode2000-max", "score": 43298.96907216495, "slug": "chinese-workdays", "source": "clawhub", "stars": 0, "tags": ["21years", "authoritative", "calendar", "china", "complete", "comprehensive", "historic", "holidays", "milestone", "official", "production", "utility", "v2", "working-days"], "updated_at": 1776738045257, "version": "2.0.0"}, {"category": "", "created_at": 1774915345297, "description": "GitLab group push events collector and daily commit report generator", "description_zh": "", "downloads": 42, "homepage": "https://clawhub.ai/bondli/gitlab-commit-report", "iconUrl": null, "installs": 1, "name": "gitlab-commit-report", "ownerName": "bondli", "score": 42857.142857142855, "slug": "gitlab-commit-report", "source": "clawhub", "stars": 0, "tags": null, "updated_at": 1776733969618, "version": "1.0.0"}, {"category": "", "created_at": 1774949912083, "description": "Turn YouTube videos into dependable markdown transcripts and polished summaries — even when caption coverage is messy. This skill works with manual closed ca...", "description_zh": "", "downloads": 42, "homepage": "https://clawhub.ai/arthurli202602-commits/youtube-anycaption-summarizer", "iconUrl": null, "installs": 8, "name": "YouTube AnyCaption Summarizer", "ownerName": "arthurli202602-commits", "score": 43298.96907216495, "slug": "youtube-anycaption-summarizer", "source": "clawhub", "stars": 0, "tags": ["auto-captions", "batch", "closed-captions", "markdown", "private-videos", "research", "subtitles", "summarization", "transcript", "video-analysis", "whisper", "youtube", "youtube-summarizer", "youtube-transcript"], "updated_at": 1776733669692, "version": "1.1.3"}, {"category": "", "created_at": 1774903312020, "description": "Turn your spare GPUs into one inference endpoint. Auto-discovers machines on your network, routes requests to the best available device, learns when your mac...", "description_zh": "", "downloads": 42, "homepage": "https://clawhub.ai/twinsgeeks/gpu-cluster-manager", "iconUrl": null, "installs": 4, "name": "Gpu Cluster Manager", "ownerName": "twinsgeeks", "score": 42857.142857142855, "slug": "gpu-cluster-manager", "source": "clawhub", "stars": 0, "tags": ["apple-silicon", "cost-savings", "gpu-cluster", "gpu-inference", "home-lab", "homelab", "local-ai", "self-hosted", "zero-config"], "updated_at": 1776730669669, "version": "1.0.1"}, {"category": "", "created_at": 1774907661889, "description": "Browser-based preset manager and RAW converter for Fujifilm X-series cameras using WebUSB and PTP protocol", "description_zh": "", "downloads": 42, "homepage": "https://clawhub.ai/adisinghstudent/filmkit-fujifilm-camera", "iconUrl": null, "installs": 1, "name": "filmkit-fujifilm-camera", "ownerName": "adisinghstudent", "score": 44680.85106382979, "slug": "filmkit-fujifilm-camera", "source": "clawhub", "stars": 0, "tags": null, "updated_at": 1776721069646, "version": "1.0.0"}, {"category": "", "created_at": 1774882117172, "description": "Use logic tree approach to identify root causes of business problems. Use when diagnosing performance issues, process failures, or customer behavior patterns.", "description_zh": "", "downloads": 42, "homepage": "https://clawhub.ai/linuszz/root-cause-analysis", "iconUrl": null, "installs": 0, "name": "Root Cause Analysis", "ownerName": "linuszz", "score": 100000, "slug": "root-cause-analysis", "source": "clawhub", "stars": 0, "tags": null, "updated_at": 1776697969756, "version": "1.0.0"}, {"category": "", "created_at": 1774912100781, "description": "Use this skill whenever the user wants to do anything with PDF files. This includes reading or extracting text/tables from PDFs, combining or merging multipl...", "description_zh": "", "downloads": 42, "homepage": "https://clawhub.ai/gitasura/pdf-test", "iconUrl": null, "installs": 11, "name": "test skill publish", "ownerName": "gitasura", "score": 97674.41860465116, "slug": "pdf-test", "source": "clawhub", "stars": 0, "tags": null, "updated_at": 1776697484547, "version": "1.0.0"}, {"category": "", "created_at": 1774920795416, "description": "Deep WebSocket/SSE workflow—handshake and auth, session lifecycle, heartbeats, ordering, backpressure, scaling, and observability. Use when building realtime...", "description_zh": "", "downloads": 42, "homepage": "https://clawhub.ai/codenova58/websocket-patterns", "iconUrl": null, "installs": 1, "name": "Websocket Patterns", "ownerName": "codenova58", "score": 97674.41860465116, "slug": "websocket-patterns", "source": "clawhub", "stars": 0, "tags": null, "updated_at": 1776697484528, "version": "1.0.0"}, {"category": "", "created_at": 1774902520577, "description": "SEO content brief generator agent. Produces complete content briefs from a target keyword: search intent classification, content outline, target word count,...", "description_zh": "", "downloads": 42, "homepage": "https://clawhub.ai/mguozhen/seo-content-brief-generator", "iconUrl": null, "installs": 7, "name": "Seo Content Brief Generator", "ownerName": "mguozhen", "score": 97674.41860465116, "slug": "seo-content-brief-generator", "source": "clawhub", "stars": 0, "tags": null, "updated_at": 1776697484510, "version": "1.0.0"}, {"category": "", "created_at": 1774894610050, "description": "E-commerce product description generator for any platform. Generates optimized titles, bullet points, descriptions, and backend keywords using competitor res...", "description_zh": "", "downloads": 42, "homepage": "https://clawhub.ai/phheng/ecommerce-product-description-generator", "iconUrl": null, "installs": 1, "name": "Product Description Generator", "ownerName": "phheng", "score": 97674.41860465116, "slug": "ecommerce-product-description-generator", "source": "clawhub", "stars": 0, "tags": null, "updated_at": 1776697484488, "version": "0.1.0"}, {"category": "", "created_at": 1774923152911, "description": "Automatically fetch YouTube video subtitles and generate concise summaries. Use when you need to summarize a YouTube video, get key points from a talk, or ex...", "description_zh": "", "downloads": 42, "homepage": "https://clawhub.ai/potatosolo/seo-keyword-research-tool", "iconUrl": null, "installs": 9, "name": "SEO Keyword Research Tool", "ownerName": "potatosolo", "score": 97674.41860465116, "slug": "seo-keyword-research-tool", "source": "clawhub", "stars": 0, "tags": ["automatically fetch youtube subtitles and generate concise summaries. save hours of watching."], "updated_at": 1776697484465, "version": "1.0.1"}, {"category": "", "created_at": 1774865802816, "description": "Create professional PowerPoint presentations with python-pptx. Supports slides, charts, tables, images, and templates.", "description_zh": "", "downloads": 42, "homepage": "https://clawhub.ai/weaglewang/claw-presentation-creator", "iconUrl": null, "installs": 6, "name": "claw-presentation-creator", "ownerName": "weaglewang", "score": 97674.41860465116, "slug": "claw-presentation-creator", "source": "clawhub", "stars": 0, "tags": null, "updated_at": 1776697484437, "version": "1.0.0"}, {"category": "", "created_at": 1774952164353, "description": "Evidence-based techniques for building habits and changing behavior. Use when someone wants to start exercising, quit a bad habit, build a daily practice, or...", "description_zh": "", "downloads": 42, "homepage": "https://clawhub.ai/howtousehumans/habit-formation", "iconUrl": null, "installs": 0, "name": "Habit Formation", "ownerName": "howtousehumans", "score": 97674.41860465116, "slug": "habit-formation", "source": "clawhub", "stars": 0, "tags": null, "updated_at": 1776697484367, "version": "1.0.0"}, {"category": "", "created_at": 1774913113305, "description": "Download the main video from a Pinterest pin and save it as a local MP4 for personal media workflows such as wallpaper saving, repost preparation, or Live Ph...", "description_zh": "", "downloads": 42, "homepage": "https://clawhub.ai/hekaiii/pinterest-video-download", "iconUrl": null, "installs": 8, "name": "Pinterest Video Download", "ownerName": "hekaiii", "score": 97674.41860465116, "slug": "pinterest-video-download", "source": "clawhub", "stars": 0, "tags": null, "updated_at": 1776697484272, "version": "1.0.2"}, {"category": "content-creation", "created_at": 1773083824933, "description": "HaS (Hide and Seek) on-device text and image anonymization. Text: 8 languages (zh/en/fr/de/es/pt/ja/ko), open-set entity types. Image: 21 privacy categories...", "description_zh": "", "downloads": 42, "homepage": "https://clawhub.ai/alohachen/has-privacy", "iconUrl": null, "installs": 12, "name": "has-privacy", "ownerName": "alohachen", "score": 97674.41860465116, "slug": "has-privacy", "source": "clawhub", "stars": 0, "tags": null, "updated_at": 1776697484266, "version": "1.0.0"}]}