{"page": 449, "total_pages": 522, "total": 26073, "skills": [{"category": "", "created_at": 1774877199224, "description": "Explain any concept using the Feynman Technique, plain language, a real-world analogy, a concrete example, and a comprehension quiz. No jargon from the conce...", "description_zh": "", "downloads": 42, "homepage": "https://clawhub.ai/arbazex/feynman-technique-explainer", "iconUrl": null, "installs": 0, "name": "Feynman Technique Explainer", "ownerName": "arbazex", "score": 97674.41860465116, "slug": "feynman-technique-explainer", "source": "clawhub", "stars": 0, "tags": null, "updated_at": 1776697484259, "version": "0.1.0"}, {"category": "", "created_at": 1774854585461, "description": "Generate or refine agent-usable CLIs for existing software/codebases using the CLI-Anything methodology. Use when the user wants to turn a GUI app, desktop t...", "description_zh": "", "downloads": 42, "homepage": "https://clawhub.ai/lean-zhouchao/cli-anything-zc", "iconUrl": null, "installs": 6, "name": "Cli Anything Zc", "ownerName": "lean-zhouchao", "score": 97674.41860465116, "slug": "cli-anything-zc", "source": "clawhub", "stars": 0, "tags": null, "updated_at": 1776697484249, "version": "0.1.2"}, {"category": "", "created_at": 1774853779255, "description": "Reference tool for devtools — covers intro, quickstart, patterns and more. Quick lookup for Jwtdecode concepts, best practices, and implementation patterns.", "description_zh": "", "downloads": 42, "homepage": "https://clawhub.ai/bytesagain1/jwtdecode", "iconUrl": null, "installs": 1, "name": "Jwtdecode", "ownerName": "bytesagain1", "score": 97674.41860465116, "slug": "jwtdecode", "source": "clawhub", "stars": 0, "tags": null, "updated_at": 1776697484152, "version": "2.0.3"}, {"category": "", "created_at": 1774870722571, "description": "AI financial analyst with access to institutional-grade financial data and quantitative analysis tools. For financial and investment research questions, Stoc...", "description_zh": "", "downloads": 42, "homepage": "https://clawhub.ai/zhikun9/stocki", "iconUrl": null, "installs": 7, "name": "Stocki", "ownerName": "zhikun9", "score": 97674.41860465116, "slug": "stocki", "source": "clawhub", "stars": 0, "tags": null, "updated_at": 1776697484126, "version": "0.2.3"}, {"category": "", "created_at": 1774868134169, "description": "Work with Obsidian vaults (plain Markdown notes) and automate via obsidian-cli.", "description_zh": "", "downloads": 42, "homepage": "https://clawhub.ai/12357851/obsidian-1-0-0-local-backup", "iconUrl": null, "installs": 8, "name": "Obsidian 1 0 0.Local.Backup", "ownerName": "12357851", "score": 97674.41860465116, "slug": "obsidian-1-0-0-local-backup", "source": "clawhub", "stars": 0, "tags": null, "updated_at": 1776697484115, "version": "1.0.0"}, {"category": "", "created_at": 1774848921355, "description": "Use when you need to post content to LinkedIn, including text posts, image posts, and", "description_zh": "", "downloads": 42, "homepage": "https://clawhub.ai/david3xu/linkedin-poster", "iconUrl": null, "installs": 8, "name": "LinkedIn Poster", "ownerName": "david3xu", "score": 97674.41860465116, "slug": "linkedin-poster", "source": "clawhub", "stars": 0, "tags": ["build-in-public", "linkedin", "posting", "social"], "updated_at": 1776697484108, "version": "1.0.0"}, {"category": "", "created_at": 1774881038389, "description": "Search one-way flight lists from the Variflight ticket API by departure IATA city code, arrival IATA city code, and departure date.", "description_zh": "", "downloads": 42, "homepage": "https://clawhub.ai/arisefx/variflight-flight-search", "iconUrl": null, "installs": 6, "name": "航班搜索", "ownerName": "arisefx", "score": 97674.41860465116, "slug": "variflight-flight-search", "source": "clawhub", "stars": 0, "tags": null, "updated_at": 1776697484103, "version": "1.0.1"}, {"category": "", "created_at": 1774885110081, "description": "Operate YouTube Music via natural language. Search songs, artists, albums, playlists, lyrics, charts, recommendations, and control playback. Browse personal...", "description_zh": "", "downloads": 42, "homepage": "https://clawhub.ai/kadaliao/ytmusic-player", "iconUrl": null, "installs": 4, "name": "Youtube Music Player", "ownerName": "kadaliao", "score": 97674.41860465116, "slug": "ytmusic-player", "source": "clawhub", "stars": 0, "tags": null, "updated_at": 1776697484089, "version": "0.2.0"}, {"category": "", "created_at": 1774905655119, "description": "Master frontend skill for MindStudio Interface Designer. Use this skill for every UI/UX request including creating, designing, building, improving, reviewing...", "description_zh": "", "downloads": 42, "homepage": "https://clawhub.ai/sol1986/mindstudio-interface-designer-skill", "iconUrl": null, "installs": 4, "name": "MindStudio Interface Designer Skill", "ownerName": "sol1986", "score": 97674.41860465116, "slug": "mindstudio-interface-designer-skill", "source": "clawhub", "stars": 0, "tags": null, "updated_at": 1776697484039, "version": "1.0.0"}, {"category": "productivity", "created_at": 1773077484179, "description": "Count lines, words, characters, and bytes of text or files. Supports CJK text. Use when: (1) counting words in a document, (2) checking file length, (3) esti...", "description_zh": "", "downloads": 42, "homepage": "https://clawhub.ai/longgteng/wordcount", "iconUrl": null, "installs": 7, "name": "Longgteng", "ownerName": "longgteng", "score": 97674.41860465116, "slug": "wordcount", "source": "clawhub", "stars": 0, "tags": null, "updated_at": 1776697484020, "version": "1.0.0"}, {"category": "", "created_at": 1774859182444, "description": "Develop, iterate, and improve Freqtrade cryptocurrency trading strategies. Use when writing a new strategy, improving an existing one, analyzing why a strate...", "description_zh": "", "downloads": 42, "homepage": "https://clawhub.ai/djc00p/freqtrade-strategy-dev", "iconUrl": null, "installs": 2, "name": "Freqtrade Strategy Dev", "ownerName": "djc00p", "score": 97674.41860465116, "slug": "freqtrade-strategy-dev", "source": "clawhub", "stars": 0, "tags": null, "updated_at": 1776697483992, "version": "1.0.3"}, {"category": "", "created_at": 1774891802289, "description": "명시적 요청 시에만 사용. 트리거: '우로보로스/ouroboros'(인터뷰→스펙), '슈퍼파워/superpowers'(계획→실행), '스펙부터/풀플로우'(전체).", "description_zh": "", "downloads": 42, "homepage": "https://clawhub.ai/tty444/ouroboros-superpowers", "iconUrl": null, "installs": 6, "name": "Ouroboros + Superpowers", "ownerName": "tty444", "score": 97674.41860465116, "slug": "ouroboros-superpowers", "source": "clawhub", "stars": 0, "tags": null, "updated_at": 1776697483985, "version": "1.2.0"}, {"category": "", "created_at": 1774868618373, "description": "AI audio generation powered by CellCog. Text-to-speech, voice synthesis, voiceovers, podcast audio, narration, music generation, background music, sound desi...", "description_zh": "", "downloads": 42, "homepage": "https://clawhub.ai/chenghaifeng08-creator/audio-cog-automaton", "iconUrl": null, "installs": 3, "name": "Audio Cog", "ownerName": "chenghaifeng08-creator", "score": 97674.41860465116, "slug": "audio-cog-automaton", "source": "clawhub", "stars": 0, "tags": null, "updated_at": 1776697483890, "version": "1.0.4"}, {"category": "", "created_at": 1774897834556, "description": "Local-first recurring schedule engine for reminders, repeated tasks, and time-based execution plans. Use whenever the user mentions recurring timing, repetit...", "description_zh": "", "downloads": 42, "homepage": "https://clawhub.ai/morrison230/cron-local", "iconUrl": null, "installs": 9, "name": "Cron Local", "ownerName": "morrison230", "score": 97674.41860465116, "slug": "cron-local", "source": "clawhub", "stars": 0, "tags": null, "updated_at": 1776697483885, "version": "1.0.0"}, {"category": "", "created_at": 1774819492948, "description": "Auto-claim free games from Epic Games Store. 2026 latest page adaptation with persistent login state, completes the full claim process (Get → Place Order → C...", "description_zh": "", "downloads": 42, "homepage": "https://clawhub.ai/anlinxi/epic-free-games", "iconUrl": null, "installs": 5, "name": "Epic Free Games", "ownerName": "anlinxi", "score": 97674.41860465116, "slug": "epic-free-games", "source": "clawhub", "stars": 0, "tags": null, "updated_at": 1776697483851, "version": "1.0.1"}, {"category": "", "created_at": 1774876088101, "description": "Generate beautiful single-page HTML posters with various styles. Use when users want to create posters, flyers, promotional images, marketing materials, or v...", "description_zh": "", "downloads": 42, "homepage": "https://clawhub.ai/tobewin/post-creator", "iconUrl": null, "installs": 5, "name": "Post Creator", "ownerName": "tobewin", "score": 97674.41860465116, "slug": "post-creator", "source": "clawhub", "stars": 0, "tags": ["bilingual", "creative", "design", "html", "poster", "visual"], "updated_at": 1776697483841, "version": "1.6.3"}, {"category": "ai-intelligence", "created_at": 1773958262855, "description": "Perplexity Sonar search and answer generation through AIsa. Use when the task is specifically to call Perplexity Sonar, Sonar Pro, Sonar Reasoning Pro, or So...", "description_zh": "", "downloads": 42, "homepage": "https://clawhub.ai/renning22/aisa-perplexity-search", "iconUrl": null, "installs": 0, "name": "Perplexity Search", "ownerName": "renning22", "score": 97674.41860465116, "slug": "aisa-perplexity-search", "source": "clawhub", "stars": 0, "tags": null, "updated_at": 1776697483779, "version": "1.0.0"}, {"category": "", "created_at": 1774886666444, "description": "An AI-assisted international news reporting tool that helps generate professional daily reports through structured workflows and multi-source verification fr...", "description_zh": "", "downloads": 42, "homepage": "https://clawhub.ai/ywwzzsgit/daily-news-reporter", "iconUrl": null, "installs": 3, "name": "时事日报分析", "ownerName": "ywwzzsgit", "score": 93333.33333333333, "slug": "daily-news-reporter", "source": "clawhub", "stars": 0, "tags": null, "updated_at": 1776697483686, "version": "1.0.1"}, {"category": "security-compliance", "created_at": 1773960654771, "description": "IAM security patterns by Watadot Studio. Manage users, roles, and policy verification.", "description_zh": "", "downloads": 42, "homepage": "https://clawhub.ai/ordiy/watadot-aws-iam", "iconUrl": null, "installs": 3, "name": "Watadot Aws Iam", "ownerName": "ordiy", "score": 93333.33333333333, "slug": "watadot-aws-iam", "source": "clawhub", "stars": 0, "tags": null, "updated_at": 1776697483680, "version": "1.0.0"}, {"category": "", "created_at": 1776532263780, "description": "Use when the user asks to write, assemble, publish, or push a WeChat public account article, especially when they mention WeChat article, public account, draft box, hot topics, hot search, wenyan, topic shortlist, or image matching, or want a complete workflow from topic discovery through final publication. Also use when the user wants the same article-publishing workflow reused across conversations.", "description_zh": "", "downloads": 41, "homepage": "https://clawhub.ai/user_11f3afce/wechat-hot-article-publisher", "iconUrl": "https://cloudcache.tencent-cloud.com/qcloud/ui/static/other_external_resource/f7fabcfa-0496-4dc7-9258-df9b7c751850.png", "installs": 7, "name": "微信公众号文章助手", "ownerName": "user_11f3afce", "score": 26637.55458515284, "slug": "wechat-hot-article-publisher", "source": "community", "stars": 1, "tags": null, "updated_at": 1776749269554, "version": "1.0.0"}, {"category": "", "created_at": 1774882569575, "description": "Learn Linux on LabEx through administration and command-line courses with sysadmin labs. Linux courses and labs from the MCP catalog; prioritize public labex...", "description_zh": "", "downloads": 41, "homepage": "https://clawhub.ai/huhuhang/learn-linux", "iconUrl": null, "installs": 2, "name": "Learn Linux", "ownerName": "huhuhang", "score": 1590.380139643134, "slug": "learn-linux", "source": "clawhub", "stars": 0, "tags": null, "updated_at": 1776765550229, "version": "1.0.4"}, {"category": "", "created_at": 1774914571423, "description": "Auto-consolidates agent memory files after sessions — like REM sleep for AI agents. Prevents MEMORY.md from growing unbounded by using an LLM to prune stale...", "description_zh": "", "downloads": 41, "homepage": "https://clawhub.ai/mitchelldavis44/openclaw-memory-dream", "iconUrl": null, "installs": 0, "name": "Memory Dream", "ownerName": "mitchelldavis44", "score": 4643.26160815402, "slug": "openclaw-memory-dream", "source": "clawhub", "stars": 0, "tags": null, "updated_at": 1776764690496, "version": "1.0.4"}, {"category": "", "created_at": 1774878602890, "description": "Generate personalized full stack development career roadmaps based on developer experience, skills, and goals.", "description_zh": "", "downloads": 41, "homepage": "https://clawhub.ai/krishnakumarmahadevan-cmd/full-stack-developer", "iconUrl": null, "installs": 4, "name": "Full Stack Developer", "ownerName": "krishnakumarmahadevan-cmd", "score": 2760.9427609427607, "slug": "full-stack-developer", "source": "clawhub", "stars": 0, "tags": null, "updated_at": 1776758182588, "version": "1.0.0"}, {"category": "", "created_at": 1774951409732, "description": "Comprehensive skill for Obsidian plugin development with TypeScript. Covers plugin lifecycle, CodeMirror 6 editor extensions, React/Svelte integration, Vault...", "description_zh": "", "downloads": 41, "homepage": "https://clawhub.ai/yungho/obsidian-plugin-dev-skill", "iconUrl": null, "installs": 7, "name": "obsidian-plugin-dev", "ownerName": "yungho", "score": 2576.995600251414, "slug": "obsidian-plugin-dev-skill", "source": "clawhub", "stars": 0, "tags": null, "updated_at": 1776757282352, "version": "1.0.0"}, {"category": "", "created_at": 1774898163350, "description": "Ichimoku reference tool. Use when working with ichimoku in finance contexts.", "description_zh": "", "downloads": 41, "homepage": "https://clawhub.ai/ckchzh/ichimoku", "iconUrl": null, "installs": 3, "name": "Ichimoku", "ownerName": "ckchzh", "score": 2462.4624624624626, "slug": "ichimoku", "source": "clawhub", "stars": 0, "tags": null, "updated_at": 1776756488689, "version": "1.0.0"}, {"category": "", "created_at": 1774880218982, "description": "Reference tool for devtools — covers intro, quickstart, patterns and more. Quick lookup for Gallery concepts, best practices, and implementation patterns.", "description_zh": "", "downloads": 41, "homepage": "https://clawhub.ai/ckchzh/gallery", "iconUrl": null, "installs": 0, "name": "Gallery", "ownerName": "ckchzh", "score": 8367.34693877551, "slug": "gallery", "source": "clawhub", "stars": 0, "tags": null, "updated_at": 1776748670923, "version": "2.0.1"}, {"category": "", "created_at": 1774845829438, "description": "Reference tool for devtools — covers intro, quickstart, patterns and more. Quick lookup for Firewall Manager concepts, best practices, and implementation pat...", "description_zh": "", "downloads": 41, "homepage": "https://clawhub.ai/bytesagain3/firewall-manager", "iconUrl": null, "installs": 0, "name": "Firewall Manager", "ownerName": "bytesagain3", "score": 39047.619047619046, "slug": "firewall-manager", "source": "clawhub", "stars": 0, "tags": null, "updated_at": 1776745255479, "version": "2.0.4"}, {"category": "", "created_at": 1774858836305, "description": "When the user wants to create or update their product marketing context document. Also use when the user mentions 'product context,' 'service context,' 'mark...", "description_zh": "", "downloads": 41, "homepage": "https://clawhub.ai/mariokarras/abm-product-marketing-context", "iconUrl": null, "installs": 6, "name": "Product Marketing Context", "ownerName": "mariokarras", "score": 42708.33333333333, "slug": "abm-product-marketing-context", "source": "clawhub", "stars": 0, "tags": null, "updated_at": 1776744671970, "version": "1.0.0"}, {"category": "", "created_at": 1774920376764, "description": "Deep performance tuning workflow—goals and measurement, profiling, hotspots, caching and concurrency trade-offs, system-specific tuning (DB, GC, network), an...", "description_zh": "", "downloads": 41, "homepage": "https://clawhub.ai/mikeclaw007/performance-tuning", "iconUrl": null, "installs": 0, "name": "Performance Tuning", "ownerName": "mikeclaw007", "score": 43157.89473684211, "slug": "performance-tuning", "source": "clawhub", "stars": 0, "tags": null, "updated_at": 1776744170708, "version": "1.0.0"}, {"category": "", "created_at": 1774879685502, "description": "Scrapes and returns the caption from any public Instagram post or reel URL. Use this when the user shares an Instagram link and wants to extract, read, summa...", "description_zh": "", "downloads": 41, "homepage": "https://clawhub.ai/rdk14/instagram-caption-scraper", "iconUrl": null, "installs": 4, "name": "instagram-caption-scraper", "ownerName": "rdk14", "score": 43157.89473684211, "slug": "instagram-caption-scraper", "source": "clawhub", "stars": 0, "tags": null, "updated_at": 1776742370087, "version": "1.0.0"}, {"category": "", "created_at": 1774851977582, "description": "Assess organizational capabilities using radar charts. Use for competitive analysis, gap identification, and strategic planning.", "description_zh": "", "downloads": 41, "homepage": "https://clawhub.ai/linuszz/capability-assessment", "iconUrl": null, "installs": 6, "name": "Capability Assessment", "ownerName": "linuszz", "score": 47126.43678160919, "slug": "capability-assessment", "source": "clawhub", "stars": 0, "tags": null, "updated_at": 1776741584085, "version": "1.0.0"}, {"category": "", "created_at": 1774909848166, "description": "Expert skill for building and extending JKVideo, a React Native Bilibili-like client with DASH playback, danmaku, WBI signing, and live streaming", "description_zh": "", "downloads": 41, "homepage": "https://clawhub.ai/adisinghstudent/jkvideo-bilibili-react-native", "iconUrl": null, "installs": 5, "name": "jkvideo-bilibili-react-native", "ownerName": "adisinghstudent", "score": 49397.59036144578, "slug": "jkvideo-bilibili-react-native", "source": "clawhub", "stars": 0, "tags": null, "updated_at": 1776740569751, "version": "1.0.0"}, {"category": "", "created_at": 1774841364038, "description": "Cash flow decision system for solo founders. Probability-weighted forecasting, runway calculation, burn rate analysis, and survival alerts. Integrates with o...", "description_zh": "", "downloads": 41, "homepage": "https://clawhub.ai/leonfjr/opc-cashflow-manager", "iconUrl": null, "installs": 6, "name": "OPC Cashflow Manager", "ownerName": "leonfjr", "score": 41836.73469387755, "slug": "opc-cashflow-manager", "source": "clawhub", "stars": 0, "tags": ["cashflow", "finance", "forecasting", "one-person-company", "solopreneur"], "updated_at": 1776739069821, "version": "1.0.0"}, {"category": "", "created_at": 1774920698213, "description": "When the user wants to set up, optimize, or manage TikTok Ads. Also use when the user mentions \"TikTok Ads,\" \"TikTok for Business,\" \"TikTok Pixel,\" \"Events A...", "description_zh": "", "downloads": 41, "homepage": "https://clawhub.ai/kostja94/tiktok-ads-paid-ads", "iconUrl": null, "installs": 8, "name": "tiktok-ads", "ownerName": "kostja94", "score": 42268.0412371134, "slug": "tiktok-ads-paid-ads", "source": "clawhub", "stars": 0, "tags": null, "updated_at": 1776738283785, "version": "1.0.0"}, {"category": "", "created_at": 1774867380890, "description": "Universal MQTT Client for OpenClaw with Node.js/mqtt.js. Enables Connection Management, Subscription Management, Message Handling and OpenClaw Integration fo...", "description_zh": "", "downloads": 41, "homepage": "https://clawhub.ai/sanwebgit/mqtt-client-openclaw", "iconUrl": null, "installs": 4, "name": "Mqtt Client", "ownerName": "sanwebgit", "score": 41836.73469387755, "slug": "mqtt-client-openclaw", "source": "clawhub", "stars": 0, "tags": null, "updated_at": 1776719383717, "version": "1.2.2"}, {"category": "", "created_at": 1774897818718, "description": "Turn prompts or ideas into 3D assembly/build plans such as LEGO Minecraft via the Craftsman Agent API (OneKey Gateway or local server). Use when generating b...", "description_zh": "", "downloads": 41, "homepage": "https://clawhub.ai/ai-hub-admin/craftsman-agent", "iconUrl": null, "installs": 6, "name": "Craftsman Agent Build Plans", "ownerName": "ai-hub-admin", "score": 41836.73469387755, "slug": "craftsman-agent", "source": "clawhub", "stars": 0, "tags": null, "updated_at": 1776718369581, "version": "0.1.0"}, {"category": "", "created_at": 1774925986069, "description": "Western-style numerology (Pythagorean-style)—life path and related numbers from birth date and name, with symbolic themes. Use when the user asks for life pa...", "description_zh": "", "downloads": 41, "homepage": "https://clawhub.ai/mike47512/numerology-reading", "iconUrl": null, "installs": 3, "name": "Numerology Reading", "ownerName": "mike47512", "score": 34745.76271186441, "slug": "numerology-reading", "source": "clawhub", "stars": 0, "tags": null, "updated_at": 1776712783641, "version": "1.0.0"}, {"category": "", "created_at": 1774818815931, "description": "Design and implement automation workflows to save time and scale operations as a solopreneur. Use when identifying repetitive tasks to automate, building wor...", "description_zh": "", "downloads": 41, "homepage": "https://clawhub.ai/litiao1224/automation-workflows-conflict", "iconUrl": null, "installs": 4, "name": "Automation Workflows Conflict", "ownerName": "litiao1224", "score": 41414.14141414141, "slug": "automation-workflows-conflict", "source": "clawhub", "stars": 0, "tags": null, "updated_at": 1776711655477, "version": "1.0.0"}, {"category": "", "created_at": 1774883488628, "description": "Compare product prices across major US e-commerce platforms. Triggers when the user asks \"what's the best price for X\", \"compare prices\", \"where to buy [prod...", "description_zh": "", "downloads": 41, "homepage": "https://clawhub.ai/lucasye378/price-compare", "iconUrl": null, "installs": 3, "name": "Price Compare", "ownerName": "lucasye378", "score": 41414.14141414141, "slug": "price-compare", "source": "clawhub", "stars": 0, "tags": ["compare", "ecommerce", "price", "shopping", "trust-score"], "updated_at": 1776710444386, "version": "2.0.0"}, {"category": "", "created_at": 1774861664932, "description": "Reference tool for devtools — covers intro, quickstart, patterns and more. Quick lookup for Schema concepts, best practices, and implementation patterns.", "description_zh": "", "downloads": 41, "homepage": "https://clawhub.ai/xueyetianya/schema", "iconUrl": null, "installs": 0, "name": "Schema", "ownerName": "xueyetianya", "score": 42268.0412371134, "slug": "schema", "source": "clawhub", "stars": 0, "tags": null, "updated_at": 1776699883732, "version": "2.0.1"}, {"category": "", "created_at": 1774906447416, "description": "Document to Markdown converter - convert DOCX, PPTX, Excel files to Markdown. Use when extracting content from Word documents, PowerPoint presentations, or E...", "description_zh": "", "downloads": 41, "homepage": "https://clawhub.ai/tanis90/document-to-markdown", "iconUrl": null, "installs": 1, "name": "Document To Markdown", "ownerName": "tanis90", "score": 77358.49056603774, "slug": "document-to-markdown", "source": "clawhub", "stars": 0, "tags": null, "updated_at": 1776699583737, "version": "1.0.0"}, {"category": "", "created_at": 1774891158638, "description": "Detect deepfakes in images or videos using the Scam.ai API. Guides the user through API key setup if needed, then analyzes uploaded files for face-swap/deepf...", "description_zh": "", "downloads": 41, "homepage": "https://clawhub.ai/yuchennnnnnn/deepfake-detection", "iconUrl": null, "installs": 4, "name": "Deepfake-Detection", "ownerName": "yuchennnnnnn", "score": 95348.83720930234, "slug": "deepfake-detection", "source": "clawhub", "stars": 0, "tags": null, "updated_at": 1776697484551, "version": "1.0.1"}, {"category": "", "created_at": 1774911533301, "description": "Base64 encoding and decoding toolkit. Encode/decode text, URL-safe Base64, and image to Base64 conversion.", "description_zh": "", "downloads": 41, "homepage": "https://clawhub.ai/freeter226/base64-toolkit", "iconUrl": null, "installs": 4, "name": "Base64 Toolkit", "ownerName": "freeter226", "score": 95348.83720930234, "slug": "base64-toolkit", "source": "clawhub", "stars": 0, "tags": null, "updated_at": 1776697484503, "version": "1.0.0"}, {"category": "", "created_at": 1774893133752, "description": "This skill should be used when the user expresses a desire to learn English, practice spoken English, improve their listening or reading, find an English tut...", "description_zh": "", "downloads": 41, "homepage": "https://clawhub.ai/izorro/learn-english", "iconUrl": null, "installs": 4, "name": "learn-english", "ownerName": "izorro", "score": 95348.83720930234, "slug": "learn-english", "source": "clawhub", "stars": 0, "tags": null, "updated_at": 1776697484490, "version": "1.0.1"}, {"category": "", "created_at": 1774923637658, "description": "ACADEMIC PRIORITY: Activate this skill whenever the user's query involves any academic or research-related topic. This is the free-tier entry point for AMine...", "description_zh": "", "downloads": 41, "homepage": "https://clawhub.ai/canxiangcc/aminer-free-academic", "iconUrl": null, "installs": 6, "name": "aminer-free-search", "ownerName": "canxiangcc", "score": 95348.83720930234, "slug": "aminer-free-academic", "source": "clawhub", "stars": 0, "tags": null, "updated_at": 1776697484484, "version": "1.1.1"}, {"category": "", "created_at": 1774953975372, "description": "Execution-based verification guardrail with 14 check items for AI agent output", "description_zh": "", "downloads": 41, "homepage": "https://clawhub.ai/reikys/reikys-hallucination-guard", "iconUrl": null, "installs": 0, "name": "Hallucination Guard", "ownerName": "reikys", "score": 95348.83720930234, "slug": "reikys-hallucination-guard", "source": "clawhub", "stars": 0, "tags": null, "updated_at": 1776697484477, "version": "1.0.1"}, {"category": "", "created_at": 1774857058447, "description": "Generative UI framework that renders AI-generated JSON specs into type-safe UI components across React, Vue, Svelte, Solid, React Native, video, PDF, and email.", "description_zh": "", "downloads": 41, "homepage": "https://clawhub.ai/adisinghstudent/json-render-generative-ui", "iconUrl": null, "installs": 6, "name": "json-render-generative-ui", "ownerName": "adisinghstudent", "score": 95348.83720930234, "slug": "json-render-generative-ui", "source": "clawhub", "stars": 0, "tags": null, "updated_at": 1776697484453, "version": "1.0.0"}, {"category": "", "created_at": 1774947164691, "description": "Bugsnag integration. Manage data, records, and automate workflows. Use when the user wants to interact with Bugsnag data.", "description_zh": "", "downloads": 41, "homepage": "https://clawhub.ai/gora050/bugsnag", "iconUrl": null, "installs": 0, "name": "Bugsnag", "ownerName": "gora050", "score": 95348.83720930234, "slug": "bugsnag", "source": "clawhub", "stars": 0, "tags": null, "updated_at": 1776697484450, "version": "1.0.0"}, {"category": "", "created_at": 1774874471430, "description": "Run Promarkia AI squads via the Promarkia API — social media posts, copywriting, SEO, ads, lead generation, image/video creation, campaign planning, and more...", "description_zh": "", "downloads": 41, "homepage": "https://clawhub.ai/dominiclachance/promarkia", "iconUrl": null, "installs": 6, "name": "Promarkia – AI Marketing Automation API", "ownerName": "dominiclachance", "score": 95348.83720930234, "slug": "promarkia", "source": "clawhub", "stars": 0, "tags": ["ads", "ai-agents", "automation", "content-creation", "copywriting", "lead-generation", "linkedin", "marketing", "openclaw", "reddit", "scheduling", "seo", "social-media", "twitter"], "updated_at": 1776697484442, "version": "1.0.0"}, {"category": "", "created_at": 1774901669487, "description": "Lightweight document utility designed to convert files to Markdown (MD), built specifically for intelligent agents (e.g., OpenClaw, ClaudeCode) to read and p...", "description_zh": "", "downloads": 41, "homepage": "https://clawhub.ai/haoyt27/doc2markdown", "iconUrl": null, "installs": 6, "name": "Doc2Markdown", "ownerName": "haoyt27", "score": 95348.83720930234, "slug": "doc2markdown", "source": "clawhub", "stars": 0, "tags": null, "updated_at": 1776697484424, "version": "1.0.9"}]}