{"page": 450, "total_pages": 522, "total": 26073, "skills": [{"category": "", "created_at": 1774871382865, "description": "Compress and convert images and videos using ffmpeg. Use when the user wants to reduce file size, change format, resize, or optimize media files. Handles com...", "description_zh": "", "downloads": 41, "homepage": "https://clawhub.ai/1987566643/media-compress", "iconUrl": null, "installs": 1, "name": "Media Compress", "ownerName": "1987566643", "score": 95348.83720930234, "slug": "media-compress", "source": "clawhub", "stars": 0, "tags": ["compression", "ffmpeg", "image", "media", "mp4", "video", "webp"], "updated_at": 1776697484416, "version": "1.1.0"}, {"category": "", "created_at": 1774851652302, "description": "Parse text and coordinates from images with SoMark (character/word/line positions on original image). Ideal for OCR-first image understanding where location...", "description_zh": "", "downloads": 41, "homepage": "https://clawhub.ai/soul-code/image-parser", "iconUrl": null, "installs": 1, "name": "Image Parser", "ownerName": "soul-code", "score": 95348.83720930234, "slug": "image-parser", "source": "clawhub", "stars": 0, "tags": null, "updated_at": 1776697484333, "version": "0.1.0"}, {"category": "", "created_at": 1774896285978, "description": "Brand monitoring tool for tracking mentions across social media platforms. Monitor Reddit, Google News, YouTube, and DuckDuckGo for brand mentions. Includes...", "description_zh": "", "downloads": 41, "homepage": "https://clawhub.ai/phheng/ecommerce-brand-monitoring", "iconUrl": null, "installs": 3, "name": "Brand Monitoring", "ownerName": "phheng", "score": 95348.83720930234, "slug": "ecommerce-brand-monitoring", "source": "clawhub", "stars": 0, "tags": null, "updated_at": 1776697484326, "version": "0.1.0"}, {"category": "", "created_at": 1774860695634, "description": "When the user needs marketing ideas, inspiration, or strategies for their SaaS or software product. Also use when the user asks for 'marketing ideas,' 'growt...", "description_zh": "", "downloads": 41, "homepage": "https://clawhub.ai/mariokarras/abm-marketing-ideas", "iconUrl": null, "installs": 5, "name": "Marketing Ideas", "ownerName": "mariokarras", "score": 95348.83720930234, "slug": "abm-marketing-ideas", "source": "clawhub", "stars": 0, "tags": null, "updated_at": 1776697484282, "version": "1.0.0"}, {"category": "", "created_at": 1774923113157, "description": "Generates a comprehensive, structured research brief on any topic, person, case, or event. Ideal for journalists, podcasters, writers, and content creators w...", "description_zh": "", "downloads": 41, "homepage": "https://clawhub.ai/tetsuakira-vk/research-brief-generator", "iconUrl": null, "installs": 6, "name": "Research Brief Generator", "ownerName": "tetsuakira-vk", "score": 95348.83720930234, "slug": "research-brief-generator", "source": "clawhub", "stars": 0, "tags": null, "updated_at": 1776697484270, "version": "1.0.0"}, {"category": "", "created_at": 1774855015246, "description": "Reference tool for devtools — covers intro, quickstart, patterns and more. Quick lookup for Mathbox concepts, best practices, and implementation patterns.", "description_zh": "", "downloads": 41, "homepage": "https://clawhub.ai/bytesagain1/mathbox", "iconUrl": null, "installs": 3, "name": "Mathbox", "ownerName": "bytesagain1", "score": 95348.83720930234, "slug": "mathbox", "source": "clawhub", "stars": 0, "tags": null, "updated_at": 1776697484244, "version": "2.0.3"}, {"category": "", "created_at": 1774857675240, "description": "Fast web search for AI agents. Use when: user asks to search, Google something, look up info, find news, research topics. Better Chinese support than Brave/T...", "description_zh": "", "downloads": 41, "homepage": "https://clawhub.ai/mingzzz918/cloudsway-search", "iconUrl": null, "installs": 0, "name": "Cloudsway Search", "ownerName": "mingzzz918", "score": 95348.83720930234, "slug": "cloudsway-search", "source": "clawhub", "stars": 0, "tags": null, "updated_at": 1776697484213, "version": "1.1.1"}, {"category": "", "created_at": 1772798924798, "description": "Cross-module KPIs, financial ratios, trends, and dashboards for ERPClaw — read-only, gracefully degrades when optional skills are missing", "description_zh": "", "downloads": 41, "homepage": "https://clawhub.ai/skipzhang/erpclaw-analytics", "iconUrl": null, "installs": 1, "name": "ERPClaw-Analytics", "ownerName": "skipzhang", "score": 95348.83720930234, "slug": "erpclaw-analytics", "source": "clawhub", "stars": 0, "tags": null, "updated_at": 1776697484185, "version": "1.0.0"}, {"category": "", "created_at": 1774882840979, "description": "Apply a `citation-diversifier` budget report by injecting *in-scope* citations into an existing draft (NO NEW FACTS), so the run passes the global unique-cit...", "description_zh": "", "downloads": 41, "homepage": "https://clawhub.ai/willoscar/citation-injector", "iconUrl": null, "installs": 2, "name": "Citation Injector", "ownerName": "willoscar", "score": 95348.83720930234, "slug": "citation-injector", "source": "clawhub", "stars": 0, "tags": null, "updated_at": 1776697484176, "version": "1.0.0"}, {"category": "", "created_at": 1774867304808, "description": "Guide users to VideoAny AI Video Dubbing tool to dub video or audio into a target language.", "description_zh": "", "downloads": 41, "homepage": "https://clawhub.ai/gaoq1/video-dubbing-videoany", "iconUrl": null, "installs": 2, "name": "Video Dubbing", "ownerName": "gaoq1", "score": 95348.83720930234, "slug": "video-dubbing-videoany", "source": "clawhub", "stars": 0, "tags": null, "updated_at": 1776697484124, "version": "1.0.0"}, {"category": "", "created_at": 1774869226328, "description": "Reference tool for devtools — covers intro, quickstart, patterns and more. Quick lookup for Serverless Runner concepts, best practices, and implementation pa...", "description_zh": "", "downloads": 41, "homepage": "https://clawhub.ai/bytesagain3/serverless-runner", "iconUrl": null, "installs": 0, "name": "Serverless Runner", "ownerName": "bytesagain3", "score": 95348.83720930234, "slug": "serverless-runner", "source": "clawhub", "stars": 0, "tags": null, "updated_at": 1776697484084, "version": "2.0.1"}, {"category": "", "created_at": 1774897807468, "description": "Use when working with context management context save", "description_zh": "", "downloads": 41, "homepage": "https://clawhub.ai/watermelon11/context-management-context-save", "iconUrl": null, "installs": 8, "name": "Context Management Context Save", "ownerName": "watermelon11", "score": 95348.83720930234, "slug": "context-management-context-save", "source": "clawhub", "stars": 0, "tags": null, "updated_at": 1776697484078, "version": "1.0.0"}, {"category": "", "created_at": 1774849569991, "description": "Careermax (careermax.ai) gives you all the tools you need to land your next job. Use when the user wants to track job applications, review their resume, writ...", "description_zh": "", "downloads": 41, "homepage": "https://clawhub.ai/rahulphenomenon/careermax", "iconUrl": null, "installs": 0, "name": "Careermax", "ownerName": "rahulphenomenon", "score": 95348.83720930234, "slug": "careermax", "source": "clawhub", "stars": 0, "tags": null, "updated_at": 1776697484031, "version": "0.1.3"}, {"category": "", "created_at": 1774859856545, "description": "Discover and control Apple media/AirPlay devices (HomePod, Apple TV, AirPlay speakers) from macOS. Use when you want to scan for AirPlay devices, map names→I...", "description_zh": "", "downloads": 41, "homepage": "https://clawhub.ai/durtydhiana/apple-media-officialpm-0-1-1", "iconUrl": null, "installs": 6, "name": "Apple Media Officialpm 0.1.1", "ownerName": "durtydhiana", "score": 95348.83720930234, "slug": "apple-media-officialpm-0-1-1", "source": "clawhub", "stars": 0, "tags": null, "updated_at": 1776697483999, "version": "1.0.0"}, {"category": "", "created_at": 1774877165323, "description": "Provides correct pronunciation guides for complex drug generic names. Generates phonetic transcriptions using IPA and audio generation markers for medical te...", "description_zh": "", "downloads": 41, "homepage": "https://clawhub.ai/aipoch-ai/drug-pronunciation", "iconUrl": null, "installs": 5, "name": "Drug Pronunciation", "ownerName": "aipoch-ai", "score": 95348.83720930234, "slug": "drug-pronunciation", "source": "clawhub", "stars": 0, "tags": null, "updated_at": 1776697483971, "version": "0.1.0"}, {"category": "", "created_at": 1774869583191, "description": "Amazon product research and seller analytics for FBA and FBM businesses. Find winning products with 14 selection strategies, track competitors, monitor BSR t...", "description_zh": "", "downloads": 41, "homepage": "https://clawhub.ai/christine-srp/apiclaw-analysis", "iconUrl": null, "installs": 3, "name": "Amazon Product Research & Seller Analytics", "ownerName": "christine-srp", "score": 95348.83720930234, "slug": "apiclaw-analysis", "source": "clawhub", "stars": 0, "tags": null, "updated_at": 1776697483969, "version": "1.2.2"}, {"category": "", "created_at": 1774851554699, "description": "Record, search, and analyze your wine collection and tasting notes. Use when logging tastings, searching vintages, comparing ratings, or tracking inventory.", "description_zh": "", "downloads": 41, "homepage": "https://clawhub.ai/ckchzh/wine", "iconUrl": null, "installs": 2, "name": "Wine", "ownerName": "ckchzh", "score": 95348.83720930234, "slug": "wine", "source": "clawhub", "stars": 0, "tags": null, "updated_at": 1776697483964, "version": "2.0.1"}, {"category": "", "created_at": 1774822242277, "description": "Stop waiting for prompts. Keep working. - Automaton Edition", "description_zh": "", "downloads": 41, "homepage": "https://clawhub.ai/chenghaifeng08-creator/agent-autonomy-kit-automaton", "iconUrl": null, "installs": 1, "name": "Agent Autonomy Kit", "ownerName": "chenghaifeng08-creator", "score": 95348.83720930234, "slug": "agent-autonomy-kit-automaton", "source": "clawhub", "stars": 0, "tags": null, "updated_at": 1776697483917, "version": "1.0.2"}, {"category": "", "created_at": 1774859939126, "description": "Automatically send browser screenshots to users via message tool. Solves the common issue where browser screenshots are generated but not delivered to the co...", "description_zh": "", "downloads": 41, "homepage": "https://clawhub.ai/shenhuanjie/browser-screenshot-send", "iconUrl": null, "installs": 3, "name": "Browser Screenshot Send", "ownerName": "shenhuanjie", "score": 95348.83720930234, "slug": "browser-screenshot-send", "source": "clawhub", "stars": 0, "tags": null, "updated_at": 1776697483904, "version": "1.0.0"}, {"category": "", "created_at": 1774901819791, "description": "Auto-generated skill for bing-image-search-mcp tools via OneKey Gateway.", "description_zh": "", "downloads": 41, "homepage": "https://clawhub.ai/ai-hub-admin/bing-image-search-mcp", "iconUrl": null, "installs": 6, "name": "Bing Image Search Mcp", "ownerName": "ai-hub-admin", "score": 95348.83720930234, "slug": "bing-image-search-mcp", "source": "clawhub", "stars": 0, "tags": null, "updated_at": 1776697483894, "version": "0.1.0"}, {"category": "", "created_at": 1774821548236, "description": "Produce polished, production-ready daily news briefings, morning reports, market snapshots, executive digests, and founder updates with verified sourcing, cl...", "description_zh": "", "downloads": 41, "homepage": "https://clawhub.ai/fmouseboy/daily-news-briefing", "iconUrl": null, "installs": 0, "name": "daily news briefing", "ownerName": "fmouseboy", "score": 95348.83720930234, "slug": "daily-news-briefing", "source": "clawhub", "stars": 0, "tags": null, "updated_at": 1776697483819, "version": "1.0.0"}, {"category": "", "created_at": 1774912194025, "description": "Deep RAG workflow—document ingestion, chunking, metadata, retrieval and reranking, grounding and citations, evaluation, and failure modes (hallucination, sta...", "description_zh": "", "downloads": 41, "homepage": "https://clawhub.ai/codekungfu/rag-pipelines", "iconUrl": null, "installs": 1, "name": "Rag Pipelines", "ownerName": "codekungfu", "score": 95348.83720930234, "slug": "rag-pipelines", "source": "clawhub", "stars": 0, "tags": null, "updated_at": 1776697483708, "version": "1.0.0"}, {"category": "developer-tools", "created_at": 1773079467364, "description": "Operations suite for ERPClaw. Manufacturing (BOMs, work orders, MRP), projects (tasks, milestones, timesheets), fixed assets (depreciation, disposal), qualit...", "description_zh": "", "downloads": 41, "homepage": "https://clawhub.ai/mailnike/erpclaw-ops", "iconUrl": null, "installs": 8, "name": "Erpclaw Ops", "ownerName": "mailnike", "score": 91111.11111111111, "slug": "erpclaw-ops", "source": "clawhub", "stars": 0, "tags": null, "updated_at": 1776697483693, "version": "2.1.0"}, {"category": "security-compliance", "created_at": 1772801717250, "description": "UK regional compliance — VAT (standard/reduced/zero/flat rate), PAYE, NI, student loan, pension (NEST), RTI (FPS/EPS/P60/P45), CIS, FRS 102 CoA, and ID valid...", "description_zh": "", "downloads": 41, "homepage": "https://clawhub.ai/skipzhang/erpclaw-region-uk", "iconUrl": null, "installs": 2, "name": "ERPClaw-Region-UK", "ownerName": "skipzhang", "score": 91111.11111111111, "slug": "erpclaw-region-uk", "source": "clawhub", "stars": 0, "tags": null, "updated_at": 1776697483691, "version": "1.0.0"}, {"category": "", "created_at": 1774787266789, "description": "Audit an ecommerce landing page to identify the biggest conversion blockers across message clarity, proof, offer structure, friction, and CTA flow. Use when...", "description_zh": "", "downloads": 41, "homepage": "https://clawhub.ai/leooooooow/ecommerce-landing-page-conversion-audit", "iconUrl": null, "installs": 1, "name": "Ecommerce Landing Page Conversion Audit", "ownerName": "leooooooow", "score": 91111.11111111111, "slug": "ecommerce-landing-page-conversion-audit", "source": "clawhub", "stars": 0, "tags": null, "updated_at": 1776697483667, "version": "1.0.1"}, {"category": "", "created_at": 1774888484604, "description": "Audit a target SKILL.md against the Agent Skills specification and generate a Chinese HTML report. Use when the user asks to check, audit, review, or optimiz...", "description_zh": "", "downloads": 41, "homepage": "https://clawhub.ai/oahc09/skill-checker", "iconUrl": null, "installs": 0, "name": "Skill Checker", "ownerName": "oahc09", "score": 91111.11111111111, "slug": "skill-checker", "source": "clawhub", "stars": 0, "tags": null, "updated_at": 1776697483660, "version": "1.0.1"}, {"category": "", "created_at": 1774908537973, "description": "Learn French interactively — daily lessons, travel phrases, grammar drills, roleplay conversations, and pronunciation tips. A1 beginner to B2+ advanced. Type...", "description_zh": "", "downloads": 40, "homepage": "https://clawhub.ai/sharoonsharif/french-tutor", "iconUrl": null, "installs": 2, "name": "French Tutor — A1 to B2+", "ownerName": "sharoonsharif", "score": 542.814493146967, "slug": "french-tutor", "source": "clawhub", "stars": 0, "tags": null, "updated_at": 1776767350186, "version": "2.1.0"}, {"category": "", "created_at": 1774843219202, "description": "Convert any text input (research reports, summaries, proposals, plans, etc.) into a beautiful HTML-based presentation. Use when the user asks to create a PPT...", "description_zh": "", "downloads": 40, "homepage": "https://clawhub.ai/rendylong/text-to-ppt", "iconUrl": null, "installs": 4, "name": "Text to PPT", "ownerName": "rendylong", "score": 490.97827421136617, "slug": "text-to-ppt", "source": "clawhub", "stars": 0, "tags": null, "updated_at": 1776766450223, "version": "1.0.0"}, {"category": "", "created_at": 1774919384500, "description": "AIG Scanner — AI security scanning for infrastructure, AI tools / skills, AI Agents, and LLM jailbreak evaluation via Tencent Zhuque Lab AI-Infra-Guard. Uses...", "description_zh": "", "downloads": 40, "homepage": "https://clawhub.ai/aigsec/aig-scanner", "iconUrl": null, "installs": 4, "name": "AIG Scanner", "ownerName": "aigsec", "score": 1124.2270938729623, "slug": "aig-scanner", "source": "clawhub", "stars": 0, "tags": null, "updated_at": 1776762590400, "version": "1.0.1"}, {"category": "", "created_at": 1774922074456, "description": "Deep Terraform/IaC workflow—module boundaries, state, workspaces, plan/apply safety, drift, secrets, CI integration, and team governance. Use when building i...", "description_zh": "", "downloads": 40, "homepage": "https://clawhub.ai/clawkk/terraform-iac", "iconUrl": null, "installs": 0, "name": "Terraform Iac", "ownerName": "clawkk", "score": 526.1081152176772, "slug": "terraform-iac", "source": "clawhub", "stars": 0, "tags": null, "updated_at": 1776762315071, "version": "1.0.0"}, {"category": "", "created_at": 1774951805762, "description": "Work with Obsidian vaults (plain Markdown notes) and automate via obsidian-cli.", "description_zh": "", "downloads": 40, "homepage": "https://clawhub.ai/aceundefeated/aj-obsidian", "iconUrl": null, "installs": 7, "name": "Aj Obsidian", "ownerName": "aceundefeated", "score": 6825.938566552902, "slug": "aj-obsidian", "source": "clawhub", "stars": 0, "tags": null, "updated_at": 1776759083445, "version": "1.0.0"}, {"category": "", "created_at": 1774948154723, "description": "Plan Amazon product photography for maximum conversion. Shot lists, lighting setups, infographic briefs, lifestyle scene planning, and image optimization fol...", "description_zh": "", "downloads": 40, "homepage": "https://clawhub.ai/nexscope/amazon-product-photography-skill", "iconUrl": null, "installs": 6, "name": "Amazon Product Photography", "ownerName": "nexscope", "score": 2616.0889470241987, "slug": "amazon-product-photography-skill", "source": "clawhub", "stars": 0, "tags": null, "updated_at": 1776757733136, "version": "1.0.0"}, {"category": "", "created_at": 1774900034203, "description": "Generate professional pitch deck outlines using the $1B pitch formula based on startup data and company information.", "description_zh": "", "downloads": 40, "homepage": "https://clawhub.ai/krishnakumarmahadevan-cmd/pitch-deck-generator", "iconUrl": null, "installs": 5, "name": "Pitch Deck Generator", "ownerName": "krishnakumarmahadevan-cmd", "score": 2447.980416156671, "slug": "pitch-deck-generator", "source": "clawhub", "stars": 0, "tags": null, "updated_at": 1776756982799, "version": "1.0.0"}, {"category": "", "created_at": 1774857881770, "description": "Help users prepare for doctor appointments by organizing symptoms, questions, medication lists, and medical history. Use when users have an upcoming medical...", "description_zh": "", "downloads": 40, "homepage": "https://clawhub.ai/jiwenbing/doctor-prep", "iconUrl": null, "installs": 3, "name": "Doctor Prep", "ownerName": "jiwenbing", "score": 6932.409012131716, "slug": "doctor-prep", "source": "clawhub", "stars": 0, "tags": null, "updated_at": 1776755288339, "version": "1.0.0"}, {"category": "", "created_at": 1774953345765, "description": "When the user wants to create TikTok video captions, scripts, or optimize for TikTok. Also use when the user mentions \"TikTok post,\" \"TikTok caption,\" \"TikTo...", "description_zh": "", "downloads": 40, "homepage": "https://clawhub.ai/kostja94/tiktok-captions", "iconUrl": null, "installs": 8, "name": "tiktok-captions", "ownerName": "kostja94", "score": 2473.7167594310454, "slug": "tiktok-captions", "source": "clawhub", "stars": 0, "tags": null, "updated_at": 1776746569939, "version": "1.0.0"}, {"category": "", "created_at": 1774865370412, "description": "Reference tool for devtools — covers intro, quickstart, patterns and more. Quick lookup for SSL Cert Manager concepts, best practices, and implementation pat...", "description_zh": "", "downloads": 40, "homepage": "https://clawhub.ai/bytesagain1/ssl-cert-manager", "iconUrl": null, "installs": 1, "name": "Ssl Cert Manager", "ownerName": "bytesagain1", "score": 43010.75268817204, "slug": "ssl-cert-manager", "source": "clawhub", "stars": 0, "tags": null, "updated_at": 1776745483766, "version": "2.0.1"}, {"category": "", "created_at": 1774881755000, "description": "Network forensics evidence collection and analysis during security incidents. Guides volatile evidence preservation, lateral movement detection via flow reco...", "description_zh": "", "downloads": 40, "homepage": "https://clawhub.ai/vahagn-madatyan/incident-response-network", "iconUrl": null, "installs": 1, "name": "Incident Response Network", "ownerName": "vahagn-madatyan", "score": 38095.23809523809, "slug": "incident-response-network", "source": "clawhub", "stars": 0, "tags": null, "updated_at": 1776745369656, "version": "1.0.0"}, {"category": "developer-tools", "created_at": 1773073134930, "description": "Create studio-quality professional headshots using AI. Perfect for LinkedIn, resumes, and business profiles. No photographer needed. No API keys needed. $2 F...", "description_zh": "", "downloads": 40, "homepage": "https://clawhub.ai/xiaoyinqu/ai-headshot", "iconUrl": null, "installs": 9, "name": "Ai Headshot", "ownerName": "xiaoyinqu", "score": 41666.66666666667, "slug": "ai-headshot", "source": "clawhub", "stars": 0, "tags": null, "updated_at": 1776744469598, "version": "1.0.2"}, {"category": "", "created_at": 1774885138266, "description": "Local-first privacy gateway for LLM applications. Use when the user needs to process sensitive, private, or proprietary information (PII, health records, int...", "description_zh": "", "downloads": 40, "homepage": "https://clawhub.ai/sulgik/zipsa", "iconUrl": null, "installs": 4, "name": "Zipsa", "ownerName": "sulgik", "score": 42105.26315789473, "slug": "zipsa", "source": "clawhub", "stars": 0, "tags": null, "updated_at": 1776741344483, "version": "0.1.0"}, {"category": "", "created_at": 1774882328654, "description": "Handle TikTok Live sales objections in real time with structured reply strategies, risk-safe phrasing, and conversion-focused response sequences. Use when th...", "description_zh": "", "downloads": 40, "homepage": "https://clawhub.ai/leooooooow/tiktok-live-reply-scripts", "iconUrl": null, "installs": 9, "name": "Tiktok Live Reply Scripts", "ownerName": "leooooooow", "score": 43010.75268817204, "slug": "tiktok-live-reply-scripts", "source": "clawhub", "stars": 0, "tags": null, "updated_at": 1776738285056, "version": "1.0.0"}, {"category": "", "created_at": 1774924263955, "description": "Use when creating journal cover images, generating scientific artwork prompts, or designing graphical abstracts. Creates detailed prompts for AI image genera...", "description_zh": "", "downloads": 40, "homepage": "https://clawhub.ai/aipoch-ai/journal-cover-prompter", "iconUrl": null, "installs": 4, "name": "Journal Cover Prompter", "ownerName": "aipoch-ai", "score": 42105.26315789473, "slug": "journal-cover-prompter", "source": "clawhub", "stars": 0, "tags": null, "updated_at": 1776734744368, "version": "1.0.0"}, {"category": "", "created_at": 1774855887418, "description": "Reference tool for devtools — covers intro, quickstart, patterns and more. Quick lookup for Deployer concepts, best practices, and implementation patterns.", "description_zh": "", "downloads": 40, "homepage": "https://clawhub.ai/xueyetianya/deployer", "iconUrl": null, "installs": 1, "name": "Deployer", "ownerName": "xueyetianya", "score": 33898.30508474576, "slug": "deployer", "source": "clawhub", "stars": 0, "tags": null, "updated_at": 1776713983749, "version": "2.0.3"}, {"category": "", "created_at": 1774881822607, "description": "Calculate ledger financial metrics and business data. Use when tracking expenses, analyzing investments, or generating financial reports.", "description_zh": "", "downloads": 40, "homepage": "https://clawhub.ai/bytesagain3/ledger", "iconUrl": null, "installs": 2, "name": "Ledger", "ownerName": "bytesagain3", "score": 33898.30508474576, "slug": "ledger", "source": "clawhub", "stars": 0, "tags": null, "updated_at": 1776711769659, "version": "1.0.0"}, {"category": "", "created_at": 1774956756910, "description": "Fetch and export WeChat public article content through down.mptext.top API. Use when testing this API, downloading a WeChat article, validating html/markdown...", "description_zh": "", "downloads": 40, "homepage": "https://clawhub.ai/lniosy/wechat-article-download-api", "iconUrl": null, "installs": 4, "name": "WeChat Article Download API", "ownerName": "lniosy", "score": 86956.52173913043, "slug": "wechat-article-download-api", "source": "clawhub", "stars": 0, "tags": ["article", "content", "download", "openclaw", "wechat"], "updated_at": 1776697504769, "version": "1.0.0"}, {"category": "", "created_at": 1774882467392, "description": "Analyze videos to extract reverse prompts, shot-by-shot breakdowns, and AI-ready visual descriptions via the NanoPhoto.AI Video Reverse Prompt API. Use when:...", "description_zh": "", "downloads": 40, "homepage": "https://clawhub.ai/nanophotohq/video-reverse-prompt", "iconUrl": null, "installs": 2, "name": "Video Reverse Prompt", "ownerName": "nanophotohq", "score": 100000, "slug": "video-reverse-prompt", "source": "clawhub", "stars": 0, "tags": ["analysis", "nanophoto", "prompt", "sora", "video"], "updated_at": 1776697504754, "version": "1.0.2"}, {"category": "", "created_at": 1774862773776, "description": "Fully autonomous 24/7 Aster DEX perpetual futures trading agent. Manages the complete lifecycle — onboarding, live execution, bracket orders, trailing stop m...", "description_zh": "", "downloads": 40, "homepage": "https://clawhub.ai/sharksdotmoney/moneysharks", "iconUrl": null, "installs": 2, "name": "MoneySharks", "ownerName": "sharksdotmoney", "score": 100000, "slug": "moneysharks", "source": "clawhub", "stars": 0, "tags": null, "updated_at": 1776697504749, "version": "1.0.2"}, {"category": "", "created_at": 1774849857904, "description": "Automatically identify diagram code blocks (Mermaid/Graphviz/PlantUML) in Markdown documents, render them as images, and replace them.", "description_zh": "", "downloads": 40, "homepage": "https://clawhub.ai/fireium/markdown-diagram-renderer", "iconUrl": null, "installs": 3, "name": "Markdown Diagram Renderer", "ownerName": "fireium", "score": 100000, "slug": "markdown-diagram-renderer", "source": "clawhub", "stars": 0, "tags": null, "updated_at": 1776697504743, "version": "1.0.3"}, {"category": "", "created_at": 1774952310902, "description": "Mattermost integration. Manage Teams. Use when the user wants to interact with Mattermost data.", "description_zh": "", "downloads": 40, "homepage": "https://clawhub.ai/gora050/mattermost", "iconUrl": null, "installs": 1, "name": "Mattermost", "ownerName": "gora050", "score": 100000, "slug": "mattermost", "source": "clawhub", "stars": 0, "tags": null, "updated_at": 1776697504741, "version": "1.0.0"}, {"category": "", "created_at": 1774944147947, "description": "SaaS metrics calculator and dashboard builder for subscription businesses. Compute MRR, ARR, churn rate, NRR/GRR, LTV, CAC, CAC payback period, magic number,...", "description_zh": "", "downloads": 40, "homepage": "https://clawhub.ai/samledger67-dotcom/saas-metrics-dashboard", "iconUrl": null, "installs": 3, "name": "SaaS Metrics Dashboard", "ownerName": "samledger67-dotcom", "score": 100000, "slug": "saas-metrics-dashboard", "source": "clawhub", "stars": 0, "tags": null, "updated_at": 1776697504730, "version": "1.0.0"}, {"category": "communication-collaboration", "created_at": 1773061552012, "description": "USE THIS to send email, send message, email automation. Send transactional emails (welcome, password reset, notifications), marketing emails, newsletters. AW...", "description_zh": "", "downloads": 40, "homepage": "https://clawhub.ai/xiaoyinqu/send-email-api", "iconUrl": null, "installs": 6, "name": "Send Email API", "ownerName": "xiaoyinqu", "score": 100000, "slug": "send-email-api", "source": "clawhub", "stars": 0, "tags": null, "updated_at": 1776697504729, "version": "1.0.0"}]}