{"page": 451, "total_pages": 522, "total": 26073, "skills": [{"category": "", "created_at": 1774867528123, "description": "When the user wants to write, generate, or create article content—blog post body, long-form content, how-to guide, listicle. Also use when the user mentions...", "description_zh": "", "downloads": 40, "homepage": "https://clawhub.ai/kostja94/article-content", "iconUrl": null, "installs": 2, "name": "article-content", "ownerName": "kostja94", "score": 100000, "slug": "article-content", "source": "clawhub", "stars": 0, "tags": null, "updated_at": 1776697504710, "version": "1.0.0"}, {"category": "", "created_at": 1774913322403, "description": "Test-Driven Development workflow principles. RED-GREEN-REFACTOR cycle.", "description_zh": "", "downloads": 40, "homepage": "https://clawhub.ai/soponcd/timeflow-tdd-workflow", "iconUrl": null, "installs": 5, "name": "Tdd Workflow", "ownerName": "soponcd", "score": 100000, "slug": "timeflow-tdd-workflow", "source": "clawhub", "stars": 0, "tags": null, "updated_at": 1776697504707, "version": "1.0.0"}, {"category": "", "created_at": 1774881842390, "description": "Looker integration. Manage data, records, and automate workflows. Use when the user wants to interact with Looker data.", "description_zh": "", "downloads": 40, "homepage": "https://clawhub.ai/gora050/looker", "iconUrl": null, "installs": 0, "name": "Looker", "ownerName": "gora050", "score": 100000, "slug": "looker", "source": "clawhub", "stars": 0, "tags": null, "updated_at": 1776697504692, "version": "1.0.0"}, {"category": "developer-tools", "created_at": 1772792598239, "description": "Real-time X/Twitter data via x402 micropayments. Look up users, fetch tweets, search the full archive — pay per request in USDC on Base. No API keys required.", "description_zh": "", "downloads": 40, "homepage": "https://clawhub.ai/etherlect/twit-mcp", "iconUrl": null, "installs": 5, "name": "twit-mcp", "ownerName": "etherlect", "score": 100000, "slug": "twit-mcp", "source": "clawhub", "stars": 0, "tags": ["mcp", "twitter", "usdc", "x402"], "updated_at": 1776697504690, "version": "1.0.1"}, {"category": "", "created_at": 1774854157845, "description": "Plan weddings with budget guardrails, guest-list scenarios, vendor scorecards, payment tracking, and deadline-driven coordination.", "description_zh": "", "downloads": 40, "homepage": "https://clawhub.ai/ivangdavila/wedding-planner", "iconUrl": null, "installs": 2, "name": "Wedding Planner", "ownerName": "ivangdavila", "score": 100000, "slug": "wedding-planner", "source": "clawhub", "stars": 0, "tags": null, "updated_at": 1776697504679, "version": "1.0.0"}, {"category": "", "created_at": 1774921871534, "description": "Proxy Spider integration. Manage Organizations. Use when the user wants to interact with Proxy Spider data.", "description_zh": "", "downloads": 40, "homepage": "https://clawhub.ai/gora050/proxy-spider", "iconUrl": null, "installs": 1, "name": "Proxy Spider", "ownerName": "gora050", "score": 100000, "slug": "proxy-spider", "source": "clawhub", "stars": 0, "tags": null, "updated_at": 1776697504675, "version": "1.0.0"}, {"category": "developer-tools", "created_at": 1773073135811, "description": "Best reasoning models for math. DeepSeek R1, o3-mini, Claude. Step-by-step solutions. No API keys needed. $2 FREE credits to start. Pay-as-you-go via SkillBoss.", "description_zh": "", "downloads": 40, "homepage": "https://clawhub.ai/xiaoyinqu/best-for-math", "iconUrl": null, "installs": 7, "name": "Best For Math", "ownerName": "xiaoyinqu", "score": 100000, "slug": "best-for-math", "source": "clawhub", "stars": 0, "tags": null, "updated_at": 1776697504664, "version": "1.0.2"}, {"category": "", "created_at": 1774836347128, "description": "Search Ticketmaster events, venues, and attractions with Discovery API filters, market-aware queries, and copy-ready curl and shell helpers.", "description_zh": "", "downloads": 40, "homepage": "https://clawhub.ai/ivangdavila/ticketmaster", "iconUrl": null, "installs": 2, "name": "TicketMaster", "ownerName": "ivangdavila", "score": 100000, "slug": "ticketmaster", "source": "clawhub", "stars": 0, "tags": null, "updated_at": 1776697504660, "version": "1.0.0"}, {"category": "", "created_at": 1774915543255, "description": "The ultimate love texting assistant. Generate romantic messages, flirty good morning texts, sweet goodnight messages, anniversary wishes, love letters, and h...", "description_zh": "", "downloads": 40, "homepage": "https://clawhub.ai/imwyvern/love-text", "iconUrl": null, "installs": 2, "name": "Love Text Skill", "ownerName": "imwyvern", "score": 93023.25581395348, "slug": "love-text", "source": "clawhub", "stars": 0, "tags": null, "updated_at": 1776697484562, "version": "1.0.0"}, {"category": "", "created_at": 1774893109438, "description": "Implements stateful agent graphs using LangGraph. Use when building graphs, adding nodes/edges, defining state schemas, implementing checkpointing, handling...", "description_zh": "", "downloads": 40, "homepage": "https://clawhub.ai/anderskev/langgraph-implementation", "iconUrl": null, "installs": 3, "name": "Langgraph Implementation", "ownerName": "anderskev", "score": 93023.25581395348, "slug": "langgraph-implementation", "source": "clawhub", "stars": 0, "tags": null, "updated_at": 1776697484557, "version": "1.0.0"}, {"category": "", "created_at": 1774899658589, "description": "Firebase Admin SDK integration. Manage data, records, and automate workflows. Use when the user wants to interact with Firebase Admin SDK data.", "description_zh": "", "downloads": 40, "homepage": "https://clawhub.ai/gora050/firebase-admin-sdk", "iconUrl": null, "installs": 1, "name": "Firebase Admin Sdk", "ownerName": "gora050", "score": 93023.25581395348, "slug": "firebase-admin-sdk", "source": "clawhub", "stars": 0, "tags": null, "updated_at": 1776697484516, "version": "1.0.0"}, {"category": "", "created_at": 1774878583107, "description": "Search FDA industry guidelines by therapeutic area or topic. Trigger when user requests FDA guidance documents, regulatory guidelines, or asks about FDA requ...", "description_zh": "", "downloads": 40, "homepage": "https://clawhub.ai/aipoch-ai/fda-guideline-search", "iconUrl": null, "installs": 3, "name": "Fda Guideline Search", "ownerName": "aipoch-ai", "score": 93023.25581395348, "slug": "fda-guideline-search", "source": "clawhub", "stars": 0, "tags": null, "updated_at": 1776697484512, "version": "0.1.0"}, {"category": "", "created_at": 1774847182772, "description": "Design dashboard layout sketches for clinical trials showing enrollment progress and adverse event rates", "description_zh": "", "downloads": 40, "homepage": "https://clawhub.ai/aipoch-ai/dashboard-design-for-trials", "iconUrl": null, "installs": 2, "name": "Dashboard Design For Trials", "ownerName": "aipoch-ai", "score": 93023.25581395348, "slug": "dashboard-design-for-trials", "source": "clawhub", "stars": 0, "tags": null, "updated_at": 1776697484476, "version": "0.1.0"}, {"category": "security-compliance", "created_at": 1773961145630, "description": "Cognitive diagnostics for AI agents. Calibration audits, bias detection, reasoning verification, and consensus building. Feedback builds shared reality acros...", "description_zh": "", "downloads": 40, "homepage": "https://clawhub.ai/drkavner/cogdx", "iconUrl": null, "installs": 1, "name": "Cogdx", "ownerName": "drkavner", "score": 93023.25581395348, "slug": "cogdx", "source": "clawhub", "stars": 0, "tags": null, "updated_at": 1776697484463, "version": "1.1.0"}, {"category": "", "created_at": 1774866917782, "description": "Kanban Tool integration. Manage Boards, Users, Projects. Use when the user wants to interact with Kanban Tool data.", "description_zh": "", "downloads": 40, "homepage": "https://clawhub.ai/gora050/kanban-tool", "iconUrl": null, "installs": 6, "name": "Kanban Tool", "ownerName": "gora050", "score": 93023.25581395348, "slug": "kanban-tool", "source": "clawhub", "stars": 0, "tags": null, "updated_at": 1776697484436, "version": "1.0.0"}, {"category": "", "created_at": 1774922501085, "description": "Crawlbase integration. Manage data, records, and automate workflows. Use when the user wants to interact with Crawlbase data.", "description_zh": "", "downloads": 40, "homepage": "https://clawhub.ai/gora050/crawlbase", "iconUrl": null, "installs": 1, "name": "Crawlbase", "ownerName": "gora050", "score": 93023.25581395348, "slug": "crawlbase", "source": "clawhub", "stars": 0, "tags": null, "updated_at": 1776697484411, "version": "1.0.0"}, {"category": "", "created_at": 1774945151194, "description": "Generate random test data including text, numbers, UUIDs, and structured formats. Use when creating mock datasets, sample records, or randomized test inputs.", "description_zh": "", "downloads": 40, "homepage": "https://clawhub.ai/bytesagain3/generate", "iconUrl": null, "installs": 0, "name": "Generate", "ownerName": "bytesagain3", "score": 93023.25581395348, "slug": "generate", "source": "clawhub", "stars": 0, "tags": null, "updated_at": 1776697484388, "version": "1.0.0"}, {"category": "", "created_at": 1774943949656, "description": "Spawn and coordinate sub-agent sessions for parallel work. Use when delegating tasks (research, code, analysis), routing to appropriate models, or managing m...", "description_zh": "", "downloads": 40, "homepage": "https://clawhub.ai/bill492/sub-agents", "iconUrl": null, "installs": 2, "name": "sub-agents", "ownerName": "bill492", "score": 93023.25581395348, "slug": "sub-agents", "source": "clawhub", "stars": 0, "tags": null, "updated_at": 1776697484348, "version": "1.0.0"}, {"category": "", "created_at": 1774882969893, "description": "Docker and container development agent skill and plugin for Dockerfile optimization, docker-compose orchestration, multi-stage builds, and container security...", "description_zh": "", "downloads": 40, "homepage": "https://clawhub.ai/alirezarezvani/docker-development", "iconUrl": null, "installs": 3, "name": "Docker Development", "ownerName": "alirezarezvani", "score": 93023.25581395348, "slug": "docker-development", "source": "clawhub", "stars": 0, "tags": null, "updated_at": 1776697484336, "version": "2.1.1"}, {"category": "", "created_at": 1772799082485, "description": "Quality inspection, non-conformance tracking, and quality goals for ERPClaw", "description_zh": "", "downloads": 40, "homepage": "https://clawhub.ai/skipzhang/erpclaw-quality", "iconUrl": null, "installs": 3, "name": "ERPClaw-Quality", "ownerName": "skipzhang", "score": 93023.25581395348, "slug": "erpclaw-quality", "source": "clawhub", "stars": 0, "tags": null, "updated_at": 1776697484287, "version": "1.0.0"}, {"category": "", "created_at": 1774883531051, "description": "Supervisory control and data acquisition manager", "description_zh": "", "downloads": 40, "homepage": "https://clawhub.ai/xueyetianya/scada", "iconUrl": null, "installs": 2, "name": "Scada", "ownerName": "xueyetianya", "score": 93023.25581395348, "slug": "scada", "source": "clawhub", "stars": 0, "tags": null, "updated_at": 1776697484284, "version": "1.0.0"}, {"category": "", "created_at": 1774944364851, "description": "Reference tool for devtools — covers intro, quickstart, patterns and more. Quick lookup for Funnlp concepts, best practices, and implementation patterns.", "description_zh": "", "downloads": 40, "homepage": "https://clawhub.ai/bytesagain1/funnlp", "iconUrl": null, "installs": 0, "name": "Funnlp", "ownerName": "bytesagain1", "score": 93023.25581395348, "slug": "funnlp", "source": "clawhub", "stars": 0, "tags": null, "updated_at": 1776697484233, "version": "2.0.3"}, {"category": "ai-intelligence", "created_at": 1773076206483, "description": "Reliable Nextcloud integration for Notes, Tasks, Calendar, Files, and Contacts (CardDAV-safe vCard handling with robust contact create/update).", "description_zh": "", "downloads": 40, "homepage": "https://clawhub.ai/juicyroots/nextcloud-aio-oc", "iconUrl": null, "installs": 5, "name": "NextCloud AIO OpenClaw", "ownerName": "juicyroots", "score": 93023.25581395348, "slug": "nextcloud-aio-oc", "source": "clawhub", "stars": 0, "tags": null, "updated_at": 1776697484214, "version": "1.1.1"}, {"category": "", "created_at": 1774837392461, "description": "List all agents", "description_zh": "", "downloads": 40, "homepage": "https://clawhub.ai/yujin1liu/agent-search", "iconUrl": null, "installs": 4, "name": "agent-search", "ownerName": "yujin1liu", "score": 93023.25581395348, "slug": "agent-search", "source": "clawhub", "stars": 0, "tags": null, "updated_at": 1776697484170, "version": "1.0.1"}, {"category": "productivity", "created_at": 1773069443962, "description": "Dental expansion for HealthClaw -- tooth charts, CDT-coded procedures, multi-phase treatment plans, and periodontal charting with trend comparison.", "description_zh": "", "downloads": 40, "homepage": "https://clawhub.ai/mailnike/healthclaw-dental", "iconUrl": null, "installs": 5, "name": "Healthclaw Dental", "ownerName": "mailnike", "score": 93023.25581395348, "slug": "healthclaw-dental", "source": "clawhub", "stars": 0, "tags": null, "updated_at": 1776697484169, "version": "2.1.0"}, {"category": "", "created_at": 1774923010317, "description": "Originality.ai integration. Manage Documents, Users, Workspaces. Use when the user wants to interact with Originality.ai data.", "description_zh": "", "downloads": 40, "homepage": "https://clawhub.ai/gora050/originalityai", "iconUrl": null, "installs": 6, "name": "Originalityai", "ownerName": "gora050", "score": 93023.25581395348, "slug": "originalityai", "source": "clawhub", "stars": 0, "tags": null, "updated_at": 1776697484164, "version": "1.0.0"}, {"category": "security-compliance", "created_at": 1772795031032, "description": "Canada regional compliance — GST/HST/PST/QST, CPP/CPP2/QPP/EI, federal+provincial income tax, T4/T4A/ROE/PD7A, Canadian CoA (ASPE), and ID validation (BN/SIN...", "description_zh": "", "downloads": 40, "homepage": "https://clawhub.ai/skipzhang/erpclaw-region-ca", "iconUrl": null, "installs": 4, "name": "ERPClaw-Region-Canada", "ownerName": "skipzhang", "score": 93023.25581395348, "slug": "erpclaw-region-ca", "source": "clawhub", "stars": 0, "tags": null, "updated_at": 1776697484162, "version": "1.0.0"}, {"category": "", "created_at": 1774823333859, "description": "Full Spotify Premium control + deep music intelligence for OpenClaw. Playback: play by name/URI/playlist, pause, next, prev, volume, shuffle, queue. Auto-lau...", "description_zh": "", "downloads": 40, "homepage": "https://clawhub.ai/mixx85/spotify-openclaw", "iconUrl": null, "installs": 1, "name": "Spotify Openclaw", "ownerName": "mixx85", "score": 93023.25581395348, "slug": "spotify-openclaw", "source": "clawhub", "stars": 0, "tags": null, "updated_at": 1776697484096, "version": "1.0.0"}, {"category": "", "created_at": 1774897791929, "description": "Adapt content for multiple platforms (social media, short videos, press releases) and A/B test copy", "description_zh": "", "downloads": 40, "homepage": "https://clawhub.ai/findhappy7/content-adaptation", "iconUrl": null, "installs": 1, "name": "Content Adaptation", "ownerName": "findhappy7", "score": 93023.25581395348, "slug": "content-adaptation", "source": "clawhub", "stars": 0, "tags": null, "updated_at": 1776697484086, "version": "1.0.0"}, {"category": "", "created_at": 1774925479412, "description": "Parse and generate RFC 4180 compliant CSV that works across tools.", "description_zh": "", "downloads": 40, "homepage": "https://clawhub.ai/panchenbo/csv-parser-local", "iconUrl": null, "installs": 1, "name": "Csv Parser Local", "ownerName": "panchenbo", "score": 93023.25581395348, "slug": "csv-parser-local", "source": "clawhub", "stars": 0, "tags": null, "updated_at": 1776697484022, "version": "1.0.0"}, {"category": "", "created_at": 1774845049702, "description": "Reference tool for devtools — covers intro, quickstart, patterns and more. Quick lookup for Compose concepts, best practices, and implementation patterns.", "description_zh": "", "downloads": 40, "homepage": "https://clawhub.ai/ckchzh/compose", "iconUrl": null, "installs": 3, "name": "Compose", "ownerName": "ckchzh", "score": 93023.25581395348, "slug": "compose", "source": "clawhub", "stars": 0, "tags": null, "updated_at": 1776697484002, "version": "2.0.4"}, {"category": "", "created_at": 1774875718217, "description": "File organization and batch operations for workspace management. Use when organizing files for: (1) Moving files to correct directories, (2) Batch renaming (...", "description_zh": "", "downloads": 40, "homepage": "https://clawhub.ai/dougchambes/legend-file-organizer", "iconUrl": null, "installs": 0, "name": "File Organizer", "ownerName": "dougchambes", "score": 93023.25581395348, "slug": "legend-file-organizer", "source": "clawhub", "stars": 0, "tags": null, "updated_at": 1776697483881, "version": "1.0.0"}, {"category": "", "created_at": 1774887635785, "description": "Audit OpenClaw scheduler token usage for cron jobs, scheduled tasks, and heartbeat sessions. Use when the user wants to know which scheduled job is expensive...", "description_zh": "", "downloads": 40, "homepage": "https://clawhub.ai/yueeli/openclaw-scheduler-token-auditor", "iconUrl": null, "installs": 4, "name": "OpenClaw Scheduler Token Auditor", "ownerName": "yueeli", "score": 93023.25581395348, "slug": "openclaw-scheduler-token-auditor", "source": "clawhub", "stars": 0, "tags": ["audit", "openclaw"], "updated_at": 1776697483865, "version": "1.0.2"}, {"category": "", "created_at": 1774949283694, "description": "Audit and optimize e-commerce landing pages for conversion. CTA placement, trust signals, page structure, copy optimization, and A/B testing strategy for pro...", "description_zh": "", "downloads": 40, "homepage": "https://clawhub.ai/nexscope/ecommerce-landing-page", "iconUrl": null, "installs": 1, "name": "E-Commerce Landing Page", "ownerName": "nexscope", "score": 93023.25581395348, "slug": "ecommerce-landing-page", "source": "clawhub", "stars": 0, "tags": null, "updated_at": 1776697483859, "version": "1.0.0"}, {"category": "", "created_at": 1774857183380, "description": "poem reference tool", "description_zh": "", "downloads": 40, "homepage": "https://clawhub.ai/xueyetianya/poem", "iconUrl": null, "installs": 2, "name": "Poem", "ownerName": "xueyetianya", "score": 93023.25581395348, "slug": "poem", "source": "clawhub", "stars": 0, "tags": null, "updated_at": 1776697483832, "version": "2.0.2"}, {"category": "content-creation", "created_at": 1773083961242, "description": "Continue/extend existing 5-second video by generating next segment. Use when users request video_continuation operations or related tasks.", "description_zh": "", "downloads": 40, "homepage": "https://clawhub.ai/root/tomoviee-video-extension", "iconUrl": null, "installs": 12, "name": "Tomoviee Video Extension", "ownerName": "root", "score": 93023.25581395348, "slug": "tomoviee-video-extension", "source": "clawhub", "stars": 0, "tags": null, "updated_at": 1776697483777, "version": "1.0.1"}, {"category": "", "created_at": 1774915260866, "description": "Emailoctopus integration. Manage Lists, Campaigns, Templates. Use when the user wants to interact with Emailoctopus data.", "description_zh": "", "downloads": 40, "homepage": "https://clawhub.ai/gora050/emailoctopus", "iconUrl": null, "installs": 5, "name": "Emailoctopus", "ownerName": "gora050", "score": 88888.88888888889, "slug": "emailoctopus", "source": "clawhub", "stars": 0, "tags": null, "updated_at": 1776697483665, "version": "1.0.0"}, {"category": "", "created_at": 1774854328293, "description": "Google Workspace CLI. Use when the user mentions Gmail, Google Drive, Calendar, Sheets, Docs, Tasks, People, Slides, Forms, Meet, Classroom, sending email, c...", "description_zh": "", "downloads": 40, "homepage": "https://clawhub.ai/cyrushuang1995-cmyk/gws-google-workspace", "iconUrl": null, "installs": 4, "name": "Google Workspace CLI (GWS)", "ownerName": "cyrushuang1995-cmyk", "score": 88888.88888888889, "slug": "gws-google-workspace", "source": "clawhub", "stars": 0, "tags": null, "updated_at": 1776697483649, "version": "2.1.2"}, {"category": "", "created_at": 1774882945077, "description": "Your AI dating coach for building real, meaningful relationships. Get first date planning, texting strategy, and advice on when to make a move. Learn to hand...", "description_zh": "", "downloads": 40, "homepage": "https://clawhub.ai/imwyvern/dating-coach", "iconUrl": null, "installs": 0, "name": "Dating Coach Skill", "ownerName": "imwyvern", "score": 88888.88888888889, "slug": "dating-coach", "source": "clawhub", "stars": 0, "tags": null, "updated_at": 1776697483639, "version": "1.0.1"}, {"category": "", "created_at": 1774848214524, "description": "Your AI communication coach that helps you craft the perfect reply to any message. Whether you're texting a crush, responding to a difficult boss, or navigat...", "description_zh": "", "downloads": 39, "homepage": "https://clawhub.ai/imwyvern/replyher", "iconUrl": null, "installs": 4, "name": "Replyher Skill", "ownerName": "imwyvern", "score": 591.2674348089752, "slug": "replyher", "source": "clawhub", "stars": 0, "tags": null, "updated_at": 1776766790538, "version": "1.3.1"}, {"category": "", "created_at": 1774894486631, "description": "Reviews CloudKit code for container setup, record handling, subscriptions, and sharing patterns. Use when reviewing code with import CloudKit, CKContainer, C...", "description_zh": "", "downloads": 39, "homepage": "https://clawhub.ai/anderskev/cloudkit-code-review", "iconUrl": null, "installs": 3, "name": "Cloudkit Code Review", "ownerName": "anderskev", "score": 2727.272727272727, "slug": "cloudkit-code-review", "source": "clawhub", "stars": 0, "tags": null, "updated_at": 1776766456953, "version": "1.2.0"}, {"category": "", "created_at": 1774919623337, "description": "Guide users through a structured workflow for co-authoring documentation. Use when user wants to write documentation, proposals, technical specs, decision do...", "description_zh": "", "downloads": 39, "homepage": "https://clawhub.ai/codekungfu/coauthoring", "iconUrl": null, "installs": 3, "name": "Doc", "ownerName": "codekungfu", "score": 884.9557522123894, "slug": "coauthoring", "source": "clawhub", "stars": 0, "tags": null, "updated_at": 1776764049912, "version": "1.0.0"}, {"category": "", "created_at": 1774946666969, "description": "Analyze macro-environmental factors affecting an industry or company. Use as a precursor to strategic analysis, market entry assessment, or scenario planning.", "description_zh": "", "downloads": 39, "homepage": "https://clawhub.ai/linuszz/pest-analysis", "iconUrl": null, "installs": 3, "name": "Pest Analysis", "ownerName": "linuszz", "score": 208.92484062784592, "slug": "pest-analysis", "source": "clawhub", "stars": 0, "tags": null, "updated_at": 1776762315304, "version": "1.0.0"}, {"category": "", "created_at": 1774894753332, "description": "Project future using time series, derived demand, and expert opinion methods. Use for market sizing, growth projections, and revenue planning.", "description_zh": "", "downloads": 39, "homepage": "https://clawhub.ai/linuszz/forecasting-techniques", "iconUrl": null, "installs": 1, "name": "Forecasting Techniques", "ownerName": "linuszz", "score": 1086.350974930362, "slug": "forecasting-techniques", "source": "clawhub", "stars": 0, "tags": null, "updated_at": 1776761089942, "version": "1.0.0"}, {"category": "", "created_at": 1776061515801, "description": "Text-to-image generation with Jimeng, quickly converting text to high-quality images.", "description_zh": "", "downloads": 39, "homepage": "https://clawhub.ai/user_f95f21b8/dlazy-jimeng-t2i", "iconUrl": null, "installs": 2, "name": "jimeng t2i", "ownerName": "user_f95f21b8", "score": 3110.047846889952, "slug": "dlazy-jimeng-t2i", "source": "community", "stars": 0, "tags": null, "updated_at": 1776760098072, "version": "1.0.3"}, {"category": "", "created_at": 1774880611109, "description": "Local Whisper speech-to-text for audio files and inbound voice notes on the OpenClaw Gateway host. Use when setting up local transcription for WhatsApp, Tele...", "description_zh": "", "downloads": 39, "homepage": "https://clawhub.ai/sabyaghosh/openclaw-whisper-voice", "iconUrl": null, "installs": 6, "name": "openclaw-whisper-voice", "ownerName": "sabyaghosh", "score": 2682.2558459422285, "slug": "openclaw-whisper-voice", "source": "clawhub", "stars": 0, "tags": null, "updated_at": 1776758482794, "version": "1.0.0"}, {"category": "", "created_at": 1774871642200, "description": "Generate beautiful Mermaid.js diagrams with custom styling and themes. Create flowcharts, sequence diagrams, Gantt charts, class diagrams, etc. with enhanced...", "description_zh": "", "downloads": 39, "homepage": "https://clawhub.ai/caowen2211891/pretty-mermaid", "iconUrl": null, "installs": 5, "name": "pretty-mermaid", "ownerName": "caowen2211891", "score": 6818.181818181818, "slug": "pretty-mermaid", "source": "clawhub", "stars": 0, "tags": null, "updated_at": 1776755288566, "version": "1.0.0"}, {"category": "", "created_at": 1774846153238, "description": "Generate images using ShortArt AI platform with three modes: (1) Text-to-image and image-to-image generation for general artwork creation, (2) E-commerce sui...", "description_zh": "", "downloads": 39, "homepage": "https://clawhub.ai/yige666s/shortart-image-generator", "iconUrl": null, "installs": 0, "name": "shortart image generator 图片 生成", "ownerName": "yige666s", "score": 1775.1479289940828, "slug": "shortart-image-generator", "source": "clawhub", "stars": 0, "tags": null, "updated_at": 1776752570106, "version": "1.0.9"}, {"category": "", "created_at": 1774917095472, "description": "PDF to Markdown converter - extract text, tables and formulas from PDF files to clean Markdown. Use when converting PDF documents, extracting PDF content, pa...", "description_zh": "", "downloads": 39, "homepage": "https://clawhub.ai/tanis90/paper-to-markdown", "iconUrl": null, "installs": 7, "name": "Paper To Markdown", "ownerName": "tanis90", "score": 44827.58620689655, "slug": "paper-to-markdown", "source": "clawhub", "stars": 0, "tags": null, "updated_at": 1776743984455, "version": "1.0.0"}, {"category": "", "created_at": 1774893158582, "description": "B2B LinkedIn ghostwriting — strategic interview, hook engineering, and post body. Use when the user wants to write LinkedIn content, create ghostwritten post...", "description_zh": "", "downloads": 39, "homepage": "https://clawhub.ai/samber/linkedin-ghostwriting", "iconUrl": null, "installs": 5, "name": "Linkedin Ghostwriting", "ownerName": "samber", "score": 41935.48387096774, "slug": "linkedin-ghostwriting", "source": "clawhub", "stars": 0, "tags": null, "updated_at": 1776743683993, "version": "1.1.0"}]}