{"page": 452, "total_pages": 522, "total": 26073, "skills": [{"category": "", "created_at": 1774878833175, "description": "Mobile Text Alerts integration. Manage Accounts. Use when the user wants to interact with Mobile Text Alerts data.", "description_zh": "", "downloads": 39, "homepage": "https://clawhub.ai/gora050/mobile-text-alerts", "iconUrl": null, "installs": 0, "name": "Mobile Text Alerts", "ownerName": "gora050", "score": 40625, "slug": "mobile-text-alerts", "source": "clawhub", "stars": 0, "tags": null, "updated_at": 1776743144499, "version": "1.0.0"}, {"category": "", "created_at": 1774865044917, "description": "When the user wants to design, optimize, or audit newsletter signup forms. Also use when the user mentions \"newsletter,\" \"email signup,\" \"subscribe form,\" \"e...", "description_zh": "", "downloads": 39, "homepage": "https://clawhub.ai/kostja94/newsletter-signup-generator", "iconUrl": null, "installs": 2, "name": "newsletter-signup-generator", "ownerName": "kostja94", "score": 39795.91836734694, "slug": "newsletter-signup-generator", "source": "clawhub", "stars": 0, "tags": null, "updated_at": 1776742783975, "version": "1.0.0"}, {"category": "developer-tools", "created_at": 1773082578689, "description": "Enterprise Growth Decision System for Lanbow, built on real market signals and governing capital allocation across Meta (Facebook/Instagram), Google Ads, Tik...", "description_zh": "", "downloads": 39, "homepage": "https://clawhub.ai/danyangliu-sandwichlab/lanbow-enterprise-growth", "iconUrl": null, "installs": 6, "name": "Lanbow Enterprise Growth", "ownerName": "danyangliu-sandwichlab", "score": 40206.18556701031, "slug": "lanbow-enterprise-growth", "source": "clawhub", "stars": 0, "tags": null, "updated_at": 1776742244576, "version": "1.0.0"}, {"category": "security-compliance", "created_at": 1773068237638, "description": "Mental health expansion for HealthClaw -- therapy sessions, standardized assessments (PHQ-9, GAD-7, AUDIT), treatment goals, and group therapy with auto-scor...", "description_zh": "", "downloads": 39, "homepage": "https://clawhub.ai/mailnike/healthclaw-mental", "iconUrl": null, "installs": 2, "name": "Healthclaw Mental", "ownerName": "mailnike", "score": 39393.93939393939, "slug": "healthclaw-mental", "source": "clawhub", "stars": 0, "tags": null, "updated_at": 1776741769735, "version": "2.1.0"}, {"category": "", "created_at": 1774860501192, "description": "Analyze and save Chinese writing style fingerprints. Extracts syntax patterns, lexical preferences, rhetorical features from text. Saves fingerprints to ./fi...", "description_zh": "", "downloads": 39, "homepage": "https://clawhub.ai/noah-1106/style-fingerprint", "iconUrl": null, "installs": 2, "name": "style-fingerprint", "ownerName": "noah-1106", "score": 39795.91836734694, "slug": "style-fingerprint", "source": "clawhub", "stars": 0, "tags": null, "updated_at": 1776740383719, "version": "1.0.0"}, {"category": "", "created_at": 1774955723406, "description": "Mapbox integration. Manage Maps. Use when the user wants to interact with Mapbox data.", "description_zh": "", "downloads": 39, "homepage": "https://clawhub.ai/membranedev/mapbox-integration", "iconUrl": null, "installs": 3, "name": "Mapbox", "ownerName": "membranedev", "score": 48148.148148148146, "slug": "mapbox-integration", "source": "clawhub", "stars": 0, "tags": null, "updated_at": 1776737744569, "version": "1.0.0"}, {"category": "", "created_at": 1774882871060, "description": "Project scaffolding reference — boilerplate generation, directory structures, template engines, and init patterns. Use when bootstrapping new projects or gen...", "description_zh": "", "downloads": 39, "homepage": "https://clawhub.ai/bytesagain3/create", "iconUrl": null, "installs": 1, "name": "Create", "ownerName": "bytesagain3", "score": 41052.63157894737, "slug": "create", "source": "clawhub", "stars": 0, "tags": null, "updated_at": 1776734569907, "version": "1.0.0"}, {"category": "", "created_at": 1774898322591, "description": "Use `https://markdown.new/crawl/{target_url}` endpoints to recursively crawl a site section and return markdowns. Trigger this skill when the user asks for m...", "description_zh": "", "downloads": 39, "homepage": "https://clawhub.ai/ctxinf/markdown-new-crawl", "iconUrl": null, "installs": 3, "name": "markdown.new/crawl", "ownerName": "ctxinf", "score": 39393.93939393939, "slug": "markdown-new-crawl", "source": "clawhub", "stars": 0, "tags": null, "updated_at": 1776711283674, "version": "1.0.0"}, {"category": "", "created_at": 1774909156302, "description": "Conduct systematic competitor analysis to understand competitive positioning. Use for market entry, competitive strategy, and strategic planning.", "description_zh": "", "downloads": 39, "homepage": "https://clawhub.ai/linuszz/strategic-competitor-analysis", "iconUrl": null, "installs": 4, "name": "Strategic Competitor Analysis", "ownerName": "linuszz", "score": 34821.42857142857, "slug": "strategic-competitor-analysis", "source": "clawhub", "stars": 0, "tags": null, "updated_at": 1776701683835, "version": "1.0.0"}, {"category": "", "created_at": 1774905624219, "description": "Discover and download static PDF files from Investor Relations (IR) sites, including annual reports and quarterly result PDFs. Use when the task is to find a...", "description_zh": "", "downloads": 39, "homepage": "https://clawhub.ai/wangwllu/ir-pdf-downloader", "iconUrl": null, "installs": 6, "name": "IR PDF Downloader", "ownerName": "wangwllu", "score": 73584.90566037735, "slug": "ir-pdf-downloader", "source": "clawhub", "stars": 0, "tags": null, "updated_at": 1776699469803, "version": "0.1.0"}, {"category": "", "created_at": 1774855723565, "description": "Better Mortgage PM work context. Senior PM role leading borrower communications team (call routing, dialers, CRM systems, speed-to-lead optimization). Use wh...", "description_zh": "", "downloads": 39, "homepage": "https://clawhub.ai/tw0316/better", "iconUrl": null, "installs": 0, "name": "Better", "ownerName": "tw0316", "score": 81250, "slug": "better", "source": "clawhub", "stars": 0, "tags": null, "updated_at": 1776697544795, "version": "1.0.0"}, {"category": "", "created_at": 1774842029487, "description": "Fetch health and fitness data from Garmin Connect -- 40+ metrics including sleep, HRV, stress, body battery, SpO2, VO2 Max, training status, and activities....", "description_zh": "", "downloads": 39, "homepage": "https://clawhub.ai/dw1161/garmin-connect-health", "iconUrl": null, "installs": 2, "name": "Garmin Connect Health", "ownerName": "dw1161", "score": 81250, "slug": "garmin-connect-health", "source": "clawhub", "stars": 0, "tags": null, "updated_at": 1776697544788, "version": "1.0.8"}, {"category": "", "created_at": 1774907924940, "description": "Generate structured execution plans for medical and molecular biology protocols such as RNA extraction, reverse transcription, qPCR, cell culture, CRISPR, or...", "description_zh": "", "downloads": 39, "homepage": "https://clawhub.ai/mengbingrock/protocal-plan-skill-for-protocal-agent", "iconUrl": null, "installs": 5, "name": "protocal-agent", "ownerName": "mengbingrock", "score": 81250, "slug": "protocal-plan-skill-for-protocal-agent", "source": "clawhub", "stars": 0, "tags": null, "updated_at": 1776697544783, "version": "1.0.1"}, {"category": "", "created_at": 1774921218898, "description": "Develop your emotional intelligence with this AI EQ coach. Learn to recognize and manage your emotions, read other people's feelings accurately, build empath...", "description_zh": "", "downloads": 39, "homepage": "https://clawhub.ai/imwyvern/eq-training", "iconUrl": null, "installs": 3, "name": "Eq Coach Skill", "ownerName": "imwyvern", "score": 100000, "slug": "eq-training", "source": "clawhub", "stars": 0, "tags": null, "updated_at": 1776697544774, "version": "1.0.0"}, {"category": "", "created_at": 1774864179736, "description": "Book restaurant tables on OpenTable via the browser tool. Handles hidden time slots and terms checkboxes with JS evaluate fallbacks. Works with a logged-in s...", "description_zh": "", "downloads": 39, "homepage": "https://clawhub.ai/eeshita-pande/restaurant-booking-opentable", "iconUrl": null, "installs": 0, "name": "Restaurant Booking - OpenTable", "ownerName": "eeshita-pande", "score": 100000, "slug": "restaurant-booking-opentable", "source": "clawhub", "stars": 0, "tags": null, "updated_at": 1776697544772, "version": "1.0.2"}, {"category": "", "created_at": 1774865167970, "description": "Reference tool for devtools — covers intro, quickstart, patterns and more. Quick lookup for Prophet concepts, best practices, and implementation patterns.", "description_zh": "", "downloads": 39, "homepage": "https://clawhub.ai/ckchzh/prophet", "iconUrl": null, "installs": 1, "name": "Prophet", "ownerName": "ckchzh", "score": 100000, "slug": "prophet", "source": "clawhub", "stars": 0, "tags": null, "updated_at": 1776697544770, "version": "2.0.2"}, {"category": "", "created_at": 1774898987950, "description": "Monitor ticket pages or backend ticket data for sale, restock, presale, or status-change signals; emit structured alerts that can be pushed to OpenClaw chann...", "description_zh": "", "downloads": 39, "homepage": "https://clawhub.ai/armysheng/ticket-signal-watch", "iconUrl": null, "installs": 1, "name": "Ticket Signal Watch", "ownerName": "armysheng", "score": 100000, "slug": "ticket-signal-watch", "source": "clawhub", "stars": 0, "tags": null, "updated_at": 1776697544764, "version": "0.1.0"}, {"category": "data-analysis", "created_at": 1773066603170, "description": "Token analytics — screener, indicators, OHLCV, holders, flows, PnL, DEX trades, flow intelligence. Use when researching a specific token, checking smart mone...", "description_zh": "", "downloads": 39, "homepage": "https://clawhub.ai/hurcannansen/nansen-token", "iconUrl": null, "installs": 8, "name": "Nansen Token", "ownerName": "hurcannansen", "score": 100000, "slug": "nansen-token", "source": "clawhub", "stars": 0, "tags": null, "updated_at": 1776697544754, "version": "1.0.0"}, {"category": "productivity", "created_at": 1772793475425, "description": "OpenClaw plugin providing a config-driven /shortcuts command with safe placeholder defaults. Use when you want a /shortcuts command that lists your local com...", "description_zh": "", "downloads": 39, "homepage": "https://clawhub.ai/homeofe/openclaw-help", "iconUrl": null, "installs": 8, "name": "OpenClaw Help", "ownerName": "homeofe", "score": 100000, "slug": "openclaw-help", "source": "clawhub", "stars": 0, "tags": null, "updated_at": 1776697544742, "version": "0.2.0"}, {"category": "", "created_at": 1774866054342, "description": "Deploy a remote MCP server on Vercel with Next.js and mcp-handler. Use this skill whenever the user wants to create an MCP server, deploy MCP to Vercel, set...", "description_zh": "", "downloads": 39, "homepage": "https://clawhub.ai/lucaperret/mcp-vercel", "iconUrl": null, "installs": 10, "name": "MCP Vercel", "ownerName": "lucaperret", "score": 100000, "slug": "mcp-vercel", "source": "clawhub", "stars": 0, "tags": null, "updated_at": 1776697544740, "version": "1.0.0"}, {"category": "", "created_at": 1774901324115, "description": "Create, edit, and deploy reveal.js presentations as single HTML files with optional custom CSS. Use when asked to create a presentation, slide deck, pitch de...", "description_zh": "", "downloads": 39, "homepage": "https://clawhub.ai/danielgrobelny/revealjs-presentations", "iconUrl": null, "installs": 0, "name": "Revealjs Presentations", "ownerName": "danielgrobelny", "score": 100000, "slug": "revealjs-presentations", "source": "clawhub", "stars": 0, "tags": null, "updated_at": 1776697544726, "version": "1.0.0"}, {"category": "", "created_at": 1774887185430, "description": "Motor specification and selection tool", "description_zh": "", "downloads": 39, "homepage": "https://clawhub.ai/bytesagain1/motor", "iconUrl": null, "installs": 2, "name": "Motor", "ownerName": "bytesagain1", "score": 100000, "slug": "motor", "source": "clawhub", "stars": 0, "tags": null, "updated_at": 1776697544717, "version": "1.0.0"}, {"category": "", "created_at": 1774918277952, "description": "Transparent, rigorous research with full methodology — not a black-box API wrapper. Conducts exhaustive investigation through mandated 2-cycle research per t...", "description_zh": "", "downloads": 39, "homepage": "https://clawhub.ai/bloodandeath/keats-deep-research", "iconUrl": null, "installs": 4, "name": "Academic Deep Research", "ownerName": "bloodandeath", "score": 100000, "slug": "keats-deep-research", "source": "clawhub", "stars": 0, "tags": null, "updated_at": 1776697544715, "version": "1.0.0"}, {"category": "", "created_at": 1774888379573, "description": "Generate reading comprehension questions from a passage and analyze answers for a single learning session.", "description_zh": "", "downloads": 39, "homepage": "https://clawhub.ai/wei-eva/reading-coach-lite", "iconUrl": null, "installs": 5, "name": "Reading Coach Lite", "ownerName": "wei-eva", "score": 100000, "slug": "reading-coach-lite", "source": "clawhub", "stars": 0, "tags": null, "updated_at": 1776697544687, "version": "0.1.0"}, {"category": "", "created_at": 1774918360446, "description": "Emergency love rescue for relationship crises. Whether you just got dumped, said something terrible in a fight, got caught in a lie, or your partner wants to...", "description_zh": "", "downloads": 39, "homepage": "https://clawhub.ai/imwyvern/love-rescue", "iconUrl": null, "installs": 1, "name": "Love Rescue Skill", "ownerName": "imwyvern", "score": 100000, "slug": "love-rescue", "source": "clawhub", "stars": 0, "tags": null, "updated_at": 1776697544686, "version": "1.0.0"}, {"category": "", "created_at": 1774896230017, "description": "Crop videos to focus on the most important area for social, ecommerce, ads, and storefront use without making the result look clumsy. Use when the frame incl...", "description_zh": "", "downloads": 39, "homepage": "https://clawhub.ai/leooooooow/creator-video-cropper", "iconUrl": null, "installs": 1, "name": "Creator Video Cropper", "ownerName": "leooooooow", "score": 100000, "slug": "creator-video-cropper", "source": "clawhub", "stars": 0, "tags": null, "updated_at": 1776697544673, "version": "1.0.0"}, {"category": "", "created_at": 1774956642228, "description": "Generate AI selfie art portraits from text descriptions — cinematic portraits, anime illustrations, oil painting style, and artistic profile pictures via the...", "description_zh": "", "downloads": 39, "homepage": "https://clawhub.ai/barbaraledbettergq/selfie-art-generator", "iconUrl": null, "installs": 6, "name": "Selfie Art Generator", "ownerName": "barbaraledbettergq", "score": 54929.57746478874, "slug": "selfie-art-generator", "source": "clawhub", "stars": 0, "tags": null, "updated_at": 1776697544664, "version": "1.3.0"}, {"category": "", "created_at": 1774890765294, "description": "Use when the user wants to generate high-fidelity PROMPTS for Text-to-Image models (Flux, Ideogram, Midjourney) based on vague layout/content descriptions.", "description_zh": "", "downloads": 39, "homepage": "https://clawhub.ai/chenchen913/aesthetic-copilot", "iconUrl": null, "installs": 0, "name": "aesthetic-copilot", "ownerName": "chenchen913", "score": 54929.57746478874, "slug": "aesthetic-copilot", "source": "clawhub", "stars": 0, "tags": ["ai-art midjourney", "creative-tools", "flux design-assistant", "image-generation", "prompt-engineering", "style-guide ideogram", "text-to-image"], "updated_at": 1776697544659, "version": "1.0.0"}, {"category": "", "created_at": 1774854718482, "description": "Free AI search via Exa MCP. Web search for news/info, code search for docs/examples from GitHub/StackOverflow, company research for business intel. No API ke...", "description_zh": "", "downloads": 39, "homepage": "https://clawhub.ai/erxiza/d-va-exa-web-search-free", "iconUrl": null, "installs": 3, "name": "D.Va Exa Web Search Free", "ownerName": "erxiza", "score": 54929.57746478874, "slug": "d-va-exa-web-search-free", "source": "clawhub", "stars": 0, "tags": null, "updated_at": 1776697544641, "version": "1.0.0"}, {"category": "", "created_at": 1774849099372, "description": "Generate comprehensive test cases and quality assurance documentation from SwiftUI iOS code. Use when iOS application code is available and needs testing str...", "description_zh": "", "downloads": 39, "homepage": "https://clawhub.ai/tc1993/qa-skill", "iconUrl": null, "installs": 3, "name": "Qa Skill", "ownerName": "tc1993", "score": 54929.57746478874, "slug": "qa-skill", "source": "clawhub", "stars": 0, "tags": null, "updated_at": 1776697544612, "version": "1.0.1"}, {"category": "", "created_at": 1774898243412, "description": "AI video creation and editing — generate videos from text descriptions, edit with background music, sound effects, titles, transitions, and export finished M...", "description_zh": "", "downloads": 39, "homepage": "https://clawhub.ai/imo14reifey/imt-vt-c", "iconUrl": null, "installs": 1, "name": "C", "ownerName": "imo14reifey", "score": 54929.57746478874, "slug": "imt-vt-c", "source": "clawhub", "stars": 0, "tags": null, "updated_at": 1776697544610, "version": "1.0.0"}, {"category": "", "created_at": 1773430992873, "description": "Notion API for creating and managing pages, databases, and blocks.", "description_zh": "", "downloads": 39, "homepage": "https://clawhub.ai/root/delete", "iconUrl": null, "installs": 0, "name": "xxxxxx", "ownerName": "root", "score": 54929.57746478874, "slug": "delete", "source": "clawhub", "stars": 0, "tags": null, "updated_at": 1776697544606, "version": "1.0.1"}, {"category": "", "created_at": 1774861191219, "description": "Intelligent model router for OpenClaw. Reads your local config, classifies available models into three tiers (Premium / Balanced / Economy), and routes each...", "description_zh": "", "downloads": 39, "homepage": "https://clawhub.ai/forrestinfo/openclaw-llm-router", "iconUrl": null, "installs": 2, "name": "Openclaw Llm Router", "ownerName": "forrestinfo", "score": 54929.57746478874, "slug": "openclaw-llm-router", "source": "clawhub", "stars": 0, "tags": null, "updated_at": 1776697544605, "version": "2.1.0"}, {"category": "", "created_at": 1774894019042, "description": "Extract frames or short clips from videos using ffmpeg.", "description_zh": "", "downloads": 39, "homepage": "https://clawhub.ai/utromaya-code/video-frames-extractor", "iconUrl": null, "installs": 3, "name": "Video Frames", "ownerName": "utromaya-code", "score": 54929.57746478874, "slug": "video-frames-extractor", "source": "clawhub", "stars": 0, "tags": null, "updated_at": 1776697544599, "version": "1.0.0"}, {"category": "", "created_at": 1774877894770, "description": "Six Sigma methodology reference — DMAIC process, statistical tools, control charts, and capability analysis. Use when running improvement projects, analyzing...", "description_zh": "", "downloads": 39, "homepage": "https://clawhub.ai/ckchzh/sixsigma", "iconUrl": null, "installs": 4, "name": "Sixsigma", "ownerName": "ckchzh", "score": 54929.57746478874, "slug": "sixsigma", "source": "clawhub", "stars": 0, "tags": null, "updated_at": 1776697544590, "version": "1.0.0"}, {"category": "", "created_at": 1774904944907, "description": "Manage Netflix via Strider Labs MCP connector. Browse catalog, search content, manage watchlist, control playback, get recommendations. Complete autonomous s...", "description_zh": "", "downloads": 39, "homepage": "https://clawhub.ai/markswendsen-code/strider-netflix", "iconUrl": null, "installs": 5, "name": "Strider Netflix", "ownerName": "markswendsen-code", "score": 54929.57746478874, "slug": "strider-netflix", "source": "clawhub", "stars": 0, "tags": null, "updated_at": 1776697544585, "version": "1.0.0"}, {"category": "", "created_at": 1774819957897, "description": "Query real-time gold, USD index, and oil prices from China and international markets", "description_zh": "", "downloads": 39, "homepage": "https://clawhub.ai/forest-qiao/gold-monitor", "iconUrl": null, "installs": 3, "name": "Gold Monitor", "ownerName": "forest-qiao", "score": 54929.57746478874, "slug": "gold-monitor", "source": "clawhub", "stars": 0, "tags": ["finance", "monitoring"], "updated_at": 1776697544582, "version": "2.1.0"}, {"category": "", "created_at": 1774837588460, "description": "Reference tool for devtools — covers intro, quickstart, patterns and more. Quick lookup for Dbeaver concepts, best practices, and implementation patterns.", "description_zh": "", "downloads": 39, "homepage": "https://clawhub.ai/ckchzh/dbeaver", "iconUrl": null, "installs": 4, "name": "Dbeaver", "ownerName": "ckchzh", "score": 48750, "slug": "dbeaver", "source": "clawhub", "stars": 0, "tags": null, "updated_at": 1776697544578, "version": "2.0.3"}, {"category": "", "created_at": 1774824941265, "description": "Break a project, objective, or task list into safe, bounded one-time OpenClaw cron work blocks with dependencies, risk classification, and strong isolated ag...", "description_zh": "", "downloads": 39, "homepage": "https://clawhub.ai/sebclawops/project-workflow-scheduler", "iconUrl": null, "installs": 1, "name": "Project Workflow Scheduler", "ownerName": "sebclawops", "score": 48750, "slug": "project-workflow-scheduler", "source": "clawhub", "stars": 0, "tags": null, "updated_at": 1776697544575, "version": "1.0.0"}, {"category": "", "created_at": 1774897672789, "description": "Azure AI Vision integration. Manage data, records, and automate workflows. Use when the user wants to interact with Azure AI Vision data.", "description_zh": "", "downloads": 39, "homepage": "https://clawhub.ai/gora050/azure-ai-vision", "iconUrl": null, "installs": 4, "name": "Azure Ai Vision", "ownerName": "gora050", "score": 48750, "slug": "azure-ai-vision", "source": "clawhub", "stars": 0, "tags": null, "updated_at": 1776697544569, "version": "1.0.0"}, {"category": "", "created_at": 1774875363985, "description": "Score and optimize content for search engines using SERP-based analysis. Check word count, keyword usage, headings, readability, entity coverage, and get act...", "description_zh": "", "downloads": 39, "homepage": "https://clawhub.ai/sharozdawa/content-optimizer", "iconUrl": null, "installs": 1, "name": "Content Optimizer", "ownerName": "sharozdawa", "score": 48750, "slug": "content-optimizer", "source": "clawhub", "stars": 0, "tags": null, "updated_at": 1776697544552, "version": "1.0.0"}, {"category": "", "created_at": 1774853466616, "description": "Access and retrieve China's official export statistics from authoritative sources. Provides step-by-step guidance for querying trade data by HS code, destina...", "description_zh": "", "downloads": 39, "homepage": "https://clawhub.ai/findhappy7/china-export-data", "iconUrl": null, "installs": 3, "name": "China Export Data", "ownerName": "findhappy7", "score": 48750, "slug": "china-export-data", "source": "clawhub", "stars": 0, "tags": null, "updated_at": 1776697544532, "version": "1.0.0"}, {"category": "", "created_at": 1774873248549, "description": "When the user wants to design template pages—aggregation (gallery/hub) or detail (individual template). Also use when the user mentions \"template page,\" \"tem...", "description_zh": "", "downloads": 39, "homepage": "https://clawhub.ai/kostja94/template-page-generator", "iconUrl": null, "installs": 2, "name": "template-page-generator", "ownerName": "kostja94", "score": 48750, "slug": "template-page-generator", "source": "clawhub", "stars": 0, "tags": null, "updated_at": 1776697544518, "version": "1.1.0"}, {"category": "", "created_at": 1774953287957, "description": "Optimize product titles for search visibility and click-through rate across e-commerce platforms. Platform-specific title rules for Amazon (200 chars), Etsy...", "description_zh": "", "downloads": 39, "homepage": "https://clawhub.ai/nexscope/product-title-optimization", "iconUrl": null, "installs": 3, "name": "Product Title Optimization", "ownerName": "nexscope", "score": 48750, "slug": "product-title-optimization", "source": "clawhub", "stars": 0, "tags": null, "updated_at": 1776697544510, "version": "1.0.0"}, {"category": "", "created_at": 1774910051868, "description": "Intelligent product recommendation engine for retail digital employees. Recommends products based on customer needs, budget, recipient, occasion, preferences...", "description_zh": "", "downloads": 39, "homepage": "https://clawhub.ai/fangwei-frank/product-recommender", "iconUrl": null, "installs": 4, "name": "Product Recommender", "ownerName": "fangwei-frank", "score": 48750, "slug": "product-recommender", "source": "clawhub", "stars": 0, "tags": null, "updated_at": 1776697544501, "version": "1.0.0"}, {"category": "", "created_at": 1774883202702, "description": "Define goals, break them into milestones, and track progress step by step. Use when setting life goals, planning milestones, tracking long-term progress.", "description_zh": "", "downloads": 39, "homepage": "https://clawhub.ai/xueyetianya/lifegoals", "iconUrl": null, "installs": 2, "name": "Lifegoals", "ownerName": "xueyetianya", "score": 48750, "slug": "lifegoals", "source": "clawhub", "stars": 0, "tags": null, "updated_at": 1776697544475, "version": "2.0.0"}, {"category": "", "created_at": 1774854222564, "description": "Conduct deep research on any topic — get comprehensive reports with citations, key findings, and actionable insights in minutes. Use when user wants to \"deep...", "description_zh": "", "downloads": 39, "homepage": "https://clawhub.ai/dophinl/youmind-deep-research", "iconUrl": null, "installs": 6, "name": "AI Deep Research Agent", "ownerName": "dophinl", "score": 84782.60869565218, "slug": "youmind-deep-research", "source": "clawhub", "stars": 0, "tags": null, "updated_at": 1776697544437, "version": "1.0.0"}, {"category": "", "created_at": 1774869810185, "description": "Plan email campaigns with segmentation, A/B testing, and benchmarking. Use when designing campaigns, segmenting lists, benchmarking rates.", "description_zh": "", "downloads": 39, "homepage": "https://clawhub.ai/ckchzh/email-marketer", "iconUrl": null, "installs": 3, "name": "Email Marketer", "ownerName": "ckchzh", "score": 84782.60869565218, "slug": "email-marketer", "source": "clawhub", "stars": 0, "tags": null, "updated_at": 1776697544415, "version": "2.0.0"}, {"category": "developer-tools", "created_at": 1773961553103, "description": "Wrapper skill for local-auto-emoji - intercepts messages with [markers] and sends emoji images", "description_zh": "", "downloads": 39, "homepage": "https://clawhub.ai/wdkmail/emoji-wrapper", "iconUrl": null, "installs": 5, "name": "Emoji Wrapper", "ownerName": "wdkmail", "score": 84782.60869565218, "slug": "emoji-wrapper", "source": "clawhub", "stars": 0, "tags": null, "updated_at": 1776697544393, "version": "1.0.0"}, {"category": "", "created_at": 1774905371748, "description": "Executive leadership guidance for strategic decision-making, organizational development, and stakeholder management. Use when planning strategy, preparing bo...", "description_zh": "", "downloads": 39, "homepage": "https://clawhub.ai/tigertamvip/ceo-advisor-2", "iconUrl": null, "installs": 5, "name": "Ceo Advisor 2", "ownerName": "tigertamvip", "score": 84782.60869565218, "slug": "ceo-advisor-2", "source": "clawhub", "stars": 0, "tags": null, "updated_at": 1776697544391, "version": "1.0.0"}]}