{"page": 453, "total_pages": 522, "total": 26073, "skills": [{"category": "", "created_at": 1774855168938, "description": "Check whether an ecommerce offer is commercially viable after discounts, costs, refunds, and traffic economics are included. Use when teams need a fast profi...", "description_zh": "", "downloads": 39, "homepage": "https://clawhub.ai/leooooooow/offer-profitability-checker", "iconUrl": null, "installs": 3, "name": "Offer Profitability Checker", "ownerName": "leooooooow", "score": 84782.60869565218, "slug": "offer-profitability-checker", "source": "clawhub", "stars": 0, "tags": null, "updated_at": 1776697544387, "version": "1.0.1"}, {"category": "", "created_at": 1774900445415, "description": "Translates natural language requests into evalscope CLI commands. Core capabilities: (1) Model accuracy evaluation (eval) — runs 156+ benchmarks (Math, Codin...", "description_zh": "", "downloads": 39, "homepage": "https://clawhub.ai/yunnglin/skill-evalscope", "iconUrl": null, "installs": 2, "name": "EvalScope", "ownerName": "yunnglin", "score": 84782.60869565218, "slug": "skill-evalscope", "source": "clawhub", "stars": 0, "tags": null, "updated_at": 1776697544371, "version": "1.0.1"}, {"category": "", "created_at": 1774849984334, "description": "Monitor network connectivity and diagnose latency issues using ping and traceroute. Use when troubleshooting network problems or checking host availability.", "description_zh": "", "downloads": 39, "homepage": "https://clawhub.ai/xueyetianya/ping", "iconUrl": null, "installs": 0, "name": "Ping", "ownerName": "xueyetianya", "score": 84782.60869565218, "slug": "ping", "source": "clawhub", "stars": 0, "tags": null, "updated_at": 1776697504771, "version": "1.0.0"}, {"category": "", "created_at": 1774895307588, "description": "Reviews Prometheus instrumentation in Go code for proper metric types, labels, and patterns. Use when reviewing code with prometheus/client_golang metrics.", "description_zh": "", "downloads": 38, "homepage": "https://clawhub.ai/anderskev/prometheus-go-code-review", "iconUrl": null, "installs": 3, "name": "Prometheus Go Code Review", "ownerName": "anderskev", "score": 1350.3909026297085, "slug": "prometheus-go-code-review", "source": "clawhub", "stars": 0, "tags": null, "updated_at": 1776766663279, "version": "2.3.0"}, {"category": "", "created_at": 1774916120609, "description": "Conduct rigorous, adversarial code reviews with zero tolerance for mediocrity. Default behavior is a single-model adversarial review that identifies security...", "description_zh": "", "downloads": 38, "homepage": "https://clawhub.ai/bloodandeath/adversarial-code-reviewer", "iconUrl": null, "installs": 4, "name": "Adversarial Code Reviewer", "ownerName": "bloodandeath", "score": 2657.3426573426573, "slug": "adversarial-code-reviewer", "source": "clawhub", "stars": 0, "tags": null, "updated_at": 1776766459546, "version": "1.0.0"}, {"category": "", "created_at": 1774907093225, "description": "Reviews SwiftUI code for view composition, state management, performance, and accessibility. Use when reviewing .swift files containing SwiftUI views, proper...", "description_zh": "", "downloads": 38, "homepage": "https://clawhub.ai/anderskev/swiftui-code-review", "iconUrl": null, "installs": 6, "name": "Swiftui Code Review", "ownerName": "anderskev", "score": 2657.3426573426573, "slug": "swiftui-code-review", "source": "clawhub", "stars": 0, "tags": null, "updated_at": 1776766458357, "version": "1.2.0"}, {"category": "", "created_at": 1774811025835, "description": "Builds complete multi-channel revenue funnels adapted to any business model. Combines proven frameworks from elite operators: Yomi Denzel's viral top-of-funn...", "description_zh": "", "downloads": 38, "homepage": "https://clawhub.ai/georges91560/funnel-builder", "iconUrl": null, "installs": 2, "name": "Funnel Builder", "ownerName": "georges91560", "score": 622.8487133256843, "slug": "funnel-builder", "source": "clawhub", "stars": 0, "tags": ["#affiliate", "#autonomous-agent", "#autonomous-funnel", "#b2b", "#b2c", "#behavioral-triggers", "#conversion", "#copywriting", "#deadline-engine", "#digital-product", "#email-sequence", "#funnel", "#landing-page", "#lead-magnet", "#multi-channel", "#niche-detection", "#no-code", "#sales-funnel", "#systeme-io", "#ticket-ladder", "#trading-signals"], "updated_at": 1776765371244, "version": "1.0.3"}, {"category": "", "created_at": 1774857082293, "description": "Guide users to VideoAny Lip Sync Studio to create lip-sync videos from an image and audio.", "description_zh": "", "downloads": 38, "homepage": "https://clawhub.ai/gaoq1/lip-sync-videoany", "iconUrl": null, "installs": 1, "name": "Lip Sync", "ownerName": "gaoq1", "score": 1510.9343936381708, "slug": "lip-sync-videoany", "source": "clawhub", "stars": 0, "tags": null, "updated_at": 1776762440112, "version": "1.0.0"}, {"category": "", "created_at": 1774850713313, "description": "Browse and load ready-to-use AI/ML datasets with fast manipulation. Use when searching datasets, loading training data, transforming formats.", "description_zh": "", "downloads": 38, "homepage": "https://clawhub.ai/ckchzh/datasets", "iconUrl": null, "installs": 0, "name": "Datasets", "ownerName": "ckchzh", "score": 1623.931623931624, "slug": "datasets", "source": "clawhub", "stars": 0, "tags": null, "updated_at": 1776759982109, "version": "2.0.0"}, {"category": "communication-collaboration", "created_at": 1773060491248, "description": "Email Monitor v2.0 - Auto email monitoring with business reply templates. Feishu notification for business opportunities.", "description_zh": "", "downloads": 38, "homepage": "https://clawhub.ai/sukimgit/email-monitor", "iconUrl": null, "installs": 1, "name": "Email Monitor", "ownerName": "sukimgit", "score": 7524.752475247525, "slug": "email-monitor", "source": "clawhub", "stars": 0, "tags": null, "updated_at": 1776750584114, "version": "2.0.0"}, {"category": "", "created_at": 1774841173295, "description": "Professional currency exchange rate analysis and forecasting for any currency pair. Provides technical analysis, trend prediction, and market insights using...", "description_zh": "", "downloads": 38, "homepage": "https://clawhub.ai/ver0n1ca/currency-forecast-pro", "iconUrl": null, "installs": 2, "name": "Currency Forecast Pro", "ownerName": "ver0n1ca", "score": 8920.187793427229, "slug": "currency-forecast-pro", "source": "clawhub", "stars": 0, "tags": null, "updated_at": 1776748484583, "version": "1.0.0"}, {"category": "data-analysis", "created_at": 1773041364805, "description": "AI data analysis. Generate insights, create reports, visualize data. No API keys needed. $2 FREE credits to start. Pay-as-you-go via SkillBoss.", "description_zh": "", "downloads": 38, "homepage": "https://clawhub.ai/xiaoyinqu/analyst-ai", "iconUrl": null, "installs": 6, "name": "Analyst Ai", "ownerName": "xiaoyinqu", "score": 39583.33333333333, "slug": "analyst-ai", "source": "clawhub", "stars": 0, "tags": null, "updated_at": 1776744583902, "version": "1.0.2"}, {"category": "", "created_at": 1774870216209, "description": "Reconcile payroll processor reports (Gusto, ADP, Paychex, Rippling) to general ledger journal entries in QuickBooks Online, Xero, or other accounting softwar...", "description_zh": "", "downloads": 38, "homepage": "https://clawhub.ai/samledger67-dotcom/payroll-gl-reconciliation", "iconUrl": null, "installs": 1, "name": "Payroll GL Reconciliation", "ownerName": "samledger67-dotcom", "score": 40000, "slug": "payroll-gl-reconciliation", "source": "clawhub", "stars": 0, "tags": null, "updated_at": 1776744170421, "version": "1.0.0"}, {"category": "", "created_at": 1774909755760, "description": "Discover fast-growing GitHub repositories before they appear on the official Trending page. Use when users ask to find emerging/rising GitHub projects, spot...", "description_zh": "", "downloads": 38, "homepage": "https://clawhub.ai/humor200/github-rising-stars", "iconUrl": null, "installs": 5, "name": "Github Rising Stars", "ownerName": "humor200", "score": 40000, "slug": "github-rising-stars", "source": "clawhub", "stars": 0, "tags": null, "updated_at": 1776742369836, "version": "1.0.0"}, {"category": "", "created_at": 1774873374333, "description": "Generate 90+ personalized Instagram content ideas using the 3×3×10 framework, curate the best ones with an AI editor, and expand winners into actionable conc...", "description_zh": "", "downloads": 38, "homepage": "https://clawhub.ai/olayying/instagram-content-ideas", "iconUrl": null, "installs": 3, "name": "Instagram Content Ideas Generator", "ownerName": "olayying", "score": 39175.257731958765, "slug": "instagram-content-ideas", "source": "clawhub", "stars": 0, "tags": null, "updated_at": 1776742204853, "version": "1.0.0"}, {"category": "", "created_at": 1774947522701, "description": "Generate journal club slides with background, critique, and discussion.", "description_zh": "", "downloads": 38, "homepage": "https://clawhub.ai/aipoch-ai/journal-club-presenter", "iconUrl": null, "installs": 3, "name": "Journal Club Presenter", "ownerName": "aipoch-ai", "score": 40000, "slug": "journal-club-presenter", "source": "clawhub", "stars": 0, "tags": null, "updated_at": 1776734744449, "version": "1.0.0"}, {"category": "", "created_at": 1774864308377, "description": "All-in-one Android phone automation via ADB: screen analysis, touch/input, foreground app detection, app install. Use for any task that involves operating th...", "description_zh": "", "downloads": 38, "homepage": "https://clawhub.ai/cobeizailin/tencent-cvp", "iconUrl": null, "installs": 6, "name": "tencent cvp skill", "ownerName": "cobeizailin", "score": 40000, "slug": "tencent-cvp", "source": "clawhub", "stars": 0, "tags": null, "updated_at": 1776734569837, "version": "1.0.1"}, {"category": "", "created_at": 1774914192190, "description": "Go (Golang) naming conventions — covers packages, constructors, structs, interfaces, constants, enums, errors, booleans, receivers, getters/setters, function...", "description_zh": "", "downloads": 38, "homepage": "https://clawhub.ai/samber/golang-naming", "iconUrl": null, "installs": 1, "name": "Golang Naming", "ownerName": "samber", "score": 38775.510204081635, "slug": "golang-naming", "source": "clawhub", "stars": 0, "tags": null, "updated_at": 1776733969976, "version": "0.1.0"}, {"category": "", "created_at": 1774841659410, "description": "Stay informed with Global News — get breaking news, top headlines, local city news, and full-text article search across Europe, Americas, Latin America, and...", "description_zh": "", "downloads": 38, "homepage": "https://clawhub.ai/zerokileom/global-news", "iconUrl": null, "installs": 1, "name": "Global News By Opera News", "ownerName": "zerokileom", "score": 40425.53191489362, "slug": "global-news", "source": "clawhub", "stars": 0, "tags": null, "updated_at": 1776721244387, "version": "1.0.2"}, {"category": "", "created_at": 1774891587807, "description": "Control and troubleshoot MCSManager-managed Minecraft servers through the MCSManager API and clearly provided host-side context. Use when asked to start, sto...", "description_zh": "", "downloads": 38, "homepage": "https://clawhub.ai/szabee13/mcsmanager-controller", "iconUrl": null, "installs": 4, "name": "MCSManager Controller", "ownerName": "szabee13", "score": 38775.510204081635, "slug": "mcsmanager-controller", "source": "clawhub", "stars": 0, "tags": null, "updated_at": 1776718369580, "version": "1.0.1"}, {"category": "", "created_at": 1774810905890, "description": "Design and implement automation workflows to save time and scale operations as a solopreneur. Use when identifying repetitive tasks to automate, building wor...", "description_zh": "", "downloads": 38, "homepage": "https://clawhub.ai/litiao1224/automation-workflows-litiao", "iconUrl": null, "installs": 3, "name": "Automation Workflows Litiao", "ownerName": "litiao1224", "score": 38383.83838383838, "slug": "automation-workflows-litiao", "source": "clawhub", "stars": 0, "tags": null, "updated_at": 1776711769597, "version": "1.0.0"}, {"category": "", "created_at": 1774877494984, "description": "A roadmap connecting many of the most important concepts in machine learning, how to learn them and machine learning roadmap, python, data, data-science.", "description_zh": "", "downloads": 38, "homepage": "https://clawhub.ai/ckchzh/ml-roadmap", "iconUrl": null, "installs": 4, "name": "Ml Roadmap", "ownerName": "ckchzh", "score": 33928.57142857143, "slug": "ml-roadmap", "source": "clawhub", "stars": 0, "tags": null, "updated_at": 1776703183767, "version": "2.0.0"}, {"category": "", "created_at": 1774855258754, "description": "Proactive todo execution, heartbeat-driven review, and structured follow-up for a markdown todo system. Use when the agent needs to review `todo/todo.md`, pi...", "description_zh": "", "downloads": 38, "homepage": "https://clawhub.ai/hyharry/proactive-do", "iconUrl": null, "installs": 2, "name": "Proactive-Do", "ownerName": "hyharry", "score": 100000, "slug": "proactive-do", "source": "clawhub", "stars": 0, "tags": null, "updated_at": 1776697670401, "version": "0.1.1"}, {"category": "", "created_at": 1774856739383, "description": "Browser automation with human-like behavior. Use when: sites require JavaScript, login sessions, form filling, clicking, scrolling, or complex interactions....", "description_zh": "", "downloads": 38, "homepage": "https://clawhub.ai/lesliepie/browseragent", "iconUrl": null, "installs": 5, "name": "BrowserAgent", "ownerName": "lesliepie", "score": 100000, "slug": "browseragent", "source": "clawhub", "stars": 0, "tags": null, "updated_at": 1776697670348, "version": "1.0.0"}, {"category": "", "created_at": 1774876363558, "description": "Reference tool for devtools — covers intro, quickstart, patterns and more. Quick lookup for Svg Optimizer concepts, best practices, and implementation patterns.", "description_zh": "", "downloads": 38, "homepage": "https://clawhub.ai/ckchzh/svg-optimizer", "iconUrl": null, "installs": 2, "name": "Svg Optimizer", "ownerName": "ckchzh", "score": 100000, "slug": "svg-optimizer", "source": "clawhub", "stars": 0, "tags": null, "updated_at": 1776697670306, "version": "2.0.1"}, {"category": "", "created_at": 1774891654709, "description": "A cloud-native Go microservices framework with cli tool for productivity. go zero, go, ai-native, ai-native-development, cloud-native, code-generation.", "description_zh": "", "downloads": 38, "homepage": "https://clawhub.ai/xueyetianya/microservice-gen", "iconUrl": null, "installs": 1, "name": "Microservice Gen", "ownerName": "xueyetianya", "score": 100000, "slug": "microservice-gen", "source": "clawhub", "stars": 0, "tags": null, "updated_at": 1776697670305, "version": "1.0.0"}, {"category": "", "created_at": 1774921599004, "description": "F.A.C.E.T. cognitive framework for extracting mental models from classic books and theories. Use when (1) user asks for \"reading notes\", \"extract models\", or...", "description_zh": "", "downloads": 38, "homepage": "https://clawhub.ai/kedoupi/mental-model-forge", "iconUrl": null, "installs": 2, "name": "F.A.C.E.T. Framework (心智模型：F.A.C.E.T. 框架)", "ownerName": "kedoupi", "score": 100000, "slug": "mental-model-forge", "source": "clawhub", "stars": 0, "tags": ["books", "cognitive-tools", "decision-making", "facet", "frameworks", "learning", "mental-models", "personalization", "strategic-thinking"], "updated_at": 1776697670281, "version": "1.0.0"}, {"category": "", "created_at": 1774923833139, "description": "Realistic career change paths for white-collar workers displaced by AI. Which skills transfer, which new fields are growing, how to make the transition witho...", "description_zh": "", "downloads": 38, "homepage": "https://clawhub.ai/howtousehumans/career-reinvention", "iconUrl": null, "installs": 0, "name": "Career Reinvention", "ownerName": "howtousehumans", "score": 100000, "slug": "career-reinvention", "source": "clawhub", "stars": 0, "tags": null, "updated_at": 1776697670267, "version": "1.0.0"}, {"category": "", "created_at": 1774880818549, "description": "Write, explain, debug, and port ShaderToy-style fragment shaders. Use when the user asks for ShaderToy code, wants help with `mainImage`, `fragCoord`, `iTime...", "description_zh": "", "downloads": 38, "homepage": "https://clawhub.ai/jvy/shadertoy", "iconUrl": null, "installs": 5, "name": "shadertoy", "ownerName": "jvy", "score": 100000, "slug": "shadertoy", "source": "clawhub", "stars": 0, "tags": null, "updated_at": 1776697670258, "version": "1.0.0"}, {"category": "", "created_at": 1774908993735, "description": "AI communication coach for dating, workplace & social scenarios. Decodes the real meaning behind messages and crafts high-EQ replies. Adaptive language — wor...", "description_zh": "", "downloads": 38, "homepage": "https://clawhub.ai/imwyvern/replyher-skill", "iconUrl": null, "installs": 3, "name": "Replyher Skill", "ownerName": "imwyvern", "score": 100000, "slug": "replyher-skill", "source": "clawhub", "stars": 0, "tags": null, "updated_at": 1776697670244, "version": "1.1.0"}, {"category": "developer-tools", "created_at": 1772788444228, "description": "Benchmark your agent's memory. Contribute anonymized scores to open research. Citizen science for AI memory.", "description_zh": "", "downloads": 38, "homepage": "https://clawhub.ai/globalcaos/memory-pioneer", "iconUrl": null, "installs": 7, "name": "Memory Pioneer", "ownerName": "globalcaos", "score": 100000, "slug": "memory-pioneer", "source": "clawhub", "stars": 0, "tags": null, "updated_at": 1776697670157, "version": "1.0.2"}, {"category": "", "created_at": 1774898857962, "description": "Master SQL query optimization, indexing strategies, and EXPLAIN analysis to dramatically improve database performance and eliminate slow queries. Use when de...", "description_zh": "", "downloads": 38, "homepage": "https://clawhub.ai/watermelon11/sql-optimization-patterns", "iconUrl": null, "installs": 5, "name": "Sql Optimization Patterns", "ownerName": "watermelon11", "score": 100000, "slug": "sql-optimization-patterns", "source": "clawhub", "stars": 0, "tags": null, "updated_at": 1776697670147, "version": "1.0.0"}, {"category": "", "created_at": 1774893245896, "description": "A practical memory management system for OpenClaw: importance scoring, time-decay cleanup, write triggers, hybrid retrieval, and daily maintenance workflow.", "description_zh": "", "downloads": 38, "homepage": "https://clawhub.ai/xuchang9337-dev/memory-management-lite", "iconUrl": null, "installs": 1, "name": "memory management", "ownerName": "xuchang9337-dev", "score": 100000, "slug": "memory-management-lite", "source": "clawhub", "stars": 0, "tags": null, "updated_at": 1776697670079, "version": "1.0.0"}, {"category": "", "created_at": 1774847304100, "description": "When the user needs marketing ideas, inspiration, or strategies for their SaaS or software product. Also use when the user asks for 'marketing ideas,' 'growt...", "description_zh": "", "downloads": 38, "homepage": "https://clawhub.ai/jx-76/jx76-marketing-ideas", "iconUrl": null, "installs": 5, "name": "Marketing Ideas for SaaS", "ownerName": "jx-76", "score": 100000, "slug": "jx76-marketing-ideas", "source": "clawhub", "stars": 0, "tags": ["business", "growth", "marketing", "saas", "startup", "strategy"], "updated_at": 1776697670030, "version": "1.0.1"}, {"category": "", "created_at": 1774922783458, "description": "Use ingenuities for web fetch, web search, screenshots, snapshots, and solver-backed inference, especially when built-in tools are not configured, blocked, e...", "description_zh": "", "downloads": 38, "homepage": "https://clawhub.ai/chestertan20/ingenuities", "iconUrl": null, "installs": 5, "name": "Ingenuities", "ownerName": "chestertan20", "score": 100000, "slug": "ingenuities", "source": "clawhub", "stars": 0, "tags": null, "updated_at": 1776697670027, "version": "1.0.4"}, {"category": "", "created_at": 1774953893323, "description": "Discover, search, and browse MCP servers from the official MCP Registry and MCPCentral. Find servers, get specs, and generate setup configurations. Use when...", "description_zh": "", "downloads": 38, "homepage": "https://clawhub.ai/mcpcentral-io/mcp-registry", "iconUrl": null, "installs": 1, "name": "mcp-registry", "ownerName": "mcpcentral-io", "score": 100000, "slug": "mcp-registry", "source": "clawhub", "stars": 0, "tags": null, "updated_at": 1776697670019, "version": "1.0.0"}, {"category": "developer-tools", "created_at": 1773961278211, "description": "Track every AI dollar your agent spends. Per-model cost breakdown, daily budgets, and alerts.", "description_zh": "", "downloads": 38, "homepage": "https://clawhub.ai/maypaz/tozil", "iconUrl": null, "installs": 4, "name": "Tozil", "ownerName": "maypaz", "score": 100000, "slug": "tozil", "source": "clawhub", "stars": 0, "tags": null, "updated_at": 1776697669994, "version": "1.1.1"}, {"category": "", "created_at": 1774918227533, "description": "Step-by-step guide to install and configure the PowerMem long-term memory plugin (full path, options, troubleshooting). After setup, the plugin auto-captures...", "description_zh": "", "downloads": 38, "homepage": "https://clawhub.ai/teingi/install-powermem-memory-full", "iconUrl": null, "installs": 3, "name": "Install Powermem Memory", "ownerName": "teingi", "score": 100000, "slug": "install-powermem-memory-full", "source": "clawhub", "stars": 0, "tags": null, "updated_at": 1776697669990, "version": "0.3.0"}, {"category": "", "created_at": 1774910467358, "description": "Use when someone asks for image-to-image, reference-image generation, transform image with prompt, edit image with AI, or CLI-based image-to-image workflows...", "description_zh": "", "downloads": 38, "homepage": "https://clawhub.ai/jinchanzis/ai-media-generator-image-to-image", "iconUrl": null, "installs": 1, "name": "Image To Image", "ownerName": "jinchanzis", "score": 100000, "slug": "ai-media-generator-image-to-image", "source": "clawhub", "stars": 0, "tags": null, "updated_at": 1776697669985, "version": "1.0.0"}, {"category": "", "created_at": 1774905859971, "description": "Comprehensive quantitative data platform for A-share market. Real-time quotes, historical data, alternative data (sentiment, news, fundamentals), factor data...", "description_zh": "", "downloads": 38, "homepage": "https://clawhub.ai/jason-aka-chen/quant-data-platform", "iconUrl": null, "installs": 4, "name": "Quant Data Platform", "ownerName": "jason-aka-chen", "score": 62295.08196721312, "slug": "quant-data-platform", "source": "clawhub", "stars": 0, "tags": null, "updated_at": 1776697669972, "version": "1.0.0"}, {"category": "", "created_at": 1774956729189, "description": "Monitor OpenClaw API costs in real-time, set budget alerts, and optimize model spending. Track token usage by session and model, get cost optimization tips,...", "description_zh": "", "downloads": 38, "homepage": "https://clawhub.ai/redwoo/token-cost-monitor", "iconUrl": null, "installs": 0, "name": "Token Cost Monitor", "ownerName": "redwoo", "score": 62295.08196721312, "slug": "token-cost-monitor", "source": "clawhub", "stars": 0, "tags": null, "updated_at": 1776697669936, "version": "1.0.0"}, {"category": "", "created_at": 1774847172743, "description": "Your AI boyfriend/girlfriend that texts you good morning, remembers your inside jokes, and grows from strangers to soulmates. 4 personas (gentle, tsundere, c...", "description_zh": "", "downloads": 38, "homepage": "https://clawhub.ai/gavinharbus/clawmate", "iconUrl": null, "installs": 3, "name": "ClawMate", "ownerName": "gavinharbus", "score": 62295.08196721312, "slug": "clawmate", "source": "clawhub", "stars": 0, "tags": null, "updated_at": 1776697669910, "version": "1.0.6"}, {"category": "", "created_at": 1774883906143, "description": "Learn Docker on LabEx via container fundamentals courses and image or compose labs. Docker courses and labs through LabEx MCP; return labex.io URLs for conti...", "description_zh": "", "downloads": 38, "homepage": "https://clawhub.ai/huhuhang/learn-docker", "iconUrl": null, "installs": 2, "name": "Learn Docker", "ownerName": "huhuhang", "score": 100000, "slug": "learn-docker", "source": "clawhub", "stars": 0, "tags": null, "updated_at": 1776697669891, "version": "1.0.0"}, {"category": "", "created_at": 1774882645667, "description": "Generate PPT with Baidu AI. Smart template selection based on content.", "description_zh": "", "downloads": 38, "homepage": "https://clawhub.ai/binbin/ai-ppt-generator-1-1-3", "iconUrl": null, "installs": 7, "name": "Ai Ppt Generator 1.1.3", "ownerName": "binbin", "score": 100000, "slug": "ai-ppt-generator-1-1-3", "source": "clawhub", "stars": 0, "tags": null, "updated_at": 1776697669877, "version": "1.0.0"}, {"category": "", "created_at": 1774870095498, "description": "Reliable macOS AppleScript fallback for creating Apple Reminders, Apple Notes, Apple Calendar events, and sending iMessage when direct tool/plugin routes are...", "description_zh": "", "downloads": 38, "homepage": "https://clawhub.ai/qy-zhang/macos-applescript-fallback", "iconUrl": null, "installs": 5, "name": "macOS AppleScript Fallback (Reminders / Notes / Calendar / iMessage)", "ownerName": "qy-zhang", "score": 100000, "slug": "macos-applescript-fallback", "source": "clawhub", "stars": 0, "tags": null, "updated_at": 1776697669874, "version": "1.0.0"}, {"category": "", "created_at": 1774854065885, "description": "roi reference tool", "description_zh": "", "downloads": 38, "homepage": "https://clawhub.ai/ckchzh/roi", "iconUrl": null, "installs": 1, "name": "Roi", "ownerName": "ckchzh", "score": 100000, "slug": "roi", "source": "clawhub", "stars": 0, "tags": null, "updated_at": 1776697669865, "version": "2.0.2"}, {"category": "", "created_at": 1774947720128, "description": "This skill helps users migrate OpenClaw data to Tencent Cloud instances. It supports three scenarios — single instance migration to the current machine, batc...", "description_zh": "", "downloads": 38, "homepage": "https://clawhub.ai/hoikin-yiu/claw2tencentcloud", "iconUrl": null, "installs": 5, "name": "claw2tencentcloud", "ownerName": "hoikin-yiu", "score": 100000, "slug": "claw2tencentcloud", "source": "clawhub", "stars": 0, "tags": null, "updated_at": 1776697669860, "version": "1.0.1"}, {"category": "", "created_at": 1774820639340, "description": "Discover hidden APIs behind web pages and replace expensive browser snapshots with lightweight API calls. Saves ~15-20x tokens and 2x speed on browser automa...", "description_zh": "", "downloads": 38, "homepage": "https://clawhub.ai/ianzlm/snapshot-to-api", "iconUrl": null, "installs": 2, "name": "Snapshot to API", "ownerName": "ianzlm", "score": 100000, "slug": "snapshot-to-api", "source": "clawhub", "stars": 0, "tags": null, "updated_at": 1776697669753, "version": "1.0.0"}, {"category": "", "created_at": 1774872199438, "description": "Generate high-converting TikTok ad scripts for Shopify e-commerce products. Outputs hook variations, main A/B test scripts, UGC versions, CTA libraries, and...", "description_zh": "", "downloads": 38, "homepage": "https://clawhub.ai/dttnpole-commits/ai-tiktok-ad-script-generator-shopify", "iconUrl": null, "installs": 5, "name": "Generate High-Converting TikTok Ads for Shopify (UGC + Viral Hooks + A/B Testing)", "ownerName": "dttnpole-commits", "score": 100000, "slug": "ai-tiktok-ad-script-generator-shopify", "source": "clawhub", "stars": 0, "tags": ["tiktok-ads shopify dropshipping ad-copywriting ugc-content marketing conversion ecommerce facebook-ads ai-marketing", "tiktok-ads shopify dropshipping ugc-content ad-copywriting conversion ecommerce ai-marketing facebook-ads direct-response"], "updated_at": 1776697669729, "version": "1.0.2"}, {"category": "", "created_at": 1774870112429, "description": "Generate high-quality AI images using Google Imagen 4 via Media.io OpenAPI. Produces photorealistic, detailed images from text prompts with advanced text ren...", "description_zh": "", "downloads": 38, "homepage": "https://clawhub.ai/wondershare-boop/mediaio-imagen4-image-generator", "iconUrl": null, "installs": 1, "name": "Imagen 4 AI Image Generator", "ownerName": "wondershare-boop", "score": 100000, "slug": "mediaio-imagen4-image-generator", "source": "clawhub", "stars": 0, "tags": null, "updated_at": 1776697669724, "version": "1.0.4"}]}