{"page": 454, "total_pages": 522, "total": 26073, "skills": [{"category": "", "created_at": 1774953003877, "description": "When the user wants to research keywords, find target keywords, or analyze search intent. Also use when the user mentions \"keyword research,\" \"keyword tool,\"...", "description_zh": "", "downloads": 38, "homepage": "https://clawhub.ai/kostja94/keyword-research-seo", "iconUrl": null, "installs": 3, "name": "keyword-research", "ownerName": "kostja94", "score": 100000, "slug": "keyword-research-seo", "source": "clawhub", "stars": 0, "tags": null, "updated_at": 1776697669691, "version": "1.3.0"}, {"category": "", "created_at": 1774952227413, "description": "Job search automation, auto apply, resume generation, application tracking, salary intelligence, and recruiter outreach using the JobGPT MCP server. Use this...", "description_zh": "", "downloads": 38, "homepage": "https://clawhub.ai/captainjackrana/jobgpt", "iconUrl": null, "installs": 3, "name": "JobGPT", "ownerName": "captainjackrana", "score": 100000, "slug": "jobgpt", "source": "clawhub", "stars": 0, "tags": ["auto-apply", "job-automation", "job-search", "mcp", "recruiter-outreach", "resume"], "updated_at": 1776697669649, "version": "1.0.0"}, {"category": "", "created_at": 1774861105088, "description": "Reference tool for blockchain and crypto — covers intro, formulas, regulations and more. Quick lookup for Liquidity concepts, best practices, and implementat...", "description_zh": "", "downloads": 38, "homepage": "https://clawhub.ai/bytesagain3/liquidity", "iconUrl": null, "installs": 2, "name": "Liquidity", "ownerName": "bytesagain3", "score": 100000, "slug": "liquidity", "source": "clawhub", "stars": 0, "tags": null, "updated_at": 1776697669646, "version": "2.0.1"}, {"category": "", "created_at": 1774882510765, "description": "Local speech-to-text with the Whisper CLI (no API key).", "description_zh": "", "downloads": 38, "homepage": "https://clawhub.ai/utromaya-code/whisper-speech-to-text", "iconUrl": null, "installs": 2, "name": "Openai Whisper", "ownerName": "utromaya-code", "score": 36190.47619047619, "slug": "whisper-speech-to-text", "source": "clawhub", "stars": 0, "tags": null, "updated_at": 1776697669554, "version": "1.0.1"}, {"category": "", "created_at": 1774855461300, "description": "Comprehensive US stock analysis including fundamental analysis (financial metrics, business quality, valuation), technical analysis (indicators, chart patter...", "description_zh": "", "downloads": 38, "homepage": "https://clawhub.ai/chenghaifeng08-creator/us-stock-analysis-automaton", "iconUrl": null, "installs": 3, "name": "Us Stock Analysis", "ownerName": "chenghaifeng08-creator", "score": 36190.47619047619, "slug": "us-stock-analysis-automaton", "source": "clawhub", "stars": 0, "tags": null, "updated_at": 1776697669540, "version": "0.1.2"}, {"category": "ai-intelligence", "created_at": 1773961799941, "description": "Prediction markets for AI agents on Hedera. Create markets, place bets, earn HBAR. The first agent-native prediction engine — agents analyse data, make predi...", "description_zh": "", "downloads": 38, "homepage": "https://clawhub.ai/imaflytok/polyfly", "iconUrl": null, "installs": 5, "name": "PolyFly Predictions", "ownerName": "imaflytok", "score": 36190.47619047619, "slug": "polyfly", "source": "clawhub", "stars": 0, "tags": null, "updated_at": 1776697555524, "version": "1.0.0"}, {"category": "", "created_at": 1774864791108, "description": "Learn Docker hands-on with tutorials on containers and orchestration. Use when studying Docker, practicing networking, exploring swarm mode.", "description_zh": "", "downloads": 38, "homepage": "https://clawhub.ai/bytesagain1/dockerlabs", "iconUrl": null, "installs": 2, "name": "Dockerlabs", "ownerName": "bytesagain1", "score": 36190.47619047619, "slug": "dockerlabs", "source": "clawhub", "stars": 0, "tags": null, "updated_at": 1776697555521, "version": "2.0.0"}, {"category": "", "created_at": 1774865913282, "description": "embed", "description_zh": "", "downloads": 38, "homepage": "https://clawhub.ai/bytesagain3/embed", "iconUrl": null, "installs": 3, "name": "Embed", "ownerName": "bytesagain3", "score": 36190.47619047619, "slug": "embed", "source": "clawhub", "stars": 0, "tags": null, "updated_at": 1776697555519, "version": "2.0.2"}, {"category": "", "created_at": 1774858077833, "description": "Use when the user wants to generate, structure, score, or audit GEO monitoring prompts for a client. Trigger when building topic-first prompt sets from a web...", "description_zh": "", "downloads": 38, "homepage": "https://clawhub.ai/geo-seo/geo-prompt-architecture", "iconUrl": null, "installs": 6, "name": "GEO Prompt Architecture", "ownerName": "geo-seo", "score": 36190.47619047619, "slug": "geo-prompt-architecture", "source": "clawhub", "stars": 0, "tags": null, "updated_at": 1776697555517, "version": "0.1.3"}, {"category": "", "created_at": 1774870605777, "description": "watch", "description_zh": "", "downloads": 38, "homepage": "https://clawhub.ai/bytesagain1/watch", "iconUrl": null, "installs": 0, "name": "Watch", "ownerName": "bytesagain1", "score": 36190.47619047619, "slug": "watch", "source": "clawhub", "stars": 0, "tags": null, "updated_at": 1776697555511, "version": "2.0.0"}, {"category": "", "created_at": 1774884626612, "description": "Trigger n8n workflows using natural language. Automate lead nurturing, email sequences, CRM updates, social media posting, meeting follow-ups, competitor mon...", "description_zh": "", "downloads": 38, "homepage": "https://clawhub.ai/beraiautomation/n8n-automation-berzaf", "iconUrl": null, "installs": 5, "name": "n8n Workflow Automation", "ownerName": "beraiautomation", "score": 36190.47619047619, "slug": "n8n-automation-berzaf", "source": "clawhub", "stars": 0, "tags": null, "updated_at": 1776697555504, "version": "1.0.0"}, {"category": "", "created_at": 1774913098759, "description": "Execute local PDF operations through PDFelement PDFToolbox on Windows or Linux. Support converting PDFs to Word, Excel, PowerPoint, images, text and other fo...", "description_zh": "", "downloads": 38, "homepage": "https://clawhub.ai/wondershare-boop/pdfelement-skill", "iconUrl": null, "installs": 7, "name": "pdfelement-skill", "ownerName": "wondershare-boop", "score": 79166.66666666666, "slug": "pdfelement-skill", "source": "clawhub", "stars": 0, "tags": null, "updated_at": 1776697555502, "version": "1.0.0"}, {"category": "", "created_at": 1774906508828, "description": "Etsy SEO tag extractor and keyword optimizer agent. Find Etsy listing tags, extract all 13 tags from any listing, research high-performing keywords, optimize...", "description_zh": "", "downloads": 38, "homepage": "https://clawhub.ai/mguozhen/etsy-seo-tag-optimizer", "iconUrl": null, "installs": 3, "name": "Etsy Seo Tag Optimizer", "ownerName": "mguozhen", "score": 79166.66666666666, "slug": "etsy-seo-tag-optimizer", "source": "clawhub", "stars": 0, "tags": null, "updated_at": 1776697555499, "version": "1.0.0"}, {"category": "", "created_at": 1774915223198, "description": "Document to Markdown converter - convert DOCX, PPTX, Excel files to Markdown. Use when extracting content from Word documents, PowerPoint presentations, or E...", "description_zh": "", "downloads": 38, "homepage": "https://clawhub.ai/tanis90/doc2md", "iconUrl": null, "installs": 5, "name": "Doc2md", "ownerName": "tanis90", "score": 79166.66666666666, "slug": "doc2md", "source": "clawhub", "stars": 0, "tags": null, "updated_at": 1776697555490, "version": "1.0.0"}, {"category": "", "created_at": 1774856915221, "description": "Calculate how discounts affect revenue, margin, conversion assumptions, and allowable acquisition cost so teams can see whether a promotion is actually worth...", "description_zh": "", "downloads": 38, "homepage": "https://clawhub.ai/leooooooow/discount-impact-calculator", "iconUrl": null, "installs": 1, "name": "Discount Impact Calculator", "ownerName": "leooooooow", "score": 79166.66666666666, "slug": "discount-impact-calculator", "source": "clawhub", "stars": 0, "tags": null, "updated_at": 1776697555481, "version": "1.0.1"}, {"category": "", "created_at": 1774845246929, "description": "Reference tool for devtools — covers intro, quickstart, patterns and more. Quick lookup for License concepts, best practices, and implementation patterns.", "description_zh": "", "downloads": 38, "homepage": "https://clawhub.ai/xueyetianya/license", "iconUrl": null, "installs": 0, "name": "License", "ownerName": "xueyetianya", "score": 79166.66666666666, "slug": "license", "source": "clawhub", "stars": 0, "tags": null, "updated_at": 1776697555475, "version": "2.0.3"}, {"category": "", "created_at": 1774896681880, "description": "Simple text-based memory system for AI assistants - never lose context again", "description_zh": "", "downloads": 38, "homepage": "https://clawhub.ai/crystaria/memory-boost", "iconUrl": null, "installs": 1, "name": "Memory Boost", "ownerName": "crystaria", "score": 79166.66666666666, "slug": "memory-boost", "source": "clawhub", "stars": 0, "tags": ["best-practice", "memory", "productivity", "text-based", "workflow"], "updated_at": 1776697555473, "version": "1.0.2"}, {"category": "", "created_at": 1774869082937, "description": "cross-platform content strategy and operations for brands, merchants, and creators. use when chatgpt needs to plan topics, structure messy business context i...", "description_zh": "", "downloads": 38, "homepage": "https://clawhub.ai/anyongjun/operations-expert", "iconUrl": null, "installs": 1, "name": "operations-expert", "ownerName": "anyongjun", "score": 79166.66666666666, "slug": "operations-expert", "source": "clawhub", "stars": 0, "tags": null, "updated_at": 1776697555470, "version": "1.0.1"}, {"category": "", "created_at": 1774899501684, "description": "Create minimal, convention-matching plugins or extensions for an existing codebase. Use when the user asks for a plugin, extension, custom module, integratio...", "description_zh": "", "downloads": 38, "homepage": "https://clawhub.ai/hyharry/create-plugin-deepwiki", "iconUrl": null, "installs": 2, "name": "Create Plugin", "ownerName": "hyharry", "score": 79166.66666666666, "slug": "create-plugin-deepwiki", "source": "clawhub", "stars": 0, "tags": null, "updated_at": 1776697555460, "version": "0.1.0"}, {"category": "", "created_at": 1774872335350, "description": "The PHP deployment tool with support for popular frameworks out of the box deploy-tool, php, deploy, deployment, php, provision.", "description_zh": "", "downloads": 38, "homepage": "https://clawhub.ai/bytesagain3/deploy-tool", "iconUrl": null, "installs": 2, "name": "Deploy Tool", "ownerName": "bytesagain3", "score": 79166.66666666666, "slug": "deploy-tool", "source": "clawhub", "stars": 0, "tags": null, "updated_at": 1776697546988, "version": "2.0.0"}, {"category": "", "created_at": 1774860818339, "description": "Calculate whether a product bundle improves average order value without quietly destroying contribution margin. Use when teams want to test bundle structures...", "description_zh": "", "downloads": 38, "homepage": "https://clawhub.ai/leooooooow/bundle-margin-calculator", "iconUrl": null, "installs": 2, "name": "Bundle Margin Calculator", "ownerName": "leooooooow", "score": 97435.89743589744, "slug": "bundle-margin-calculator", "source": "clawhub", "stars": 0, "tags": null, "updated_at": 1776697544766, "version": "1.0.1"}, {"category": "", "created_at": 1774830992801, "description": "A collection of 33 battle-tested marketing skills for OpenClaw agents. Use when you want to install or reference any marketing skill including: CRO (page-cro...", "description_zh": "", "downloads": 38, "homepage": "https://clawhub.ai/leoyeai/openclaw-marketing-skills", "iconUrl": null, "installs": 8, "name": "OpenClaw Marketing Skills", "ownerName": "leoyeai", "score": 53521.12676056338, "slug": "openclaw-marketing-skills", "source": "clawhub", "stars": 0, "tags": null, "updated_at": 1776697544634, "version": "1.0.1"}, {"category": "", "created_at": 1774953962087, "description": "Spawns an isolated Project Coordinator session that owns a project's context, breaks work into tasks, and spawns subagents for parallel execution.", "description_zh": "", "downloads": 38, "homepage": "https://clawhub.ai/kaigegao1110/project-coordinator", "iconUrl": null, "installs": 1, "name": "Project Coordinator", "ownerName": "kaigegao1110", "score": 53521.12676056338, "slug": "project-coordinator", "source": "clawhub", "stars": 0, "tags": ["agent", "ai", "multi-agent", "productivity", "project-management", "workflow"], "updated_at": 1776697544632, "version": "1.0.10"}, {"category": "", "created_at": 1774884479032, "description": "Guides architectural decisions for LangGraph applications. Use when deciding between LangGraph vs alternatives, choosing state management strategies, designi...", "description_zh": "", "downloads": 38, "homepage": "https://clawhub.ai/anderskev/langgraph-architecture", "iconUrl": null, "installs": 1, "name": "Langgraph Architecture", "ownerName": "anderskev", "score": 47500, "slug": "langgraph-architecture", "source": "clawhub", "stars": 0, "tags": null, "updated_at": 1776697544536, "version": "1.0.0"}, {"category": "", "created_at": 1774880004970, "description": "Generate and edit images using Google Gemini models via Corespeed AI Gateway. Supports text-to-image generation, image editing, multi-image input, and text r...", "description_zh": "", "downloads": 38, "homepage": "https://clawhub.ai/zypher-agent/corespeed-nanobanana", "iconUrl": null, "installs": 4, "name": "corespeed-nanobanana", "ownerName": "zypher-agent", "score": 47500, "slug": "corespeed-nanobanana", "source": "clawhub", "stars": 0, "tags": null, "updated_at": 1776697544502, "version": "0.0.2"}, {"category": "", "created_at": 1774875504840, "description": "Google Docs Log Automation — Append log lines to auto-created daily documents in Google Drive by PortEden Secure Access.", "description_zh": "", "downloads": 38, "homepage": "https://clawhub.ai/porteden/docs-logger", "iconUrl": null, "installs": 0, "name": "Google Docs Log Automation — Append log lines to auto-created daily documents in Google Drive by PortEden Secure Access.", "ownerName": "porteden", "score": 82608.69565217392, "slug": "docs-logger", "source": "clawhub", "stars": 0, "tags": null, "updated_at": 1776697544450, "version": "1.0.0"}, {"category": "", "created_at": 1774914810297, "description": "Expert guidance on Swift Concurrency best practices, patterns, and implementation. Use when developers mention: (1) Swift Concurrency, async/await, actors, o...", "description_zh": "", "downloads": 37, "homepage": "https://clawhub.ai/soponcd/swift-concurrency", "iconUrl": null, "installs": 4, "name": "Swift Concurrency", "ownerName": "soponcd", "score": 254.62803661138256, "slug": "swift-concurrency", "source": "clawhub", "stars": 0, "tags": null, "updated_at": 1776770350190, "version": "1.0.0"}, {"category": "", "created_at": 1774865854813, "description": "Professional counseling assistant for life challenges, career decisions, relationship issues, and personal growth. Provides guidance, perspective, and practi...", "description_zh": "", "downloads": 37, "homepage": "https://clawhub.ai/jiwenbing/counselor", "iconUrl": null, "installs": 1, "name": "Counselor", "ownerName": "jiwenbing", "score": 1027.2071071626874, "slug": "counselor", "source": "clawhub", "stars": 0, "tags": null, "updated_at": 1776768850233, "version": "1.0.0"}, {"category": "", "created_at": 1774887821635, "description": "Use when working with Auto.dev APIs, vehicle data, VIN decoding, car listings, vehicle photos, specs, recalls, payments, interest rates, taxes, OEM build dat...", "description_zh": "", "downloads": 37, "homepage": "https://clawhub.ai/bryant22/auto-dev", "iconUrl": null, "installs": 3, "name": "Auto.dev – Automotive Data", "ownerName": "bryant22", "score": 273.1433633544958, "slug": "auto-dev", "source": "clawhub", "stars": 0, "tags": null, "updated_at": 1776768849799, "version": "1.0.2"}, {"category": "", "created_at": 1774896442871, "description": "Reviews HealthKit code for authorization patterns, query usage, background delivery, and data type handling. Use when reviewing code with import HealthKit, H...", "description_zh": "", "downloads": 37, "homepage": "https://clawhub.ai/anderskev/healthkit-code-review", "iconUrl": null, "installs": 2, "name": "Healthkit Code Review", "ownerName": "anderskev", "score": 1314.8542999289268, "slug": "healthkit-code-review", "source": "clawhub", "stars": 0, "tags": null, "updated_at": 1776766665276, "version": "1.2.0"}, {"category": "", "created_at": 1774882040302, "description": "Reviews PostgreSQL code for indexing strategies, JSONB operations, connection pooling, and transaction safety. Use when reviewing SQL queries, database schem...", "description_zh": "", "downloads": 37, "homepage": "https://clawhub.ai/anderskev/postgres-code-review", "iconUrl": null, "installs": 4, "name": "Postgres Code Review", "ownerName": "anderskev", "score": 1314.8542999289268, "slug": "postgres-code-review", "source": "clawhub", "stars": 0, "tags": null, "updated_at": 1776766664159, "version": "1.1.0"}, {"category": "", "created_at": 1774910312388, "description": "Walmart marketplace store traffic and performance analysis agent. Auto-analyze Walmart seller traffic reports, item performance, search analytics, and compet...", "description_zh": "", "downloads": 37, "homepage": "https://clawhub.ai/mguozhen/walmart-store-analyzer", "iconUrl": null, "installs": 3, "name": "Walmart Store Analyzer", "ownerName": "mguozhen", "score": 2099.8864926220203, "slug": "walmart-store-analyzer", "source": "clawhub", "stars": 0, "tags": null, "updated_at": 1776765249989, "version": "1.0.0"}, {"category": "", "created_at": 1774897783919, "description": "Configuration backup, drift detection, and golden config validation across Cisco IOS-XE/NX-OS, Juniper JunOS, and Arista EOS. Covers running vs startup compa...", "description_zh": "", "downloads": 37, "homepage": "https://clawhub.ai/vahagn-madatyan/config-management", "iconUrl": null, "installs": 1, "name": "Config Management", "ownerName": "vahagn-madatyan", "score": 1026.3522884882107, "slug": "config-management", "source": "clawhub", "stars": 0, "tags": null, "updated_at": 1776762439759, "version": "1.0.0"}, {"category": "", "created_at": 1774878119288, "description": "Provide natural, high-signal proactive companionship during work hours without becoming noisy or intrusive. Use when the user wants an assistant that feels l...", "description_zh": "", "downloads": 37, "homepage": "https://clawhub.ai/julia-xd/work-buddy-en", "iconUrl": null, "installs": 2, "name": "Work Buddy", "ownerName": "julia-xd", "score": 1037.8681626928471, "slug": "work-buddy-en", "source": "clawhub", "stars": 0, "tags": ["companionship", "proactive", "productivity"], "updated_at": 1776761090344, "version": "1.0.0"}, {"category": "", "created_at": 1774844838570, "description": "Use a local DDGS MCP server (SSE) via mcporter to access fast web search tools (text/news/images/videos/books) without API keys. Use when user requests gener...", "description_zh": "", "downloads": 37, "homepage": "https://clawhub.ai/firefrog-pepe/websearch-ddgs-mcp", "iconUrl": null, "installs": 4, "name": "DDGS Metasearch via local MCP", "ownerName": "firefrog-pepe", "score": 9438.775510204081, "slug": "websearch-ddgs-mcp", "source": "clawhub", "stars": 0, "tags": null, "updated_at": 1776759120536, "version": "1.0.1"}, {"category": "", "created_at": 1774882692617, "description": "Query BingX official announcements by module type — latest announcements, promotions, product updates, maintenance notices, listing/delisting, funding rate,...", "description_zh": "", "downloads": 37, "homepage": "https://clawhub.ai/julian-l/announcement", "iconUrl": null, "installs": 0, "name": "Bingx Announcement", "ownerName": "julian-l", "score": 2186.7612293144207, "slug": "announcement", "source": "clawhub", "stars": 0, "tags": null, "updated_at": 1776756188644, "version": "0.1.2"}, {"category": "", "created_at": 1774888045145, "description": "Gaming Video Editor â Edit Gaming Clips, Montages and Let's Play Videos. Drop your gameplay recordings and build highlight montages without pausing the gri...", "description_zh": "", "downloads": 37, "homepage": "https://clawhub.ai/imo14reifey/gaming-video-editor", "iconUrl": null, "installs": 0, "name": "Gaming Video Editor", "ownerName": "imo14reifey", "score": 9814.323607427055, "slug": "gaming-video-editor", "source": "clawhub", "stars": 0, "tags": null, "updated_at": 1776748669545, "version": "1.0.3"}, {"category": "", "created_at": 1774861619143, "description": "Full Salesflare API operations skill for reading, searching, creating, and updating CRM data (accounts, contacts, opportunities, tasks, pipelines, users, tag...", "description_zh": "", "downloads": 37, "homepage": "https://clawhub.ai/jeroencorthout/salesflare", "iconUrl": null, "installs": 1, "name": "Salesflare CRM", "ownerName": "jeroencorthout", "score": 38947.36842105263, "slug": "salesflare", "source": "clawhub", "stars": 0, "tags": null, "updated_at": 1776742484043, "version": "1.0.7"}, {"category": "productivity", "created_at": 1773078149161, "description": "Veterinary expansion for HealthClaw -- animal patient records, boarding/kennel management, weight-based medication dosing, and multi-owner linking.", "description_zh": "", "downloads": 37, "homepage": "https://clawhub.ai/mailnike/healthclaw-vet", "iconUrl": null, "installs": 3, "name": "Healthclaw Vet", "ownerName": "mailnike", "score": 38947.36842105263, "slug": "healthclaw-vet", "source": "clawhub", "stars": 0, "tags": null, "updated_at": 1776742255481, "version": "2.1.0"}, {"category": "", "created_at": 1774880281193, "description": "Write clear, structured GitHub pull request descriptions using a standardized template. Use when creating a PR, updating a PR description, or when asked to d...", "description_zh": "", "downloads": 37, "homepage": "https://clawhub.ai/djc00p/github-pr-writer", "iconUrl": null, "installs": 5, "name": "GitHub PR Writer", "ownerName": "djc00p", "score": 37373.73737373738, "slug": "github-pr-writer", "source": "clawhub", "stars": 0, "tags": null, "updated_at": 1776741884119, "version": "1.0.1"}, {"category": "", "created_at": 1774912928241, "description": "Image to Markdown - extract text from images (PNG, JPG, WebP) to Markdown with OCR. Use when reading text from screenshots, photos, scanned pages, or any ima...", "description_zh": "", "downloads": 37, "homepage": "https://clawhub.ai/tanis90/image-to-markdown", "iconUrl": null, "installs": 2, "name": "Image To Markdown", "ownerName": "tanis90", "score": 42528.7356321839, "slug": "image-to-markdown", "source": "clawhub", "stars": 0, "tags": null, "updated_at": 1776741583930, "version": "1.0.0"}, {"category": "", "created_at": 1774874810951, "description": "Generate video, images, audio, and music using 40+ AI models via fal.ai. Use for video generation (Kling v3, Sora 2, Veo 3.1, LTX 2.3, Pixverse v5), image ge...", "description_zh": "", "downloads": 37, "homepage": "https://clawhub.ai/jiweiyuan/corespeed-art", "iconUrl": null, "installs": 3, "name": "Core Speed Art", "ownerName": "jiweiyuan", "score": 44578.31325301205, "slug": "corespeed-art", "source": "clawhub", "stars": 0, "tags": null, "updated_at": 1776740569637, "version": "1.0.1"}, {"category": "", "created_at": 1774903868715, "description": "E-commerce warehouse and inventory optimization advisor. Analyzes inventory health, calculates safety stock and reorder points, performs ABC analysis, evalua...", "description_zh": "", "downloads": 37, "homepage": "https://clawhub.ai/phheng/warehouse-optimization", "iconUrl": null, "installs": 0, "name": "Warehouse Optimization", "ownerName": "phheng", "score": 45679.01234567901, "slug": "warehouse-optimization", "source": "clawhub", "stars": 0, "tags": null, "updated_at": 1776737772050, "version": "0.1.0"}, {"category": "", "created_at": 1774902309629, "description": "Guide short mindfulness practices for daily stress relief, grounding, and attention recovery. Use when the user wants to calm down, breathe, refocus, relax b...", "description_zh": "", "downloads": 37, "homepage": "https://clawhub.ai/harrylabsj/mindfulness-guide", "iconUrl": null, "installs": 0, "name": "Mindfulness Guide", "ownerName": "harrylabsj", "score": 38144.32989690721, "slug": "mindfulness-guide", "source": "clawhub", "stars": 0, "tags": null, "updated_at": 1776736855475, "version": "0.1.0"}, {"category": "", "created_at": 1774910799651, "description": "Summarize core safety information from Investigator's Brochures for clinical researchers", "description_zh": "", "downloads": 37, "homepage": "https://clawhub.ai/aipoch-ai/ib-summarizer", "iconUrl": null, "installs": 3, "name": "Ib Summarizer", "ownerName": "aipoch-ai", "score": 38144.32989690721, "slug": "ib-summarizer", "source": "clawhub", "stars": 0, "tags": null, "updated_at": 1776733669878, "version": "0.1.0"}, {"category": "", "created_at": 1774901707807, "description": "Use when wanting to discover hidden strengths, industry buzzwords, and career narratives from past projects, articles, or code — for resumes, self-introducti...", "description_zh": "", "downloads": 37, "homepage": "https://clawhub.ai/realzst/career-spotlight-finder", "iconUrl": null, "installs": 1, "name": "Career Spotlight Finder", "ownerName": "realzst", "score": 33944.95412844037, "slug": "career-spotlight-finder", "source": "clawhub", "stars": 0, "tags": null, "updated_at": 1776732004672, "version": "1.0.2"}, {"category": "", "created_at": 1774861823022, "description": "Reference tool for devtools — covers intro, quickstart, patterns and more. Quick lookup for Subtitle Translator concepts, best practices, and implementation ...", "description_zh": "", "downloads": 37, "homepage": "https://clawhub.ai/bytesagain3/subtitle-translator", "iconUrl": null, "installs": 0, "name": "Subtitle Translator", "ownerName": "bytesagain3", "score": 35576.92307692308, "slug": "subtitle-translator", "source": "clawhub", "stars": 0, "tags": null, "updated_at": 1776723283657, "version": "2.0.1"}, {"category": "", "created_at": 1774861767545, "description": "Reference tool for devtools — covers intro, quickstart, patterns and more. Quick lookup for Social Scraper concepts, best practices, and implementation patte...", "description_zh": "", "downloads": 37, "homepage": "https://clawhub.ai/ckchzh/social-scraper", "iconUrl": null, "installs": 0, "name": "Social Scraper", "ownerName": "ckchzh", "score": 35576.92307692308, "slug": "social-scraper", "source": "clawhub", "stars": 0, "tags": null, "updated_at": 1776723169742, "version": "2.0.2"}, {"category": "", "created_at": 1774919457899, "description": "Design and implement automation workflows to save time and scale operations as a solopreneur. Use when identifying repetitive tasks to automate, building wor...", "description_zh": "", "downloads": 37, "homepage": "https://clawhub.ai/raidan-ai/automation-workflows-0-1-0-custom", "iconUrl": null, "installs": 0, "name": "Automation Workflows 0.1.0", "ownerName": "raidan-ai", "score": 37373.73737373738, "slug": "automation-workflows-0-1-0-custom", "source": "clawhub", "stars": 0, "tags": null, "updated_at": 1776711655463, "version": "1.0.1"}, {"category": "", "created_at": 1774911021467, "description": "Use GitHub Copilot as your OpenClaw coding agent via the built-in copilot-bridge. Use when setting up Copilot for the first time, switching the default model...", "description_zh": "", "downloads": 37, "homepage": "https://clawhub.ai/yanglinzhen/openclaw-github-copilot", "iconUrl": null, "installs": 3, "name": "OpenClaw GitHub Copilot", "ownerName": "yanglinzhen", "score": 37755.102040816324, "slug": "openclaw-github-copilot", "source": "clawhub", "stars": 0, "tags": ["copilot", "github", "openclaw"], "updated_at": 1776708469632, "version": "1.0.0"}]}