{"page": 455, "total_pages": 522, "total": 26073, "skills": [{"category": "", "created_at": 1774946402213, "description": "CIDR and subnet calculator for network engineers. Calculate network address, broadcast, host range, subnet mask, wildcard mask, and more from CIDR notation....", "description_zh": "", "downloads": 37, "homepage": "https://clawhub.ai/johnnywang2001/subnet-calc", "iconUrl": null, "installs": 3, "name": "Subnet Calc", "ownerName": "johnnywang2001", "score": 38144.32989690721, "slug": "subnet-calc", "source": "clawhub", "stars": 0, "tags": null, "updated_at": 1776700369731, "version": "1.0.0"}, {"category": "", "created_at": 1774859519055, "description": "Run stopwatch, timer, and lap tracking with precision in terminal. Use when timing tasks, checking durations, running countdowns, analyzing splits.", "description_zh": "", "downloads": 37, "homepage": "https://clawhub.ai/ckchzh/stopwatch", "iconUrl": null, "installs": 0, "name": "Stopwatch", "ownerName": "ckchzh", "score": 100000, "slug": "stopwatch", "source": "clawhub", "stars": 0, "tags": null, "updated_at": 1776698983704, "version": "2.0.0"}, {"category": "developer-tools", "created_at": 1773083083749, "description": "Brand-level orchestration skill for Lanbow, a unified app that manages ads operations and enterprise growth decisions across Meta (Facebook/Instagram), Googl...", "description_zh": "", "downloads": 37, "homepage": "https://clawhub.ai/danyangliu-sandwichlab/lanbow", "iconUrl": null, "installs": 6, "name": "Lanbow", "ownerName": "danyangliu-sandwichlab", "score": 97368.42105263159, "slug": "lanbow", "source": "clawhub", "stars": 0, "tags": null, "updated_at": 1776697670421, "version": "1.0.0"}, {"category": "", "created_at": 1774866883247, "description": "When the user wants to design, optimize, or audit grid layouts for content display. Also use when the user mentions \"grid layout,\" \"grid design,\" \"multi-colu...", "description_zh": "", "downloads": 37, "homepage": "https://clawhub.ai/kostja94/grid", "iconUrl": null, "installs": 1, "name": "grid", "ownerName": "kostja94", "score": 97368.42105263159, "slug": "grid", "source": "clawhub", "stars": 0, "tags": null, "updated_at": 1776697670404, "version": "1.0.0"}, {"category": "developer-tools", "created_at": 1773066653935, "description": "Access the best free AI models. $2 FREE credits included. No credit card required to start. No API keys needed. $2 FREE credits to start. Pay-as-you-go via S...", "description_zh": "", "downloads": 37, "homepage": "https://clawhub.ai/xiaoyinqu/best-free-ai", "iconUrl": null, "installs": 4, "name": "Best Free Ai", "ownerName": "xiaoyinqu", "score": 97368.42105263159, "slug": "best-free-ai", "source": "clawhub", "stars": 0, "tags": null, "updated_at": 1776697670402, "version": "1.0.2"}, {"category": "", "created_at": 1774911657467, "description": "Deep ETL/ELT design workflow—extract patterns, transforms, loading strategies, idempotency, validation, and reconciliation. Use when designing batch data flo...", "description_zh": "", "downloads": 37, "homepage": "https://clawhub.ai/mike47512/etl-design", "iconUrl": null, "installs": 1, "name": "Etl Design", "ownerName": "mike47512", "score": 97368.42105263159, "slug": "etl-design", "source": "clawhub", "stars": 0, "tags": null, "updated_at": 1776697670392, "version": "1.0.0"}, {"category": "", "created_at": 1774865881456, "description": "Safely deploys Move contracts to Aptos networks (devnet, testnet, mainnet) with pre-deployment verification. Triggers on: 'deploy contract', 'publish to test...", "description_zh": "", "downloads": 37, "homepage": "https://clawhub.ai/iskysun96/deploy-contracts", "iconUrl": null, "installs": 1, "name": "Deploy Contracts", "ownerName": "iskysun96", "score": 97368.42105263159, "slug": "deploy-contracts", "source": "clawhub", "stars": 0, "tags": null, "updated_at": 1776697670387, "version": "1.0.0"}, {"category": "", "created_at": 1774880858923, "description": "Improve a skill package so AI agents can find, select, and trust it across registries and ecosystems, including Codex, Claude-style agents, OpenClaw, and oth...", "description_zh": "", "downloads": 37, "homepage": "https://clawhub.ai/langyou/skill-discovery-seo", "iconUrl": null, "installs": 7, "name": "Skill Discovery SEO", "ownerName": "langyou", "score": 97368.42105263159, "slug": "skill-discovery-seo", "source": "clawhub", "stars": 0, "tags": ["agent-registry", "agent-tools", "discoverability", "metadata", "prompt-design", "search", "semantic-retrieval", "skill-seo"], "updated_at": 1776697670382, "version": "1.0.0"}, {"category": "", "created_at": 1774840786808, "description": "Security best practices for credential protection, information disclosure prevention, and operational integrity.", "description_zh": "", "downloads": 37, "homepage": "https://clawhub.ai/z-hussein/security-shield", "iconUrl": null, "installs": 0, "name": "Security-Shield", "ownerName": "z-hussein", "score": 97368.42105263159, "slug": "security-shield", "source": "clawhub", "stars": 0, "tags": null, "updated_at": 1776697670379, "version": "1.1.0"}, {"category": "", "created_at": 1774811444288, "description": "Daily news and hot topics via the 6551 API. Supports news categories, hot news articles, and trending tweets by category.", "description_zh": "", "downloads": 37, "homepage": "https://clawhub.ai/infra403/6551-daily-news", "iconUrl": null, "installs": 0, "name": "Daily News", "ownerName": "infra403", "score": 97368.42105263159, "slug": "6551-daily-news", "source": "clawhub", "stars": 0, "tags": null, "updated_at": 1776697670341, "version": "0.1.0"}, {"category": "", "created_at": 1774944114384, "description": "Use the Knowhere OpenClaw plugin to ingest local files or URLs, search stored documents, inspect parsed results, check jobs, and clean up stored document state.", "description_zh": "", "downloads": 37, "homepage": "https://clawhub.ai/erickthoughts/clawhub-knowhere", "iconUrl": null, "installs": 2, "name": "Knowhere", "ownerName": "erickthoughts", "score": 97368.42105263159, "slug": "clawhub-knowhere", "source": "clawhub", "stars": 0, "tags": null, "updated_at": 1776697670339, "version": "0.1.0-beta.0"}, {"category": "", "created_at": 1774870805712, "description": "Interact with Tractus-X EDC (Eclipse Data Connector) control plane API v3 for managing assets, contract negotiations, policies, and data transfers.", "description_zh": "", "downloads": 37, "homepage": "https://clawhub.ai/shibazishiye/tractusx-edc", "iconUrl": null, "installs": 3, "name": "Tractusx EDC", "ownerName": "shibazishiye", "score": 97368.42105263159, "slug": "tractusx-edc", "source": "clawhub", "stars": 0, "tags": null, "updated_at": 1776697670322, "version": "1.0.1"}, {"category": "", "created_at": 1774911050054, "description": "Turn customer-support and pre-sales conversations into product-detail-page (PDP) copy—especially FAQs and objection-handling blocks—by mining recent tickets/...", "description_zh": "", "downloads": 37, "homepage": "https://clawhub.ai/rijoyai/pdq-faq-from-support", "iconUrl": null, "installs": 2, "name": "FAQ Support", "ownerName": "rijoyai", "score": 97368.42105263159, "slug": "pdq-faq-from-support", "source": "clawhub", "stars": 0, "tags": null, "updated_at": 1776697670315, "version": "1.0.0"}, {"category": "", "created_at": 1774894624418, "description": "Expert guidance for systematic backtesting of trading strategies. Use when developing, testing, stress-testing, or validating quantitative trading strategies...", "description_zh": "", "downloads": 37, "homepage": "https://clawhub.ai/clawdiri-ai/einstein-research-backtest-dv", "iconUrl": null, "installs": 5, "name": "Backtest Expert - Strategy Validation", "ownerName": "clawdiri-ai", "score": 97368.42105263159, "slug": "einstein-research-backtest-dv", "source": "clawhub", "stars": 0, "tags": null, "updated_at": 1776697670276, "version": "0.1.0"}, {"category": "", "created_at": 1774890705003, "description": "Learn DevOps on LabEx through culture and toolchain courses plus CI/CD and ops labs. DevOps courses and labs from the MCP catalog; align picks with how LabEx...", "description_zh": "", "downloads": 37, "homepage": "https://clawhub.ai/huhuhang/learn-devops", "iconUrl": null, "installs": 1, "name": "Learn DevOps", "ownerName": "huhuhang", "score": 97368.42105263159, "slug": "learn-devops", "source": "clawhub", "stars": 0, "tags": null, "updated_at": 1776697670205, "version": "1.0.1"}, {"category": "", "created_at": 1774908220865, "description": "Bitbucket Cloud wrapper optimized for Pull Request Code Analysis. Enables the agent to securely review Pull Requests, split large diffs by file, review code...", "description_zh": "", "downloads": 37, "homepage": "https://clawhub.ai/zan768616253/bitbucket-toolbox", "iconUrl": null, "installs": 0, "name": "Bitbucket Toolbox", "ownerName": "zan768616253", "score": 97368.42105263159, "slug": "bitbucket-toolbox", "source": "clawhub", "stars": 0, "tags": null, "updated_at": 1776697670178, "version": "1.1.2"}, {"category": "", "created_at": 1774861144845, "description": "When the user wants to design, optimize, or audit masonry (Pinterest-style) layouts for content display. Also use when the user mentions \"masonry layout,\" \"m...", "description_zh": "", "downloads": 37, "homepage": "https://clawhub.ai/kostja94/masonry", "iconUrl": null, "installs": 0, "name": "masonry", "ownerName": "kostja94", "score": 97368.42105263159, "slug": "masonry", "source": "clawhub", "stars": 0, "tags": null, "updated_at": 1776697670118, "version": "1.1.0"}, {"category": "", "created_at": 1774842618583, "description": "Qryma AI Search retrieves Web information and returns LLM-friendly data. Get started for free, just sign up.", "description_zh": "", "downloads": 37, "homepage": "https://clawhub.ai/qryma888/qryma-search", "iconUrl": null, "installs": 0, "name": "Qryma Search", "ownerName": "qryma888", "score": 97368.42105263159, "slug": "qryma-search", "source": "clawhub", "stars": 0, "tags": null, "updated_at": 1776697670116, "version": "1.1.9"}, {"category": "", "created_at": 1774835344950, "description": "China fund & stock data assistant (free API, no API key required). Query fund valuation, NAV, holdings, manager info, stock/index quotes, market capital flow...", "description_zh": "", "downloads": 37, "homepage": "https://clawhub.ai/smallke/cn-funds-mcp", "iconUrl": null, "installs": 2, "name": "cn-funds-mcp", "ownerName": "smallke", "score": 97368.42105263159, "slug": "cn-funds-mcp", "source": "clawhub", "stars": 0, "tags": null, "updated_at": 1776697670113, "version": "1.0.1"}, {"category": "", "created_at": 1774899796500, "description": "AI video creation and editing — generate videos from text descriptions, edit with background music, sound effects, titles, transitions, and export finished M...", "description_zh": "", "downloads": 37, "homepage": "https://clawhub.ai/imo14reifey/imt-vt-a", "iconUrl": null, "installs": 2, "name": "A", "ownerName": "imo14reifey", "score": 97368.42105263159, "slug": "imt-vt-a", "source": "clawhub", "stars": 0, "tags": null, "updated_at": 1776697670083, "version": "1.0.0"}, {"category": "", "created_at": 1774847121264, "description": "Apply Sun Tzu's Art of War principles to AI agent organization and task orchestration. Use when planning multi-agent workflows, evaluating whether to deploy...", "description_zh": "", "downloads": 37, "homepage": "https://clawhub.ai/wanikua/art-of-war", "iconUrl": null, "installs": 2, "name": "Art of War", "ownerName": "wanikua", "score": 97368.42105263159, "slug": "art-of-war", "source": "clawhub", "stars": 0, "tags": null, "updated_at": 1776697670081, "version": "2.0.1"}, {"category": "", "created_at": 1774862040596, "description": "Self-review gate for UI/UX work before delivering to the user. Run automatically after building, modifying, or completing any user-facing feature, page, comp...", "description_zh": "", "downloads": 37, "homepage": "https://clawhub.ai/michellebolander/ux-qa-gate", "iconUrl": null, "installs": 2, "name": "UX QA Gate", "ownerName": "michellebolander", "score": 97368.42105263159, "slug": "ux-qa-gate", "source": "clawhub", "stars": 0, "tags": null, "updated_at": 1776697670017, "version": "1.0.0"}, {"category": "", "created_at": 1774919984258, "description": "Harness grok-ai capabilities inside ClawHub to dissect, annotate, and transform your video content with razor-sharp intelligence. This skill lets you query f...", "description_zh": "", "downloads": 37, "homepage": "https://clawhub.ai/imo14reifey/grok-ai", "iconUrl": null, "installs": 4, "name": "Grok Ai", "ownerName": "imo14reifey", "score": 97368.42105263159, "slug": "grok-ai", "source": "clawhub", "stars": 0, "tags": null, "updated_at": 1776697670010, "version": "1.0.1"}, {"category": "", "created_at": 1774950797547, "description": "Provide personal growth, habit formation, goal setting, and self-improvement guidance. Use when user wants to (1) set and achieve goals, (2) build good habit...", "description_zh": "", "downloads": 37, "homepage": "https://clawhub.ai/harrylabsj/personal-growth-advisor", "iconUrl": null, "installs": 3, "name": "Personal Growth Advisor", "ownerName": "harrylabsj", "score": 97368.42105263159, "slug": "personal-growth-advisor", "source": "clawhub", "stars": 0, "tags": null, "updated_at": 1776697670008, "version": "1.0.0"}, {"category": "", "created_at": 1774884831378, "description": "React and Next.js performance optimization guidelines from Vercel Engineering. This skill should be used when writing, reviewing, or refactoring React/Next.j...", "description_zh": "", "downloads": 37, "homepage": "https://clawhub.ai/mutsunico/react-best-practices-2-0-1-0", "iconUrl": null, "installs": 4, "name": "React Best Practices 2 0.1.0", "ownerName": "mutsunico", "score": 97368.42105263159, "slug": "react-best-practices-2-0-1-0", "source": "clawhub", "stars": 0, "tags": null, "updated_at": 1776697669996, "version": "1.0.0"}, {"category": "", "created_at": 1774905230165, "description": "Amazon ASIN visual data collection and monitoring agent. Zero-code collection of Amazon ASIN and competitor data, supports scheduled tasks, real-time alerts,...", "description_zh": "", "downloads": 37, "homepage": "https://clawhub.ai/mguozhen/amz-asin-data-tracker", "iconUrl": null, "installs": 5, "name": "Amz Asin Data Tracker", "ownerName": "mguozhen", "score": 97368.42105263159, "slug": "amz-asin-data-tracker", "source": "clawhub", "stars": 0, "tags": null, "updated_at": 1776697669986, "version": "1.0.0"}, {"category": "", "created_at": 1774823931609, "description": "Creates beautiful HTML slides using Reveal.js via CDN. Outputs a single HTML file.", "description_zh": "", "downloads": 37, "homepage": "https://clawhub.ai/tomowang/revealjs-slide-creator", "iconUrl": null, "installs": 2, "name": "Revealjs Slide Creator", "ownerName": "tomowang", "score": 60655.737704918036, "slug": "revealjs-slide-creator", "source": "clawhub", "stars": 0, "tags": null, "updated_at": 1776697669962, "version": "0.1.2"}, {"category": "", "created_at": 1774896993475, "description": "Inspect, explain, validate, and convert ESRI Shapefile datasets, including `.shp/.shx/.dbf/.prj` sidecar requirements, CRS detection, field-name/type limits,...", "description_zh": "", "downloads": 37, "homepage": "https://clawhub.ai/jvy/shapefile", "iconUrl": null, "installs": 3, "name": "shapefile", "ownerName": "jvy", "score": 60655.737704918036, "slug": "shapefile", "source": "clawhub", "stars": 0, "tags": null, "updated_at": 1776697669957, "version": "1.0.0"}, {"category": "", "created_at": 1774916987756, "description": "Use the MemOS Lite memory system to search and use the user's past conversations. Use this skill whenever the user refers to past chats, their own preference...", "description_zh": "", "downloads": 37, "homepage": "https://clawhub.ai/andy27725/memos-memory-guide-backup", "iconUrl": null, "installs": 5, "name": "Memos Memory Guide Backup", "ownerName": "andy27725", "score": 60655.737704918036, "slug": "memos-memory-guide-backup", "source": "clawhub", "stars": 0, "tags": null, "updated_at": 1776697669924, "version": "1.0.0"}, {"category": "", "created_at": 1774868991910, "description": "Generate 3D models, textures, images, rig characters, animate them, and prepare for 3D printing using the Meshy AI API. Handles API key detection, task creat...", "description_zh": "", "downloads": 37, "homepage": "https://clawhub.ai/arlieeee/meshy-openclaw", "iconUrl": null, "installs": 4, "name": "Meshy Openclaw", "ownerName": "arlieeee", "score": 60655.737704918036, "slug": "meshy-openclaw", "source": "clawhub", "stars": 0, "tags": null, "updated_at": 1776697669919, "version": "0.1.1"}, {"category": "", "created_at": 1774867125354, "description": "World-class autonomous writing and copywriting skill system. Use ANY time the user asks to write, draft, create copy, edit, rewrite, craft emails, write soci...", "description_zh": "", "downloads": 37, "homepage": "https://clawhub.ai/tenlifejosh/scribe-docs", "iconUrl": null, "installs": 2, "name": "Scribe Docs — World-Class AI Writing & Copy System", "ownerName": "tenlifejosh", "score": 60655.737704918036, "slug": "scribe-docs", "source": "clawhub", "stars": 0, "tags": ["content", "copy", "copywriting", "email", "marketing", "scribe", "social", "voice", "writing"], "updated_at": 1776697669918, "version": "1.0.1"}, {"category": "", "created_at": 1774864144143, "description": "When the user wants to plan, create, or market a podcast. Also use when the user mentions \"podcast,\" \"podcast strategy,\" \"podcast SEO,\" \"show notes,\" \"podcas...", "description_zh": "", "downloads": 37, "homepage": "https://clawhub.ai/kostja94/podcast-marketing", "iconUrl": null, "installs": 1, "name": "podcast-marketing", "ownerName": "kostja94", "score": 60655.737704918036, "slug": "podcast-marketing", "source": "clawhub", "stars": 0, "tags": null, "updated_at": 1776697669914, "version": "1.0.0"}, {"category": "", "created_at": 1774909606706, "description": "Cookie Information integration. Manage data, records, and automate workflows. Use when the user wants to interact with Cookie Information data.", "description_zh": "", "downloads": 37, "homepage": "https://clawhub.ai/gora050/cookie-information", "iconUrl": null, "installs": 3, "name": "Cookie Information", "ownerName": "gora050", "score": 60655.737704918036, "slug": "cookie-information", "source": "clawhub", "stars": 0, "tags": null, "updated_at": 1776697669913, "version": "1.0.0"}, {"category": "", "created_at": 1774884579777, "description": "Enable AI to learn from mistakes and never repeat them. Error tracking, layered memory, regular self-reflection, continuous improvement.", "description_zh": "", "downloads": 37, "homepage": "https://clawhub.ai/wangssi1998-cell/memory-structure", "iconUrl": null, "installs": 4, "name": "Memory Structure", "ownerName": "wangssi1998-cell", "score": 97368.42105263159, "slug": "memory-structure", "source": "clawhub", "stars": 0, "tags": null, "updated_at": 1776697669900, "version": "1.0.4"}, {"category": "", "created_at": 1774952102956, "description": "Parent-confirmed homework intake, Pomodoro execution, nightly completion checks, and reward approval.", "description_zh": "", "downloads": 37, "homepage": "https://clawhub.ai/ztl970/family-homework-pomodoro", "iconUrl": null, "installs": 0, "name": "Family Homework Pomodoro", "ownerName": "ztl970", "score": 97368.42105263159, "slug": "family-homework-pomodoro", "source": "clawhub", "stars": 0, "tags": null, "updated_at": 1776697669862, "version": "1.0.1"}, {"category": "", "created_at": 1774895292415, "description": "Podcast copilot workflows with podwise CLI: search podcasts or episodes by keyword, monitor followed shows for new releases, find current popular episodes, a...", "description_zh": "", "downloads": 37, "homepage": "https://clawhub.ai/skoowoo/podwise-podcast-copilot", "iconUrl": null, "installs": 2, "name": "podwise-podcast-copilot", "ownerName": "skoowoo", "score": 97368.42105263159, "slug": "podwise-podcast-copilot", "source": "clawhub", "stars": 0, "tags": null, "updated_at": 1776697669848, "version": "0.2.0"}, {"category": "", "created_at": 1774942543727, "description": "Analyze GA4 data, detect traffic anomalies, and generate actionable growth recommendations. Use when the user needs revenue tracking, anomaly detection, or t...", "description_zh": "", "downloads": 37, "homepage": "https://clawhub.ai/ncreighton/google-analytics-intelligence", "iconUrl": null, "installs": 3, "name": "Google Analytics Intelligence", "ownerName": "ncreighton", "score": 97368.42105263159, "slug": "google-analytics-intelligence", "source": "clawhub", "stars": 0, "tags": null, "updated_at": 1776697669839, "version": "1.0.0"}, {"category": "", "created_at": 1774860144183, "description": "Complete operational playbook for Fractional CFO engagements. Covers client onboarding financial assessment, monthly close cadence, board-ready reporting pac...", "description_zh": "", "downloads": 37, "homepage": "https://clawhub.ai/samledger67-dotcom/fractional-cfo-playbook", "iconUrl": null, "installs": 2, "name": "Fractional CFO Playbook", "ownerName": "samledger67-dotcom", "score": 97368.42105263159, "slug": "fractional-cfo-playbook", "source": "clawhub", "stars": 0, "tags": null, "updated_at": 1776697669835, "version": "1.0.0"}, {"category": "", "created_at": 1774923159191, "description": "Audit a URL for SEO factors and generate an actionable markdown report. Use when asked to analyze, check, or audit a webpage's SEO performance. Covers title,...", "description_zh": "", "downloads": 37, "homepage": "https://clawhub.ai/kryzl19/seo-reporter-kryzl19", "iconUrl": null, "installs": 5, "name": "Seo Reporter", "ownerName": "kryzl19", "score": 97368.42105263159, "slug": "seo-reporter-kryzl19", "source": "clawhub", "stars": 0, "tags": null, "updated_at": 1776697669816, "version": "1.0.0"}, {"category": "", "created_at": 1774904938147, "description": "Storyblok integration. Manage Stories, Spaces. Use when the user wants to interact with Storyblok data.", "description_zh": "", "downloads": 37, "homepage": "https://clawhub.ai/gora050/storyblok", "iconUrl": null, "installs": 0, "name": "Storyblok", "ownerName": "gora050", "score": 97368.42105263159, "slug": "storyblok", "source": "clawhub", "stars": 0, "tags": null, "updated_at": 1776697669814, "version": "1.0.0"}, {"category": "", "created_at": 1774899607936, "description": "CLI to manage emails via IMAP/SMTP. Use `himalaya` to list, read, write, reply, forward, search, and organize emails from the terminal. Supports multiple acc...", "description_zh": "", "downloads": 37, "homepage": "https://clawhub.ai/utromaya-code/email-cli-manager", "iconUrl": null, "installs": 3, "name": "Himalaya", "ownerName": "utromaya-code", "score": 97368.42105263159, "slug": "email-cli-manager", "source": "clawhub", "stars": 0, "tags": null, "updated_at": 1776697669806, "version": "1.0.0"}, {"category": "data-analysis", "created_at": 1773081819901, "description": "CRM pipeline, cross-module analytics, and AI-powered business analysis for ERPClaw. 65 actions across 3 domains: lead management, opportunity pipeline, KPI d...", "description_zh": "", "downloads": 37, "homepage": "https://clawhub.ai/mailnike/erpclaw-growth", "iconUrl": null, "installs": 8, "name": "Erpclaw Growth", "ownerName": "mailnike", "score": 97368.42105263159, "slug": "erpclaw-growth", "source": "clawhub", "stars": 0, "tags": null, "updated_at": 1776697669799, "version": "2.1.0"}, {"category": "", "created_at": 1774947626518, "description": "Academic literature discovery and citation network analysis. Multi-source search across arXiv, DBLP, Semantic Scholar, and Google Scholar. Build citation net...", "description_zh": "", "downloads": 37, "homepage": "https://clawhub.ai/jiahaowugit/openpapergraph", "iconUrl": null, "installs": 4, "name": "OpenPaperGraph", "ownerName": "jiahaowugit", "score": 97368.42105263159, "slug": "openpapergraph", "source": "clawhub", "stars": 0, "tags": null, "updated_at": 1776697669789, "version": "1.0.0"}, {"category": "", "created_at": 1774925541620, "description": "Design personalization strategies for e-commerce stores. Product recommendations, dynamic content, customer segmentation, and personalized email/SMS based on...", "description_zh": "", "downloads": 37, "homepage": "https://clawhub.ai/nexscope/ecommerce-personalization", "iconUrl": null, "installs": 0, "name": "E-Commerce Personalization", "ownerName": "nexscope", "score": 97368.42105263159, "slug": "ecommerce-personalization", "source": "clawhub", "stars": 0, "tags": null, "updated_at": 1776697669722, "version": "1.0.0"}, {"category": "", "created_at": 1774875799350, "description": "Discover, store, and inspect AI model catalog entries from one or more sources. Use when the user wants to sync a model catalog into SQLite, see newly discov...", "description_zh": "", "downloads": 37, "homepage": "https://clawhub.ai/hoopan007/model-watcher", "iconUrl": null, "installs": 2, "name": "AI Model Watcher", "ownerName": "hoopan007", "score": 97368.42105263159, "slug": "model-watcher", "source": "clawhub", "stars": 0, "tags": ["ai", "catalog", "discovery", "models", "sqlite", "tracking", "watcher"], "updated_at": 1776697669698, "version": "1.0.0"}, {"category": "", "created_at": 1774884144837, "description": "Analyze consensus operations. Use when you need to understand consensus mechanisms, evaluate protocol security, or reference on-chain concepts.", "description_zh": "", "downloads": 37, "homepage": "https://clawhub.ai/ckchzh/consensus", "iconUrl": null, "installs": 0, "name": "Consensus", "ownerName": "ckchzh", "score": 97368.42105263159, "slug": "consensus", "source": "clawhub", "stars": 0, "tags": null, "updated_at": 1776697669686, "version": "1.0.0"}, {"category": "", "created_at": 1774845158814, "description": "Find suppliers, manufacturers, service providers, fulfillment partners, and sourcing options for ecommerce workflows. Use when the user wants help finding ve...", "description_zh": "", "downloads": 37, "homepage": "https://clawhub.ai/leooooooow/find-vendors", "iconUrl": null, "installs": 5, "name": "Find Vendors", "ownerName": "leooooooow", "score": 97368.42105263159, "slug": "find-vendors", "source": "clawhub", "stars": 0, "tags": null, "updated_at": 1776697669611, "version": "1.0.0"}, {"category": "", "created_at": 1774912778548, "description": "Finnhub integration. Manage data, records, and automate workflows. Use when the user wants to interact with Finnhub data.", "description_zh": "", "downloads": 37, "homepage": "https://clawhub.ai/membranedev/finnhub-integration", "iconUrl": null, "installs": 3, "name": "Finnhub", "ownerName": "membranedev", "score": 97368.42105263159, "slug": "finnhub-integration", "source": "clawhub", "stars": 0, "tags": null, "updated_at": 1776697669600, "version": "1.0.0"}, {"category": "", "created_at": 1774775117107, "description": "AI-powered data analytics knowledge management. Search data pipeline documentation, dashboard specifications, data governance policies, and reporting standar...", "description_zh": "", "downloads": 37, "homepage": "https://clawhub.ai/roojenkins/uplo-data-analytics", "iconUrl": null, "installs": 5, "name": "Uplo Data Analytics", "ownerName": "roojenkins", "score": 97368.42105263159, "slug": "uplo-data-analytics", "source": "clawhub", "stars": 0, "tags": null, "updated_at": 1776697669590, "version": "1.0.0"}, {"category": "", "created_at": 1774790191171, "description": "tuya-smart-control is an official AI Agent skill for the OpenClaw platform, built on Tuya's 2C end-user APIs. It brings developers the industry's broadest AI...", "description_zh": "", "downloads": 37, "homepage": "https://clawhub.ai/gaosq856/tuya-smart-control", "iconUrl": null, "installs": 5, "name": "Tuya Smart Control", "ownerName": "gaosq856", "score": 35238.095238095244, "slug": "tuya-smart-control", "source": "clawhub", "stars": 0, "tags": null, "updated_at": 1776697669563, "version": "1.0.2"}]}