{"page": 456, "total_pages": 522, "total": 26073, "skills": [{"category": "", "created_at": 1774900401858, "description": "Tutorial patterns for documentation - learning-oriented guides that teach through guided doing", "description_zh": "", "downloads": 36, "homepage": "https://clawhub.ai/anderskev/tutorial-docs", "iconUrl": null, "installs": 1, "name": "Tutorial Docs", "ownerName": "anderskev", "score": 1224.9064307587616, "slug": "tutorial-docs", "source": "clawhub", "stars": 0, "tags": null, "updated_at": 1776769271109, "version": "1.1.0"}, {"category": "", "created_at": 1774907078686, "description": "Reviews SwiftData code for model design, queries, concurrency, and migrations. Use when reviewing .swift files with import SwiftData, @Model, @Query, @ModelA...", "description_zh": "", "downloads": 36, "homepage": "https://clawhub.ai/anderskev/swiftdata-code-review", "iconUrl": null, "installs": 6, "name": "Swiftdata Code Review", "ownerName": "anderskev", "score": 1279.3176972281449, "slug": "swiftdata-code-review", "source": "clawhub", "stars": 0, "tags": null, "updated_at": 1776766667446, "version": "1.2.0"}, {"category": "", "created_at": 1774902659203, "description": "Execute terminal commands safely and reliably with clear pre-checks, output validation, and recovery steps. Use when users ask to run shell/CLI commands, ins...", "description_zh": "", "downloads": 36, "homepage": "https://clawhub.ai/1215656/terminal-command-execution-1-0-0", "iconUrl": null, "installs": 3, "name": "Terminal Command Execution@1.0.0", "ownerName": "1215656", "score": 2945.9901800327334, "slug": "terminal-command-execution-1-0-0", "source": "clawhub", "stars": 0, "tags": null, "updated_at": 1776760620582, "version": "1.0.0"}, {"category": "", "created_at": 1774924429254, "description": "Trade security tokens on the MSX platform — check balances, place orders, view market data, and review trade history.", "description_zh": "", "downloads": 36, "homepage": "https://clawhub.ai/seineruo/msx-trading", "iconUrl": null, "installs": 5, "name": "msx-trading", "ownerName": "seineruo", "score": 2268.4310018903593, "slug": "msx-trading", "source": "clawhub", "stars": 0, "tags": null, "updated_at": 1776759982849, "version": "1.0.0"}, {"category": "", "created_at": 1774916942234, "description": "Autonomous behavioral research loop that optimizes agent behavior through correction tracking and multi-perspective (MAGI) verification.", "description_zh": "", "downloads": 36, "homepage": "https://clawhub.ai/teenu/magi", "iconUrl": null, "installs": 6, "name": "MAGI Self-Improving", "ownerName": "teenu", "score": 2475.9284731774414, "slug": "magi", "source": "clawhub", "stars": 0, "tags": null, "updated_at": 1776758482774, "version": "1.2.0"}, {"category": "", "created_at": 1774912300643, "description": "Deep vector database workflow—embedding choice, index algorithms, recall/latency trade-offs, hybrid search, filtering, operational tuning, and cost. Use when...", "description_zh": "", "downloads": 36, "homepage": "https://clawhub.ai/clawkk/vector-databases", "iconUrl": null, "installs": 2, "name": "Vector Databases", "ownerName": "clawkk", "score": 6304.728546409808, "slug": "vector-databases", "source": "clawhub", "stars": 0, "tags": null, "updated_at": 1776748485595, "version": "1.0.0"}, {"category": "", "created_at": 1774871915625, "description": "Threat modeling with STRIDE, PASTA, and attack trees. Analyze architectures for security gaps, extract security requirements, build data flow diagrams, and p...", "description_zh": "", "downloads": 36, "homepage": "https://clawhub.ai/solomonneas/threat-modeling-expert", "iconUrl": null, "installs": 0, "name": "Threat Modeling Expert", "ownerName": "solomonneas", "score": 38709.67741935484, "slug": "threat-modeling-expert", "source": "clawhub", "stars": 0, "tags": null, "updated_at": 1776745484007, "version": "1.0.1"}, {"category": "", "created_at": 1774877700148, "description": "Parse receipts and invoices, categorize spend, detect anomalies, and produce tax-ready expense summaries for freelancers and SMB operators.", "description_zh": "", "downloads": 36, "homepage": "https://clawhub.ai/anugotta/receipt-expense-reconciler", "iconUrl": null, "installs": 1, "name": "Receipt and Expense Reconciler", "ownerName": "anugotta", "score": 34285.71428571428, "slug": "receipt-expense-reconciler", "source": "clawhub", "stars": 0, "tags": null, "updated_at": 1776745369774, "version": "1.0.0"}, {"category": "", "created_at": 1774895557070, "description": "Book Marriott hotels via Strider Labs MCP connector. Search properties worldwide, manage reservations, earn Bonvoy points. Complete autonomous hotel booking...", "description_zh": "", "downloads": 36, "homepage": "https://clawhub.ai/markswendsen-code/strider-marriott", "iconUrl": null, "installs": 4, "name": "Strider Marriott", "ownerName": "markswendsen-code", "score": 51428.57142857142, "slug": "strider-marriott", "source": "clawhub", "stars": 0, "tags": null, "updated_at": 1776743869882, "version": "1.0.0"}, {"category": "", "created_at": 1774898848185, "description": "Scans sports odds from traditional bookmakers (via The Odds API) to detect arbitrage opportunities — situations where two bookmakers offer contradictory odds...", "description_zh": "", "downloads": 36, "homepage": "https://clawhub.ai/mibayy/sports-arbitrage", "iconUrl": null, "installs": 1, "name": "Polymarket Sports Arbitrage", "ownerName": "mibayy", "score": 51428.57142857142, "slug": "sports-arbitrage", "source": "clawhub", "stars": 0, "tags": null, "updated_at": 1776743869791, "version": "1.0.1"}, {"category": "", "created_at": 1774922738036, "description": "Interview a user and build a personalized health-record system around their goals, reports, and tracking needs. Use when someone wants to organize their heal...", "description_zh": "", "downloads": 36, "homepage": "https://clawhub.ai/hsongra11/health-records-ingest", "iconUrl": null, "installs": 1, "name": "Health Recorts", "ownerName": "hsongra11", "score": 36734.69387755102, "slug": "health-records-ingest", "source": "clawhub", "stars": 0, "tags": null, "updated_at": 1776742804799, "version": "1.0.1"}, {"category": "", "created_at": 1774917779213, "description": "Expert book recommendation engine via web search. Finds high-quality books (Douban ≥7.5 or Goodreads ≥3.8) based on topic, with deduplication and comprehensi...", "description_zh": "", "downloads": 36, "homepage": "https://clawhub.ai/kedoupi/book-scout", "iconUrl": null, "installs": 3, "name": "AI Book Recommendation Engine（AI 书籍推荐引擎）", "ownerName": "kedoupi", "score": 36734.69387755102, "slug": "book-scout", "source": "clawhub", "stars": 0, "tags": ["books", "deduplication", "douban", "goodreads", "learning", "quality-filter", "reading", "recommendations", "scoring-algorithm"], "updated_at": 1776739969579, "version": "1.0.0"}, {"category": "", "created_at": 1774896955503, "description": "Analyze and generate robots.txt files with AI crawler awareness. Detect which AI bots (GPTBot, ClaudeBot, PerplexityBot, Google-Extended, etc.) are blocked o...", "description_zh": "", "downloads": 36, "homepage": "https://clawhub.ai/sharozdawa/robotstxt-ai", "iconUrl": null, "installs": 1, "name": "Robots Ai", "ownerName": "sharozdawa", "score": 37113.40206185567, "slug": "robotstxt-ai", "source": "clawhub", "stars": 0, "tags": null, "updated_at": 1776737870012, "version": "1.0.0"}, {"category": "", "created_at": 1774867161981, "description": "Reference tool for devtools — covers intro, quickstart, patterns and more. Quick lookup for Sketch Board concepts, best practices, and implementation patterns.", "description_zh": "", "downloads": 36, "homepage": "https://clawhub.ai/xueyetianya/sketch-board", "iconUrl": null, "installs": 3, "name": "Sketch Board", "ownerName": "xueyetianya", "score": 37113.40206185567, "slug": "sketch-board", "source": "clawhub", "stars": 0, "tags": null, "updated_at": 1776736970227, "version": "2.0.2"}, {"category": "", "created_at": 1774950604861, "description": "Two-module mental health protocol covering burnout recovery and sleep overhaul. Module A: structured burnout recovery using the Maslach framework — identify...", "description_zh": "", "downloads": 36, "homepage": "https://clawhub.ai/howtousehumans/mental-reset-suite", "iconUrl": null, "installs": 0, "name": "Mental Reset Suite", "ownerName": "howtousehumans", "score": 37113.40206185567, "slug": "mental-reset-suite", "source": "clawhub", "stars": 0, "tags": null, "updated_at": 1776736844585, "version": "1.0.0"}, {"category": "", "created_at": 1774920891310, "description": "Estimate LLM inference performance metrics including TTFT, decode speed, and VRAM requirements based on model architecture, GPU specs, and quantization format.", "description_zh": "", "downloads": 36, "homepage": "https://clawhub.ai/zhangyu68/llm-perf-estimator", "iconUrl": null, "installs": 1, "name": "LLM Inference Performance Estimator", "ownerName": "zhangyu68", "score": 37500, "slug": "llm-perf-estimator", "source": "clawhub", "stars": 0, "tags": null, "updated_at": 1776734269698, "version": "1.0.0"}, {"category": "", "created_at": 1774861082930, "description": "Reference tool for devtools — covers intro, quickstart, patterns and more. Quick lookup for JS Compiler concepts, best practices, and implementation patterns.", "description_zh": "", "downloads": 36, "homepage": "https://clawhub.ai/ckchzh/js-compiler", "iconUrl": null, "installs": 1, "name": "Js Compiler", "ownerName": "ckchzh", "score": 36734.69387755102, "slug": "js-compiler", "source": "clawhub", "stars": 0, "tags": null, "updated_at": 1776734083747, "version": "2.0.2"}, {"category": "", "created_at": 1774915407217, "description": "In-memory caching in Golang using samber/hot — eviction algorithms (LRU, LFU, TinyLFU, W-TinyLFU, S3FIFO, ARC, TwoQueue, SIEVE, FIFO), TTL, cache loaders, sh...", "description_zh": "", "downloads": 36, "homepage": "https://clawhub.ai/samber/golang-samber-hot", "iconUrl": null, "installs": 1, "name": "Golang Samber Hot", "ownerName": "samber", "score": 36734.69387755102, "slug": "golang-samber-hot", "source": "clawhub", "stars": 0, "tags": null, "updated_at": 1776733969687, "version": "0.1.0"}, {"category": "", "created_at": 1774885645860, "description": "Glide integration. Manage Applications. Use when the user wants to interact with Glide data.", "description_zh": "", "downloads": 36, "homepage": "https://clawhub.ai/gora050/glide", "iconUrl": null, "installs": 0, "name": "Glide", "ownerName": "gora050", "score": 100000, "slug": "glide", "source": "clawhub", "stars": 0, "tags": null, "updated_at": 1776697784567, "version": "1.0.0"}, {"category": "", "created_at": 1774951740111, "description": "When the user wants to optimize YouTube videos for search, create video descriptions, or improve channel visibility. Also use when the user mentions \"YouTube...", "description_zh": "", "downloads": 36, "homepage": "https://clawhub.ai/kostja94/youtube-seo", "iconUrl": null, "installs": 5, "name": "youtube-seo", "ownerName": "kostja94", "score": 100000, "slug": "youtube-seo", "source": "clawhub", "stars": 0, "tags": null, "updated_at": 1776697784553, "version": "1.1.0"}, {"category": "", "created_at": 1774910950143, "description": "Persistent structured memory system for OpenClaw agents with SQLite storage, hybrid search (FTS5 + decay scoring), rule-based capture, LLM-powered daily refl...", "description_zh": "", "downloads": 36, "homepage": "https://clawhub.ai/oleglegegg/memory-oracle", "iconUrl": null, "installs": 2, "name": "Memory Oracle", "ownerName": "oleglegegg", "score": 100000, "slug": "memory-oracle", "source": "clawhub", "stars": 0, "tags": null, "updated_at": 1776697784521, "version": "1.0.2"}, {"category": "", "created_at": 1774898637966, "description": "Professional quantitative trading risk management dashboard. Real-time VaR/CVaR calculation, stress testing, position limits, exposure monitoring, drawdown a...", "description_zh": "", "downloads": 36, "homepage": "https://clawhub.ai/jason-aka-chen/quant-risk-dashboard", "iconUrl": null, "installs": 5, "name": "Quant Risk Dashboard", "ownerName": "jason-aka-chen", "score": 100000, "slug": "quant-risk-dashboard", "source": "clawhub", "stars": 0, "tags": null, "updated_at": 1776697784410, "version": "1.0.0"}, {"category": "", "created_at": 1774913608595, "description": "Guides the agent through general Capacitor app development topics. Covers core concepts (native bridge, plugins, web layer), Capacitor CLI usage, app configu...", "description_zh": "", "downloads": 36, "homepage": "https://clawhub.ai/robingenz/capacitor-app-development", "iconUrl": null, "installs": 3, "name": "Capacitor App Development", "ownerName": "robingenz", "score": 100000, "slug": "capacitor-app-development", "source": "clawhub", "stars": 0, "tags": null, "updated_at": 1776697784392, "version": "1.0.0"}, {"category": "", "created_at": 1774850542110, "description": "Reference tool for devtools — covers intro, quickstart, patterns and more. Quick lookup for Backuptool concepts, best practices, and implementation patterns.", "description_zh": "", "downloads": 36, "homepage": "https://clawhub.ai/ckchzh/backuptool", "iconUrl": null, "installs": 0, "name": "Backuptool", "ownerName": "ckchzh", "score": 100000, "slug": "backuptool", "source": "clawhub", "stars": 0, "tags": null, "updated_at": 1776697784344, "version": "2.0.4"}, {"category": "", "created_at": 1774887723357, "description": "Orchestrate multi-agent teams with defined roles, task lifecycles, handoff protocols, and review workflows. Use when: (1) Setting up a team of 2+ agents with...", "description_zh": "", "downloads": 36, "homepage": "https://clawhub.ai/lean-zhouchao/agent-team-orchestration-bak", "iconUrl": null, "installs": 4, "name": "Agent Team Orchestration.Bak", "ownerName": "lean-zhouchao", "score": 100000, "slug": "agent-team-orchestration-bak", "source": "clawhub", "stars": 0, "tags": null, "updated_at": 1776697784343, "version": "1.0.0"}, {"category": "", "created_at": 1774850648994, "description": "Structured development workflow for OpenClaw agents - Brainstorm, Plan, Execute, Review. Brings systematic software development with TDD, clear specs, and su...", "description_zh": "", "downloads": 36, "homepage": "https://clawhub.ai/clawbotsai/clawbots-superclaw", "iconUrl": null, "installs": 4, "name": "Superclaw", "ownerName": "clawbotsai", "score": 100000, "slug": "clawbots-superclaw", "source": "clawhub", "stars": 0, "tags": null, "updated_at": 1776697784336, "version": "0.1.0"}, {"category": "", "created_at": 1774953392011, "description": "Count how many times each letter appears in a word or short phrase. Trigger when a user asks for per-letter frequencies, distributions, or statistics inside...", "description_zh": "", "downloads": 36, "homepage": "https://clawhub.ai/simmusjune/word-letter-frequency", "iconUrl": null, "installs": 5, "name": "word-letter-frequency", "ownerName": "simmusjune", "score": 36363.63636363637, "slug": "word-letter-frequency", "source": "clawhub", "stars": 0, "tags": null, "updated_at": 1776697784298, "version": "1.0.0"}, {"category": "", "created_at": 1774920152153, "description": "Scan MCP server configuration files for security vulnerabilities using mcpsec (OWASP MCP Top 10). Use when: auditing MCP tool configs for prompt injection, h...", "description_zh": "", "downloads": 36, "homepage": "https://clawhub.ai/pfrederiksen/mcpsec", "iconUrl": null, "installs": 1, "name": "Mcpsec", "ownerName": "pfrederiksen", "score": 36363.63636363637, "slug": "mcpsec", "source": "clawhub", "stars": 0, "tags": null, "updated_at": 1776697784282, "version": "1.0.4"}, {"category": "", "created_at": 1774921529524, "description": "Decode the hidden signals in your love life. This AI reads between the lines of romantic interactions — texts, behaviors, body language cues, and social medi...", "description_zh": "", "downloads": 36, "homepage": "https://clawhub.ai/imwyvern/love-decode", "iconUrl": null, "installs": 1, "name": "Love Decode Skill", "ownerName": "imwyvern", "score": 36363.63636363637, "slug": "love-decode", "source": "clawhub", "stars": 0, "tags": null, "updated_at": 1776697784270, "version": "1.0.0"}, {"category": "", "created_at": 1774903361481, "description": "Find the cheapest way to send money between any two currencies. Compares 22+ crypto exchanges and 19 remittance providers in real-time. Free, open source, no...", "description_zh": "", "downloads": 36, "homepage": "https://clawhub.ai/miguelvalenciav/money-router", "iconUrl": null, "installs": 0, "name": "Money Router", "ownerName": "miguelvalenciav", "score": 36363.63636363637, "slug": "money-router", "source": "clawhub", "stars": 0, "tags": null, "updated_at": 1776697784253, "version": "1.0.0"}, {"category": "", "created_at": 1774897697458, "description": "Bollinger reference tool. Use when working with bollinger in finance contexts.", "description_zh": "", "downloads": 36, "homepage": "https://clawhub.ai/bytesagain3/bollinger", "iconUrl": null, "installs": 2, "name": "Bollinger", "ownerName": "bytesagain3", "score": 100000, "slug": "bollinger", "source": "clawhub", "stars": 0, "tags": null, "updated_at": 1776697784209, "version": "1.0.0"}, {"category": "", "created_at": 1774875044350, "description": "Shared experience protocol for AI trading agents. Connects your agent to a verified network of trading decisions scored against real market outcomes — query...", "description_zh": "", "downloads": 36, "homepage": "https://clawhub.ai/zongming-he/agent-trading-atlas", "iconUrl": null, "installs": 1, "name": "agent-trading-atlas", "ownerName": "zongming-he", "score": 100000, "slug": "agent-trading-atlas", "source": "clawhub", "stars": 0, "tags": null, "updated_at": 1776697784202, "version": "1.0.0"}, {"category": "", "created_at": 1774876882525, "description": "Assertion patterns reference — guard clauses, preconditions, invariants, and contract programming. Use when writing defensive code, validating inputs, or imp...", "description_zh": "", "downloads": 36, "homepage": "https://clawhub.ai/bytesagain3/assert", "iconUrl": null, "installs": 0, "name": "Assert", "ownerName": "bytesagain3", "score": 100000, "slug": "assert", "source": "clawhub", "stars": 0, "tags": null, "updated_at": 1776697784197, "version": "1.0.0"}, {"category": "", "created_at": 1774917414864, "description": "Manage Zoho Projects — list portals/projects, create/update/complete tasks, add comments, log time, manage milestones, and query your task list. Requires ZOH...", "description_zh": "", "downloads": 36, "homepage": "https://clawhub.ai/katprotech/zohoproject", "iconUrl": null, "installs": 3, "name": "ZohoProject", "ownerName": "katprotech", "score": 100000, "slug": "zohoproject", "source": "clawhub", "stars": 0, "tags": null, "updated_at": 1776697784176, "version": "1.0.0"}, {"category": "", "created_at": 1774896084001, "description": "Chatfuel integration. Manage data, records, and automate workflows. Use when the user wants to interact with Chatfuel data.", "description_zh": "", "downloads": 36, "homepage": "https://clawhub.ai/gora050/chatfuel", "iconUrl": null, "installs": 0, "name": "Chatfuel", "ownerName": "gora050", "score": 76595.74468085106, "slug": "chatfuel", "source": "clawhub", "stars": 0, "tags": null, "updated_at": 1776697784141, "version": "1.0.0"}, {"category": "", "created_at": 1774901616253, "description": "Map industry value chain to understand where value is created and captured. Use for industry analysis, vertical integration decisions, and identifying strate...", "description_zh": "", "downloads": 36, "homepage": "https://clawhub.ai/linuszz/value-chain", "iconUrl": null, "installs": 1, "name": "Value Chain", "ownerName": "linuszz", "score": 76595.74468085106, "slug": "value-chain", "source": "clawhub", "stars": 0, "tags": null, "updated_at": 1776697784121, "version": "1.0.0"}, {"category": "", "created_at": 1774904676482, "description": "Project Development Assistant — structured logging + issue tracking with anti-spam design. Trigger ONLY when user explicitly says new project, continue proje...", "description_zh": "", "downloads": 36, "homepage": "https://clawhub.ai/gongtengkeji/project-development-assistant", "iconUrl": null, "installs": 5, "name": "项目开发助理", "ownerName": "gongtengkeji", "score": 76595.74468085106, "slug": "project-development-assistant", "source": "clawhub", "stars": 0, "tags": ["assistant", "development", "logging", "project"], "updated_at": 1776697784095, "version": "1.0.0"}, {"category": "", "created_at": 1774911887398, "description": "Professional Markdown document generator. Use when user needs to create technical docs, README, wikis, reports, or any structured document. Supports image em...", "description_zh": "", "downloads": 36, "homepage": "https://clawhub.ai/tobewin/markdown-studio", "iconUrl": null, "installs": 2, "name": "Markdown Studio", "ownerName": "tobewin", "score": 100000, "slug": "markdown-studio", "source": "clawhub", "stars": 0, "tags": null, "updated_at": 1776697784090, "version": "1.0.1"}, {"category": "", "created_at": 1774896108826, "description": "Check Point R80+/R81.x rulebase layer analysis with blade activation audit, SmartConsole management plane validation, NAT policy review, identity awareness a...", "description_zh": "", "downloads": 36, "homepage": "https://clawhub.ai/vahagn-madatyan/checkpoint-firewall-audit", "iconUrl": null, "installs": 2, "name": "Checkpoint Firewall Audit", "ownerName": "vahagn-madatyan", "score": 100000, "slug": "checkpoint-firewall-audit", "source": "clawhub", "stars": 0, "tags": null, "updated_at": 1776697784036, "version": "1.0.0"}, {"category": "", "created_at": 1774828622101, "description": "Access your Readwise highlights and Reader documents from the command line. Search, read, organize, and manage your entire reading library.", "description_zh": "", "downloads": 36, "homepage": "https://clawhub.ai/tristanh/readwise-official", "iconUrl": null, "installs": 5, "name": "Readwise Official", "ownerName": "tristanh", "score": 100000, "slug": "readwise-official", "source": "clawhub", "stars": 0, "tags": null, "updated_at": 1776697784020, "version": "1.0.1"}, {"category": "", "created_at": 1774925861007, "description": "Use the MemOS Lite memory system to search and use the user's past conversations. Use this skill whenever the user refers to past chats, their own preference...", "description_zh": "", "downloads": 36, "homepage": "https://clawhub.ai/andy27725/memos-memory-guide-andy27725", "iconUrl": null, "installs": 4, "name": "Memos Memory Guide Andy27725", "ownerName": "andy27725", "score": 100000, "slug": "memos-memory-guide-andy27725", "source": "clawhub", "stars": 0, "tags": null, "updated_at": 1776697783992, "version": "1.0.0"}, {"category": "developer-tools", "created_at": 1773057215544, "description": "Curated selection of best coding AI. Claude 4.5 Sonnet, GPT-4, DeepSeek. Auto-select optimal model. No API keys needed. $2 FREE credits to start. Pay-as-you-...", "description_zh": "", "downloads": 36, "homepage": "https://clawhub.ai/xiaoyinqu/best-for-coding", "iconUrl": null, "installs": 6, "name": "Best For Coding", "ownerName": "xiaoyinqu", "score": 100000, "slug": "best-for-coding", "source": "clawhub", "stars": 0, "tags": null, "updated_at": 1776697783968, "version": "1.0.2"}, {"category": "", "created_at": 1774870826465, "description": "Guide users to VideoAny AI Avatar tool to create talking avatar videos from an image and voice.", "description_zh": "", "downloads": 36, "homepage": "https://clawhub.ai/gaoq1/ai-avatar-videoany", "iconUrl": null, "installs": 5, "name": "AI Avatar", "ownerName": "gaoq1", "score": 100000, "slug": "ai-avatar-videoany", "source": "clawhub", "stars": 0, "tags": null, "updated_at": 1776697783963, "version": "1.0.0"}, {"category": "productivity", "created_at": 1773961064381, "description": "Scoro API v2 integration for time tracking, task management, utilization reporting, team status reports, and billable corrections. Use when: user asks about...", "description_zh": "", "downloads": 36, "homepage": "https://clawhub.ai/germainsafari/scoro", "iconUrl": null, "installs": 2, "name": "Scoro", "ownerName": "germainsafari", "score": 100000, "slug": "scoro", "source": "clawhub", "stars": 0, "tags": null, "updated_at": 1776697783949, "version": "1.0.0"}, {"category": "", "created_at": 1774913302883, "description": "Tcpdump reference tool. Use when working with tcpdump in devtools contexts.", "description_zh": "", "downloads": 36, "homepage": "https://clawhub.ai/ckchzh/tcpdump", "iconUrl": null, "installs": 1, "name": "Tcpdump", "ownerName": "ckchzh", "score": 100000, "slug": "tcpdump", "source": "clawhub", "stars": 0, "tags": null, "updated_at": 1776697783889, "version": "1.0.0"}, {"category": "developer-tools", "created_at": 1773076965735, "description": "Scrape any website to clean markdown. Extract structured data with AI. No API keys needed. $2 FREE credits to start. Pay-as-you-go pricing via SkillBoss.", "description_zh": "", "downloads": 36, "homepage": "https://clawhub.ai/xiaoyinqu/skillboss-scraper", "iconUrl": null, "installs": 7, "name": "Skillboss Scraper", "ownerName": "xiaoyinqu", "score": 100000, "slug": "skillboss-scraper", "source": "clawhub", "stars": 0, "tags": null, "updated_at": 1776697783839, "version": "1.0.0"}, {"category": "", "created_at": 1774876736778, "description": "Generate platform-specific social scripts from long-form video content. Analyzes YouTube, Loom, webinars and creates TikTok hooks, Instagram Reels, LinkedIn...", "description_zh": "", "downloads": 36, "homepage": "https://clawhub.ai/ncreighton/video-repurposing-script-generator", "iconUrl": null, "installs": 4, "name": "Video Repurposing Script Generator", "ownerName": "ncreighton", "score": 100000, "slug": "video-repurposing-script-generator", "source": "clawhub", "stars": 0, "tags": null, "updated_at": 1776697783827, "version": "1.0.0"}, {"category": "", "created_at": 1774860780762, "description": "Reference tool for devtools — covers intro, quickstart, patterns and more. Quick lookup for Apollo Client concepts, best practices, and implementation patterns.", "description_zh": "", "downloads": 36, "homepage": "https://clawhub.ai/ckchzh/apollo-client", "iconUrl": null, "installs": 0, "name": "Apollo Client", "ownerName": "ckchzh", "score": 100000, "slug": "apollo-client", "source": "clawhub", "stars": 0, "tags": null, "updated_at": 1776697783724, "version": "2.0.3"}, {"category": "", "created_at": 1774954670863, "description": "The youtube-video-to-text skill extracts spoken words from YouTube videos and converts them into accurate, readable transcripts within seconds. Upload or lin...", "description_zh": "", "downloads": 36, "homepage": "https://clawhub.ai/imo14reifey/youtube-video-to-text", "iconUrl": null, "installs": 4, "name": "Youtube Video To Text", "ownerName": "imo14reifey", "score": 100000, "slug": "youtube-video-to-text", "source": "clawhub", "stars": 0, "tags": null, "updated_at": 1776697783690, "version": "1.0.0"}, {"category": "", "created_at": 1774953864445, "description": "When the user wants to create LinkedIn post copy or optimize for LinkedIn. Also use when the user mentions \"LinkedIn post,\" \"LinkedIn article,\" \"professional...", "description_zh": "", "downloads": 36, "homepage": "https://clawhub.ai/kostja94/linkedin-posts", "iconUrl": null, "installs": 5, "name": "linkedin-posts", "ownerName": "kostja94", "score": 94736.84210526315, "slug": "linkedin-posts", "source": "clawhub", "stars": 0, "tags": null, "updated_at": 1776697670435, "version": "1.1.0"}]}