{"page": 457, "total_pages": 522, "total": 26073, "skills": [{"category": "", "created_at": 1774903298632, "description": "Fetch Gmail emails from the last 24h, rank by importance, summarize into bullet points, and auto-create Google Calendar events for detected meetings.", "description_zh": "", "downloads": 36, "homepage": "https://clawhub.ai/russidan-nadee/gmail-daily-briefing", "iconUrl": null, "installs": 4, "name": "Gmail Daily Briefing", "ownerName": "russidan-nadee", "score": 94736.84210526315, "slug": "gmail-daily-briefing", "source": "clawhub", "stars": 0, "tags": null, "updated_at": 1776697670425, "version": "1.1.1"}, {"category": "", "created_at": 1774881518060, "description": "When the user wants to create or optimize a cookie policy page. Also use when the user mentions \"cookie policy,\" \"cookies,\" \"cookie consent,\" \"GDPR cookies,\"...", "description_zh": "", "downloads": 36, "homepage": "https://clawhub.ai/kostja94/cookie-policy-page-generator", "iconUrl": null, "installs": 3, "name": "cookie-policy-page-generator", "ownerName": "kostja94", "score": 94736.84210526315, "slug": "cookie-policy-page-generator", "source": "clawhub", "stars": 0, "tags": null, "updated_at": 1776697670394, "version": "1.0.0"}, {"category": "", "created_at": 1774950262598, "description": "문서 생성 후 디스코드 채널 간 양방향 링크로 전달하는 프로세스. 펭귄공장(지휘 채널)에서 문서 생성 지시가 오면 대상 채널에 문서 업로드 + 펭귄공장 링크, 펭귄공장에 완료 알림 + 대상 채널 링크를 남긴다. \"문서 만들어줘\", \"PDF 만들어줘\", \"견적서 만들어줘\", \"리스트...", "description_zh": "", "downloads": 36, "homepage": "https://clawhub.ai/mupengi-bot/doc-factory", "iconUrl": null, "installs": 2, "name": "Doc Factory", "ownerName": "mupengi-bot", "score": 94736.84210526315, "slug": "doc-factory", "source": "clawhub", "stars": 0, "tags": null, "updated_at": 1776697670389, "version": "1.0.0"}, {"category": "", "created_at": 1774914352671, "description": "Provides monitoring and alerting for agent abnormal behavior metrics with Prometheus and Grafana support, including P99 latency, error rates, anomaly detecti...", "description_zh": "", "downloads": 36, "homepage": "https://clawhub.ai/jpengcheng523-netizen/jpeng-agent-metrics-monitor", "iconUrl": null, "installs": 3, "name": "agent-metrics-monitor", "ownerName": "jpengcheng523-netizen", "score": 94736.84210526315, "slug": "jpeng-agent-metrics-monitor", "source": "clawhub", "stars": 0, "tags": null, "updated_at": 1776697670384, "version": "1.0.0"}, {"category": "", "created_at": 1774866836575, "description": "Create a structured fundraising plan including goal setting, target audience, channel strategy, timeline, and success metrics. Use when organizations or indi...", "description_zh": "", "downloads": 36, "homepage": "https://clawhub.ai/jiwenbing/fundraise-plan", "iconUrl": null, "installs": 3, "name": "Fundraise Plan", "ownerName": "jiwenbing", "score": 94736.84210526315, "slug": "fundraise-plan", "source": "clawhub", "stars": 0, "tags": null, "updated_at": 1776697670375, "version": "1.0.0"}, {"category": "", "created_at": 1774879869476, "description": "Structured prompts, vault templates, and autonomous research workflows for AI-assisted genealogy using Claude Code.", "description_zh": "", "downloads": 36, "homepage": "https://clawhub.ai/adisinghstudent/autoresearch-genealogy", "iconUrl": null, "installs": 4, "name": "autoresearch-genealogy", "ownerName": "adisinghstudent", "score": 94736.84210526315, "slug": "autoresearch-genealogy", "source": "clawhub", "stars": 0, "tags": null, "updated_at": 1776697670356, "version": "1.0.0"}, {"category": "", "created_at": 1774857851895, "description": "Operate DefiLlama public price APIs through UXC with a curated OpenAPI schema and read-first guardrails.", "description_zh": "", "downloads": 36, "homepage": "https://clawhub.ai/jolestar/defillama-prices-openapi-skill", "iconUrl": null, "installs": 0, "name": "DefiLlama Prices OpenAPI Skill", "ownerName": "jolestar", "score": 94736.84210526315, "slug": "defillama-prices-openapi-skill", "source": "clawhub", "stars": 0, "tags": null, "updated_at": 1776697670343, "version": "1.0.0"}, {"category": "", "created_at": 1774907246429, "description": "Use the Instaparser API to parse articles, PDFs, and generate summaries from URLs. Trigger when users want to extract content from web pages, parse PDF docum...", "description_zh": "", "downloads": 36, "homepage": "https://clawhub.ai/donohue/instaparser", "iconUrl": null, "installs": 2, "name": "Instaparser", "ownerName": "donohue", "score": 94736.84210526315, "slug": "instaparser", "source": "clawhub", "stars": 0, "tags": ["article-parser", "content-extraction", "instaparser", "pdf-parser", "summarization", "web-scraping"], "updated_at": 1776697670299, "version": "1.0.2"}, {"category": "", "created_at": 1774907742120, "description": "Journald reference tool. Use when working with journald in sysops contexts.", "description_zh": "", "downloads": 36, "homepage": "https://clawhub.ai/xueyetianya/journald", "iconUrl": null, "installs": 1, "name": "Journald", "ownerName": "xueyetianya", "score": 94736.84210526315, "slug": "journald", "source": "clawhub", "stars": 0, "tags": null, "updated_at": 1776697670287, "version": "1.0.0"}, {"category": "", "created_at": 1774955199136, "description": "Beginner fishing skills covering licensing, gear, techniques, and catch-to-cook basics. Use when someone wants to start fishing for food or recreation, needs...", "description_zh": "", "downloads": 36, "homepage": "https://clawhub.ai/howtousehumans/fishing-basics", "iconUrl": null, "installs": 1, "name": "Fishing Basics", "ownerName": "howtousehumans", "score": 94736.84210526315, "slug": "fishing-basics", "source": "clawhub", "stars": 0, "tags": null, "updated_at": 1776697670221, "version": "1.0.0"}, {"category": "", "created_at": 1774882407227, "description": "Travis CI integration. Manage Repositories, Users. Use when the user wants to interact with Travis CI data.", "description_zh": "", "downloads": 36, "homepage": "https://clawhub.ai/gora050/travis-ci", "iconUrl": null, "installs": 0, "name": "Travis Ci", "ownerName": "gora050", "score": 94736.84210526315, "slug": "travis-ci", "source": "clawhub", "stars": 0, "tags": null, "updated_at": 1776697670176, "version": "1.0.0"}, {"category": "", "created_at": 1774920027436, "description": "Imgix integration. Manage Accounts. Use when the user wants to interact with Imgix data.", "description_zh": "", "downloads": 36, "homepage": "https://clawhub.ai/gora050/imgix", "iconUrl": null, "installs": 2, "name": "Imgix", "ownerName": "gora050", "score": 94736.84210526315, "slug": "imgix", "source": "clawhub", "stars": 0, "tags": null, "updated_at": 1776697670174, "version": "1.0.0"}, {"category": "", "created_at": 1774913892494, "description": "Bookingmood integration. Manage data, records, and automate workflows. Use when the user wants to interact with Bookingmood data.", "description_zh": "", "downloads": 36, "homepage": "https://clawhub.ai/gora050/bookingmood", "iconUrl": null, "installs": 0, "name": "Bookingmood", "ownerName": "gora050", "score": 94736.84210526315, "slug": "bookingmood", "source": "clawhub", "stars": 0, "tags": null, "updated_at": 1776697670160, "version": "1.0.0"}, {"category": "", "created_at": 1774846610340, "description": "Precision web search using structured query operators. Teaches agents to build targeted searches for research, journalism, due diligence, academic work, docu...", "description_zh": "", "downloads": 36, "homepage": "https://clawhub.ai/samaritanoc/google-dorks", "iconUrl": null, "installs": 3, "name": "Precision Web Search", "ownerName": "samaritanoc", "score": 94736.84210526315, "slug": "google-dorks", "source": "clawhub", "stars": 0, "tags": ["chromium", "google", "google chrome", "search"], "updated_at": 1776697670085, "version": "1.2.2"}, {"category": "", "created_at": 1774877173421, "description": "Generate music from text prompts using ElevenLabs Eleven Music API. Use when creating songs, soundtracks, jingles, lullabies, or any audio music from descrip...", "description_zh": "", "downloads": 36, "homepage": "https://clawhub.ai/chenghaifeng08-creator/elevenlabs-music-automaton", "iconUrl": null, "installs": 2, "name": "Elevenlabs Music", "ownerName": "chenghaifeng08-creator", "score": 94736.84210526315, "slug": "elevenlabs-music-automaton", "source": "clawhub", "stars": 0, "tags": null, "updated_at": 1776697670025, "version": "1.0.2"}, {"category": "", "created_at": 1774866759246, "description": "Full email, calendar, contacts, tasks, and notes management for Microsoft Exchange/Outlook. Use when Claude needs to list unread emails, read email content,...", "description_zh": "", "downloads": 36, "homepage": "https://clawhub.ai/derekhsu/exchange-skills", "iconUrl": null, "installs": 2, "name": "Exchange Skills", "ownerName": "derekhsu", "score": 59016.393442622946, "slug": "exchange-skills", "source": "clawhub", "stars": 0, "tags": null, "updated_at": 1776697669952, "version": "1.0.2"}, {"category": "", "created_at": 1774818002331, "description": "Enables peer-to-peer cross-communication between isolated OpenClaw agents. Resolves the limitation of `sessions_send` which cannot cross agent boundaries. 10...", "description_zh": "", "downloads": 36, "homepage": "https://clawhub.ai/zhangxue1985122219/multi-agent-intercom", "iconUrl": null, "installs": 1, "name": "Multi-Agent Intercom", "ownerName": "zhangxue1985122219", "score": 94736.84210526315, "slug": "multi-agent-intercom", "source": "clawhub", "stars": 0, "tags": null, "updated_at": 1776697669889, "version": "1.1.6"}, {"category": "", "created_at": 1774881442715, "description": "Confluent integration. Manage data, records, and automate workflows. Use when the user wants to interact with Confluent data.", "description_zh": "", "downloads": 36, "homepage": "https://clawhub.ai/membranedev/confluent", "iconUrl": null, "installs": 2, "name": "Confluent", "ownerName": "membranedev", "score": 94736.84210526315, "slug": "confluent", "source": "clawhub", "stars": 0, "tags": null, "updated_at": 1776697669882, "version": "1.0.0"}, {"category": "", "created_at": 1774865622968, "description": "Use when the task is to operate Halo CLI in general, or may involve login, profiles, posts, single pages, search, plugins, themes, attachments, backups, mome...", "description_zh": "", "downloads": 36, "homepage": "https://clawhub.ai/ruibaby/halo-cli", "iconUrl": null, "installs": 0, "name": "Halo Cli", "ownerName": "ruibaby", "score": 94736.84210526315, "slug": "halo-cli", "source": "clawhub", "stars": 0, "tags": null, "updated_at": 1776697669818, "version": "0.1.1"}, {"category": "", "created_at": 1774862234178, "description": "Banking and financial services advisor covering loans, mortgages, deposits, credit, banking products, and financial transactions. Use when users have questio...", "description_zh": "", "downloads": 36, "homepage": "https://clawhub.ai/jiwenbing/banker", "iconUrl": null, "installs": 0, "name": "Banker", "ownerName": "jiwenbing", "score": 94736.84210526315, "slug": "banker", "source": "clawhub", "stars": 0, "tags": null, "updated_at": 1776697669794, "version": "1.0.0"}, {"category": "productivity", "created_at": 1773075242116, "description": "Smart money tracking — netflow, trades, holdings, DCAs, perp trades. Use when finding what smart money wallets are buying/selling or tracking whale activity.", "description_zh": "", "downloads": 36, "homepage": "https://clawhub.ai/hurcannansen/nansen-smart-money", "iconUrl": null, "installs": 4, "name": "Nansen Smart Money", "ownerName": "hurcannansen", "score": 94736.84210526315, "slug": "nansen-smart-money", "source": "clawhub", "stars": 0, "tags": null, "updated_at": 1776697669748, "version": "1.0.0"}, {"category": "", "created_at": 1774918088507, "description": "Gdb reference tool. Use when working with gdb in devtools contexts.", "description_zh": "", "downloads": 36, "homepage": "https://clawhub.ai/bytesagain3/gdb", "iconUrl": null, "installs": 2, "name": "Gdb", "ownerName": "bytesagain3", "score": 94736.84210526315, "slug": "gdb", "source": "clawhub", "stars": 0, "tags": null, "updated_at": 1776697669715, "version": "1.0.0"}, {"category": "", "created_at": 1774885538013, "description": "Text-to-speech conversion using node-edge-tts npm package for generating audio from text. Supports multiple voices, languages, speed adjustment, pitch contro...", "description_zh": "", "downloads": 36, "homepage": "https://clawhub.ai/onlyloveher/edge-tts-cn", "iconUrl": null, "installs": 3, "name": "Edge TTS CN", "ownerName": "onlyloveher", "score": 94736.84210526315, "slug": "edge-tts-cn", "source": "clawhub", "stars": 0, "tags": null, "updated_at": 1776697669705, "version": "1.0.0"}, {"category": "", "created_at": 1774866660485, "description": "Write compelling UX copy, marketing content, and product messaging. Use when writing button labels, error messages, landing pages, emails, CTAs, empty states...", "description_zh": "", "downloads": 36, "homepage": "https://clawhub.ai/litiao1224/copywriter-litiao", "iconUrl": null, "installs": 1, "name": "Copywriter Litiao", "ownerName": "litiao1224", "score": 94736.84210526315, "slug": "copywriter-litiao", "source": "clawhub", "stars": 0, "tags": null, "updated_at": 1776697669700, "version": "1.1.0"}, {"category": "", "created_at": 1774834264369, "description": "Reports upcoming earnings, dividends, and stock splits from FMP for a watchlist of tickers. Accepts a comma-separated ticker list or a file of tickers. Retur...", "description_zh": "", "downloads": 36, "homepage": "https://clawhub.ai/khaney64/market-events", "iconUrl": null, "installs": 2, "name": "Market Events", "ownerName": "khaney64", "score": 94736.84210526315, "slug": "market-events", "source": "clawhub", "stars": 0, "tags": null, "updated_at": 1776697669661, "version": "0.1.1"}, {"category": "", "created_at": 1774859619195, "description": "When the user wants to plan video marketing, create video scripts, or optimize for short-form or long-form video. Also use when the user mentions \"video mark...", "description_zh": "", "downloads": 36, "homepage": "https://clawhub.ai/kostja94/video-marketing", "iconUrl": null, "installs": 2, "name": "video-marketing", "ownerName": "kostja94", "score": 94736.84210526315, "slug": "video-marketing", "source": "clawhub", "stars": 0, "tags": null, "updated_at": 1776697669583, "version": "1.0.0"}, {"category": "", "created_at": 1774921264031, "description": "Deep feature flag workflow—taxonomy, targeting, lifecycle, safety and kill switches, cleanup, and governance. Use when shipping gradually, experimenting, or...", "description_zh": "", "downloads": 36, "homepage": "https://clawhub.ai/mike47512/feature-flags", "iconUrl": null, "installs": 1, "name": "Feature Flags", "ownerName": "mike47512", "score": 34285.71428571428, "slug": "feature-flags", "source": "clawhub", "stars": 0, "tags": null, "updated_at": 1776697669577, "version": "1.0.0"}, {"category": "", "created_at": 1774916465800, "description": "Your AI relationship coach for building and maintaining healthy connections. Get practical advice on communication with your partner, resolving conflicts wit...", "description_zh": "", "downloads": 36, "homepage": "https://clawhub.ai/imwyvern/couple-coach", "iconUrl": null, "installs": 0, "name": "Relationship Coach Skill", "ownerName": "imwyvern", "score": 34285.71428571428, "slug": "couple-coach", "source": "clawhub", "stars": 0, "tags": null, "updated_at": 1776697669546, "version": "1.0.0"}, {"category": "", "created_at": 1774877075210, "description": "Calculates gestational age and follow-up date windows.", "description_zh": "", "downloads": 35, "homepage": "https://clawhub.ai/aipoch-ai/date-calculator", "iconUrl": null, "installs": 0, "name": "Date Calculator", "ownerName": "aipoch-ai", "score": 331.6906747536012, "slug": "date-calculator", "source": "clawhub", "stars": 0, "tags": null, "updated_at": 1776770050118, "version": "0.1.0"}, {"category": "", "created_at": 1774855562808, "description": "Xueersi Text Recitation Coach: Fill-in-the-blank drills, paragraph-by-paragraph prompts, and memory mnemonics to help K-9 students memorize Chinese textbook...", "description_zh": "", "downloads": 35, "homepage": "https://clawhub.ai/zhouzhi-tal/xueersi-text-recitation", "iconUrl": null, "installs": 6, "name": "Xueersi Text Recitation Coach", "ownerName": "zhouzhi-tal", "score": 517.063081695967, "slug": "xueersi-text-recitation", "source": "clawhub", "stars": 0, "tags": ["chinese", "education", "k12", "xueersi"], "updated_at": 1776769449907, "version": "1.0.1"}, {"category": "", "created_at": 1775989751518, "description": "Provides web exploitation techniques for CTF challenges. Use when the target is primarily an HTTP application, API, browser client, template engine, identity flow, or smart-contract frontend/backend surface, including XSS, SQLi, SSTI, SSRF, XXE, JWT, auth bypass, file upload, request smuggling, OAuth/OIDC, SAML, prototype pollution, and similar web bugs. Do not use it for native binary memory corruption, reverse engineering of standalone executables, disk or memory forensics, or pure cryptanalysis unless the web flaw is still the main path to the flag.", "description_zh": "", "downloads": 35, "homepage": "https://clawhub.ai/user_257ad2a8/ctf-web", "iconUrl": null, "installs": 7, "name": "ctf web", "ownerName": "user_257ad2a8", "score": 1285.8192505510654, "slug": "ctf-web", "source": "community", "stars": 0, "tags": null, "updated_at": 1776764650376, "version": "1.0.4"}, {"category": "", "created_at": 1774907787580, "description": "Decode KOL and creator \"black box\" performance—strip refunds, suspicious traffic, and vanity clicks to estimate each creator's true profit contribution and p...", "description_zh": "", "downloads": 35, "homepage": "https://clawhub.ai/rijoyai/kol-roi", "iconUrl": null, "installs": 1, "name": "KOL Roi", "ownerName": "rijoyai", "score": 1391.6500994035787, "slug": "kol-roi", "source": "clawhub", "stars": 0, "tags": null, "updated_at": 1776762440120, "version": "1.0.0"}, {"category": "", "created_at": 1774944633195, "description": "Create fallback site adapters for websites that do not expose native WebMCP. Use when a site needs a new adapter module, tool schema design, browser-side req...", "description_zh": "", "downloads": 35, "homepage": "https://clawhub.ai/jolestar/webmcp-adapter-creator", "iconUrl": null, "installs": 2, "name": "Webmcp Adapter Creator", "ownerName": "jolestar", "score": 1342.5393172228617, "slug": "webmcp-adapter-creator", "source": "clawhub", "stars": 0, "tags": null, "updated_at": 1776762182362, "version": "0.1.1"}, {"category": "", "created_at": 1774895853591, "description": "Capture full-page screenshots of websites with lazy-load support. Use when: user wants to screenshot a webpage, take a website screenshot, capture a full pag...", "description_zh": "", "downloads": 35, "homepage": "https://clawhub.ai/lifelooploop/full-webpage-screenshot", "iconUrl": null, "installs": 1, "name": "Full Webpage Screenshot", "ownerName": "lifelooploop", "score": 872.6003490401396, "slug": "full-webpage-screenshot", "source": "clawhub", "stars": 0, "tags": null, "updated_at": 1776760940216, "version": "1.0.2"}, {"category": "", "created_at": 1776061331494, "description": "Convert static character images into vivid action videos with Jimeng Dream Actor.", "description_zh": "", "downloads": 35, "homepage": "https://clawhub.ai/user_f95f21b8/dlazy-jimeng-dream-actor", "iconUrl": null, "installs": 2, "name": "jimeng dream actor", "ownerName": "user_f95f21b8", "score": 2791.0685805422645, "slug": "dlazy-jimeng-dream-actor", "source": "community", "stars": 0, "tags": null, "updated_at": 1776760098042, "version": "1.0.3"}, {"category": "", "created_at": 1776061436681, "description": "Generate dynamic videos based on a single first frame image and prompts using Jimeng.", "description_zh": "", "downloads": 35, "homepage": "https://clawhub.ai/user_f95f21b8/dlazy-jimeng-i2v-first", "iconUrl": null, "installs": 1, "name": "jimeng i2v first", "ownerName": "user_f95f21b8", "score": 2782.1939586645467, "slug": "dlazy-jimeng-i2v-first", "source": "community", "stars": 0, "tags": null, "updated_at": 1776760097992, "version": "1.0.3"}, {"category": "", "created_at": 1774894707240, "description": "Find regional distributors, wholesale channel partners, importers, and in-market distribution options for ecommerce and cross-border products. Use when the u...", "description_zh": "", "downloads": 35, "homepage": "https://clawhub.ai/leooooooow/find-distributors", "iconUrl": null, "installs": 5, "name": "Find Distributors", "ownerName": "leooooooow", "score": 2112.251056125528, "slug": "find-distributors", "source": "clawhub", "stars": 0, "tags": null, "updated_at": 1776756488925, "version": "1.0.0"}, {"category": "security-compliance", "created_at": 1773961861221, "description": "Investigate public online footprints using open-source intelligence techniques. Use when a user wants to research a username, email, person, company, domain,...", "description_zh": "", "downloads": 35, "homepage": "https://clawhub.ai/elyasuuuuu/investigator", "iconUrl": null, "installs": 2, "name": "Investigator", "ownerName": "elyasuuuuu", "score": 7042.2535211267605, "slug": "investigator", "source": "clawhub", "stars": 0, "tags": null, "updated_at": 1776755888148, "version": "2.1.0"}, {"category": "", "created_at": 1774848145564, "description": "Transforms the AI into an elite Pine Script developer and trading strategy architect — capable of writing production-grade indicators, strategies, and librar...", "description_zh": "", "downloads": 35, "homepage": "https://clawhub.ai/alradyin/pinescript-mastery", "iconUrl": null, "installs": 2, "name": "Pinescript mastery", "ownerName": "alradyin", "score": 6118.881118881119, "slug": "pinescript-mastery", "source": "clawhub", "stars": 0, "tags": ["algorithmic-trading", "backtesting", "crypto", "finance", "forex", "indicator", "pine-script", "pine-script-v5", "pine-script-v6", "quantitative", "risk-management", "stocks", "strategy", "technical-analysis", "trading", "tradingview"], "updated_at": 1776755288612, "version": "1.0.0"}, {"category": "", "created_at": 1774813777620, "description": "Record, track, and analyze personal or professional decisions with structured reflection. Use when the user wants to (1) document a decision they're making o...", "description_zh": "", "downloads": 35, "homepage": "https://clawhub.ai/harrylabsj/decision-journal", "iconUrl": null, "installs": 0, "name": "Decision Journal", "ownerName": "harrylabsj", "score": 6118.881118881119, "slug": "decision-journal", "source": "clawhub", "stars": 0, "tags": null, "updated_at": 1776752683958, "version": "1.0.2"}, {"category": "", "created_at": 1774876539784, "description": "Ubuntu documentation-first workflow for Ubuntu-specific questions, maintenance, updates, upgrades, package management, system administration, service trouble...", "description_zh": "", "downloads": 35, "homepage": "https://clawhub.ai/kklouzal/ubuntu-encyclopedia", "iconUrl": null, "installs": 0, "name": "Ubuntu Encyclopedia", "ownerName": "kklouzal", "score": 5962.521294718909, "slug": "ubuntu-encyclopedia", "source": "clawhub", "stars": 0, "tags": null, "updated_at": 1776750769582, "version": "1.0.4"}, {"category": "", "created_at": 1774880679585, "description": "Plume AI Infographic Generation Service. Triggered when users want to convert topics, long-form text, or reference images into infographics. Supports: topic...", "description_zh": "", "downloads": 35, "homepage": "https://clawhub.ai/dake6767/plume-infographic", "iconUrl": null, "installs": 1, "name": "Plume Infographic", "ownerName": "dake6767", "score": 37634.408602150535, "slug": "plume-infographic", "source": "clawhub", "stars": 0, "tags": null, "updated_at": 1776745483688, "version": "1.1.1"}, {"category": "", "created_at": 1774904144822, "description": "Professional career assessment and roadmap platform for cybersecurity professionals seeking personalized guidance and skill development recommendations.", "description_zh": "", "downloads": 35, "homepage": "https://clawhub.ai/krishnakumarmahadevan-cmd/cybersecurity-career", "iconUrl": null, "installs": 1, "name": "Cybersecurity Career", "ownerName": "krishnakumarmahadevan-cmd", "score": 33333.33333333333, "slug": "cybersecurity-career", "source": "clawhub", "stars": 0, "tags": null, "updated_at": 1776745244453, "version": "1.0.0"}, {"category": "", "created_at": 1774884722612, "description": "Security auditing skill for scanning CVE vulnerabilities across npm, Python, Go, and Rust projects using osv-ui. Opens a visual browser dashboard for human r...", "description_zh": "", "downloads": 35, "homepage": "https://clawhub.ai/toan203/osv-ui", "iconUrl": null, "installs": 2, "name": "CVE Audit Skill", "ownerName": "toan203", "score": 36842.10526315789, "slug": "osv-ui", "source": "clawhub", "stars": 0, "tags": null, "updated_at": 1776744170597, "version": "1.0.1"}, {"category": "", "created_at": 1774949729781, "description": "Taiwan professional basketball stats, scores, schedules for PLG and TPBL.", "description_zh": "", "downloads": 35, "homepage": "https://clawhub.ai/ichendong/taiwan-basketball", "iconUrl": null, "installs": 0, "name": "Taiwan Basketball", "ownerName": "ichendong", "score": 50000, "slug": "taiwan-basketball", "source": "clawhub", "stars": 0, "tags": null, "updated_at": 1776743869811, "version": "1.2.0"}, {"category": "", "created_at": 1774874688794, "description": "Reviews AI/ML model supply chains for security risks including model provenance verification, training data lineage, fine-tuning pipeline integrity, inferenc...", "description_zh": "", "downloads": 35, "homepage": "https://clawhub.ai/kamalsrini/supply-chain-enterprise-security-skill", "iconUrl": null, "installs": 3, "name": "Security embedded Dev", "ownerName": "kamalsrini", "score": 35353.53535353536, "slug": "supply-chain-enterprise-security-skill", "source": "clawhub", "stars": 0, "tags": ["appsec", "compliance", "identity", "scanner", "security", "securityengineer", "vciso", "vulnerabilities"], "updated_at": 1776743383672, "version": "1.0.0"}, {"category": "", "created_at": 1774879341318, "description": "Convert long-form content into platform-native assets for LinkedIn, X, newsletter, and email while preserving message consistency and brand voice.", "description_zh": "", "downloads": 35, "homepage": "https://clawhub.ai/anugotta/social-repurpose-engine", "iconUrl": null, "installs": 1, "name": "Social Repurpose Engine", "ownerName": "anugotta", "score": 36842.10526315789, "slug": "social-repurpose-engine", "source": "clawhub", "stars": 0, "tags": null, "updated_at": 1776742370111, "version": "1.0.0"}, {"category": "", "created_at": 1774952445618, "description": "Nutrition and hydration guidance for physically demanding occupations. Use when someone works in construction, trades, agriculture, food service, warehousing...", "description_zh": "", "downloads": 35, "homepage": "https://clawhub.ai/howtousehumans/nutrition-physical-labor", "iconUrl": null, "installs": 1, "name": "Nutrition Physical Labor", "ownerName": "howtousehumans", "score": 36082.47422680412, "slug": "nutrition-physical-labor", "source": "clawhub", "stars": 0, "tags": null, "updated_at": 1776736969661, "version": "1.0.0"}, {"category": "", "created_at": 1774885662108, "description": "Comprehensive guide for dependency injection (DI) in Golang. Covers why DI matters (testability, loose coupling, separation of concerns, lifecycle management...", "description_zh": "", "downloads": 35, "homepage": "https://clawhub.ai/samber/golang-dependency-injection", "iconUrl": null, "installs": 1, "name": "Golang Dependency Injection", "ownerName": "samber", "score": 35714.28571428572, "slug": "golang-dependency-injection", "source": "clawhub", "stars": 0, "tags": null, "updated_at": 1776733969599, "version": "1.1.1"}, {"category": "", "created_at": 1774885653313, "description": "Idiomatic context.Context usage in Golang — creation, propagation, cancellation, timeouts, deadlines, context values, and cross-service tracing. Apply when w...", "description_zh": "", "downloads": 35, "homepage": "https://clawhub.ai/samber/golang-context", "iconUrl": null, "installs": 1, "name": "Golang Context", "ownerName": "samber", "score": 35714.28571428572, "slug": "golang-context", "source": "clawhub", "stars": 0, "tags": null, "updated_at": 1776733969587, "version": "1.1.1"}]}