{"page": 458, "total_pages": 522, "total": 26073, "skills": [{"category": "", "created_at": 1774886020021, "description": "Manages shadcn components and projects — adding, searching, fixing, debugging, styling, and composing UI. Provides project context, component docs, and usage...", "description_zh": "", "downloads": 35, "homepage": "https://clawhub.ai/lumacoder/shadcn-ui-skills", "iconUrl": null, "installs": 3, "name": "shadcn", "ownerName": "lumacoder", "score": 36082.47422680412, "slug": "shadcn-ui-skills", "source": "clawhub", "stars": 0, "tags": null, "updated_at": 1776699604677, "version": "0.1.1"}, {"category": "", "created_at": 1774893732678, "description": "Calculate RSI for any asset. Use when checking overbought/oversold conditions, spotting divergence signals, comparing multi-timeframe RSI, or setting trading...", "description_zh": "", "downloads": 35, "homepage": "https://clawhub.ai/bytesagain1/rsi", "iconUrl": null, "installs": 0, "name": "Rsi", "ownerName": "bytesagain1", "score": 100000, "slug": "rsi", "source": "clawhub", "stars": 0, "tags": null, "updated_at": 1776698084678, "version": "2.0.1"}, {"category": "", "created_at": 1774907979610, "description": "A skill for retrieving Shenzhen local news and information, helping users quickly access various news updates from Shenzhen.", "description_zh": "", "downloads": 35, "homepage": "https://clawhub.ai/chenefei/shenzhen-news", "iconUrl": null, "installs": 1, "name": "shenzhen news", "ownerName": "chenefei", "score": 97222.22222222222, "slug": "shenzhen-news", "source": "clawhub", "stars": 0, "tags": null, "updated_at": 1776697784564, "version": "1.0.0"}, {"category": "", "created_at": 1774884093295, "description": "Build a retrieval-informed chapter skeleton (`outline/chapter_skeleton.yml`) from taxonomy/core scope before stable H3 decomposition. **Trigger**: chapter sk...", "description_zh": "", "downloads": 35, "homepage": "https://clawhub.ai/willoscar/chapter-skeleton", "iconUrl": null, "installs": 0, "name": "Chapter Skeleton", "ownerName": "willoscar", "score": 97222.22222222222, "slug": "chapter-skeleton", "source": "clawhub", "stars": 0, "tags": null, "updated_at": 1776697784560, "version": "1.0.0"}, {"category": "", "created_at": 1774917803229, "description": "No-limit Texas Hold'em benchmark for AI agents. Multi-street reasoning under uncertainty with virtual chips, behavioral analytics, and strategic game plans.", "description_zh": "", "downloads": 35, "homepage": "https://clawhub.ai/ironicbo/casino", "iconUrl": null, "installs": 1, "name": "Casino", "ownerName": "ironicbo", "score": 97222.22222222222, "slug": "casino", "source": "clawhub", "stars": 0, "tags": null, "updated_at": 1776697784554, "version": "1.0.2"}, {"category": "", "created_at": 1774847737350, "description": "Cloud-based video enhancement skill that uploads a user-selected local video file to Wondershare-hosted endpoints for AI enhancement, then downloads the proc...", "description_zh": "", "downloads": 35, "homepage": "https://clawhub.ai/double-ing/video-enhancer", "iconUrl": null, "installs": 0, "name": "Video Enhancer Filmora", "ownerName": "double-ing", "score": 97222.22222222222, "slug": "video-enhancer", "source": "clawhub", "stars": 0, "tags": null, "updated_at": 1776697784534, "version": "1.0.6"}, {"category": "", "created_at": 1774923420438, "description": "Monitor Vercel-hosted site deployments with automated health checks, cache freshness verification, and API validation. Use when you need to ensure deployment...", "description_zh": "", "downloads": 35, "homepage": "https://clawhub.ai/ivanpruss/vercel-deployment-watchdog", "iconUrl": null, "installs": 0, "name": "Vercel Deployment Watchdog", "ownerName": "ivanpruss", "score": 97222.22222222222, "slug": "vercel-deployment-watchdog", "source": "clawhub", "stars": 0, "tags": null, "updated_at": 1776697784489, "version": "1.0.0"}, {"category": "", "created_at": 1774898407060, "description": "Operate Milvus vector database with pymilvus Python SDK. Use when the user wants to connect to Milvus, create collections, insert vectors, perform similarity...", "description_zh": "", "downloads": 35, "homepage": "https://clawhub.ai/zhanshuyou/milvus-skill", "iconUrl": null, "installs": 2, "name": "Milvus Skill", "ownerName": "zhanshuyou", "score": 97222.22222222222, "slug": "milvus-skill", "source": "clawhub", "stars": 0, "tags": null, "updated_at": 1776697784483, "version": "0.0.2"}, {"category": "", "created_at": 1774951380850, "description": "Finding, maintaining, and providing mentorship relationships. Use when someone wants guidance in career or skill development, wants to find a mentor, has bee...", "description_zh": "", "downloads": 35, "homepage": "https://clawhub.ai/howtousehumans/mentorship", "iconUrl": null, "installs": 0, "name": "Mentorship", "ownerName": "howtousehumans", "score": 97222.22222222222, "slug": "mentorship", "source": "clawhub", "stars": 0, "tags": null, "updated_at": 1776697784467, "version": "1.0.0"}, {"category": "", "created_at": 1774904001015, "description": "Autonomous lead generation skill. Finds freshly-funded companies matching your ideal customer profile, researches them, and delivers qualified leads with per...", "description_zh": "", "downloads": 35, "homepage": "https://clawhub.ai/zich-agent/agitech-lead-hunter", "iconUrl": null, "installs": 3, "name": "Lead Hunter", "ownerName": "zich-agent", "score": 97222.22222222222, "slug": "agitech-lead-hunter", "source": "clawhub", "stars": 0, "tags": null, "updated_at": 1776697784463, "version": "1.0.0"}, {"category": "", "created_at": 1774887935511, "description": "Docparser integration. Manage Organizations. Use when the user wants to interact with Docparser data.", "description_zh": "", "downloads": 35, "homepage": "https://clawhub.ai/membranedev/docparser", "iconUrl": null, "installs": 0, "name": "Docparser", "ownerName": "membranedev", "score": 97222.22222222222, "slug": "docparser", "source": "clawhub", "stars": 0, "tags": null, "updated_at": 1776697784453, "version": "1.0.0"}, {"category": "", "created_at": 1774898286937, "description": "Learn Ansible on LabEx with infrastructure-as-code courses and playbook or inventory labs. Ansible courses and lab lists via LabEx MCP; public labex.io pages...", "description_zh": "", "downloads": 35, "homepage": "https://clawhub.ai/huhuhang/learn-ansible", "iconUrl": null, "installs": 0, "name": "Learn Ansible", "ownerName": "huhuhang", "score": 97222.22222222222, "slug": "learn-ansible", "source": "clawhub", "stars": 0, "tags": null, "updated_at": 1776697784447, "version": "1.0.1"}, {"category": "", "created_at": 1774909901754, "description": "Smart routing for local LLM inference across multiple devices. 7-signal scoring engine picks the optimal machine for every request — thermal state, memory fi...", "description_zh": "", "downloads": 35, "homepage": "https://clawhub.ai/twinsgeeks/local-llm-router", "iconUrl": null, "installs": 1, "name": "Local Llm Router", "ownerName": "twinsgeeks", "score": 97222.22222222222, "slug": "local-llm-router", "source": "clawhub", "stars": 0, "tags": ["inference-routing", "latency", "llm-routing", "load-balancing", "local-llm", "model-router", "multi-node", "ollama", "scoring"], "updated_at": 1776697784432, "version": "1.0.2"}, {"category": "", "created_at": 1774847871490, "description": "Ãditeur VidÃ©o IA â Modifier et CrÃ©er des VidÃ©os avec Intelligence Artificielle. Editez vos videos en decrivant simplement ce que vous voulez obtenir â...", "description_zh": "", "downloads": 35, "homepage": "https://clawhub.ai/imo14reifey/editeur-video", "iconUrl": null, "installs": 2, "name": "Editeur Video", "ownerName": "imo14reifey", "score": 97222.22222222222, "slug": "editeur-video", "source": "clawhub", "stars": 0, "tags": null, "updated_at": 1776697784424, "version": "1.0.6"}, {"category": "", "created_at": 1774896310999, "description": "Find resellers, stockists, secondary sellers, and channel resale opportunities for ecommerce and cross-border products. Use when the user wants help identify...", "description_zh": "", "downloads": 35, "homepage": "https://clawhub.ai/leooooooow/find-resellers", "iconUrl": null, "installs": 5, "name": "Find Resellers", "ownerName": "leooooooow", "score": 97222.22222222222, "slug": "find-resellers", "source": "clawhub", "stars": 0, "tags": null, "updated_at": 1776697784420, "version": "1.0.0"}, {"category": "", "created_at": 1774879101400, "description": "Proactively capture reusable user preferences, habits, default ways of working, stable constraints, and recurring expectations likely worth remembering for f...", "description_zh": "", "downloads": 35, "homepage": "https://clawhub.ai/wubin010/preference-guide", "iconUrl": null, "installs": 0, "name": "Ask To Remember", "ownerName": "wubin010", "score": 97222.22222222222, "slug": "preference-guide", "source": "clawhub", "stars": 0, "tags": null, "updated_at": 1776697784414, "version": "1.0.5"}, {"category": "", "created_at": 1774858857662, "description": "Generate custom icons using artificial intelligence from text prompts or descriptions.", "description_zh": "", "downloads": 35, "homepage": "https://clawhub.ai/krishnakumarmahadevan-cmd/ai-icon-generator", "iconUrl": null, "installs": 3, "name": "AI Icon Generator", "ownerName": "krishnakumarmahadevan-cmd", "score": 97222.22222222222, "slug": "ai-icon-generator", "source": "clawhub", "stars": 0, "tags": null, "updated_at": 1776697784397, "version": "1.0.0"}, {"category": "", "created_at": 1774902007025, "description": "Professional IT Support Career Roadmap Platform that generates personalized learning paths for Desktop Support Engineers based on experience, skills, and car...", "description_zh": "", "downloads": 35, "homepage": "https://clawhub.ai/krishnakumarmahadevan-cmd/desktop-support", "iconUrl": null, "installs": 2, "name": "Desktop Support", "ownerName": "krishnakumarmahadevan-cmd", "score": 97222.22222222222, "slug": "desktop-support", "source": "clawhub", "stars": 0, "tags": null, "updated_at": 1776697784396, "version": "1.0.0"}, {"category": "", "created_at": 1774944573528, "description": "Local file knowledge base with LLM-powered indexing and Q&A. Scans a directory for documents (.txt, .md, .pdf, .docx, .xlsx, .csv), extracts metadata (summar...", "description_zh": "", "downloads": 35, "homepage": "https://clawhub.ai/congshengwu/personal-kb-lite", "iconUrl": null, "installs": 2, "name": "Personal Knowledge Base Lite", "ownerName": "congshengwu", "score": 97222.22222222222, "slug": "personal-kb-lite", "source": "clawhub", "stars": 0, "tags": null, "updated_at": 1776697784390, "version": "1.0.0"}, {"category": "", "created_at": 1774850793977, "description": "Operate DefiLlama public analytics APIs through UXC with a curated OpenAPI schema and read-first guardrails.", "description_zh": "", "downloads": 35, "homepage": "https://clawhub.ai/jolestar/defillama-openapi-skill", "iconUrl": null, "installs": 2, "name": "DefiLlama OpenAPI Skill", "ownerName": "jolestar", "score": 97222.22222222222, "slug": "defillama-openapi-skill", "source": "clawhub", "stars": 0, "tags": null, "updated_at": 1776697784387, "version": "1.0.0"}, {"category": "", "created_at": 1774900336400, "description": "Sarbanes-Oxley Act compliance reference — SOX sections, internal controls, audit requirements, and IT governance. Use when evaluating SOX compliance, designi...", "description_zh": "", "downloads": 35, "homepage": "https://clawhub.ai/xueyetianya/sox", "iconUrl": null, "installs": 1, "name": "Sox", "ownerName": "xueyetianya", "score": 97222.22222222222, "slug": "sox", "source": "clawhub", "stars": 0, "tags": null, "updated_at": 1776697784380, "version": "1.0.0"}, {"category": "", "created_at": 1774884120830, "description": "Cloudlayer integration. Manage data, records, and automate workflows. Use when the user wants to interact with Cloudlayer data.", "description_zh": "", "downloads": 35, "homepage": "https://clawhub.ai/membranedev/cloudlayer", "iconUrl": null, "installs": 0, "name": "Cloudlayer", "ownerName": "membranedev", "score": 97222.22222222222, "slug": "cloudlayer", "source": "clawhub", "stars": 0, "tags": null, "updated_at": 1776697784372, "version": "1.0.0"}, {"category": "", "created_at": 1774913209918, "description": "Staff shift scheduling and management assistant for retail store managers and employees. Answers shift queries, sends reminders, handles swap requests, and m...", "description_zh": "", "downloads": 35, "homepage": "https://clawhub.ai/fangwei-frank/shift-scheduler", "iconUrl": null, "installs": 1, "name": "Shift Scheduler", "ownerName": "fangwei-frank", "score": 97222.22222222222, "slug": "shift-scheduler", "source": "clawhub", "stars": 0, "tags": null, "updated_at": 1776697784361, "version": "1.0.0"}, {"category": "", "created_at": 1774902274764, "description": "Create market landscape maps using Marimekko charts. Use for competitive positioning, market analysis, and visualizing multi-dimensional data.", "description_zh": "", "downloads": 35, "homepage": "https://clawhub.ai/linuszz/marimekko-charts", "iconUrl": null, "installs": 2, "name": "Marimekko Charts", "ownerName": "linuszz", "score": 97222.22222222222, "slug": "marimekko-charts", "source": "clawhub", "stars": 0, "tags": null, "updated_at": 1776697784347, "version": "1.0.0"}, {"category": "", "created_at": 1774887984994, "description": "Cross-platform PPC strategy planner for ecommerce businesses. Analyzes your product and margins, recommends the right advertising platforms (Google Ads, Meta...", "description_zh": "", "downloads": 35, "homepage": "https://clawhub.ai/phheng/ecommerce-ppc-strategy-planner", "iconUrl": null, "installs": 1, "name": "Ecommerce Ppc Strategy Planner", "ownerName": "phheng", "score": 97222.22222222222, "slug": "ecommerce-ppc-strategy-planner", "source": "clawhub", "stars": 0, "tags": null, "updated_at": 1776697784346, "version": "0.1.0"}, {"category": "", "created_at": 1774888315825, "description": "Amazon profit margin calculator for sellers. Calculate cost breakdowns, profit margins, break-even points, and get pricing recommendations. Supports single p...", "description_zh": "", "downloads": 35, "homepage": "https://clawhub.ai/phheng/profit-margin-calculator-amazon", "iconUrl": null, "installs": 1, "name": "Profit Margin Calculator Amazon", "ownerName": "phheng", "score": 97222.22222222222, "slug": "profit-margin-calculator-amazon", "source": "clawhub", "stars": 0, "tags": null, "updated_at": 1776697784334, "version": "0.1.0"}, {"category": "", "created_at": 1774876641915, "description": "Meme token fast-trading assistant with two core capabilities: 1. Meme Rush - Real-time meme token lists from launchpads (Pump.fun, Four.meme, etc.) across ne...", "description_zh": "", "downloads": 35, "homepage": "https://clawhub.ai/binance-skills-hub/binance-web3-meme-rush", "iconUrl": null, "installs": 3, "name": "Binance Meme Rush", "ownerName": "binance-skills-hub", "score": 97222.22222222222, "slug": "binance-web3-meme-rush", "source": "clawhub", "stars": 0, "tags": null, "updated_at": 1776697784327, "version": "1.0.0"}, {"category": "", "created_at": 1774902894233, "description": "Browse Bitbucket Cloud repos, review pull requests, read diffs, check branches. Use when user mentions PRs, code changes, diffs, branches, Bitbucket, or repo...", "description_zh": "", "downloads": 35, "homepage": "https://clawhub.ai/pejovicvuk/atlassian-bitbucket", "iconUrl": null, "installs": 0, "name": "Bitbucket", "ownerName": "pejovicvuk", "score": 35353.53535353536, "slug": "atlassian-bitbucket", "source": "clawhub", "stars": 0, "tags": null, "updated_at": 1776697784292, "version": "1.0.1"}, {"category": "", "created_at": 1774914134167, "description": "Optimize e-commerce checkout flow to reduce cart abandonment. Friction analysis, payment method optimization, trust signals, and checkout UX best practices.", "description_zh": "", "downloads": 35, "homepage": "https://clawhub.ai/nexscope/ecommerce-checkout-optimization", "iconUrl": null, "installs": 0, "name": "E-Commerce Checkout Optimization", "ownerName": "nexscope", "score": 35353.53535353536, "slug": "ecommerce-checkout-optimization", "source": "clawhub", "stars": 0, "tags": null, "updated_at": 1776697784289, "version": "1.0.0"}, {"category": "", "created_at": 1774868672805, "description": "Control keyboard RGB backlight, custom LEDs, macros, key mapping, and profile settings via USB HID. Use when the user asks to control keyboard lighting, mana...", "description_zh": "", "downloads": 35, "homepage": "https://clawhub.ai/dionren/claw-keyboard", "iconUrl": null, "installs": 2, "name": "Claw Keyboard", "ownerName": "dionren", "score": 35353.53535353536, "slug": "claw-keyboard", "source": "clawhub", "stars": 0, "tags": null, "updated_at": 1776697784284, "version": "1.0.4"}, {"category": "", "created_at": 1774949225064, "description": "BTCPay Server integration. Manage data, records, and automate workflows. Use when the user wants to interact with BTCPay Server data.", "description_zh": "", "downloads": 35, "homepage": "https://clawhub.ai/membranedev/btcpay-server", "iconUrl": null, "installs": 3, "name": "Btcpay Server", "ownerName": "membranedev", "score": 35353.53535353536, "slug": "btcpay-server", "source": "clawhub", "stars": 0, "tags": null, "updated_at": 1776697784275, "version": "1.0.0"}, {"category": "", "created_at": 1774847690184, "description": "Use when users ask about seeking medical treatment in China, hospital recommendations for specific conditions, medical tourism to China, or planning a health...", "description_zh": "", "downloads": 35, "homepage": "https://clawhub.ai/helenalhq/china-medical-journey-assistant", "iconUrl": null, "installs": 3, "name": "China Medical Journey Assistant", "ownerName": "helenalhq", "score": 35353.53535353536, "slug": "china-medical-journey-assistant", "source": "clawhub", "stars": 0, "tags": null, "updated_at": 1776697784271, "version": "1.0.0"}, {"category": "", "created_at": 1774890560169, "description": "Tool for shell commands execution, visualization and alerting. Configured with a simple YAML file. terminal-dashboard, go, alerting, charts, cmd.", "description_zh": "", "downloads": 35, "homepage": "https://clawhub.ai/bytesagain3/terminal-dashboard", "iconUrl": null, "installs": 2, "name": "Terminal Dashboard", "ownerName": "bytesagain3", "score": 97222.22222222222, "slug": "terminal-dashboard", "source": "clawhub", "stars": 0, "tags": null, "updated_at": 1776697784233, "version": "1.0.0"}, {"category": "", "created_at": 1774914991370, "description": "Interact with Readwise Reader library to list, create, update, and delete documents. Use when the user wants to manage their saved articles, reading lists, o...", "description_zh": "", "downloads": 35, "homepage": "https://clawhub.ai/xinthink/readwise-reader", "iconUrl": null, "installs": 1, "name": "Readwise Reader", "ownerName": "xinthink", "score": 97222.22222222222, "slug": "readwise-reader", "source": "clawhub", "stars": 0, "tags": ["v0.2.3"], "updated_at": 1776697784183, "version": "0.2.3"}, {"category": "", "created_at": 1774875131404, "description": "Requirements blueprint workflow for transforming vague task descriptions into high-quality, implementation-ready Spec + RFC documents. **Trigger conditions (...", "description_zh": "", "downloads": 35, "homepage": "https://clawhub.ai/xadillax/blueprint-spec", "iconUrl": null, "installs": 3, "name": "blueprint", "ownerName": "xadillax", "score": 97222.22222222222, "slug": "blueprint-spec", "source": "clawhub", "stars": 0, "tags": null, "updated_at": 1776697784180, "version": "1.0.0"}, {"category": "", "created_at": 1774830619186, "description": "When the user wants to plan, implement, or optimize affiliate marketing strategy. Also use when the user mentions \"affiliate marketing,\" \"affiliate program s...", "description_zh": "", "downloads": 35, "homepage": "https://clawhub.ai/kostja94/affiliate-marketing-channels", "iconUrl": null, "installs": 1, "name": "affiliate-marketing", "ownerName": "kostja94", "score": 97222.22222222222, "slug": "affiliate-marketing-channels", "source": "clawhub", "stars": 0, "tags": null, "updated_at": 1776697784173, "version": "1.0.0"}, {"category": "", "created_at": 1774912049752, "description": "Npv reference tool. Use when working with npv in finance contexts.", "description_zh": "", "downloads": 35, "homepage": "https://clawhub.ai/ckchzh/npv", "iconUrl": null, "installs": 0, "name": "Npv", "ownerName": "ckchzh", "score": 74468.08510638298, "slug": "npv", "source": "clawhub", "stars": 0, "tags": null, "updated_at": 1776697784170, "version": "1.0.0"}, {"category": "", "created_at": 1774884051951, "description": "Amazon brand protection toolkit. Detect hijackers, counterfeits, and unauthorized sellers. Includes MAP violation monitoring, trademark abuse detection, comp...", "description_zh": "", "downloads": 35, "homepage": "https://clawhub.ai/phheng/brand-protection-amazon", "iconUrl": null, "installs": 4, "name": "Brand Protection Amazon", "ownerName": "phheng", "score": 74468.08510638298, "slug": "brand-protection-amazon", "source": "clawhub", "stars": 0, "tags": null, "updated_at": 1776697784168, "version": "0.1.0"}, {"category": "", "created_at": 1774852813419, "description": "Reference tool for devtools — covers intro, quickstart, patterns and more. Quick lookup for Sitemapper concepts, best practices, and implementation patterns.", "description_zh": "", "downloads": 35, "homepage": "https://clawhub.ai/bytesagain3/sitemapper", "iconUrl": null, "installs": 4, "name": "Sitemapper", "ownerName": "bytesagain3", "score": 74468.08510638298, "slug": "sitemapper", "source": "clawhub", "stars": 0, "tags": null, "updated_at": 1776697784152, "version": "2.0.3"}, {"category": "security-compliance", "created_at": 1772799087005, "description": "India regional compliance — GST (post GST 2.0), e-invoicing, GSTR-1/3B, TDS, Indian CoA (Ind-AS), PF/ESI/PT payroll deductions, and ID validation for ERPClaw...", "description_zh": "", "downloads": 35, "homepage": "https://clawhub.ai/mailnike/erpclaw-region-in", "iconUrl": null, "installs": 1, "name": "Erpclaw Region In", "ownerName": "mailnike", "score": 74468.08510638298, "slug": "erpclaw-region-in", "source": "clawhub", "stars": 0, "tags": null, "updated_at": 1776697784138, "version": "2.1.0"}, {"category": "", "created_at": 1774879541518, "description": "Quickly generate static websites using VitePress. Supports installing dependencies, initializing projects, local preview, building, and deployment.", "description_zh": "", "downloads": 35, "homepage": "https://clawhub.ai/openlark/vitepress-generator", "iconUrl": null, "installs": 1, "name": "VitePress Generator", "ownerName": "openlark", "score": 74468.08510638298, "slug": "vitepress-generator", "source": "clawhub", "stars": 0, "tags": null, "updated_at": 1776697784105, "version": "1.0.1"}, {"category": "", "created_at": 1774884709216, "description": "Generate, review, debug, and recover OpenFOAM case files for CFD workflows. Use when working with OpenFOAM dictionaries, case structure, turbulence fields, b...", "description_zh": "", "downloads": 35, "homepage": "https://clawhub.ai/fzj1214/openfoam-skills", "iconUrl": null, "installs": 3, "name": "openfoam-skills", "ownerName": "fzj1214", "score": 74468.08510638298, "slug": "openfoam-skills", "source": "clawhub", "stars": 0, "tags": null, "updated_at": 1776697784103, "version": "1.0.0"}, {"category": "", "created_at": 1774907905049, "description": "Use this skill whenever the user wants to do anything with PDF files. This includes reading or extracting text/tables from PDFs, combining or merging multipl...", "description_zh": "", "downloads": 35, "homepage": "https://clawhub.ai/mockerzxy/pdfssssssss", "iconUrl": null, "installs": 6, "name": "pdf_ssssssss", "ownerName": "mockerzxy", "score": 74468.08510638298, "slug": "pdfssssssss", "source": "clawhub", "stars": 0, "tags": null, "updated_at": 1776697784101, "version": "1.0.0"}, {"category": "", "created_at": 1774924827634, "description": "Generate the highest quality photorealistic images using Stability AI's Stable Image Ultra and Stable Diffusion 3.5 Large models via AWS Bedrock. The most po...", "description_zh": "", "downloads": 35, "homepage": "https://clawhub.ai/wujiaming88/stable-image-ultra", "iconUrl": null, "installs": 3, "name": "Stable Image Ultra", "ownerName": "wujiaming88", "score": 97222.22222222222, "slug": "stable-image-ultra", "source": "clawhub", "stars": 0, "tags": null, "updated_at": 1776697784082, "version": "1.0.0"}, {"category": "", "created_at": 1774846621128, "description": "Reference tool for devtools — covers intro, quickstart, patterns and more. Quick lookup for Headless Browser concepts, best practices, and implementation pat...", "description_zh": "", "downloads": 35, "homepage": "https://clawhub.ai/xueyetianya/headless-browser", "iconUrl": null, "installs": 2, "name": "Headless Browser", "ownerName": "xueyetianya", "score": 97222.22222222222, "slug": "headless-browser", "source": "clawhub", "stars": 0, "tags": null, "updated_at": 1776697784073, "version": "2.0.1"}, {"category": "", "created_at": 1774873166646, "description": "Intercepts SSH exec calls and pauses them for user approval. Supports one-time and session-wide approval modes, with automatic state cleanup when sessions end.", "description_zh": "", "downloads": 35, "homepage": "https://clawhub.ai/yanbo92/ssh-guard", "iconUrl": null, "installs": 1, "name": "Ssh Guard", "ownerName": "yanbo92", "score": 97222.22222222222, "slug": "ssh-guard", "source": "clawhub", "stars": 0, "tags": null, "updated_at": 1776697784057, "version": "1.0.3"}, {"category": "", "created_at": 1774900940519, "description": "AI Agents Skills - Query product catalog from fore.vip platform via MCP Server. Browse AI products, activities, events, and more. Compatible with OpenClaw, H...", "description_zh": "", "downloads": 35, "homepage": "https://clawhub.ai/onsoul/fore-vip-product", "iconUrl": null, "installs": 0, "name": "Product", "ownerName": "onsoul", "score": 97222.22222222222, "slug": "fore-vip-product", "source": "clawhub", "stars": 0, "tags": null, "updated_at": 1776697784055, "version": "1.0.0"}, {"category": "", "created_at": 1774866950635, "description": "Deploy MiniCPM-o 4.5 multimodal model via Web Demo, vLLM Serve, or llamacpp-omni. Use when the user asks to deploy, start, configure, or troubleshoot MiniCPM...", "description_zh": "", "downloads": 35, "homepage": "https://clawhub.ai/zmxjj/minicpmo-45-deploy", "iconUrl": null, "installs": 1, "name": "MiniCPM-o 4.5 Deploy", "ownerName": "zmxjj", "score": 97222.22222222222, "slug": "minicpmo-45-deploy", "source": "clawhub", "stars": 0, "tags": null, "updated_at": 1776697784052, "version": "1.0.0"}, {"category": "", "created_at": 1774905405511, "description": "Analyze user feedback text to extract sentiment trends and customer needs", "description_zh": "", "downloads": 35, "homepage": "https://clawhub.ai/findhappy7/consumer-insights", "iconUrl": null, "installs": 3, "name": "Consumer Insights", "ownerName": "findhappy7", "score": 97222.22222222222, "slug": "consumer-insights", "source": "clawhub", "stars": 0, "tags": null, "updated_at": 1776697784049, "version": "1.0.0"}, {"category": "ai-intelligence", "created_at": 1772768309389, "description": "Start finishing tasks instead of just organizing them: connect your OpenClaw agent to Unitask (unitask.app) to manage and do your tasks with secure prioritiz...", "description_zh": "", "downloads": 35, "homepage": "https://clawhub.ai/mfaiz-007/unitask-agent", "iconUrl": null, "installs": 6, "name": "Unitask Agent", "ownerName": "mfaiz-007", "score": 97222.22222222222, "slug": "unitask-agent", "source": "clawhub", "stars": 0, "tags": ["mcp", "productivity", "tasks", "unitask"], "updated_at": 1776697784047, "version": "0.18.0"}]}