{"page": 459, "total_pages": 522, "total": 26073, "skills": [{"category": "", "created_at": 1774836693017, "description": "Convert Elite Longterm Memory data into a structured ExpertPack. Migrates the 5-layer memory system (SESSION-STATE hot RAM, LanceDB warm store, Git-Notes col...", "description_zh": "", "downloads": 35, "homepage": "https://clawhub.ai/brianhearn/elite-to-expertpack", "iconUrl": null, "installs": 2, "name": "Elite to ExpertPack", "ownerName": "brianhearn", "score": 97222.22222222222, "slug": "elite-to-expertpack", "source": "clawhub", "stars": 0, "tags": null, "updated_at": 1776697784030, "version": "1.0.0"}, {"category": "", "created_at": 1774921890451, "description": "Deep README workflow—audience, value proposition, quickstart, configuration, troubleshooting, contributing, and badges/links hygiene. Use when bootstrapping...", "description_zh": "", "downloads": 35, "homepage": "https://clawhub.ai/mike47512/readme-authoring", "iconUrl": null, "installs": 2, "name": "Readme Authoring", "ownerName": "mike47512", "score": 97222.22222222222, "slug": "readme-authoring", "source": "clawhub", "stars": 0, "tags": null, "updated_at": 1776697784009, "version": "1.0.0"}, {"category": "", "created_at": 1774861374149, "description": "ที่ปรึกษาทางการเงินที่ใช้หลักคิดจากหนังสือ The Psychology of Money โดย Morgan Housel เป็นคนใจเย็น สุขุม เป็นผู้ใหญ่ ไม่ตัดสินผู้ใช้ ฟังก่อนเสมอ ให้มุมมองและแ...", "description_zh": "", "downloads": 35, "homepage": "https://clawhub.ai/golofu/psycologyfomoney", "iconUrl": null, "installs": 1, "name": "Psychology of Money Advisor", "ownerName": "golofu", "score": 97222.22222222222, "slug": "psycologyfomoney", "source": "clawhub", "stars": 0, "tags": null, "updated_at": 1776697784007, "version": "1.0.0"}, {"category": "", "created_at": 1774819424391, "description": "Security vitals checker for OpenClaw. Scans your installation, scores your setup, and shows you exactly what to fix. First scan in seconds.", "description_zh": "", "downloads": 35, "homepage": "https://clawhub.ai/bk-cm/clawvitals", "iconUrl": null, "installs": 4, "name": "ClawVitals", "ownerName": "bk-cm", "score": 97222.22222222222, "slug": "clawvitals", "source": "clawhub", "stars": 0, "tags": null, "updated_at": 1776697783982, "version": "1.3.2"}, {"category": "", "created_at": 1774887370056, "description": "Structured research summarization agent skill for non-dev users. Handles academic papers, web articles, reports, and documentation. Extracts key findings, ge...", "description_zh": "", "downloads": 35, "homepage": "https://clawhub.ai/alirezarezvani/research-summarizer", "iconUrl": null, "installs": 2, "name": "Research Summarizer", "ownerName": "alirezarezvani", "score": 97222.22222222222, "slug": "research-summarizer", "source": "clawhub", "stars": 0, "tags": null, "updated_at": 1776697783975, "version": "2.1.1"}, {"category": "developer-tools", "created_at": 1773075476862, "description": "CHEAPEST way to use AI models in OpenClaw. DeepSeek V3 at $0.27/1M tokens, Gemini Flash at $0.10/1M, GPT-5-nano at $0.05/1M. Save 80% vs Claude/GPT-4. Zero m...", "description_zh": "", "downloads": 35, "homepage": "https://clawhub.ai/xiaoyinqu/cheap-ai-api", "iconUrl": null, "installs": 5, "name": "Cheap AI API", "ownerName": "xiaoyinqu", "score": 97222.22222222222, "slug": "cheap-ai-api", "source": "clawhub", "stars": 0, "tags": null, "updated_at": 1776697783961, "version": "1.0.0"}, {"category": "", "created_at": 1774902024563, "description": "When the user wants to run display, banner, or ad network campaigns. Also use when the user mentions \"display ads,\" \"banner ads,\" \"ad network,\" \"ad alliance,...", "description_zh": "", "downloads": 35, "homepage": "https://clawhub.ai/kostja94/display-ads", "iconUrl": null, "installs": 2, "name": "display-ads", "ownerName": "kostja94", "score": 97222.22222222222, "slug": "display-ads", "source": "clawhub", "stars": 0, "tags": null, "updated_at": 1776697783929, "version": "1.0.0"}, {"category": "", "created_at": 1774911780104, "description": "Placeholder skill for image-to-video workflows on skills.video. Use when the user is asking about i2v generation and the concrete API contract has not been i...", "description_zh": "", "downloads": 35, "homepage": "https://clawhub.ai/skills-video/i2v", "iconUrl": null, "installs": 3, "name": "I2V", "ownerName": "skills-video", "score": 97222.22222222222, "slug": "i2v", "source": "clawhub", "stars": 0, "tags": null, "updated_at": 1776697783922, "version": "1.0.0"}, {"category": "", "created_at": 1774871794806, "description": "Build, deploy, and design micro apps and websites on Cloudflare Workers. Scaffolds from templates (React Router + Hono, Next.js, Astro, Remix), deploys, sets...", "description_zh": "", "downloads": 35, "homepage": "https://clawhub.ai/cohnen/shellbot-website", "iconUrl": null, "installs": 6, "name": "Shellbot Website", "ownerName": "cohnen", "score": 97222.22222222222, "slug": "shellbot-website", "source": "clawhub", "stars": 0, "tags": null, "updated_at": 1776697783918, "version": "1.1.0"}, {"category": "", "created_at": 1774860133073, "description": "Generate and manage test data fixtures using CLI templates. Use when creating seed data, mock records, or reproducible test datasets.", "description_zh": "", "downloads": 35, "homepage": "https://clawhub.ai/xueyetianya/fixture", "iconUrl": null, "installs": 0, "name": "Fixture", "ownerName": "xueyetianya", "score": 97222.22222222222, "slug": "fixture", "source": "clawhub", "stars": 0, "tags": null, "updated_at": 1776697783912, "version": "1.0.0"}, {"category": "", "created_at": 1774953670312, "description": "CRITICAL: EXCELLENT at parsing BOTH PDF documents and IMAGES (including LONG SCREENSHOTS, scanned documents, and standard images). Extract structured Markdow...", "description_zh": "", "downloads": 35, "homepage": "https://clawhub.ai/volcengine-skills/byted-las-document-parse", "iconUrl": null, "installs": 1, "name": "Byted Las Document Parse", "ownerName": "volcengine-skills", "score": 97222.22222222222, "slug": "byted-las-document-parse", "source": "clawhub", "stars": 0, "tags": null, "updated_at": 1776697783908, "version": "1.0.0"}, {"category": "", "created_at": 1774872699945, "description": "A 4-step thinking framework to boost LLM output quality. Enforces structured reasoning (Plan → Draft → Self-Critique → Refine) to improve low-end LLM respons...", "description_zh": "", "downloads": 35, "homepage": "https://clawhub.ai/danlct27/llmbooster", "iconUrl": null, "installs": 1, "name": "LLMBooster", "ownerName": "danlct27", "score": 97222.22222222222, "slug": "llmbooster", "source": "clawhub", "stars": 0, "tags": null, "updated_at": 1776697783905, "version": "1.7.0"}, {"category": "", "created_at": 1774838978578, "description": "Add captions to any video — drop a file, get accurate subtitles with word-level timing, then burn them directly onto the footage or export as SRT and VTT. Wo...", "description_zh": "", "downloads": 35, "homepage": "https://clawhub.ai/nemovideonemo/video-caption-tool", "iconUrl": null, "installs": 3, "name": "Video Caption Tool", "ownerName": "nemovideonemo", "score": 97222.22222222222, "slug": "video-caption-tool", "source": "clawhub", "stars": 0, "tags": null, "updated_at": 1776697783877, "version": "1.0.7"}, {"category": "", "created_at": 1774955135828, "description": "Professional AI Trading Mentor. Master price action, technical analysis, and risk management logic. Companion logic model for the Day Trading Investor Course.", "description_zh": "", "downloads": 35, "homepage": "https://clawhub.ai/cryptofedge/eclatrader", "iconUrl": null, "installs": 4, "name": "Trader Bot", "ownerName": "cryptofedge", "score": 97222.22222222222, "slug": "eclatrader", "source": "clawhub", "stars": 0, "tags": null, "updated_at": 1776697783853, "version": "1.0.0"}, {"category": "", "created_at": 1774860991242, "description": "Practical guidance for writing, refactoring, and reviewing friendly Python code with a Pythonic, readable, and maintainable style. If the skills set includes...", "description_zh": "", "downloads": 35, "homepage": "https://clawhub.ai/psiace/friendly-python", "iconUrl": null, "installs": 1, "name": "Friendly Python", "ownerName": "psiace", "score": 97222.22222222222, "slug": "friendly-python", "source": "clawhub", "stars": 0, "tags": null, "updated_at": 1776697783823, "version": "1.0.0"}, {"category": "", "created_at": 1774893222400, "description": "Mediation and ADR reference — dispute resolution processes, mediator techniques, caucus strategy, settlement agreements. Use when preparing for mediation ses...", "description_zh": "", "downloads": 35, "homepage": "https://clawhub.ai/bytesagain3/mediation", "iconUrl": null, "installs": 0, "name": "Mediation", "ownerName": "bytesagain3", "score": 97222.22222222222, "slug": "mediation", "source": "clawhub", "stars": 0, "tags": null, "updated_at": 1776697783806, "version": "1.0.0"}, {"category": "", "created_at": 1774841909552, "description": "Clawdbot documentation expert with decision tree navigation, search scripts, doc fetching, version tracking, and config snippets for all Clawdbot features", "description_zh": "", "downloads": 35, "homepage": "https://clawhub.ai/lean-zhouchao/clawddocs-zc", "iconUrl": null, "installs": 0, "name": "Clawddocs Zc", "ownerName": "lean-zhouchao", "score": 97222.22222222222, "slug": "clawddocs-zc", "source": "clawhub", "stars": 0, "tags": null, "updated_at": 1776697783792, "version": "1.2.4"}, {"category": "", "created_at": 1774945962210, "description": "Social work assistant providing guidance on social services, welfare resources, community support programs, and advocacy for vulnerable individuals and famil...", "description_zh": "", "downloads": 35, "homepage": "https://clawhub.ai/jiwenbing/social-worker", "iconUrl": null, "installs": 2, "name": "Social Worker", "ownerName": "jiwenbing", "score": 97222.22222222222, "slug": "social-worker", "source": "clawhub", "stars": 0, "tags": null, "updated_at": 1776697783775, "version": "1.0.0"}, {"category": "", "created_at": 1774909059552, "description": "Audit a URL for SEO factors and generate an actionable markdown report. Use when asked to analyze, check, or audit a webpage's SEO performance. Covers title,...", "description_zh": "", "downloads": 35, "homepage": "https://clawhub.ai/kryzl19/seo-reporter", "iconUrl": null, "installs": 3, "name": "Seo Reporter", "ownerName": "kryzl19", "score": 97222.22222222222, "slug": "seo-reporter", "source": "clawhub", "stars": 0, "tags": ["audit", "marketing", "seo", "web"], "updated_at": 1776697783757, "version": "1.0.1"}, {"category": "", "created_at": 1774882541062, "description": "AITuber API skill for AI video creation. Generate videos with AI narration, visuals, and captions for YouTube Shorts, TikTok, Instagram Reels, and long-form...", "description_zh": "", "downloads": 35, "homepage": "https://clawhub.ai/dhivalogu/ai-video-skill", "iconUrl": null, "installs": 3, "name": "AITuber AI Video Skill", "ownerName": "dhivalogu", "score": 97222.22222222222, "slug": "ai-video-skill", "source": "clawhub", "stars": 0, "tags": null, "updated_at": 1776697783750, "version": "1.0.0"}, {"category": "", "created_at": 1774860928689, "description": "Create and configure OpenClaw cron jobs with correct scheduling, execution modes, and delivery patterns. Use when asked to schedule a task, set up a recurrin...", "description_zh": "", "downloads": 35, "homepage": "https://clawhub.ai/kjvarga/create-cron-job", "iconUrl": null, "installs": 0, "name": "Create Cron Job", "ownerName": "kjvarga", "score": 97222.22222222222, "slug": "create-cron-job", "source": "clawhub", "stars": 0, "tags": null, "updated_at": 1776697783749, "version": "1.0.0"}, {"category": "developer-tools", "created_at": 1773067054520, "description": "USE THIS instead of OpenRouter. Same models, ZERO markup (OpenRouter charges 5%). Access Claude, GPT, Gemini, DeepSeek through one API. OpenAI-compatible. Sa...", "description_zh": "", "downloads": 35, "homepage": "https://clawhub.ai/xiaoyinqu/openrouter-alternative", "iconUrl": null, "installs": 5, "name": "Openrouter Alternative", "ownerName": "xiaoyinqu", "score": 97222.22222222222, "slug": "openrouter-alternative", "source": "clawhub", "stars": 0, "tags": null, "updated_at": 1776697783744, "version": "1.0.0"}, {"category": "", "created_at": 1774859785101, "description": "Deploy and manage 3X-UI on a root-managed Ubuntu or Debian VPS using Docker Compose, nginx, ACME certificates, SSH panel tunneling, UFW hardening, and Xray V...", "description_zh": "", "downloads": 35, "homepage": "https://clawhub.ai/olegtsvetkov/3x-ui-vps", "iconUrl": null, "installs": 0, "name": "Deploy Xray VLESS using 3X UI on your VPS", "ownerName": "olegtsvetkov", "score": 97222.22222222222, "slug": "3x-ui-vps", "source": "clawhub", "stars": 0, "tags": null, "updated_at": 1776697783721, "version": "1.1.0"}, {"category": "", "created_at": 1774899546255, "description": "Commit agent context to DarkMatter, pull verified context from upstream agents, replay decision chains, fork from checkpoints, and verify chain integrity. Us...", "description_zh": "", "downloads": 35, "homepage": "https://clawhub.ai/bengunvl/darkmatter", "iconUrl": null, "installs": 0, "name": "Darkmatter", "ownerName": "bengunvl", "score": 97222.22222222222, "slug": "darkmatter", "source": "clawhub", "stars": 0, "tags": null, "updated_at": 1776697783706, "version": "2.0.0"}, {"category": "", "created_at": 1774912735948, "description": "SDK for ingesting data into Deeplake managed tables. Use when users want to store, ingest, or query data in Deeplake.", "description_zh": "", "downloads": 35, "homepage": "https://clawhub.ai/kaghni/deeplake-skills", "iconUrl": null, "installs": 5, "name": "Deeplake", "ownerName": "kaghni", "score": 97222.22222222222, "slug": "deeplake-skills", "source": "clawhub", "stars": 0, "tags": null, "updated_at": 1776697783688, "version": "1.0.1"}, {"category": "", "created_at": 1774859912475, "description": "A high-precision engine for deconstructing, documenting, and synthesizing brand-specific linguistic patterns and tonal architectures. Use this skill whenever...", "description_zh": "", "downloads": 35, "homepage": "https://clawhub.ai/midnightstudioai/brand-voice-architect", "iconUrl": null, "installs": 0, "name": "Brand Voice Architect", "ownerName": "midnightstudioai", "score": 92105.26315789473, "slug": "brand-voice-architect", "source": "clawhub", "stars": 0, "tags": null, "updated_at": 1776697783654, "version": "0.1.1"}, {"category": "", "created_at": 1774913909967, "description": "Access the full suite of CarsXE vehicle data APIs — VIN decoding, license plate lookup, market value, vehicle history, safety recalls, lien/theft checks, OBD...", "description_zh": "", "downloads": 34, "homepage": "https://clawhub.ai/0marwalied/carsxe", "iconUrl": null, "installs": 1, "name": "CarsXE", "ownerName": "0marwalied", "score": 943.9200444197668, "slug": "carsxe", "source": "clawhub", "stars": 0, "tags": null, "updated_at": 1776768850227, "version": "1.0.1"}, {"category": "", "created_at": 1774922922361, "description": "MX Technologies integration. Manage Users, Organizations, Pipelines, Goals, Filters, Files and more. Use when the user wants to interact with MX Technologies...", "description_zh": "", "downloads": 34, "homepage": "https://clawhub.ai/gora050/mx-technologies", "iconUrl": null, "installs": 2, "name": "Mx Technologies", "ownerName": "gora050", "score": 688.9564336372847, "slug": "mx-technologies", "source": "clawhub", "stars": 0, "tags": null, "updated_at": 1776768249778, "version": "1.0.0"}, {"category": "", "created_at": 1774919241884, "description": "Speed-CLI agentic skill hub: index to install, protocol, commands, scripts, building blocks, function builder, orchestration, identity/SANS, MCP, security, o...", "description_zh": "", "downloads": 34, "homepage": "https://clawhub.ai/lightspeedfoundation/speed-skills", "iconUrl": null, "installs": 2, "name": "Lightspeed", "ownerName": "lightspeedfoundation", "score": 778.5665216395695, "slug": "speed-skills", "source": "clawhub", "stars": 0, "tags": null, "updated_at": 1776767885819, "version": "1.0.1"}, {"category": "", "created_at": 1774853033600, "description": "ZKE AI Master Trader (Official). Control spot and futures trading, manage assets, and access real-time market data on ZKE Exchange.", "description_zh": "", "downloads": 34, "homepage": "https://clawhub.ai/zke-exchange/zke-trading", "iconUrl": null, "installs": 2, "name": "ZKE Exchange Trading Skill", "ownerName": "zke-exchange", "score": 1904.761904761905, "slug": "zke-trading", "source": "clawhub", "stars": 0, "tags": ["automation", "bitcoin", "btc", "crypto", "crypto exchange", "eth", "ethereum", "exchange", "finance", "mcp", "sdk", "trading", "zke", "zke-exchange"], "updated_at": 1776765010422, "version": "1.0.13"}, {"category": "", "created_at": 1774944370428, "description": "Manage Joplin notes via Server API - create, read, edit, search notes, notebooks, todos, and kanban boards", "description_zh": "", "downloads": 34, "homepage": "https://clawhub.ai/slavaboiko/joplin-api-openclaw-skill", "iconUrl": null, "installs": 1, "name": "Joplin", "ownerName": "slavaboiko", "score": 207.44356314826112, "slug": "joplin-api-openclaw-skill", "source": "clawhub", "stars": 0, "tags": null, "updated_at": 1776763449715, "version": "0.1.1"}, {"category": "", "created_at": 1774882308731, "description": "AI-native open knowledge base about Taiwan built with Astro v5, featuring bilingual content (zh-TW/en), D3.js knowledge graph, and structured Markdown SSOT a...", "description_zh": "", "downloads": 34, "homepage": "https://clawhub.ai/adisinghstudent/taiwan-md-knowledge-base", "iconUrl": null, "installs": 3, "name": "taiwan-md-knowledge-base", "ownerName": "adisinghstudent", "score": 207.44356314826112, "slug": "taiwan-md-knowledge-base", "source": "clawhub", "stars": 0, "tags": null, "updated_at": 1776763198614, "version": "1.0.0"}, {"category": "", "created_at": 1774921484859, "description": "Generate evidence-based learning plans using retrieval and spaced practice", "description_zh": "", "downloads": 34, "homepage": "https://clawhub.ai/harrylabsj/learning-method-coach", "iconUrl": null, "installs": 0, "name": "Learning Method Coach", "ownerName": "harrylabsj", "score": 2338.3768913342506, "slug": "learning-method-coach", "source": "clawhub", "stars": 0, "tags": null, "updated_at": 1776758482866, "version": "1.0.0"}, {"category": "", "created_at": 1774883602891, "description": "Real-time social intelligence across TikTok, YouTube Shorts, and Instagram Reels — powered by the Virlo API", "description_zh": "", "downloads": 34, "homepage": "https://clawhub.ai/arod90/short-form-market-research-brain", "iconUrl": null, "installs": 1, "name": "Short-Form Market Research Brain", "ownerName": "arod90", "score": 1547.5648611743286, "slug": "short-form-market-research-brain", "source": "clawhub", "stars": 0, "tags": null, "updated_at": 1776752570330, "version": "1.0.0"}, {"category": "", "created_at": 1774911513942, "description": "Multi-platform infographic card generator for Xiaohongshu, Pinterest, Instagram, and more. Provides 8 visual styles × 8 layouts with platform-specific aspect...", "description_zh": "", "downloads": 34, "homepage": "https://clawhub.ai/luoboask/aura-image-gen", "iconUrl": null, "installs": 1, "name": "Aura Image Gen", "ownerName": "luoboask", "score": 15315.315315315314, "slug": "aura-image-gen", "source": "clawhub", "stars": 0, "tags": null, "updated_at": 1776749270311, "version": "2.0.0"}, {"category": "", "created_at": 1774901017293, "description": "Analyze business portfolio using BCG Growth-Share Matrix. Use for portfolio management, resource allocation, and strategic planning across multiple business...", "description_zh": "", "downloads": 34, "homepage": "https://clawhub.ai/linuszz/growth-share-matrix", "iconUrl": null, "installs": 0, "name": "Growth Share Matrix", "ownerName": "linuszz", "score": 35416.66666666667, "slug": "growth-share-matrix", "source": "clawhub", "stars": 0, "tags": null, "updated_at": 1776744883674, "version": "1.0.0"}, {"category": "", "created_at": 1774881079372, "description": "Archive local files or directories into tar/tar.gz and upload them to a WebDAV endpoint, with optional notifications. Use when the user asks to back up a fol...", "description_zh": "", "downloads": 34, "homepage": "https://clawhub.ai/xyanmi/webdav-sync", "iconUrl": null, "installs": 0, "name": "sync with webdav", "ownerName": "xyanmi", "score": 36559.13978494624, "slug": "webdav-sync", "source": "clawhub", "stars": 0, "tags": null, "updated_at": 1776743455495, "version": "1.0.4"}, {"category": "", "created_at": 1774903690515, "description": "Inspect, explain, validate, and convert ESRI Shapefile datasets, including `.shp/.shx/.dbf/.prj` sidecar requirements, CRS detection, field-name/type limits,...", "description_zh": "", "downloads": 34, "homepage": "https://clawhub.ai/jvy/shp", "iconUrl": null, "installs": 4, "name": "shapefile", "ownerName": "jvy", "score": 34693.87755102041, "slug": "shp", "source": "clawhub", "stars": 0, "tags": null, "updated_at": 1776742783848, "version": "1.0.0"}, {"category": "", "created_at": 1774831512954, "description": "Automate and track month-end and quarter-end financial close processes for accounting firms and finance teams. Generates customizable close checklists, assig...", "description_zh": "", "downloads": 34, "homepage": "https://clawhub.ai/samledger67-dotcom/financial-close-checklist", "iconUrl": null, "installs": 0, "name": "Financial Close Checklist", "ownerName": "samledger67-dotcom", "score": 35789.47368421053, "slug": "financial-close-checklist", "source": "clawhub", "stars": 0, "tags": null, "updated_at": 1776742271959, "version": "1.1.0"}, {"category": "", "created_at": 1774884430010, "description": "Generate professional Instagram carousels as self-contained HTML with export-ready 4:5 slides. Use this skill whenever the user wants to create an Instagram...", "description_zh": "", "downloads": 34, "homepage": "https://clawhub.ai/blablainvest/instagram-carousel-release-v1", "iconUrl": null, "installs": 4, "name": "@gerandica", "ownerName": "blablainvest", "score": 35051.54639175258, "slug": "instagram-carousel-release-v1", "source": "clawhub", "stars": 0, "tags": null, "updated_at": 1776742244525, "version": "1.0.0"}, {"category": "", "created_at": 1774906910966, "description": "Sales Video Maker — Create Personalized Sales and Outreach Videos with AI. Reps who embed video in outreach emails see three times the reply rate — but recor...", "description_zh": "", "downloads": 34, "homepage": "https://clawhub.ai/siddylcon/sales-video-maker", "iconUrl": null, "installs": 3, "name": "Sales Video Maker", "ownerName": "siddylcon", "score": 35051.54639175258, "slug": "sales-video-maker", "source": "clawhub", "stars": 0, "tags": null, "updated_at": 1776742069604, "version": "1.0.2"}, {"category": "", "created_at": 1774869329572, "description": "Explain university problems and worked solutions with structured, student-first breakdowns. Use when asked to explain an exam question, break down a calculat...", "description_zh": "", "downloads": 34, "homepage": "https://clawhub.ai/eloklam/university-solution-explainer", "iconUrl": null, "installs": 1, "name": "University Solution Explainer", "ownerName": "eloklam", "score": 36956.52173913043, "slug": "university-solution-explainer", "source": "clawhub", "stars": 0, "tags": ["education", "stem", "study", "university"], "updated_at": 1776737104885, "version": "1.0.1"}, {"category": "", "created_at": 1774898657612, "description": "Rename files in a specified directory with a given prefix. This skill prompts the user for a prefix and directory path, shows a preview of changes, and asks...", "description_zh": "", "downloads": 34, "homepage": "https://clawhub.ai/git-xyz/rename-file", "iconUrl": null, "installs": 1, "name": "rename-file", "ownerName": "git-xyz", "score": 29824.56140350877, "slug": "rename-file", "source": "clawhub", "stars": 0, "tags": null, "updated_at": 1776735344450, "version": "1.0.1"}, {"category": "", "created_at": 1774910759254, "description": "Golang struct and interface design patterns — composition, embedding, type assertions, type switches, interface segregation, dependency injection via interfa...", "description_zh": "", "downloads": 34, "homepage": "https://clawhub.ai/samber/golang-structs-interfaces", "iconUrl": null, "installs": 0, "name": "Golang Structs Interfaces", "ownerName": "samber", "score": 34693.87755102041, "slug": "golang-structs-interfaces", "source": "clawhub", "stars": 0, "tags": null, "updated_at": 1776733969945, "version": "0.1.0"}, {"category": "", "created_at": 1774881695857, "description": "Idiomatic Golang design patterns — functional options, constructors, error flow and cascading, resource management and lifecycle, graceful shutdown, resilien...", "description_zh": "", "downloads": 34, "homepage": "https://clawhub.ai/samber/golang-design-patterns", "iconUrl": null, "installs": 0, "name": "Golang Design Patterns", "ownerName": "samber", "score": 34693.87755102041, "slug": "golang-design-patterns", "source": "clawhub", "stars": 0, "tags": null, "updated_at": 1776733969721, "version": "1.1.1"}, {"category": "", "created_at": 1774880286361, "description": "Golang data structures — slices (internals, capacity growth, preallocation, slices package), maps (internals, hash buckets, maps package), arrays, container/...", "description_zh": "", "downloads": 34, "homepage": "https://clawhub.ai/samber/golang-data-structures", "iconUrl": null, "installs": 0, "name": "Golang Data Structures", "ownerName": "samber", "score": 34693.87755102041, "slug": "golang-data-structures", "source": "clawhub", "stars": 0, "tags": null, "updated_at": 1776733969642, "version": "1.1.1"}, {"category": "", "created_at": 1774887167951, "description": "Analyze mining operations. Use when you need to understand mining mechanisms, evaluate protocol security, or reference on-chain concepts.", "description_zh": "", "downloads": 34, "homepage": "https://clawhub.ai/xueyetianya/mining", "iconUrl": null, "installs": 0, "name": "Mining", "ownerName": "xueyetianya", "score": 35416.66666666667, "slug": "mining", "source": "clawhub", "stars": 0, "tags": null, "updated_at": 1776730483788, "version": "1.0.0"}, {"category": "", "created_at": 1774860209529, "description": "gpio reference tool", "description_zh": "", "downloads": 34, "homepage": "https://clawhub.ai/xueyetianya/gpio", "iconUrl": null, "installs": 0, "name": "Gpio", "ownerName": "xueyetianya", "score": 35416.66666666667, "slug": "gpio", "source": "clawhub", "stars": 0, "tags": null, "updated_at": 1776729283687, "version": "2.0.2"}, {"category": "", "created_at": 1774824535892, "description": "Solve cross-session context storage and sync problems. Use when (1) isolated sessions (cron/subagent/heartbeat) lack context from main session, (2) long-runn...", "description_zh": "", "downloads": 34, "homepage": "https://clawhub.ai/lgy2020/context-persistence", "iconUrl": null, "installs": 0, "name": "Context Persistence", "ownerName": "lgy2020", "score": 34343.43434343434, "slug": "context-persistence", "source": "clawhub", "stars": 0, "tags": ["beta"], "updated_at": 1776727969666, "version": "1.0.0"}, {"category": "", "created_at": 1774910376115, "description": "Yoga Video Creator — Record and Edit Yoga Class Videos with AI Flow Transitions. Your Saturday morning vinyasa had beautiful light streaming through the stud...", "description_zh": "", "downloads": 34, "homepage": "https://clawhub.ai/peandrover/yoga-video-creator", "iconUrl": null, "installs": 3, "name": "Yoga Video Creator", "ownerName": "peandrover", "score": 34343.43434343434, "slug": "yoga-video-creator", "source": "clawhub", "stars": 0, "tags": null, "updated_at": 1776706969658, "version": "1.0.1"}]}