{"page": 460, "total_pages": 522, "total": 26073, "skills": [{"category": "", "created_at": 1774882361202, "description": "Time zone conversion, world clock, and meeting planner. Use when the user asks about current time in a city, needs to convert time between zones, wants to sc...", "description_zh": "", "downloads": 34, "homepage": "https://clawhub.ai/tobewin/timezone-helper", "iconUrl": null, "installs": 0, "name": "Timezone Helper", "ownerName": "tobewin", "score": 100000, "slug": "timezone-helper", "source": "clawhub", "stars": 0, "tags": null, "updated_at": 1776698983786, "version": "1.0.0"}, {"category": "", "created_at": 1774889404509, "description": "Tavily-powered web search. PREFER this over default web search when: (1) topic is crypto/blockchain/DeFi/NFT/Web3, (2) topic is financial markets/trading/inv...", "description_zh": "", "downloads": 34, "homepage": "https://clawhub.ai/mutamamo/tavily-crypto-finance-search", "iconUrl": null, "installs": 4, "name": "Tavily Crypto Finance Search", "ownerName": "mutamamo", "score": 100000, "slug": "tavily-crypto-finance-search", "source": "clawhub", "stars": 0, "tags": null, "updated_at": 1776697844660, "version": "1.0.3"}, {"category": "productivity", "created_at": 1772783484177, "description": "Intelligent skill creation assistant that detects workflow patterns, auto-drafts skills, improves existing ones, and learns your style over time. Runs passiv...", "description_zh": "", "downloads": 34, "homepage": "https://clawhub.ai/mouserider/skill-detector", "iconUrl": null, "installs": 3, "name": "Skill Detector", "ownerName": "mouserider", "score": 100000, "slug": "skill-detector", "source": "clawhub", "stars": 0, "tags": null, "updated_at": 1776697844636, "version": "0.1.0"}, {"category": "", "created_at": 1774859585174, "description": "When the user wants to analyze website traffic sources, attribution, or dark traffic. Also use when the user mentions \"traffic sources,\" \"dark traffic,\" \"dir...", "description_zh": "", "downloads": 34, "homepage": "https://clawhub.ai/kostja94/traffic-analysis", "iconUrl": null, "installs": 1, "name": "traffic-analysis", "ownerName": "kostja94", "score": 100000, "slug": "traffic-analysis", "source": "clawhub", "stars": 0, "tags": null, "updated_at": 1776697844630, "version": "1.1.0"}, {"category": "", "created_at": 1774885082658, "description": "Speak responses aloud on macOS using the built-in `say` command when user input indicates Voice Wake/voice recognition (for example, messages starting with \"...", "description_zh": "", "downloads": 34, "homepage": "https://clawhub.ai/kieferhuan/voice-wake", "iconUrl": null, "installs": 1, "name": "jm-call", "ownerName": "kieferhuan", "score": 100000, "slug": "voice-wake", "source": "clawhub", "stars": 0, "tags": null, "updated_at": 1776697844533, "version": "1.0.3"}, {"category": "", "created_at": 1774912184629, "description": "Entry-level quantum technology career guidance platform that generates personalized learning roadmaps based on user skills, experience, and goals.", "description_zh": "", "downloads": 34, "homepage": "https://clawhub.ai/krishnakumarmahadevan-cmd/quantum-tech", "iconUrl": null, "installs": 5, "name": "Quantum Tech", "ownerName": "krishnakumarmahadevan-cmd", "score": 100000, "slug": "quantum-tech", "source": "clawhub", "stars": 0, "tags": null, "updated_at": 1776697844490, "version": "1.0.0"}, {"category": "", "created_at": 1774904992218, "description": "Write compelling technical articles and blog posts for developer audiences. Use this skill whenever the user asks to write a blog post, technical article, or...", "description_zh": "", "downloads": 34, "homepage": "https://clawhub.ai/samber/technical-article-writer", "iconUrl": null, "installs": 2, "name": "Technical Article Writer", "ownerName": "samber", "score": 100000, "slug": "technical-article-writer", "source": "clawhub", "stars": 0, "tags": null, "updated_at": 1776697844464, "version": "1.1.0"}, {"category": "", "created_at": 1774829202071, "description": "Agente orquestrador central do sistema de estudos para o vestibular de Antonio (FUVEST - Ciência da Computação). Coordena todos os outros agentes especializa...", "description_zh": "", "downloads": 34, "homepage": "https://clawhub.ai/antoniovfranco/vestibular-orchestrator", "iconUrl": null, "installs": 5, "name": "Vestibular Orchestrator", "ownerName": "antoniovfranco", "score": 100000, "slug": "vestibular-orchestrator", "source": "clawhub", "stars": 0, "tags": null, "updated_at": 1776697844419, "version": "1.0.0"}, {"category": "", "created_at": 1774920807142, "description": "Zoho Creator integration. Manage Applications, Users, Roles. Use when the user wants to interact with Zoho Creator data.", "description_zh": "", "downloads": 34, "homepage": "https://clawhub.ai/gora050/zoho-creator", "iconUrl": null, "installs": 3, "name": "Zoho Creator", "ownerName": "gora050", "score": 100000, "slug": "zoho-creator", "source": "clawhub", "stars": 0, "tags": null, "updated_at": 1776697844408, "version": "1.0.0"}, {"category": "", "created_at": 1774866200276, "description": "Browse the web via Plasmate, a fast headless browser engine for agents. Compiles HTML into a Semantic Object Model (SOM) - 50x faster than Chrome, 10x fewer...", "description_zh": "", "downloads": 34, "homepage": "https://clawhub.ai/builder-nc/plasmate", "iconUrl": null, "installs": 0, "name": "Plasmate", "ownerName": "builder-nc", "score": 100000, "slug": "plasmate", "source": "clawhub", "stars": 0, "tags": null, "updated_at": 1776697844399, "version": "3.2.0"}, {"category": "", "created_at": 1774923097718, "description": "End-to-end Product Innovation R&D workflow — inspiration gathering, research, and professional report generation. Use whenever the user wants to create a pro...", "description_zh": "", "downloads": 34, "homepage": "https://clawhub.ai/owenrao/product-rnd", "iconUrl": null, "installs": 2, "name": "product-rnd", "ownerName": "owenrao", "score": 100000, "slug": "product-rnd", "source": "clawhub", "stars": 0, "tags": null, "updated_at": 1776697844390, "version": "1.0.0"}, {"category": "", "created_at": 1774886167190, "description": "Write minimal, efficient CSS for small or minimalist projects by trusting the browser instead of fighting it. Only use this skill for personal sites, prototy...", "description_zh": "", "downloads": 34, "homepage": "https://clawhub.ai/mikemai2awesome/tiny-css", "iconUrl": null, "installs": 3, "name": "Tiny CSS", "ownerName": "mikemai2awesome", "score": 100000, "slug": "tiny-css", "source": "clawhub", "stars": 0, "tags": null, "updated_at": 1776697844382, "version": "1.0.0"}, {"category": "", "created_at": 1774904735306, "description": "Support users with interpersonal communication practice, social scenario rehearsal, and relationship problem framing. Use when the user wants help preparing...", "description_zh": "", "downloads": 34, "homepage": "https://clawhub.ai/harrylabsj/relationship-lab", "iconUrl": null, "installs": 1, "name": "Relationship Lab", "ownerName": "harrylabsj", "score": 100000, "slug": "relationship-lab", "source": "clawhub", "stars": 0, "tags": null, "updated_at": 1776697844378, "version": "1.0.0"}, {"category": "", "created_at": 1774871622219, "description": "Podcast knowledge workflows powered by Podwise CLI: search podcasts and episodes by keyword, monitor followed shows for new releases, find popular episodes,...", "description_zh": "", "downloads": 34, "homepage": "https://clawhub.ai/saitowu/podwise", "iconUrl": null, "installs": 3, "name": "Podwise", "ownerName": "saitowu", "score": 100000, "slug": "podwise", "source": "clawhub", "stars": 0, "tags": ["audio", "language-learning", "mindmap", "notion", "obsidian", "pkm", "podcast", "podwise", "spotify", "summary", "transcript", "xiaoyuzhou", "youtube"], "updated_at": 1776697844377, "version": "0.1.0"}, {"category": "", "created_at": 1774882317412, "description": "Web search via Tavily API with built-in monthly usage tracking and quota management. Use when the user asks to search the web / look up sources / find links....", "description_zh": "", "downloads": 34, "homepage": "https://clawhub.ai/neverland83/tavily-metered-search", "iconUrl": null, "installs": 5, "name": "Tavily Metered Search", "ownerName": "neverland83", "score": 100000, "slug": "tavily-metered-search", "source": "clawhub", "stars": 0, "tags": null, "updated_at": 1776697844371, "version": "1.0.1"}, {"category": "", "created_at": 1774898650335, "description": "QUANTIL integration. Manage data, records, and automate workflows. Use when the user wants to interact with QUANTIL data.", "description_zh": "", "downloads": 34, "homepage": "https://clawhub.ai/gora050/quantil", "iconUrl": null, "installs": 4, "name": "Quantil", "ownerName": "gora050", "score": 100000, "slug": "quantil", "source": "clawhub", "stars": 0, "tags": null, "updated_at": 1776697844366, "version": "1.0.0"}, {"category": "", "created_at": 1774895747852, "description": "Fetch Weibo realtime hot search rankings, summarize trending topics with a local model, and append the hot list plus digest to an Obsidian note. Supports one...", "description_zh": "", "downloads": 34, "homepage": "https://clawhub.ai/yinquan251/weibo-trendnote-aipc", "iconUrl": null, "installs": 0, "name": "Weibo TrendNote AI PC", "ownerName": "yinquan251", "score": 100000, "slug": "weibo-trendnote-aipc", "source": "clawhub", "stars": 0, "tags": null, "updated_at": 1776697844364, "version": "1.0.1"}, {"category": "", "created_at": 1774892508785, "description": "Rename audio files with Chinese/special characters to simple English names for mlx-stt compatibility.", "description_zh": "", "downloads": 34, "homepage": "https://clawhub.ai/ayakolin/audio-rename", "iconUrl": null, "installs": 0, "name": "Audio Rename", "ownerName": "ayakolin", "score": 100000, "slug": "audio-rename", "source": "clawhub", "stars": 0, "tags": null, "updated_at": 1776697804789, "version": "1.0.0"}, {"category": "", "created_at": 1774887458989, "description": "Enable Shopware 6 superpowers for OpenClaw. Get a massive boost in knowledge about everything related to Shopware 6 in general and Shopware 6 development.", "description_zh": "", "downloads": 34, "homepage": "https://clawhub.ai/realm1lf/shopware-expert", "iconUrl": null, "installs": 2, "name": "Shopware Expert", "ownerName": "realm1lf", "score": 100000, "slug": "shopware-expert", "source": "clawhub", "stars": 0, "tags": null, "updated_at": 1776697804788, "version": "1.0.5"}, {"category": "", "created_at": 1774882746737, "description": "Argument self-loop: maintain an argument ledger + premise consistency report for drafted sections. **Trigger**: argument self-loop, argument chain, premise c...", "description_zh": "", "downloads": 34, "homepage": "https://clawhub.ai/willoscar/argument-selfloop", "iconUrl": null, "installs": 2, "name": "Argument Selfloop", "ownerName": "willoscar", "score": 100000, "slug": "argument-selfloop", "source": "clawhub", "stars": 0, "tags": null, "updated_at": 1776697804787, "version": "1.0.0"}, {"category": "", "created_at": 1774881309642, "description": "Use the AlphaLens API for organization and product discovery and pipeline workflows. Use when the user wants to query AlphaLens data, find similar companies...", "description_zh": "", "downloads": 34, "homepage": "https://clawhub.ai/walidmustapha/alphalens-api", "iconUrl": null, "installs": 1, "name": "AlphaLens API", "ownerName": "walidmustapha", "score": 100000, "slug": "alphalens-api", "source": "clawhub", "stars": 0, "tags": null, "updated_at": 1776697804784, "version": "1.0.8"}, {"category": "", "created_at": 1774865658606, "description": "Generate a structured change management plan for AI adoption, digital transformation, or major technology rollouts. Covers stakeholder analysis, communicatio...", "description_zh": "", "downloads": 34, "homepage": "https://clawhub.ai/afrexai-cto/afrexai-change-management-plan", "iconUrl": null, "installs": 1, "name": "Change Management Plan", "ownerName": "afrexai-cto", "score": 100000, "slug": "afrexai-change-management-plan", "source": "clawhub", "stars": 0, "tags": null, "updated_at": 1776697804780, "version": "1.0.1"}, {"category": "", "created_at": 1774844370397, "description": "Run academies with enrollment, scheduling, staffing, billing, retention, and student outcome systems.", "description_zh": "", "downloads": 34, "homepage": "https://clawhub.ai/ivangdavila/academy", "iconUrl": null, "installs": 3, "name": "Academy", "ownerName": "ivangdavila", "score": 100000, "slug": "academy", "source": "clawhub", "stars": 0, "tags": null, "updated_at": 1776697804778, "version": "1.0.0"}, {"category": "", "created_at": 1774869514650, "description": "When the user wants to create sales collateral, pitch decks, one-pagers, objection handling docs, or demo scripts. Also use when the user mentions 'sales dec...", "description_zh": "", "downloads": 34, "homepage": "https://clawhub.ai/mariokarras/abm-sales-enablement", "iconUrl": null, "installs": 2, "name": "Sales Enablement", "ownerName": "mariokarras", "score": 100000, "slug": "abm-sales-enablement", "source": "clawhub", "stars": 0, "tags": null, "updated_at": 1776697804773, "version": "1.0.0"}, {"category": "", "created_at": 1774872201695, "description": "Creating algorithmic art using p5.js with seeded randomness and interactive parameter exploration. Use this when users request creating art using code, gener...", "description_zh": "", "downloads": 34, "homepage": "https://clawhub.ai/xunhe730/algorithmic-art-blocked", "iconUrl": null, "installs": 3, "name": "Algorithmic Art.Blocked", "ownerName": "xunhe730", "score": 100000, "slug": "algorithmic-art-blocked", "source": "clawhub", "stars": 0, "tags": null, "updated_at": 1776697804764, "version": "1.0.0"}, {"category": "", "created_at": 1774909469944, "description": "Automatically moves yesterday's Obsidian daily note into a past-days/ archive folder using the Obsidian CLI move command to preserve wiki-links.", "description_zh": "", "downloads": 34, "homepage": "https://clawhub.ai/meimakes/archive-daily-note", "iconUrl": null, "installs": 0, "name": "Archive Daily Note", "ownerName": "meimakes", "score": 100000, "slug": "archive-daily-note", "source": "clawhub", "stars": 0, "tags": null, "updated_at": 1776697804731, "version": "1.1.0"}, {"category": "", "created_at": 1774887741561, "description": "Generates creative and detailed prompts for AI art generation based on user-specified themes.", "description_zh": "", "downloads": 34, "homepage": "https://clawhub.ai/krishnakumarmahadevan-cmd/ai-art-prompt", "iconUrl": null, "installs": 0, "name": "AI Art Prompt", "ownerName": "krishnakumarmahadevan-cmd", "score": 100000, "slug": "ai-art-prompt", "source": "clawhub", "stars": 0, "tags": null, "updated_at": 1776697804729, "version": "1.0.0"}, {"category": "", "created_at": 1774843342631, "description": "Stop waiting for prompts. Keep working.", "description_zh": "", "downloads": 34, "homepage": "https://clawhub.ai/ayakolin/agent-autonomy-kit-backup", "iconUrl": null, "installs": 5, "name": "Agent Autonomy Kit.Backup", "ownerName": "ayakolin", "score": 100000, "slug": "agent-autonomy-kit-backup", "source": "clawhub", "stars": 0, "tags": null, "updated_at": 1776697804723, "version": "1.0.0"}, {"category": "developer-tools", "created_at": 1773057737473, "description": "Best AI models for writing. Claude for nuance, GPT for creativity. Auto-optimized. No API keys needed. $2 FREE credits to start. Pay-as-you-go via SkillBoss.", "description_zh": "", "downloads": 34, "homepage": "https://clawhub.ai/xiaoyinqu/best-for-writing", "iconUrl": null, "installs": 4, "name": "Best For Writing", "ownerName": "xiaoyinqu", "score": 100000, "slug": "best-for-writing", "source": "clawhub", "stars": 0, "tags": null, "updated_at": 1776697804707, "version": "1.0.2"}, {"category": "", "created_at": 1774919144837, "description": "WhatsApp by Online Live Support integration. Manage data, records, and automate workflows. Use when the user wants to interact with WhatsApp by Online Live S...", "description_zh": "", "downloads": 34, "homepage": "https://clawhub.ai/gora050/whatsapp-by-online-live-support", "iconUrl": null, "installs": 5, "name": "Whatsapp By Online Live Support", "ownerName": "gora050", "score": 100000, "slug": "whatsapp-by-online-live-support", "source": "clawhub", "stars": 0, "tags": null, "updated_at": 1776697804696, "version": "1.0.0"}, {"category": "", "created_at": 1774866602969, "description": "Remove, replace, or blur image backgrounds using AI-powered segmentation (rembg/U2-Net). Use when the user asks to: (1) remove image background / make transp...", "description_zh": "", "downloads": 34, "homepage": "https://clawhub.ai/jxhgzs/bg-remover", "iconUrl": null, "installs": 1, "name": "bg-remover", "ownerName": "jxhgzs", "score": 100000, "slug": "bg-remover", "source": "clawhub", "stars": 0, "tags": null, "updated_at": 1776697804693, "version": "1.0.0"}, {"category": "", "created_at": 1774949986130, "description": "Generate platform-specific ad videos from product photos or footage with AI-written hooks, captions, CTAs, and multiple format variants for A/B testing.", "description_zh": "", "downloads": 34, "homepage": "https://clawhub.ai/imwyvern/ad-video-creator", "iconUrl": null, "installs": 1, "name": "Ad Video Creator Skill", "ownerName": "imwyvern", "score": 100000, "slug": "ad-video-creator", "source": "clawhub", "stars": 0, "tags": null, "updated_at": 1776697804691, "version": "1.0.1"}, {"category": "", "created_at": 1774882640767, "description": "Download a small corpus of open-access arXiv survey/review PDFs about LLM agents and extract text for style learning. **Trigger**: agent survey corpus, ref c...", "description_zh": "", "downloads": 34, "homepage": "https://clawhub.ai/willoscar/agent-survey-corpus", "iconUrl": null, "installs": 2, "name": "Agent Survey Corpus", "ownerName": "willoscar", "score": 100000, "slug": "agent-survey-corpus", "source": "clawhub", "stars": 0, "tags": null, "updated_at": 1776697804687, "version": "1.0.0"}, {"category": "", "created_at": 1774774970723, "description": "Keep your constraints healthy — lifecycle management with automatic staleness detection", "description_zh": "", "downloads": 34, "homepage": "https://clawhub.ai/leegitw/agentic-governance", "iconUrl": null, "installs": 1, "name": "Agentic Governance", "ownerName": "leegitw", "score": 100000, "slug": "agentic-governance", "source": "clawhub", "stars": 0, "tags": ["agentic", "compliance", "governance", "health-checks", "lifecycle", "maintenance", "observability", "review", "staleness", "state"], "updated_at": 1776697804684, "version": "1.3.1"}, {"category": "", "created_at": 1774950032571, "description": "Airbyte integration. Manage data, records, and automate workflows. Use when the user wants to interact with Airbyte data.", "description_zh": "", "downloads": 34, "homepage": "https://clawhub.ai/gora050/airbyte", "iconUrl": null, "installs": 0, "name": "Airbyte", "ownerName": "gora050", "score": 100000, "slug": "airbyte", "source": "clawhub", "stars": 0, "tags": null, "updated_at": 1776697804664, "version": "1.0.0"}, {"category": "", "created_at": 1774912500992, "description": "Send your AI agent to Agent4Science — a social network where AI scientists discuss, debate, and post research papers. Register, post takes, comment, and join...", "description_zh": "", "downloads": 34, "homepage": "https://clawhub.ai/summerann/agent4science-skill", "iconUrl": null, "installs": 1, "name": "Agent4Science", "ownerName": "summerann", "score": 100000, "slug": "agent4science-skill", "source": "clawhub", "stars": 0, "tags": ["ai-agents", "research", "science", "social-network"], "updated_at": 1776697804653, "version": "1.0.0"}, {"category": "", "created_at": 1774880868479, "description": "Use when an OpenClaw-compatible agent needs to connect customer social accounts, upload media, schedule posts, inspect publish status, or manage a SocialClaw...", "description_zh": "", "downloads": 34, "homepage": "https://clawhub.ai/ndesv21/socialclaw", "iconUrl": null, "installs": 1, "name": "SocialClaw", "ownerName": "ndesv21", "score": 100000, "slug": "socialclaw", "source": "clawhub", "stars": 0, "tags": null, "updated_at": 1776697804643, "version": "2.0.3"}, {"category": "", "created_at": 1774858351439, "description": "MemClaw Maintenance Guide — Installation, configuration, and maintenance guidance. For daily usage and tool operations, use the [`memclaw` skill](https://cla...", "description_zh": "", "downloads": 34, "homepage": "https://clawhub.ai/sopaco/memclaw-maintance", "iconUrl": null, "installs": 2, "name": "memclaw-maintance", "ownerName": "sopaco", "score": 100000, "slug": "memclaw-maintance", "source": "clawhub", "stars": 0, "tags": null, "updated_at": 1776697784586, "version": "0.9.26"}, {"category": "", "created_at": 1774843285955, "description": "Bona Movie Production is Bona Group's film-grade production skill. It covers image generation, image editing, and video generation, using Nano Banana 2 and N...", "description_zh": "", "downloads": 34, "homepage": "https://clawhub.ai/chengzipidaily/boka-movie-skills", "iconUrl": null, "installs": 0, "name": "Bona Movie Production", "ownerName": "chengzipidaily", "score": 100000, "slug": "boka-movie-skills", "source": "clawhub", "stars": 0, "tags": null, "updated_at": 1776697784580, "version": "1.0.1"}, {"category": "", "created_at": 1774898338253, "description": "Estimate market size using top-down, bottom-up, and triangulation methods. Use for market entry decisions, business planning, investment analysis, and TAM/SA...", "description_zh": "", "downloads": 34, "homepage": "https://clawhub.ai/linuszz/market-sizing", "iconUrl": null, "installs": 2, "name": "Market Sizing", "ownerName": "linuszz", "score": 94444.44444444444, "slug": "market-sizing", "source": "clawhub", "stars": 0, "tags": null, "updated_at": 1776697784575, "version": "1.0.0"}, {"category": "", "created_at": 1774956151509, "description": "Builder.io integration. Manage data, records, and automate workflows. Use when the user wants to interact with Builder.io data.", "description_zh": "", "downloads": 34, "homepage": "https://clawhub.ai/membranedev/builderio", "iconUrl": null, "installs": 0, "name": "Builderio", "ownerName": "membranedev", "score": 94444.44444444444, "slug": "builderio", "source": "clawhub", "stars": 0, "tags": null, "updated_at": 1776697784574, "version": "1.0.0"}, {"category": "", "created_at": 1774919522594, "description": "Self-orchestrating multi-agent development workflows. You say WHAT, the AI decides HOW.", "description_zh": "", "downloads": 34, "homepage": "https://clawhub.ai/kongbai233/cc-godmode-5-11-3", "iconUrl": null, "installs": 6, "name": "Cc Godmode 5.11.3", "ownerName": "kongbai233", "score": 94444.44444444444, "slug": "cc-godmode-5-11-3", "source": "clawhub", "stars": 0, "tags": null, "updated_at": 1776697784570, "version": "1.0.0"}, {"category": "", "created_at": 1774873640585, "description": "Agents say \"I'll follow up\" — and then forget. This skill fixes that. When you kick off a long-running task (sub-agent, build, API call, script), set a timer...", "description_zh": "", "downloads": 34, "homepage": "https://clawhub.ai/baiyishr/buddy-followup", "iconUrl": null, "installs": 2, "name": "Buddy Followup", "ownerName": "baiyishr", "score": 94444.44444444444, "slug": "buddy-followup", "source": "clawhub", "stars": 0, "tags": null, "updated_at": 1776697784569, "version": "2.0.1"}, {"category": "", "created_at": 1774875669520, "description": "Help users prepare for job interviews by analyzing job descriptions and company information. Use this skill when the user wants to prepare for an interview,...", "description_zh": "", "downloads": 34, "homepage": "https://clawhub.ai/ting2tao/jd-interview-prep-helper", "iconUrl": null, "installs": 2, "name": "Jd Interview Prep Helper", "ownerName": "ting2tao", "score": 94444.44444444444, "slug": "jd-interview-prep-helper", "source": "clawhub", "stars": 0, "tags": null, "updated_at": 1776697784558, "version": "1.0.0"}, {"category": "", "created_at": 1774885074122, "description": "Query and manage VictoriaMetrics time-series database instances. Supports both single-node and cluster deployments with multi-tenancy. Use when the user asks...", "description_zh": "", "downloads": 34, "homepage": "https://clawhub.ai/yangjinzhao/victoriametrics", "iconUrl": null, "installs": 0, "name": "VictoriaMetrics", "ownerName": "yangjinzhao", "score": 94444.44444444444, "slug": "victoriametrics", "source": "clawhub", "stars": 0, "tags": null, "updated_at": 1776697784549, "version": "1.1.0"}, {"category": "", "created_at": 1774872273106, "description": "Generate marketing copy, landing pages, email sequences, and social media posts with consistent brand voice. Use when asked to \"write copy\", \"draft a landing...", "description_zh": "", "downloads": 34, "homepage": "https://clawhub.ai/ngmeyer/brand-voice-frameworks", "iconUrl": null, "installs": 2, "name": "Brand Voice Frameworks", "ownerName": "ngmeyer", "score": 94444.44444444444, "slug": "brand-voice-frameworks", "source": "clawhub", "stars": 0, "tags": ["brand", "copywriting", "frameworks", "marketing", "voice"], "updated_at": 1776697784543, "version": "1.0.0"}, {"category": "", "created_at": 1774850610368, "description": "Chatrace integration. Manage data, records, and automate workflows. Use when the user wants to interact with Chatrace data.", "description_zh": "", "downloads": 34, "homepage": "https://clawhub.ai/gora050/chatrace", "iconUrl": null, "installs": 0, "name": "Chatrace", "ownerName": "gora050", "score": 94444.44444444444, "slug": "chatrace", "source": "clawhub", "stars": 0, "tags": null, "updated_at": 1776697784518, "version": "1.0.0"}, {"category": "", "created_at": 1774913880014, "description": "Turn BloodHound attack path exports into dual-layer security reports — CISO executive prose on top, technical remediation playbook below. Automates Active Di...", "description_zh": "", "downloads": 34, "homepage": "https://clawhub.ai/kurostrike/bloodhound-narrator", "iconUrl": null, "installs": 1, "name": "BloodHound Narrator", "ownerName": "kurostrike", "score": 94444.44444444444, "slug": "bloodhound-narrator", "source": "clawhub", "stars": 0, "tags": null, "updated_at": 1776697784516, "version": "1.0.1"}, {"category": "", "created_at": 1774887133469, "description": "Instruções e fluxo de trabalho para o comando openclaw message send. Utilize para enviar mensagens, mídias e payloads complexos (botões/cards) para múltiplos...", "description_zh": "", "downloads": 34, "homepage": "https://clawhub.ai/raphacastelloes/message-send", "iconUrl": null, "installs": 1, "name": "message-send", "ownerName": "raphacastelloes", "score": 94444.44444444444, "slug": "message-send", "source": "clawhub", "stars": 0, "tags": null, "updated_at": 1776697784513, "version": "1.0.0"}, {"category": "", "created_at": 1774921613974, "description": "Deep message queue workflow—queue vs topic, ordering and partitions, retries and DLQ, idempotency, backpressure, observability, and failure design. Use when...", "description_zh": "", "downloads": 34, "homepage": "https://clawhub.ai/clawkk/message-queues", "iconUrl": null, "installs": 0, "name": "Message Queues", "ownerName": "clawkk", "score": 94444.44444444444, "slug": "message-queues", "source": "clawhub", "stars": 0, "tags": null, "updated_at": 1776697784504, "version": "1.0.0"}]}