{"page": 461, "total_pages": 522, "total": 26073, "skills": [{"category": "", "created_at": 1774886543642, "description": "BGP protocol analysis with peer state diagnosis, path selection verification, route filtering validation, and convergence assessment. Multi-vendor coverage f...", "description_zh": "", "downloads": 34, "homepage": "https://clawhub.ai/vahagn-madatyan/bgp-analysis", "iconUrl": null, "installs": 2, "name": "Bgp Analysis", "ownerName": "vahagn-madatyan", "score": 94444.44444444444, "slug": "bgp-analysis", "source": "clawhub", "stars": 0, "tags": null, "updated_at": 1776697784499, "version": "0.1.1"}, {"category": "", "created_at": 1774921514455, "description": "A compassionate AI love counselor who helps you work through relationship emotions and patterns. Unlike quick-fix advice, this skill takes time to understand...", "description_zh": "", "downloads": 34, "homepage": "https://clawhub.ai/imwyvern/love-counselor", "iconUrl": null, "installs": 0, "name": "Love Counselor Skill", "ownerName": "imwyvern", "score": 94444.44444444444, "slug": "love-counselor", "source": "clawhub", "stars": 0, "tags": null, "updated_at": 1776697784460, "version": "1.0.0"}, {"category": "", "created_at": 1774899432331, "description": "ClawDef — Self-hosted Token optimization dashboard for OpenClaw. Tracks token usage, estimates costs, auto-switches to cheapest model, provides one-click pro...", "description_zh": "", "downloads": 34, "homepage": "https://clawhub.ai/gs921302/clawdef", "iconUrl": null, "installs": 3, "name": "ClawDef", "ownerName": "gs921302", "score": 94444.44444444444, "slug": "clawdef", "source": "clawhub", "stars": 0, "tags": ["cost-optimization", "monitoring", "smart-optimizer", "token-management"], "updated_at": 1776697784452, "version": "1.3.0"}, {"category": "", "created_at": 1774884531942, "description": "Enforce Markdown output formatting policy whenever the user asks for full Markdown source code, raw Markdown, or copyable Markdown documents. Use whenever th...", "description_zh": "", "downloads": 34, "homepage": "https://clawhub.ai/jeff-tian/markdown-output", "iconUrl": null, "installs": 6, "name": "Markdown Output", "ownerName": "jeff-tian", "score": 94444.44444444444, "slug": "markdown-output", "source": "clawhub", "stars": 0, "tags": null, "updated_at": 1776697784443, "version": "0.1.0"}, {"category": "", "created_at": 1774902938025, "description": "Information assistant for BMW. Search products, news, financials, and official resources for BMW.", "description_zh": "", "downloads": 34, "homepage": "https://clawhub.ai/hanxueyuan/bmw", "iconUrl": null, "installs": 0, "name": "BMW", "ownerName": "hanxueyuan", "score": 94444.44444444444, "slug": "bmw", "source": "clawhub", "stars": 0, "tags": null, "updated_at": 1776697784367, "version": "0.1.1"}, {"category": "", "created_at": 1774915775665, "description": "Intelligent skill recommendations for OpenClaw. Analyzes installed skills using rule-based filtering and pattern matching. Suggests complementary skills, alt...", "description_zh": "", "downloads": 34, "homepage": "https://clawhub.ai/tobewin/skill-recommender-pro", "iconUrl": null, "installs": 2, "name": "Skill Recommender Pro", "ownerName": "tobewin", "score": 94444.44444444444, "slug": "skill-recommender-pro", "source": "clawhub", "stars": 0, "tags": null, "updated_at": 1776697784365, "version": "1.0.2"}, {"category": "", "created_at": 1774915519912, "description": "Jumia marketplace opportunity finder and profitable niche analyzer for African markets. Identify profitable niches, analyze competition, calculate margins, a...", "description_zh": "", "downloads": 34, "homepage": "https://clawhub.ai/mguozhen/jumia-opportunity-finder", "iconUrl": null, "installs": 4, "name": "Jumia Opportunity Finder", "ownerName": "mguozhen", "score": 94444.44444444444, "slug": "jumia-opportunity-finder", "source": "clawhub", "stars": 0, "tags": null, "updated_at": 1776697784363, "version": "1.0.0"}, {"category": "", "created_at": 1774914976166, "description": "Manage etcd key-value store operations (list, get, put, delete) with safety checks and backup mechanisms. Use when: reading/writing configuration, managing d...", "description_zh": "", "downloads": 34, "homepage": "https://clawhub.ai/fpbear/etcd-manager", "iconUrl": null, "installs": 1, "name": "etcd-manager", "ownerName": "fpbear", "score": 94444.44444444444, "slug": "etcd-manager", "source": "clawhub", "stars": 0, "tags": null, "updated_at": 1776697784318, "version": "1.0.0"}, {"category": "", "created_at": 1774910565608, "description": "Generate personalized cloud career development roadmaps for AWS, Azure, and GCP support roles.", "description_zh": "", "downloads": 34, "homepage": "https://clawhub.ai/krishnakumarmahadevan-cmd/cloud-support", "iconUrl": null, "installs": 0, "name": "Cloud Support", "ownerName": "krishnakumarmahadevan-cmd", "score": 34343.43434343434, "slug": "cloud-support", "source": "clawhub", "stars": 0, "tags": null, "updated_at": 1776697784304, "version": "1.0.0"}, {"category": "", "created_at": 1774914015386, "description": "Analyze code quality metrics including lines of code by language, cyclomatic complexity (Python), function/class counts, comment ratios, and largest file ran...", "description_zh": "", "downloads": 34, "homepage": "https://clawhub.ai/johnnywang2001/code-metrics", "iconUrl": null, "installs": 0, "name": "Code Metrics", "ownerName": "johnnywang2001", "score": 34343.43434343434, "slug": "code-metrics", "source": "clawhub", "stars": 0, "tags": null, "updated_at": 1776697784299, "version": "1.0.0"}, {"category": "", "created_at": 1774921334275, "description": "Master advanced Git workflows including rebasing, cherry-picking, bisect, worktrees, and reflog to maintain clean history and recover from any situation. Use...", "description_zh": "", "downloads": 34, "homepage": "https://clawhub.ai/soponcd/git-advanced-workflows", "iconUrl": null, "installs": 1, "name": "Git Advanced Workflows", "ownerName": "soponcd", "score": 34343.43434343434, "slug": "git-advanced-workflows", "source": "clawhub", "stars": 0, "tags": null, "updated_at": 1776697784268, "version": "1.0.0"}, {"category": "", "created_at": 1774953097642, "description": "한국주식 analyst Telegram bot. Monitors KOSPI/KOSDAQ, tracks watchlist, delivers AI briefings, answers natural-language questions in Korean/Chinese/English. Cove...", "description_zh": "", "downloads": 34, "homepage": "https://clawhub.ai/lbtsm/mapulse-korea", "iconUrl": null, "installs": 2, "name": "mapulse-korea", "ownerName": "lbtsm", "score": 34343.43434343434, "slug": "mapulse-korea", "source": "clawhub", "stars": 0, "tags": null, "updated_at": 1776697784256, "version": "1.0.3"}, {"category": "", "created_at": 1774889668872, "description": "CPBL (Chinese Professional Baseball League) stats, scores, schedules, and player data for Taiwan's pro baseball.", "description_zh": "", "downloads": 34, "homepage": "https://clawhub.ai/ichendong/cpbl", "iconUrl": null, "installs": 0, "name": "CPBL 中華職棒", "ownerName": "ichendong", "score": 94444.44444444444, "slug": "cpbl", "source": "clawhub", "stars": 0, "tags": null, "updated_at": 1776697784235, "version": "1.2.0"}, {"category": "", "created_at": 1774849281016, "description": "Create, test, and choose names for products, features, APIs, files, and systems with constraint-first briefs and collision checks.", "description_zh": "", "downloads": 34, "homepage": "https://clawhub.ai/ivangdavila/naming", "iconUrl": null, "installs": 0, "name": "Naming", "ownerName": "ivangdavila", "score": 94444.44444444444, "slug": "naming", "source": "clawhub", "stars": 0, "tags": null, "updated_at": 1776697784226, "version": "1.0.0"}, {"category": "", "created_at": 1774856210965, "description": "Your personal AI assistant platform — multi-agent orchestration, task management, and autonomous workflow execution for one-person companies.", "description_zh": "", "downloads": 34, "homepage": "https://clawhub.ai/shiyanhui/one-person-company", "iconUrl": null, "installs": 1, "name": "One Person Company", "ownerName": "shiyanhui", "score": 94444.44444444444, "slug": "one-person-company", "source": "clawhub", "stars": 0, "tags": null, "updated_at": 1776697784223, "version": "0.1.0"}, {"category": "", "created_at": 1774907451020, "description": "Automatically check U.S. visa application status in CEAC (NIV), solve CEAC captcha with Zhipu vision model, and return structured status JSON. Use this when...", "description_zh": "", "downloads": 34, "homepage": "https://clawhub.ai/xavierjiezou/ceac-visa-status-checker", "iconUrl": null, "installs": 5, "name": "ceac-visa-status-checker", "ownerName": "xavierjiezou", "score": 94444.44444444444, "slug": "ceac-visa-status-checker", "source": "clawhub", "stars": 0, "tags": null, "updated_at": 1776697784212, "version": "1.0.0"}, {"category": "", "created_at": 1774906690516, "description": "LiveChat integration. Manage Chats, Reports. Use when the user wants to interact with LiveChat data.", "description_zh": "", "downloads": 34, "homepage": "https://clawhub.ai/gora050/livechat", "iconUrl": null, "installs": 0, "name": "Livechat", "ownerName": "gora050", "score": 94444.44444444444, "slug": "livechat", "source": "clawhub", "stars": 0, "tags": null, "updated_at": 1776697784195, "version": "1.0.0"}, {"category": "", "created_at": 1774854666344, "description": "Design CRISPR gRNA sequences for specific gene exons with off-target prediction and efficiency scoring. Trigger when user needs gRNA design, CRISPR guide RNA...", "description_zh": "", "downloads": 34, "homepage": "https://clawhub.ai/aipoch-ai/crispr-grna-designer", "iconUrl": null, "installs": 3, "name": "Crispr Grna Designer", "ownerName": "aipoch-ai", "score": 72340.4255319149, "slug": "crispr-grna-designer", "source": "clawhub", "stars": 0, "tags": null, "updated_at": 1776697784165, "version": "0.1.0"}, {"category": "data-analysis", "created_at": 1773077380370, "description": "Wallet profiler — balance, PnL, labels, transactions, counterparties, related wallets, batch, trace, compare. Use when analysing a specific wallet address or...", "description_zh": "", "downloads": 34, "homepage": "https://clawhub.ai/hurcannansen/nansen-profiler", "iconUrl": null, "installs": 3, "name": "Nansen Profiler", "ownerName": "hurcannansen", "score": 72340.4255319149, "slug": "nansen-profiler", "source": "clawhub", "stars": 0, "tags": null, "updated_at": 1776697784136, "version": "1.0.0"}, {"category": "", "created_at": 1774894128652, "description": "Work with an Obsidian vault stored on Windows and accessed from WSL. Read, search, create, and edit markdown notes directly through mounted paths such as /mn...", "description_zh": "", "downloads": 34, "homepage": "https://clawhub.ai/wufei-png/obsidian-wsl-vault-access", "iconUrl": null, "installs": 6, "name": "obsidian-wsl-vault-access", "ownerName": "wufei-png", "score": 72340.4255319149, "slug": "obsidian-wsl-vault-access", "source": "clawhub", "stars": 0, "tags": null, "updated_at": 1776697784108, "version": "1.0.0"}, {"category": "", "created_at": 1774951067358, "description": "auto-subtitle-video is a ClawHub AI skill that transcribes spoken audio and burns accurate, styled subtitles directly into your video files — no manual synci...", "description_zh": "", "downloads": 34, "homepage": "https://clawhub.ai/nemovideonemo/auto-subtitle-video", "iconUrl": null, "installs": 2, "name": "Auto Subtitle Video", "ownerName": "nemovideonemo", "score": 94444.44444444444, "slug": "auto-subtitle-video", "source": "clawhub", "stars": 0, "tags": null, "updated_at": 1776697784075, "version": "1.0.0"}, {"category": "", "created_at": 1774855919232, "description": "Multi-flow API workflow skill for this DrugFlow Django repository. Use when an agent needs executable end-to-end API procedures such as login/register, works...", "description_zh": "", "downloads": 34, "homepage": "https://clawhub.ai/ashipiling/drugflow-api", "iconUrl": null, "installs": 2, "name": "DrugFlow", "ownerName": "ashipiling", "score": 94444.44444444444, "slug": "drugflow-api", "source": "clawhub", "stars": 0, "tags": null, "updated_at": 1776697784068, "version": "1.0.2"}, {"category": "", "created_at": 1774847195066, "description": "Reference tool for devtools — covers intro, quickstart, patterns and more. Quick lookup for Dev Utilities concepts, best practices, and implementation patterns.", "description_zh": "", "downloads": 34, "homepage": "https://clawhub.ai/ckchzh/dev-utilities", "iconUrl": null, "installs": 0, "name": "Dev Utilities", "ownerName": "ckchzh", "score": 94444.44444444444, "slug": "dev-utilities", "source": "clawhub", "stars": 0, "tags": null, "updated_at": 1776697784054, "version": "2.0.4"}, {"category": "", "created_at": 1772786632672, "description": "LLM Council — multi-model consensus app with one-command setup. Ask one question to many models, let them critique each other, get a synthesized chairman ans...", "description_zh": "", "downloads": 34, "homepage": "https://clawhub.ai/skipzhang/install-llm-council", "iconUrl": null, "installs": 1, "name": "LLM Council (with Installer)", "ownerName": "skipzhang", "score": 94444.44444444444, "slug": "install-llm-council", "source": "clawhub", "stars": 0, "tags": null, "updated_at": 1776697784040, "version": "1.1.6"}, {"category": "", "created_at": 1774845415707, "description": "Search the web using Baidu AI Search Engine (BDSE). Use for live information, documentation, or research topics.", "description_zh": "", "downloads": 34, "homepage": "https://clawhub.ai/wangshengli0421/tianshu-baidu-search", "iconUrl": null, "installs": 4, "name": "Tianshu Baidu Search", "ownerName": "wangshengli0421", "score": 94444.44444444444, "slug": "tianshu-baidu-search", "source": "clawhub", "stars": 0, "tags": null, "updated_at": 1776697784024, "version": "1.0.0"}, {"category": "", "created_at": 1774849738217, "description": "Reference tool for devtools — covers intro, quickstart, patterns and more. Quick lookup for GPU Helper concepts, best practices, and implementation patterns.", "description_zh": "", "downloads": 34, "homepage": "https://clawhub.ai/ckchzh/gpu-helper", "iconUrl": null, "installs": 1, "name": "Gpu Helper", "ownerName": "ckchzh", "score": 94444.44444444444, "slug": "gpu-helper", "source": "clawhub", "stars": 0, "tags": null, "updated_at": 1776697784017, "version": "2.0.3"}, {"category": "", "created_at": 1774894189839, "description": "When the user wants to define, document, or enforce their brand voice and style guide. Use when the user mentions 'brand voice,' 'tone of voice,' 'style guid...", "description_zh": "", "downloads": 34, "homepage": "https://clawhub.ai/mariokarras/abm-brand-voice", "iconUrl": null, "installs": 3, "name": "Brand Voice", "ownerName": "mariokarras", "score": 94444.44444444444, "slug": "abm-brand-voice", "source": "clawhub", "stars": 0, "tags": null, "updated_at": 1776697784014, "version": "1.0.0"}, {"category": "", "created_at": 1774892910165, "description": "Detect whether an image was generated by AI (e.g. Midjourney, DALL-E, Stable Diffusion) using the Scam.ai API. Guides the user through API key setup if neede...", "description_zh": "", "downloads": 34, "homepage": "https://clawhub.ai/yuchennnnnnn/genai-detection", "iconUrl": null, "installs": 1, "name": "GenAI Detection", "ownerName": "yuchennnnnnn", "score": 94444.44444444444, "slug": "genai-detection", "source": "clawhub", "stars": 0, "tags": null, "updated_at": 1776697784012, "version": "1.0.0"}, {"category": "", "created_at": 1774821582835, "description": "Turn messy weekly ecommerce performance data into an operator-ready report with KPI trends, winners, risks, and next-step recommendations. Use when teams nee...", "description_zh": "", "downloads": 34, "homepage": "https://clawhub.ai/leooooooow/ecommerce-weekly-report", "iconUrl": null, "installs": 2, "name": "Ecommerce Weekly Report", "ownerName": "leooooooow", "score": 94444.44444444444, "slug": "ecommerce-weekly-report", "source": "clawhub", "stars": 0, "tags": null, "updated_at": 1776697784005, "version": "1.0.0"}, {"category": "", "created_at": 1774854920485, "description": "Format, prettify, minify, or validate JSON. Use when the user asks to format JSON, prettify JSON, beautify JSON, minify JSON, compress JSON, validate JSON, f...", "description_zh": "", "downloads": 34, "homepage": "https://clawhub.ai/ohernandez-dev-blossom/json-format", "iconUrl": null, "installs": 1, "name": "Json Format", "ownerName": "ohernandez-dev-blossom", "score": 94444.44444444444, "slug": "json-format", "source": "clawhub", "stars": 0, "tags": null, "updated_at": 1776697784000, "version": "1.0.0"}, {"category": "", "created_at": 1774903514651, "description": "ParseHub integration. Manage Projects. Use when the user wants to interact with ParseHub data.", "description_zh": "", "downloads": 34, "homepage": "https://clawhub.ai/gora050/parsehub", "iconUrl": null, "installs": 0, "name": "Parsehub", "ownerName": "gora050", "score": 94444.44444444444, "slug": "parsehub", "source": "clawhub", "stars": 0, "tags": null, "updated_at": 1776697783993, "version": "1.0.0"}, {"category": "", "created_at": 1774908514333, "description": "Cisco IOS-XE device health check and triage procedure. Use when troubleshooting Cisco IOS-XE routers or switches, checking CPU utilization, memory usage, int...", "description_zh": "", "downloads": 34, "homepage": "https://clawhub.ai/vahagn-madatyan/example-device-health", "iconUrl": null, "installs": 1, "name": "Example Device Health", "ownerName": "vahagn-madatyan", "score": 94444.44444444444, "slug": "example-device-health", "source": "clawhub", "stars": 0, "tags": null, "updated_at": 1776697783983, "version": "1.0.0"}, {"category": "", "created_at": 1774908773636, "description": "LogDNA integration. Manage data, records, and automate workflows. Use when the user wants to interact with LogDNA data.", "description_zh": "", "downloads": 34, "homepage": "https://clawhub.ai/gora050/logdna", "iconUrl": null, "installs": 0, "name": "Logdna", "ownerName": "gora050", "score": 94444.44444444444, "slug": "logdna", "source": "clawhub", "stars": 0, "tags": null, "updated_at": 1776697783971, "version": "1.0.0"}, {"category": "", "created_at": 1774906346225, "description": "Cisco Meraki integration. Manage data, records, and automate workflows. Use when the user wants to interact with Cisco Meraki data.", "description_zh": "", "downloads": 34, "homepage": "https://clawhub.ai/gora050/cisco-meraki", "iconUrl": null, "installs": 0, "name": "Cisco Meraki", "ownerName": "gora050", "score": 94444.44444444444, "slug": "cisco-meraki", "source": "clawhub", "stars": 0, "tags": null, "updated_at": 1776697783959, "version": "1.0.0"}, {"category": "", "created_at": 1774908738029, "description": "Unified GPU kernel operator generation skill. Automatically detects the target repository type (FlagGems, vLLM, or general Python/Triton) and dispatches to t...", "description_zh": "", "downloads": 34, "homepage": "https://clawhub.ai/flagosevangelist/kernelgen-flagos", "iconUrl": null, "installs": 0, "name": "KernelGen FlagOS", "ownerName": "flagosevangelist", "score": 94444.44444444444, "slug": "kernelgen-flagos", "source": "clawhub", "stars": 0, "tags": null, "updated_at": 1776697783898, "version": "1.0.0"}, {"category": "", "created_at": 1774891290709, "description": "Build minimal terminal emulators using the libghostty-vt C API with Raylib for windowing and rendering", "description_zh": "", "downloads": 34, "homepage": "https://clawhub.ai/adisinghstudent/ghostling-libghostty-terminal", "iconUrl": null, "installs": 2, "name": "ghostling-libghostty-terminal", "ownerName": "adisinghstudent", "score": 94444.44444444444, "slug": "ghostling-libghostty-terminal", "source": "clawhub", "stars": 0, "tags": null, "updated_at": 1776697783882, "version": "1.0.0"}, {"category": "", "created_at": 1774912858137, "description": "Summarize end-of-session development progress and sync project handoff documentation in Chinese or English. Use when the user asks to summarize today's chang...", "description_zh": "", "downloads": 34, "homepage": "https://clawhub.ai/loo-y/handover-sync", "iconUrl": null, "installs": 2, "name": "Handover Sync", "ownerName": "loo-y", "score": 94444.44444444444, "slug": "handover-sync", "source": "clawhub", "stars": 0, "tags": null, "updated_at": 1776697783860, "version": "0.1.0"}, {"category": "", "created_at": 1774837253846, "description": "Runs Jogg lip sync using video and audio inputs, reuses tasks when available, and monitors status until completion. Use to generate or check lip sync results.", "description_zh": "", "downloads": 34, "homepage": "https://clawhub.ai/joggai-tech/jogg-lip-sync", "iconUrl": null, "installs": 0, "name": "Jogg Lip Sync", "ownerName": "joggai-tech", "score": 94444.44444444444, "slug": "jogg-lip-sync", "source": "clawhub", "stars": 0, "tags": null, "updated_at": 1776697783857, "version": "0.1.3"}, {"category": "", "created_at": 1774942131117, "description": "Write database queries using tkms AsyncSqlSessionTemplate. Use when implementing dao layer, writing SQL, or when the user asks for database operations with i...", "description_zh": "", "downloads": 34, "homepage": "https://clawhub.ai/laimiaohua/gi-database-query-patterns", "iconUrl": null, "installs": 1, "name": "GI Database Query Patterns", "ownerName": "laimiaohua", "score": 94444.44444444444, "slug": "gi-database-query-patterns", "source": "clawhub", "stars": 0, "tags": null, "updated_at": 1776697783813, "version": "1.0.0"}, {"category": "", "created_at": 1774949396814, "description": "Interact with the Manus AI agent platform via its REST API. Use this skill whenever the user mentions Manus, manus.ai, Manus API, Manus tasks, Manus projects...", "description_zh": "", "downloads": 34, "homepage": "https://clawhub.ai/krishbhimani/manus-skill", "iconUrl": null, "installs": 2, "name": "Manus Skill - Operate Manus through Openclaw", "ownerName": "krishbhimani", "score": 94444.44444444444, "slug": "manus-skill", "source": "clawhub", "stars": 0, "tags": null, "updated_at": 1776697783790, "version": "1.0.2"}, {"category": "", "created_at": 1774900914915, "description": "Use the EdgeFinder CLI for NFL and NBA analysis, schedules, standings, Polymarket odds, and portfolio lookups from the terminal.", "description_zh": "", "downloads": 34, "homepage": "https://clawhub.ai/andrewnexys/edgefinder-cli", "iconUrl": null, "installs": 3, "name": "Edgefinder Cli", "ownerName": "andrewnexys", "score": 94444.44444444444, "slug": "edgefinder-cli", "source": "clawhub", "stars": 0, "tags": null, "updated_at": 1776697783774, "version": "0.1.1"}, {"category": "", "created_at": 1774944044175, "description": "Apply the complete Chinese Copywriting Guidelines with full upstream content bundled locally. Use when reviewing or rewriting Chinese copy in Markdown, docs,...", "description_zh": "", "downloads": 34, "homepage": "https://clawhub.ai/zhonglouxiaonaigao-art/chinese-copywriting-guidelines-full-clawhub", "iconUrl": null, "installs": 2, "name": "chinese-copywriting-guidelines-full-clawhub", "ownerName": "zhonglouxiaonaigao-art", "score": 94444.44444444444, "slug": "chinese-copywriting-guidelines-full-clawhub", "source": "clawhub", "stars": 0, "tags": null, "updated_at": 1776697783708, "version": "1.0.0"}, {"category": "", "created_at": 1774849796809, "description": "Manage Lemonade Servers natively. Use when checking system info, health status, listing available models, pulling or loading new models, completing LLM chats...", "description_zh": "", "downloads": 34, "homepage": "https://clawhub.ai/james-martinez/lemonade-server-manager", "iconUrl": null, "installs": 3, "name": "Lemonade Server Manager", "ownerName": "james-martinez", "score": 89473.68421052632, "slug": "lemonade-server-manager", "source": "clawhub", "stars": 0, "tags": null, "updated_at": 1776697783668, "version": "1.0.7"}, {"category": "", "created_at": 1774899455051, "description": "Professional utility to refine terminal-based ASCII QR code blocks (█, ▀, ▄) into high-definition PNG images.", "description_zh": "", "downloads": 34, "homepage": "https://clawhub.ai/jdchi/cli-qr-refiner", "iconUrl": null, "installs": 0, "name": "Cli Qr Refiner", "ownerName": "jdchi", "score": 89473.68421052632, "slug": "cli-qr-refiner", "source": "clawhub", "stars": 0, "tags": null, "updated_at": 1776697783661, "version": "1.0.2"}, {"category": "", "created_at": 1774784457554, "description": "Export any HTML file to PPTX or PNG. Use when the user wants to convert an HTML presentation to PowerPoint, screenshot a web page, or export an HTML report a...", "description_zh": "", "downloads": 34, "homepage": "https://clawhub.ai/kaisersong/kai-html-export", "iconUrl": null, "installs": 1, "name": "Kai Html Export", "ownerName": "kaisersong", "score": 89473.68421052632, "slug": "kai-html-export", "source": "clawhub", "stars": 0, "tags": null, "updated_at": 1776697783656, "version": "1.1.7"}, {"category": "data-analysis", "created_at": 1773064473884, "description": "Perpetuals analytics on Hyperliquid — screener, leaderboard. Use when checking perp markets, funding rates, or top perp traders.", "description_zh": "", "downloads": 34, "homepage": "https://clawhub.ai/hurcannansen/nansen-perp", "iconUrl": null, "installs": 6, "name": "Nansen Perp", "ownerName": "hurcannansen", "score": 89473.68421052632, "slug": "nansen-perp", "source": "clawhub", "stars": 0, "tags": null, "updated_at": 1776697783649, "version": "1.0.0"}, {"category": "", "created_at": 1774911470350, "description": "Create comprehensive, personalized travel itineraries with day-by-day plans, budget breakdowns, packing lists, and practical tips for any destination.", "description_zh": "", "downloads": 33, "homepage": "https://clawhub.ai/mcj923808-gif/travelplanning", "iconUrl": null, "installs": 3, "name": "travel-planning", "ownerName": "mcj923808-gif", "score": 327.05649157581763, "slug": "travelplanning", "source": "clawhub", "stars": 0, "tags": null, "updated_at": 1776764350245, "version": "1.0.0"}, {"category": "", "created_at": 1774885511889, "description": "Core technical documentation writing principles for voice, tone, structure, and LLM-friendly patterns. Use when writing or reviewing any documentation.", "description_zh": "", "downloads": 33, "homepage": "https://clawhub.ai/anderskev/docs-style", "iconUrl": null, "installs": 0, "name": "Docs Style", "ownerName": "anderskev", "score": 487.8048780487805, "slug": "docs-style", "source": "clawhub", "stars": 0, "tags": null, "updated_at": 1776762850545, "version": "1.0.0"}, {"category": "", "created_at": 1774919759703, "description": "Nano Banana Pro — Dusk Ascension 🌅 — Generate product/concept hero shots in a dreamy ethereal dusk aesthetic: 1990s high-fashion film photography, analog gr...", "description_zh": "", "downloads": 33, "homepage": "https://clawhub.ai/guiweb3/dusk-ascension", "iconUrl": null, "installs": 3, "name": "Dusk Ascension — Ethereal Product Hero Shots", "ownerName": "guiweb3", "score": 1123.213070115725, "slug": "dusk-ascension", "source": "clawhub", "stars": 0, "tags": ["aesthetic", "image-generation", "photography"], "updated_at": 1776761715085, "version": "1.0.0"}, {"category": "", "created_at": 1774865442757, "description": "CLI tool for Telegram via MTProto. Send/read messages, manage groups, search conversations, download media, and automate Telegram workflows. Use when the tas...", "description_zh": "", "downloads": 33, "homepage": "https://clawhub.ai/baontq23/telegram-cli", "iconUrl": null, "installs": 3, "name": "Telegram cli", "ownerName": "baontq23", "score": 780.6955287437899, "slug": "telegram-cli", "source": "clawhub", "stars": 0, "tags": null, "updated_at": 1776760582397, "version": "1.0.5"}]}