{"page": 462, "total_pages": 522, "total": 26073, "skills": [{"category": "", "created_at": 1774912541209, "description": "Ansible integration. Manage data, records, and automate workflows. Use when the user wants to interact with Ansible data.", "description_zh": "", "downloads": 33, "homepage": "https://clawhub.ai/gora050/ansible-integration", "iconUrl": null, "installs": 0, "name": "Ansible", "ownerName": "gora050", "score": 2001.212856276531, "slug": "ansible-integration", "source": "clawhub", "stars": 0, "tags": null, "updated_at": 1776760397767, "version": "1.0.0"}, {"category": "", "created_at": 1776061978456, "description": "Fast image generation with Doubao Seedream 5.0 Lite. Supports text-to-image and image-to-image.", "description_zh": "", "downloads": 33, "homepage": "https://clawhub.ai/user_f95f21b8/dlazy-seedream-5-0-lite", "iconUrl": null, "installs": 3, "name": "seedream 5.0 lite", "ownerName": "user_f95f21b8", "score": 2633.6791699920195, "slug": "dlazy-seedream-5-0-lite", "source": "community", "stars": 0, "tags": null, "updated_at": 1776760098140, "version": "1.0.3"}, {"category": "", "created_at": 1776061903938, "description": "Convert images into dynamic dance videos using Doubao Seedance 1.5 Pro.", "description_zh": "", "downloads": 33, "homepage": "https://clawhub.ai/user_f95f21b8/dlazy-seedance-1-5-pro", "iconUrl": null, "installs": 4, "name": "seedance 1.5 pro", "ownerName": "user_f95f21b8", "score": 2633.6791699920195, "slug": "dlazy-seedance-1-5-pro", "source": "community", "stars": 0, "tags": null, "updated_at": 1776760098135, "version": "1.0.3"}, {"category": "", "created_at": 1774902425893, "description": "Analyze industry competitive dynamics using Porter's Five Forces framework. Use when entering a new market, assessing industry attractiveness, or understandi...", "description_zh": "", "downloads": 33, "homepage": "https://clawhub.ai/linuszz/porters-five-forces", "iconUrl": null, "installs": 2, "name": "Porters Five Forces", "ownerName": "linuszz", "score": 35483.87096774194, "slug": "porters-five-forces", "source": "clawhub", "stars": 0, "tags": null, "updated_at": 1776745970359, "version": "1.0.0"}, {"category": "", "created_at": 1774952128730, "description": "Funding Options integration. Manage data, records, and automate workflows. Use when the user wants to interact with Funding Options data.", "description_zh": "", "downloads": 33, "homepage": "https://clawhub.ai/gora050/funding-options", "iconUrl": null, "installs": 1, "name": "Funding Options", "ownerName": "gora050", "score": 35106.382978723406, "slug": "funding-options", "source": "clawhub", "stars": 0, "tags": null, "updated_at": 1776744883881, "version": "1.0.0"}, {"category": "", "created_at": 1774909275830, "description": "Twitch Video Editor — Edit Twitch Streams and VODs into Clips and Highlights. Last night's stream ran four hours and somewhere around hour two you hit a clut...", "description_zh": "", "downloads": 33, "homepage": "https://clawhub.ai/imo14reifey/twitch-video-editor", "iconUrl": null, "installs": 1, "name": "Twitch Video Editor", "ownerName": "imo14reifey", "score": 37931.034482758616, "slug": "twitch-video-editor", "source": "clawhub", "stars": 0, "tags": null, "updated_at": 1776743983990, "version": "1.0.1"}, {"category": "", "created_at": 1774908014359, "description": "Adapt one social video into platform-ready aspect ratios and dimensions for TikTok, Reels, Shorts, feeds, stories, and ads without awkward stretching or lost...", "description_zh": "", "downloads": 33, "homepage": "https://clawhub.ai/leooooooow/social-video-resizer", "iconUrl": null, "installs": 1, "name": "Social Video Resizer", "ownerName": "leooooooow", "score": 34375, "slug": "social-video-resizer", "source": "clawhub", "stars": 0, "tags": null, "updated_at": 1776742969580, "version": "1.0.0"}, {"category": "", "created_at": 1774885765270, "description": "A structured knowledge extraction tool that helps users clarify, organize, and store tacit knowledge through active questioning. USE THIS SKILL when you want...", "description_zh": "", "downloads": 33, "homepage": "https://clawhub.ai/chenchen913/knowledge-distiller", "iconUrl": null, "installs": 2, "name": "knowledge-distiller", "ownerName": "chenchen913", "score": 34375, "slug": "knowledge-distiller", "source": "clawhub", "stars": 0, "tags": ["deep-interview", "knowledge-management", "note-taking", "pkm learning-tool", "reflection second-brain", "socratic-method", "tacit-knowledge", "thought-clarification"], "updated_at": 1776742871998, "version": "1.0.0"}, {"category": "", "created_at": 1774880946813, "description": "Discovers and enumerates all subdomains associated with a target domain using deep reconnaissance techniques.", "description_zh": "", "downloads": 33, "homepage": "https://clawhub.ai/krishnakumarmahadevan-cmd/subdomain-enumerator", "iconUrl": null, "installs": 1, "name": "Subdomain Enumerator", "ownerName": "krishnakumarmahadevan-cmd", "score": 33333.33333333333, "slug": "subdomain-enumerator", "source": "clawhub", "stars": 0, "tags": null, "updated_at": 1776741769617, "version": "1.0.0"}, {"category": "", "created_at": 1774912406452, "description": "Wildberries smart warehouse booking and logistics management agent. Solve WB warehouse appointment scarcity with intelligent monitoring, auto-submit strategi...", "description_zh": "", "downloads": 33, "homepage": "https://clawhub.ai/mguozhen/wildberries-warehouse-booker", "iconUrl": null, "installs": 0, "name": "Wildberries Warehouse Booker", "ownerName": "mguozhen", "score": 40740.74074074074, "slug": "wildberries-warehouse-booker", "source": "clawhub", "stars": 0, "tags": null, "updated_at": 1776737772015, "version": "1.0.0"}, {"category": "", "created_at": 1774892424757, "description": "Generates ideal customer profiles (ICP), lead acquisition strategies, LinkedIn and Google search formulas, structured lead lists, and cold outreach connectio...", "description_zh": "", "downloads": 33, "homepage": "https://clawhub.ai/dttnpole-commits/ai-lead-generation-prospect-finder", "iconUrl": null, "installs": 4, "name": "AI Lead Generation & Prospect Finder", "ownerName": "dttnpole-commits", "score": 30275.229357798165, "slug": "ai-lead-generation-prospect-finder", "source": "clawhub", "stars": 0, "tags": ["lead-generation prospecting linkedin sales b2b automation scraping growth ai-marketing outreach"], "updated_at": 1776732055824, "version": "1.0.0"}, {"category": "", "created_at": 1774910600605, "description": "When the user wants to create, optimize, or audit customer stories or case study pages. Also use when the user mentions \"case studies,\" \"customer stories,\" \"...", "description_zh": "", "downloads": 33, "homepage": "https://clawhub.ai/kostja94/customer-stories-page-generator", "iconUrl": null, "installs": 0, "name": "customer-stories-page-generator", "ownerName": "kostja94", "score": 33673.4693877551, "slug": "customer-stories-page-generator", "source": "clawhub", "stars": 0, "tags": null, "updated_at": 1776730669665, "version": "1.0.0"}, {"category": "", "created_at": 1774894820497, "description": "Freedcamp integration. Manage Organizations. Use when the user wants to interact with Freedcamp data.", "description_zh": "", "downloads": 33, "homepage": "https://clawhub.ai/gora050/freedcamp", "iconUrl": null, "installs": 0, "name": "Freedcamp", "ownerName": "gora050", "score": 31730.76923076923, "slug": "freedcamp", "source": "clawhub", "stars": 0, "tags": null, "updated_at": 1776724804656, "version": "1.0.0"}, {"category": "", "created_at": 1774884391485, "description": "Create vertical reveal shorts: polished product vs harsh origin, one-line verdict, timed English captions (WeryAI). Use for supply-chain shock, contrast edit...", "description_zh": "", "downloads": 33, "homepage": "https://clawhub.ai/zoucdr/hidden-truth-reveal-video-gen", "iconUrl": null, "installs": 7, "name": "Hidden Truth Reveal Video Gen", "ownerName": "zoucdr", "score": 33333.33333333333, "slug": "hidden-truth-reveal-video-gen", "source": "clawhub", "stars": 0, "tags": null, "updated_at": 1776706969536, "version": "1.0.0"}, {"category": "", "created_at": 1774857188998, "description": "Reference tool for devtools — covers intro, quickstart, patterns and more. Quick lookup for Profile concepts, best practices, and implementation patterns.", "description_zh": "", "downloads": 33, "homepage": "https://clawhub.ai/bytesagain3/profile", "iconUrl": null, "installs": 0, "name": "Profile", "ownerName": "bytesagain3", "score": 34020.61855670103, "slug": "profile", "source": "clawhub", "stars": 0, "tags": null, "updated_at": 1776700483808, "version": "2.0.1"}, {"category": "", "created_at": 1774873602539, "description": "Automatically selects the best model based on task type and requirements. Use when: (1) Task requires specific capabilities (coding, analysis, multimodal, wr...", "description_zh": "", "downloads": 33, "homepage": "https://clawhub.ai/mrcuo/auto-model-switcher", "iconUrl": null, "installs": 2, "name": "Auto Model Switcher", "ownerName": "mrcuo", "score": 37931.034482758616, "slug": "auto-model-switcher", "source": "clawhub", "stars": 0, "tags": null, "updated_at": 1776698384279, "version": "1.1.0"}, {"category": "", "created_at": 1774914836878, "description": "Tailwind CSS component patterns for Ruby on Rails ERB views. Use when building UI components in Rails, creating shared partials, implementing dark mode, writ...", "description_zh": "", "downloads": 33, "homepage": "https://clawhub.ai/djc00p/tailwind-rails", "iconUrl": null, "installs": 2, "name": "Tailwind Rails", "ownerName": "djc00p", "score": 100000, "slug": "tailwind-rails", "source": "clawhub", "stars": 0, "tags": null, "updated_at": 1776697970389, "version": "1.0.1"}, {"category": "", "created_at": 1774875261756, "description": "Step-by-step visual guide for China visa applications with real case studies, detailed FAQs, port-specific information, and practical checklists. Focus on ac...", "description_zh": "", "downloads": 33, "homepage": "https://clawhub.ai/1970168137/china-visa-guide", "iconUrl": null, "installs": 0, "name": "China Visa Guide", "ownerName": "1970168137", "score": 100000, "slug": "china-visa-guide", "source": "clawhub", "stars": 0, "tags": null, "updated_at": 1776697970368, "version": "1.0.0"}, {"category": "", "created_at": 1774902718099, "description": "Extend or continue an existing HTTPS video with a prompt via WeryAI (video-extend). Use when the user wants to lengthen a clip with style and duration contro...", "description_zh": "", "downloads": 33, "homepage": "https://clawhub.ai/zoucdr/video-tool-extend", "iconUrl": null, "installs": 2, "name": "WeryAI video tool — extend", "ownerName": "zoucdr", "score": 100000, "slug": "video-tool-extend", "source": "clawhub", "stars": 0, "tags": null, "updated_at": 1776697970331, "version": "1.0.0"}, {"category": "", "created_at": 1774919480207, "description": "Black Scholes reference tool. Use when working with black scholes in finance contexts.", "description_zh": "", "downloads": 33, "homepage": "https://clawhub.ai/xueyetianya/black-scholes", "iconUrl": null, "installs": 0, "name": "Black Scholes", "ownerName": "xueyetianya", "score": 100000, "slug": "black-scholes", "source": "clawhub", "stars": 0, "tags": null, "updated_at": 1776697970309, "version": "1.0.0"}, {"category": "", "created_at": 1774925123041, "description": "Interact with the Strong v6 workout tracker REST API — login, list exercises, fetch workout logs and templates, manage folders, tags, measurements, and widge...", "description_zh": "", "downloads": 33, "homepage": "https://clawhub.ai/ivanvmoreno/strong-app", "iconUrl": null, "installs": 4, "name": "Strong Skill", "ownerName": "ivanvmoreno", "score": 100000, "slug": "strong-app", "source": "clawhub", "stars": 0, "tags": null, "updated_at": 1776697970306, "version": "1.0.1"}, {"category": "", "created_at": 1774907178250, "description": "Weather-driven demand forecasting — correlate temperature with energy/commodity trade flows, Holt-Winters predictions", "description_zh": "", "downloads": 33, "homepage": "https://clawhub.ai/drivenbymyai-max/weather-demand", "iconUrl": null, "installs": 5, "name": "Weather Demand", "ownerName": "drivenbymyai-max", "score": 100000, "slug": "weather-demand", "source": "clawhub", "stars": 0, "tags": null, "updated_at": 1776697970301, "version": "1.0.0"}, {"category": "", "created_at": 1774949882052, "description": "Convert a single video into multiple platform-optimized versions with smart cropping, caption restyling, hook rotation, voiceover localization, and anti-dupl...", "description_zh": "", "downloads": 33, "homepage": "https://clawhub.ai/imwyvern/video-repurpose", "iconUrl": null, "installs": 1, "name": "Video Repurpose Skill", "ownerName": "imwyvern", "score": 100000, "slug": "video-repurpose", "source": "clawhub", "stars": 0, "tags": null, "updated_at": 1776697970246, "version": "1.0.1"}, {"category": "", "created_at": 1774914850455, "description": "TopYappers — social media intelligence for AI agents. Discover viral TikTok content, search 30M+ creators across TikTok/Instagram/YouTube, and track trending...", "description_zh": "", "downloads": 33, "homepage": "https://clawhub.ai/tadasgedgaudas/topyappers", "iconUrl": null, "installs": 4, "name": "TopYappers - Creators & Viral Content Skills", "ownerName": "tadasgedgaudas", "score": 100000, "slug": "topyappers", "source": "clawhub", "stars": 0, "tags": null, "updated_at": 1776697970240, "version": "1.0.0"}, {"category": "", "created_at": 1774871728018, "description": "Reference tool for devtools — covers intro, quickstart, patterns and more. Quick lookup for Secret Encrypt concepts, best practices, and implementation patte...", "description_zh": "", "downloads": 33, "homepage": "https://clawhub.ai/bytesagain1/secret-encrypt", "iconUrl": null, "installs": 0, "name": "Secret Encrypt", "ownerName": "bytesagain1", "score": 100000, "slug": "secret-encrypt", "source": "clawhub", "stars": 0, "tags": null, "updated_at": 1776697970224, "version": "2.0.1"}, {"category": "", "created_at": 1774910353511, "description": "Deep wireframing workflow—problem framing, fidelity choice, flows and edge cases, IA and components, critique and iteration, handoff to design/dev. Use when...", "description_zh": "", "downloads": 33, "homepage": "https://clawhub.ai/codenova58/wireframing", "iconUrl": null, "installs": 2, "name": "Wireframing", "ownerName": "codenova58", "score": 100000, "slug": "wireframing", "source": "clawhub", "stars": 0, "tags": null, "updated_at": 1776697970219, "version": "1.0.0"}, {"category": "", "created_at": 1774866444827, "description": "Zip local files or folders, upload to clawgo.me, and get a shareable clone link. Use when the user wants to share, back up, or move local workspace Markdown...", "description_zh": "", "downloads": 33, "homepage": "https://clawhub.ai/chenjunyeee/clawgo-upload", "iconUrl": null, "installs": 0, "name": "clawgo-upload", "ownerName": "chenjunyeee", "score": 100000, "slug": "clawgo-upload", "source": "clawhub", "stars": 0, "tags": null, "updated_at": 1776697970215, "version": "1.0.1"}, {"category": "", "created_at": 1774895516129, "description": "Analyze staking operations. Use when you need to understand staking mechanisms, evaluate protocol security, or reference on-chain concepts.", "description_zh": "", "downloads": 33, "homepage": "https://clawhub.ai/bytesagain1/staking", "iconUrl": null, "installs": 0, "name": "Staking", "ownerName": "bytesagain1", "score": 100000, "slug": "staking", "source": "clawhub", "stars": 0, "tags": null, "updated_at": 1776697970212, "version": "1.0.0"}, {"category": "", "created_at": 1774911863755, "description": "LoginID integration. Manage data, records, and automate workflows. Use when the user wants to interact with LoginID data.", "description_zh": "", "downloads": 33, "homepage": "https://clawhub.ai/gora050/loginid", "iconUrl": null, "installs": 0, "name": "Loginid", "ownerName": "gora050", "score": 100000, "slug": "loginid", "source": "clawhub", "stars": 0, "tags": null, "updated_at": 1776697970210, "version": "1.0.0"}, {"category": "", "created_at": 1774944813236, "description": "Query Chinese statutory holidays, check if a date is a working day/holiday, and get holiday schedules. Use when the user asks about Chinese holidays, working...", "description_zh": "", "downloads": 33, "homepage": "https://clawhub.ai/anlinxi/chinese-holidays", "iconUrl": null, "installs": 0, "name": "Chinese Holidays", "ownerName": "anlinxi", "score": 100000, "slug": "chinese-holidays", "source": "clawhub", "stars": 0, "tags": null, "updated_at": 1776697970199, "version": "1.0.0"}, {"category": "", "created_at": 1774864465676, "description": "Query token details by keyword, contract address, or chain. Search tokens, get metadata and social links, retrieve real-time market data (price, price trend,...", "description_zh": "", "downloads": 33, "homepage": "https://clawhub.ai/binance-skills-hub/binance-web3-query-token-info", "iconUrl": null, "installs": 1, "name": "Binance Query Token Info", "ownerName": "binance-skills-hub", "score": 100000, "slug": "binance-web3-query-token-info", "source": "clawhub", "stars": 0, "tags": null, "updated_at": 1776697970163, "version": "1.0.0"}, {"category": "", "created_at": 1774944339803, "description": "Submit an AI bot fighter to ClawWars Arena — a browser-based spectator combat game where OpenClaw agents battle each other in real-time. Use when creating a...", "description_zh": "", "downloads": 33, "homepage": "https://clawhub.ai/walterclawd/clawwars-arena", "iconUrl": null, "installs": 2, "name": "ClawWars Arena", "ownerName": "walterclawd", "score": 100000, "slug": "clawwars-arena", "source": "clawhub", "stars": 0, "tags": null, "updated_at": 1776697970127, "version": "1.0.0"}, {"category": "", "created_at": 1774827241096, "description": "When the user wants to create SEO-driven pages at scale using templates and data. Also use when the user mentions \"programmatic SEO,\" \"template pages,\" \"page...", "description_zh": "", "downloads": 33, "homepage": "https://clawhub.ai/mariokarras/abm-programmatic-seo", "iconUrl": null, "installs": 1, "name": "Programmatic Seo", "ownerName": "mariokarras", "score": 100000, "slug": "abm-programmatic-seo", "source": "clawhub", "stars": 0, "tags": null, "updated_at": 1776697970101, "version": "1.0.0"}, {"category": "", "created_at": 1774889509646, "description": "Automatically update Clawdbot and all installed skills once daily. Runs via cron, checks for updates, applies them, and messages the user with a summary of w...", "description_zh": "", "downloads": 33, "homepage": "https://clawhub.ai/wenlavril/auto-updater-local", "iconUrl": null, "installs": 4, "name": "Auto Updater.Local", "ownerName": "wenlavril", "score": 100000, "slug": "auto-updater-local", "source": "clawhub", "stars": 0, "tags": null, "updated_at": 1776697970091, "version": "1.0.0"}, {"category": "", "created_at": 1774844425161, "description": "Bigpicture.io integration. Manage data, records, and automate workflows. Use when the user wants to interact with Bigpicture.io data.", "description_zh": "", "downloads": 33, "homepage": "https://clawhub.ai/membranedev/bigpictureio", "iconUrl": null, "installs": 1, "name": "Bigpictureio", "ownerName": "membranedev", "score": 100000, "slug": "bigpictureio", "source": "clawhub", "stars": 0, "tags": null, "updated_at": 1776697970075, "version": "1.0.0"}, {"category": "", "created_at": 1774904873759, "description": "SportsData integration. Manage Teams, Leagues, Users. Use when the user wants to interact with SportsData data.", "description_zh": "", "downloads": 33, "homepage": "https://clawhub.ai/gora050/sportsdata", "iconUrl": null, "installs": 0, "name": "Sportsdata", "ownerName": "gora050", "score": 100000, "slug": "sportsdata", "source": "clawhub", "stars": 0, "tags": null, "updated_at": 1776697970058, "version": "1.0.0"}, {"category": "", "created_at": 1774880729039, "description": "CLI for querying Prometheus and PromQL-compatible engines (Thanos, Cortex, VictoriaMetrics, Grafana Mimir, Grafana Tempo...) — instant queries, range queries...", "description_zh": "", "downloads": 33, "homepage": "https://clawhub.ai/samber/promql-cli", "iconUrl": null, "installs": 2, "name": "Promql Cli", "ownerName": "samber", "score": 100000, "slug": "promql-cli", "source": "clawhub", "stars": 0, "tags": null, "updated_at": 1776697970056, "version": "1.1.2"}, {"category": "", "created_at": 1774826573044, "description": "Design and implement web animations that feel natural and purposeful. Use this skill proactively whenever the user asks questions about animations, motion, e...", "description_zh": "", "downloads": 33, "homepage": "https://clawhub.ai/aa-on-ai/web-animation-design", "iconUrl": null, "installs": 1, "name": "Web Animation Design", "ownerName": "aa-on-ai", "score": 100000, "slug": "web-animation-design", "source": "clawhub", "stars": 0, "tags": null, "updated_at": 1776697970027, "version": "1.0.0"}, {"category": "", "created_at": 1774901358972, "description": "SaaS Growth Playbook — Complete SaaS growth strategies for startups and scale-ups. Covers Product-Led Growth (PLG), Sales-Led Growth (SLG), customer success,...", "description_zh": "", "downloads": 33, "homepage": "https://clawhub.ai/gingiris/saas-growth-playbook", "iconUrl": null, "installs": 1, "name": "SaaS Growth Playbook", "ownerName": "gingiris", "score": 100000, "slug": "saas-growth-playbook", "source": "clawhub", "stars": 0, "tags": null, "updated_at": 1776697969983, "version": "1.0.0"}, {"category": "", "created_at": 1774956752802, "description": "VMware NSX DFW microsegmentation and security operations: distributed firewall policies and rules, security groups, VM tags, Traceflow packet tracing, and ID...", "description_zh": "", "downloads": 33, "homepage": "https://clawhub.ai/zw008/vmware-nsx-security", "iconUrl": null, "installs": 3, "name": "Vmware Nsx Security", "ownerName": "zw008", "score": 100000, "slug": "vmware-nsx-security", "source": "clawhub", "stars": 0, "tags": null, "updated_at": 1776697969978, "version": "1.3.0"}, {"category": "", "created_at": 1774948144255, "description": "Use aipexbase-cli to operate AiPexBase BaaS service, supporting database operations, application management, user authentication, etc.", "description_zh": "", "downloads": 33, "homepage": "https://clawhub.ai/kuafuai/aipexbase-cli", "iconUrl": null, "installs": 2, "name": "aipexbase-cli", "ownerName": "kuafuai", "score": 100000, "slug": "aipexbase-cli", "source": "clawhub", "stars": 0, "tags": null, "updated_at": 1776697969964, "version": "1.0.0"}, {"category": "", "created_at": 1774905174575, "description": "Disposable VMs for safe testing — full sudo, Docker, Go, nested KVM, destroy and recreate. Use when you need a sandbox to build, test, or break things withou...", "description_zh": "", "downloads": 33, "homepage": "https://clawhub.ai/jpoley/vagrant-skill", "iconUrl": null, "installs": 1, "name": "Vagrant Skill", "ownerName": "jpoley", "score": 100000, "slug": "vagrant-skill", "source": "clawhub", "stars": 0, "tags": null, "updated_at": 1776697969936, "version": "0.7.4"}, {"category": "", "created_at": 1774882458561, "description": "Convert short video moments into GIF-friendly snippets for demos, support, product walkthroughs, and social sharing. Use when a team needs lightweight motion...", "description_zh": "", "downloads": 33, "homepage": "https://clawhub.ai/leooooooow/video-gif-converter", "iconUrl": null, "installs": 2, "name": "Video GIF Converter", "ownerName": "leooooooow", "score": 100000, "slug": "video-gif-converter", "source": "clawhub", "stars": 0, "tags": null, "updated_at": 1776697969931, "version": "1.0.0"}, {"category": "", "created_at": 1774864656037, "description": "Chatwork integration. Manage data, records, and automate workflows. Use when the user wants to interact with Chatwork data.", "description_zh": "", "downloads": 33, "homepage": "https://clawhub.ai/membranedev/chatwork", "iconUrl": null, "installs": 0, "name": "Chatwork", "ownerName": "membranedev", "score": 100000, "slug": "chatwork", "source": "clawhub", "stars": 0, "tags": null, "updated_at": 1776697969929, "version": "1.0.0"}, {"category": "", "created_at": 1774875239406, "description": "Comprehensive apparel and accessories industry suppliers guide for international buyers – provides detailed information about China's garment, footwear, bag,...", "description_zh": "", "downloads": 33, "homepage": "https://clawhub.ai/findhappy7/china-apparel-and-accessories-suppliers", "iconUrl": null, "installs": 2, "name": "China Apparel & Accessories Suppliers", "ownerName": "findhappy7", "score": 100000, "slug": "china-apparel-and-accessories-suppliers", "source": "clawhub", "stars": 0, "tags": null, "updated_at": 1776697969923, "version": "1.0.1"}, {"category": "", "created_at": 1774893612752, "description": "Reverse-engineers high-quality, reusable prompts from messy conversations, vague requests, or rough user descriptions. Use this skill whenever a user: wants...", "description_zh": "", "downloads": 33, "homepage": "https://clawhub.ai/goutham-nekkalapu/prompt-archeologist", "iconUrl": null, "installs": 3, "name": "Propmt Archeologist", "ownerName": "goutham-nekkalapu", "score": 100000, "slug": "prompt-archeologist", "source": "clawhub", "stars": 0, "tags": null, "updated_at": 1776697969841, "version": "1.0.0"}, {"category": "", "created_at": 1774873656379, "description": "Determine unified vs separated business entities. Use for portfolio management, strategic planning, and restructuring decisions.", "description_zh": "", "downloads": 33, "homepage": "https://clawhub.ai/linuszz/business-definition", "iconUrl": null, "installs": 1, "name": "Business Definition", "ownerName": "linuszz", "score": 100000, "slug": "business-definition", "source": "clawhub", "stars": 0, "tags": null, "updated_at": 1776697969832, "version": "1.0.0"}, {"category": "", "created_at": 1774912557622, "description": "Barcode Lookup integration. Manage data, records, and automate workflows. Use when the user wants to interact with Barcode Lookup data.", "description_zh": "", "downloads": 33, "homepage": "https://clawhub.ai/gora050/barcode-lookup", "iconUrl": null, "installs": 0, "name": "Barcode Lookup", "ownerName": "gora050", "score": 100000, "slug": "barcode-lookup", "source": "clawhub", "stars": 0, "tags": null, "updated_at": 1776697969822, "version": "1.0.0"}, {"category": "", "created_at": 1774952291350, "description": "Host security hardening and risk-tolerance configuration for OpenClaw deployments. Use when a user asks for security audits, firewall/SSH/update hardening, r...", "description_zh": "", "downloads": 33, "homepage": "https://clawhub.ai/rmbell09-lang/lucky-healthcheck", "iconUrl": null, "installs": 0, "name": "Lucky Healthcheck", "ownerName": "rmbell09-lang", "score": 100000, "slug": "lucky-healthcheck", "source": "clawhub", "stars": 0, "tags": ["hardening", "healthcheck", "openclaw", "security"], "updated_at": 1776697969810, "version": "1.0.1"}, {"category": "", "created_at": 1774845544615, "description": "AI Video Enhancement - Upscale video resolution, improve quality, denoise, sharpen, enhance low-quality videos to HD/4K. Supports local video files, remote U...", "description_zh": "", "downloads": 33, "homepage": "https://clawhub.ai/alouhaou/video-enhancement", "iconUrl": null, "installs": 2, "name": "Video Enhancement", "ownerName": "alouhaou", "score": 78571.42857142857, "slug": "video-enhancement", "source": "clawhub", "stars": 0, "tags": null, "updated_at": 1776697969793, "version": "1.0.1"}]}