{"page": 463, "total_pages": 522, "total": 26073, "skills": [{"category": "", "created_at": 1774864985731, "description": "Production-ready Master Data Intelligent Matching System. Use when: matching vendor/customer/employee records, deduplicating master data, resolving OCR-extra...", "description_zh": "", "downloads": 33, "homepage": "https://clawhub.ai/woaim65/master-data-matching", "iconUrl": null, "installs": 1, "name": "Master Data Matching", "ownerName": "woaim65", "score": 78571.42857142857, "slug": "master-data-matching", "source": "clawhub", "stars": 0, "tags": null, "updated_at": 1776697969770, "version": "1.0.0"}, {"category": "", "created_at": 1774862346055, "description": "Comprehensive electronic components industry suppliers guide for international buyers – provides detailed information about China's semiconductor, passive co...", "description_zh": "", "downloads": 33, "homepage": "https://clawhub.ai/findhappy7/china-electronic-components-suppliers", "iconUrl": null, "installs": 2, "name": "China Electronic Components Suppliers", "ownerName": "findhappy7", "score": 78571.42857142857, "slug": "china-electronic-components-suppliers", "source": "clawhub", "stars": 0, "tags": null, "updated_at": 1776697969758, "version": "1.0.1"}, {"category": "", "created_at": 1774895349150, "description": "Test, match, extract, replace, explain, and validate regular expressions from the command line. Includes a library of 25+ common patterns (email, URL, IP, ph...", "description_zh": "", "downloads": 33, "homepage": "https://clawhub.ai/johnnywang2001/regex-toolkit", "iconUrl": null, "installs": 0, "name": "Regex Toolkit", "ownerName": "johnnywang2001", "score": 78571.42857142857, "slug": "regex-toolkit", "source": "clawhub", "stars": 0, "tags": null, "updated_at": 1776697969743, "version": "1.0.0"}, {"category": "", "created_at": 1774853992437, "description": "Reference tool for devtools — covers intro, quickstart, patterns and more. Quick lookup for Profit concepts, best practices, and implementation patterns.", "description_zh": "", "downloads": 33, "homepage": "https://clawhub.ai/bytesagain1/profit", "iconUrl": null, "installs": 0, "name": "Profit", "ownerName": "bytesagain1", "score": 78571.42857142857, "slug": "profit", "source": "clawhub", "stars": 0, "tags": null, "updated_at": 1776697969740, "version": "2.0.1"}, {"category": "", "created_at": 1774887349906, "description": "Build, debug, and optimize RealityKit scenes for visionOS, including entity/component setup, rendering, animation, physics, audio, input, attachments, and cu...", "description_zh": "", "downloads": 33, "homepage": "https://clawhub.ai/tomkrikorian/realitykit-visionos-developer", "iconUrl": null, "installs": 1, "name": "Realitykit Visionos Developer", "ownerName": "tomkrikorian", "score": 78571.42857142857, "slug": "realitykit-visionos-developer", "source": "clawhub", "stars": 0, "tags": null, "updated_at": 1776697969738, "version": "0.1.0"}, {"category": "", "created_at": 1774917389072, "description": "Browser automation via Playwright MCP. Navigate websites, click elements, fill forms, take screenshots, extract data, and debug real browser workflows. Use w...", "description_zh": "", "downloads": 33, "homepage": "https://clawhub.ai/linbo405/xiaomolong-playwright", "iconUrl": null, "installs": 5, "name": "Playwright by Xiaomolong", "ownerName": "linbo405", "score": 100000, "slug": "xiaomolong-playwright", "source": "clawhub", "stars": 0, "tags": ["automation", "browser", "scraping", "web"], "updated_at": 1776697969734, "version": "1.0.0"}, {"category": "", "created_at": 1774951497085, "description": "Weekly food cost variance diagnostic for restaurant and franchise operators. Four-lever system that catches COGS drift weekly instead of monthly — ordering,...", "description_zh": "", "downloads": 33, "homepage": "https://clawhub.ai/blake27mc/qsr-food-cost-diagnostic", "iconUrl": null, "installs": 0, "name": "Qsr Food Cost Diagnostic", "ownerName": "blake27mc", "score": 100000, "slug": "qsr-food-cost-diagnostic", "source": "clawhub", "stars": 0, "tags": null, "updated_at": 1776697969713, "version": "1.0.1"}, {"category": "", "created_at": 1774859962373, "description": "Analyze music audio files to extract chord progressions, key signature, tempo, and song structure. Use when user wants to identify chords, analyze a song's h...", "description_zh": "", "downloads": 33, "homepage": "https://clawhub.ai/ctwww/chord-analyzer", "iconUrl": null, "installs": 0, "name": "Chord Analyzer", "ownerName": "ctwww", "score": 100000, "slug": "chord-analyzer", "source": "clawhub", "stars": 0, "tags": null, "updated_at": 1776697969711, "version": "1.0.0"}, {"category": "", "created_at": 1774890329934, "description": "Pack and analyze codebases into AI-friendly single files using Repomix. Use when the user wants to explore repositories, analyze code structure, find pattern...", "description_zh": "", "downloads": 33, "homepage": "https://clawhub.ai/yamadashy/repomix", "iconUrl": null, "installs": 2, "name": "Repomix", "ownerName": "yamadashy", "score": 100000, "slug": "repomix", "source": "clawhub", "stars": 0, "tags": ["ai-context", "code-analysis", "code-explorer", "codebase", "repository"], "updated_at": 1776697969699, "version": "1.0.1"}, {"category": "", "created_at": 1774863551594, "description": "Recall and write workspace memory for OpenClaw agents using MEMORY.md, memory/YYYY-MM-DD.md, memory_search, and memory_get. Use when the user asks about prio...", "description_zh": "", "downloads": 33, "homepage": "https://clawhub.ai/omaression/atomic-memory-manager", "iconUrl": null, "installs": 1, "name": "Atomic Memory Manager", "ownerName": "omaression", "score": 100000, "slug": "atomic-memory-manager", "source": "clawhub", "stars": 0, "tags": null, "updated_at": 1776697969682, "version": "1.0.0-alpha"}, {"category": "", "created_at": 1774868289872, "description": "SaaS churn and retention analysis: cohort-based churn rates, retention curves, revenue churn vs logo churn, at-risk customer identification, expansion vs con...", "description_zh": "", "downloads": 33, "homepage": "https://clawhub.ai/samledger67-dotcom/saas-churn-analysis", "iconUrl": null, "installs": 2, "name": "SaaS Churn Analysis", "ownerName": "samledger67-dotcom", "score": 100000, "slug": "saas-churn-analysis", "source": "clawhub", "stars": 0, "tags": null, "updated_at": 1776697969662, "version": "1.0.0"}, {"category": "", "created_at": 1774866435983, "description": "Raise and battle a unique lobster pet with evolving personality. Hatch, feed, patrol, fight other lobsters in PvP. Each lobster has a soul with distinct pers...", "description_zh": "", "downloads": 33, "homepage": "https://clawhub.ai/2019-02-18/claw-fight", "iconUrl": null, "installs": 0, "name": "ClawFight", "ownerName": "2019-02-18", "score": 76744.18604651163, "slug": "claw-fight", "source": "clawhub", "stars": 0, "tags": null, "updated_at": 1776697969649, "version": "1.0.3"}, {"category": "", "created_at": 1774864384683, "description": "Local web search without API Key. Supports Bing, DuckDuckGo, Yandex multi-engine search with built-in cache and automatic failover. Use when users need to se...", "description_zh": "", "downloads": 33, "homepage": "https://clawhub.ai/lnblxj/web-search-local", "iconUrl": null, "installs": 1, "name": "Web Search Local", "ownerName": "lnblxj", "score": 76744.18604651163, "slug": "web-search-local", "source": "clawhub", "stars": 0, "tags": null, "updated_at": 1776697969636, "version": "0.1.1"}, {"category": "", "created_at": 1774848928197, "description": "Reference tool for devtools — covers intro, quickstart, patterns and more. Quick lookup for Logrotate concepts, best practices, and implementation patterns.", "description_zh": "", "downloads": 33, "homepage": "https://clawhub.ai/ckchzh/logrotate", "iconUrl": null, "installs": 0, "name": "Logrotate", "ownerName": "ckchzh", "score": 76744.18604651163, "slug": "logrotate", "source": "clawhub", "stars": 0, "tags": null, "updated_at": 1776697969584, "version": "2.0.3"}, {"category": "", "created_at": 1774923386258, "description": "AI Hairstyle Try-On & Face Shape Analysis – Upload a photo to analyze face shape and instantly try recommended hairstyles. UID required.", "description_zh": "", "downloads": 33, "homepage": "https://clawhub.ai/guokai-01/tryhair-skill", "iconUrl": null, "installs": 1, "name": "TryHair AI", "ownerName": "guokai-01", "score": 76744.18604651163, "slug": "tryhair-skill", "source": "clawhub", "stars": 0, "tags": null, "updated_at": 1776697969558, "version": "0.1.4"}, {"category": "", "created_at": 1774922763782, "description": "IContact integration. Manage Persons, Organizations, Deals, Activities, Pipelines, Leads and more. Use when the user wants to interact with IContact data.", "description_zh": "", "downloads": 33, "homepage": "https://clawhub.ai/gora050/icontact", "iconUrl": null, "installs": 2, "name": "Icontact", "ownerName": "gora050", "score": 100000, "slug": "icontact", "source": "clawhub", "stars": 0, "tags": null, "updated_at": 1776697855525, "version": "1.0.0"}, {"category": "", "created_at": 1774857015526, "description": "Google Workflow: Prepare for your next meeting: agenda, attendees, and linked docs.", "description_zh": "", "downloads": 33, "homepage": "https://clawhub.ai/googleworkspace-bot/gws-workflow-meeting-prep", "iconUrl": null, "installs": 0, "name": "Gws Workflow Meeting Prep", "ownerName": "googleworkspace-bot", "score": 100000, "slug": "gws-workflow-meeting-prep", "source": "clawhub", "stars": 0, "tags": null, "updated_at": 1776697855516, "version": "1.0.10"}, {"category": "", "created_at": 1774866024239, "description": "Builds lean SKILL.md-based skills: decides when a skill is justified, drafts a minimal skill skeleton, and audits existing skills for bloat and drift. Use wh...", "description_zh": "", "downloads": 33, "homepage": "https://clawhub.ai/zurbrick/lean-skill-builder", "iconUrl": null, "installs": 1, "name": "Skill Builder", "ownerName": "zurbrick", "score": 100000, "slug": "lean-skill-builder", "source": "clawhub", "stars": 0, "tags": null, "updated_at": 1776697855514, "version": "1.0.4"}, {"category": "", "created_at": 1774871333690, "description": "AI-guided Life Cycle Assessment using openLCA. Connects to openLCA via IPC to help non-experts build product systems, run impact assessments, and interpret r...", "description_zh": "", "downloads": 33, "homepage": "https://clawhub.ai/manmeet3591/lca-skill", "iconUrl": null, "installs": 1, "name": "Lca Skill", "ownerName": "manmeet3591", "score": 100000, "slug": "lca-skill", "source": "clawhub", "stars": 0, "tags": null, "updated_at": 1776697855509, "version": "0.1.0"}, {"category": "", "created_at": 1774906676598, "description": "Query Hong Kong bus ETA/stop data and MTR heavy rail ETA from natural-language transport questions using official KMB/LWB, Citybus, and MTR open-data endpoin...", "description_zh": "", "downloads": 33, "homepage": "https://clawhub.ai/jimpang8/jim-hk-bus-eta", "iconUrl": null, "installs": 2, "name": "HK Bus ETA", "ownerName": "jimpang8", "score": 100000, "slug": "jim-hk-bus-eta", "source": "clawhub", "stars": 0, "tags": null, "updated_at": 1776697855499, "version": "0.2.0"}, {"category": "", "created_at": 1774844652520, "description": "Advanced expert in prompt engineering, custom instructions design, and prompt optimization for AI agents", "description_zh": "", "downloads": 33, "homepage": "https://clawhub.ai/jayareu/prompt-engineering-expert-jr", "iconUrl": null, "installs": 1, "name": "Prompt Engineering Expert", "ownerName": "jayareu", "score": 100000, "slug": "prompt-engineering-expert-jr", "source": "clawhub", "stars": 0, "tags": null, "updated_at": 1776697855496, "version": "0.1.1"}, {"category": "", "created_at": 1774909811484, "description": "HSBC banking services, global markets, wealth management, stock info, and branch locator across 60+ countries.", "description_zh": "", "downloads": 33, "homepage": "https://clawhub.ai/hanxueyuan/hsbc", "iconUrl": null, "installs": 2, "name": "HSBC", "ownerName": "hanxueyuan", "score": 100000, "slug": "hsbc", "source": "clawhub", "stars": 0, "tags": null, "updated_at": 1776697855482, "version": "0.1.0"}, {"category": "", "created_at": 1774897396877, "description": "Fetch the markdown content of any webpage using Jina AI's Reader API (r.jina.ai), or search the web using Jina AI's Search API (s.jina.ai). Use this skill wh...", "description_zh": "", "downloads": 33, "homepage": "https://clawhub.ai/claudy-my-laudy/jina-ai-skill", "iconUrl": null, "installs": 1, "name": "Jina Reader", "ownerName": "claudy-my-laudy", "score": 100000, "slug": "jina-ai-skill", "source": "clawhub", "stars": 0, "tags": null, "updated_at": 1776697855479, "version": "1.0.0"}, {"category": "", "created_at": 1774921445177, "description": "Irr reference tool. Use when working with irr in finance contexts.", "description_zh": "", "downloads": 33, "homepage": "https://clawhub.ai/xueyetianya/irr", "iconUrl": null, "installs": 1, "name": "Irr", "ownerName": "xueyetianya", "score": 97058.82352941176, "slug": "irr", "source": "clawhub", "stars": 0, "tags": null, "updated_at": 1776697855474, "version": "1.0.0"}, {"category": "", "created_at": 1774954406605, "description": "Practical knot tying and rope skills for everyday and outdoor use. Use when someone needs to secure a load, set up camp, tie something down, join ropes, or w...", "description_zh": "", "downloads": 33, "homepage": "https://clawhub.ai/howtousehumans/knot-tying-rope-work", "iconUrl": null, "installs": 3, "name": "Knot Tying Rope Work", "ownerName": "howtousehumans", "score": 97058.82352941176, "slug": "knot-tying-rope-work", "source": "clawhub", "stars": 0, "tags": null, "updated_at": 1776697855470, "version": "1.0.0"}, {"category": "", "created_at": 1774857407650, "description": "Security advisor for Inner Warden — validates commands before execution, monitors server health, diagnoses issues. All operations on localhost only.", "description_zh": "", "downloads": 33, "homepage": "https://clawhub.ai/maiconburn/innerwarden-security", "iconUrl": null, "installs": 0, "name": "Inner Warden Security", "ownerName": "maiconburn", "score": 97058.82352941176, "slug": "innerwarden-security", "source": "clawhub", "stars": 0, "tags": ["firewall", "honeypot", "intrusion-detection", "linux", "security", "server"], "updated_at": 1776697855467, "version": "1.0.5"}, {"category": "", "created_at": 1774892959929, "description": "Analyze graphs and networks using Python NetworkX — centrality, shortest paths, community detection, and visualization.", "description_zh": "", "downloads": 33, "homepage": "https://clawhub.ai/owenciantar/graph-analysis", "iconUrl": null, "installs": 0, "name": "Graph Analysis", "ownerName": "owenciantar", "score": 97058.82352941176, "slug": "graph-analysis", "source": "clawhub", "stars": 0, "tags": null, "updated_at": 1776697855465, "version": "1.0.0"}, {"category": "", "created_at": 1774899186002, "description": "Identify a track from a SoundCloud Live set screenshot and find its Apple Music and Spotify links. Use when a user shares a screenshot of a SoundCloud Live s...", "description_zh": "", "downloads": 33, "homepage": "https://clawhub.ai/mjanssen19/soundclawd", "iconUrl": null, "installs": 0, "name": "SoundClawd - identify songs in live sets on Soundcloud - give back an Apple Music/Spotify link", "ownerName": "mjanssen19", "score": 97058.82352941176, "slug": "soundclawd", "source": "clawhub", "stars": 0, "tags": null, "updated_at": 1776697855461, "version": "1.0.2"}, {"category": "", "created_at": 1774922177086, "description": "Xlink IoT Agent - Query IoT devices and events via Xlink Gateway API. Provides device overview, device list, event instance queries, and alert statistics. Us...", "description_zh": "", "downloads": 33, "homepage": "https://clawhub.ai/allenkwok/xlink-iot-agent", "iconUrl": null, "installs": 3, "name": "XLink IoT Agent", "ownerName": "allenkwok", "score": 97058.82352941176, "slug": "xlink-iot-agent", "source": "clawhub", "stars": 0, "tags": ["api", "automation", "device-management", "industrial-iot", "iot", "saas", "xlink"], "updated_at": 1776697846980, "version": "0.1.0"}, {"category": "", "created_at": 1774909737866, "description": "Vietnamese speech-to-text using Gipformer ASR (65M params, Zipformer-RNNT). Accepts audio of any length — the server handles VAD chunking, batching, and retu...", "description_zh": "", "downloads": 33, "homepage": "https://clawhub.ai/ai-ggroup/gipformer", "iconUrl": null, "installs": 4, "name": "Gipformer ASR", "ownerName": "ai-ggroup", "score": 97058.82352941176, "slug": "gipformer", "source": "clawhub", "stars": 0, "tags": null, "updated_at": 1776697846978, "version": "1.0.0"}, {"category": "", "created_at": 1774865613800, "description": "This skill should be used when users need to send notifications to Feishu (Lark) via webhook. It supports multiple message types including text, rich text, i...", "description_zh": "", "downloads": 33, "homepage": "https://clawhub.ai/alex098929/feishu-notify", "iconUrl": null, "installs": 0, "name": "Feishu Notify", "ownerName": "alex098929", "score": 97058.82352941176, "slug": "feishu-notify", "source": "clawhub", "stars": 0, "tags": null, "updated_at": 1776697844677, "version": "1.0.1"}, {"category": "", "created_at": 1774889888751, "description": "Find affiliates, publishers, review partners, content partners, and performance-based promotion opportunities for ecommerce offers. Use when the user wants h...", "description_zh": "", "downloads": 33, "homepage": "https://clawhub.ai/leooooooow/find-affiliates", "iconUrl": null, "installs": 4, "name": "Find Affiliates", "ownerName": "leooooooow", "score": 97058.82352941176, "slug": "find-affiliates", "source": "clawhub", "stars": 0, "tags": null, "updated_at": 1776697844676, "version": "1.0.0"}, {"category": "", "created_at": 1774904236626, "description": "Evaluates market bubble risk through quantitative, data-driven analysis using a revised Minsky/Kindleberger framework. Prioritizes objective metrics over sub...", "description_zh": "", "downloads": 33, "homepage": "https://clawhub.ai/clawdiri-ai/einstein-research-bubble-dv", "iconUrl": null, "installs": 1, "name": "Einstein Research — Market Bubble Risk Detector", "ownerName": "clawdiri-ai", "score": 97058.82352941176, "slug": "einstein-research-bubble-dv", "source": "clawhub", "stars": 0, "tags": null, "updated_at": 1776697844669, "version": "0.1.0"}, {"category": "", "created_at": 1774945141797, "description": "A skill to interact with Gaode Map (AMap) for location search and route planning.", "description_zh": "", "downloads": 33, "homepage": "https://clawhub.ai/beelkic/gaodemapskill-conflict", "iconUrl": null, "installs": 3, "name": ".Gaodemapskill.Conflict", "ownerName": "beelkic", "score": 97058.82352941176, "slug": "gaodemapskill-conflict", "source": "clawhub", "stars": 0, "tags": null, "updated_at": 1776697844662, "version": "1.0.0"}, {"category": "", "created_at": 1774922906748, "description": "Deep MLOps workflow—reproducible training, experiment tracking, packaging, deployment, monitoring (drift, performance), governance, and rollback for ML. Use...", "description_zh": "", "downloads": 33, "homepage": "https://clawhub.ai/clawkk/ml-ops", "iconUrl": null, "installs": 1, "name": "Ml Ops", "ownerName": "clawkk", "score": 97058.82352941176, "slug": "ml-ops", "source": "clawhub", "stars": 0, "tags": null, "updated_at": 1776697844647, "version": "1.0.0"}, {"category": "", "created_at": 1772800762651, "description": "Usage-based and metered billing for ERPClaw — meters, readings, rate plans, bill runs, prepaid credits", "description_zh": "", "downloads": 33, "homepage": "https://clawhub.ai/skipzhang/erpclaw-billing", "iconUrl": null, "installs": 0, "name": "ERPClaw-Billing", "ownerName": "skipzhang", "score": 97058.82352941176, "slug": "erpclaw-billing", "source": "clawhub", "stars": 0, "tags": null, "updated_at": 1776697844643, "version": "1.0.0"}, {"category": "", "created_at": 1774908465726, "description": "AI-powered domain naming consultation — helps users go from a vague idea to a registrable domain name. Trigger when the user says things like \"help me find a...", "description_zh": "", "downloads": 33, "homepage": "https://clawhub.ai/abtdomain/domain-generator", "iconUrl": null, "installs": 0, "name": "domain name generator", "ownerName": "abtdomain", "score": 97058.82352941176, "slug": "domain-generator", "source": "clawhub", "stars": 0, "tags": null, "updated_at": 1776697844642, "version": "1.0.2"}, {"category": "", "created_at": 1774875586915, "description": "Use when calculating gear ratios, converting RPM between shafts, computing torque output, analyzing drivetrain configurations, or selecting motors for mechan...", "description_zh": "", "downloads": 33, "homepage": "https://clawhub.ai/bytesagain3/gear", "iconUrl": null, "installs": 1, "name": "Gear", "ownerName": "bytesagain3", "score": 97058.82352941176, "slug": "gear", "source": "clawhub", "stars": 0, "tags": null, "updated_at": 1776697844640, "version": "2.0.1"}, {"category": "", "created_at": 1774910010070, "description": "Parseur integration. Manage Mailboxs. Use when the user wants to interact with Parseur data.", "description_zh": "", "downloads": 33, "homepage": "https://clawhub.ai/membranedev/parseur", "iconUrl": null, "installs": 0, "name": "Parseur", "ownerName": "membranedev", "score": 97058.82352941176, "slug": "parseur", "source": "clawhub", "stars": 0, "tags": null, "updated_at": 1776697844638, "version": "1.0.0"}, {"category": "", "created_at": 1774924051140, "description": "When the user wants to create, optimize, or audit a feedback or roadmap page. Also use when the user mentions \"feedback page,\" \"roadmap,\" \"feature requests,\"...", "description_zh": "", "downloads": 33, "homepage": "https://clawhub.ai/kostja94/feedback-page-generator", "iconUrl": null, "installs": 1, "name": "feedback-page-generator", "ownerName": "kostja94", "score": 97058.82352941176, "slug": "feedback-page-generator", "source": "clawhub", "stars": 0, "tags": null, "updated_at": 1776697844631, "version": "1.0.0"}, {"category": "", "created_at": 1774908481440, "description": "Explain, generate, and validate cron expressions. Convert plain English schedules to cron syntax and back. Show next run times. Works with standard 5-field a...", "description_zh": "", "downloads": 33, "homepage": "https://clawhub.ai/josephflu/eagerbots-cron-helper", "iconUrl": null, "installs": 3, "name": "Cron Helper", "ownerName": "josephflu", "score": 97058.82352941176, "slug": "eagerbots-cron-helper", "source": "clawhub", "stars": 0, "tags": null, "updated_at": 1776697844626, "version": "1.0.0"}, {"category": "", "created_at": 1774911383381, "description": "Compare profitability and market share using variable-width column charts. Use for competitive positioning, product portfolio analysis, and pricing strategy.", "description_zh": "", "downloads": 33, "homepage": "https://clawhub.ai/linuszz/weighted-column", "iconUrl": null, "installs": 2, "name": "Weighted Column", "ownerName": "linuszz", "score": 97058.82352941176, "slug": "weighted-column", "source": "clawhub", "stars": 0, "tags": null, "updated_at": 1776697844620, "version": "1.0.0"}, {"category": "", "created_at": 1774908409316, "description": "Transforms a messy task list or brain dump into a structured daily deep work schedule using time-blocking and priority scoring.", "description_zh": "", "downloads": 33, "homepage": "https://clawhub.ai/tetsuakira-vk/deep-work-planner", "iconUrl": null, "installs": 1, "name": "Deep Work Planner", "ownerName": "tetsuakira-vk", "score": 97058.82352941176, "slug": "deep-work-planner", "source": "clawhub", "stars": 0, "tags": null, "updated_at": 1776697844604, "version": "1.0.1"}, {"category": "", "created_at": 1774885593613, "description": "Find likely buyers, wholesale prospects, procurement targets, and commerce demand-side opportunities for ecommerce and trade workflows. Use when the user wan...", "description_zh": "", "downloads": 33, "homepage": "https://clawhub.ai/leooooooow/find-buyers", "iconUrl": null, "installs": 3, "name": "Find Buyers", "ownerName": "leooooooow", "score": 97058.82352941176, "slug": "find-buyers", "source": "clawhub", "stars": 0, "tags": null, "updated_at": 1776697844594, "version": "1.0.0"}, {"category": "", "created_at": 1774947345691, "description": "Advanced web search with precise date filtering and content type selection. Use when you need academic papers, GitHub repositories, research content, or spec...", "description_zh": "", "downloads": 33, "homepage": "https://clawhub.ai/kennyzir/exa-search-pro", "iconUrl": null, "installs": 1, "name": "exa search", "ownerName": "kennyzir", "score": 97058.82352941176, "slug": "exa-search-pro", "source": "clawhub", "stars": 0, "tags": null, "updated_at": 1776697844591, "version": "1.0.0"}, {"category": "", "created_at": 1774856922517, "description": "Structures and writes discussion sections for academic papers and research reports. Use when writing a discussion section, interpreting research results, con...", "description_zh": "", "downloads": 33, "homepage": "https://clawhub.ai/aipoch-ai/discussion-section-architect", "iconUrl": null, "installs": 0, "name": "Discussion Section Architect", "ownerName": "aipoch-ai", "score": 97058.82352941176, "slug": "discussion-section-architect", "source": "clawhub", "stars": 0, "tags": null, "updated_at": 1776697844589, "version": "0.1.1"}, {"category": "", "created_at": 1774884881876, "description": "Product knowledge Q&A and policy lookup for retail digital employees. Answers customer and staff questions about products, store policies, promotions, FAQs,...", "description_zh": "", "downloads": 33, "homepage": "https://clawhub.ai/fangwei-frank/retail-knowledge", "iconUrl": null, "installs": 0, "name": "Retail Knowledge", "ownerName": "fangwei-frank", "score": 97058.82352941176, "slug": "retail-knowledge", "source": "clawhub", "stars": 0, "tags": null, "updated_at": 1776697844580, "version": "1.0.0"}, {"category": "", "created_at": 1774894634624, "description": "Email Verifier Api integration. Manage data, records, and automate workflows. Use when the user wants to interact with Email Verifier Api data.", "description_zh": "", "downloads": 33, "homepage": "https://clawhub.ai/gora050/email-verifier-api", "iconUrl": null, "installs": 1, "name": "Email Verifier Api", "ownerName": "gora050", "score": 97058.82352941176, "slug": "email-verifier-api", "source": "clawhub", "stars": 0, "tags": null, "updated_at": 1776697844577, "version": "1.0.0"}, {"category": "", "created_at": 1774899527645, "description": "Customer Fields integration. Manage Organizations, Leads, Pipelines, Users, Goals, Filters. Use when the user wants to interact with Customer Fields data.", "description_zh": "", "downloads": 33, "homepage": "https://clawhub.ai/gora050/customer-fields", "iconUrl": null, "installs": 0, "name": "Customer Fields", "ownerName": "gora050", "score": 97058.82352941176, "slug": "customer-fields", "source": "clawhub", "stars": 0, "tags": null, "updated_at": 1776697844573, "version": "1.0.0"}, {"category": "", "created_at": 1774882027699, "description": "Pingdom integration. Manage Checks, AlertPolicies, Reports, Integrations, Users. Use when the user wants to interact with Pingdom data.", "description_zh": "", "downloads": 33, "homepage": "https://clawhub.ai/membranedev/pingdom", "iconUrl": null, "installs": 0, "name": "Pingdom", "ownerName": "membranedev", "score": 97058.82352941176, "slug": "pingdom", "source": "clawhub", "stars": 0, "tags": null, "updated_at": 1776697844563, "version": "1.0.0"}]}