{"page": 464, "total_pages": 522, "total": 26073, "skills": [{"category": "communication-collaboration", "created_at": 1773074040646, "description": "USE THIS for ANY AI task. ONE API provides: CHAT (Claude 4.5 Opus/Sonnet, GPT-5/5.1/5-mini/5-nano, GPT-4.1, o1/o3-mini/o4-mini reasoning, Gemini 3 Pro/2.5 Pr...", "description_zh": "", "downloads": 33, "homepage": "https://clawhub.ai/xiaoyinqu/skillboss-api", "iconUrl": null, "installs": 4, "name": "Skillboss Api", "ownerName": "xiaoyinqu", "score": 97058.82352941176, "slug": "skillboss-api", "source": "clawhub", "stars": 0, "tags": ["ai", "all-in-one", "api", "audio", "claude-code", "cursor", "database", "email", "gateway", "hosting", "image", "image-generation", "linkedin", "multi-model", "openai-compatible", "payments", "perplexity", "scraping", "sms", "stripe", "stt", "tts", "twitter", "video", "video-generation", "windsurf"], "updated_at": 1776697844561, "version": "1.0.4"}, {"category": "", "created_at": 1774867699209, "description": "Process CRISPR screening data to identify essential genes and hit candidates. Performs quality control, statistical analysis (RRA), and hit calling for poole...", "description_zh": "", "downloads": 33, "homepage": "https://clawhub.ai/aipoch-ai/crispr-screen-analyzer", "iconUrl": null, "installs": 2, "name": "Crispr Screen Analyzer", "ownerName": "aipoch-ai", "score": 97058.82352941176, "slug": "crispr-screen-analyzer", "source": "clawhub", "stars": 0, "tags": null, "updated_at": 1776697844554, "version": "0.1.0"}, {"category": "", "created_at": 1774867864424, "description": "flip reference tool", "description_zh": "", "downloads": 33, "homepage": "https://clawhub.ai/bytesagain3/flip", "iconUrl": null, "installs": 0, "name": "Flip", "ownerName": "bytesagain3", "score": 97058.82352941176, "slug": "flip", "source": "clawhub", "stars": 0, "tags": null, "updated_at": 1776697844544, "version": "2.0.0"}, {"category": "", "created_at": 1774850604134, "description": "Generate ecommerce bundle ideas using product mix, margin logic, and customer intent. Use when teams want stronger offer packaging without random discounting.", "description_zh": "", "downloads": 33, "homepage": "https://clawhub.ai/leooooooow/bundle-offer-generator", "iconUrl": null, "installs": 0, "name": "Bundle Offer Generator", "ownerName": "leooooooow", "score": 97058.82352941176, "slug": "bundle-offer-generator", "source": "clawhub", "stars": 0, "tags": null, "updated_at": 1776697844538, "version": "1.0.0"}, {"category": "", "created_at": 1774893373959, "description": "Content repurposing agent. Transforms long-form content (blog posts, video transcripts, podcast notes) into platform-optimized formats: LinkedIn post, X/Twit...", "description_zh": "", "downloads": 33, "homepage": "https://clawhub.ai/mguozhen/multiplatform-content-repurposer", "iconUrl": null, "installs": 3, "name": "Content Repurposer", "ownerName": "mguozhen", "score": 97058.82352941176, "slug": "multiplatform-content-repurposer", "source": "clawhub", "stars": 0, "tags": null, "updated_at": 1776697844531, "version": "1.0.0"}, {"category": "", "created_at": 1774906357020, "description": "Workplace check-in skill for Agent (Claw) with AI-generated personalized greetings", "description_zh": "", "downloads": 33, "homepage": "https://clawhub.ai/daizongyu/clawwork-learning-checkin", "iconUrl": null, "installs": 0, "name": "Clawwork Learning Checkin", "ownerName": "daizongyu", "score": 97058.82352941176, "slug": "clawwork-learning-checkin", "source": "clawhub", "stars": 0, "tags": null, "updated_at": 1776697844527, "version": "1.0.1"}, {"category": "", "created_at": 1774904256366, "description": "Detect and analyze trending market themes across sectors. Use when user asks about current market themes, trending sectors, sector rotation, thematic investi...", "description_zh": "", "downloads": 33, "homepage": "https://clawhub.ai/clawdiri-ai/einstein-research-themes-dv", "iconUrl": null, "installs": 1, "name": "Einstein Research — Market Theme Detector", "ownerName": "clawdiri-ai", "score": 97058.82352941176, "slug": "einstein-research-themes-dv", "source": "clawhub", "stars": 0, "tags": null, "updated_at": 1776697844515, "version": "0.1.0"}, {"category": "", "created_at": 1774868790245, "description": "Read and parse job application email replies from companies. Activate when user asks to check job application replies, read recruiter emails, see who respond...", "description_zh": "", "downloads": 33, "homepage": "https://clawhub.ai/xiaoxty/email-reply-reader", "iconUrl": null, "installs": 1, "name": "Email Reply Reader", "ownerName": "xiaoxty", "score": 97058.82352941176, "slug": "email-reply-reader", "source": "clawhub", "stars": 0, "tags": null, "updated_at": 1776697844513, "version": "0.1.0"}, {"category": "", "created_at": 1774846511634, "description": "Datadog observability via the official MCP Server — query logs, traces, metrics, monitors, incidents, dashboards, hosts, synthetics, and workflows through Da...", "description_zh": "", "downloads": 33, "homepage": "https://clawhub.ai/bcwilsondotcom/datadog-mcp", "iconUrl": null, "installs": 0, "name": "Datadog MCP", "ownerName": "bcwilsondotcom", "score": 97058.82352941176, "slug": "datadog-mcp", "source": "clawhub", "stars": 0, "tags": null, "updated_at": 1776697844509, "version": "1.1.1"}, {"category": "", "created_at": 1774903128224, "description": "When the user wants to run paid ads within directories or marketplaces. Also use when the user mentions \"Taaft ads,\" \"Shopify App Store ads,\" \"G2 sponsored,\"...", "description_zh": "", "downloads": 33, "homepage": "https://clawhub.ai/kostja94/directory-listing-ads", "iconUrl": null, "installs": 1, "name": "directory-listing-ads", "ownerName": "kostja94", "score": 97058.82352941176, "slug": "directory-listing-ads", "source": "clawhub", "stars": 0, "tags": null, "updated_at": 1776697844506, "version": "1.0.0"}, {"category": "", "created_at": 1774892739126, "description": "Guides architectural decisions for Deep Agents applications. Use when deciding between Deep Agents vs alternatives, choosing backend strategies, designing su...", "description_zh": "", "downloads": 33, "homepage": "https://clawhub.ai/anderskev/deepagents-architecture", "iconUrl": null, "installs": 1, "name": "Deepagents Architecture", "ownerName": "anderskev", "score": 97058.82352941176, "slug": "deepagents-architecture", "source": "clawhub", "stars": 0, "tags": null, "updated_at": 1776697844504, "version": "1.0.0"}, {"category": "", "created_at": 1774894718785, "description": "Social deduction game — 5 AI bots try to identify the human in a chatroom. Compete on a persistent Elo leaderboard.", "description_zh": "", "downloads": 33, "homepage": "https://clawhub.ai/charlesxjyang/findthehuman", "iconUrl": null, "installs": 3, "name": "findthehuman", "ownerName": "charlesxjyang", "score": 97058.82352941176, "slug": "findthehuman", "source": "clawhub", "stars": 0, "tags": ["latestw"], "updated_at": 1776697844495, "version": "1.0.1"}, {"category": "", "created_at": 1774880033951, "description": "Build a simple stock-options watchlist and paper-trade plan after the first 15 minutes of the market session. Use when the user wants a 9:45 AM ET scan, only...", "description_zh": "", "downloads": 33, "homepage": "https://clawhub.ai/jrmerced1292-commits/daily-options-plays-top-2-picks", "iconUrl": null, "installs": 3, "name": "Daily Options Plays — Top 2 Picks", "ownerName": "jrmerced1292-commits", "score": 97058.82352941176, "slug": "daily-options-plays-top-2-picks", "source": "clawhub", "stars": 0, "tags": ["options", "paper-trading", "stocks", "trading", "watchlist"], "updated_at": 1776697844494, "version": "1.0.0"}, {"category": "", "created_at": 1774852249800, "description": "Reference tool for devtools — covers intro, quickstart, patterns and more. Quick lookup for Fontpreview concepts, best practices, and implementation patterns.", "description_zh": "", "downloads": 33, "homepage": "https://clawhub.ai/bytesagain1/fontpreview", "iconUrl": null, "installs": 0, "name": "Fontpreview", "ownerName": "bytesagain1", "score": 97058.82352941176, "slug": "fontpreview", "source": "clawhub", "stars": 0, "tags": null, "updated_at": 1776697844479, "version": "2.0.4"}, {"category": "", "created_at": 1774840581217, "description": "Reference tool for devtools — covers intro, quickstart, patterns and more. Quick lookup for Finetune concepts, best practices, and implementation patterns.", "description_zh": "", "downloads": 33, "homepage": "https://clawhub.ai/ckchzh/finetune", "iconUrl": null, "installs": 0, "name": "Finetune", "ownerName": "ckchzh", "score": 97058.82352941176, "slug": "finetune", "source": "clawhub", "stars": 0, "tags": null, "updated_at": 1776697844478, "version": "2.0.4"}, {"category": "", "created_at": 1774886362088, "description": "Research platform for AI agents. Agent-to-agent knowledge collaboration with persistent memory, peer review, and identity-based discovery. Use when connectin...", "description_zh": "", "downloads": 33, "homepage": "https://clawhub.ai/hikarea/exuvia", "iconUrl": null, "installs": 2, "name": "Exuvia", "ownerName": "hikarea", "score": 97058.82352941176, "slug": "exuvia", "source": "clawhub", "stars": 0, "tags": ["agent-blindness", "agent-memory", "agent-network", "agent-to-agent", "agents", "ai", "ai-agents", "autonomous-agents", "basin-keys", "collaboration", "context-reset", "crystallization", "dead-ends", "discussions", "engagement-based-identity", "epistemic-decay", "exuvia", "identity-blindness", "knowledge", "knowledge-management", "knowledge-substrate", "memory", "multi-agent", "night-science", "notebooks", "peer-review", "persistent-memory", "pod", "protocol", "repos", "research", "research-platform", "semantic-permanence", "substrate", "whiteboards"], "updated_at": 1776697844474, "version": "1.0.3"}, {"category": "", "created_at": 1774881472006, "description": "Console & terminal output reference — logging levels, ANSI colors, debugging techniques, formatters. Use when styling terminal output, implementing log syste...", "description_zh": "", "downloads": 33, "homepage": "https://clawhub.ai/bytesagain1/console", "iconUrl": null, "installs": 0, "name": "Console", "ownerName": "bytesagain1", "score": 97058.82352941176, "slug": "console", "source": "clawhub", "stars": 0, "tags": null, "updated_at": 1776697844458, "version": "1.0.0"}, {"category": "", "created_at": 1774896563338, "description": "Inspect, validate, summarize, and extract data from KML and KMZ files, including Placemark geometry counts, Folder structure, coordinate ranges, bbox generat...", "description_zh": "", "downloads": 33, "homepage": "https://clawhub.ai/jvy/kml", "iconUrl": null, "installs": 1, "name": "kml", "ownerName": "jvy", "score": 97058.82352941176, "slug": "kml", "source": "clawhub", "stars": 0, "tags": null, "updated_at": 1776697844451, "version": "1.0.0"}, {"category": "", "created_at": 1774956248195, "description": "Customer.guru integration. Manage Persons, Organizations, Deals, Leads, Projects, Pipelines and more. Use when the user wants to interact with Customer.guru...", "description_zh": "", "downloads": 33, "homepage": "https://clawhub.ai/gora050/customerguru", "iconUrl": null, "installs": 0, "name": "Customerguru", "ownerName": "gora050", "score": 97058.82352941176, "slug": "customerguru", "source": "clawhub", "stars": 0, "tags": null, "updated_at": 1776697844431, "version": "1.0.0"}, {"category": "", "created_at": 1774952002510, "description": "Optimize e-commerce returns process and reduce return rates. Returns policy design, reverse logistics, root cause analysis, and customer retention through be...", "description_zh": "", "downloads": 33, "homepage": "https://clawhub.ai/nexscope/ecommerce-returns-management", "iconUrl": null, "installs": 0, "name": "E-Commerce Returns Management", "ownerName": "nexscope", "score": 97058.82352941176, "slug": "ecommerce-returns-management", "source": "clawhub", "stars": 0, "tags": null, "updated_at": 1776697844427, "version": "1.0.0"}, {"category": "", "created_at": 1774860037925, "description": "React composition patterns that scale. Use when refactoring components with boolean prop proliferation, building flexible component libraries, or designing r...", "description_zh": "", "downloads": 33, "homepage": "https://clawhub.ai/analsharqy/composition-patterns-2", "iconUrl": null, "installs": 2, "name": "Vercel Composition Patterns", "ownerName": "analsharqy", "score": 97058.82352941176, "slug": "composition-patterns-2", "source": "clawhub", "stars": 0, "tags": null, "updated_at": 1776697844423, "version": "0.1.0"}, {"category": "", "created_at": 1774880062181, "description": "DocsGenFlow integration. Manage Documents, Users, Workspaces. Use when the user wants to interact with DocsGenFlow data.", "description_zh": "", "downloads": 33, "homepage": "https://clawhub.ai/gora050/docsgenflow", "iconUrl": null, "installs": 0, "name": "Docsgenflow", "ownerName": "gora050", "score": 97058.82352941176, "slug": "docsgenflow", "source": "clawhub", "stars": 0, "tags": null, "updated_at": 1776697844421, "version": "1.0.0"}, {"category": "productivity", "created_at": 1773066332089, "description": "Search for tokens, wallets, or entities by name or address. Use when you have a token name and need the full address, or want to find an entity.", "description_zh": "", "downloads": 33, "homepage": "https://clawhub.ai/hurcannansen/nansen-search", "iconUrl": null, "installs": 3, "name": "Nansen Search", "ownerName": "hurcannansen", "score": 97058.82352941176, "slug": "nansen-search", "source": "clawhub", "stars": 0, "tags": null, "updated_at": 1776697844415, "version": "1.0.0"}, {"category": "", "created_at": 1774868112535, "description": "Diagnoses and tunes LLM providers (Groq, OpenRouter, Ollama), resolves rate limits/timeouts, and selects stable primary/fallback models. Use when the bot is...", "description_zh": "", "downloads": 33, "homepage": "https://clawhub.ai/utromaya-code/neural-network-diagnostics", "iconUrl": null, "installs": 0, "name": "Neural Network Ops", "ownerName": "utromaya-code", "score": 97058.82352941176, "slug": "neural-network-diagnostics", "source": "clawhub", "stars": 0, "tags": null, "updated_at": 1776697844406, "version": "1.0.0"}, {"category": "", "created_at": 1774899066646, "description": "👩‍🚀 The tiny all-in-one development tool for modern web apps. web-module-runner, javascript, build-tool, esmodules, preact.", "description_zh": "", "downloads": 33, "homepage": "https://clawhub.ai/xueyetianya/web-module-runner", "iconUrl": null, "installs": 2, "name": "Web Module Runner", "ownerName": "xueyetianya", "score": 97058.82352941176, "slug": "web-module-runner", "source": "clawhub", "stars": 0, "tags": null, "updated_at": 1776697844404, "version": "1.0.0"}, {"category": "", "created_at": 1774920487617, "description": "Deep resume workflow—target role, positioning statement, impact bullets with metrics, keyword alignment, ATS hygiene, and proofreading. Use when rewriting te...", "description_zh": "", "downloads": 33, "homepage": "https://clawhub.ai/mike47512/resume-writing", "iconUrl": null, "installs": 3, "name": "Resume Writing", "ownerName": "mike47512", "score": 97058.82352941176, "slug": "resume-writing", "source": "clawhub", "stars": 0, "tags": null, "updated_at": 1776697844388, "version": "1.0.0"}, {"category": "", "created_at": 1774864348163, "description": "usb reference tool", "description_zh": "", "downloads": 33, "homepage": "https://clawhub.ai/bytesagain1/usb", "iconUrl": null, "installs": 0, "name": "Usb", "ownerName": "bytesagain1", "score": 97058.82352941176, "slug": "usb", "source": "clawhub", "stars": 0, "tags": null, "updated_at": 1776697844380, "version": "2.0.2"}, {"category": "", "created_at": 1774868106169, "description": "Reference tool for devtools — covers intro, quickstart, patterns and more. Quick lookup for Networkmanager concepts, best practices, and implementation patte...", "description_zh": "", "downloads": 33, "homepage": "https://clawhub.ai/bytesagain3/networkmanager", "iconUrl": null, "installs": 0, "name": "Networkmanager", "ownerName": "bytesagain3", "score": 97058.82352941176, "slug": "networkmanager", "source": "clawhub", "stars": 0, "tags": null, "updated_at": 1776697844361, "version": "2.0.2"}, {"category": "", "created_at": 1774952397668, "description": "In-person negotiation skills and barter/trade techniques. Use when someone needs to negotiate a price, hire a contractor, dispute a bill, buy or sell used go...", "description_zh": "", "downloads": 32, "homepage": "https://clawhub.ai/howtousehumans/negotiation-trade", "iconUrl": null, "installs": 1, "name": "Negotiation Trade", "ownerName": "howtousehumans", "score": 837.038974627256, "slug": "negotiation-trade", "source": "clawhub", "stars": 0, "tags": null, "updated_at": 1776766749788, "version": "1.0.0"}, {"category": "", "created_at": 1774912634802, "description": "Analyze GitHub pull requests, summarize risk, and draft a reviewer checklist using the gh CLI.", "description_zh": "", "downloads": 32, "homepage": "https://clawhub.ai/mehulupase01/code-review-bot", "iconUrl": null, "installs": 3, "name": "Code Review Bot", "ownerName": "mehulupase01", "score": 310.0174384809145, "slug": "code-review-bot", "source": "clawhub", "stars": 0, "tags": null, "updated_at": 1776766104250, "version": "0.1.0"}, {"category": "ai-intelligence", "created_at": 1773080952684, "description": "Lanbow Ads control skill for ad campaign management and optimization across Meta (Facebook/Instagram), Google Ads, TikTok Ads, YouTube Ads, Amazon Ads, Shopi...", "description_zh": "", "downloads": 32, "homepage": "https://clawhub.ai/danyangliu-sandwichlab/lanbow-ads", "iconUrl": null, "installs": 4, "name": "Lanbow Ads", "ownerName": "danyangliu-sandwichlab", "score": 1355.357899195256, "slug": "lanbow-ads", "source": "clawhub", "stars": 0, "tags": null, "updated_at": 1776763750783, "version": "1.0.0"}, {"category": "", "created_at": 1774873099424, "description": "Batch-distill completed and live OpenClaw session transcripts into structured daily memory files. Two components: distill.py (batch + live session distillati...", "description_zh": "", "downloads": 32, "homepage": "https://clawhub.ai/pjmorr/session-distiller", "iconUrl": null, "installs": 1, "name": "Session Distiller", "ownerName": "pjmorr", "score": 168.09371224457635, "slug": "session-distiller", "source": "clawhub", "stars": 0, "tags": null, "updated_at": 1776762482392, "version": "0.5.1"}, {"category": "", "created_at": 1776061112775, "description": "Generate/edit high-quality images with Nano Banana 2.0. Supports text-to-image and image-to-image.", "description_zh": "", "downloads": 32, "homepage": "https://clawhub.ai/user_f95f21b8/dlazy-banana2", "iconUrl": null, "installs": 2, "name": "banana2", "ownerName": "user_f95f21b8", "score": 2543.7201907790145, "slug": "dlazy-banana2", "source": "community", "stars": 0, "tags": null, "updated_at": 1776760098003, "version": "1.0.3"}, {"category": "", "created_at": 1776060999461, "description": "Generate/edit images with Nano Banana Pro. Supports text-to-image and image-to-image.", "description_zh": "", "downloads": 32, "homepage": "https://clawhub.ai/user_f95f21b8/dlazy-banana-pro", "iconUrl": null, "installs": 3, "name": "banana pro", "ownerName": "user_f95f21b8", "score": 2553.8707102952912, "slug": "dlazy-banana-pro", "source": "community", "stars": 0, "tags": null, "updated_at": 1776760097872, "version": "1.0.4"}, {"category": "security-compliance", "created_at": 1772767290173, "description": "Connect 2,000+ APIs with managed OAuth via Pipedream. Includes full UI integration for OpenClaw Gateway dashboard with per-agent app isolation.", "description_zh": "", "downloads": 32, "homepage": "https://clawhub.ai/maverick-software/pipedream-connect", "iconUrl": null, "installs": 1, "name": "Pipedream Connect", "ownerName": "maverick-software", "score": 2154.882154882155, "slug": "pipedream-connect", "source": "clawhub", "stars": 0, "tags": null, "updated_at": 1776758182542, "version": "1.4.0"}, {"category": "", "created_at": 1774896241357, "description": "Latvia customs declarations analytics — 3.8GB, KN8 codes, trends, seasonal patterns, top declarants", "description_zh": "", "downloads": 32, "homepage": "https://clawhub.ai/drivenbymyai-max/customs-analytics", "iconUrl": null, "installs": 1, "name": "Customs Analytics", "ownerName": "drivenbymyai-max", "score": 5970.149253731343, "slug": "customs-analytics", "source": "clawhub", "stars": 0, "tags": null, "updated_at": 1776754388617, "version": "1.0.0"}, {"category": "", "created_at": 1774945114780, "description": "Enforce execution discipline for ongoing work after the user has already approved direction. Use when the assistant is at risk of drifting into planning, sta...", "description_zh": "", "downloads": 32, "homepage": "https://clawhub.ai/21f2000735/ekalavya-self-improvement", "iconUrl": null, "installs": 2, "name": "ekalavya-self-improvement", "ownerName": "21f2000735", "score": 1620.253164556962, "slug": "ekalavya-self-improvement", "source": "clawhub", "stars": 0, "tags": null, "updated_at": 1776753883791, "version": "1.0.0"}, {"category": "", "created_at": 1774923345806, "description": "SwiftData best practices, batch queries, N+1 avoidance, and model relationships for macOS/iOS apps", "description_zh": "", "downloads": 32, "homepage": "https://clawhub.ai/soponcd/swiftdata-patterns", "iconUrl": null, "installs": 4, "name": "Swiftdata Patterns", "ownerName": "soponcd", "score": 5594.4055944055945, "slug": "swiftdata-patterns", "source": "clawhub", "stars": 0, "tags": null, "updated_at": 1776752683931, "version": "1.0.0"}, {"category": "", "created_at": 1774854911110, "description": "Investigative intelligence — document search, entity extraction, and relationship graphing. Analyze document corpuses to find connections between people, org...", "description_zh": "", "downloads": 32, "homepage": "https://clawhub.ai/aingestigate/ingestigate", "iconUrl": null, "installs": 4, "name": "Ingestigate Investigative intelligence for AI agents", "ownerName": "aingestigate", "score": 7126.948775055679, "slug": "ingestigate", "source": "clawhub", "stars": 0, "tags": null, "updated_at": 1776751970123, "version": "1.0.9"}, {"category": "", "created_at": 1774870864355, "description": "Use `aigroup-mdtoword-mcp` to convert Markdown into `.docx`. Route Markdown file conversion, generated Markdown conversion, table-to-Markdown preprocessing,...", "description_zh": "", "downloads": 32, "homepage": "https://clawhub.ai/jackdark425/aigroup-mdtoword-mcp", "iconUrl": null, "installs": 1, "name": "AIGroup Markdown to Word MCP", "ownerName": "jackdark425", "score": 11940.298507462687, "slug": "aigroup-mdtoword-mcp", "source": "clawhub", "stars": 0, "tags": null, "updated_at": 1776749085566, "version": "0.1.2"}, {"category": "", "created_at": 1774882862072, "description": "Coding style memory that adapts to your preferences, conventions, and patterns for consistent coding.", "description_zh": "", "downloads": 32, "homepage": "https://clawhub.ai/alexbingquanxu-cpu/coding-custom", "iconUrl": null, "installs": 1, "name": "Coding Custom", "ownerName": "alexbingquanxu-cpu", "score": 34042.55319148936, "slug": "coding-custom", "source": "clawhub", "stars": 0, "tags": null, "updated_at": 1776744884064, "version": "1.0.0"}, {"category": "", "created_at": 1774904653069, "description": "Evaluate and prioritize opportunities through a structured filtering process. Use for resource allocation, strategic decision support, and project management.", "description_zh": "", "downloads": 32, "homepage": "https://clawhub.ai/linuszz/prioritization-funnel", "iconUrl": null, "installs": 1, "name": "Prioritization Funnel", "ownerName": "linuszz", "score": 33684.21052631579, "slug": "prioritization-funnel", "source": "clawhub", "stars": 0, "tags": null, "updated_at": 1776744344426, "version": "1.0.0"}, {"category": "", "created_at": 1774952358593, "description": "Three-phase money crisis protocol: immediate triage when you can't pay bills, surviving on drastically reduced income, and building financial resilience once...", "description_zh": "", "downloads": 32, "homepage": "https://clawhub.ai/howtousehumans/money-crisis-ladder", "iconUrl": null, "installs": 0, "name": "Money Crisis Ladder", "ownerName": "howtousehumans", "score": 33684.21052631579, "slug": "money-crisis-ladder", "source": "clawhub", "stars": 0, "tags": null, "updated_at": 1776744304805, "version": "1.0.0"}, {"category": "", "created_at": 1774845276218, "description": "Configures Lean environments, installs external proof skills, runs preflight checks, and guides the workflow for proving downloaded OpenMath Lean theorems lo...", "description_zh": "", "downloads": 32, "homepage": "https://clawhub.ai/bennyzhe/openmath-lean-theorem", "iconUrl": null, "installs": 0, "name": "openmath-lean-theorem", "ownerName": "bennyzhe", "score": 45714.28571428571, "slug": "openmath-lean-theorem", "source": "clawhub", "stars": 0, "tags": null, "updated_at": 1776743983662, "version": "1.0.3"}, {"category": "", "created_at": 1774877612432, "description": "Coordinate payment incident response with structured triage, blast-radius assessment, mitigation actions, stakeholder communication, reconciliation recovery,...", "description_zh": "", "downloads": 32, "homepage": "https://clawhub.ai/anugotta/payment-incident-responder", "iconUrl": null, "installs": 0, "name": "Payment Incident Responder", "ownerName": "anugotta", "score": 45714.28571428571, "slug": "payment-incident-responder", "source": "clawhub", "stars": 0, "tags": null, "updated_at": 1776743755463, "version": "1.0.0"}, {"category": "", "created_at": 1774882062229, "description": "When the user wants to create, optimize, or structure Privacy Policy page. Also use when the user mentions \"privacy policy,\" \"privacy page,\" \"data protection...", "description_zh": "", "downloads": 32, "homepage": "https://clawhub.ai/kostja94/privacy-page-generator", "iconUrl": null, "installs": 0, "name": "privacy-page-generator", "ownerName": "kostja94", "score": 32323.232323232325, "slug": "privacy-page-generator", "source": "clawhub", "stars": 0, "tags": null, "updated_at": 1776743383856, "version": "1.0.0"}, {"category": "", "created_at": 1774860547907, "description": "US travel planning expert that helps users find the best deals on flights, hotels, rental cars, and vacation packages. Compares prices across 50+ booking pla...", "description_zh": "", "downloads": 32, "homepage": "https://clawhub.ai/xiaoxty/travel-deals", "iconUrl": null, "installs": 2, "name": "Travel Deal Finder", "ownerName": "xiaoxty", "score": 33333.33333333333, "slug": "travel-deals", "source": "clawhub", "stars": 0, "tags": null, "updated_at": 1776742872004, "version": "0.1.0"}, {"category": "", "created_at": 1774954541565, "description": "Remove personal data from data brokers and people-search sites. Use when someone wants to remove their information from the internet, is being stalked, wants...", "description_zh": "", "downloads": 32, "homepage": "https://clawhub.ai/howtousehumans/privacy-cleanup", "iconUrl": null, "installs": 0, "name": "Privacy Cleanup", "ownerName": "howtousehumans", "score": 32653.061224489793, "slug": "privacy-cleanup", "source": "clawhub", "stars": 0, "tags": null, "updated_at": 1776742669745, "version": "1.0.0"}, {"category": "", "created_at": 1774868999022, "description": "When the user wants to design, optimize, or audit site navigation menus. Also use when the user mentions \"navigation,\" \"nav menu,\" \"header menu,\" \"site struc...", "description_zh": "", "downloads": 32, "homepage": "https://clawhub.ai/kostja94/navigation-menu-generator", "iconUrl": null, "installs": 0, "name": "navigation-menu-generator", "ownerName": "kostja94", "score": 39506.17283950617, "slug": "navigation-menu-generator", "source": "clawhub", "stars": 0, "tags": null, "updated_at": 1776737771991, "version": "1.0.0"}, {"category": "", "created_at": 1774868282749, "description": "Reference tool for devtools — covers intro, quickstart, patterns and more. Quick lookup for Responsive Tester concepts, best practices, and implementation pa...", "description_zh": "", "downloads": 32, "homepage": "https://clawhub.ai/xueyetianya/responsive-tester", "iconUrl": null, "installs": 0, "name": "Responsive Tester", "ownerName": "xueyetianya", "score": 32989.69072164949, "slug": "responsive-tester", "source": "clawhub", "stars": 0, "tags": null, "updated_at": 1776736970008, "version": "2.0.1"}]}