{"page": 465, "total_pages": 522, "total": 26073, "skills": [{"category": "", "created_at": 1774872429337, "description": "A shared emotional memo for relationships — records emotional moments and gently reminds before old wounds are touched", "description_zh": "", "downloads": 32, "homepage": "https://clawhub.ai/zj-zc/emotional-memo", "iconUrl": null, "installs": 0, "name": "emotional-memo", "ownerName": "zj-zc", "score": 45070.42253521127, "slug": "emotional-memo", "source": "clawhub", "stars": 0, "tags": null, "updated_at": 1776735169568, "version": "1.0.0"}, {"category": "", "created_at": 1774908714490, "description": "Track job applications, contacts, deadlines, and follow-up reminders in a local SQLite database.", "description_zh": "", "downloads": 32, "homepage": "https://clawhub.ai/mehulupase01/job-tracker", "iconUrl": null, "installs": 0, "name": "Job Tracker", "ownerName": "mehulupase01", "score": 33684.21052631579, "slug": "job-tracker", "source": "clawhub", "stars": 0, "tags": null, "updated_at": 1776734569656, "version": "0.1.0"}, {"category": "", "created_at": 1774892562826, "description": "Local speech-to-text with the Whisper CLI (no API key).", "description_zh": "", "downloads": 32, "homepage": "https://clawhub.ai/cs995279497-byte/chen-openai-whisper", "iconUrl": null, "installs": 4, "name": "Chen Openai Whisper", "ownerName": "cs995279497-byte", "score": 33684.21052631579, "slug": "chen-openai-whisper", "source": "clawhub", "stars": 0, "tags": null, "updated_at": 1776734435866, "version": "1.0.0"}, {"category": "", "created_at": 1774916751609, "description": "Defensive Golang coding to prevent panics, silent data corruption, and subtle runtime bugs. Use whenever writing or reviewing Go code that involves nil-prone...", "description_zh": "", "downloads": 32, "homepage": "https://clawhub.ai/samber/golang-safety", "iconUrl": null, "installs": 0, "name": "Golang Safety", "ownerName": "samber", "score": 32653.061224489793, "slug": "golang-safety", "source": "clawhub", "stars": 0, "tags": null, "updated_at": 1776733970015, "version": "0.1.0"}, {"category": "", "created_at": 1774892927732, "description": "Golang benchmarking, profiling, and performance measurement. Use when writing, running, or comparing Go benchmarks, profiling hot paths with pprof, interpret...", "description_zh": "", "downloads": 32, "homepage": "https://clawhub.ai/samber/golang-benchmark", "iconUrl": null, "installs": 0, "name": "Golang Benchmark", "ownerName": "samber", "score": 32653.061224489793, "slug": "golang-benchmark", "source": "clawhub", "stars": 0, "tags": null, "updated_at": 1776733969857, "version": "1.1.1"}, {"category": "", "created_at": 1774898080832, "description": "Provides dependency management strategies for Golang projects including go.mod management, installing/upgrading packages, semantic versioning, Minimal Versio...", "description_zh": "", "downloads": 32, "homepage": "https://clawhub.ai/samber/golang-dependency-management", "iconUrl": null, "installs": 0, "name": "Golang Dependency Management", "ownerName": "samber", "score": 32653.061224489793, "slug": "golang-dependency-management", "source": "clawhub", "stars": 0, "tags": null, "updated_at": 1776733969632, "version": "1.1.1"}, {"category": "", "created_at": 1774841638079, "description": "The transaction layer for the agent economy. Register agents, publish capabilities and negotiation terms, and enable structured transactions between agents a...", "description_zh": "", "downloads": 32, "homepage": "https://clawhub.ai/evankolega/clawfinder", "iconUrl": null, "installs": 1, "name": "ClawFinder", "ownerName": "evankolega", "score": 29357.798165137618, "slug": "clawfinder", "source": "clawhub", "stars": 0, "tags": null, "updated_at": 1776731983999, "version": "1.0.7"}, {"category": "", "created_at": 1774883686448, "description": "Order pet supplies via Chewy using Strider Labs MCP connector. Shop food, treats, meds, set up Autoship for recurring deliveries. Complete autonomous pet car...", "description_zh": "", "downloads": 32, "homepage": "https://clawhub.ai/markswendsen-code/strider-chewy", "iconUrl": null, "installs": 2, "name": "Strider Chewy", "ownerName": "markswendsen-code", "score": 100000, "slug": "strider-chewy", "source": "clawhub", "stars": 0, "tags": null, "updated_at": 1776698084755, "version": "1.0.0"}, {"category": "", "created_at": 1774903978976, "description": "Abstract integration. Manage data, records, and automate workflows. Use when the user wants to interact with Abstract data.", "description_zh": "", "downloads": 32, "homepage": "https://clawhub.ai/gora050/abstract", "iconUrl": null, "installs": 1, "name": "Abstract", "ownerName": "gora050", "score": 100000, "slug": "abstract", "source": "clawhub", "stars": 0, "tags": null, "updated_at": 1776698084736, "version": "1.0.0"}, {"category": "", "created_at": 1774902546594, "description": "Speechace integration. Manage data, records, and automate workflows. Use when the user wants to interact with Speechace data.", "description_zh": "", "downloads": 32, "homepage": "https://clawhub.ai/gora050/speechace", "iconUrl": null, "installs": 0, "name": "Speechace", "ownerName": "gora050", "score": 100000, "slug": "speechace", "source": "clawhub", "stars": 0, "tags": null, "updated_at": 1776698084711, "version": "1.0.0"}, {"category": "", "created_at": 1774910543955, "description": "When the user wants to create, optimize, or audit a careers or jobs page. Also use when the user mentions \"careers,\" \"jobs,\" \"hiring,\" \"open positions,\" \"com...", "description_zh": "", "downloads": 32, "homepage": "https://clawhub.ai/kostja94/careers-page-generator", "iconUrl": null, "installs": 0, "name": "careers-page-generator", "ownerName": "kostja94", "score": 91428.57142857142, "slug": "careers-page-generator", "source": "clawhub", "stars": 0, "tags": null, "updated_at": 1776698084691, "version": "1.0.0"}, {"category": "", "created_at": 1774817552597, "description": "A better test skill with more content", "description_zh": "", "downloads": 32, "homepage": "https://clawhub.ai/jazzqi/better-skill", "iconUrl": null, "installs": 0, "name": "Better Skill", "ownerName": "jazzqi", "score": 91428.57142857142, "slug": "better-skill", "source": "clawhub", "stars": 0, "tags": null, "updated_at": 1776698084684, "version": "0.0.1"}, {"category": "", "created_at": 1774901535940, "description": "ToolJet integration. Manage data, records, and automate workflows. Use when the user wants to interact with ToolJet data.", "description_zh": "", "downloads": 32, "homepage": "https://clawhub.ai/gora050/tooljet", "iconUrl": null, "installs": 1, "name": "Tooljet", "ownerName": "gora050", "score": 91428.57142857142, "slug": "tooljet", "source": "clawhub", "stars": 0, "tags": null, "updated_at": 1776698084680, "version": "1.0.0"}, {"category": "", "created_at": 1774951816293, "description": "Archive ChatGPT and Claude share links to Markdown using Chrome CDP. Captures browser sessions for offline reading.", "description_zh": "", "downloads": 32, "homepage": "https://clawhub.ai/guobaba1/browser-session-archive", "iconUrl": null, "installs": 2, "name": "browser-session-archive", "ownerName": "guobaba1", "score": 91428.57142857142, "slug": "browser-session-archive", "source": "clawhub", "stars": 0, "tags": ["browser", "cdp", "chatgpt chatbot", "chrome", "claude chatbot"], "updated_at": 1776698084661, "version": "1.0.0"}, {"category": "", "created_at": 1774882143986, "description": "Triggers when the user asks for daily advice, weather, a morning routine, \"what's the vibe today,\" or planning their day. It provides a comprehensive, ground...", "description_zh": "", "downloads": 32, "homepage": "https://clawhub.ai/jkzfhq/rustic-almanac-guide", "iconUrl": null, "installs": 1, "name": "Rustic Almanac Guide", "ownerName": "jkzfhq", "score": 100000, "slug": "rustic-almanac-guide", "source": "clawhub", "stars": 0, "tags": ["daily-routine", "lifestyle", "nature", "productivity", "weather"], "updated_at": 1776698084620, "version": "3.0.0"}, {"category": "", "created_at": 1774865580208, "description": "OpenClaw-based SLG game. Multiplayer, real-time commands, planning. Battle with other lobsters, build alliances. Use when user says \"2037\" or \"earth2037\" and...", "description_zh": "", "downloads": 32, "homepage": "https://clawhub.ai/windinwing/2037", "iconUrl": null, "installs": 1, "name": "2037", "ownerName": "windinwing", "score": 100000, "slug": "2037", "source": "clawhub", "stars": 0, "tags": null, "updated_at": 1776698084619, "version": "1.0.2"}, {"category": "", "created_at": 1774862273080, "description": "Connect to the native board demo through local-mcp and one fixed UXC link. Use when the user wants to inspect or edit the shared board at board.holon.run or...", "description_zh": "", "downloads": 32, "homepage": "https://clawhub.ai/jolestar/board-webmcp", "iconUrl": null, "installs": 1, "name": "Board Webmcp", "ownerName": "jolestar", "score": 100000, "slug": "board-webmcp", "source": "clawhub", "stars": 0, "tags": null, "updated_at": 1776698084617, "version": "0.1.1"}, {"category": "", "created_at": 1774907151008, "description": "Replace or move an element in an existing HTTPS video with WeryAI anime-style processing (video-anime-replace). Use when the user wants anime-style object re...", "description_zh": "", "downloads": 32, "homepage": "https://clawhub.ai/zoucdr/video-tool-anime-replace", "iconUrl": null, "installs": 1, "name": "WeryAI video tool — anime replace", "ownerName": "zoucdr", "score": 100000, "slug": "video-tool-anime-replace", "source": "clawhub", "stars": 0, "tags": null, "updated_at": 1776698084600, "version": "1.0.2"}, {"category": "", "created_at": 1774863610311, "description": "Query any on-chain wallet address token balances and positions. Retrieves all token holdings for a specified wallet address on a given chain, including token...", "description_zh": "", "downloads": 32, "homepage": "https://clawhub.ai/binance-skills-hub/binance-web3-query-address-info", "iconUrl": null, "installs": 1, "name": "Binance Query Address Info", "ownerName": "binance-skills-hub", "score": 100000, "slug": "binance-web3-query-address-info", "source": "clawhub", "stars": 0, "tags": null, "updated_at": 1776698084514, "version": "1.0.0"}, {"category": "", "created_at": 1774897735508, "description": "Find nearby Chinese restaurants. Invoke when user asks for Chinese food near me.", "description_zh": "", "downloads": 32, "homepage": "https://clawhub.ai/mikeclaw007/chinese-restaurants", "iconUrl": null, "installs": 0, "name": "Chinese Restaurants", "ownerName": "mikeclaw007", "score": 100000, "slug": "chinese-restaurants", "source": "clawhub", "stars": 0, "tags": null, "updated_at": 1776698084509, "version": "0.1.0"}, {"category": "", "created_at": 1774906987521, "description": "SonarCloud integration. Manage Projects. Use when the user wants to interact with SonarCloud data.", "description_zh": "", "downloads": 32, "homepage": "https://clawhub.ai/gora050/sonarcloud", "iconUrl": null, "installs": 0, "name": "Sonarcloud", "ownerName": "gora050", "score": 100000, "slug": "sonarcloud", "source": "clawhub", "stars": 0, "tags": null, "updated_at": 1776698084478, "version": "1.0.0"}, {"category": "", "created_at": 1774883524671, "description": "This skill helps users extract structured data from Reddit posts and comments via BrowserAct API. Agent should proactively apply this skill when users expres...", "description_zh": "", "downloads": 32, "homepage": "https://clawhub.ai/browseract-ai/reddit-competitor-analysis-api-skill", "iconUrl": null, "installs": 3, "name": "reddit-competitor-analysis-api-skill", "ownerName": "browseract-ai", "score": 100000, "slug": "reddit-competitor-analysis-api-skill", "source": "clawhub", "stars": 0, "tags": null, "updated_at": 1776698084370, "version": "1.0.0"}, {"category": "", "created_at": 1774883593129, "description": "Sendbird integration. Manage Users, Channels. Use when the user wants to interact with Sendbird data.", "description_zh": "", "downloads": 32, "homepage": "https://clawhub.ai/membranedev/sendbird", "iconUrl": null, "installs": 0, "name": "Sendbird", "ownerName": "membranedev", "score": 100000, "slug": "sendbird", "source": "clawhub", "stars": 0, "tags": null, "updated_at": 1776698084331, "version": "1.0.0"}, {"category": "", "created_at": 1774876977046, "description": "Comprehensive consumer electronics industry suppliers guide for international buyers – provides detailed information about China's smartphone, wearable, audi...", "description_zh": "", "downloads": 32, "homepage": "https://clawhub.ai/findhappy7/china-consumer-electronics-suppliers", "iconUrl": null, "installs": 0, "name": "China Consumer Electronics Suppliers", "ownerName": "findhappy7", "score": 100000, "slug": "china-consumer-electronics-suppliers", "source": "clawhub", "stars": 0, "tags": null, "updated_at": 1776698084247, "version": "1.0.1"}, {"category": "", "created_at": 1774920653950, "description": "Deep workflow for client (and hybrid) state—modeling domain vs UI state, server cache vs client store, async and consistency, DevTools, persistence, and test...", "description_zh": "", "downloads": 32, "homepage": "https://clawhub.ai/clawkk/state-management", "iconUrl": null, "installs": 0, "name": "State Management", "ownerName": "clawkk", "score": 100000, "slug": "state-management", "source": "clawhub", "stars": 0, "tags": null, "updated_at": 1776698084232, "version": "1.0.0"}, {"category": "", "created_at": 1774876467419, "description": "Advanced techniques for minimizing token consumption in OpenClaw operations while maintaining or improving response quality. Includes memory optimization, do...", "description_zh": "", "downloads": 32, "homepage": "https://clawhub.ai/foinbo/token-efficient-agent", "iconUrl": null, "installs": 0, "name": "Token Efficient Agent", "ownerName": "foinbo", "score": 100000, "slug": "token-efficient-agent", "source": "clawhub", "stars": 0, "tags": null, "updated_at": 1776698084175, "version": "1.0.0"}, {"category": "", "created_at": 1774874951668, "description": "Write B2B cold emails and follow-up sequences that get replies. Use when the user wants to write cold outreach emails, prospecting emails, cold email campaig...", "description_zh": "", "downloads": 32, "homepage": "https://clawhub.ai/mariokarras/abm-cold-email", "iconUrl": null, "installs": 0, "name": "Cold Email", "ownerName": "mariokarras", "score": 100000, "slug": "abm-cold-email", "source": "clawhub", "stars": 0, "tags": null, "updated_at": 1776698084160, "version": "1.0.0"}, {"category": "", "created_at": 1774903874379, "description": "Get current weather and forecasts (no API key required).", "description_zh": "", "downloads": 32, "homepage": "https://clawhub.ai/happyzengfen/weather-test-1774063891", "iconUrl": null, "installs": 5, "name": "Weather Test", "ownerName": "happyzengfen", "score": 100000, "slug": "weather-test-1774063891", "source": "clawhub", "stars": 0, "tags": ["test"], "updated_at": 1776698084136, "version": "1.0.0"}, {"category": "", "created_at": 1774922470174, "description": "Practical physical childcare skills for ages 0-5. Use when someone is a new parent, babysitter, grandparent, or anyone suddenly responsible for a young child...", "description_zh": "", "downloads": 32, "homepage": "https://clawhub.ai/howtousehumans/childcare-essentials", "iconUrl": null, "installs": 0, "name": "Childcare Essentials", "ownerName": "howtousehumans", "score": 100000, "slug": "childcare-essentials", "source": "clawhub", "stars": 0, "tags": null, "updated_at": 1776698084115, "version": "1.0.0"}, {"category": "", "created_at": 1774912344330, "description": "Generate tailored YouTube, TikTok, or Reels video ideas with titles, hooks, formats, and audience insights to jumpstart your content creation.", "description_zh": "", "downloads": 32, "homepage": "https://clawhub.ai/udnerc/video-idea-generator", "iconUrl": null, "installs": 1, "name": "Video Idea Generator", "ownerName": "udnerc", "score": 100000, "slug": "video-idea-generator", "source": "clawhub", "stars": 0, "tags": null, "updated_at": 1776698084110, "version": "1.0.0"}, {"category": "", "created_at": 1774954172327, "description": "Parse, analyze, and extract content from documents (PDF, DOCX, PPTX, audio). Supports OCR, table extraction, and semantic chunking.", "description_zh": "", "downloads": 32, "homepage": "https://clawhub.ai/c7934597/akashic-doc-analyzer", "iconUrl": null, "installs": 2, "name": "Akashic Doc Analyzer", "ownerName": "c7934597", "score": 100000, "slug": "akashic-doc-analyzer", "source": "clawhub", "stars": 0, "tags": ["document", "ocr", "parsing", "pdf"], "updated_at": 1776698084108, "version": "1.0.0"}, {"category": "", "created_at": 1774845461503, "description": "Vite plugin that reimplements the Next.js API surface for deploying anywhere, including Cloudflare Workers", "description_zh": "", "downloads": 32, "homepage": "https://clawhub.ai/adisinghstudent/vinext-vite-nextjs", "iconUrl": null, "installs": 3, "name": "vinext-vite-nextjs", "ownerName": "adisinghstudent", "score": 100000, "slug": "vinext-vite-nextjs", "source": "clawhub", "stars": 0, "tags": null, "updated_at": 1776698084066, "version": "1.0.0"}, {"category": "", "created_at": 1774911546568, "description": "Braze integration. Manage data, records, and automate workflows. Use when the user wants to interact with Braze data.", "description_zh": "", "downloads": 32, "homepage": "https://clawhub.ai/gora050/braze", "iconUrl": null, "installs": 0, "name": "Braze", "ownerName": "gora050", "score": 100000, "slug": "braze", "source": "clawhub", "stars": 0, "tags": null, "updated_at": 1776698084057, "version": "1.0.0"}, {"category": "", "created_at": 1774863248872, "description": "Reference tool for devtools — covers intro, quickstart, patterns and more. Quick lookup for Weathernow concepts, best practices, and implementation patterns.", "description_zh": "", "downloads": 32, "homepage": "https://clawhub.ai/ckchzh/weathernow", "iconUrl": null, "installs": 4, "name": "Weathernow", "ownerName": "ckchzh", "score": 100000, "slug": "weathernow", "source": "clawhub", "stars": 0, "tags": null, "updated_at": 1776698084035, "version": "2.0.2"}, {"category": "developer-tools", "created_at": 1773961884376, "description": "Self-hosted crypto wallet daemon for AI agents. Send transactions, manage DeFi positions, enforce spending limits — without exposing private keys to agents....", "description_zh": "", "downloads": 32, "homepage": "https://clawhub.ai/minhoyoo-iotrust/waiaas-wallet", "iconUrl": null, "installs": 7, "name": "WAIaaS Wallet", "ownerName": "minhoyoo-iotrust", "score": 100000, "slug": "waiaas-wallet", "source": "clawhub", "stars": 0, "tags": null, "updated_at": 1776698084017, "version": "1.0.1"}, {"category": "", "created_at": 1774879329964, "description": "AI-powered web scraper with intelligent structure recognition. Extracts lists, articles, and tables from any website with automatic type detection.", "description_zh": "", "downloads": 32, "homepage": "https://clawhub.ai/yadanzheng68-cmyk/smart-scraper", "iconUrl": null, "installs": 1, "name": "Smart Scraper", "ownerName": "yadanzheng68-cmyk", "score": 100000, "slug": "smart-scraper", "source": "clawhub", "stars": 0, "tags": null, "updated_at": 1776698083960, "version": "1.0.0"}, {"category": "", "created_at": 1774881050594, "description": "Send Wake on LAN (WOL) magic packets to remotely wake up computers and network devices. Use when the user wants to wake, turn on, or power on a remote device...", "description_zh": "", "downloads": 32, "homepage": "https://clawhub.ai/tonakic/wake-on-lan", "iconUrl": null, "installs": 0, "name": "Wake On Lan", "ownerName": "tonakic", "score": 100000, "slug": "wake-on-lan", "source": "clawhub", "stars": 0, "tags": null, "updated_at": 1776698083938, "version": "1.0.1"}, {"category": "", "created_at": 1774864617944, "description": "Write compelling crowdfunding and fundraising campaign copy including titles, descriptions, story narratives, and social media posts. Use when users need to...", "description_zh": "", "downloads": 32, "homepage": "https://clawhub.ai/jiwenbing/campaign-writer", "iconUrl": null, "installs": 0, "name": "Campaign Writer", "ownerName": "jiwenbing", "score": 100000, "slug": "campaign-writer", "source": "clawhub", "stars": 0, "tags": null, "updated_at": 1776698083924, "version": "1.0.0"}, {"category": "developer-tools", "created_at": 1773078581604, "description": "Help users install, configure, use, and troubleshoot @trends-fun/trends-cli. Use this skill whenever the user mentions trends or trends-cli commands (create,...", "description_zh": "", "downloads": 32, "homepage": "https://clawhub.ai/milesxyz/trends-cli", "iconUrl": null, "installs": 6, "name": "Trends CLI", "ownerName": "milesxyz", "score": 100000, "slug": "trends-cli", "source": "clawhub", "stars": 0, "tags": null, "updated_at": 1776698083903, "version": "1.0.0"}, {"category": "", "created_at": 1774878254302, "description": "🎓 Your personal learning assistant — explains any concept with clarity and depth, making complex ideas intuitive through diagrams and analogies. Auto-archiv...", "description_zh": "", "downloads": 32, "homepage": "https://clawhub.ai/hexavi8/smart-learner", "iconUrl": null, "installs": 1, "name": "Smart Leaner", "ownerName": "hexavi8", "score": 100000, "slug": "smart-learner", "source": "clawhub", "stars": 0, "tags": null, "updated_at": 1776698083898, "version": "1.0.2"}, {"category": "", "created_at": 1774953272779, "description": "Plan and execute e-commerce product launches. Pre-launch, launch day, and post-launch playbooks for Amazon, Shopify, and multi-channel sellers. Covers invent...", "description_zh": "", "downloads": 32, "homepage": "https://clawhub.ai/nexscope/product-launch-strategy", "iconUrl": null, "installs": 1, "name": "Product Launch Strategy", "ownerName": "nexscope", "score": 100000, "slug": "product-launch-strategy", "source": "clawhub", "stars": 0, "tags": null, "updated_at": 1776698083894, "version": "1.0.0"}, {"category": "", "created_at": 1774916292499, "description": "Use the Brave Search CLI (`bx`) to retrieve web context, AI-grounded answers, and specialized search results with JSON output optimized for LLM and agent wor...", "description_zh": "", "downloads": 32, "homepage": "https://clawhub.ai/brave-skills/bx-search", "iconUrl": null, "installs": 1, "name": "Brave Search CLI (bx)", "ownerName": "brave-skills", "score": 100000, "slug": "bx-search", "source": "clawhub", "stars": 0, "tags": null, "updated_at": 1776698083882, "version": "1.0.0"}, {"category": "", "created_at": 1774904856887, "description": "Sourceforge integration. Manage Projects. Use when the user wants to interact with Sourceforge data.", "description_zh": "", "downloads": 32, "homepage": "https://clawhub.ai/gora050/sourceforge", "iconUrl": null, "installs": 0, "name": "Sourceforge", "ownerName": "gora050", "score": 100000, "slug": "sourceforge", "source": "clawhub", "stars": 0, "tags": null, "updated_at": 1776698083869, "version": "1.0.0"}, {"category": "", "created_at": 1774921898250, "description": "Deep release management workflow—versioning semantics, branching and tags, release checklist, communications, rollback criteria, and hotfix discipline. Use w...", "description_zh": "", "downloads": 32, "homepage": "https://clawhub.ai/mike47512/release-management", "iconUrl": null, "installs": 0, "name": "Release Management", "ownerName": "mike47512", "score": 100000, "slug": "release-management", "source": "clawhub", "stars": 0, "tags": null, "updated_at": 1776698083852, "version": "1.0.0"}, {"category": "", "created_at": 1774870452104, "description": "Generate or edit images with Sudocode's nano-banana2 image service. Use when the user wants text-to-image or image-to-image generation through the bundled Su...", "description_zh": "", "downloads": 32, "homepage": "https://clawhub.ai/shengy983/sudocode-nano-banana2", "iconUrl": null, "installs": 4, "name": "sudocode-nano-banana2", "ownerName": "shengy983", "score": 100000, "slug": "sudocode-nano-banana2", "source": "clawhub", "stars": 0, "tags": null, "updated_at": 1776698083848, "version": "1.0.1"}, {"category": "", "created_at": 1774879943993, "description": "Build per-chapter (H2) writing briefs (NO PROSE) so the final survey reads like a paper (chapter leads + cross-H3 coherence) without inflating the ToC. **Tri...", "description_zh": "", "downloads": 32, "homepage": "https://clawhub.ai/willoscar/chapter-briefs", "iconUrl": null, "installs": 0, "name": "Chapter Briefs", "ownerName": "willoscar", "score": 100000, "slug": "chapter-briefs", "source": "clawhub", "stars": 0, "tags": null, "updated_at": 1776698083845, "version": "1.0.0"}, {"category": "", "created_at": 1774951778095, "description": "aqara-agent is an official AI Agent skill built on Aqara Home. It supports natural-language login/session setup, home-space management, device inquiry, devic...", "description_zh": "", "downloads": 32, "homepage": "https://clawhub.ai/kingbigcountry/aqara-agent-skills", "iconUrl": null, "installs": 1, "name": "Aqara Agent Skills", "ownerName": "kingbigcountry", "score": 100000, "slug": "aqara-agent-skills", "source": "clawhub", "stars": 0, "tags": null, "updated_at": 1776698083838, "version": "0.1.1"}, {"category": "", "created_at": 1774915809244, "description": "Deep workflow for stakeholder communication—audience mapping, narrative structure, status with honesty, trade-off framing, asks, and follow-ups. Use when wri...", "description_zh": "", "downloads": 32, "homepage": "https://clawhub.ai/codekungfu/stakeholder-comms", "iconUrl": null, "installs": 1, "name": "Stakeholder Comms", "ownerName": "codekungfu", "score": 100000, "slug": "stakeholder-comms", "source": "clawhub", "stars": 0, "tags": null, "updated_at": 1776698083831, "version": "1.0.0"}, {"category": "", "created_at": 1774904516076, "description": "Charge 0.01 USDT to export 4 bundled miner signature libraries. No scanning or detection.", "description_zh": "", "downloads": 32, "homepage": "https://clawhub.ai/gwjt1234/minerdetector", "iconUrl": null, "installs": 0, "name": "MinerDetector", "ownerName": "gwjt1234", "score": 100000, "slug": "minerdetector", "source": "clawhub", "stars": 0, "tags": null, "updated_at": 1776698083812, "version": "1.0.0"}, {"category": "", "created_at": 1774838485981, "description": "Extract the main X/Twitter post or article content from a page that is already open in the browser (using browser act evaluate).", "description_zh": "", "downloads": 32, "homepage": "https://clawhub.ai/bill492/browser-read-x", "iconUrl": null, "installs": 3, "name": "browser-read-x", "ownerName": "bill492", "score": 100000, "slug": "browser-read-x", "source": "clawhub", "stars": 0, "tags": null, "updated_at": 1776698083779, "version": "1.0.0"}]}