{"page": 466, "total_pages": 522, "total": 26073, "skills": [{"category": "", "created_at": 1774872104453, "description": "Fixes browser automation failures. Snapshot-first workflow + API discovery behind any website UI. Use when: 'browser not working', 'can't click', 'flaky UI',...", "description_zh": "", "downloads": 32, "homepage": "https://clawhub.ai/whooshinglander/browser-fu", "iconUrl": null, "installs": 2, "name": "Browser Fu", "ownerName": "whooshinglander", "score": 100000, "slug": "browser-fu", "source": "clawhub", "stars": 0, "tags": null, "updated_at": 1776698083728, "version": "1.0.2"}, {"category": "", "created_at": 1774910525606, "description": "Encode or decode text using Base64, URL percent-encoding, or HTML entities. Use when the user asks to encode, decode, base64 encode, base64 decode, URL encod...", "description_zh": "", "downloads": 32, "homepage": "https://clawhub.ai/ohernandez-dev-blossom/base64-encode", "iconUrl": null, "installs": 1, "name": "Base64 Encode", "ownerName": "ohernandez-dev-blossom", "score": 100000, "slug": "base64-encode", "source": "clawhub", "stars": 0, "tags": null, "updated_at": 1776698083726, "version": "1.0.0"}, {"category": "", "created_at": 1774909489536, "description": "Azure API Management integration. Manage data, records, and automate workflows. Use when the user wants to interact with Azure API Management data.", "description_zh": "", "downloads": 32, "homepage": "https://clawhub.ai/gora050/azure-api-management", "iconUrl": null, "installs": 1, "name": "Azure Api Management", "ownerName": "gora050", "score": 100000, "slug": "azure-api-management", "source": "clawhub", "stars": 0, "tags": null, "updated_at": 1776698083718, "version": "1.0.0"}, {"category": "", "created_at": 1774890775625, "description": "Audit and improve an agent at the right layer: persona/tone, constitutional and operating rules, memory architecture, or skill portfolio / reusable workflows...", "description_zh": "", "downloads": 32, "homepage": "https://clawhub.ai/zurbrick/agent-architect-zurbrick", "iconUrl": null, "installs": 0, "name": "Agent Architect", "ownerName": "zurbrick", "score": 100000, "slug": "agent-architect-zurbrick", "source": "clawhub", "stars": 0, "tags": null, "updated_at": 1776698083689, "version": "1.0.0"}, {"category": "", "created_at": 1774920825219, "description": "A comprehensive starting point for AI agents to work with Capacitor. Covers core concepts, CLI, app creation, plugins, framework integration, best practices,...", "description_zh": "", "downloads": 32, "homepage": "https://clawhub.ai/robingenz/capacitor-expert", "iconUrl": null, "installs": 2, "name": "Capacitor Expert", "ownerName": "robingenz", "score": 100000, "slug": "capacitor-expert", "source": "clawhub", "stars": 0, "tags": null, "updated_at": 1776698083686, "version": "1.0.0"}, {"category": "", "created_at": 1774867288559, "description": "AI-powered construction knowledge management. Search project documents, safety compliance records, permits, building codes, and RFIs with structured extraction.", "description_zh": "", "downloads": 32, "homepage": "https://clawhub.ai/roojenkins/uplo-construction", "iconUrl": null, "installs": 3, "name": "Uplo Construction", "ownerName": "roojenkins", "score": 100000, "slug": "uplo-construction", "source": "clawhub", "stars": 0, "tags": null, "updated_at": 1776698083677, "version": "1.0.0"}, {"category": "", "created_at": 1774909366051, "description": "Tavily quota-aware multi-key search router. Use when you want reliable Tavily-backed web search across multiple API keys, automatic failover for invalid/rate...", "description_zh": "", "downloads": 32, "homepage": "https://clawhub.ai/fangtang0206/tavily-quota-router", "iconUrl": null, "installs": 4, "name": "Tavily Quota Router", "ownerName": "fangtang0206", "score": 100000, "slug": "tavily-quota-router", "source": "clawhub", "stars": 0, "tags": null, "updated_at": 1776698083674, "version": "1.0.0"}, {"category": "", "created_at": 1774956137836, "description": "BrowserStack integration. Manage data, records, and automate workflows. Use when the user wants to interact with BrowserStack data.", "description_zh": "", "downloads": 32, "homepage": "https://clawhub.ai/gora050/browserstack", "iconUrl": null, "installs": 2, "name": "Browserstack", "ownerName": "gora050", "score": 100000, "slug": "browserstack", "source": "clawhub", "stars": 0, "tags": null, "updated_at": 1776698083668, "version": "1.0.0"}, {"category": "", "created_at": 1774872122190, "description": "Pixelate chat/messaging app screenshots (WeChat, WhatsApp, Telegram, iMessage, Slack, Discord, etc.) to hide chat name, profile pics, and/or display names. U...", "description_zh": "", "downloads": 32, "homepage": "https://clawhub.ai/frankz2020/chatmask", "iconUrl": null, "installs": 1, "name": "ChatMask", "ownerName": "frankz2020", "score": 96969.69696969698, "slug": "chatmask", "source": "clawhub", "stars": 0, "tags": null, "updated_at": 1776698083654, "version": "1.1.1"}, {"category": "", "created_at": 1774912258344, "description": "Deep SRE workflow—SLOs/SLIs, error budgets, alerting, toil reduction, incident readiness, capacity, and balancing reliability with delivery. Use when improvi...", "description_zh": "", "downloads": 32, "homepage": "https://clawhub.ai/codekungfu/sre-practices", "iconUrl": null, "installs": 1, "name": "Sre Practices", "ownerName": "codekungfu", "score": 96969.69696969698, "slug": "sre-practices", "source": "clawhub", "stars": 0, "tags": null, "updated_at": 1776698083641, "version": "1.0.0"}, {"category": "", "created_at": 1774956486003, "description": "Memory hygiene and adjudication layer for OpenClaw agent workflows. Deduplicates entities, resolves naming conflicts, separates facts from goals from specula...", "description_zh": "", "downloads": 32, "homepage": "https://clawhub.ai/honouralexwill/memory-referee", "iconUrl": null, "installs": 2, "name": "memory-referee", "ownerName": "honouralexwill", "score": 96969.69696969698, "slug": "memory-referee", "source": "clawhub", "stars": 0, "tags": null, "updated_at": 1776697970440, "version": "0.1.0"}, {"category": "", "created_at": 1774880489371, "description": "Transform existing images into new ones using AI via Media.io OpenAPI. Apply style transfers, artistic filters, and creative transformations with models like...", "description_zh": "", "downloads": 32, "homepage": "https://clawhub.ai/wondershare-boop/mediaio-image-to-image-api", "iconUrl": null, "installs": 0, "name": "Image to Image API", "ownerName": "wondershare-boop", "score": 96969.69696969698, "slug": "mediaio-image-to-image-api", "source": "clawhub", "stars": 0, "tags": null, "updated_at": 1776697970439, "version": "1.0.3"}, {"category": "", "created_at": 1774890735226, "description": "Use Memoria as OpenClaw's durable memory slot. Triggers: \"remember this\", \"save to memory\", \"what do you remember\", \"continue from last time\", \"forget this\",...", "description_zh": "", "downloads": 32, "homepage": "https://clawhub.ai/randomradio/memory-memoria", "iconUrl": null, "installs": 1, "name": "Memory Memoria", "ownerName": "randomradio", "score": 96969.69696969698, "slug": "memory-memoria", "source": "clawhub", "stars": 0, "tags": null, "updated_at": 1776697970432, "version": "0.2.0"}, {"category": "", "created_at": 1774916679672, "description": "FunnelCockpit integration. Manage Organizations. Use when the user wants to interact with FunnelCockpit data.", "description_zh": "", "downloads": 32, "homepage": "https://clawhub.ai/membranedev/funnelcockpit", "iconUrl": null, "installs": 0, "name": "Funnelcockpit", "ownerName": "membranedev", "score": 96969.69696969698, "slug": "funnelcockpit", "source": "clawhub", "stars": 0, "tags": null, "updated_at": 1776697970414, "version": "1.0.0"}, {"category": "", "created_at": 1774918193104, "description": "Implied Vol reference tool. Use when working with implied vol in finance contexts.", "description_zh": "", "downloads": 32, "homepage": "https://clawhub.ai/ckchzh/implied-vol", "iconUrl": null, "installs": 1, "name": "Implied Vol", "ownerName": "ckchzh", "score": 96969.69696969698, "slug": "implied-vol", "source": "clawhub", "stars": 0, "tags": null, "updated_at": 1776697970404, "version": "1.0.0"}, {"category": "", "created_at": 1774896760494, "description": "Convert academic PDF papers into structured Chinese reading reports with original figures. Use when the user asks to summarize, read, analyze, or create a re...", "description_zh": "", "downloads": 32, "homepage": "https://clawhub.ai/nuaalixu/paper-report", "iconUrl": null, "installs": 3, "name": "paper-report", "ownerName": "nuaalixu", "score": 96969.69696969698, "slug": "paper-report", "source": "clawhub", "stars": 0, "tags": null, "updated_at": 1776697970399, "version": "1.0.3"}, {"category": "", "created_at": 1774925459126, "description": "Intelligent conversation analysis, summarization, and conclusion recording. Analyzes user personality, tracks tasks, checks incomplete tasks, and writes to m...", "description_zh": "", "downloads": 32, "homepage": "https://clawhub.ai/opendolph/conversation-analyzer", "iconUrl": null, "installs": 1, "name": "Conversation Analyzer", "ownerName": "opendolph", "score": 96969.69696969698, "slug": "conversation-analyzer", "source": "clawhub", "stars": 0, "tags": null, "updated_at": 1776697970395, "version": "1.0.0"}, {"category": "", "created_at": 1774901980099, "description": "Capture and recover conversation state across OpenClaw sessions. Use when conversations get interrupted, span multiple sessions, or need context restoration....", "description_zh": "", "downloads": 32, "homepage": "https://clawhub.ai/harrylabsj/conversation-recovery", "iconUrl": null, "installs": 0, "name": "Conversation Recovery", "ownerName": "harrylabsj", "score": 96969.69696969698, "slug": "conversation-recovery", "source": "clawhub", "stars": 0, "tags": null, "updated_at": 1776697970376, "version": "1.0.0"}, {"category": "", "created_at": 1774882180524, "description": "Simvoly integration. Manage Websites, Funnels, Stores, Memberships, Bookings, Forms and more. Use when the user wants to interact with Simvoly data.", "description_zh": "", "downloads": 32, "homepage": "https://clawhub.ai/gora050/simvoly", "iconUrl": null, "installs": 2, "name": "Simvoly", "ownerName": "gora050", "score": 96969.69696969698, "slug": "simvoly", "source": "clawhub", "stars": 0, "tags": null, "updated_at": 1776697970344, "version": "1.0.0"}, {"category": "", "created_at": 1774891101823, "description": "Analyze customer conversion through funnel stages. Use for identifying drop-off points and optimization opportunities.", "description_zh": "", "downloads": 32, "homepage": "https://clawhub.ai/linuszz/conversion-waterfall", "iconUrl": null, "installs": 0, "name": "Conversion Waterfall", "ownerName": "linuszz", "score": 96969.69696969698, "slug": "conversion-waterfall", "source": "clawhub", "stars": 0, "tags": null, "updated_at": 1776697970336, "version": "1.0.0"}, {"category": "", "created_at": 1774893687839, "description": "RFID technology reference — tag types, frequency bands, read ranges, EPC standards, inventory tracking. Use when designing RFID systems, selecting tags/reade...", "description_zh": "", "downloads": 32, "homepage": "https://clawhub.ai/bytesagain3/rfid", "iconUrl": null, "installs": 3, "name": "Rfid", "ownerName": "bytesagain3", "score": 96969.69696969698, "slug": "rfid", "source": "clawhub", "stars": 0, "tags": null, "updated_at": 1776697970323, "version": "1.0.0"}, {"category": "", "created_at": 1774874216407, "description": "Single-file bash CLI for the *arr media stack with SSH remote support. For agents running on a different machine than the media services (e.g., VPS agent man...", "description_zh": "", "downloads": 32, "homepage": "https://clawhub.ai/solomonneas/media-cli", "iconUrl": null, "installs": 0, "name": "Media Cli", "ownerName": "solomonneas", "score": 96969.69696969698, "slug": "media-cli", "source": "clawhub", "stars": 0, "tags": null, "updated_at": 1776697970308, "version": "1.0.4"}, {"category": "", "created_at": 1774909874009, "description": "When the user wants to set up, optimize, or manage LinkedIn Ads. Also use when the user mentions \"LinkedIn Ads,\" \"LinkedIn Campaign Manager,\" \"Sponsored Cont...", "description_zh": "", "downloads": 32, "homepage": "https://clawhub.ai/kostja94/linkedin-ads-paid-ads", "iconUrl": null, "installs": 2, "name": "linkedin-ads", "ownerName": "kostja94", "score": 96969.69696969698, "slug": "linkedin-ads-paid-ads", "source": "clawhub", "stars": 0, "tags": null, "updated_at": 1776697970263, "version": "1.0.0"}, {"category": "", "created_at": 1774887921728, "description": "Deduplication reference — exact matching, fuzzy matching, hash-based dedup, bloom filters, and data quality. Use when removing duplicate records, files, or d...", "description_zh": "", "downloads": 32, "homepage": "https://clawhub.ai/xueyetianya/dedupe", "iconUrl": null, "installs": 1, "name": "Dedupe", "ownerName": "xueyetianya", "score": 96969.69696969698, "slug": "dedupe", "source": "clawhub", "stars": 0, "tags": null, "updated_at": 1776697970260, "version": "1.0.0"}, {"category": "", "created_at": 1774859118808, "description": "When the user wants to submit a product to directories, launch platforms, curated lists, or app stores. Reads project-context.md when present and generates r...", "description_zh": "", "downloads": 32, "homepage": "https://clawhub.ai/kostja94/directory-submission", "iconUrl": null, "installs": 1, "name": "directory-submission", "ownerName": "kostja94", "score": 96969.69696969698, "slug": "directory-submission", "source": "clawhub", "stars": 0, "tags": null, "updated_at": 1776697970236, "version": "1.1.0"}, {"category": "", "created_at": 1774885805167, "description": "LoyJoy integration. Manage Organizations. Use when the user wants to interact with LoyJoy data.", "description_zh": "", "downloads": 32, "homepage": "https://clawhub.ai/membranedev/loyjoy", "iconUrl": null, "installs": 0, "name": "Loyjoy", "ownerName": "membranedev", "score": 96969.69696969698, "slug": "loyjoy", "source": "clawhub", "stars": 0, "tags": null, "updated_at": 1776697970235, "version": "1.0.0"}, {"category": "", "created_at": 1774903203514, "description": "Three thousand people. One Shiba Inu puppy. Every crossing is a stadium.. An immersive journey on drifts.bot — 5 steps, HIGH intensity, 1-2 hours. Browse, st...", "description_zh": "", "downloads": 32, "homepage": "https://clawhub.ai/driftsbot/experience-blairagotchi-shibuya-puppy-tokyo", "iconUrl": null, "installs": 0, "name": "Experience Blairagotchi Shibuya Puppy Tokyo", "ownerName": "driftsbot", "score": 96969.69696969698, "slug": "experience-blairagotchi-shibuya-puppy-tokyo", "source": "clawhub", "stars": 0, "tags": null, "updated_at": 1776697970217, "version": "1.0.0"}, {"category": "", "created_at": 1774894732201, "description": "Firmalyzer IoTVAS API integration. Manage Organizations. Use when the user wants to interact with Firmalyzer IoTVAS API data.", "description_zh": "", "downloads": 32, "homepage": "https://clawhub.ai/gora050/firmalyzer-iotvas-api", "iconUrl": null, "installs": 0, "name": "Firmalyzer Iotvas Api", "ownerName": "gora050", "score": 96969.69696969698, "slug": "firmalyzer-iotvas-api", "source": "clawhub", "stars": 0, "tags": null, "updated_at": 1776697970207, "version": "1.0.0"}, {"category": "", "created_at": 1774868065463, "description": "Find nearby OpenClaw meetups and related AI/agent community events, summarize the best matches, and help with reminder or share-ready text. Use when the user...", "description_zh": "", "downloads": 32, "homepage": "https://clawhub.ai/clawnewsde/meetup", "iconUrl": null, "installs": 0, "name": "claw://Meetup", "ownerName": "clawnewsde", "score": 96969.69696969698, "slug": "meetup", "source": "clawhub", "stars": 0, "tags": null, "updated_at": 1776697970198, "version": "1.0.0"}, {"category": "", "created_at": 1774885562456, "description": "Build immersive, cinematic 2.5D interactive websites using scroll storytelling, parallax depth, text animations, and premium scroll effects — no WebGL requir...", "description_zh": "", "downloads": 32, "homepage": "https://clawhub.ai/alirezarezvani/epic-design", "iconUrl": null, "installs": 3, "name": "Epic Design", "ownerName": "alirezarezvani", "score": 96969.69696969698, "slug": "epic-design", "source": "clawhub", "stars": 0, "tags": null, "updated_at": 1776697970196, "version": "2.1.1"}, {"category": "", "created_at": 1774832899457, "description": "Automate repeatable workflows with WhatsApp/Telegram notifications, Excel/CSV processing, browser automation, and flexible scheduling. Describe tasks in plai...", "description_zh": "", "downloads": 32, "homepage": "https://clawhub.ai/qashsolutions/openclaw-workflow-automator", "iconUrl": null, "installs": 1, "name": "Workflow Automator", "ownerName": "qashsolutions", "score": 96969.69696969698, "slug": "openclaw-workflow-automator", "source": "clawhub", "stars": 0, "tags": null, "updated_at": 1776697970189, "version": "2.0.6"}, {"category": "", "created_at": 1774857719381, "description": "Reference tool for devtools — covers intro, quickstart, patterns and more. Quick lookup for Container Analyzer concepts, best practices, and implementation p...", "description_zh": "", "downloads": 32, "homepage": "https://clawhub.ai/bytesagain1/container-analyzer", "iconUrl": null, "installs": 0, "name": "Container Analyzer", "ownerName": "bytesagain1", "score": 96969.69696969698, "slug": "container-analyzer", "source": "clawhub", "stars": 0, "tags": null, "updated_at": 1776697970182, "version": "2.0.3"}, {"category": "", "created_at": 1774848025158, "description": "Reference tool for devtools — covers intro, quickstart, patterns and more. Quick lookup for Mailcheck concepts, best practices, and implementation patterns.", "description_zh": "", "downloads": 32, "homepage": "https://clawhub.ai/xueyetianya/mailcheck", "iconUrl": null, "installs": 0, "name": "Mailcheck", "ownerName": "xueyetianya", "score": 96969.69696969698, "slug": "mailcheck", "source": "clawhub", "stars": 0, "tags": null, "updated_at": 1776697970178, "version": "2.0.3"}, {"category": "", "created_at": 1774860260042, "description": "Expand scattered ideas into in-depth posts. Use this skill when users need to \"expand ideas,\" \"generate posts,\" \"brainstorm content,\" \"writing assistance,\" \"...", "description_zh": "", "downloads": 32, "homepage": "https://clawhub.ai/akira82-ai/idea-to-post", "iconUrl": null, "installs": 0, "name": "Idea To Post", "ownerName": "akira82-ai", "score": 96969.69696969698, "slug": "idea-to-post", "source": "clawhub", "stars": 0, "tags": null, "updated_at": 1776697970159, "version": "0.1.0"}, {"category": "", "created_at": 1774953446447, "description": "Transforms casual or voice-transcribed user requests into precise, AI-optimized prompts. Handles mixed languages, vague input, and ambiguity. Reduces task ex...", "description_zh": "", "downloads": 32, "homepage": "https://clawhub.ai/jamesxu81/covert-native-language-to-ai-firendly-prompt", "iconUrl": null, "installs": 0, "name": "Prompt Refiner", "ownerName": "jamesxu81", "score": 96969.69696969698, "slug": "covert-native-language-to-ai-firendly-prompt", "source": "clawhub", "stars": 0, "tags": null, "updated_at": 1776697970157, "version": "1.0.0"}, {"category": "", "created_at": 1774880464041, "description": "LiDAR technology reference — point cloud processing, scan types, coordinate systems, and applications. Use when working with LiDAR data, configuring scanners...", "description_zh": "", "downloads": 32, "homepage": "https://clawhub.ai/bytesagain1/lidar", "iconUrl": null, "installs": 1, "name": "Lidar", "ownerName": "bytesagain1", "score": 96969.69696969698, "slug": "lidar", "source": "clawhub", "stars": 0, "tags": null, "updated_at": 1776697970150, "version": "1.0.0"}, {"category": "", "created_at": 1774904617728, "description": "PDFMonkey integration. Manage Documents, Audits. Use when the user wants to interact with PDFMonkey data.", "description_zh": "", "downloads": 32, "homepage": "https://clawhub.ai/membranedev/pdfmonkey", "iconUrl": null, "installs": 3, "name": "Pdfmonkey", "ownerName": "membranedev", "score": 96969.69696969698, "slug": "pdfmonkey", "source": "clawhub", "stars": 0, "tags": null, "updated_at": 1776697970126, "version": "1.0.0"}, {"category": "", "created_at": 1774903655697, "description": "Fetch Indian ETF tracker data (symbol, lastPrice, iNAV, timestamps) from SaffronAI (saffronai.in) and return it as JSON or filtered rows. Use when the user a...", "description_zh": "", "downloads": 32, "homepage": "https://clawhub.ai/subscriptionmanager26-png/saffronai-etf-data", "iconUrl": null, "installs": 3, "name": "SaffronAI ETF Data", "ownerName": "subscriptionmanager26-png", "score": 96969.69696969698, "slug": "saffronai-etf-data", "source": "clawhub", "stars": 0, "tags": null, "updated_at": 1776697970119, "version": "1.0.0"}, {"category": "", "created_at": 1774952966915, "description": "Provides base64 encoding, decoding, and validation utilities for data handling and transformation. Use when you need to encode or decode base64 data, validat...", "description_zh": "", "downloads": 32, "homepage": "https://clawhub.ai/jpengcheng523-netizen/jpeng-base64-toolkit", "iconUrl": null, "installs": 1, "name": "base64-toolkit", "ownerName": "jpengcheng523-netizen", "score": 96969.69696969698, "slug": "jpeng-base64-toolkit", "source": "clawhub", "stars": 0, "tags": null, "updated_at": 1776697970097, "version": "1.0.0"}, {"category": "", "created_at": 1774900991009, "description": "Operate an AI comedy agent on FunnyClaws -- onboarding, joke posting, voting, feedback, challenges, and strategy adaptation. This is the master entry point f...", "description_zh": "", "downloads": 32, "homepage": "https://clawhub.ai/gustavoclaw/funnyclaws", "iconUrl": null, "installs": 0, "name": "FunnyClaws", "ownerName": "gustavoclaw", "score": 96969.69696969698, "slug": "funnyclaws", "source": "clawhub", "stars": 0, "tags": null, "updated_at": 1776697970092, "version": "1.2.1"}, {"category": "", "created_at": 1774876016954, "description": "PhoneBurner integration. Manage Persons, Users, Groups, Emails, Dispositions, Tags. Use when the user wants to interact with PhoneBurner data.", "description_zh": "", "downloads": 32, "homepage": "https://clawhub.ai/gora050/phoneburner", "iconUrl": null, "installs": 1, "name": "Phoneburner", "ownerName": "gora050", "score": 96969.69696969698, "slug": "phoneburner", "source": "clawhub", "stars": 0, "tags": null, "updated_at": 1776697970086, "version": "1.0.0"}, {"category": "", "created_at": 1774910037562, "description": "Product Fruits integration. Manage ProductFruitsApps. Use when the user wants to interact with Product Fruits data.", "description_zh": "", "downloads": 32, "homepage": "https://clawhub.ai/gora050/product-fruits", "iconUrl": null, "installs": 2, "name": "Product Fruits", "ownerName": "gora050", "score": 96969.69696969698, "slug": "product-fruits", "source": "clawhub", "stars": 0, "tags": null, "updated_at": 1776697970084, "version": "1.0.0"}, {"category": "", "created_at": 1774851143611, "description": "Reference tool for devtools — covers intro, quickstart, patterns and more. Quick lookup for Md Convert concepts, best practices, and implementation patterns.", "description_zh": "", "downloads": 32, "homepage": "https://clawhub.ai/xueyetianya/md-convert", "iconUrl": null, "installs": 2, "name": "Md Convert", "ownerName": "xueyetianya", "score": 96969.69696969698, "slug": "md-convert", "source": "clawhub", "stars": 0, "tags": null, "updated_at": 1776697970066, "version": "2.0.3"}, {"category": "", "created_at": 1774908920691, "description": "Pfizer pharmaceutical products, drug pipeline, clinical trials, stock info, and healthcare resources.", "description_zh": "", "downloads": 32, "homepage": "https://clawhub.ai/hanxueyuan/pfizer", "iconUrl": null, "installs": 2, "name": "Pfizer", "ownerName": "hanxueyuan", "score": 96969.69696969698, "slug": "pfizer", "source": "clawhub", "stars": 0, "tags": null, "updated_at": 1776697970064, "version": "0.1.0"}, {"category": "", "created_at": 1774870194278, "description": "Read public PANews website pages as Markdown. Use for homepage, article-page, and column-page reads.", "description_zh": "", "downloads": 32, "homepage": "https://clawhub.ai/medz/panews-web-viewer", "iconUrl": null, "installs": 0, "name": "Panews Web Viewer", "ownerName": "medz", "score": 96969.69696969698, "slug": "panews-web-viewer", "source": "clawhub", "stars": 0, "tags": null, "updated_at": 1776697970059, "version": "0.1.1"}, {"category": "", "created_at": 1774899955837, "description": "PaperForm integration. Manage Forms. Use when the user wants to interact with PaperForm data.", "description_zh": "", "downloads": 32, "homepage": "https://clawhub.ai/gora050/paperform", "iconUrl": null, "installs": 0, "name": "Paperform", "ownerName": "gora050", "score": 96969.69696969698, "slug": "paperform", "source": "clawhub", "stars": 0, "tags": null, "updated_at": 1776697970050, "version": "1.0.0"}, {"category": "", "created_at": 1774888084868, "description": "When the user wants to set up, optimize, or manage Google Ads campaigns. Also use when the user mentions \"Google Ads,\" \"Google Search Ads,\" \"PPC,\" \"SEM,\" \"PM...", "description_zh": "", "downloads": 32, "homepage": "https://clawhub.ai/kostja94/google-ads-paid-ads", "iconUrl": null, "installs": 2, "name": "google-ads", "ownerName": "kostja94", "score": 96969.69696969698, "slug": "google-ads-paid-ads", "source": "clawhub", "stars": 0, "tags": null, "updated_at": 1776697970029, "version": "1.4.0"}, {"category": "", "created_at": 1774922983714, "description": "Multi-region async PII detection for OpenClaw sessions. Scans user input, prompts, context, and knowledge base content for sensitive personal data across CN,...", "description_zh": "", "downloads": 32, "homepage": "https://clawhub.ai/mtoby8326/openclaw-security-mtoby8326", "iconUrl": null, "installs": 1, "name": "OpenClaw Security", "ownerName": "mtoby8326", "score": 96969.69696969698, "slug": "openclaw-security-mtoby8326", "source": "clawhub", "stars": 0, "tags": ["compliance", "pii", "security"], "updated_at": 1776697970022, "version": "1.0.0"}, {"category": "", "created_at": 1774920078166, "description": "JP Funda integration. Manage Organizations, Pipelines, Users, Filters. Use when the user wants to interact with JP Funda data.", "description_zh": "", "downloads": 32, "homepage": "https://clawhub.ai/membranedev/jp-funda", "iconUrl": null, "installs": 0, "name": "Jp Funda", "ownerName": "membranedev", "score": 96969.69696969698, "slug": "jp-funda", "source": "clawhub", "stars": 0, "tags": null, "updated_at": 1776697970017, "version": "1.0.0"}, {"category": "", "created_at": 1774947562303, "description": "Transform academic papers into university press releases for general.", "description_zh": "", "downloads": 32, "homepage": "https://clawhub.ai/aipoch-ai/lay-press-release-writer", "iconUrl": null, "installs": 2, "name": "Lay Press Release Writer", "ownerName": "aipoch-ai", "score": 96969.69696969698, "slug": "lay-press-release-writer", "source": "clawhub", "stars": 0, "tags": null, "updated_at": 1776697970008, "version": "1.0.0"}]}