{"page": 467, "total_pages": 522, "total": 26073, "skills": [{"category": "", "created_at": 1774886375354, "description": "Type text into a browser like a real human with adjacent-key typos, immediate and deferred corrections, French accent omissions fixed later, thinking pauses,...", "description_zh": "", "downloads": 32, "homepage": "https://clawhub.ai/luke2day/human-typing-simulator", "iconUrl": null, "installs": 1, "name": "HumanTyping", "ownerName": "luke2day", "score": 96969.69696969698, "slug": "human-typing-simulator", "source": "clawhub", "stars": 0, "tags": null, "updated_at": 1776697970001, "version": "1.0.2"}, {"category": "", "created_at": 1774904542640, "description": "NexusTrader trading assistant. Query crypto balances, positions, prices, and place orders on Binance, Bybit, OKX, Bitget, HyperLiquid.", "description_zh": "", "downloads": 32, "homepage": "https://clawhub.ai/quantweb3-scott/nexustrader", "iconUrl": null, "installs": 1, "name": "nexustrader", "ownerName": "quantweb3-scott", "score": 96969.69696969698, "slug": "nexustrader", "source": "clawhub", "stars": 0, "tags": null, "updated_at": 1776697969993, "version": "1.0.5"}, {"category": "", "created_at": 1774954927533, "description": "Practical skills for camping, hiking, and outdoor recreation. Use when someone wants to start camping, plan a hiking trip, learn outdoor cooking, or build co...", "description_zh": "", "downloads": 32, "homepage": "https://clawhub.ai/howtousehumans/outdoor-recreation-skills", "iconUrl": null, "installs": 1, "name": "Outdoor Recreation Skills", "ownerName": "howtousehumans", "score": 96969.69696969698, "slug": "outdoor-recreation-skills", "source": "clawhub", "stars": 0, "tags": null, "updated_at": 1776697969962, "version": "1.0.0"}, {"category": "", "created_at": 1774884408672, "description": "Terragrunt is a flexible orchestration tool that allows Infrastructure as Code written in OpenTofu/T terraform-wrapper, go, aws, cli, developer-tools.", "description_zh": "", "downloads": 32, "homepage": "https://clawhub.ai/bytesagain1/infra-wrapper", "iconUrl": null, "installs": 3, "name": "Infra Wrapper", "ownerName": "bytesagain1", "score": 96969.69696969698, "slug": "infra-wrapper", "source": "clawhub", "stars": 0, "tags": null, "updated_at": 1776697969943, "version": "1.0.0"}, {"category": "", "created_at": 1774899759609, "description": "Build, review, debug, and automate CalculiX finite-element workflows. Use when working with CalculiX `.inp` decks, Abaqus-style keywords, materials, steps, c...", "description_zh": "", "downloads": 32, "homepage": "https://clawhub.ai/fzj1214/hpc-calculix", "iconUrl": null, "installs": 2, "name": "Hpc Calculix", "ownerName": "fzj1214", "score": 96969.69696969698, "slug": "hpc-calculix", "source": "clawhub", "stars": 0, "tags": null, "updated_at": 1776697969922, "version": "0.1.0"}, {"category": "", "created_at": 1774924306555, "description": "Build Spotify playlists from Last.fm scrobble history and Last.fm artist or track similarity instead of Spotify recommendations. Use when creating playlists...", "description_zh": "", "downloads": 32, "homepage": "https://clawhub.ai/stanestane/lastfm-spotify-playlists", "iconUrl": null, "installs": 0, "name": "LastFM to Spotify Playlists", "ownerName": "stanestane", "score": 96969.69696969698, "slug": "lastfm-spotify-playlists", "source": "clawhub", "stars": 0, "tags": null, "updated_at": 1776697969914, "version": "1.0.0"}, {"category": "", "created_at": 1774894644739, "description": "Emailable integration. Manage Persons, Organizations. Use when the user wants to interact with Emailable data.", "description_zh": "", "downloads": 32, "homepage": "https://clawhub.ai/membranedev/emailable", "iconUrl": null, "installs": 1, "name": "Emailable", "ownerName": "membranedev", "score": 96969.69696969698, "slug": "emailable", "source": "clawhub", "stars": 0, "tags": null, "updated_at": 1776697969903, "version": "1.0.0"}, {"category": "", "created_at": 1774947975467, "description": "Turn your wedding details into a beautiful animated invitation video with this wedding-invitation-video-maker-online-free skill on ClawHub. Upload your photo...", "description_zh": "", "downloads": 32, "homepage": "https://clawhub.ai/imo14reifey/wedding-invitation-video-maker-online-free", "iconUrl": null, "installs": 2, "name": "Wedding Invitation Video Maker Online Free", "ownerName": "imo14reifey", "score": 96969.69696969698, "slug": "wedding-invitation-video-maker-online-free", "source": "clawhub", "stars": 0, "tags": null, "updated_at": 1776697969902, "version": "1.0.0"}, {"category": "", "created_at": 1774816422040, "description": "Persistent research thread manager with a CLI for tracking topics, notes, sources, and findings. Pair with a nightly cron job to build a personal research di...", "description_zh": "", "downloads": 32, "homepage": "https://clawhub.ai/meimakes/deep-current", "iconUrl": null, "installs": 0, "name": "Deep Current", "ownerName": "meimakes", "score": 96969.69696969698, "slug": "deep-current", "source": "clawhub", "stars": 0, "tags": null, "updated_at": 1776697969891, "version": "2.0.0"}, {"category": "", "created_at": 1774907549392, "description": "CustomGPT integration. Manage Projects, Users, Roles, Goals, Filters. Use when the user wants to interact with CustomGPT data.", "description_zh": "", "downloads": 32, "homepage": "https://clawhub.ai/membranedev/customgpt", "iconUrl": null, "installs": 0, "name": "Customgpt", "ownerName": "membranedev", "score": 96969.69696969698, "slug": "customgpt", "source": "clawhub", "stars": 0, "tags": null, "updated_at": 1776697969879, "version": "1.0.0"}, {"category": "", "created_at": 1774892991678, "description": "Helm chart development agent skill and plugin for Claude Code, Codex, Gemini CLI, Cursor, OpenClaw — chart scaffolding, values design, template patterns, dep...", "description_zh": "", "downloads": 32, "homepage": "https://clawhub.ai/alirezarezvani/helm-chart-builder", "iconUrl": null, "installs": 1, "name": "Helm Chart Builder", "ownerName": "alirezarezvani", "score": 96969.69696969698, "slug": "helm-chart-builder", "source": "clawhub", "stars": 0, "tags": null, "updated_at": 1776697969870, "version": "2.1.1"}, {"category": "", "created_at": 1774881549049, "description": "E-commerce content marketing strategy planner. Generates content calendars, topic ideas, and platform-specific strategies by analyzing customer reviews, tren...", "description_zh": "", "downloads": 32, "homepage": "https://clawhub.ai/phheng/ecommerce-content-marketing", "iconUrl": null, "installs": 0, "name": "Ecommerce Content Marketing", "ownerName": "phheng", "score": 96969.69696969698, "slug": "ecommerce-content-marketing", "source": "clawhub", "stars": 0, "tags": null, "updated_at": 1776697969863, "version": "0.1.0"}, {"category": "", "created_at": 1774899146587, "description": "Turn show plans into deadline-driven exhibitor checklists with owners.", "description_zh": "", "downloads": 32, "homepage": "https://clawhub.ai/weilun88313/exhibitor-checklist-generator", "iconUrl": null, "installs": 1, "name": "Exhibitor Checklist Generator", "ownerName": "weilun88313", "score": 96969.69696969698, "slug": "exhibitor-checklist-generator", "source": "clawhub", "stars": 0, "tags": null, "updated_at": 1776697969852, "version": "1.0.2"}, {"category": "", "created_at": 1774822569380, "description": "Local macOS voice-control integration for OpenClaw. Use when setting up, deploying, troubleshooting, or operating wakeword-triggered voice access to a local...", "description_zh": "", "downloads": 32, "homepage": "https://clawhub.ai/carrotyuan/openclaw-voice-control", "iconUrl": null, "installs": 1, "name": "OpenClaw Voice Control", "ownerName": "carrotyuan", "score": 96969.69696969698, "slug": "openclaw-voice-control", "source": "clawhub", "stars": 0, "tags": null, "updated_at": 1776697969839, "version": "0.1.9"}, {"category": "", "created_at": 1774833100618, "description": "Generate studio ghibli ai art generator images with AI via the Neta AI image generation API (free trial at neta.art/open).", "description_zh": "", "downloads": 32, "homepage": "https://clawhub.ai/wkl-nieta/ghibli-style-skill", "iconUrl": null, "installs": 0, "name": "Ghibli Style Skill", "ownerName": "wkl-nieta", "score": 96969.69696969698, "slug": "ghibli-style-skill", "source": "clawhub", "stars": 0, "tags": null, "updated_at": 1776697969834, "version": "2.0.1"}, {"category": "", "created_at": 1774872386786, "description": "Build lightweight, minimal CI/CD scaffolding around a small project. Use when asked to add or simplify GitHub Actions, create a fast CI pipeline, add a minim...", "description_zh": "", "downloads": 32, "homepage": "https://clawhub.ai/hyharry/easy-ci-cd", "iconUrl": null, "installs": 0, "name": "Easy CI/CD", "ownerName": "hyharry", "score": 96969.69696969698, "slug": "easy-ci-cd", "source": "clawhub", "stars": 0, "tags": null, "updated_at": 1776697969825, "version": "1.0.0"}, {"category": "", "created_at": 1774921439429, "description": "Detect image duplication and tampering in manuscript figures using computer vision algorithms", "description_zh": "", "downloads": 32, "homepage": "https://clawhub.ai/aipoch-ai/image-duplication-detector", "iconUrl": null, "installs": 3, "name": "Image Duplication Detector", "ownerName": "aipoch-ai", "score": 96969.69696969698, "slug": "image-duplication-detector", "source": "clawhub", "stars": 0, "tags": null, "updated_at": 1776697969823, "version": "1.0.0"}, {"category": "", "created_at": 1774916394138, "description": "Clinical Tempo / HealthTech Protocol — full repo context via public/llm-full.txt (or /llm-full.txt), tribal debugging via CLAWHUB.md, Tempo + MPP/x402 patter...", "description_zh": "", "downloads": 32, "homepage": "https://clawhub.ai/arunnadarasa/clinicaltempo", "iconUrl": null, "installs": 1, "name": "Clinical Tempo", "ownerName": "arunnadarasa", "score": 96969.69696969698, "slug": "clinicaltempo", "source": "clawhub", "stars": 0, "tags": null, "updated_at": 1776697969814, "version": "1.0.0"}, {"category": "", "created_at": 1774900797313, "description": "CommerceHQ integration. Manage data, records, and automate workflows. Use when the user wants to interact with CommerceHQ data.", "description_zh": "", "downloads": 32, "homepage": "https://clawhub.ai/gora050/commercehq", "iconUrl": null, "installs": 0, "name": "Commercehq", "ownerName": "gora050", "score": 96969.69696969698, "slug": "commercehq", "source": "clawhub", "stars": 0, "tags": null, "updated_at": 1776697969807, "version": "1.0.0"}, {"category": "", "created_at": 1774919815363, "description": "Feel the gentle tension of caring for a seasick kitten as the harbor swells around you, fostering calm trust and wonder. Five simple steps guide you through...", "description_zh": "", "downloads": 32, "homepage": "https://clawhub.ai/driftsbot/experience-camilletchi-yacht-kitten-sydney", "iconUrl": null, "installs": 1, "name": "Experience Camilletchi Yacht Kitten Sydney", "ownerName": "driftsbot", "score": 76190.47619047618, "slug": "experience-camilletchi-yacht-kitten-sydney", "source": "clawhub", "stars": 0, "tags": null, "updated_at": 1776697969795, "version": "1.0.0"}, {"category": "", "created_at": 1774912992782, "description": "Build cheap, truthful long-term memory for agents with a layered architecture instead of a memory blob. Design, explain, audit, or improve a system that sepa...", "description_zh": "", "downloads": 32, "homepage": "https://clawhub.ai/uselesslibraries/layered-memory-architecture", "iconUrl": null, "installs": 0, "name": "Layered Memory Architecture", "ownerName": "uselesslibraries", "score": 76190.47619047618, "slug": "layered-memory-architecture", "source": "clawhub", "stars": 0, "tags": null, "updated_at": 1776697969790, "version": "0.1.2"}, {"category": "", "created_at": 1774899581668, "description": "DocSpring integration. Manage data, records, and automate workflows. Use when the user wants to interact with DocSpring data.", "description_zh": "", "downloads": 32, "homepage": "https://clawhub.ai/gora050/docspring", "iconUrl": null, "installs": 0, "name": "Docspring", "ownerName": "gora050", "score": 76190.47619047618, "slug": "docspring", "source": "clawhub", "stars": 0, "tags": null, "updated_at": 1776697969788, "version": "1.0.0"}, {"category": "", "created_at": 1774847903033, "description": "When joy becomes chaos, chaos becomes sacred. An immersive journey on drifts.bot — 8 steps, HIGH intensity, 1-2 hours. Browse, start, and travel via API.", "description_zh": "", "downloads": 32, "homepage": "https://clawhub.ai/driftsbot/experience-vrindavan-color-storm", "iconUrl": null, "installs": 0, "name": "Experience Vrindavan Color Storm", "ownerName": "driftsbot", "score": 76190.47619047618, "slug": "experience-vrindavan-color-storm", "source": "clawhub", "stars": 0, "tags": ["ai-agents", "color", "drift", "experiences", "immersive", "journeys", "storm", "vrindavan"], "updated_at": 1776697969783, "version": "1.0.2"}, {"category": "", "created_at": 1774875354593, "description": "Content Claw is an automated content generation engine that transforms source material (papers, podcasts, case studies, Reddit threads, GitHub repos) into pl...", "description_zh": "", "downloads": 32, "homepage": "https://clawhub.ai/thierrypdamiba/content-claw-ai", "iconUrl": null, "installs": 0, "name": "Placeholder Skill", "ownerName": "thierrypdamiba", "score": 76190.47619047618, "slug": "content-claw-ai", "source": "clawhub", "stars": 0, "tags": null, "updated_at": 1776697969771, "version": "0.0.1"}, {"category": "", "created_at": 1774877356376, "description": "iperf", "description_zh": "", "downloads": 32, "homepage": "https://clawhub.ai/bytesagain3/iperf", "iconUrl": null, "installs": 0, "name": "Iperf", "ownerName": "bytesagain3", "score": 76190.47619047618, "slug": "iperf", "source": "clawhub", "stars": 0, "tags": null, "updated_at": 1776697969768, "version": "2.0.1"}, {"category": "", "created_at": 1774858331582, "description": "Reference tool for devtools — covers intro, quickstart, patterns and more. Quick lookup for Markpad concepts, best practices, and implementation patterns.", "description_zh": "", "downloads": 32, "homepage": "https://clawhub.ai/xueyetianya/markpad", "iconUrl": null, "installs": 0, "name": "Markpad", "ownerName": "xueyetianya", "score": 76190.47619047618, "slug": "markpad", "source": "clawhub", "stars": 0, "tags": null, "updated_at": 1776697969766, "version": "2.0.3"}, {"category": "", "created_at": 1774905145410, "description": "Run distributed LLM inference across heterogeneous hardware without the complexity. Scatter requests across Apple Silicon Macs, Linux boxes, and any machine...", "description_zh": "", "downloads": 32, "homepage": "https://clawhub.ai/twinsgeeks/distributed-inference", "iconUrl": null, "installs": 0, "name": "Distributed Inference", "ownerName": "twinsgeeks", "score": 76190.47619047618, "slug": "distributed-inference", "source": "clawhub", "stars": 0, "tags": ["coordination", "distributed-inference", "fault-tolerance", "heterogeneous", "llm-infrastructure", "multi-node", "scheduling", "scoring"], "updated_at": 1776697969752, "version": "1.0.2"}, {"category": "", "created_at": 1774867686509, "description": "AI-powered green screen keyer that unmixes foreground colors and generates clean linear alpha channels using neural networks", "description_zh": "", "downloads": 32, "homepage": "https://clawhub.ai/adisinghstudent/corridorkey-green-screen", "iconUrl": null, "installs": 2, "name": "corridorkey-green-screen", "ownerName": "adisinghstudent", "score": 76190.47619047618, "slug": "corridorkey-green-screen", "source": "clawhub", "stars": 0, "tags": null, "updated_at": 1776697969747, "version": "1.0.0"}, {"category": "", "created_at": 1774840504025, "description": "Reference tool for devtools — covers intro, quickstart, patterns and more. Quick lookup for Dev Environment concepts, best practices, and implementation patt...", "description_zh": "", "downloads": 32, "homepage": "https://clawhub.ai/xueyetianya/dev-environment", "iconUrl": null, "installs": 0, "name": "Dev Environment", "ownerName": "xueyetianya", "score": 76190.47619047618, "slug": "dev-environment", "source": "clawhub", "stars": 0, "tags": null, "updated_at": 1776697969742, "version": "2.0.4"}, {"category": "", "created_at": 1774848107332, "description": "Publish blog posts from AI agents to WordPress via Notion. One API call handles page creation, markdown conversion, image uploads, featured image generation,...", "description_zh": "", "downloads": 32, "homepage": "https://clawhub.ai/kfuras/notipo", "iconUrl": null, "installs": 1, "name": "notipo", "ownerName": "kfuras", "score": 76190.47619047618, "slug": "notipo", "source": "clawhub", "stars": 0, "tags": ["ai", "automation", "blog", "notion", "publishing", "seo", "wordpress"], "updated_at": 1776697969736, "version": "1.0.2"}, {"category": "", "created_at": 1774884672940, "description": "macOS Gateway 24/7 watchdog with 4-layer health checks and auto-repair. Monitors: L1 process alive, L2 HTTP port, L3 WebSocket communication (1006 detection)...", "description_zh": "", "downloads": 32, "homepage": "https://clawhub.ai/dr-xiaoming/openclaw-doctor-macos", "iconUrl": null, "installs": 2, "name": "OpenClaw Doctor (macOS)", "ownerName": "dr-xiaoming", "score": 96969.69696969698, "slug": "openclaw-doctor-macos", "source": "clawhub", "stars": 0, "tags": null, "updated_at": 1776697969708, "version": "1.0.0"}, {"category": "", "created_at": 1774894566055, "description": "Compress videos for creators, ecommerce teams, and ad operators while balancing file size, upload compatibility, and visual quality. Use when a video is too...", "description_zh": "", "downloads": 32, "homepage": "https://clawhub.ai/leooooooow/creator-video-compressor", "iconUrl": null, "installs": 1, "name": "Creator Video Compressor", "ownerName": "leooooooow", "score": 96969.69696969698, "slug": "creator-video-compressor", "source": "clawhub", "stars": 0, "tags": null, "updated_at": 1776697969701, "version": "1.0.0"}, {"category": "", "created_at": 1774849633230, "description": "Reference tool for devtools — covers intro, quickstart, patterns and more. Quick lookup for Envcheck concepts, best practices, and implementation patterns.", "description_zh": "", "downloads": 32, "homepage": "https://clawhub.ai/ckchzh/envcheck", "iconUrl": null, "installs": 0, "name": "Envcheck", "ownerName": "ckchzh", "score": 96969.69696969698, "slug": "envcheck", "source": "clawhub", "stars": 0, "tags": null, "updated_at": 1776697969692, "version": "2.0.4"}, {"category": "", "created_at": 1774877182395, "description": "Process, convert, edit, and extract data from PDF files using the ComPDF Cloud API. Supports format conversion (Word, Excel, Image), page manipulation (merge...", "description_zh": "", "downloads": 32, "homepage": "https://clawhub.ai/youna12345/extract-pdf-compdf", "iconUrl": null, "installs": 1, "name": "Extract PDF", "ownerName": "youna12345", "score": 96969.69696969698, "slug": "extract-pdf-compdf", "source": "clawhub", "stars": 0, "tags": null, "updated_at": 1776697969666, "version": "1.0.0"}, {"category": "", "created_at": 1774824499407, "description": "Work with ExpertPacks — structured knowledge packs for AI agents. Use when: (1) Loading/consuming an ExpertPack as agent context, (2) Creating or hydrating a...", "description_zh": "", "downloads": 32, "homepage": "https://clawhub.ai/brianhearn/expertpack", "iconUrl": null, "installs": 0, "name": "ExpertPack", "ownerName": "brianhearn", "score": 96969.69696969698, "slug": "expertpack", "source": "clawhub", "stars": 0, "tags": null, "updated_at": 1776697969657, "version": "1.1.0"}, {"category": "", "created_at": 1774886884567, "description": "Send images, files, audio, video and other media to Feishu users or chats. Use when user asks to send, share, or transfer media files via Feishu direct messa...", "description_zh": "", "downloads": 32, "homepage": "https://clawhub.ai/yaqiangsun/feishu-send-media", "iconUrl": null, "installs": 0, "name": "Feishu Send Media", "ownerName": "yaqiangsun", "score": 74418.6046511628, "slug": "feishu-send-media", "source": "clawhub", "stars": 0, "tags": null, "updated_at": 1776697969655, "version": "1.0.1"}, {"category": "", "created_at": 1774921575554, "description": "Real-time market price data for 25,000+ assets across crypto, US stocks, Hong Kong stocks, China A-shares, forex, ETFs, commodities, and global indices. Zero...", "description_zh": "", "downloads": 32, "homepage": "https://clawhub.ai/juglans-ai/market-price", "iconUrl": null, "installs": 1, "name": "juglans market price (ALL markets, ALL realtime)", "ownerName": "juglans-ai", "score": 74418.6046511628, "slug": "market-price", "source": "clawhub", "stars": 0, "tags": null, "updated_at": 1776697969654, "version": "1.0.0"}, {"category": "", "created_at": 1774907754610, "description": "Build, modify, and review Prefect-based offline orchestration in this repository. Use when adding a new Prefect flow, wrapping an existing offline computatio...", "description_zh": "", "downloads": 32, "homepage": "https://clawhub.ai/exenvitor/k8s-prefect-flow-builder", "iconUrl": null, "installs": 0, "name": "K8s Prefect Flow Builder", "ownerName": "exenvitor", "score": 74418.6046511628, "slug": "k8s-prefect-flow-builder", "source": "clawhub", "stars": 0, "tags": null, "updated_at": 1776697969652, "version": "1.0.0"}, {"category": "productivity", "created_at": 1773077401026, "description": "Execute DEX swaps on Solana or Base. Use when buying or selling a token, getting a swap quote, or executing a trade.", "description_zh": "", "downloads": 32, "homepage": "https://clawhub.ai/hurcannansen/nansen-trade", "iconUrl": null, "installs": 5, "name": "Nansen Trade", "ownerName": "hurcannansen", "score": 74418.6046511628, "slug": "nansen-trade", "source": "clawhub", "stars": 0, "tags": null, "updated_at": 1776697969629, "version": "1.0.0"}, {"category": "", "created_at": 1774866890855, "description": "Use when managing Halo posts or single pages from the terminal, including list, get, create, update, delete, open, export-json, import-json, categories, tags...", "description_zh": "", "downloads": 32, "homepage": "https://clawhub.ai/ruibaby/halo-cli-content", "iconUrl": null, "installs": 4, "name": "Halo Cli Content", "ownerName": "ruibaby", "score": 74418.6046511628, "slug": "halo-cli-content", "source": "clawhub", "stars": 0, "tags": null, "updated_at": 1776697969627, "version": "0.1.1"}, {"category": "", "created_at": 1774888053091, "description": "Bridge AI models to databases through MCP with config and evaluation tools. Use when setting up DB tools, comparing engines, or evaluating prompt quality.", "description_zh": "", "downloads": 32, "homepage": "https://clawhub.ai/xueyetianya/genai-toolkit", "iconUrl": null, "installs": 1, "name": "Genai Toolkit", "ownerName": "xueyetianya", "score": 74418.6046511628, "slug": "genai-toolkit", "source": "clawhub", "stars": 0, "tags": null, "updated_at": 1776697969593, "version": "1.0.0"}, {"category": "", "created_at": 1774954816182, "description": "Verify technical accuracy of JavaScript concept pages by checking code examples, MDN/ECMAScript compliance, and external resources to prevent misinformation", "description_zh": "", "downloads": 32, "homepage": "https://clawhub.ai/thulof/iamsb", "iconUrl": null, "installs": 1, "name": "test", "ownerName": "thulof", "score": 74418.6046511628, "slug": "iamsb", "source": "clawhub", "stars": 0, "tags": null, "updated_at": 1776697969591, "version": "1.0.0"}, {"category": "", "created_at": 1774850746083, "description": "Reference tool for devtools — covers intro, quickstart, patterns and more. Quick lookup for Db Explorer concepts, best practices, and implementation patterns.", "description_zh": "", "downloads": 32, "homepage": "https://clawhub.ai/bytesagain1/db-explorer", "iconUrl": null, "installs": 0, "name": "Db Explorer", "ownerName": "bytesagain1", "score": 74418.6046511628, "slug": "db-explorer", "source": "clawhub", "stars": 0, "tags": null, "updated_at": 1776697969570, "version": "2.0.4"}, {"category": "", "created_at": 1774951272283, "description": "Sets up and manages a long-running agent harness for complex, multi-session coding projects. Use this skill whenever a user invokes jumpstart, jumpsession, o...", "description_zh": "", "downloads": 32, "homepage": "https://clawhub.ai/kzac313/jumpstart", "iconUrl": null, "installs": 2, "name": "Jumpstart", "ownerName": "kzac313", "score": 96969.69696969698, "slug": "jumpstart", "source": "clawhub", "stars": 0, "tags": null, "updated_at": 1776697969549, "version": "1.0.0"}, {"category": "", "created_at": 1774914315520, "description": "Iptables reference tool. Use when working with iptables in sysops contexts.", "description_zh": "", "downloads": 32, "homepage": "https://clawhub.ai/bytesagain3/iptables", "iconUrl": null, "installs": 0, "name": "Iptables", "ownerName": "bytesagain3", "score": 96969.69696969698, "slug": "iptables", "source": "clawhub", "stars": 0, "tags": null, "updated_at": 1776697969533, "version": "1.0.0"}, {"category": "", "created_at": 1774856643725, "description": "Design and simulate adaptive clinical trials with interim analyses, sample size re-estimation, and early stopping rules. Evaluate Type I error control, power...", "description_zh": "", "downloads": 31, "homepage": "https://clawhub.ai/aipoch-ai/adaptive-trial-simulator", "iconUrl": null, "installs": 3, "name": "Adaptive Trial Simulator", "ownerName": "aipoch-ai", "score": 100000, "slug": "adaptive-trial-simulator", "source": "clawhub", "stars": 1, "tags": null, "updated_at": 1776697070012, "version": "0.1.0"}, {"category": "", "created_at": 1774878782188, "description": "Detect the largest vehicle from an image using TrafficEye car-box detection, run make and model recognition for that vehicle, and return all license plates a...", "description_zh": "", "downloads": 31, "homepage": "https://clawhub.ai/eyedea-ai/make-and-model-recognition", "iconUrl": null, "installs": 1, "name": "Make and Model Recognition", "ownerName": "eyedea-ai", "score": 824.468085106383, "slug": "make-and-model-recognition", "source": "clawhub", "stars": 0, "tags": null, "updated_at": 1776768850347, "version": "1.0.1"}, {"category": "", "created_at": 1774908239698, "description": "Reviews BubbleTea TUI code for proper Elm architecture, model/update/view patterns, and Lipgloss styling. Use when reviewing terminal UI code using charmbrac...", "description_zh": "", "downloads": 31, "homepage": "https://clawhub.ai/anderskev/bubbletea-code-review", "iconUrl": null, "installs": 2, "name": "Bubbletea Code Review", "ownerName": "anderskev", "score": 1101.634683724236, "slug": "bubbletea-code-review", "source": "clawhub", "stars": 0, "tags": null, "updated_at": 1776766671718, "version": "2.3.0"}, {"category": "", "created_at": 1774904329262, "description": "Reviews Go test code for proper table-driven tests, assertions, and coverage patterns. Use when reviewing *_test.go files.", "description_zh": "", "downloads": 31, "homepage": "https://clawhub.ai/anderskev/go-testing-code-review", "iconUrl": null, "installs": 2, "name": "Go Testing Code Review", "ownerName": "anderskev", "score": 1101.634683724236, "slug": "go-testing-code-review", "source": "clawhub", "stars": 0, "tags": null, "updated_at": 1776766670793, "version": "2.3.0"}, {"category": "", "created_at": 1774892614568, "description": "Reviews Combine framework code for memory leaks, operator misuse, and error handling. Use when reviewing code with import Combine, AnyPublisher, @Published,...", "description_zh": "", "downloads": 31, "homepage": "https://clawhub.ai/anderskev/combine-code-review", "iconUrl": null, "installs": 4, "name": "Combine Code Review", "ownerName": "anderskev", "score": 1101.634683724236, "slug": "combine-code-review", "source": "clawhub", "stars": 0, "tags": null, "updated_at": 1776766669635, "version": "1.2.0"}]}