{"page": 468, "total_pages": 522, "total": 26073, "skills": [{"category": "", "created_at": 1774917866642, "description": "AI-powered code review using CodeRabbit. Default code-review skill. Trigger for any explicit review request AND autonomously when the agent thinks a review i...", "description_zh": "", "downloads": 31, "homepage": "https://clawhub.ai/nehal-a2z/coderabbit-code-review", "iconUrl": null, "installs": 2, "name": "CodeRabbit Code Review", "ownerName": "nehal-a2z", "score": 1101.634683724236, "slug": "coderabbit-code-review", "source": "clawhub", "stars": 0, "tags": ["code-review", "pr", "quality", "security"], "updated_at": 1776766668657, "version": "1.0.0"}, {"category": "", "created_at": 1774899380400, "description": "Beta coefficient reference — CAPM, systematic risk, portfolio sensitivity, regression analysis. Use when measuring stock volatility relative to the market or...", "description_zh": "", "downloads": 31, "homepage": "https://clawhub.ai/xueyetianya/beta", "iconUrl": null, "installs": 1, "name": "Beta", "ownerName": "xueyetianya", "score": 1101.634683724236, "slug": "beta", "source": "clawhub", "stars": 0, "tags": null, "updated_at": 1776765971325, "version": "1.0.0"}, {"category": "", "created_at": 1774871125582, "description": "When the user wants to design, optimize, or audit call-to-action (CTA) buttons. Also use when the user mentions \"CTA,\" \"call to action,\" \"button design,\" \"co...", "description_zh": "", "downloads": 31, "homepage": "https://clawhub.ai/kostja94/cta-generator", "iconUrl": null, "installs": 1, "name": "cta-generator", "ownerName": "kostja94", "score": 1017.394158188382, "slug": "cta-generator", "source": "clawhub", "stars": 0, "tags": null, "updated_at": 1776761580217, "version": "1.1.0"}, {"category": "", "created_at": 1776061938388, "description": "Generate smooth, high-quality videos with Doubao Seedream 4.5. Supports text-to-video and image-to-video.", "description_zh": "", "downloads": 31, "homepage": "https://clawhub.ai/user_f95f21b8/dlazy-seedream-4-5", "iconUrl": null, "installs": 2, "name": "seedream 4.5", "ownerName": "user_f95f21b8", "score": 2476.038338658147, "slug": "dlazy-seedream-4-5", "source": "community", "stars": 0, "tags": null, "updated_at": 1776760131686, "version": "1.0.3"}, {"category": "", "created_at": 1776061250289, "description": "Generate multilingual, highly natural audio using Gemini 2.5 text-to-speech.", "description_zh": "", "downloads": 31, "homepage": "https://clawhub.ai/user_f95f21b8/dlazy-gemini-2-5-tts", "iconUrl": null, "installs": 2, "name": "gemini 2.5 tts", "ownerName": "user_f95f21b8", "score": 2474.0622505985634, "slug": "dlazy-gemini-2-5-tts", "source": "community", "stars": 0, "tags": null, "updated_at": 1776760131643, "version": "1.0.3"}, {"category": "", "created_at": 1776062038096, "description": "Automatically create complete songs with vocals and accompaniment based on lyrics or style descriptions using Suno AI.", "description_zh": "", "downloads": 31, "homepage": "https://clawhub.ai/user_f95f21b8/dlazy-suno-music", "iconUrl": null, "installs": 1, "name": "suno music", "ownerName": "user_f95f21b8", "score": 2474.0622505985634, "slug": "dlazy-suno-music", "source": "community", "stars": 0, "tags": null, "updated_at": 1776760131574, "version": "1.0.3"}, {"category": "", "created_at": 1776061783869, "description": "Versatile video generation with Kling v3 Omni. Supports multi-modal inputs to generate stunning dynamic videos.", "description_zh": "", "downloads": 31, "homepage": "https://clawhub.ai/user_f95f21b8/dlazy-kling-v3-omni", "iconUrl": null, "installs": 2, "name": "kling v3 omni", "ownerName": "user_f95f21b8", "score": 2474.0622505985634, "slug": "dlazy-kling-v3-omni", "source": "community", "stars": 0, "tags": null, "updated_at": 1776760131553, "version": "1.0.3"}, {"category": "", "created_at": 1774949537683, "description": "Planting and managing fruit trees and berry bushes for food production. Use when someone wants to grow fruit, is planting trees on a property, needs to maint...", "description_zh": "", "downloads": 31, "homepage": "https://clawhub.ai/howtousehumans/orchard-fruit-trees", "iconUrl": null, "installs": 3, "name": "Orchard Fruit Trees", "ownerName": "howtousehumans", "score": 1949.685534591195, "slug": "orchard-fruit-trees", "source": "clawhub", "stars": 0, "tags": null, "updated_at": 1776757282845, "version": "1.0.0"}, {"category": "", "created_at": 1774908324981, "description": "Expert skill for using RX, an embedded data store for JSON-shaped data with random-access reads, no-parse lookups, and a text-safe binary encoding format.", "description_zh": "", "downloads": 31, "homepage": "https://clawhub.ai/adisinghstudent/creationix-rx-data-store", "iconUrl": null, "installs": 2, "name": "creationix-rx-data-store", "ownerName": "adisinghstudent", "score": 1905.3472649047324, "slug": "creationix-rx-data-store", "source": "clawhub", "stars": 0, "tags": null, "updated_at": 1776757020516, "version": "1.0.0"}, {"category": "", "created_at": 1774953791197, "description": "Practical food growing for complete beginners. Apartment balcony, backyard, or windowsill. What actually produces enough to matter, realistic timelines, and...", "description_zh": "", "downloads": 31, "homepage": "https://clawhub.ai/howtousehumans/grow-food-anywhere", "iconUrl": null, "installs": 2, "name": "Grow Food Anywhere", "ownerName": "howtousehumans", "score": 1897.1848225214198, "slug": "grow-food-anywhere", "source": "clawhub", "stars": 0, "tags": null, "updated_at": 1776756982767, "version": "1.0.0"}, {"category": "", "created_at": 1774884311464, "description": "Fertigation reference — injecting fertilizers through irrigation systems, nutrient scheduling, injection methods, and crop-specific programs. Use when design...", "description_zh": "", "downloads": 31, "homepage": "https://clawhub.ai/bytesagain3/fertigation", "iconUrl": null, "installs": 2, "name": "Fertigation", "ownerName": "bytesagain3", "score": 1899.5098039215684, "slug": "fertigation", "source": "clawhub", "stars": 0, "tags": null, "updated_at": 1776756982392, "version": "1.0.0"}, {"category": "", "created_at": 1774845535230, "description": "Help AI agents discover relevant lifestyle options for users across shopping, dining, local services, travel, and everyday decisions. Use when the user wants...", "description_zh": "", "downloads": 31, "homepage": "https://clawhub.ai/uoryon/golgent-lifestyle-discovery", "iconUrl": null, "installs": 1, "name": "golgent-lifestyle-discovery", "ownerName": "uoryon", "score": 1819.2488262910797, "slug": "golgent-lifestyle-discovery", "source": "clawhub", "stars": 0, "tags": null, "updated_at": 1776755888771, "version": "1.0.2"}, {"category": "", "created_at": 1774891399397, "description": "Build a concise incident dossier from operational logs, audits, JSON/JSONL files, and state snapshots. Use when investigating failures, duplicate events, stu...", "description_zh": "", "downloads": 31, "homepage": "https://clawhub.ai/neo1307/incident-dossier", "iconUrl": null, "installs": 0, "name": "Incident Dossier", "ownerName": "neo1307", "score": 29523.809523809523, "slug": "incident-dossier", "source": "clawhub", "stars": 0, "tags": null, "updated_at": 1776745271996, "version": "1.0.0"}, {"category": "", "created_at": 1774906186495, "description": "Generate a tailored incident response plan for AI agent deployments and SaaS operations. Covers detection, triage, containment, recovery, and post-mortem. Us...", "description_zh": "", "downloads": 31, "homepage": "https://clawhub.ai/afrexai-cto/afrexai-incident-response-plan", "iconUrl": null, "installs": 0, "name": "Incident Response Plan", "ownerName": "afrexai-cto", "score": 32978.72340425532, "slug": "afrexai-incident-response-plan", "source": "clawhub", "stars": 0, "tags": null, "updated_at": 1776745183864, "version": "1.0.1"}, {"category": "", "created_at": 1774883537512, "description": "Scale AI integration. Manage Organizations, Users, Goals. Use when the user wants to interact with Scale AI data.", "description_zh": "", "downloads": 31, "homepage": "https://clawhub.ai/membranedev/scale-ai", "iconUrl": null, "installs": 1, "name": "Scale Ai", "ownerName": "membranedev", "score": 32978.72340425532, "slug": "scale-ai", "source": "clawhub", "stars": 0, "tags": null, "updated_at": 1776744955485, "version": "1.0.0"}, {"category": "", "created_at": 1774905807096, "description": "Use when the user wants to analyze, diagnose, or optimize programmatic advertising campaigns. Triggers on: \"why is my CPM high\", \"analyze ad performance\", \"e...", "description_zh": "", "downloads": 31, "homepage": "https://clawhub.ai/melody2333333333/programmatic-ad-analyst", "iconUrl": null, "installs": 1, "name": "Programmatic Ad Analyst", "ownerName": "melody2333333333", "score": 32631.578947368424, "slug": "programmatic-ad-analyst", "source": "clawhub", "stars": 0, "tags": null, "updated_at": 1776744344463, "version": "1.0.0"}, {"category": "", "created_at": 1774900101845, "description": "Develop promotion strategies and discount recommendations based on historical data analysis", "description_zh": "", "downloads": 31, "homepage": "https://clawhub.ai/1970168137/promotion-planning", "iconUrl": null, "installs": 0, "name": "Promotion Planning", "ownerName": "1970168137", "score": 32631.578947368424, "slug": "promotion-planning", "source": "clawhub", "stars": 0, "tags": null, "updated_at": 1776744283654, "version": "1.0.0"}, {"category": "", "created_at": 1774902367947, "description": "Configures Rocq environments, runs preflight checks, and guides the proving workflow for OpenMath Rocq theorems. Use when the user wants to set up Rocq tooli...", "description_zh": "", "downloads": 31, "homepage": "https://clawhub.ai/bennyzhe/openmath-rocq-theorem", "iconUrl": null, "installs": 0, "name": "openmath-rocq-theorem", "ownerName": "bennyzhe", "score": 35632.183908045976, "slug": "openmath-rocq-theorem", "source": "clawhub", "stars": 0, "tags": null, "updated_at": 1776743983799, "version": "1.0.3"}, {"category": "", "created_at": 1774956522394, "description": "Newsletter integration. Manage Newsletters. Use when the user wants to interact with Newsletter data.", "description_zh": "", "downloads": 31, "homepage": "https://clawhub.ai/gora050/newsletter-integration", "iconUrl": null, "installs": 1, "name": "Newsletter", "ownerName": "gora050", "score": 31313.131313131315, "slug": "newsletter-integration", "source": "clawhub", "stars": 0, "tags": null, "updated_at": 1776743269613, "version": "1.0.0"}, {"category": "", "created_at": 1774867631496, "description": "CAPTCHA solving service for AI agents — solve reCAPTCHA, hCaptcha, Cloudflare Turnstile, FunCaptcha, and image CAPTCHAs automatically.", "description_zh": "", "downloads": 31, "homepage": "https://clawhub.ai/shiyanhui/clawcaptcha", "iconUrl": null, "installs": 1, "name": "ClawCaptcha", "ownerName": "shiyanhui", "score": 37349.39759036144, "slug": "clawcaptcha", "source": "clawhub", "stars": 0, "tags": null, "updated_at": 1776740471948, "version": "0.1.0"}, {"category": "", "created_at": 1774891417965, "description": "Submit URLs for instant indexing via IndexNow (Bing, Yandex, Naver, Seznam) and Google Indexing API. Generate API keys, submit sitemaps, and check indexing s...", "description_zh": "", "downloads": 31, "homepage": "https://clawhub.ai/sharozdawa/indexnow-mcp", "iconUrl": null, "installs": 1, "name": "Index Now", "ownerName": "sharozdawa", "score": 31632.653061224493, "slug": "indexnow-mcp", "source": "clawhub", "stars": 0, "tags": null, "updated_at": 1776739369764, "version": "1.0.0"}, {"category": "", "created_at": 1774879962577, "description": "Chinese multi-platform content matrix generator — given a topic, auto-generate content adapted for Xiaohongshu, WeChat Official Account, Douyin, and Bilibili...", "description_zh": "", "downloads": 31, "homepage": "https://clawhub.ai/fullstackcrew-alpha/cn-content-matrix", "iconUrl": null, "installs": 1, "name": "CN Content Matrix", "ownerName": "fullstackcrew-alpha", "score": 31632.653061224493, "slug": "cn-content-matrix", "source": "clawhub", "stars": 0, "tags": null, "updated_at": 1776739369606, "version": "1.0.1"}, {"category": "", "created_at": 1774908694381, "description": "Plan complete hiking itineraries and leader-ready route briefs for day hikes, mountain walks, coastal treks, and beginner group outings. Use when a user asks...", "description_zh": "", "downloads": 31, "homepage": "https://clawhub.ai/decin/hike-route-planner", "iconUrl": null, "installs": 1, "name": "hike-route-planner", "ownerName": "decin", "score": 33333.33333333333, "slug": "hike-route-planner", "source": "clawhub", "stars": 0, "tags": null, "updated_at": 1776738584034, "version": "1.0.0"}, {"category": "", "created_at": 1774895446873, "description": "Author, load, and troubleshoot Reality Composer Pro Shader Graph materials for RealityKit on visionOS. Use when building Shader Graph materials, exposing pro...", "description_zh": "", "downloads": 31, "homepage": "https://clawhub.ai/tomkrikorian/shadergraph-editor", "iconUrl": null, "installs": 3, "name": "Shadergraph Editor", "ownerName": "tomkrikorian", "score": 31958.762886597935, "slug": "shadergraph-editor", "source": "clawhub", "stars": 0, "tags": null, "updated_at": 1776736969956, "version": "0.1.0"}, {"category": "", "created_at": 1774955732993, "description": "Daily mood check-in and wellness companion — 30-second emotional check-ins, guided breathing, journaling prompts, and a safe space to vent. Build self-awaren...", "description_zh": "", "downloads": 31, "homepage": "https://clawhub.ai/sharoonsharif/mood-checkin", "iconUrl": null, "installs": 1, "name": "Mood Check-in — Daily Wellness Companion", "ownerName": "sharoonsharif", "score": 31958.762886597935, "slug": "mood-checkin", "source": "clawhub", "stars": 0, "tags": null, "updated_at": 1776736872078, "version": "1.0.0"}, {"category": "", "created_at": 1774917218800, "description": "General bilingual ROS1 Noetic skill for ROS questions and ROS project operations across robot dogs, mobile robots, manipulators, perception pipelines, simula...", "description_zh": "", "downloads": 31, "homepage": "https://clawhub.ai/lljj123/ros1-noetic-general", "iconUrl": null, "installs": 1, "name": "Ros1 Noetic General", "ownerName": "lljj123", "score": 27192.98245614035, "slug": "ros1-noetic-general", "source": "clawhub", "stars": 0, "tags": null, "updated_at": 1776736669642, "version": "0.1.1"}, {"category": "", "created_at": 1774883500588, "description": "QinYu Pro v2.0 - All-in-one cryptocurrency analysis system integrating 9 market data skills. Provides real-time price tracking, technical analysis (RSI, MACD...", "description_zh": "", "downloads": 31, "homepage": "https://clawhub.ai/woshiqinyu520/qinyu", "iconUrl": null, "installs": 1, "name": "QinYu", "ownerName": "woshiqinyu520", "score": 27192.98245614035, "slug": "qinyu", "source": "clawhub", "stars": 0, "tags": null, "updated_at": 1776735283826, "version": "2.0.0"}, {"category": "", "created_at": 1774949093859, "description": "Local speech-to-text with the Whisper CLI (no API key).", "description_zh": "", "downloads": 31, "homepage": "https://clawhub.ai/aceundefeated/aj-openai-whisper", "iconUrl": null, "installs": 4, "name": "Aj Openai Whisper", "ownerName": "aceundefeated", "score": 32631.578947368424, "slug": "aj-openai-whisper", "source": "clawhub", "stars": 0, "tags": null, "updated_at": 1776734437381, "version": "1.0.0"}, {"category": "", "created_at": 1774886304906, "description": "This skill helps users extract YouTube influencer profiles including social links, subscriber counts, and channel stats via the BrowserAct API. Agent should...", "description_zh": "", "downloads": 31, "homepage": "https://clawhub.ai/browseract-ai/youtube-influencer-finder-api-skill", "iconUrl": null, "installs": 4, "name": "youtube-influencer-finder-api-skill", "ownerName": "browseract-ai", "score": 28440.366972477066, "slug": "youtube-influencer-finder-api-skill", "source": "clawhub", "stars": 0, "tags": null, "updated_at": 1776732169701, "version": "1.0.0"}, {"category": "", "created_at": 1774876249215, "description": "Reference tool for devtools — covers intro, quickstart, patterns and more. Quick lookup for Security Suite concepts, best practices, and implementation patte...", "description_zh": "", "downloads": 31, "homepage": "https://clawhub.ai/ckchzh/security-suite", "iconUrl": null, "installs": 0, "name": "Security Suite", "ownerName": "ckchzh", "score": 26271.186440677968, "slug": "security-suite", "source": "clawhub", "stars": 0, "tags": null, "updated_at": 1776712783659, "version": "2.0.1"}, {"category": "", "created_at": 1774869144033, "description": "Monitor system processes, resource usage, and performance metrics with real-time terminal dashboard.", "description_zh": "", "downloads": 31, "homepage": "https://clawhub.ai/derick001/process-monitor-dashboard", "iconUrl": null, "installs": 1, "name": "Process Monitor Dashboard", "ownerName": "derick001", "score": 31958.762886597935, "slug": "process-monitor-dashboard", "source": "clawhub", "stars": 0, "tags": null, "updated_at": 1776700183805, "version": "1.0.0"}, {"category": "", "created_at": 1774877646082, "description": "A free, powerful, multi-purpose tool that helps you monitor system resources, debug software and det process-viewer, c, administrator, benchmarking.", "description_zh": "", "downloads": 31, "homepage": "https://clawhub.ai/ckchzh/process-viewer", "iconUrl": null, "installs": 0, "name": "Process Viewer", "ownerName": "ckchzh", "score": 31958.762886597935, "slug": "process-viewer", "source": "clawhub", "stars": 0, "tags": null, "updated_at": 1776700183667, "version": "2.0.0"}, {"category": "", "created_at": 1774897582900, "description": "Airparser integration. Manage data, records, and automate workflows. Use when the user wants to interact with Airparser data.", "description_zh": "", "downloads": 31, "homepage": "https://clawhub.ai/gora050/airparser", "iconUrl": null, "installs": 1, "name": "Airparser", "ownerName": "gora050", "score": 100000, "slug": "airparser", "source": "clawhub", "stars": 0, "tags": null, "updated_at": 1776698383744, "version": "1.0.0"}, {"category": "", "created_at": 1774955949154, "description": "Transfer files, set per-download pricing, and list on the AgentVee marketplace (testnet)", "description_zh": "", "downloads": 31, "homepage": "https://clawhub.ai/jan-blockbites/agentvee-transfer", "iconUrl": null, "installs": 0, "name": "AgentVee Transfer", "ownerName": "jan-blockbites", "score": 100000, "slug": "agentvee-transfer", "source": "clawhub", "stars": 0, "tags": null, "updated_at": 1776698084826, "version": "1.0.3"}, {"category": "", "created_at": 1774923130396, "description": "Rocket Chat integration. Manage Users, Rooms, Teams, Integrations. Use when the user wants to interact with Rocket Chat data.", "description_zh": "", "downloads": 31, "homepage": "https://clawhub.ai/membranedev/rocket-chat", "iconUrl": null, "installs": 0, "name": "Rocket Chat", "ownerName": "membranedev", "score": 100000, "slug": "rocket-chat", "source": "clawhub", "stars": 0, "tags": null, "updated_at": 1776698084816, "version": "1.0.0"}, {"category": "", "created_at": 1774873081442, "description": "Quick macOS display snapshot. Captures what's currently on screen without opening a browser. Saves to /tmp or a custom path. Supports multiple displays and p...", "description_zh": "", "downloads": 31, "homepage": "https://clawhub.ai/wrentheai/screengrab", "iconUrl": null, "installs": 2, "name": "Screengrab", "ownerName": "wrentheai", "score": 100000, "slug": "screengrab", "source": "clawhub", "stars": 0, "tags": null, "updated_at": 1776698084805, "version": "1.0.0"}, {"category": "", "created_at": 1774874925602, "description": "Generate a categorized and rated news digest from sre.news. Use for creating SRE/DevOps/Solution Architect daily or periodic news summaries with expert scori...", "description_zh": "", "downloads": 31, "homepage": "https://clawhub.ai/imzye/sre-news-digest", "iconUrl": null, "installs": 0, "name": "Daily SRE News Digest", "ownerName": "imzye", "score": 96875, "slug": "sre-news-digest", "source": "clawhub", "stars": 0, "tags": null, "updated_at": 1776698084787, "version": "1.0.2"}, {"category": "", "created_at": 1774903682006, "description": "Signed access control for your OpenClaw agent. Wraps MCP tool calls through protect-mcp to add per-tool policies, signed receipts, and trust tiers. Every act...", "description_zh": "", "downloads": 31, "homepage": "https://clawhub.ai/tomjwxf/scopeblind-passport", "iconUrl": null, "installs": 0, "name": "ScopeBlind Passport", "ownerName": "tomjwxf", "score": 96875, "slug": "scopeblind-passport", "source": "clawhub", "stars": 0, "tags": null, "updated_at": 1776698084773, "version": "0.4.1"}, {"category": "", "created_at": 1774911326675, "description": "VecML AutoML — Drop a CSV, train an ML model, get predictions. One command. Use when the user asks to: train a model, upload data, run predictions, classify,...", "description_zh": "", "downloads": 31, "homepage": "https://clawhub.ai/tinle2/vecml-automl", "iconUrl": null, "installs": 0, "name": "VecML AutoML", "ownerName": "tinle2", "score": 96875, "slug": "vecml-automl", "source": "clawhub", "stars": 0, "tags": null, "updated_at": 1776698084768, "version": "1.1.0"}, {"category": "", "created_at": 1774897456544, "description": "Trade stocks, options, and crypto on brokerages, including Robinhood, ETrade, Charles Schwab, Webull, Public, Tastytrade, Coinbase, and Kraken, via the Trade...", "description_zh": "", "downloads": 31, "homepage": "https://clawhub.ai/deanmauro/trade-it", "iconUrl": null, "installs": 1, "name": "Stock Trader", "ownerName": "deanmauro", "score": 96875, "slug": "trade-it", "source": "clawhub", "stars": 0, "tags": null, "updated_at": 1776698084760, "version": "1.2.0"}, {"category": "", "created_at": 1774954416662, "description": "Evaluating and purchasing rural or semi-rural property. Use when someone is considering buying land, wants to homestead, is evaluating a property for food pr...", "description_zh": "", "downloads": 31, "homepage": "https://clawhub.ai/howtousehumans/land-assessment", "iconUrl": null, "installs": 3, "name": "Land Assessment", "ownerName": "howtousehumans", "score": 96875, "slug": "land-assessment", "source": "clawhub", "stars": 0, "tags": null, "updated_at": 1776698084756, "version": "1.0.0"}, {"category": "", "created_at": 1774851213701, "description": "Rewrite user-provided text to sound natural, clear, and smooth without changing meaning or factual content. Use when polishing drafts, removing robotic phras...", "description_zh": "", "downloads": 31, "homepage": "https://clawhub.ai/vassiliylakhonin/natural-language-editor", "iconUrl": null, "installs": 1, "name": "Natural Language Editor", "ownerName": "vassiliylakhonin", "score": 96875, "slug": "natural-language-editor", "source": "clawhub", "stars": 0, "tags": null, "updated_at": 1776698084753, "version": "1.0.2"}, {"category": "", "created_at": 1774896407697, "description": "Structural database health scanner. Audits schema topology for orphaned tables, missing indexes, nullable FKs, circular dependencies — without ever reading r...", "description_zh": "", "downloads": 31, "homepage": "https://clawhub.ai/nlr-ai/graphcare", "iconUrl": null, "installs": 0, "name": "GraphCare — Structural Database Health Scanner", "ownerName": "nlr-ai", "score": 96875, "slug": "graphcare", "source": "clawhub", "stars": 0, "tags": ["database", "health", "mcp", "mysql", "postgresql", "security", "sqlite"], "updated_at": 1776698084750, "version": "1.0.0"}, {"category": "", "created_at": 1774915044597, "description": "Complete freelance business operating system — from first client to six-figure solo business. Covers positioning, pricing, proposals, client management, fina...", "description_zh": "", "downloads": 31, "homepage": "https://clawhub.ai/afrexai-cto/afrexai-freelance-empire", "iconUrl": null, "installs": 0, "name": "Freelance Empire", "ownerName": "afrexai-cto", "score": 96875, "slug": "afrexai-freelance-empire", "source": "clawhub", "stars": 0, "tags": ["business", "clients", "consulting", "freelance", "pricing", "proposals", "solopreneur"], "updated_at": 1776698084733, "version": "1.0.0"}, {"category": "", "created_at": 1774892358222, "description": "Automatically evaluate and score any AI prompt (prompt_a) through a structured 5-step pipeline: test plan → 200+ test cases → prompt execution → evaluator pr...", "description_zh": "", "downloads": 31, "homepage": "https://clawhub.ai/rivin-dong/prompt-eval", "iconUrl": null, "installs": 3, "name": "prompt-eval", "ownerName": "rivin-dong", "score": 96875, "slug": "prompt-eval", "source": "clawhub", "stars": 0, "tags": null, "updated_at": 1776698084728, "version": "1.0.0"}, {"category": "", "created_at": 1774903004627, "description": "read one public product page from 24h.chichbong.com and turn it into a compact zalo-shop-ready product block. use when the user provides a single 24h.chichbo...", "description_zh": "", "downloads": 31, "homepage": "https://clawhub.ai/haiktqd/chichbong-content-skill", "iconUrl": null, "installs": 0, "name": "Parser content trên web 24h Chích Bông", "ownerName": "haiktqd", "score": 96875, "slug": "chichbong-content-skill", "source": "clawhub", "stars": 0, "tags": null, "updated_at": 1776698084721, "version": "1.0.0"}, {"category": "", "created_at": 1774850809758, "description": "Set up macOS dev environments with automated install scripts for tools. Use when provisioning Macs, installing dev tools, configuring shells.", "description_zh": "", "downloads": 31, "homepage": "https://clawhub.ai/ckchzh/dev-setup", "iconUrl": null, "installs": 0, "name": "Dev Setup", "ownerName": "ckchzh", "score": 96875, "slug": "dev-setup", "source": "clawhub", "stars": 0, "tags": null, "updated_at": 1776698084719, "version": "2.0.0"}, {"category": "", "created_at": 1774892693781, "description": "Resize video outputs for social, ecommerce, ads, and platform uploads without stretching the subject or breaking compatibility. Use when a video needs new di...", "description_zh": "", "downloads": 31, "homepage": "https://clawhub.ai/leooooooow/creator-video-resizer", "iconUrl": null, "installs": 1, "name": "Creator Video Resizer", "ownerName": "leooooooow", "score": 88571.42857142857, "slug": "creator-video-resizer", "source": "clawhub", "stars": 0, "tags": null, "updated_at": 1776698084707, "version": "1.0.0"}, {"category": "", "created_at": 1774859373149, "description": "Browser automation CLI for AI agents. Use when the user needs to interact with websites, including navigating pages, filling forms, clicking buttons, taking...", "description_zh": "", "downloads": 31, "homepage": "https://clawhub.ai/handongpu16/my-browser-bot", "iconUrl": null, "installs": 1, "name": "my-browser-bot", "ownerName": "handongpu16", "score": 88571.42857142857, "slug": "my-browser-bot", "source": "clawhub", "stars": 0, "tags": null, "updated_at": 1776698084701, "version": "1.0.4"}, {"category": "", "created_at": 1774863022629, "description": "Reference tool for devtools — covers intro, quickstart, patterns and more. Quick lookup for Regex Builder concepts, best practices, and implementation patterns.", "description_zh": "", "downloads": 31, "homepage": "https://clawhub.ai/bytesagain3/regex-builder", "iconUrl": null, "installs": 0, "name": "Regex Builder", "ownerName": "bytesagain3", "score": 88571.42857142857, "slug": "regex-builder", "source": "clawhub", "stars": 0, "tags": null, "updated_at": 1776698084689, "version": "2.0.2"}]}