{"page": 469, "total_pages": 522, "total": 26073, "skills": [{"category": "", "created_at": 1774855299655, "description": "RSpec testing standards and best practices for Rails applications. Use when writing new tests, reviewing test quality, debugging factory errors, setting up F...", "description_zh": "", "downloads": 31, "homepage": "https://clawhub.ai/djc00p/rails-tdd-standards", "iconUrl": null, "installs": 2, "name": "Rails TDD Standards", "ownerName": "djc00p", "score": 88571.42857142857, "slug": "rails-tdd-standards", "source": "clawhub", "stars": 0, "tags": null, "updated_at": 1776698084688, "version": "1.0.1"}, {"category": "", "created_at": 1774864595831, "description": "Predict which early-stage biotechnology platforms (PROTAC, mRNA, gene editing, etc.) have the highest potential to become blockbuster therapies. Analyzes cli...", "description_zh": "", "downloads": 31, "homepage": "https://clawhub.ai/aipoch-ai/blockbuster-therapy-predictor", "iconUrl": null, "installs": 2, "name": "Blockbuster Therapy Predictor", "ownerName": "aipoch-ai", "score": 88571.42857142857, "slug": "blockbuster-therapy-predictor", "source": "clawhub", "stars": 0, "tags": null, "updated_at": 1776698084686, "version": "0.1.0"}, {"category": "", "created_at": 1774948257378, "description": "Benchmark Email integration. Manage data, records, and automate workflows. Use when the user wants to interact with Benchmark Email data.", "description_zh": "", "downloads": 31, "homepage": "https://clawhub.ai/membranedev/benchmark-email", "iconUrl": null, "installs": 0, "name": "Benchmark Email", "ownerName": "membranedev", "score": 88571.42857142857, "slug": "benchmark-email", "source": "clawhub", "stars": 0, "tags": null, "updated_at": 1776698084683, "version": "1.0.0"}, {"category": "", "created_at": 1774951030152, "description": "Search, download, and explore arXiv academic papers. Use when the user needs to find research papers, download PDFs, get recent publications in a field, or s...", "description_zh": "", "downloads": 31, "homepage": "https://clawhub.ai/xunuowu/arxiv-explorer", "iconUrl": null, "installs": 3, "name": "arXiv Explorer", "ownerName": "xunuowu", "score": 88571.42857142857, "slug": "arxiv-explorer", "source": "clawhub", "stars": 0, "tags": ["academic", "arxiv", "papers", "research", "science"], "updated_at": 1776698084681, "version": "1.0.1"}, {"category": "", "created_at": 1774912432518, "description": "Search the public Internet with YouMind Search. Combines multiple high-quality providers with YouMind ranking and filtering for better results than using one...", "description_zh": "", "downloads": 31, "homepage": "https://clawhub.ai/p697/youmind-search", "iconUrl": null, "installs": 3, "name": "YouMind Search", "ownerName": "p697", "score": 88571.42857142857, "slug": "youmind-search", "source": "clawhub", "stars": 0, "tags": null, "updated_at": 1776698084676, "version": "2.0.3"}, {"category": "", "created_at": 1774834562889, "description": "Access Hedy meeting data: sessions, transcripts, highlights, todos, topics, contexts, and webhooks via the Hedy REST API.", "description_zh": "", "downloads": 31, "homepage": "https://clawhub.ai/julianpscheid/hedy", "iconUrl": null, "installs": 0, "name": "Hedy", "ownerName": "julianpscheid", "score": 88571.42857142857, "slug": "hedy", "source": "clawhub", "stars": 0, "tags": null, "updated_at": 1776698084663, "version": "1.1.0"}, {"category": "", "created_at": 1774910622459, "description": "Guide an OpenClaw agent's owner through joining a shared Discord server for multi-bot collaboration. Activate when: the agent receives an invitation to join...", "description_zh": "", "downloads": 31, "homepage": "https://clawhub.ai/peandrover/discord-onboarding", "iconUrl": null, "installs": 0, "name": "Discord Onboarding", "ownerName": "peandrover", "score": 88571.42857142857, "slug": "discord-onboarding", "source": "clawhub", "stars": 0, "tags": null, "updated_at": 1776698084656, "version": "1.0.0"}, {"category": "", "created_at": 1774903400265, "description": "Search, brief, and monitor 대한민국 Naver News via the Naver Search API using natural-language Korean queries. Use when the user wants 네이버 뉴스 브리핑, 최근 N일 뉴스 요약, 제...", "description_zh": "", "downloads": 31, "homepage": "https://clawhub.ai/twbeatles/naver-news-briefing", "iconUrl": null, "installs": 1, "name": "Naver News Briefing", "ownerName": "twbeatles", "score": 96875, "slug": "naver-news-briefing", "source": "clawhub", "stars": 0, "tags": null, "updated_at": 1776698084649, "version": "1.3.0"}, {"category": "", "created_at": 1774856037548, "description": "Use LemonSuk for agent registration, claim-status checks, source-backed claim submission, market discovery, agent-only betting, and market discussion. LemonS...", "description_zh": "", "downloads": 31, "homepage": "https://clawhub.ai/oldeucryptoboi/lemonsuk", "iconUrl": null, "installs": 0, "name": "LemonSuk", "ownerName": "oldeucryptoboi", "score": 96875, "slug": "lemonsuk", "source": "clawhub", "stars": 0, "tags": null, "updated_at": 1776698084644, "version": "2.0.3"}, {"category": "", "created_at": 1774880936499, "description": "Guide users through creating a Stripe account, configuring products/prices, and scaffolding the appsettings.json for any .NET 9 project. Explain how to manua...", "description_zh": "", "downloads": 31, "homepage": "https://clawhub.ai/macmerg/stripe-blazor-server", "iconUrl": null, "installs": 0, "name": "Stripe for .net projects", "ownerName": "macmerg", "score": 96875, "slug": "stripe-blazor-server", "source": "clawhub", "stars": 0, "tags": null, "updated_at": 1776698084633, "version": "1.0.5"}, {"category": "", "created_at": 1774911970483, "description": "Integrates with MissionClaw for project management and AI agent orchestration. Use when the user wants to create projects, manage tasks via Kanban, assign wo...", "description_zh": "", "downloads": 31, "homepage": "https://clawhub.ai/sureshchitmil/missionclaw", "iconUrl": null, "installs": 0, "name": "Missionclaw", "ownerName": "sureshchitmil", "score": 96875, "slug": "missionclaw", "source": "clawhub", "stars": 0, "tags": ["ai-agents", "openclaw", "project-management"], "updated_at": 1776698084630, "version": "1.6.0"}, {"category": "", "created_at": 1774862849680, "description": "Use this skill when users ask for news updates, daily briefings, or what's happening in the world. Fetches news from reliable international and Chinese RSS f...", "description_zh": "", "downloads": 31, "homepage": "https://clawhub.ai/openlark/news-express", "iconUrl": null, "installs": 1, "name": "News Express", "ownerName": "openlark", "score": 96875, "slug": "news-express", "source": "clawhub", "stars": 0, "tags": null, "updated_at": 1776698084616, "version": "1.0.3"}, {"category": "", "created_at": 1774948716256, "description": "Modern Treasury integration. Manage Organizations. Use when the user wants to interact with Modern Treasury data.", "description_zh": "", "downloads": 31, "homepage": "https://clawhub.ai/gora050/modern-treasury", "iconUrl": null, "installs": 0, "name": "Modern Treasury", "ownerName": "gora050", "score": 96875, "slug": "modern-treasury", "source": "clawhub", "stars": 0, "tags": null, "updated_at": 1776698084607, "version": "1.0.0"}, {"category": "", "created_at": 1774915475969, "description": "Generate and optimize clinical trial subject inclusion/exclusion criteria to balance scientific rigor with recruitment feasibility. Trigger when users need t...", "description_zh": "", "downloads": 31, "homepage": "https://clawhub.ai/aipoch-ai/inclusion-criteria-gen", "iconUrl": null, "installs": 2, "name": "Inclusion Criteria Gen", "ownerName": "aipoch-ai", "score": 96875, "slug": "inclusion-criteria-gen", "source": "clawhub", "stars": 0, "tags": null, "updated_at": 1776698084595, "version": "1.0.0"}, {"category": "", "created_at": 1774895180948, "description": "New Sloth integration. Manage Organizations. Use when the user wants to interact with New Sloth data.", "description_zh": "", "downloads": 31, "homepage": "https://clawhub.ai/gora050/new-sloth", "iconUrl": null, "installs": 1, "name": "New Sloth", "ownerName": "gora050", "score": 96875, "slug": "new-sloth", "source": "clawhub", "stars": 0, "tags": null, "updated_at": 1776698084578, "version": "1.0.0"}, {"category": "", "created_at": 1774949005435, "description": "Converts any YouTube video into a fully formatted, SEO-optimised blog post using the video transcript. Handles auto-generated and manual captions. Outputs a...", "description_zh": "", "downloads": 31, "homepage": "https://clawhub.ai/tetsuakira-vk/youtube-to-blog", "iconUrl": null, "installs": 3, "name": "YouTube To Blog", "ownerName": "tetsuakira-vk", "score": 96875, "slug": "youtube-to-blog", "source": "clawhub", "stars": 0, "tags": null, "updated_at": 1776698084566, "version": "1.0.0"}, {"category": "", "created_at": 1774891031034, "description": "Install and configure a custom Claude Code status line showing real-time token usage, context window percentage, git branch, and color-coded warnings. Use wh...", "description_zh": "", "downloads": 31, "homepage": "https://clawhub.ai/ajitsingh25/claude-code-statusline", "iconUrl": null, "installs": 2, "name": "Claude Code Statusline", "ownerName": "ajitsingh25", "score": 96875, "slug": "claude-code-statusline", "source": "clawhub", "stars": 0, "tags": null, "updated_at": 1776698084550, "version": "1.0.0"}, {"category": "", "created_at": 1774907592221, "description": "Get real-time stock, ETF, and crypto prices. Compare tickers, check market cap and volume. Uses Yahoo Finance — no API key required.", "description_zh": "", "downloads": 31, "homepage": "https://clawhub.ai/josephflu/eagerbots-stock-quote", "iconUrl": null, "installs": 1, "name": "Stock Quote", "ownerName": "josephflu", "score": 96875, "slug": "eagerbots-stock-quote", "source": "clawhub", "stars": 0, "tags": null, "updated_at": 1776698084530, "version": "1.0.0"}, {"category": "", "created_at": 1774873631091, "description": "When the user wants to add, optimize, or audit breadcrumb navigation. Also use when the user mentions \"breadcrumbs,\" \"breadcrumb trail,\" \"breadcrumb nav,\" \"b...", "description_zh": "", "downloads": 31, "homepage": "https://clawhub.ai/kostja94/breadcrumb-generator", "iconUrl": null, "installs": 1, "name": "breadcrumb-generator", "ownerName": "kostja94", "score": 96875, "slug": "breadcrumb-generator", "source": "clawhub", "stars": 0, "tags": null, "updated_at": 1776698084527, "version": "1.1.0"}, {"category": "", "created_at": 1774919670229, "description": "Csp reference tool. Use when working with csp in devtools contexts.", "description_zh": "", "downloads": 31, "homepage": "https://clawhub.ai/xueyetianya/csp", "iconUrl": null, "installs": 0, "name": "Csp", "ownerName": "xueyetianya", "score": 96875, "slug": "csp", "source": "clawhub", "stars": 0, "tags": null, "updated_at": 1776698084521, "version": "1.0.0"}, {"category": "", "created_at": 1774862862626, "description": "Reference tool for devtools — covers intro, quickstart, patterns and more. Quick lookup for Omni Tools concepts, best practices, and implementation patterns.", "description_zh": "", "downloads": 31, "homepage": "https://clawhub.ai/ckchzh/omni-tools", "iconUrl": null, "installs": 0, "name": "Omni Tools", "ownerName": "ckchzh", "score": 96875, "slug": "omni-tools", "source": "clawhub", "stars": 0, "tags": null, "updated_at": 1776698084512, "version": "2.0.2"}, {"category": "", "created_at": 1774873722605, "description": "Reference tool for devtools — covers intro, quickstart, patterns and more. Quick lookup for Conduit concepts, best practices, and implementation patterns.", "description_zh": "", "downloads": 31, "homepage": "https://clawhub.ai/ckchzh/conduit", "iconUrl": null, "installs": 0, "name": "Conduit", "ownerName": "ckchzh", "score": 96875, "slug": "conduit", "source": "clawhub", "stars": 0, "tags": null, "updated_at": 1776698084507, "version": "2.0.2"}, {"category": "", "created_at": 1774875868244, "description": "Fetch and analyze content from one or more URLs using AI (Gemini 2.5 Flash). Use when you have specific URLs and need to extract or summarize their content....", "description_zh": "", "downloads": 31, "homepage": "https://clawhub.ai/nansen-devops/nansen-web-fetcher", "iconUrl": null, "installs": 1, "name": "Nansen Web Fetcher", "ownerName": "nansen-devops", "score": 96875, "slug": "nansen-web-fetcher", "source": "clawhub", "stars": 0, "tags": null, "updated_at": 1776698084502, "version": "0.1.0"}, {"category": "", "created_at": 1774866819429, "description": "FFBox multimedia transcoding tool integration. FFmpeg-based GUI for video/audio/image format conversion, compression, filtering, batch media processing with...", "description_zh": "", "downloads": 31, "homepage": "https://clawhub.ai/ttqftech/ffbox", "iconUrl": null, "installs": 0, "name": "FFBox", "ownerName": "ttqftech", "score": 96875, "slug": "ffbox", "source": "clawhub", "stars": 0, "tags": ["alpha"], "updated_at": 1776698084495, "version": "0.1.5-3-003"}, {"category": "", "created_at": 1774915234029, "description": "DocsBot AI integration. Manage Documents, ChatSessions, Users, Workspaces. Use when the user wants to interact with DocsBot AI data.", "description_zh": "", "downloads": 31, "homepage": "https://clawhub.ai/gora050/docsbot-ai", "iconUrl": null, "installs": 0, "name": "Docsbot Ai", "ownerName": "gora050", "score": 96875, "slug": "docsbot-ai", "source": "clawhub", "stars": 0, "tags": null, "updated_at": 1776698084488, "version": "1.0.0"}, {"category": "", "created_at": 1774914864604, "description": "Turns a single idea, article, or URL into a high-engagement Twitter/X thread with a hook, numbered tweets, and a strong CTA.", "description_zh": "", "downloads": 31, "homepage": "https://clawhub.ai/tetsuakira-vk/viral-thread-writer", "iconUrl": null, "installs": 0, "name": "Viral Thread Writer", "ownerName": "tetsuakira-vk", "score": 96875, "slug": "viral-thread-writer", "source": "clawhub", "stars": 0, "tags": null, "updated_at": 1776698084487, "version": "1.0.1"}, {"category": "", "created_at": 1774866165279, "description": "Reference tool for devtools — covers intro, quickstart, patterns and more. Quick lookup for Page Saver concepts, best practices, and implementation patterns.", "description_zh": "", "downloads": 31, "homepage": "https://clawhub.ai/bytesagain3/page-saver", "iconUrl": null, "installs": 0, "name": "Page Saver", "ownerName": "bytesagain3", "score": 96875, "slug": "page-saver", "source": "clawhub", "stars": 0, "tags": null, "updated_at": 1776698084476, "version": "2.0.2"}, {"category": "", "created_at": 1774921426275, "description": "Deep idempotency workflow—identifying retry surfaces, idempotency keys, storage and TTL, exactly-once pitfalls, and testing duplicate delivery. Use when desi...", "description_zh": "", "downloads": 31, "homepage": "https://clawhub.ai/codenova58/idempotency", "iconUrl": null, "installs": 0, "name": "Idempotency", "ownerName": "codenova58", "score": 96875, "slug": "idempotency", "source": "clawhub", "stars": 0, "tags": null, "updated_at": 1776698084463, "version": "1.0.0"}, {"category": "", "created_at": 1774922894425, "description": "Turn a rough product idea into a practical money-making launch pack. Use when the user wants to validate an idea, find a niche, design an MVP, set pricing, w...", "description_zh": "", "downloads": 31, "homepage": "https://clawhub.ai/orime/micro-saas-launchpack", "iconUrl": null, "installs": 2, "name": "Micro SaaS Launch Pack", "ownerName": "orime", "score": 96875, "slug": "micro-saas-launchpack", "source": "clawhub", "stars": 0, "tags": ["business", "launch", "productivity", "saas"], "updated_at": 1776698084462, "version": "1.0.0"}, {"category": "", "created_at": 1774926456288, "description": "WhatsApp Business API integration with managed OAuth. Send messages, manage templates, and handle conversations. Use this skill when users want to interact w...", "description_zh": "", "downloads": 31, "homepage": "https://clawhub.ai/raidan-ai/whatsapp-business-1-0-3", "iconUrl": null, "installs": 3, "name": "Whatsapp Business 1.0.3", "ownerName": "raidan-ai", "score": 96875, "slug": "whatsapp-business-1-0-3", "source": "clawhub", "stars": 0, "tags": null, "updated_at": 1776698084451, "version": "1.0.0"}, {"category": "", "created_at": 1774879151408, "description": "Generate stable or random image placeholder URLs (and optionally download them) using https://picsum.photos. Use when the user mentions picsum, placeholder i...", "description_zh": "", "downloads": 31, "homepage": "https://clawhub.ai/hicoldcat/random-image-placeholder", "iconUrl": null, "installs": 0, "name": "Random Image Placeholder", "ownerName": "hicoldcat", "score": 96875, "slug": "random-image-placeholder", "source": "clawhub", "stars": 0, "tags": null, "updated_at": 1776698084440, "version": "0.1.1"}, {"category": "", "created_at": 1774871650482, "description": "Generate, audit, and maintain a PROJECT-NARRATIVE.md file — a single-source-of-truth document that captures your entire project's architecture, decisions, in...", "description_zh": "", "downloads": 31, "homepage": "https://clawhub.ai/tcd004/project-narrator", "iconUrl": null, "installs": 1, "name": "Project Narrator", "ownerName": "tcd004", "score": 96875, "slug": "project-narrator", "source": "clawhub", "stars": 0, "tags": null, "updated_at": 1776698084439, "version": "1.1.0"}, {"category": "", "created_at": 1774859422950, "description": "Google Calendar via gcalcli: today-only agenda by default, bounded meaning-first lookup via agenda scans, and fast create/delete with verification--optimized...", "description_zh": "", "downloads": 31, "homepage": "https://clawhub.ai/onsra520/quick-gcalcli", "iconUrl": null, "installs": 1, "name": "Quick Google Calendar Command Line Interface", "ownerName": "onsra520", "score": 96875, "slug": "quick-gcalcli", "source": "clawhub", "stars": 0, "tags": null, "updated_at": 1776698084428, "version": "1.0.2"}, {"category": "", "created_at": 1774827180396, "description": "Delegate precise, formalizable computations and factual lookups to Wolfram|Alpha via its LLM API (HTTP) to get verified results and reduce arithmetic/modelin...", "description_zh": "", "downloads": 31, "homepage": "https://clawhub.ai/firefrog-pepe/wolfram-alpha-llm", "iconUrl": null, "installs": 3, "name": "Wolfram Alpha (LLM API)", "ownerName": "firefrog-pepe", "score": 96875, "slug": "wolfram-alpha-llm", "source": "clawhub", "stars": 0, "tags": null, "updated_at": 1776698084424, "version": "0.1.0"}, {"category": "", "created_at": 1774917537167, "description": "Turn show-floor competitor notes into tagged intel your team can act on.", "description_zh": "", "downloads": 31, "homepage": "https://clawhub.ai/weilun88313/trade-show-competitor-radar", "iconUrl": null, "installs": 3, "name": "Trade Show Competitor Radar", "ownerName": "weilun88313", "score": 96875, "slug": "trade-show-competitor-radar", "source": "clawhub", "stars": 0, "tags": null, "updated_at": 1776698084420, "version": "1.0.2"}, {"category": "", "created_at": 1774923137320, "description": "Hotel search and pricing via the RollingGo CLI. Use when the user wants to search hotels by destination, filter by date/star/budget/tags/distance, inspect ho...", "description_zh": "", "downloads": 31, "homepage": "https://clawhub.ai/dreamtzlong/rollinggo-searchhotel", "iconUrl": null, "installs": 0, "name": "rollinggo-searchhotel", "ownerName": "dreamtzlong", "score": 96875, "slug": "rollinggo-searchhotel", "source": "clawhub", "stars": 0, "tags": null, "updated_at": 1776698084415, "version": "1.0.2"}, {"category": "", "created_at": 1774901750361, "description": "Adalo integration. Manage data, records, and automate workflows. Use when the user wants to interact with Adalo data.", "description_zh": "", "downloads": 31, "homepage": "https://clawhub.ai/gora050/adalo", "iconUrl": null, "installs": 0, "name": "Adalo", "ownerName": "gora050", "score": 96875, "slug": "adalo", "source": "clawhub", "stars": 0, "tags": null, "updated_at": 1776698084413, "version": "1.0.0"}, {"category": "", "created_at": 1774913289327, "description": "Full automated memory pipeline for OpenClaw agents. Scribe session transcripts into structured daily memory files, ingest them into Supermemory for semantic...", "description_zh": "", "downloads": 31, "homepage": "https://clawhub.ai/kitsune/synthetic-supermemory", "iconUrl": null, "installs": 0, "name": "Synthetic Supermemory", "ownerName": "kitsune", "score": 96875, "slug": "synthetic-supermemory", "source": "clawhub", "stars": 0, "tags": null, "updated_at": 1776698084388, "version": "2.1.0"}, {"category": "", "created_at": 1774847250828, "description": "Turn ecommerce reviews and objections into practical FAQ drafts for product pages and support surfaces. Use when teams want clearer answers built from real c...", "description_zh": "", "downloads": 31, "homepage": "https://clawhub.ai/leooooooow/faq-generator-from-reviews", "iconUrl": null, "installs": 0, "name": "FAQ Generator From Reviews", "ownerName": "leooooooow", "score": 96875, "slug": "faq-generator-from-reviews", "source": "clawhub", "stars": 0, "tags": null, "updated_at": 1776698084377, "version": "1.0.0"}, {"category": "", "created_at": 1774910676666, "description": "Feel awe as the dark water awakens with living stars, turning each ripple into a poem of light. Glide through Norway’s hidden fjord, capturing the gentle glo...", "description_zh": "", "downloads": 31, "homepage": "https://clawhub.ai/driftsbot/experience-ghost-light-fjord", "iconUrl": null, "installs": 1, "name": "Experience Ghost Light Fjord", "ownerName": "driftsbot", "score": 96875, "slug": "experience-ghost-light-fjord", "source": "clawhub", "stars": 0, "tags": null, "updated_at": 1776698084368, "version": "1.0.0"}, {"category": "", "created_at": 1774867921609, "description": "Family meal planning tool that provides weekly menu planning, nutrition analysis, shopping list generation, ingredient management, and recipe recommendations...", "description_zh": "", "downloads": 31, "homepage": "https://clawhub.ai/harrylabsj/home-food-planner", "iconUrl": null, "installs": 0, "name": "Home Food Planner", "ownerName": "harrylabsj", "score": 96875, "slug": "home-food-planner", "source": "clawhub", "stars": 0, "tags": null, "updated_at": 1776698084364, "version": "1.0.0"}, {"category": "", "created_at": 1774844341423, "description": "Multi-context memory management system for OpenClaw agents with group-isolated storage, global shared memory, workspace organization, and group-specific skil...", "description_zh": "", "downloads": 31, "homepage": "https://clawhub.ai/wxwzl/files-memory-system", "iconUrl": null, "installs": 2, "name": "Files Memory System", "ownerName": "wxwzl", "score": 96875, "slug": "files-memory-system", "source": "clawhub", "stars": 0, "tags": null, "updated_at": 1776698084341, "version": "1.15.8"}, {"category": "", "created_at": 1774852470161, "description": "Query and manage marketing data across 40+ platforms — Google Analytics, Google Ads, Facebook Ads, Instagram, Shopify, HubSpot, Klaviyo, TikTok, LinkedIn, an...", "description_zh": "", "downloads": 31, "homepage": "https://clawhub.ai/insightfulpipe/insightfulpipe", "iconUrl": null, "installs": 0, "name": "Insightful Pipe", "ownerName": "insightfulpipe", "score": 96875, "slug": "insightfulpipe", "source": "clawhub", "stars": 0, "tags": ["ads", "analytics", "ecommerce", "marketing", "mcp", "seo", "social-media"], "updated_at": 1776698084332, "version": "0.1.3"}, {"category": "", "created_at": 1774828075843, "description": "The first AI sidekick built for ADHD minds. A fully configured OpenClaw agent pack with 15 skills, 6 knowledge files, and 3 personas — covering everything an...", "description_zh": "", "downloads": 31, "homepage": "https://clawhub.ai/mttbond-byte/brainhack-adhd-sidekick", "iconUrl": null, "installs": 2, "name": "Brainhack — ADHD Sidekick", "ownerName": "mttbond-byte", "score": 96875, "slug": "brainhack-adhd-sidekick", "source": "clawhub", "stars": 0, "tags": null, "updated_at": 1776698084329, "version": "1.0.0"}, {"category": "", "created_at": 1774915087275, "description": "Recommend the right tools, APIs, and OpenClaw skills for building an autonomous betting agent. Assesses user goals (sports betting, prediction markets, or hy...", "description_zh": "", "downloads": 31, "homepage": "https://clawhub.ai/rsquaredsolutions2026/agent-betting-stack-advisor", "iconUrl": null, "installs": 2, "name": "Agent Betting Stack Advisor", "ownerName": "rsquaredsolutions2026", "score": 96875, "slug": "agent-betting-stack-advisor", "source": "clawhub", "stars": 0, "tags": ["agentbets", "betting", "openclaw", "prediction-markets", "sports-betting"], "updated_at": 1776698084327, "version": "1.1.0"}, {"category": "", "created_at": 1774918066252, "description": "Master the art of flirting with this AI flirt coach. Learn playful banter, teasing techniques, push-pull texting, and how to build romantic tension naturally...", "description_zh": "", "downloads": 31, "homepage": "https://clawhub.ai/imwyvern/flirting-coach", "iconUrl": null, "installs": 1, "name": "Flirt Coach Skill", "ownerName": "imwyvern", "score": 96875, "slug": "flirting-coach", "source": "clawhub", "stars": 0, "tags": null, "updated_at": 1776698084322, "version": "1.0.0"}, {"category": "", "created_at": 1774884333382, "description": "Free keyword research using Google PAA, Autocomplete, Reddit discussions, and Bing. No paid API needed.", "description_zh": "", "downloads": 31, "homepage": "https://clawhub.ai/lal24886695/free-keyword-miner", "iconUrl": null, "installs": 0, "name": "Free Keyword Miner", "ownerName": "lal24886695", "score": 96875, "slug": "free-keyword-miner", "source": "clawhub", "stars": 0, "tags": null, "updated_at": 1776698084319, "version": "1.0.0"}, {"category": "", "created_at": 1774873813930, "description": "Query Discord guild members, list bots, get channel and role info via REST API. Use when: listing server members, checking who's a bot, viewing channel permi...", "description_zh": "", "downloads": 31, "homepage": "https://clawhub.ai/wehub4me/discord-roster", "iconUrl": null, "installs": 0, "name": "Discord Roster", "ownerName": "wehub4me", "score": 96875, "slug": "discord-roster", "source": "clawhub", "stars": 0, "tags": null, "updated_at": 1776698084301, "version": "1.0.2"}, {"category": "", "created_at": 1774880428212, "description": "Generate high-quality 3D human and humanoid robot motions using Kimodo, a kinematic motion diffusion model controlled via text prompts and kinematic constrai...", "description_zh": "", "downloads": 31, "homepage": "https://clawhub.ai/adisinghstudent/kimodo-motion-diffusion", "iconUrl": null, "installs": 2, "name": "kimodo-motion-diffusion", "ownerName": "adisinghstudent", "score": 96875, "slug": "kimodo-motion-diffusion", "source": "clawhub", "stars": 0, "tags": null, "updated_at": 1776698084300, "version": "1.0.0"}, {"category": "", "created_at": 1774896185418, "description": "OpenClaw plugin that scrubs private infrastructure details from outgoing messages. Regex-based redaction of RFC 1918 IPs, localhost ports, SSH targets, and h...", "description_zh": "", "downloads": 31, "homepage": "https://clawhub.ai/solomonneas/content-scrubber", "iconUrl": null, "installs": 1, "name": "Content Scrubber", "ownerName": "solomonneas", "score": 96875, "slug": "content-scrubber", "source": "clawhub", "stars": 0, "tags": null, "updated_at": 1776698084298, "version": "1.0.0"}]}