{"page": 470, "total_pages": 522, "total": 26073, "skills": [{"category": "", "created_at": 1774876701261, "description": "Plan meals, manage recipes, and build grocery lists with AI through natural language conversation.", "description_zh": "", "downloads": 31, "homepage": "https://clawhub.ai/rooster-cogburn77/mealmastery", "iconUrl": null, "installs": 2, "name": "Mealmastery", "ownerName": "rooster-cogburn77", "score": 96875, "slug": "mealmastery", "source": "clawhub", "stars": 0, "tags": ["cooking", "diet", "food", "grocery", "instacart", "kroger", "meal generation", "meal-planning", "meal-prep", "nutrition", "recipes", "shopping-list", "weekly-planner"], "updated_at": 1776698084296, "version": "1.0.1"}, {"category": "", "created_at": 1774902828408, "description": "Generate PPT with Baidu AI. Smart template selection based on content.", "description_zh": "", "downloads": 31, "homepage": "https://clawhub.ai/tigertamvip/ai-ppt-generator-1", "iconUrl": null, "installs": 2, "name": "Ai Ppt Generator 1", "ownerName": "tigertamvip", "score": 96875, "slug": "ai-ppt-generator-1", "source": "clawhub", "stars": 0, "tags": null, "updated_at": 1776698084293, "version": "1.0.0"}, {"category": "", "created_at": 1774864034199, "description": "Apply AI-powered age transformation filters to images using Media.io OpenAPI. Accurately renders younger or older versions of faces. AI age filter, age progr...", "description_zh": "", "downloads": 31, "homepage": "https://clawhub.ai/wondershare-boop/mediaio-ai-age-filter", "iconUrl": null, "installs": 0, "name": "AI Age Filter", "ownerName": "wondershare-boop", "score": 96875, "slug": "mediaio-ai-age-filter", "source": "clawhub", "stars": 0, "tags": null, "updated_at": 1776698084290, "version": "1.0.1"}, {"category": "", "created_at": 1774883863494, "description": "Save and organize web articles as bookmarks with AI summaries and auto-tagging. Use when the user wants to bookmark or collect articles.", "description_zh": "", "downloads": 31, "homepage": "https://clawhub.ai/chliny/article-bookmarker", "iconUrl": null, "installs": 0, "name": "article-bookmarker", "ownerName": "chliny", "score": 96875, "slug": "article-bookmarker", "source": "clawhub", "stars": 0, "tags": null, "updated_at": 1776698084278, "version": "0.1.2"}, {"category": "", "created_at": 1774866315911, "description": "terms", "description_zh": "", "downloads": 31, "homepage": "https://clawhub.ai/ckchzh/terms", "iconUrl": null, "installs": 0, "name": "Terms", "ownerName": "ckchzh", "score": 96875, "slug": "terms", "source": "clawhub", "stars": 0, "tags": null, "updated_at": 1776698084270, "version": "2.0.2"}, {"category": "", "created_at": 1774901996296, "description": "Creator Performance Audit for creators, ecommerce teams, and operators. Use when you need help with creator performance analysis for commerce teams.", "description_zh": "", "downloads": 31, "homepage": "https://clawhub.ai/leooooooow/creator-performance-audit", "iconUrl": null, "installs": 0, "name": "Creator Performance Audit", "ownerName": "leooooooow", "score": 96875, "slug": "creator-performance-audit", "source": "clawhub", "stars": 0, "tags": null, "updated_at": 1776698084266, "version": "1.0.0"}, {"category": "", "created_at": 1774885602848, "description": "A curated list of practical financial machine learning tools and applications. financial machine learning, python, algorithmic-trading, cryptocurrency.", "description_zh": "", "downloads": 31, "homepage": "https://clawhub.ai/bytesagain1/finml-toolkit", "iconUrl": null, "installs": 2, "name": "Finml Toolkit", "ownerName": "bytesagain1", "score": 96875, "slug": "finml-toolkit", "source": "clawhub", "stars": 0, "tags": null, "updated_at": 1776698084260, "version": "1.0.0"}, {"category": "", "created_at": 1774853580004, "description": "Operate DefiLlama public yield APIs through UXC with a curated OpenAPI schema and read-first guardrails.", "description_zh": "", "downloads": 31, "homepage": "https://clawhub.ai/jolestar/defillama-yields-openapi-skill", "iconUrl": null, "installs": 0, "name": "DefiLlama Yields OpenAPI Skill", "ownerName": "jolestar", "score": 96875, "slug": "defillama-yields-openapi-skill", "source": "clawhub", "stars": 0, "tags": null, "updated_at": 1776698084253, "version": "1.0.0"}, {"category": "", "created_at": 1774865717607, "description": "Free email for AI agents. No sign-up needed. One call to get a mailbox and send.", "description_zh": "", "downloads": 31, "homepage": "https://clawhub.ai/huberthe-pro/agentsmail", "iconUrl": null, "installs": 0, "name": "Agents Mail — Free Email for AI Agents, with No sign-up, No API key needed", "ownerName": "huberthe-pro", "score": 96875, "slug": "agentsmail", "source": "clawhub", "stars": 0, "tags": ["ai-agent", "chinese", "communication", "email", "free"], "updated_at": 1776698084243, "version": "0.4.6"}, {"category": "", "created_at": 1774952749260, "description": "Your agent forgets everything after compaction? This fixes it. Built by the AI Advantage community — the world's leading AI learning platform (aiadvantage.ai...", "description_zh": "", "downloads": 31, "homepage": "https://clawhub.ai/moltbotmolty-del/chat-memory", "iconUrl": null, "installs": 0, "name": "Chat Memory", "ownerName": "moltbotmolty-del", "score": 96875, "slug": "chat-memory", "source": "clawhub", "stars": 0, "tags": null, "updated_at": 1776698084225, "version": "1.0.0"}, {"category": "", "created_at": 1774841980103, "description": "A skill that actively extracts and quantifies workflow requirements from users through structured Q&A about inputs, outputs, and objectives. Build reusable s...", "description_zh": "", "downloads": 31, "homepage": "https://clawhub.ai/spa3k/cowhorse-skill", "iconUrl": null, "installs": 1, "name": "Cowhorse Skill", "ownerName": "spa3k", "score": 96875, "slug": "cowhorse-skill", "source": "clawhub", "stars": 0, "tags": null, "updated_at": 1776698084220, "version": "1.0.0"}, {"category": "", "created_at": 1774869171027, "description": "Python SDK for Agent AI Observability, Monitoring and Evaluation Framework. Includes features like a ragaai catalyst, python, agentic-ai.", "description_zh": "", "downloads": 31, "homepage": "https://clawhub.ai/bytesagain1/rag-evaluator", "iconUrl": null, "installs": 1, "name": "Rag Evaluator", "ownerName": "bytesagain1", "score": 96875, "slug": "rag-evaluator", "source": "clawhub", "stars": 0, "tags": null, "updated_at": 1776698084218, "version": "2.0.0"}, {"category": "", "created_at": 1774904687487, "description": "ProxyGate CLI — the Stripe for AI Agents. Use this skill whenever the user mentions ProxyGate, proxy requests, API marketplace, USDC payments, Solana wallet,...", "description_zh": "", "downloads": 31, "homepage": "https://clawhub.ai/jwelten/proxygate", "iconUrl": null, "installs": 0, "name": "Proxygate", "ownerName": "jwelten", "score": 96875, "slug": "proxygate", "source": "clawhub", "stars": 0, "tags": null, "updated_at": 1776698084206, "version": "0.2.1"}, {"category": "", "created_at": 1774923667379, "description": "Fetch arXiv papers for a target date in cs.CV, screen them against a user topic, save logs under a user-chosen output directory, download matched PDFs, and s...", "description_zh": "", "downloads": 31, "homepage": "https://clawhub.ai/harrytea/arxiv-cv-daily", "iconUrl": null, "installs": 1, "name": "arxiv-cv-daily", "ownerName": "harrytea", "score": 96875, "slug": "arxiv-cv-daily", "source": "clawhub", "stars": 0, "tags": null, "updated_at": 1776698084204, "version": "1.0.0"}, {"category": "", "created_at": 1774950393214, "description": "Feel awe and urgent rebirth as crimson wildflowers burst across Jordan's Wadi Rum, turning sand into fleeting color. Wander the blooming trails, sense thorns...", "description_zh": "", "downloads": 31, "homepage": "https://clawhub.ai/driftsbot/experience-jordan-bloom-fire", "iconUrl": null, "installs": 2, "name": "Experience Jordan Bloom Fire", "ownerName": "driftsbot", "score": 96875, "slug": "experience-jordan-bloom-fire", "source": "clawhub", "stars": 0, "tags": null, "updated_at": 1776698084189, "version": "1.0.0"}, {"category": "", "created_at": 1774889903009, "description": "Find wholesale buyers, retail buyers, importers, procurement targets, and volume-purchase opportunities for ecommerce and trade products. Use when the user w...", "description_zh": "", "downloads": 31, "homepage": "https://clawhub.ai/leooooooow/find-wholesale-buyers", "iconUrl": null, "installs": 3, "name": "Find Wholesale Buyers", "ownerName": "leooooooow", "score": 96875, "slug": "find-wholesale-buyers", "source": "clawhub", "stars": 0, "tags": null, "updated_at": 1776698084170, "version": "1.0.0"}, {"category": "", "created_at": 1774955748873, "description": "Use this skill when the user asks about Teamfight Tactics (TFT) — comps, items, augments, economy, pivoting, positioning, or any gameplay advice. Triggers: '...", "description_zh": "", "downloads": 31, "homepage": "https://clawhub.ai/kewang0622/tftcoach", "iconUrl": null, "installs": 1, "name": "tftcoach", "ownerName": "kewang0622", "score": 96875, "slug": "tftcoach", "source": "clawhub", "stars": 0, "tags": null, "updated_at": 1776698084168, "version": "1.0.0"}, {"category": "", "created_at": 1774914799151, "description": "Manage SL (Stockholm public transport) user preferences and fetch strictly relevant deviation information.", "description_zh": "", "downloads": 31, "homepage": "https://clawhub.ai/patello/sl-trafiklab-api", "iconUrl": null, "installs": 0, "name": "Stockholm Public Traffic Planner", "ownerName": "patello", "score": 96875, "slug": "sl-trafiklab-api", "source": "clawhub", "stars": 0, "tags": null, "updated_at": 1776698084166, "version": "1.0.0"}, {"category": "", "created_at": 1774909506947, "description": "Bifrost SLPx liquid staking via @bifrostio/slpx-cli: exchange rates, APY (with optional DeFiLlama LP pools), TVL, holders, protocol info; vETH balances, rede...", "description_zh": "", "downloads": 31, "homepage": "https://clawhub.ai/bifrost-io/bifrost-slpx", "iconUrl": null, "installs": 0, "name": "Bifrost Slpx skills", "ownerName": "bifrost-io", "score": 96875, "slug": "bifrost-slpx", "source": "clawhub", "stars": 0, "tags": null, "updated_at": 1776698084154, "version": "0.1.3"}, {"category": "", "created_at": 1774901108040, "description": "MeetingPulse integration. Manage Organizations. Use when the user wants to interact with MeetingPulse data.", "description_zh": "", "downloads": 31, "homepage": "https://clawhub.ai/gora050/meetingpulse", "iconUrl": null, "installs": 2, "name": "Meetingpulse", "ownerName": "gora050", "score": 96875, "slug": "meetingpulse", "source": "clawhub", "stars": 0, "tags": null, "updated_at": 1776698084144, "version": "1.0.0"}, {"category": "", "created_at": 1774897682579, "description": "Generates comprehensive astrological birth charts from personal birth data and supports multiple languages for cultural accessibility.", "description_zh": "", "downloads": 31, "homepage": "https://clawhub.ai/krishnakumarmahadevan-cmd/birth-chart", "iconUrl": null, "installs": 4, "name": "Birth Chart", "ownerName": "krishnakumarmahadevan-cmd", "score": 96875, "slug": "birth-chart", "source": "clawhub", "stars": 0, "tags": null, "updated_at": 1776698084141, "version": "1.0.0"}, {"category": "", "created_at": 1774915565178, "description": "Extract and recognize text from documents, including PDF and DOCX files.", "description_zh": "", "downloads": 31, "homepage": "https://clawhub.ai/fchange/moark-doc-extraction", "iconUrl": null, "installs": 0, "name": "Moark Doc Extraction", "ownerName": "fchange", "score": 96875, "slug": "moark-doc-extraction", "source": "clawhub", "stars": 0, "tags": null, "updated_at": 1776698084132, "version": "1.0.0"}, {"category": "", "created_at": 1774873292995, "description": "Get current weather and forecasts (no API key required).", "description_zh": "", "downloads": 31, "homepage": "https://clawhub.ai/litiao1224/weather-litiao", "iconUrl": null, "installs": 3, "name": "Weather Litiao", "ownerName": "litiao1224", "score": 96875, "slug": "weather-litiao", "source": "clawhub", "stars": 0, "tags": null, "updated_at": 1776698084127, "version": "1.0.0"}, {"category": "", "created_at": 1774862244368, "description": "Track, analyze, and manage music and audio files from the command line. Use when organizing playlists, converting formats, or analyzing metadata.", "description_zh": "", "downloads": 31, "homepage": "https://clawhub.ai/bytesagain3/beat", "iconUrl": null, "installs": 0, "name": "Beat", "ownerName": "bytesagain3", "score": 96875, "slug": "beat", "source": "clawhub", "stars": 0, "tags": null, "updated_at": 1776698084099, "version": "2.0.0"}, {"category": "", "created_at": 1774917574778, "description": "age file encryption reference — the modern, simple alternative to GPG. Covers key generation, X25519 encryption, SSH key support, passphrase mode, pipe patte...", "description_zh": "", "downloads": 31, "homepage": "https://clawhub.ai/ckchzh/age", "iconUrl": null, "installs": 1, "name": "Age", "ownerName": "ckchzh", "score": 96875, "slug": "age", "source": "clawhub", "stars": 0, "tags": null, "updated_at": 1776698084091, "version": "1.0.0"}, {"category": "", "created_at": 1774845136177, "description": "Run long-running, multi-step work in OpenClaw without losing it to resets: durable state, progress updates, smart 'continue this' recovery, verification befo...", "description_zh": "", "downloads": 31, "homepage": "https://clawhub.ai/wonko6x9/durable-task-runner", "iconUrl": null, "installs": 0, "name": "Durable Task Runner", "ownerName": "wonko6x9", "score": 96875, "slug": "durable-task-runner", "source": "clawhub", "stars": 0, "tags": null, "updated_at": 1776698084075, "version": "0.1.4"}, {"category": "", "created_at": 1774894960364, "description": "When the user wants to create, optimize, or audit homepage content and structure. Also use when the user mentions \"homepage,\" \"landing page,\" \"main page,\" \"h...", "description_zh": "", "downloads": 31, "homepage": "https://clawhub.ai/kostja94/homepage-generator", "iconUrl": null, "installs": 1, "name": "homepage-generator", "ownerName": "kostja94", "score": 96875, "slug": "homepage-generator", "source": "clawhub", "stars": 0, "tags": null, "updated_at": 1776698084047, "version": "1.1.0"}, {"category": "", "created_at": 1774906408102, "description": "Read-only CoinFound RWA data skill backed by a bundled endpoint catalog and schema snapshots.", "description_zh": "", "downloads": 31, "homepage": "https://clawhub.ai/darrenluo/coinfound-skill", "iconUrl": null, "installs": 2, "name": "CoinFound-Skill", "ownerName": "darrenluo", "score": 96875, "slug": "coinfound-skill", "source": "clawhub", "stars": 0, "tags": null, "updated_at": 1776698084024, "version": "1.0.1"}, {"category": "", "created_at": 1774873969490, "description": "Full B2B GTM skill suite for iCustomer Audience Loop. Covers ICP definition, account research, lead scoring (FIRE framework), prospecting, meeting prep, outb...", "description_zh": "", "downloads": 31, "homepage": "https://clawhub.ai/davidslavich/gtm-skill-packs", "iconUrl": null, "installs": 1, "name": "GTM Skill Packs", "ownerName": "davidslavich", "score": 96875, "slug": "gtm-skill-packs", "source": "clawhub", "stars": 0, "tags": null, "updated_at": 1776698084023, "version": "1.0.0"}, {"category": "", "created_at": 1774954834951, "description": "Provides tools for implementing feedback loops to fine-tune LLM agents using user feedback for continuous personalization and improvement, including training...", "description_zh": "", "downloads": 31, "homepage": "https://clawhub.ai/jpengcheng523-netizen/jpeng-feedback-loop-fine-tuner", "iconUrl": null, "installs": 0, "name": "feedback-loop-fine-tuner", "ownerName": "jpengcheng523-netizen", "score": 96875, "slug": "jpeng-feedback-loop-fine-tuner", "source": "clawhub", "stars": 0, "tags": null, "updated_at": 1776698084015, "version": "1.0.0"}, {"category": "", "created_at": 1774917790569, "description": "Guides the agent through setting up and using Capawesome Cloud for Capacitor apps. Covers three core workflows: (1) Native Builds — cloud builds for iOS and...", "description_zh": "", "downloads": 31, "homepage": "https://clawhub.ai/robingenz/capawesome-cloud", "iconUrl": null, "installs": 3, "name": "Capawesome Cloud", "ownerName": "robingenz", "score": 96875, "slug": "capawesome-cloud", "source": "clawhub", "stars": 0, "tags": null, "updated_at": 1776698084014, "version": "1.0.0"}, {"category": "", "created_at": 1774926442121, "description": "Set up a staging/production workflow for Vercel projects using GitHub Actions and stable URL aliases. Use when asked to create a staging environment, set up...", "description_zh": "", "downloads": 31, "homepage": "https://clawhub.ai/danielgrobelny/vercel-staging-workflow", "iconUrl": null, "installs": 1, "name": "Vercel Staging Workflow", "ownerName": "danielgrobelny", "score": 96875, "slug": "vercel-staging-workflow", "source": "clawhub", "stars": 0, "tags": null, "updated_at": 1776698084010, "version": "1.0.0"}, {"category": "", "created_at": 1774905714951, "description": "Obv reference tool. Use when working with obv in finance contexts.", "description_zh": "", "downloads": 31, "homepage": "https://clawhub.ai/xueyetianya/obv", "iconUrl": null, "installs": 0, "name": "Obv", "ownerName": "xueyetianya", "score": 96875, "slug": "obv", "source": "clawhub", "stars": 0, "tags": null, "updated_at": 1776698084007, "version": "1.0.0"}, {"category": "", "created_at": 1774908457701, "description": "Diffbot integration. Manage Articles, Products, Images, Discussions, Videos. Use when the user wants to interact with Diffbot data.", "description_zh": "", "downloads": 31, "homepage": "https://clawhub.ai/gora050/diffbot", "iconUrl": null, "installs": 0, "name": "Diffbot", "ownerName": "gora050", "score": 96875, "slug": "diffbot", "source": "clawhub", "stars": 0, "tags": null, "updated_at": 1776698084003, "version": "1.0.0"}, {"category": "", "created_at": 1774910653290, "description": "Use when you have a written implementation plan to execute in a separate session with review checkpoints", "description_zh": "", "downloads": 31, "homepage": "https://clawhub.ai/lovemymobilewebsite-dotcom/executing-plans-2", "iconUrl": null, "installs": 2, "name": "Executing Plans", "ownerName": "lovemymobilewebsite-dotcom", "score": 96875, "slug": "executing-plans-2", "source": "clawhub", "stars": 0, "tags": null, "updated_at": 1776698083989, "version": "0.1.0"}, {"category": "", "created_at": 1774904383537, "description": "JSON formatting, validation, and conversion tool. Format, compress, validate JSON, and convert between JSON and YAML.", "description_zh": "", "downloads": 31, "homepage": "https://clawhub.ai/freeter226/json-wizard", "iconUrl": null, "installs": 1, "name": "JSON Wizard", "ownerName": "freeter226", "score": 96875, "slug": "json-wizard", "source": "clawhub", "stars": 0, "tags": null, "updated_at": 1776698083986, "version": "1.0.0"}, {"category": "", "created_at": 1774901933064, "description": "Cloudinary integration. Manage data, records, and automate workflows. Use when the user wants to interact with Cloudinary data.", "description_zh": "", "downloads": 31, "homepage": "https://clawhub.ai/gora050/cloudinary-integration", "iconUrl": null, "installs": 0, "name": "Cloudinary", "ownerName": "gora050", "score": 96875, "slug": "cloudinary-integration", "source": "clawhub", "stars": 0, "tags": null, "updated_at": 1776698083975, "version": "1.0.0"}, {"category": "", "created_at": 1774922595089, "description": "EducateMe integration. Manage Courses, Users, Enrollments, Categories, Reviews. Use when the user wants to interact with EducateMe data.", "description_zh": "", "downloads": 31, "homepage": "https://clawhub.ai/gora050/educateme", "iconUrl": null, "installs": 1, "name": "Educateme", "ownerName": "gora050", "score": 96875, "slug": "educateme", "source": "clawhub", "stars": 0, "tags": null, "updated_at": 1776698083969, "version": "1.0.0"}, {"category": "", "created_at": 1774878621918, "description": "Essential Git commands and workflows for version control, branching, and collaboration.", "description_zh": "", "downloads": 31, "homepage": "https://clawhub.ai/mbright4497/git-essentials-1-0-0", "iconUrl": null, "installs": 2, "name": "Git Essentials 1.0.0", "ownerName": "mbright4497", "score": 96875, "slug": "git-essentials-1-0-0", "source": "clawhub", "stars": 0, "tags": null, "updated_at": 1776698083959, "version": "1.0.0"}, {"category": "", "created_at": 1774886654296, "description": "Convert videos into more compatible formats, containers, and codec profiles for publishing, sharing, ecommerce workflows, and platform uploads. Use when the...", "description_zh": "", "downloads": 31, "homepage": "https://clawhub.ai/leooooooow/creator-video-converter", "iconUrl": null, "installs": 0, "name": "Creator Video Converter", "ownerName": "leooooooow", "score": 96875, "slug": "creator-video-converter", "source": "clawhub", "stars": 0, "tags": null, "updated_at": 1776698083944, "version": "1.0.0"}, {"category": "security-compliance", "created_at": 1772799084734, "description": "EU regional compliance — VAT (27 member states), reverse charge, OSS, Intrastat, EN 16931 e-invoicing, SAF-T, EC Sales List, IBAN validation, EORI, VIES form...", "description_zh": "", "downloads": 31, "homepage": "https://clawhub.ai/mailnike/erpclaw-region-eu", "iconUrl": null, "installs": 1, "name": "Erpclaw Region Eu", "ownerName": "mailnike", "score": 96875, "slug": "erpclaw-region-eu", "source": "clawhub", "stars": 0, "tags": null, "updated_at": 1776698083942, "version": "2.1.0"}, {"category": "", "created_at": 1774851951787, "description": "Manage daily bills, expenses, and recurring payments with tracking, reminders, and analysis. Use when the user asks about bill management, expense tracking,...", "description_zh": "", "downloads": 31, "homepage": "https://clawhub.ai/harrylabsj/bill-manager", "iconUrl": null, "installs": 0, "name": "Bill Manager", "ownerName": "harrylabsj", "score": 96875, "slug": "bill-manager", "source": "clawhub", "stars": 0, "tags": null, "updated_at": 1776698083920, "version": "1.0.2"}, {"category": "", "created_at": 1774869710674, "description": "Protect .env secrets from AI agents. Real credentials encrypted in a vault — agents see structurally valid sandbox values on disk.", "description_zh": "", "downloads": 31, "homepage": "https://clawhub.ai/danieltamas/cloak-env-protection", "iconUrl": null, "installs": 1, "name": "Cloak — Protect .env Secrets from AI Agents", "ownerName": "danieltamas", "score": 96875, "slug": "cloak-env-protection", "source": "clawhub", "stars": 0, "tags": null, "updated_at": 1776698083918, "version": "0.1.0"}, {"category": "", "created_at": 1774826822259, "description": "When the user wants to build an SEO data analysis system, monitor indexing/traffic/keywords/backlinks, or set up benchmarks. Also use when the user mentions...", "description_zh": "", "downloads": 31, "homepage": "https://clawhub.ai/kostja94/kostja94-seo-monitoring", "iconUrl": null, "installs": 3, "name": "seo-monitoring", "ownerName": "kostja94", "score": 96875, "slug": "kostja94-seo-monitoring", "source": "clawhub", "stars": 0, "tags": null, "updated_at": 1776698083914, "version": "1.0.0"}, {"category": "", "created_at": 1774887054263, "description": "AI-powered automated job search skill. Searches LinkedIn and Indeed daily, scores jobs against the user's profile, and saves results to a local CSV. Use when...", "description_zh": "", "downloads": 31, "homepage": "https://clawhub.ai/weixijia/job-claw", "iconUrl": null, "installs": 1, "name": "JobClaw", "ownerName": "weixijia", "score": 96875, "slug": "job-claw", "source": "clawhub", "stars": 0, "tags": null, "updated_at": 1776698083908, "version": "1.0.20260319-9abbd6c"}, {"category": "", "created_at": 1774953826050, "description": "Jellyreach integration. Manage Organizations, Pipelines, Users, Goals, Filters. Use when the user wants to interact with Jellyreach data.", "description_zh": "", "downloads": 31, "homepage": "https://clawhub.ai/gora050/jellyreach", "iconUrl": null, "installs": 1, "name": "Jellyreach", "ownerName": "gora050", "score": 96875, "slug": "jellyreach", "source": "clawhub", "stars": 0, "tags": null, "updated_at": 1776698083896, "version": "1.0.0"}, {"category": "", "created_at": 1774916255298, "description": "Apache Arrow in-memory columnar format reference. Zero-copy data exchange, columnar memory layout with validity bitmaps, pyarrow Table/RecordBatch/compute, A...", "description_zh": "", "downloads": 31, "homepage": "https://clawhub.ai/bytesagain3/arrow", "iconUrl": null, "installs": 0, "name": "Arrow", "ownerName": "bytesagain3", "score": 96875, "slug": "arrow", "source": "clawhub", "stars": 0, "tags": null, "updated_at": 1776698083892, "version": "1.0.0"}, {"category": "", "created_at": 1774889302978, "description": "OpenClaw-based SLG game. Multiplayer, real-time commands, planning. Battle with other lobsters, build alliances. Use when user says \"2037\" or \"earth2037\" and...", "description_zh": "", "downloads": 31, "homepage": "https://clawhub.ai/windinwing/earth2037", "iconUrl": null, "installs": 0, "name": "earth2037", "ownerName": "windinwing", "score": 96875, "slug": "earth2037", "source": "clawhub", "stars": 0, "tags": null, "updated_at": 1776698083889, "version": "1.0.1"}, {"category": "", "created_at": 1774916654080, "description": "Ford vehicles, F-150, Mustang, Bronco, electric models, pricing, specs, and dealership info.", "description_zh": "", "downloads": 31, "homepage": "https://clawhub.ai/hanxueyuan/ford", "iconUrl": null, "installs": 0, "name": "Ford", "ownerName": "hanxueyuan", "score": 96875, "slug": "ford", "source": "clawhub", "stars": 0, "tags": null, "updated_at": 1776698083887, "version": "0.1.0"}, {"category": "", "created_at": 1774866714480, "description": "Dental health advisor providing oral hygiene guidance, dental condition information, treatment explanations, and pain management advice. Use when users have...", "description_zh": "", "downloads": 31, "homepage": "https://clawhub.ai/jiwenbing/dentist", "iconUrl": null, "installs": 1, "name": "Dentist", "ownerName": "jiwenbing", "score": 96875, "slug": "dentist", "source": "clawhub", "stars": 0, "tags": null, "updated_at": 1776698083886, "version": "1.0.0"}]}