{"page": 471, "total_pages": 522, "total": 26073, "skills": [{"category": "", "created_at": 1774843480397, "description": "In the ancient streets of Vrindavan, joy runs deep and the festival reveals its oldest rituals. An immersive journey on drifts.bot — 7 steps, HIGH intensity,...", "description_zh": "", "downloads": 31, "homepage": "https://clawhub.ai/driftsbot/experience-vrindavan-color-blood", "iconUrl": null, "installs": 0, "name": "Experience Vrindavan Color Blood", "ownerName": "driftsbot", "score": 96875, "slug": "experience-vrindavan-color-blood", "source": "clawhub", "stars": 0, "tags": ["ai-agents", "color", "drift", "experiences", "immersive", "journeys", "ritual", "vrindavan"], "updated_at": 1776698083879, "version": "1.0.2"}, {"category": "", "created_at": 1774953683635, "description": "When the user wants to optimize content for SEO—word count, H2 keywords, keyword density, multimedia, tables, lists. Also use when the user mentions \"content...", "description_zh": "", "downloads": 31, "homepage": "https://clawhub.ai/kostja94/content-optimization", "iconUrl": null, "installs": 0, "name": "content-optimization", "ownerName": "kostja94", "score": 96875, "slug": "content-optimization", "source": "clawhub", "stars": 0, "tags": null, "updated_at": 1776698083875, "version": "1.2.0"}, {"category": "", "created_at": 1774872256875, "description": "Terminal-first Beer manager. Use when you need beer.", "description_zh": "", "downloads": 31, "homepage": "https://clawhub.ai/xueyetianya/beer", "iconUrl": null, "installs": 0, "name": "Beer", "ownerName": "xueyetianya", "score": 96875, "slug": "beer", "source": "clawhub", "stars": 0, "tags": null, "updated_at": 1776698083865, "version": "2.0.0"}, {"category": "", "created_at": 1774868187705, "description": "AI-driven quantitative strategy iteration workflow — a complete loop of briefing, hypothesis, code generation, constitutional scan, backtest submission, fore...", "description_zh": "", "downloads": 31, "homepage": "https://clawhub.ai/tltby12341/phoenix-iterate", "iconUrl": null, "installs": 2, "name": "Phoenix Iterate", "ownerName": "tltby12341", "score": 96875, "slug": "phoenix-iterate", "source": "clawhub", "stars": 0, "tags": null, "updated_at": 1776698083857, "version": "1.0.1"}, {"category": "", "created_at": 1774920057057, "description": "Guides the agent through general Ionic Framework development including core concepts, component reference, CLI usage, layout, theming, animations, gestures,...", "description_zh": "", "downloads": 31, "homepage": "https://clawhub.ai/robingenz/ionic-app-development", "iconUrl": null, "installs": 1, "name": "Ionic App Development", "ownerName": "robingenz", "score": 96875, "slug": "ionic-app-development", "source": "clawhub", "stars": 0, "tags": null, "updated_at": 1776698083843, "version": "1.0.0"}, {"category": "", "created_at": 1774860269467, "description": "IMA model generation with exactly two Sevio models: Ima Sevio 1.0 and Ima Sevio 1.0-Fast. Supports text-to-video, image-to-video, first-last-frame, and refer...", "description_zh": "", "downloads": 31, "homepage": "https://clawhub.ai/allenfancy-gan/ima-sevio-ai", "iconUrl": null, "installs": 2, "name": "IMA  Studio Sevio AI Generation - Sevio 1.0 ,Sevio 1.0-Fast", "ownerName": "allenfancy-gan", "score": 96875, "slug": "ima-sevio-ai", "source": "clawhub", "stars": 0, "tags": null, "updated_at": 1776698083816, "version": "1.0.2"}, {"category": "", "created_at": 1774906530407, "description": "Feel deep awe as ancient songlines pulse under a blazing comet across the red desert, merging Indigenous sky lore with modern astronomy. Guided AR steps let...", "description_zh": "", "downloads": 31, "homepage": "https://clawhub.ai/driftsbot/experience-comet-bone-outback", "iconUrl": null, "installs": 2, "name": "Experience Comet Bone Outback", "ownerName": "driftsbot", "score": 96875, "slug": "experience-comet-bone-outback", "source": "clawhub", "stars": 0, "tags": null, "updated_at": 1776698083809, "version": "1.0.0"}, {"category": "", "created_at": 1774868502897, "description": "Persistent long-term memory powered by knowledge graphs, ACT-R activation, and 15-phase consolidation. Remember conversations across sessions, recall relevan...", "description_zh": "", "downloads": 31, "homepage": "https://clawhub.ai/moshik21/engram-brain", "iconUrl": null, "installs": 2, "name": "Engram Memory", "ownerName": "moshik21", "score": 96875, "slug": "engram-brain", "source": "clawhub", "stars": 0, "tags": ["cognitive-architecture", "knowledge-graph", "long-term-memory", "mcp", "memory", "recall"], "updated_at": 1776698083795, "version": "0.3.1"}, {"category": "", "created_at": 1774885716315, "description": "Analyze rental property investment deals by calculating key metrics including cap rate, cash-on-cash return, DSCR, GRM, and the 1% rule. Use when evaluating...", "description_zh": "", "downloads": 31, "homepage": "https://clawhub.ai/adamsjb/homestruk-deal-analyzer", "iconUrl": null, "installs": 0, "name": "Homestruk Deal Analyzer", "ownerName": "adamsjb", "score": 96875, "slug": "homestruk-deal-analyzer", "source": "clawhub", "stars": 0, "tags": null, "updated_at": 1776698083768, "version": "1.0.0"}, {"category": "", "created_at": 1774900954839, "description": "Universal form auto-fill tool for OpenClaw. Use when user needs to fill out web forms automatically. Supports job applications, registrations, surveys, and a...", "description_zh": "", "downloads": 31, "homepage": "https://clawhub.ai/tobewin/form-auto", "iconUrl": null, "installs": 1, "name": "Form Auto", "ownerName": "tobewin", "score": 96875, "slug": "form-auto", "source": "clawhub", "stars": 0, "tags": null, "updated_at": 1776698083755, "version": "1.0.0"}, {"category": "", "created_at": 1774863864195, "description": "Complete setup guide for running Freqtrade (cryptocurrency trading bot) legally in the United States. Use when setting up Freqtrade for the first time, choos...", "description_zh": "", "downloads": 31, "homepage": "https://clawhub.ai/djc00p/freqtrade-us-setup", "iconUrl": null, "installs": 0, "name": "Freqtrade US Setup", "ownerName": "djc00p", "score": 96875, "slug": "freqtrade-us-setup", "source": "clawhub", "stars": 0, "tags": null, "updated_at": 1776698083744, "version": "1.0.2"}, {"category": "", "created_at": 1774859263655, "description": "Reference tool for devtools — covers intro, quickstart, patterns and more. Quick lookup for Keyvault concepts, best practices, and implementation patterns.", "description_zh": "", "downloads": 31, "homepage": "https://clawhub.ai/xueyetianya/keyvault", "iconUrl": null, "installs": 0, "name": "Keyvault", "ownerName": "xueyetianya", "score": 96875, "slug": "keyvault", "source": "clawhub", "stars": 0, "tags": null, "updated_at": 1776698083742, "version": "2.0.2"}, {"category": "", "created_at": 1774916177386, "description": "Use when someone asks for ai image generation, image generator, text-to-image, image-to-image, prompt-to-image, image model selection, or CLI-based image wor...", "description_zh": "", "downloads": 31, "homepage": "https://clawhub.ai/jinchanzis/ai-media-generator-ai-image-generation", "iconUrl": null, "installs": 2, "name": "Ai Image Generation", "ownerName": "jinchanzis", "score": 96875, "slug": "ai-media-generator-ai-image-generation", "source": "clawhub", "stars": 0, "tags": null, "updated_at": 1776698083737, "version": "1.0.0"}, {"category": "", "created_at": 1774906084515, "description": "Fetch and analyze Hacker News (HN) content - the premier tech community for developers, AI researchers, and software engineers. Use when users need: (1) HN t...", "description_zh": "", "downloads": 31, "homepage": "https://clawhub.ai/qiakai/x-hacker-news", "iconUrl": null, "installs": 2, "name": "x-hacker-news", "ownerName": "qiakai", "score": 96875, "slug": "x-hacker-news", "source": "clawhub", "stars": 0, "tags": null, "updated_at": 1776698083705, "version": "1.0.4"}, {"category": "", "created_at": 1774863763470, "description": "Run Pomodoro sessions with break timers and productivity tracking. Use when starting focus sessions, tracking streaks, reviewing productivity.", "description_zh": "", "downloads": 31, "homepage": "https://clawhub.ai/bytesagain1/deepfocus", "iconUrl": null, "installs": 0, "name": "Deepfocus", "ownerName": "bytesagain1", "score": 96875, "slug": "deepfocus", "source": "clawhub", "stars": 0, "tags": null, "updated_at": 1776698083684, "version": "2.0.0"}, {"category": "", "created_at": 1774908528804, "description": "Deep first-principles analysis of any topic, decision, strategy, or assumption. Strips inherited thinking, identifies what is provably true, and rebuilds fro...", "description_zh": "", "downloads": 31, "homepage": "https://clawhub.ai/clawdiri-ai/first-principles-dv", "iconUrl": null, "installs": 2, "name": "First Principles Analyzer", "ownerName": "clawdiri-ai", "score": 96875, "slug": "first-principles-dv", "source": "clawhub", "stars": 0, "tags": null, "updated_at": 1776698083679, "version": "0.1.0"}, {"category": "", "created_at": 1774886793621, "description": "Search a local document library (Obsidian vault, wiki, notes, etc.) using BM25 inverted index + LLM query expansion + grep for precise location. Use when the...", "description_zh": "", "downloads": 31, "homepage": "https://clawhub.ai/fantasyrl/doc-search", "iconUrl": null, "installs": 1, "name": "doc-search", "ownerName": "fantasyrl", "score": 96875, "slug": "doc-search", "source": "clawhub", "stars": 0, "tags": null, "updated_at": 1776698083670, "version": "1.0.0"}, {"category": "", "created_at": 1774910877306, "description": "Intelliprint integration. Manage Organizations. Use when the user wants to interact with Intelliprint data.", "description_zh": "", "downloads": 31, "homepage": "https://clawhub.ai/gora050/intelliprint", "iconUrl": null, "installs": 0, "name": "Intelliprint", "ownerName": "gora050", "score": 96875, "slug": "intelliprint", "source": "clawhub", "stars": 0, "tags": null, "updated_at": 1776698083665, "version": "1.0.0"}, {"category": "", "created_at": 1774849391515, "description": "Agente especialista em Literatura Brasileira e Portuguesa para FUVEST — obras obrigatórias 2026 e movimentos literários. Opera exclusivamente no Modo Convers...", "description_zh": "", "downloads": 31, "homepage": "https://clawhub.ai/antoniovfranco/agente-literatura", "iconUrl": null, "installs": 3, "name": "Agente Literatura", "ownerName": "antoniovfranco", "score": 93939.39393939395, "slug": "agente-literatura", "source": "clawhub", "stars": 0, "tags": null, "updated_at": 1776698083663, "version": "1.0.0"}, {"category": "", "created_at": 1774892764248, "description": "Drawdown analysis reference — maximum drawdown, peak-to-trough, recovery time, risk metrics. Use when evaluating portfolio risk, stress-testing strategies, o...", "description_zh": "", "downloads": 31, "homepage": "https://clawhub.ai/bytesagain3/drawdown", "iconUrl": null, "installs": 1, "name": "Drawdown", "ownerName": "bytesagain3", "score": 93939.39393939395, "slug": "drawdown", "source": "clawhub", "stars": 0, "tags": null, "updated_at": 1776698083661, "version": "1.0.0"}, {"category": "", "created_at": 1774888425408, "description": "Semantic Versioning (SemVer 2.0.0) toolkit for parsing, validating, comparing, bumping, and sorting version strings. Use when working with software versions,...", "description_zh": "", "downloads": 31, "homepage": "https://clawhub.ai/johnnywang2001/semver-toolkit", "iconUrl": null, "installs": 3, "name": "Semver Toolkit", "ownerName": "johnnywang2001", "score": 93939.39393939395, "slug": "semver-toolkit", "source": "clawhub", "stars": 0, "tags": null, "updated_at": 1776698083657, "version": "1.0.0"}, {"category": "", "created_at": 1774952878845, "description": "FastField Mobile Forms integration. Manage data, records, and automate workflows. Use when the user wants to interact with FastField Mobile Forms data.", "description_zh": "", "downloads": 31, "homepage": "https://clawhub.ai/gora050/fastfield-mobile-forms", "iconUrl": null, "installs": 0, "name": "Fastfield Mobile Forms", "ownerName": "gora050", "score": 93939.39393939395, "slug": "fastfield-mobile-forms", "source": "clawhub", "stars": 0, "tags": null, "updated_at": 1776698083652, "version": "1.0.0"}, {"category": "", "created_at": 1774907675290, "description": "Assess any API or website's Graceful Boundaries conformance level and provide concrete guidance for reaching the next level. Use this skill when the user ask...", "description_zh": "", "downloads": 31, "homepage": "https://clawhub.ai/snapsynapse/graceful-boundaries", "iconUrl": null, "installs": 0, "name": "Graceful Boundaries", "ownerName": "snapsynapse", "score": 93939.39393939395, "slug": "graceful-boundaries", "source": "clawhub", "stars": 0, "tags": null, "updated_at": 1776698083651, "version": "1.1.0"}, {"category": "", "created_at": 1774847661592, "description": "Xueersi Daily Question Generator: Auto-generates one practice question by grade and subject (Chinese, Math, English) with full answer explanation. Perfect fo...", "description_zh": "", "downloads": 30, "homepage": "https://clawhub.ai/zhouzhi-tal/xueersi-daily-question", "iconUrl": null, "installs": 3, "name": "Xueersi Daily Question Generator", "ownerName": "zhouzhi-tal", "score": 274.3484224965706, "slug": "xueersi-daily-question", "source": "clawhub", "stars": 0, "tags": ["chinese", "education", "k12", "xueersi"], "updated_at": 1776769449739, "version": "1.0.1"}, {"category": "", "created_at": 1774906706867, "description": "Logistia Route Planner integration. Manage Routes, Vehicles, Drivers, Depots, OptimizationProfiles. Use when the user wants to interact with Logistia Route P...", "description_zh": "", "downloads": 30, "homepage": "https://clawhub.ai/membranedev/logistia-route-planner", "iconUrl": null, "installs": 1, "name": "Logistia Route Planner", "ownerName": "membranedev", "score": 646.9700237222341, "slug": "logistia-route-planner", "source": "clawhub", "stars": 0, "tags": null, "updated_at": 1776768850145, "version": "1.0.0"}, {"category": "", "created_at": 1774915655692, "description": "Porsche vehicle information, model specs, pricing, and latest news from the iconic German sports car manufacturer.", "description_zh": "", "downloads": 30, "homepage": "https://clawhub.ai/hanxueyuan/porsche", "iconUrl": null, "installs": 1, "name": "Porsche", "ownerName": "hanxueyuan", "score": 423.4895539243365, "slug": "porsche", "source": "clawhub", "stars": 0, "tags": null, "updated_at": 1776768849975, "version": "0.1.0"}, {"category": "", "created_at": 1774894668435, "description": "Reviews ExUnit test code for proper patterns, boundary mocking with Mox, and test adapter usage. Use when reviewing _test.exs files or test helper configurat...", "description_zh": "", "downloads": 30, "homepage": "https://clawhub.ai/anderskev/exunit-code-review", "iconUrl": null, "installs": 2, "name": "Exunit Code Review", "ownerName": "anderskev", "score": 1341.6815742397137, "slug": "exunit-code-review", "source": "clawhub", "stars": 0, "tags": null, "updated_at": 1776766953348, "version": "1.2.0"}, {"category": "", "created_at": 1774909298493, "description": "Reviews Wish SSH server code for proper middleware, session handling, and security patterns. Use when reviewing SSH server code using charmbracelet/wish.", "description_zh": "", "downloads": 30, "homepage": "https://clawhub.ai/anderskev/wish-ssh-code-review", "iconUrl": null, "installs": 3, "name": "Wish Ssh Code Review", "ownerName": "anderskev", "score": 1341.6815742397137, "slug": "wish-ssh-code-review", "source": "clawhub", "stars": 0, "tags": null, "updated_at": 1776766952422, "version": "2.3.0"}, {"category": "", "created_at": 1774908110566, "description": "Play competitive games against other AI agents on Agent Arcade. Supports Chess, Go 9x9, Trading, Negotiation, Reasoning, Code Challenge, and Text Adventure....", "description_zh": "", "downloads": 30, "homepage": "https://clawhub.ai/lulzasaur9192/agent-arcade-games", "iconUrl": null, "installs": 2, "name": "Agent Arcade Games", "ownerName": "lulzasaur9192", "score": 727.0964614638876, "slug": "agent-arcade-games", "source": "clawhub", "stars": 0, "tags": null, "updated_at": 1776766750103, "version": "1.0.0"}, {"category": "", "created_at": 1774895651943, "description": "Reviews tokio async runtime usage for task management, sync primitives, channel patterns, and runtime configuration. Use when reviewing Rust code that uses t...", "description_zh": "", "downloads": 30, "homepage": "https://clawhub.ai/anderskev/tokio-async-code-review", "iconUrl": null, "installs": 2, "name": "Tokio Async Code Review", "ownerName": "anderskev", "score": 1066.0980810234541, "slug": "tokio-async-code-review", "source": "clawhub", "stars": 0, "tags": null, "updated_at": 1776766672729, "version": "0.1.0"}, {"category": "", "created_at": 1776061764583, "description": "Powerful video generation with Kling v3. Supports high-quality text-to-video and image-to-video.", "description_zh": "", "downloads": 30, "homepage": "https://clawhub.ai/user_f95f21b8/dlazy-kling-v3", "iconUrl": null, "installs": 2, "name": "kling v3", "ownerName": "user_f95f21b8", "score": 2394.2537909018356, "slug": "dlazy-kling-v3", "source": "community", "stars": 0, "tags": null, "updated_at": 1776760131590, "version": "1.0.3"}, {"category": "", "created_at": 1776061540679, "description": "Generate matching scene sound effects based on text descriptions or video frames using Kling SFX.", "description_zh": "", "downloads": 30, "homepage": "https://clawhub.ai/user_f95f21b8/dlazy-keling-sfx", "iconUrl": null, "installs": 2, "name": "keling sfx", "ownerName": "user_f95f21b8", "score": 2394.2537909018356, "slug": "dlazy-keling-sfx", "source": "community", "stars": 0, "tags": null, "updated_at": 1776760131578, "version": "1.0.3"}, {"category": "", "created_at": 1776061708552, "description": "Generate customized speech that highly restores the timbre by uploading reference audio using Kling Audio Clone.", "description_zh": "", "downloads": 30, "homepage": "https://clawhub.ai/user_f95f21b8/dlazy-kling-audio-clone", "iconUrl": null, "installs": 2, "name": "kling audio clone", "ownerName": "user_f95f21b8", "score": 2394.2537909018356, "slug": "dlazy-kling-audio-clone", "source": "community", "stars": 0, "tags": null, "updated_at": 1776760131522, "version": "1.0.3"}, {"category": "", "created_at": 1776061168359, "description": "Synthesize text into natural and fluent speech using Doubao TTS.", "description_zh": "", "downloads": 30, "homepage": "https://clawhub.ai/user_f95f21b8/dlazy-doubao-tts", "iconUrl": null, "installs": 1, "name": "doubao tts", "ownerName": "user_f95f21b8", "score": 2394.2537909018356, "slug": "dlazy-doubao-tts", "source": "community", "stars": 0, "tags": null, "updated_at": 1776760131510, "version": "1.0.3"}, {"category": "", "created_at": 1774924725456, "description": "Research SEO keywords for any topic and generate a complete article brief with primary keyword, secondary keywords, competition analysis, article structure,...", "description_zh": "", "downloads": 30, "homepage": "https://clawhub.ai/kryzl19/seo-keyword-researcher-kryzl19", "iconUrl": null, "installs": 2, "name": "Seo Keyword Researcher", "ownerName": "kryzl19", "score": 1884.4221105527636, "slug": "seo-keyword-researcher-kryzl19", "source": "clawhub", "stars": 0, "tags": null, "updated_at": 1776757282563, "version": "1.0.0"}, {"category": "", "created_at": 1774897849433, "description": "Enterprise-grade cybersecurity framework assessment platform that evaluates organizational security controls across the kill chain spectrum.", "description_zh": "", "downloads": 30, "homepage": "https://clawhub.ai/krishnakumarmahadevan-cmd/cyber-kill-chain", "iconUrl": null, "installs": 1, "name": "Cyber Kill Chain", "ownerName": "krishnakumarmahadevan-cmd", "score": 1879.6992481203006, "slug": "cyber-kill-chain", "source": "clawhub", "stars": 0, "tags": null, "updated_at": 1776757020638, "version": "1.0.0"}, {"category": "", "created_at": 1774896350730, "description": "Generate vertical short videos of gardening and plant growth (WeryAI): seed germination, bloom and fruit, succulents, mushrooms, and time-lapse growth storie...", "description_zh": "", "downloads": 30, "homepage": "https://clawhub.ai/zoucdr/garden-grow-video", "iconUrl": null, "installs": 1, "name": "Garden Grow Video", "ownerName": "zoucdr", "score": 1837.1096142069812, "slug": "garden-grow-video", "source": "clawhub", "stars": 0, "tags": null, "updated_at": 1776756982600, "version": "0.1.3"}, {"category": "", "created_at": 1774878436240, "description": "Generate chibi character generator ai images with AI via the Neta AI image generation API (free trial at neta.art/open).", "description_zh": "", "downloads": 30, "homepage": "https://clawhub.ai/tomcarranzaem/chibi-gen-skill", "iconUrl": null, "installs": 0, "name": "Chibi Gen Skill", "ownerName": "tomcarranzaem", "score": 1760.5633802816901, "slug": "chibi-gen-skill", "source": "clawhub", "stars": 0, "tags": null, "updated_at": 1776755888559, "version": "2.0.0"}, {"category": "", "created_at": 1774856782727, "description": "Capture errors, corrections, knowledge gaps, better practices, and feature requests in `.learnings/`, then distill proven recurring patterns into `.learnings...", "description_zh": "", "downloads": 30, "homepage": "https://clawhub.ai/paul-tian/claw-self-improvement", "iconUrl": null, "installs": 2, "name": "Claw Self-Improvement", "ownerName": "paul-tian", "score": 1518.987341772152, "slug": "claw-self-improvement", "source": "clawhub", "stars": 0, "tags": ["learning", "openclaw", "self-improvement"], "updated_at": 1776753883776, "version": "0.2.1"}, {"category": "", "created_at": 1774917067215, "description": "Deep OAuth 2.0 / OpenID Connect workflow—choosing flows for client type, PKCE, tokens and validation, scopes and consent, rotation, and common misconfigurati...", "description_zh": "", "downloads": 30, "homepage": "https://clawhub.ai/codenova58/oauth-oidc", "iconUrl": null, "installs": 0, "name": "Oauth Oidc", "ownerName": "codenova58", "score": 32258.06451612903, "slug": "oauth-oidc", "source": "clawhub", "stars": 0, "tags": null, "updated_at": 1776745544410, "version": "1.0.0"}, {"category": "", "created_at": 1774896902405, "description": "perform concise malware triage, focused IOC extraction, infrastructure hunting, and markdown report writing on remnux when the user supplies a suspicious fil...", "description_zh": "", "downloads": 30, "homepage": "https://clawhub.ai/nirhalfon/remnux-malware-triage", "iconUrl": null, "installs": 0, "name": "Malware Analyst", "ownerName": "nirhalfon", "score": 28571.42857142857, "slug": "remnux-malware-triage", "source": "clawhub", "stars": 0, "tags": null, "updated_at": 1776745369535, "version": "1.0.0"}, {"category": "", "created_at": 1774898720423, "description": "Scaled Access integration. Manage data, records, and automate workflows. Use when the user wants to interact with Scaled Access data.", "description_zh": "", "downloads": 30, "homepage": "https://clawhub.ai/gora050/scaled-access", "iconUrl": null, "installs": 0, "name": "Scaled Access", "ownerName": "gora050", "score": 31914.893617021276, "slug": "scaled-access", "source": "clawhub", "stars": 0, "tags": null, "updated_at": 1776744955463, "version": "1.0.0"}, {"category": "", "created_at": 1774877626273, "description": "Fetch product info by payment link ID. Calls GStable API to get payment link details, returns product name, description, price, and supported payment tokens....", "description_zh": "", "downloads": 30, "homepage": "https://clawhub.ai/tankscar/payment-link-reader", "iconUrl": null, "installs": 1, "name": "Payment Link Reader", "ownerName": "tankscar", "score": 42857.142857142855, "slug": "payment-link-reader", "source": "clawhub", "stars": 0, "tags": null, "updated_at": 1776743755473, "version": "1.0.0"}, {"category": "", "created_at": 1774955910327, "description": "Order groceries from Whole Foods using browser automation and a saved purchase policy", "description_zh": "", "downloads": 30, "homepage": "https://clawhub.ai/chadnewbry/order-from-whole-foods", "iconUrl": null, "installs": 0, "name": "Order From Whole Foods", "ownerName": "chadnewbry", "score": 32258.06451612903, "slug": "order-from-whole-foods", "source": "clawhub", "stars": 0, "tags": null, "updated_at": 1776743744453, "version": "1.0.2"}, {"category": "", "created_at": 1774912212805, "description": "Semantic cache for LLM API calls using Redis. Caches responses by meaning, not exact match. Activate when the user wants to cache AI responses, reduce API co...", "description_zh": "", "downloads": 30, "homepage": "https://clawhub.ai/rylinjames/semantic-cache", "iconUrl": null, "installs": 0, "name": "Semantic Cache", "ownerName": "rylinjames", "score": 31250, "slug": "semantic-cache", "source": "clawhub", "stars": 0, "tags": null, "updated_at": 1776743083696, "version": "1.0.0"}, {"category": "", "created_at": 1774955352642, "description": "Monitor GitHub repos and npm packages for new releases and version updates. Summarizes changelogs and highlights breaking changes. Use when the user asks to...", "description_zh": "", "downloads": 30, "homepage": "https://clawhub.ai/newageinvestments25-byte/nai-changelog-watcher", "iconUrl": null, "installs": 0, "name": "Changelog Watcher", "ownerName": "newageinvestments25-byte", "score": 30927.835051546394, "slug": "nai-changelog-watcher", "source": "clawhub", "stars": 0, "tags": null, "updated_at": 1776741944560, "version": "1.0.0"}, {"category": "", "created_at": 1774836797474, "description": "Interact with GitHub using the `gh` CLI. Use `gh issue`, `gh pr`, `gh run`, and `gh api` for issues, PRs, CI runs, and advanced queries.", "description_zh": "", "downloads": 30, "homepage": "https://clawhub.ai/keyserkazi1/github-100", "iconUrl": null, "installs": 1, "name": "Github", "ownerName": "keyserkazi1", "score": 30303.030303030304, "slug": "github-100", "source": "clawhub", "stars": 0, "tags": null, "updated_at": 1776741884036, "version": "1.0.0"}, {"category": "", "created_at": 1774854967594, "description": "LLM-as-judge methodology for comparing code implementations across repositories. Scores implementations on functionality, security, test quality, overenginee...", "description_zh": "", "downloads": 30, "homepage": "https://clawhub.ai/anderskev/llm-judge", "iconUrl": null, "installs": 1, "name": "Llm Judge", "ownerName": "anderskev", "score": 34482.75862068966, "slug": "llm-judge", "source": "clawhub", "stars": 0, "tags": null, "updated_at": 1776741644397, "version": "1.0.0"}, {"category": "", "created_at": 1774952894619, "description": "When the user wants to use GitHub for SEO, parasite SEO, GEO, open source marketing, or create curated lists. Also use when the user mentions \"GitHub,\" \"GitH...", "description_zh": "", "downloads": 30, "homepage": "https://clawhub.ai/kostja94/github-platforms", "iconUrl": null, "installs": 2, "name": "github", "ownerName": "kostja94", "score": 31578.94736842105, "slug": "github-platforms", "source": "clawhub", "stars": 0, "tags": null, "updated_at": 1776741463629, "version": "1.1.0"}, {"category": "", "created_at": 1774846179581, "description": "Smart Contract Security Auditor: Analyzes Solidity and Go smart contracts for security vulnerabilities, provides gas optimization suggestions, and generates...", "description_zh": "", "downloads": 30, "homepage": "https://clawhub.ai/shangter666/smart-contract-security-auditor", "iconUrl": null, "installs": 0, "name": "smart-contract-security-audito", "ownerName": "shangter666", "score": 33333.33333333333, "slug": "smart-contract-security-auditor", "source": "clawhub", "stars": 0, "tags": null, "updated_at": 1776737384080, "version": "1.0.0"}]}