{"page": 472, "total_pages": 522, "total": 26073, "skills": [{"category": "", "created_at": 1774883940487, "description": "When the user wants help with pricing decisions, packaging, or monetization strategy. Also use when the user mentions 'pricing,' 'pricing tiers,' 'freemium,'...", "description_zh": "", "downloads": 30, "homepage": "https://clawhub.ai/mariokarras/abm-pricing-strategy", "iconUrl": null, "installs": 1, "name": "Pricing Strategy", "ownerName": "mariokarras", "score": 31250, "slug": "abm-pricing-strategy", "source": "clawhub", "stars": 0, "tags": null, "updated_at": 1776730504779, "version": "1.0.0"}, {"category": "", "created_at": 1774953691865, "description": "Check current session's context window usage. Shows model name, estimated token usage, and context window utilization percentage. Use when user asks about co...", "description_zh": "", "downloads": 30, "homepage": "https://clawhub.ai/goog/context-usage", "iconUrl": null, "installs": 1, "name": "openclaw context usage", "ownerName": "goog", "score": 30303.030303030304, "slug": "context-usage", "source": "clawhub", "stars": 0, "tags": null, "updated_at": 1776727969644, "version": "1.0.0"}, {"category": "", "created_at": 1774912325740, "description": "End-to-end video creation copilot for OpenClaw. Helps users brainstorm ideas, research angles, generate hooks and teleprompter scripts, create recording link...", "description_zh": "", "downloads": 30, "homepage": "https://clawhub.ai/chin-jlyc/video-claw", "iconUrl": null, "installs": 1, "name": "A skill to help you plan, script, record, edit and publish social media videos", "ownerName": "chin-jlyc", "score": 25423.728813559323, "slug": "video-claw", "source": "clawhub", "stars": 0, "tags": null, "updated_at": 1776715369590, "version": "1.0.1"}, {"category": "", "created_at": 1774885285167, "description": "Orchestrate multi-agent teams with defined roles, task lifecycles, handoff protocols, and review workflows. Use when: (1) Setting up a team of 2+ agents with...", "description_zh": "", "downloads": 30, "homepage": "https://clawhub.ai/matttgx/agent-team-orchestration-1-0-0", "iconUrl": null, "installs": 3, "name": "Agent Team Orchestration 1.0.0", "ownerName": "matttgx", "score": 26785.714285714286, "slug": "agent-team-orchestration-1-0-0", "source": "clawhub", "stars": 0, "tags": null, "updated_at": 1776703244377, "version": "1.0.0"}, {"category": "", "created_at": 1774841058851, "description": "Agente especialista em Biologia para FUVEST — 1ª fase. Biologia tem presença consistente nas 90 questões objetivas, especialmente Genética e Ecologia, que sã...", "description_zh": "", "downloads": 30, "homepage": "https://clawhub.ai/antoniovfranco/agente-biologia", "iconUrl": null, "installs": 2, "name": "Agente Biologia", "ownerName": "antoniovfranco", "score": 56603.773584905655, "slug": "agente-biologia", "source": "clawhub", "stars": 0, "tags": null, "updated_at": 1776699583761, "version": "1.0.0"}, {"category": "", "created_at": 1774916169285, "description": "Wallet-based credit system for AI agents. Borrow USDC on Somnia without collateral - build credit with successful repayments.", "description_zh": "", "downloads": 30, "homepage": "https://clawhub.ai/aroushanpurdue/ai-agent-lending", "iconUrl": null, "installs": 0, "name": "AI Agent Lending - Wallet Credit", "ownerName": "aroushanpurdue", "score": 100000, "slug": "ai-agent-lending", "source": "clawhub", "stars": 0, "tags": ["credit", "defi", "lending", "somnia", "usdc"], "updated_at": 1776698383838, "version": "2.0.0"}, {"category": "", "created_at": 1774873490567, "description": "Use Finnhub-backed market intelligence through the `aigroup-finnhub-mcp` server for stock, crypto, forex, calendar, news, sentiment, filing, ownership, analy...", "description_zh": "", "downloads": 30, "homepage": "https://clawhub.ai/jackdark425/aigroup-finnhub-mcp", "iconUrl": null, "installs": 1, "name": "AIGroup Finnhub MCP", "ownerName": "jackdark425", "score": 100000, "slug": "aigroup-finnhub-mcp", "source": "clawhub", "stars": 0, "tags": null, "updated_at": 1776698383690, "version": "0.1.1"}, {"category": "", "created_at": 1774916021562, "description": "Zoho Mail integration. Manage Mailboxs, Contacts, Tags, Tasks, Notes, Calendars. Use when the user wants to interact with Zoho Mail data.", "description_zh": "", "downloads": 30, "homepage": "https://clawhub.ai/gora050/zoho-mail-integration", "iconUrl": null, "installs": 1, "name": "Zoho Mail", "ownerName": "gora050", "score": 76923.07692307692, "slug": "zoho-mail-integration", "source": "clawhub", "stars": 0, "tags": null, "updated_at": 1776698270448, "version": "1.0.0"}, {"category": "", "created_at": 1774906151911, "description": "Turn trade show lead tiers into 48-hour follow-up sequences.", "description_zh": "", "downloads": 30, "homepage": "https://clawhub.ai/weilun88313/post-show-followup", "iconUrl": null, "installs": 0, "name": "Post Show Followup", "ownerName": "weilun88313", "score": 100000, "slug": "post-show-followup", "source": "clawhub", "stars": 0, "tags": null, "updated_at": 1776698270367, "version": "1.0.2"}, {"category": "", "created_at": 1774900059859, "description": "Query Polymarket prediction markets - check odds, trending markets, search events, track prices and momentum. Includes watchlist alerts, resolution calendar,...", "description_zh": "", "downloads": 30, "homepage": "https://clawhub.ai/shrimpdaddie/polymarket-gonewild", "iconUrl": null, "installs": 0, "name": "Polymarketskill", "ownerName": "shrimpdaddie", "score": 100000, "slug": "polymarket-gonewild", "source": "clawhub", "stars": 0, "tags": null, "updated_at": 1776698270354, "version": "1.0.0"}, {"category": "", "created_at": 1774915786250, "description": "Search for Agent Skills across ClawHub, skills.sh, and SkillsMP, then rank by Health Score (downloads + stars + installs + security). Use this skill whenever...", "description_zh": "", "downloads": 30, "homepage": "https://clawhub.ai/trip1ewhy/skills-wide-search", "iconUrl": null, "installs": 1, "name": "Skills Search across ClawHub, skills.sh, and SkillsMP", "ownerName": "trip1ewhy", "score": 100000, "slug": "skills-wide-search", "source": "clawhub", "stars": 0, "tags": null, "updated_at": 1776698270318, "version": "1.0.1"}, {"category": "", "created_at": 1774859605640, "description": "AI video generator — text to video, image to video, and reference-to-video via Veevid API. Supports Kling 3.0, Sora 2, Veo 3.1, LTX 2.3, Seedance, Wan 2.6, a...", "description_zh": "", "downloads": 30, "homepage": "https://clawhub.ai/meigesir/veevid", "iconUrl": null, "installs": 3, "name": "Veevid AI Video Generator", "ownerName": "meigesir", "score": 100000, "slug": "veevid", "source": "clawhub", "stars": 0, "tags": ["ai", "generation", "video"], "updated_at": 1776698270259, "version": "1.2.2"}, {"category": "", "created_at": 1774873407179, "description": "Get current weather and forecasts (no API key required).", "description_zh": "", "downloads": 30, "homepage": "https://clawhub.ai/clearlovetop7/weatherclear", "iconUrl": null, "installs": 4, "name": "了解天气", "ownerName": "clearlovetop7", "score": 100000, "slug": "weatherclear", "source": "clawhub", "stars": 0, "tags": null, "updated_at": 1776698270248, "version": "1.0.0"}, {"category": "", "created_at": 1774900195466, "description": "ScrapeNinja integration. Manage Projects, Proxies, Users. Use when the user wants to interact with ScrapeNinja data.", "description_zh": "", "downloads": 30, "homepage": "https://clawhub.ai/gora050/scrapeninja", "iconUrl": null, "installs": 0, "name": "Scrapeninja", "ownerName": "gora050", "score": 100000, "slug": "scrapeninja", "source": "clawhub", "stars": 0, "tags": null, "updated_at": 1776698270244, "version": "1.0.0"}, {"category": "", "created_at": 1774866277660, "description": "SMS Partner integration. Manage Accounts. Use when the user wants to interact with SMS Partner data.", "description_zh": "", "downloads": 30, "homepage": "https://clawhub.ai/gora050/sms-partner", "iconUrl": null, "installs": 0, "name": "Sms Partner", "ownerName": "gora050", "score": 100000, "slug": "sms-partner", "source": "clawhub", "stars": 0, "tags": null, "updated_at": 1776698270159, "version": "1.0.0"}, {"category": "", "created_at": 1774900295212, "description": "Identify repeated workflows, recurring user asks, common failures, and reusable procedures that should become new skills or improvements to existing skills....", "description_zh": "", "downloads": 30, "homepage": "https://clawhub.ai/noahfleming/skill-learner", "iconUrl": null, "installs": 0, "name": "Skill Learner", "ownerName": "noahfleming", "score": 100000, "slug": "skill-learner", "source": "clawhub", "stars": 0, "tags": null, "updated_at": 1776698270141, "version": "1.0.0"}, {"category": "", "created_at": 1774839034937, "description": "Fetch historical or forecast weather by location or coordinates via Open-Meteo. No API key needed.", "description_zh": "", "downloads": 30, "homepage": "https://clawhub.ai/minshi-veyt/weather-loader", "iconUrl": null, "installs": 5, "name": "Weather data loader (both history and forecast)", "ownerName": "minshi-veyt", "score": 100000, "slug": "weather-loader", "source": "clawhub", "stars": 0, "tags": null, "updated_at": 1776698270133, "version": "1.0.1"}, {"category": "", "created_at": 1774906116699, "description": "Local-first email for agents: IMAP sync to maildir + SQLite (FTS5); CLI search, read, thread, who, attachments. Requires Node 20+, npm install (`npm install...", "description_zh": "", "downloads": 30, "homepage": "https://clawhub.ai/cirne/zmail", "iconUrl": null, "installs": 0, "name": "zmail", "ownerName": "cirne", "score": 100000, "slug": "zmail", "source": "clawhub", "stars": 0, "tags": null, "updated_at": 1776698270074, "version": "0.1.2"}, {"category": "", "created_at": 1774920532204, "description": "Seedphrase reference tool. Use when working with seedphrase in blockchain contexts.", "description_zh": "", "downloads": 30, "homepage": "https://clawhub.ai/bytesagain3/seedphrase", "iconUrl": null, "installs": 2, "name": "Seedphrase", "ownerName": "bytesagain3", "score": 100000, "slug": "seedphrase", "source": "clawhub", "stars": 0, "tags": null, "updated_at": 1776698270069, "version": "1.0.0"}, {"category": "", "created_at": 1774923407248, "description": "Integrate the Turbos Finance CLMM SDK on Sui for pools, swaps, positions, fees, and liquidity workflows. Use when building or analyzing apps that interact wi...", "description_zh": "", "downloads": 30, "homepage": "https://clawhub.ai/lyiyun1024/turbos", "iconUrl": null, "installs": 1, "name": "Turbos CLMM SDK", "ownerName": "lyiyun1024", "score": 100000, "slug": "turbos", "source": "clawhub", "stars": 0, "tags": null, "updated_at": 1776698270067, "version": "0.1.0"}, {"category": "", "created_at": 1774880980475, "description": "Instant wallet intelligence for any EVM address. Know who you're dealing with before you interact. Wallet age, transaction history, token holdings, DeFi acti...", "description_zh": "", "downloads": 30, "homepage": "https://clawhub.ai/supah-based/supah-wallet-xray", "iconUrl": null, "installs": 0, "name": "SUPAH Wallet X-Ray", "ownerName": "supah-based", "score": 100000, "slug": "supah-wallet-xray", "source": "clawhub", "stars": 0, "tags": null, "updated_at": 1776698269833, "version": "1.3.0"}, {"category": "", "created_at": 1774882478149, "description": "Process accounting documents — invoices (hóa đơn GTGT), purchase orders, and bank statements. Extract structured data from PDF (digital and scanned), JPG, an...", "description_zh": "", "downloads": 30, "homepage": "https://clawhub.ai/dvnghiem/vn-accounting-skill", "iconUrl": null, "installs": 2, "name": "Accounting Skill", "ownerName": "dvnghiem", "score": 68181.81818181818, "slug": "vn-accounting-skill", "source": "clawhub", "stars": 0, "tags": null, "updated_at": 1776698269796, "version": "0.1.0"}, {"category": "", "created_at": 1774897087782, "description": "Serve spec-driven dev tools via MCP for AI-assisted workflows. Use when adding tasks, planning iterations, tracking completion, reviewing quality.", "description_zh": "", "downloads": 30, "homepage": "https://clawhub.ai/bytesagain3/spec-workflow-mcp", "iconUrl": null, "installs": 2, "name": "Spec Workflow Mcp", "ownerName": "bytesagain3", "score": 68181.81818181818, "slug": "spec-workflow-mcp", "source": "clawhub", "stars": 0, "tags": null, "updated_at": 1776698269766, "version": "1.0.0"}, {"category": "", "created_at": 1774844702520, "description": "When the user wants to add, optimize, or audit social share buttons (share article to X, LinkedIn, Facebook, etc.). Also use when the user mentions \"share bu...", "description_zh": "", "downloads": 30, "homepage": "https://clawhub.ai/kostja94/social-share-generator", "iconUrl": null, "installs": 0, "name": "social-share-generator", "ownerName": "kostja94", "score": 100000, "slug": "social-share-generator", "source": "clawhub", "stars": 0, "tags": null, "updated_at": 1776698269760, "version": "1.0.0"}, {"category": "", "created_at": 1774873086722, "description": "Backup OpenClaw data to desktop - quick backup (without skills, ~100MB) or full backup (with skills, ~500MB+). Supports scheduled automatic backups.", "description_zh": "", "downloads": 30, "homepage": "https://clawhub.ai/sen-platotech/sen-openclaw-backup", "iconUrl": null, "installs": 1, "name": "OpenClaw Backup", "ownerName": "sen-platotech", "score": 100000, "slug": "sen-openclaw-backup", "source": "clawhub", "stars": 0, "tags": ["backup", "cross-platform", "migration", "portable", "utility"], "updated_at": 1776698269669, "version": "1.1.2"}, {"category": "", "created_at": 1774849203186, "description": "Structured spec-first development workflow with multi-role expert review gates: clarify requirements, author spec documents (requirements/design/tasks), gene...", "description_zh": "", "downloads": 30, "homepage": "https://clawhub.ai/xhuaustc/spec-coder", "iconUrl": null, "installs": 1, "name": "Spec Coder", "ownerName": "xhuaustc", "score": 100000, "slug": "spec-coder", "source": "clawhub", "stars": 0, "tags": null, "updated_at": 1776698269569, "version": "0.1.3"}, {"category": "", "created_at": 1774945323366, "description": "Xueersi Idiom Chain Game: Interactive Chinese chengyu (idiom) chain game with explanations, difficulty levels, and vocabulary learning. Great for K-12 Chines...", "description_zh": "", "downloads": 30, "homepage": "https://clawhub.ai/zhouzhi-tal/xueersi-idiom-chain", "iconUrl": null, "installs": 0, "name": "Xueersi Idiom Chain Game", "ownerName": "zhouzhi-tal", "score": 100000, "slug": "xueersi-idiom-chain", "source": "clawhub", "stars": 0, "tags": ["chinese", "education", "k12", "xueersi"], "updated_at": 1776698269553, "version": "1.0.1"}, {"category": "", "created_at": 1774898751867, "description": "Search and analyze your own session logs (older/parent conversations) using jq.", "description_zh": "", "downloads": 30, "homepage": "https://clawhub.ai/yanjiang8124/session-logs1", "iconUrl": null, "installs": 1, "name": "session-logs1", "ownerName": "yanjiang8124", "score": 100000, "slug": "session-logs1", "source": "clawhub", "stars": 0, "tags": null, "updated_at": 1776698155537, "version": "1.0.0"}, {"category": "", "created_at": 1774865533546, "description": "Reference tool for devtools — covers intro, quickstart, patterns and more. Quick lookup for Web Check concepts, best practices, and implementation patterns.", "description_zh": "", "downloads": 30, "homepage": "https://clawhub.ai/xueyetianya/web-check", "iconUrl": null, "installs": 0, "name": "Web Check", "ownerName": "xueyetianya", "score": 100000, "slug": "web-check", "source": "clawhub", "stars": 0, "tags": null, "updated_at": 1776698155535, "version": "2.0.2"}, {"category": "", "created_at": 1774898901811, "description": "Shop Wayfair furniture and home goods via Strider Labs MCP connector. Search products, compare prices, check delivery estimates, and track orders.", "description_zh": "", "downloads": 30, "homepage": "https://clawhub.ai/markswendsen-code/strider-wayfair", "iconUrl": null, "installs": 0, "name": "Strider Wayfair", "ownerName": "markswendsen-code", "score": 100000, "slug": "strider-wayfair", "source": "clawhub", "stars": 0, "tags": null, "updated_at": 1776698155534, "version": "1.0.0"}, {"category": "", "created_at": 1774870532189, "description": "Reference tool for devtools — covers intro, quickstart, patterns and more. Quick lookup for Traceroute Visual concepts, best practices, and implementation pa...", "description_zh": "", "downloads": 30, "homepage": "https://clawhub.ai/xueyetianya/traceroute-visual", "iconUrl": null, "installs": 0, "name": "Traceroute Visual", "ownerName": "xueyetianya", "score": 100000, "slug": "traceroute-visual", "source": "clawhub", "stars": 0, "tags": null, "updated_at": 1776698155530, "version": "2.0.1"}, {"category": "", "created_at": 1774869301651, "description": "Audit all installed skills for quality, duplicates, structural issues, and best-practice compliance. Use when asked to review, audit, lint, or check skills f...", "description_zh": "", "downloads": 30, "homepage": "https://clawhub.ai/bill492/unblocklabs-skill-audit", "iconUrl": null, "installs": 0, "name": "Skill Audit", "ownerName": "bill492", "score": 100000, "slug": "unblocklabs-skill-audit", "source": "clawhub", "stars": 0, "tags": null, "updated_at": 1776698155524, "version": "1.0.0"}, {"category": "", "created_at": 1774917263322, "description": "SMS Magic integration. Manage SMSes, Contacts, Conversations, Templates, Campaigns, Lists. Use when the user wants to interact with SMS Magic data.", "description_zh": "", "downloads": 30, "homepage": "https://clawhub.ai/gora050/sms-magic", "iconUrl": null, "installs": 2, "name": "Sms Magic", "ownerName": "gora050", "score": 100000, "slug": "sms-magic", "source": "clawhub", "stars": 0, "tags": null, "updated_at": 1776698155513, "version": "1.0.0"}, {"category": "", "created_at": 1774855243852, "description": "PrintNode integration. Manage Printers, PrintJobs, Accounts. Use when the user wants to interact with PrintNode data.", "description_zh": "", "downloads": 30, "homepage": "https://clawhub.ai/gora050/printnode", "iconUrl": null, "installs": 1, "name": "Printnode", "ownerName": "gora050", "score": 100000, "slug": "printnode", "source": "clawhub", "stars": 0, "tags": null, "updated_at": 1776698155507, "version": "1.0.0"}, {"category": "", "created_at": 1774912167237, "description": "Position products and services in the market using strategic frameworks. Use for competitive analysis, pricing strategy, and value proposition design.", "description_zh": "", "downloads": 30, "homepage": "https://clawhub.ai/linuszz/products-services-differentiation", "iconUrl": null, "installs": 0, "name": "Products Services Differentiation", "ownerName": "linuszz", "score": 100000, "slug": "products-services-differentiation", "source": "clawhub", "stars": 0, "tags": null, "updated_at": 1776698155504, "version": "1.0.0"}, {"category": "", "created_at": 1774845616017, "description": "Run and grow a Whop business with better offers, checkout flows, promo strategy, affiliates, ads, tracking, analytics, support operations, and advanced API w...", "description_zh": "", "downloads": 30, "homepage": "https://clawhub.ai/ivangdavila/whop", "iconUrl": null, "installs": 1, "name": "Whop", "ownerName": "ivangdavila", "score": 100000, "slug": "whop", "source": "clawhub", "stars": 0, "tags": null, "updated_at": 1776698155496, "version": "1.0.1"}, {"category": "", "created_at": 1774887358681, "description": "Detects repeated queries as implicit negative feedback and non-repetition as positive feedback, enabling continuous learning by writing reflections and patte...", "description_zh": "", "downloads": 30, "homepage": "https://clawhub.ai/kaventures/reflex-learn", "iconUrl": null, "installs": 0, "name": "Reflexlearn", "ownerName": "kaventures", "score": 100000, "slug": "reflex-learn", "source": "clawhub", "stars": 0, "tags": null, "updated_at": 1776698155483, "version": "1.0.2"}, {"category": "", "created_at": 1774904824453, "description": "Analyze market share dynamics and momentum. Use for competitive analysis and strategic planning.", "description_zh": "", "downloads": 30, "homepage": "https://clawhub.ai/linuszz/share-momentum", "iconUrl": null, "installs": 0, "name": "Share Momentum", "ownerName": "linuszz", "score": 100000, "slug": "share-momentum", "source": "clawhub", "stars": 0, "tags": null, "updated_at": 1776698155479, "version": "1.0.0"}, {"category": "", "created_at": 1774892345655, "description": "Map competitor presence before the show and sharpen booth positioning.", "description_zh": "", "downloads": 30, "homepage": "https://clawhub.ai/weilun88313/pre-show-competitor-analysis", "iconUrl": null, "installs": 3, "name": "Pre Show Competitor Analysis", "ownerName": "weilun88313", "score": 100000, "slug": "pre-show-competitor-analysis", "source": "clawhub", "stars": 0, "tags": null, "updated_at": 1776698146992, "version": "1.0.3"}, {"category": "", "created_at": 1774956049604, "description": "Get current weather and forecasts (no API key required).", "description_zh": "", "downloads": 30, "homepage": "https://clawhub.ai/onlyloveher/weather-zhouli", "iconUrl": null, "installs": 2, "name": "Weather", "ownerName": "onlyloveher", "score": 100000, "slug": "weather-zhouli", "source": "clawhub", "stars": 0, "tags": null, "updated_at": 1776698146990, "version": "1.0.0"}, {"category": "", "created_at": 1774873232218, "description": "A collection of inspiring lists, manuals, cheatsheets, blogs, hacks, one-liners, cli/web tools and m the book of secret knowledge, python, awesome.", "description_zh": "", "downloads": 30, "homepage": "https://clawhub.ai/bytesagain3/sysadmin-handbook", "iconUrl": null, "installs": 1, "name": "Sysadmin Handbook", "ownerName": "bytesagain3", "score": 100000, "slug": "sysadmin-handbook", "source": "clawhub", "stars": 0, "tags": null, "updated_at": 1776698146988, "version": "1.0.0"}, {"category": "", "created_at": 1774901654355, "description": "Convert Windows paths to WSL paths for file operations in WSL environment", "description_zh": "", "downloads": 30, "homepage": "https://clawhub.ai/weiqihan/wsl-path-converter", "iconUrl": null, "installs": 3, "name": "wsl-path-converter", "ownerName": "weiqihan", "score": 100000, "slug": "wsl-path-converter", "source": "clawhub", "stars": 0, "tags": null, "updated_at": 1776698146983, "version": "1.0.0"}, {"category": "", "created_at": 1774879587194, "description": "This skill helps users automatically extract complete Markdown content from any website via the BrowserAct Web Search Scraper API. The Agent should proactive...", "description_zh": "", "downloads": 30, "homepage": "https://clawhub.ai/browseract-ai/web-search-scraper-api-skill", "iconUrl": null, "installs": 2, "name": "web-search-scraper-api-skill", "ownerName": "browseract-ai", "score": 100000, "slug": "web-search-scraper-api-skill", "source": "clawhub", "stars": 0, "tags": null, "updated_at": 1776698146982, "version": "1.0.0"}, {"category": "", "created_at": 1774888344765, "description": "Compare two queue or state snapshots and explain what changed between them. Use when Codex needs to analyze drift between JSON/JSONL snapshots, detect newly...", "description_zh": "", "downloads": 30, "homepage": "https://clawhub.ai/neo1307/queue-state-diff", "iconUrl": null, "installs": 0, "name": "Queue State Diff", "ownerName": "neo1307", "score": 100000, "slug": "queue-state-diff", "source": "clawhub", "stars": 0, "tags": null, "updated_at": 1776698146973, "version": "1.0.0"}, {"category": "", "created_at": 1774906629506, "description": "Machine-only debate arena. Join rooms, argue positions, run Python experiments. Humans only spectate.", "description_zh": "", "downloads": 30, "homepage": "https://clawhub.ai/bondarenkocom/hexnest", "iconUrl": null, "installs": 0, "name": "hexnest", "ownerName": "bondarenkocom", "score": 100000, "slug": "hexnest", "source": "clawhub", "stars": 0, "tags": null, "updated_at": 1776698144758, "version": "1.0.0"}, {"category": "", "created_at": 1774886468957, "description": "Automated guided vehicle route planner. Use when json agv tasks, csv agv tasks, checking agv status.", "description_zh": "", "downloads": 30, "homepage": "https://clawhub.ai/xueyetianya/agv", "iconUrl": null, "installs": 2, "name": "Agv", "ownerName": "xueyetianya", "score": 100000, "slug": "agv", "source": "clawhub", "stars": 0, "tags": null, "updated_at": 1776698144754, "version": "1.0.0"}, {"category": "", "created_at": 1774874053185, "description": "Interact with Joplin notes via CLI. Use for reading, creating, editing notes and managing todos. Supports WebDAV sync and kanban-formatted notes.", "description_zh": "", "downloads": 30, "homepage": "https://clawhub.ai/davek-dev/joplin-cli-skill", "iconUrl": null, "installs": 1, "name": "Joplin", "ownerName": "davek-dev", "score": 100000, "slug": "joplin-cli-skill", "source": "clawhub", "stars": 0, "tags": null, "updated_at": 1776698144751, "version": "1.3.6"}, {"category": "", "created_at": 1774944857826, "description": "Use when writing tests, creating test strategies, or building automation frameworks. Invoke for unit tests, integration tests, E2E, coverage analysis, perfor...", "description_zh": "", "downloads": 30, "homepage": "https://clawhub.ai/lintqiu/lin-tet-master", "iconUrl": null, "installs": 1, "name": "lin-tet-master", "ownerName": "lintqiu", "score": 100000, "slug": "lin-tet-master", "source": "clawhub", "stars": 0, "tags": null, "updated_at": 1776698144749, "version": "1.0.1"}, {"category": "", "created_at": 1774916885084, "description": "Generate secure random passwords and check password strength. Supports custom length and character types (uppercase, lowercase, numbers, symbols). Pure local...", "description_zh": "", "downloads": 30, "homepage": "https://clawhub.ai/alone86136/local-password", "iconUrl": null, "installs": 4, "name": "Local Password Generator & Strength Check", "ownerName": "alone86136", "score": 100000, "slug": "local-password", "source": "clawhub", "stars": 0, "tags": null, "updated_at": 1776698144748, "version": "1.0.0"}, {"category": "", "created_at": 1774847134374, "description": "Extract readable content from browser pages as markdown. Use when web_fetch fails (bot protection, auth-required pages, Twitter/X, LinkedIn) and you already...", "description_zh": "", "downloads": 30, "homepage": "https://clawhub.ai/bill492/browser-read", "iconUrl": null, "installs": 2, "name": "Browser Read", "ownerName": "bill492", "score": 100000, "slug": "browser-read", "source": "clawhub", "stars": 0, "tags": null, "updated_at": 1776698144746, "version": "1.0.0"}]}