{"page": 473, "total_pages": 522, "total": 26073, "skills": [{"category": "", "created_at": 1774945431928, "description": "Holded integration. Manage Organizations. Use when the user wants to interact with Holded data.", "description_zh": "", "downloads": 30, "homepage": "https://clawhub.ai/gora050/holded", "iconUrl": null, "installs": 0, "name": "Holded", "ownerName": "gora050", "score": 100000, "slug": "holded", "source": "clawhub", "stars": 0, "tags": null, "updated_at": 1776698144744, "version": "1.0.0"}, {"category": "", "created_at": 1774880538985, "description": "Optimizes Markdown-formatted messages for IM platforms (WeChat, DingTalk, etc.) by removing unsupported markup and using clean text layouts.", "description_zh": "", "downloads": 30, "homepage": "https://clawhub.ai/70asunflower/message-friendly", "iconUrl": null, "installs": 0, "name": "message-friendly", "ownerName": "70asunflower", "score": 100000, "slug": "message-friendly", "source": "clawhub", "stars": 0, "tags": null, "updated_at": 1776698144740, "version": "1.0.1"}, {"category": "", "created_at": 1774891278217, "description": "FraudLabs Pro integration. Manage data, records, and automate workflows. Use when the user wants to interact with FraudLabs Pro data.", "description_zh": "", "downloads": 30, "homepage": "https://clawhub.ai/gora050/fraudlabs-pro", "iconUrl": null, "installs": 0, "name": "Fraudlabs Pro", "ownerName": "gora050", "score": 100000, "slug": "fraudlabs-pro", "source": "clawhub", "stars": 0, "tags": null, "updated_at": 1776698144739, "version": "1.0.0"}, {"category": "", "created_at": 1774905614147, "description": "Generate a small, specific, daily-life Poke recipe MVP from idea to Kitchen-ready draft (name, onboarding, integrations, automations, sandbox tests), with a...", "description_zh": "", "downloads": 30, "homepage": "https://clawhub.ai/skylinehk/infinity-poke-recipe-generator", "iconUrl": null, "installs": 0, "name": "Infinity Poke Recipe Generator", "ownerName": "skylinehk", "score": 100000, "slug": "infinity-poke-recipe-generator", "source": "clawhub", "stars": 0, "tags": null, "updated_at": 1776698144733, "version": "0.1.2"}, {"category": "", "created_at": 1774875604831, "description": "GTmetrix integration. Manage Accounts. Use when the user wants to interact with GTmetrix data.", "description_zh": "", "downloads": 30, "homepage": "https://clawhub.ai/membranedev/gtmetrix", "iconUrl": null, "installs": 0, "name": "Gtmetrix", "ownerName": "membranedev", "score": 100000, "slug": "gtmetrix", "source": "clawhub", "stars": 0, "tags": null, "updated_at": 1776698144730, "version": "1.0.0"}, {"category": "", "created_at": 1774893176487, "description": "Capture key frames from video files at fixed time intervals. Use when you need to understand video content by extracting screenshots, or when you need to ana...", "description_zh": "", "downloads": 30, "homepage": "https://clawhub.ai/chentx1243/maple-video-capture", "iconUrl": null, "installs": 0, "name": "video2imgs-视频关键帧获取", "ownerName": "chentx1243", "score": 100000, "slug": "maple-video-capture", "source": "clawhub", "stars": 0, "tags": null, "updated_at": 1776698144727, "version": "1.0.0"}, {"category": "", "created_at": 1774845191332, "description": "Fetch full text from Twitter/X tweets via fxtwitter API, then translate to Chinese. Triggers when user shares a x.com / twitter.com / fxtwitter link and asks...", "description_zh": "", "downloads": 30, "homepage": "https://clawhub.ai/dizhu/fxtwitter-translate", "iconUrl": null, "installs": 1, "name": "FX Twitter Translate", "ownerName": "dizhu", "score": 100000, "slug": "fxtwitter-translate", "source": "clawhub", "stars": 0, "tags": null, "updated_at": 1776698144706, "version": "0.1.0"}, {"category": "", "created_at": 1774916201478, "description": "Use @ainative/react-sdk to add AI chat and credits to React apps. Use when (1) Installing @ainative/react-sdk, (2) Using the useChat hook for chat completion...", "description_zh": "", "downloads": 30, "homepage": "https://clawhub.ai/urbantech/ainative-react-sdk", "iconUrl": null, "installs": 0, "name": "Ainative React Sdk", "ownerName": "urbantech", "score": 100000, "slug": "ainative-react-sdk", "source": "clawhub", "stars": 0, "tags": null, "updated_at": 1776698144704, "version": "1.0.0"}, {"category": "", "created_at": 1774821327443, "description": "AI-powered highlight extraction that identifies the most engaging moments and generates viral-ready clips. Ideal for social media content creation, highlight...", "description_zh": "", "downloads": 30, "homepage": "https://clawhub.ai/wayinvideo/ai-clipping", "iconUrl": null, "installs": 1, "name": "AI Clipping", "ownerName": "wayinvideo", "score": 100000, "slug": "ai-clipping", "source": "clawhub", "stars": 0, "tags": null, "updated_at": 1776698144703, "version": "1.0.4"}, {"category": "", "created_at": 1774883118732, "description": "HTTP status code reference — instant lookup of any status code with meaning, common causes, and fix suggestions. Use when the user asks about an HTTP status...", "description_zh": "", "downloads": 30, "homepage": "https://clawhub.ai/tobewin/http-status", "iconUrl": null, "installs": 0, "name": "Http Status", "ownerName": "tobewin", "score": 100000, "slug": "http-status", "source": "clawhub", "stars": 0, "tags": null, "updated_at": 1776698144701, "version": "1.0.0"}, {"category": "", "created_at": 1774875691868, "description": "Validate JSON data against JSON Schema, generate schemas from sample JSON, and convert schemas to TypeScript interfaces, Python dataclasses, or Markdown docs...", "description_zh": "", "downloads": 30, "homepage": "https://clawhub.ai/johnnywang2001/json-schema-toolkit", "iconUrl": null, "installs": 0, "name": "Json Schema Toolkit", "ownerName": "johnnywang2001", "score": 100000, "slug": "json-schema-toolkit", "source": "clawhub", "stars": 0, "tags": null, "updated_at": 1776698144699, "version": "1.0.0"}, {"category": "", "created_at": 1774868643149, "description": "When the user wants to create, optimize, or audit blog page structure and content. Also use when the user mentions \"blog page,\" \"blog index,\" \"blog layout,\"...", "description_zh": "", "downloads": 30, "homepage": "https://clawhub.ai/kostja94/blog-page-generator", "iconUrl": null, "installs": 0, "name": "blog-page-generator", "ownerName": "kostja94", "score": 100000, "slug": "blog-page-generator", "source": "clawhub", "stars": 0, "tags": null, "updated_at": 1776698144696, "version": "1.0.0"}, {"category": "", "created_at": 1774864644010, "description": "When the user wants to design, optimize, or audit card layouts for content display. Also use when the user mentions \"card layout,\" \"card component,\" \"card gr...", "description_zh": "", "downloads": 30, "homepage": "https://clawhub.ai/kostja94/card-components", "iconUrl": null, "installs": 0, "name": "card", "ownerName": "kostja94", "score": 100000, "slug": "card-components", "source": "clawhub", "stars": 0, "tags": null, "updated_at": 1776698144692, "version": "1.1.0"}, {"category": "", "created_at": 1774890940279, "description": "CardZero — the first payment wallet built for AI agents. Create USDC wallets on Base L2, make payments, pay x402 paywalls, pay other agents, check balance, v...", "description_zh": "", "downloads": 30, "homepage": "https://clawhub.ai/mrocker/cardzero", "iconUrl": null, "installs": 0, "name": "CardZero", "ownerName": "mrocker", "score": 100000, "slug": "cardzero", "source": "clawhub", "stars": 0, "tags": null, "updated_at": 1776698144682, "version": "1.3.0"}, {"category": "", "created_at": 1774852421046, "description": "Turn Hong Kong stock research into Gougoubi-ready prediction proposals with deterministic market wording, deadline selection, resolution rules, and tags. Use...", "description_zh": "", "downloads": 30, "homepage": "https://clawhub.ai/chinasong/hk-stock-to-gougoubi-prediction", "iconUrl": null, "installs": 1, "name": "Hk Stock To Gougoubi Prediction", "ownerName": "chinasong", "score": 100000, "slug": "hk-stock-to-gougoubi-prediction", "source": "clawhub", "stars": 0, "tags": null, "updated_at": 1776698144678, "version": "1.0.0"}, {"category": "", "created_at": 1774869691930, "description": "Comprehensive industrial machinery industry suppliers guide for international buyers – provides detailed information about China's machine tools, constructio...", "description_zh": "", "downloads": 30, "homepage": "https://clawhub.ai/findhappy7/china-industrial-machinery-suppliers", "iconUrl": null, "installs": 1, "name": "China Industrial Machinery Suppliers", "ownerName": "findhappy7", "score": 100000, "slug": "china-industrial-machinery-suppliers", "source": "clawhub", "stars": 0, "tags": null, "updated_at": 1776698144676, "version": "1.0.0"}, {"category": "", "created_at": 1774921210268, "description": "Dub integration. Manage Links, Workspaces. Use when the user wants to interact with Dub data.", "description_zh": "", "downloads": 30, "homepage": "https://clawhub.ai/gora050/dub", "iconUrl": null, "installs": 0, "name": "Dub", "ownerName": "gora050", "score": 100000, "slug": "dub", "source": "clawhub", "stars": 0, "tags": null, "updated_at": 1776698144674, "version": "1.0.0"}, {"category": "", "created_at": 1774910979214, "description": "AI-powered video editing via the Mosaic API. Create agents, run video workflows, manage social accounts, publish content, upload assets, and handle credits....", "description_zh": "", "downloads": 30, "homepage": "https://clawhub.ai/kyle1373/mosaic-video-editor", "iconUrl": null, "installs": 1, "name": "Mosaic Video Editor", "ownerName": "kyle1373", "score": 100000, "slug": "mosaic-video-editor", "source": "clawhub", "stars": 0, "tags": null, "updated_at": 1776698144666, "version": "1.3.0"}, {"category": "", "created_at": 1774909430280, "description": "Algomo integration. Manage data, records, and automate workflows. Use when the user wants to interact with Algomo data.", "description_zh": "", "downloads": 30, "homepage": "https://clawhub.ai/membranedev/algomo", "iconUrl": null, "installs": 0, "name": "Algomo", "ownerName": "membranedev", "score": 100000, "slug": "algomo", "source": "clawhub", "stars": 0, "tags": null, "updated_at": 1776698144649, "version": "1.0.0"}, {"category": "", "created_at": 1774945776353, "description": "Analyze, rewrite, and generate design specs to make web pages and websites more easily usable by AI agents, web scrapers, and automation tools. Use when (1)...", "description_zh": "", "downloads": 30, "homepage": "https://clawhub.ai/chartgen-ai/agentify", "iconUrl": null, "installs": 0, "name": "Agentify", "ownerName": "chartgen-ai", "score": 100000, "slug": "agentify", "source": "clawhub", "stars": 0, "tags": null, "updated_at": 1776698144647, "version": "1.0.1"}, {"category": "", "created_at": 1774904340119, "description": "Automatically detect and de-identify PII (Personal Identifiable Information) and PHI (Protected Health Information) from clinical/medical text to ensure HIPA...", "description_zh": "", "downloads": 30, "homepage": "https://clawhub.ai/aipoch-ai/hipaa-compliance-auditor", "iconUrl": null, "installs": 1, "name": "Hipaa Compliance Auditor", "ownerName": "aipoch-ai", "score": 100000, "slug": "hipaa-compliance-auditor", "source": "clawhub", "stars": 0, "tags": null, "updated_at": 1776698144642, "version": "0.1.0"}, {"category": "", "created_at": 1774902873421, "description": "Algorithmia integration. Manage data, records, and automate workflows. Use when the user wants to interact with Algorithmia data.", "description_zh": "", "downloads": 30, "homepage": "https://clawhub.ai/gora050/algorithmia", "iconUrl": null, "installs": 0, "name": "Algorithmia", "ownerName": "gora050", "score": 100000, "slug": "algorithmia", "source": "clawhub", "stars": 0, "tags": null, "updated_at": 1776698144629, "version": "1.0.0"}, {"category": "", "created_at": 1774871053866, "description": "Intelligent China visa assistant that provides personalized visa recommendations, appointment booking guidance, application tracking tips, and real-time poli...", "description_zh": "", "downloads": 30, "homepage": "https://clawhub.ai/findhappy7/china-visa-helper", "iconUrl": null, "installs": 0, "name": "China Visa Helper", "ownerName": "findhappy7", "score": 100000, "slug": "china-visa-helper", "source": "clawhub", "stars": 0, "tags": null, "updated_at": 1776698144628, "version": "1.0.0"}, {"category": "", "created_at": 1774906771472, "description": "Move reference tool. Use when working with move in blockchain contexts.", "description_zh": "", "downloads": 30, "homepage": "https://clawhub.ai/bytesagain3/move", "iconUrl": null, "installs": 0, "name": "Move", "ownerName": "bytesagain3", "score": 100000, "slug": "move", "source": "clawhub", "stars": 0, "tags": null, "updated_at": 1776698144626, "version": "1.0.0"}, {"category": "", "created_at": 1774954200795, "description": "Monitor blogs and RSS/Atom feeds for updates using the blogwatcher CLI.", "description_zh": "", "downloads": 30, "homepage": "https://clawhub.ai/enhongx/blogwatcher-bak", "iconUrl": null, "installs": 0, "name": "Blogwatcher.Bak", "ownerName": "enhongx", "score": 100000, "slug": "blogwatcher-bak", "source": "clawhub", "stars": 0, "tags": null, "updated_at": 1776698144623, "version": "1.0.0"}, {"category": "", "created_at": 1774864891625, "description": "Talk to a user's Hardcover bookshelf via the Hardcover GraphQL API. Use when the user wants to manage reading activity in natural language: start a book, fin...", "description_zh": "", "downloads": 30, "homepage": "https://clawhub.ai/diwakergupta/hardcover-bookshelf", "iconUrl": null, "installs": 0, "name": "Hardcover Bookshelf Skill", "ownerName": "diwakergupta", "score": 100000, "slug": "hardcover-bookshelf", "source": "clawhub", "stars": 0, "tags": ["books", "goodreads", "hardcover"], "updated_at": 1776698144619, "version": "0.1.0"}, {"category": "", "created_at": 1774796465219, "description": "Earn passive income from market research. Your agent drafts answers to brand survey questions — you review, edit, and approve every answer before it's shared...", "description_zh": "", "downloads": 30, "homepage": "https://clawhub.ai/tgzhou98/claw-insight-skill", "iconUrl": null, "installs": 1, "name": "ClawInsight", "ownerName": "tgzhou98", "score": 100000, "slug": "claw-insight-skill", "source": "clawhub", "stars": 0, "tags": null, "updated_at": 1776698144615, "version": "0.1.18"}, {"category": "", "created_at": 1774912511782, "description": "AI-powered Voice of Customer (VoC) review intelligence agent using DeepSeek-style analysis. Deep semantic analysis of customer reviews to extract pain points...", "description_zh": "", "downloads": 30, "homepage": "https://clawhub.ai/mguozhen/ai-voc-review-insights", "iconUrl": null, "installs": 1, "name": "Ai Voc Review Insights", "ownerName": "mguozhen", "score": 100000, "slug": "ai-voc-review-insights", "source": "clawhub", "stars": 0, "tags": null, "updated_at": 1776698144608, "version": "1.0.0"}, {"category": "", "created_at": 1774844061489, "description": "Google Workflow: Announce a Drive file in a Chat space.", "description_zh": "", "downloads": 30, "homepage": "https://clawhub.ai/googleworkspace-bot/gws-workflow-file-announce", "iconUrl": null, "installs": 0, "name": "Gws Workflow File Announce", "ownerName": "googleworkspace-bot", "score": 100000, "slug": "gws-workflow-file-announce", "source": "clawhub", "stars": 0, "tags": null, "updated_at": 1776698144605, "version": "1.0.10"}, {"category": "", "created_at": 1774875599969, "description": "Provides CI/CD pipeline configuration using GitHub Actions for Golang projects. Covers testing, linting, SAST, security scanning, code coverage, Dependabot,...", "description_zh": "", "downloads": 30, "homepage": "https://clawhub.ai/samber/golang-continuous-integration", "iconUrl": null, "installs": 0, "name": "Golang Continuous Integration", "ownerName": "samber", "score": 100000, "slug": "golang-continuous-integration", "source": "clawhub", "stars": 0, "tags": null, "updated_at": 1776698144592, "version": "1.1.1"}, {"category": "", "created_at": 1774916777585, "description": "Google Forms API integration with managed OAuth. Create forms, add questions, export responses to Excel, and summarize response data. Use this skill when use...", "description_zh": "", "downloads": 30, "homepage": "https://clawhub.ai/dfaaa/google-forms-with-forms-ios-app", "iconUrl": null, "installs": 3, "name": "Forms for Google Drive", "ownerName": "dfaaa", "score": 100000, "slug": "google-forms-with-forms-ios-app", "source": "clawhub", "stars": 0, "tags": null, "updated_at": 1776698144589, "version": "1.0.0"}, {"category": "", "created_at": 1774868609426, "description": "Audits Move contracts for security vulnerabilities before deployment using 7-category checklist. Triggers on: 'audit contract', 'security check', 'review sec...", "description_zh": "", "downloads": 30, "homepage": "https://clawhub.ai/iskysun96/aptos-security-audit", "iconUrl": null, "installs": 0, "name": "Security Audit", "ownerName": "iskysun96", "score": 100000, "slug": "aptos-security-audit", "source": "clawhub", "stars": 0, "tags": null, "updated_at": 1776698144587, "version": "1.0.0"}, {"category": "", "created_at": 1774908633634, "description": "GroundHogg integration. Manage Persons, Organizations, Deals, Pipelines, Users, Roles and more. Use when the user wants to interact with GroundHogg data.", "description_zh": "", "downloads": 30, "homepage": "https://clawhub.ai/gora050/groundhogg", "iconUrl": null, "installs": 0, "name": "Groundhogg", "ownerName": "gora050", "score": 100000, "slug": "groundhogg", "source": "clawhub", "stars": 0, "tags": null, "updated_at": 1776698144583, "version": "1.0.0"}, {"category": "", "created_at": 1774860851849, "description": "Decode what people really mean in their messages. This AI reads between the lines to reveal hidden emotions, passive aggressive undertones, and unspoken inte...", "description_zh": "", "downloads": 30, "homepage": "https://clawhub.ai/imwyvern/chatdecode", "iconUrl": null, "installs": 0, "name": "Chatdecode Skill", "ownerName": "imwyvern", "score": 100000, "slug": "chatdecode", "source": "clawhub", "stars": 0, "tags": null, "updated_at": 1776698144578, "version": "1.1.1"}, {"category": "", "created_at": 1774861049931, "description": "Reference tool for devtools — covers intro, quickstart, patterns and more. Quick lookup for Infra Importer concepts, best practices, and implementation patte...", "description_zh": "", "downloads": 30, "homepage": "https://clawhub.ai/bytesagain3/infra-importer", "iconUrl": null, "installs": 0, "name": "Infra Importer", "ownerName": "bytesagain3", "score": 100000, "slug": "infra-importer", "source": "clawhub", "stars": 0, "tags": null, "updated_at": 1776698144577, "version": "2.0.1"}, {"category": "", "created_at": 1774924230735, "description": "Invoiced integration. Manage Organizations. Use when the user wants to interact with Invoiced data.", "description_zh": "", "downloads": 30, "homepage": "https://clawhub.ai/gora050/invoiced", "iconUrl": null, "installs": 0, "name": "Invoiced", "ownerName": "gora050", "score": 100000, "slug": "invoiced", "source": "clawhub", "stars": 0, "tags": null, "updated_at": 1776698144575, "version": "1.0.0"}, {"category": "", "created_at": 1774950500603, "description": "Information assistant for Intel. Search products, news, financials, and official resources for Intel.", "description_zh": "", "downloads": 30, "homepage": "https://clawhub.ai/hanxueyuan/intel", "iconUrl": null, "installs": 0, "name": "intel", "ownerName": "hanxueyuan", "score": 100000, "slug": "intel", "source": "clawhub", "stars": 0, "tags": null, "updated_at": 1776698144571, "version": "0.1.0"}, {"category": "", "created_at": 1774874864347, "description": "Control smart home devices configured in Smart Plus APP. Use when you need to: (1) Query devices and scenes (lights, AC, switches), (2) Control device power...", "description_zh": "", "downloads": 30, "homepage": "https://clawhub.ai/mxchipyun/mxchip-smart-control", "iconUrl": null, "installs": 0, "name": "mxchip-smart-control", "ownerName": "mxchipyun", "score": 100000, "slug": "mxchip-smart-control", "source": "clawhub", "stars": 0, "tags": null, "updated_at": 1776698144568, "version": "1.0.2"}, {"category": "", "created_at": 1774895827539, "description": "Professional business hospitality including reception plans, seating arrangements, dining coordination, and etiquette guidance. Covers VIP visits, business d...", "description_zh": "", "downloads": 30, "homepage": "https://clawhub.ai/1970168137/biz-hospitality", "iconUrl": null, "installs": 2, "name": "Biz Hospitality", "ownerName": "1970168137", "score": 100000, "slug": "biz-hospitality", "source": "clawhub", "stars": 0, "tags": null, "updated_at": 1776698144562, "version": "1.0.0"}, {"category": "", "created_at": 1774871064154, "description": "Deep domain research — entity extraction, cross-article connections, and structured domain reports from your knowledge base", "description_zh": "", "downloads": 30, "homepage": "https://clawhub.ai/dainash/clawforage-research-agent", "iconUrl": null, "installs": 0, "name": "ClawForage Research Agent", "ownerName": "dainash", "score": 100000, "slug": "clawforage-research-agent", "source": "clawhub", "stars": 0, "tags": null, "updated_at": 1776698144557, "version": "0.1.0"}, {"category": "", "created_at": 1774905335873, "description": "Extract brand tone and generate multi-version brand narratives and naming proposals", "description_zh": "", "downloads": 30, "homepage": "https://clawhub.ai/1970168137/brand-narrative", "iconUrl": null, "installs": 2, "name": "Brand Narrative", "ownerName": "1970168137", "score": 100000, "slug": "brand-narrative", "source": "clawhub", "stars": 0, "tags": null, "updated_at": 1776698144555, "version": "1.0.0"}, {"category": "", "created_at": 1774867445038, "description": "A behavioral skill that enforces proactive time estimation and progress updates. It **must be activated for any task predicted to exceed 15 seconds.** It use...", "description_zh": "", "downloads": 30, "homepage": "https://clawhub.ai/yanghe1941/adaptive-eta", "iconUrl": null, "installs": 1, "name": "Adaptive Eta", "ownerName": "yanghe1941", "score": 100000, "slug": "adaptive-eta", "source": "clawhub", "stars": 0, "tags": null, "updated_at": 1776698144552, "version": "0.2.5"}, {"category": "", "created_at": 1774880423692, "description": "AI-native resale marketplace. Browse, list, buy, sell, negotiate, message, and manage orders. 49 MCP tools. 3% seller fee, 3.5% buyer fee ($0.99 min). No lis...", "description_zh": "", "downloads": 30, "homepage": "https://clawhub.ai/douglashardman/kabuzz-marketplace", "iconUrl": null, "installs": 0, "name": "Kabuzz", "ownerName": "douglashardman", "score": 100000, "slug": "kabuzz-marketplace", "source": "clawhub", "stars": 0, "tags": ["buy", "e-commerce", "marketplace", "negotiate", "resale", "sell", "shipping", "shopping"], "updated_at": 1776698144543, "version": "1.0.1"}, {"category": "", "created_at": 1774896454608, "description": "Screen tenant applications using Fair Housing compliant criteria for Massachusetts properties. Use when evaluating a rental application, setting screening cr...", "description_zh": "", "downloads": 30, "homepage": "https://clawhub.ai/adamsjb/homestruk-tenant-screening", "iconUrl": null, "installs": 0, "name": "Homestruk Tenant Screening", "ownerName": "adamsjb", "score": 100000, "slug": "homestruk-tenant-screening", "source": "clawhub", "stars": 0, "tags": null, "updated_at": 1776698144541, "version": "1.0.0"}, {"category": "", "created_at": 1774893886889, "description": "Guide users through creating a Stripe account, configuring products/prices, and scaffolding the appsettings.json for any .NET 9 project. Explain how to manua...", "description_zh": "", "downloads": 30, "homepage": "https://clawhub.ai/macmerg/stripe-blazor-setup", "iconUrl": null, "installs": 0, "name": "Stripe Setup for Blazor Server", "ownerName": "macmerg", "score": 100000, "slug": "stripe-blazor-setup", "source": "clawhub", "stars": 0, "tags": null, "updated_at": 1776698144539, "version": "1.0.3"}, {"category": "", "created_at": 1774909892454, "description": "Convert a local video into an iPhone-compatible Live Photo package (.pvt) for Apple Photos, lock-screen wallpaper use, or Live Photo sharing. Use when the us...", "description_zh": "", "downloads": 30, "homepage": "https://clawhub.ai/hekaiii/live-photo-maker", "iconUrl": null, "installs": 2, "name": "Live Photo Maker", "ownerName": "hekaiii", "score": 100000, "slug": "live-photo-maker", "source": "clawhub", "stars": 0, "tags": null, "updated_at": 1776698144536, "version": "1.0.2"}, {"category": "", "created_at": 1774894841858, "description": "Autonomous CRM for freelancers. Tracks clients, detects follow-up opportunities, generates proposals, tracks invoices, and sends a weekly digest. Works via W...", "description_zh": "", "downloads": 30, "homepage": "https://clawhub.ai/omermalix/freelancer-crm", "iconUrl": null, "installs": 0, "name": "freelancer-crm", "ownerName": "omermalix", "score": 100000, "slug": "freelancer-crm", "source": "clawhub", "stars": 0, "tags": null, "updated_at": 1776698144532, "version": "1.0.2"}, {"category": "", "created_at": 1774874154796, "description": "Check macOS hardware health: CPU usage, RAM pressure, disk space, temperatures, and top processes. Returns a quick status summary or full breakdown. USE WHEN...", "description_zh": "", "downloads": 30, "homepage": "https://clawhub.ai/wrentheai/macvital", "iconUrl": null, "installs": 0, "name": "Macvital", "ownerName": "wrentheai", "score": 100000, "slug": "macvital", "source": "clawhub", "stars": 0, "tags": null, "updated_at": 1776698144527, "version": "1.0.1"}, {"category": "", "created_at": 1774906742539, "description": "When the user wants to create, optimize, or audit media kit or press page. Also use when the user mentions \"media kit,\" \"press kit,\" \"press page,\" \"press res...", "description_zh": "", "downloads": 30, "homepage": "https://clawhub.ai/kostja94/media-kit-page-generator", "iconUrl": null, "installs": 0, "name": "media-kit-page-generator", "ownerName": "kostja94", "score": 100000, "slug": "media-kit-page-generator", "source": "clawhub", "stars": 0, "tags": null, "updated_at": 1776698144523, "version": "1.0.0"}, {"category": "", "created_at": 1774900735237, "description": "Chatra integration. Manage data, records, and automate workflows. Use when the user wants to interact with Chatra data.", "description_zh": "", "downloads": 30, "homepage": "https://clawhub.ai/membranedev/chatra", "iconUrl": null, "installs": 0, "name": "Chatra", "ownerName": "membranedev", "score": 100000, "slug": "chatra", "source": "clawhub", "stars": 0, "tags": null, "updated_at": 1776698144509, "version": "1.0.0"}]}