{"page": 474, "total_pages": 522, "total": 26073, "skills": [{"category": "", "created_at": 1774901806542, "description": "Billsby integration. Manage data, records, and automate workflows. Use when the user wants to interact with Billsby data.", "description_zh": "", "downloads": 30, "homepage": "https://clawhub.ai/membranedev/billsby", "iconUrl": null, "installs": 0, "name": "Billsby", "ownerName": "membranedev", "score": 100000, "slug": "billsby", "source": "clawhub", "stars": 0, "tags": null, "updated_at": 1776698144505, "version": "1.0.0"}, {"category": "", "created_at": 1774867946410, "description": "InMobile integration. Manage data, records, and automate workflows. Use when the user wants to interact with InMobile data.", "description_zh": "", "downloads": 30, "homepage": "https://clawhub.ai/membranedev/inmobile", "iconUrl": null, "installs": 0, "name": "Inmobile", "ownerName": "membranedev", "score": 100000, "slug": "inmobile", "source": "clawhub", "stars": 0, "tags": null, "updated_at": 1776698144503, "version": "1.0.0"}, {"category": "", "created_at": 1774886052540, "description": "SparkPost integration. Manage Campaigns, Templates. Use when the user wants to interact with SparkPost data.", "description_zh": "", "downloads": 30, "homepage": "https://clawhub.ai/gora050/sparkpost", "iconUrl": null, "installs": 0, "name": "Sparkpost", "ownerName": "gora050", "score": 100000, "slug": "sparkpost", "source": "clawhub", "stars": 0, "tags": null, "updated_at": 1776698144497, "version": "1.0.0"}, {"category": "", "created_at": 1774909960849, "description": "Mojo Helpdesk integration. Manage Tickets, Users, Organizations, Reports. Use when the user wants to interact with Mojo Helpdesk data.", "description_zh": "", "downloads": 30, "homepage": "https://clawhub.ai/gora050/mojo-helpdesk", "iconUrl": null, "installs": 0, "name": "Mojo Helpdesk", "ownerName": "gora050", "score": 100000, "slug": "mojo-helpdesk", "source": "clawhub", "stars": 0, "tags": null, "updated_at": 1776698144496, "version": "1.0.0"}, {"category": "", "created_at": 1774904348501, "description": "Track lease expirations and manage the 90-day renewal process. Use when checking upcoming lease expirations, planning rent increases, drafting renewal offers...", "description_zh": "", "downloads": 30, "homepage": "https://clawhub.ai/adamsjb/homestruk-lease-renewal", "iconUrl": null, "installs": 0, "name": "Homestruk Lease Renewal", "ownerName": "adamsjb", "score": 100000, "slug": "homestruk-lease-renewal", "source": "clawhub", "stars": 0, "tags": null, "updated_at": 1776698144494, "version": "1.0.0"}, {"category": "", "created_at": 1774863635050, "description": "Check transaction status on Hymatrix bridge", "description_zh": "", "downloads": 30, "homepage": "https://clawhub.ai/charles-lpd/check-hymx-transaction", "iconUrl": null, "installs": 0, "name": "check-hymx-transaction", "ownerName": "charles-lpd", "score": 100000, "slug": "check-hymx-transaction", "source": "clawhub", "stars": 0, "tags": null, "updated_at": 1776698144492, "version": "1.0.0"}, {"category": "", "created_at": 1774898303191, "description": "Find a product on the Lululemon Australia site from a natural-language clothing description and return structured details such as product name, variant color...", "description_zh": "", "downloads": 30, "homepage": "https://clawhub.ai/ensonfun/lululemon-au-product-finder", "iconUrl": null, "installs": 2, "name": "Lululemon AU Finder", "ownerName": "ensonfun", "score": 100000, "slug": "lululemon-au-product-finder", "source": "clawhub", "stars": 0, "tags": ["anti-bot", "australia", "ecommerce", "lululemon", "product-search", "shopping"], "updated_at": 1776698144491, "version": "0.1.0"}, {"category": "", "created_at": 1774837773044, "description": "Search 119K evidence-backed skills from 95K+ papers & 24K+ tech sources", "description_zh": "", "downloads": 30, "homepage": "https://clawhub.ai/shatianming5/langskills-search", "iconUrl": null, "installs": 1, "name": "LangSkills Search", "ownerName": "shatianming5", "score": 100000, "slug": "langskills-search", "source": "clawhub", "stars": 0, "tags": ["evidence", "knowledge-base", "research", "search", "skills"], "updated_at": 1776698144481, "version": "1.0.0"}, {"category": "", "created_at": 1774908276713, "description": "Find nearby cinemas. Invoke when user asks for movie theaters near me.", "description_zh": "", "downloads": 30, "homepage": "https://clawhub.ai/mikeclaw007/cinemas", "iconUrl": null, "installs": 0, "name": "Cinemas", "ownerName": "mikeclaw007", "score": 100000, "slug": "cinemas", "source": "clawhub", "stars": 0, "tags": null, "updated_at": 1776698144476, "version": "0.1.0"}, {"category": "", "created_at": 1774913046968, "description": "Analyze customer behavior signals to predict churn probability and route retention campaign decisions through a human approval gate via MOVA HITL. Trigger wh...", "description_zh": "", "downloads": 30, "homepage": "https://clawhub.ai/mova-compact/mova-churn-prediction", "iconUrl": null, "installs": 1, "name": "Mova Churn Prediction", "ownerName": "mova-compact", "score": 100000, "slug": "mova-churn-prediction", "source": "clawhub", "stars": 0, "tags": null, "updated_at": 1776698144468, "version": "1.2.0"}, {"category": "", "created_at": 1774874128226, "description": "Little Green Light integration. Manage Organizations, Funds, Campaigns, Appeals, Events, Tasks and more. Use when the user wants to interact with Little Gree...", "description_zh": "", "downloads": 30, "homepage": "https://clawhub.ai/gora050/little-green-light", "iconUrl": null, "installs": 0, "name": "Little Green Light", "ownerName": "gora050", "score": 100000, "slug": "little-green-light", "source": "clawhub", "stars": 0, "tags": null, "updated_at": 1776698144461, "version": "1.0.0"}, {"category": "", "created_at": 1774951293713, "description": "Orchestrate repo-native, supervised software delivery with the Laizy CLI. Use when a user wants to bootstrap or continue a multi-step coding run with explici...", "description_zh": "", "downloads": 30, "homepage": "https://clawhub.ai/xiaolonggao521/laizy", "iconUrl": null, "installs": 0, "name": "Laizy", "ownerName": "xiaolonggao521", "score": 100000, "slug": "laizy", "source": "clawhub", "stars": 0, "tags": null, "updated_at": 1776698144457, "version": "0.2.0"}, {"category": "", "created_at": 1774924075044, "description": "Generates a personalised French language practice session based on CEFR/DELF level. Covers vocabulary, grammar, verb conjugation, gender, reading, and speaki...", "description_zh": "", "downloads": 30, "homepage": "https://clawhub.ai/tetsuakira-vk/french-daily-drill", "iconUrl": null, "installs": 1, "name": "French Daily Drill", "ownerName": "tetsuakira-vk", "score": 100000, "slug": "french-daily-drill", "source": "clawhub", "stars": 0, "tags": null, "updated_at": 1776698144454, "version": "1.0.0"}, {"category": "", "created_at": 1774912550583, "description": "Generate personalized career development roadmaps for augmented reality and virtual reality developers based on skills assessment and professional goals.", "description_zh": "", "downloads": 30, "homepage": "https://clawhub.ai/krishnakumarmahadevan-cmd/ar-vr-developer", "iconUrl": null, "installs": 0, "name": "AR VR Developer", "ownerName": "krishnakumarmahadevan-cmd", "score": 100000, "slug": "ar-vr-developer", "source": "clawhub", "stars": 0, "tags": null, "updated_at": 1776698144448, "version": "1.0.0"}, {"category": "", "created_at": 1774834654617, "description": "Debug AI agent issues systematically. Covers tool failures, infinite loops, context overflow, rate limits, and performance bottlenecks. Use when agents misbe...", "description_zh": "", "downloads": 30, "homepage": "https://clawhub.ai/engsathiago/agent-debugger", "iconUrl": null, "installs": 0, "name": "Agent Debugger", "ownerName": "engsathiago", "score": 100000, "slug": "agent-debugger", "source": "clawhub", "stars": 0, "tags": ["debug", "error-handling", "loops", "rate-limit", "troubleshooting"], "updated_at": 1776698144445, "version": "1.0.0"}, {"category": "", "created_at": 1774906646196, "description": "Information assistant for IKEA. Search products, news, financials, and official resources for IKEA.", "description_zh": "", "downloads": 30, "homepage": "https://clawhub.ai/hanxueyuan/ikea", "iconUrl": null, "installs": 0, "name": "IKEA", "ownerName": "hanxueyuan", "score": 100000, "slug": "ikea", "source": "clawhub", "stars": 0, "tags": null, "updated_at": 1776698144439, "version": "0.1.1"}, {"category": "", "created_at": 1774944888705, "description": "Free medical intelligence for AI assistants. 5 agents, 20 skills. Lite version of MedSynIQ Pro.", "description_zh": "", "downloads": 30, "homepage": "https://clawhub.ai/brainbytes-dev/medsyniq-lite", "iconUrl": null, "installs": 0, "name": "MedSynIQ Lite", "ownerName": "brainbytes-dev", "score": 100000, "slug": "medsyniq-lite", "source": "clawhub", "stars": 0, "tags": ["biostatistics", "clinical-reasoning", "evidence-based-medicine", "medical-education", "medicine", "pharmacology"], "updated_at": 1776698144423, "version": "1.0.0"}, {"category": "", "created_at": 1774921380281, "description": "Structured logging extensions for Golang using samber/slog-**** packages — multi-handler pipelines (slog-multi), log sampling (slog-sampling), attribute form...", "description_zh": "", "downloads": 30, "homepage": "https://clawhub.ai/samber/golang-samber-slog", "iconUrl": null, "installs": 0, "name": "Golang Samber Slog", "ownerName": "samber", "score": 100000, "slug": "golang-samber-slog", "source": "clawhub", "stars": 0, "tags": null, "updated_at": 1776698144417, "version": "0.1.0"}, {"category": "", "created_at": 1774917013790, "description": "Multisig reference tool. Use when working with multisig in blockchain contexts.", "description_zh": "", "downloads": 30, "homepage": "https://clawhub.ai/ckchzh/multisig", "iconUrl": null, "installs": 0, "name": "Multisig", "ownerName": "ckchzh", "score": 100000, "slug": "multisig", "source": "clawhub", "stars": 0, "tags": null, "updated_at": 1776698144416, "version": "1.0.0"}, {"category": "", "created_at": 1774859973072, "description": "Monitor OpenClaw agent health, token usage, API cost, and context window in real time. Use when you need to check your own status, inspect context utilizatio...", "description_zh": "", "downloads": 30, "homepage": "https://clawhub.ai/liuhao6741/clawprobe", "iconUrl": null, "installs": 0, "name": "Clawprobe", "ownerName": "liuhao6741", "score": 100000, "slug": "clawprobe", "source": "clawhub", "stars": 0, "tags": null, "updated_at": 1776698144410, "version": "0.6.9"}, {"category": "", "created_at": 1774948642746, "description": "Predict depletion time of critical lab reagents based on historical usage frequency, and automatically generate purchase alerts when stock falls below safety...", "description_zh": "", "downloads": 30, "homepage": "https://clawhub.ai/aipoch-ai/lab-inventory-predictor", "iconUrl": null, "installs": 0, "name": "Lab Inventory Predictor", "ownerName": "aipoch-ai", "score": 100000, "slug": "lab-inventory-predictor", "source": "clawhub", "stars": 0, "tags": null, "updated_at": 1776698144408, "version": "1.0.0"}, {"category": "", "created_at": 1774877422489, "description": "Use when building, embedding, customizing, or troubleshooting AR/XR experiences with the Kivicube Web Plugin, including WebAR/Web3D H5 pages, landing pages,...", "description_zh": "", "downloads": 30, "homepage": "https://clawhub.ai/listenlin/kivicube-web-plugin-ar-xr-builder", "iconUrl": null, "installs": 1, "name": "AR XR Builder", "ownerName": "listenlin", "score": 100000, "slug": "kivicube-web-plugin-ar-xr-builder", "source": "clawhub", "stars": 0, "tags": null, "updated_at": 1776698144402, "version": "1.0.0"}, {"category": "", "created_at": 1774868625786, "description": "One-click automatic captions for any video. Drop a file, get perfectly timed subtitles in seconds. Built-in presets for TikTok, YouTube, and Instagram Reels...", "description_zh": "", "downloads": 30, "homepage": "https://clawhub.ai/nemovideonemo/auto-caption", "iconUrl": null, "installs": 0, "name": "Auto Caption - AI Subtitle Generator for TikTok YouTube and Reels", "ownerName": "nemovideonemo", "score": 100000, "slug": "auto-caption", "source": "clawhub", "stars": 0, "tags": null, "updated_at": 1776698144396, "version": "1.0.0"}, {"category": "", "created_at": 1774855705103, "description": "A comprehensive prompt-based skill about the letter \"B\". This skill provides rich knowledge covering the history, linguistics, cultural significance, typogra...", "description_zh": "", "downloads": 30, "homepage": "https://clawhub.ai/wscats/b", "iconUrl": null, "installs": 0, "name": "B", "ownerName": "wscats", "score": 100000, "slug": "b", "source": "clawhub", "stars": 0, "tags": null, "updated_at": 1776698144393, "version": "1.0.7"}, {"category": "", "created_at": 1774836451543, "description": "Certified Financial Planner (CFP) style financial planning assistant. Help users with comprehensive financial planning including budgeting, insurance needs a...", "description_zh": "", "downloads": 30, "homepage": "https://clawhub.ai/jiwenbing/cfp", "iconUrl": null, "installs": 2, "name": "Cfp", "ownerName": "jiwenbing", "score": 100000, "slug": "cfp", "source": "clawhub", "stars": 0, "tags": null, "updated_at": 1776698144385, "version": "1.0.0"}, {"category": "", "created_at": 1774923600091, "description": "Use when someone asks for ai video generation, video generator, text-to-video, image-to-video, prompt-to-video, video model selection, or CLI-based video wor...", "description_zh": "", "downloads": 30, "homepage": "https://clawhub.ai/jinchanzis/ai-media-generator-ai-video-generation", "iconUrl": null, "installs": 2, "name": "Ai Video Generation", "ownerName": "jinchanzis", "score": 100000, "slug": "ai-media-generator-ai-video-generation", "source": "clawhub", "stars": 0, "tags": null, "updated_at": 1776698144380, "version": "1.0.0"}, {"category": "", "created_at": 1774872544459, "description": "Use when moderating Halo comments or replies, creating official replies, listing unread notifications, deleting notifications, or marking notifications as read.", "description_zh": "", "downloads": 30, "homepage": "https://clawhub.ai/ruibaby/halo-cli-moderation-notifications", "iconUrl": null, "installs": 0, "name": "Halo Cli Moderation Notifications", "ownerName": "ruibaby", "score": 100000, "slug": "halo-cli-moderation-notifications", "source": "clawhub", "stars": 0, "tags": null, "updated_at": 1776698144377, "version": "0.1.1"}, {"category": "", "created_at": 1774923861883, "description": "Build genuine charisma and magnetic social presence. This AI coach teaches you confidence in conversations, storytelling skills, humor timing, active listeni...", "description_zh": "", "downloads": 30, "homepage": "https://clawhub.ai/imwyvern/charisma-coach", "iconUrl": null, "installs": 1, "name": "Charisma Coach Skill", "ownerName": "imwyvern", "score": 100000, "slug": "charisma-coach", "source": "clawhub", "stars": 0, "tags": null, "updated_at": 1776698144373, "version": "1.0.0"}, {"category": "", "created_at": 1774925052831, "description": "Count string length deterministically for text with hard limits. Use this skill when a post, reply, caption, commit message, or other text must stay within a...", "description_zh": "", "downloads": 30, "homepage": "https://clawhub.ai/evandataforge/character-count", "iconUrl": null, "installs": 1, "name": "Character Count", "ownerName": "evandataforge", "score": 100000, "slug": "character-count", "source": "clawhub", "stars": 0, "tags": null, "updated_at": 1776698144371, "version": "0.1.0"}, {"category": "", "created_at": 1774831355266, "description": "Search engine for AI agents to discover free and paid tools, APIs, and MCP servers", "description_zh": "", "downloads": 30, "homepage": "https://clawhub.ai/simmmel/add-tools", "iconUrl": null, "installs": 0, "name": "add.tools", "ownerName": "simmmel", "score": 100000, "slug": "add-tools", "source": "clawhub", "stars": 0, "tags": null, "updated_at": 1776698144368, "version": "0.1.0"}, {"category": "", "created_at": 1774919775603, "description": "Step-by-step protocol for building an emergency fund from zero. Use when someone has no savings buffer, lives paycheck to paycheck, or wants a concrete syste...", "description_zh": "", "downloads": 30, "homepage": "https://clawhub.ai/howtousehumans/emergency-fund-builder", "iconUrl": null, "installs": 1, "name": "Emergency Fund Builder", "ownerName": "howtousehumans", "score": 100000, "slug": "emergency-fund-builder", "source": "clawhub", "stars": 0, "tags": null, "updated_at": 1776698104810, "version": "1.0.0"}, {"category": "", "created_at": 1774905703756, "description": "Persistent reminder system that keeps bugging you until you confirm completion. Use when setting up recurring reminders, nag schedules, or any task that need...", "description_zh": "", "downloads": 30, "homepage": "https://clawhub.ai/meimakes/nag", "iconUrl": null, "installs": 0, "name": "Nag", "ownerName": "meimakes", "score": 100000, "slug": "nag", "source": "clawhub", "stars": 0, "tags": null, "updated_at": 1776698104808, "version": "1.0.3"}, {"category": "", "created_at": 1774907232437, "description": "A personalized fitness coach and nutrition guide tailored for life in Dubai.", "description_zh": "", "downloads": 30, "homepage": "https://clawhub.ai/shadmanshaikh/fit-dubai", "iconUrl": null, "installs": 1, "name": "Fit Dubai", "ownerName": "shadmanshaikh", "score": 100000, "slug": "fit-dubai", "source": "clawhub", "stars": 0, "tags": null, "updated_at": 1776698104804, "version": "1.0.5"}, {"category": "", "created_at": 1774899927438, "description": "Searches and reads X (Twitter): profiles, timelines, mentions, followers, tweet search, trends, lists, communities, and Spaces. Publishes posts after the use...", "description_zh": "", "downloads": 30, "homepage": "https://clawhub.ai/aisadocs/openclaw-twitter-post", "iconUrl": null, "installs": 1, "name": "X/Twitter All-in-One: 30+ APIs, OAuth Post, One Key", "ownerName": "aisadocs", "score": 100000, "slug": "openclaw-twitter-post", "source": "clawhub", "stars": 0, "tags": null, "updated_at": 1776698104804, "version": "1.0.0"}, {"category": "", "created_at": 1774915248505, "description": "When the user wants to create, optimize, or audit a download page for desktop or mobile app. Also use when the user mentions \"download page,\" \"app download,\"...", "description_zh": "", "downloads": 30, "homepage": "https://clawhub.ai/kostja94/download-page-generator", "iconUrl": null, "installs": 1, "name": "download-page-generator", "ownerName": "kostja94", "score": 100000, "slug": "download-page-generator", "source": "clawhub", "stars": 0, "tags": null, "updated_at": 1776698104802, "version": "1.0.0"}, {"category": "", "created_at": 1774850831452, "description": "Generate academic papers from metadata using EasyPaper Python SDK. Use when user wants to create structured LaTeX papers programmatically. References the Eas...", "description_zh": "", "downloads": 30, "homepage": "https://clawhub.ai/pinkgranite/easypaper", "iconUrl": null, "installs": 0, "name": "easypaper", "ownerName": "pinkgranite", "score": 100000, "slug": "easypaper", "source": "clawhub", "stars": 0, "tags": null, "updated_at": 1776698104800, "version": "1.0.3"}, {"category": "", "created_at": 1774909943912, "description": "Information assistant for Mercedes-Benz. Search products, news, financials, and official resources for Mercedes-Benz.", "description_zh": "", "downloads": 30, "homepage": "https://clawhub.ai/hanxueyuan/mercedes", "iconUrl": null, "installs": 0, "name": "Mercedes", "ownerName": "hanxueyuan", "score": 100000, "slug": "mercedes", "source": "clawhub", "stars": 0, "tags": null, "updated_at": 1776698104797, "version": "0.1.1"}, {"category": "", "created_at": 1774867849184, "description": "Auto-pull and process feeds from FeedTo.ai — the cross-platform AI feed input.", "description_zh": "", "downloads": 30, "homepage": "https://clawhub.ai/isopenclaw/feedto", "iconUrl": null, "installs": 0, "name": "Feedto", "ownerName": "isopenclaw", "score": 100000, "slug": "feedto", "source": "clawhub", "stars": 0, "tags": null, "updated_at": 1776698104794, "version": "0.3.2"}, {"category": "", "created_at": 1774865096167, "description": "Claims earned rewards from the OpenMath platform. Use when the user wants to query claimable imported/proof rewards or withdraw verified Shentu rewards after...", "description_zh": "", "downloads": 30, "homepage": "https://clawhub.ai/bennyzhe/openmath-claim-reward", "iconUrl": null, "installs": 0, "name": "openmath-claim-reward", "ownerName": "bennyzhe", "score": 100000, "slug": "openmath-claim-reward", "source": "clawhub", "stars": 0, "tags": null, "updated_at": 1776698104794, "version": "1.0.4"}, {"category": "", "created_at": 1774874316332, "description": "Improve OpenClaw's Feishu reply experience by customizing streaming cards, raw reasoning visibility, card 2.0 layouts, collapsible panels, titles, colors, an...", "description_zh": "", "downloads": 30, "homepage": "https://clawhub.ai/doashoi/openclaw-feishu-reasoning-ux", "iconUrl": null, "installs": 1, "name": "OpenClaw Feishu Reasoning UX", "ownerName": "doashoi", "score": 100000, "slug": "openclaw-feishu-reasoning-ux", "source": "clawhub", "stars": 0, "tags": ["feishu", "lark", "openclaw", "reasoning", "streaming", "ux"], "updated_at": 1776698104791, "version": "0.1.0"}, {"category": "", "created_at": 1774917887225, "description": "Chain of Verification (CoVe) — fact-check your responses against the user's knowledge base, memory, and web search before presenting them.", "description_zh": "", "downloads": 30, "homepage": "https://clawhub.ai/bhawanakatiyar/cove-plugin", "iconUrl": null, "installs": 0, "name": "cove", "ownerName": "bhawanakatiyar", "score": 100000, "slug": "cove-plugin", "source": "clawhub", "stars": 0, "tags": null, "updated_at": 1776698104789, "version": "1.0.3"}, {"category": "", "created_at": 1774896164833, "description": "Use when the user asks to research a competitor, map a market, analyze a category, or produce a competitive brief. Trigger phrases: 'research competitors of...", "description_zh": "", "downloads": 30, "homepage": "https://clawhub.ai/atefiqbal/competitive-research", "iconUrl": null, "installs": 1, "name": "Competitive Research", "ownerName": "atefiqbal", "score": 100000, "slug": "competitive-research", "source": "clawhub", "stars": 0, "tags": null, "updated_at": 1776698104788, "version": "1.0.0"}, {"category": "", "created_at": 1774900463374, "description": "Text-to-speech, voice cloning, voice design, and transcribe audio files via deAPI GPU network. Trigger on 'text to speech', 'TTS', 'generate voice', 'read al...", "description_zh": "", "downloads": 30, "homepage": "https://clawhub.ai/aleglowa/deapi-audio", "iconUrl": null, "installs": 0, "name": "Deapi Audio", "ownerName": "aleglowa", "score": 100000, "slug": "deapi-audio", "source": "clawhub", "stars": 0, "tags": ["audio", "speech-to-text", "stt", "text-to-speech", "transcription", "tts", "voice-clone", "whisper"], "updated_at": 1776698104785, "version": "1.0.1"}, {"category": "", "created_at": 1774955691518, "description": "Feel the awe of being drenched in relentless color, a transformative rite that reshapes identity amid joyous chaos. Immerse in five vivid steps of dancing, s...", "description_zh": "", "downloads": 30, "homepage": "https://clawhub.ai/driftsbot/experience-vrindavan-stain-ritual", "iconUrl": null, "installs": 2, "name": "Experience Vrindavan Stain Ritual", "ownerName": "driftsbot", "score": 100000, "slug": "experience-vrindavan-stain-ritual", "source": "clawhub", "stars": 0, "tags": null, "updated_at": 1776698104782, "version": "1.0.0"}, {"category": "", "created_at": 1774951155931, "description": "Feel awe as ancient blue ice reveals hidden chambers and the planet’s fragile pulse. Traverse eight medium‑intensity steps through Nunavut’s labyrinthine cav...", "description_zh": "", "downloads": 30, "homepage": "https://clawhub.ai/driftsbot/experience-ice-labyrinth-hunger", "iconUrl": null, "installs": 0, "name": "Experience Ice Labyrinth Hunger", "ownerName": "driftsbot", "score": 100000, "slug": "experience-ice-labyrinth-hunger", "source": "clawhub", "stars": 0, "tags": null, "updated_at": 1776698104778, "version": "1.0.0"}, {"category": "", "created_at": 1774869803514, "description": "E-commerce email marketing system builder. Creates complete email automation flows with full copywriting, subject lines, ESP setup instructions, segmentation...", "description_zh": "", "downloads": 30, "homepage": "https://clawhub.ai/phheng/ecommerce-email-marketing-builder", "iconUrl": null, "installs": 0, "name": "Ecommerce Email Marketing Builder", "ownerName": "phheng", "score": 100000, "slug": "ecommerce-email-marketing-builder", "source": "clawhub", "stars": 0, "tags": null, "updated_at": 1776698104772, "version": "0.1.0"}, {"category": "", "created_at": 1774842273193, "description": "Find, verify, and reserve parking worldwide with provider selection, live-signal triage, and local memory for favorite places and cities.", "description_zh": "", "downloads": 30, "homepage": "https://clawhub.ai/ivangdavila/parking", "iconUrl": null, "installs": 0, "name": "Parking Radar", "ownerName": "ivangdavila", "score": 100000, "slug": "parking", "source": "clawhub", "stars": 0, "tags": null, "updated_at": 1776698104769, "version": "1.0.0"}, {"category": "", "created_at": 1774865131167, "description": "Reference tool for devtools — covers intro, quickstart, patterns and more. Quick lookup for Perf Tools concepts, best practices, and implementation patterns.", "description_zh": "", "downloads": 30, "homepage": "https://clawhub.ai/ckchzh/perf-tools", "iconUrl": null, "installs": 0, "name": "Perf Tools", "ownerName": "ckchzh", "score": 100000, "slug": "perf-tools", "source": "clawhub", "stars": 0, "tags": null, "updated_at": 1776698104759, "version": "2.0.2"}, {"category": "", "created_at": 1774892885966, "description": "FortiOS VDOM segmentation audit with UTM profile binding validation, FortiGuard service health assessment, SD-WAN security evaluation, and HA cluster posture...", "description_zh": "", "downloads": 30, "homepage": "https://clawhub.ai/vahagn-madatyan/fortigate-firewall-audit", "iconUrl": null, "installs": 0, "name": "Fortigate Firewall Audit", "ownerName": "vahagn-madatyan", "score": 100000, "slug": "fortigate-firewall-audit", "source": "clawhub", "stars": 0, "tags": null, "updated_at": 1776698104757, "version": "1.0.0"}, {"category": "", "created_at": 1774905870867, "description": "REFINE is an adaptive skill engine for structured session diagnostics. Use this skill when a user explicitly requests: logging error patterns across sessions...", "description_zh": "", "downloads": 30, "homepage": "https://clawhub.ai/dttnpole-commits/refine-agent", "iconUrl": null, "installs": 0, "name": "REFINE: The Self-Evolving Agent", "ownerName": "dttnpole-commits", "score": 100000, "slug": "refine-agent", "source": "clawhub", "stars": 0, "tags": ["ai-learning", "productivity", "self-improvement"], "updated_at": 1776698104744, "version": "1.0.3"}]}