{"page": 475, "total_pages": 522, "total": 26073, "skills": [{"category": "", "created_at": 1774952790520, "description": "Turn articles, web pages, PDFs, and excerpts into structured notes, key insights, practical actions, and reusable takeaways.", "description_zh": "", "downloads": 30, "homepage": "https://clawhub.ai/inf-lucas/content-alchemy", "iconUrl": null, "installs": 0, "name": "Content Alchemy", "ownerName": "inf-lucas", "score": 100000, "slug": "content-alchemy", "source": "clawhub", "stars": 0, "tags": null, "updated_at": 1776698104742, "version": "1.0.0"}, {"category": "", "created_at": 1774898024100, "description": "Model free cash flow to evaluate project or business value. Use for investment decisions, valuation, and understanding cash dynamics.", "description_zh": "", "downloads": 30, "homepage": "https://clawhub.ai/linuszz/free-cash-flow", "iconUrl": null, "installs": 0, "name": "Free Cash Flow", "ownerName": "linuszz", "score": 100000, "slug": "free-cash-flow", "source": "clawhub", "stars": 0, "tags": null, "updated_at": 1776698104740, "version": "1.0.0"}, {"category": "", "created_at": 1774883883319, "description": "Actively monitors token utilization and executes memory compaction routines before context bloat causes failures.", "description_zh": "", "downloads": 30, "homepage": "https://clawhub.ai/elmoorish/cognitive-compaction", "iconUrl": null, "installs": 0, "name": "Cognitive Compaction State Manager", "ownerName": "elmoorish", "score": 100000, "slug": "cognitive-compaction", "source": "clawhub", "stars": 0, "tags": null, "updated_at": 1776698104735, "version": "0.1.0"}, {"category": "", "created_at": 1774897934587, "description": "Decompose Return on Equity into component ratios to identify performance drivers. Use for financial analysis, performance benchmarking, and identifying impro...", "description_zh": "", "downloads": 30, "homepage": "https://clawhub.ai/linuszz/dupont-analysis", "iconUrl": null, "installs": 1, "name": "Dupont Analysis", "ownerName": "linuszz", "score": 100000, "slug": "dupont-analysis", "source": "clawhub", "stars": 0, "tags": null, "updated_at": 1776698104731, "version": "1.0.0"}, {"category": "", "created_at": 1774943851438, "description": "Runs a thin long-term memory workflow on top of the echo-fade-memory service. Use proactively whenever an answer may depend on prior session context, durable...", "description_zh": "", "downloads": 30, "homepage": "https://clawhub.ai/hiparker/echo-fade-memory", "iconUrl": null, "installs": 0, "name": "🧠 EchoFadeMemory", "ownerName": "hiparker", "score": 100000, "slug": "echo-fade-memory", "source": "clawhub", "stars": 0, "tags": null, "updated_at": 1776698104725, "version": "2.0.0"}, {"category": "", "created_at": 1774892325861, "description": "Generate video, images, audio, and music using 40+ AI models via fal.ai. Use for video generation (Kling v3, Sora 2, Veo 3.1, LTX 2.3, Pixverse v5), image ge...", "description_zh": "", "downloads": 30, "homepage": "https://clawhub.ai/zypher-agent/corespeed-studio", "iconUrl": null, "installs": 1, "name": "corespeed-studio", "ownerName": "zypher-agent", "score": 100000, "slug": "corespeed-studio", "source": "clawhub", "stars": 0, "tags": null, "updated_at": 1776698104721, "version": "1.0.0"}, {"category": "", "created_at": 1774947614101, "description": "Configure OpenClaw semantic memory to use SiliconFlow embeddings through the OpenAI-compatible API, especially `BAAI/bge-m3`. Use when enabling or repairing...", "description_zh": "", "downloads": 30, "homepage": "https://clawhub.ai/otweihan/openclaw-siliconflow-memory", "iconUrl": null, "installs": 3, "name": "openclaw-siliconflow-memory", "ownerName": "otweihan", "score": 100000, "slug": "openclaw-siliconflow-memory", "source": "clawhub", "stars": 0, "tags": null, "updated_at": 1776698104717, "version": "1.0.0"}, {"category": "", "created_at": 1774916419729, "description": "This skill generates interactive HTML node-graph diagrams to visualize codebase structure, class relationships, and function call chains. It should be used w...", "description_zh": "", "downloads": 30, "homepage": "https://clawhub.ai/biubiubiu533/code-flow-graph", "iconUrl": null, "installs": 0, "name": "Code Flow Graph", "ownerName": "biubiubiu533", "score": 100000, "slug": "code-flow-graph", "source": "clawhub", "stars": 0, "tags": ["code", "visualization"], "updated_at": 1776698104711, "version": "1.0.0"}, {"category": "", "created_at": 1774856236718, "description": "Send a daily operational brief from your self-hosted OpenClaw to Telegram — agent health, unresolved issues, and weekly evolution highlights, every morning.", "description_zh": "", "downloads": 30, "homepage": "https://clawhub.ai/baobaodawang-creater/openclaw-daily-brief", "iconUrl": null, "installs": 1, "name": "Daily Brief", "ownerName": "baobaodawang-creater", "score": 100000, "slug": "openclaw-daily-brief", "source": "clawhub", "stars": 0, "tags": null, "updated_at": 1776698104709, "version": "1.1.0"}, {"category": "", "created_at": 1774871588435, "description": "Reference tool for devtools — covers intro, quickstart, patterns and more. Quick lookup for Page Builder concepts, best practices, and implementation patterns.", "description_zh": "", "downloads": 30, "homepage": "https://clawhub.ai/bytesagain1/page-builder", "iconUrl": null, "installs": 0, "name": "Page Builder", "ownerName": "bytesagain1", "score": 100000, "slug": "page-builder", "source": "clawhub", "stars": 0, "tags": null, "updated_at": 1776698104707, "version": "2.0.2"}, {"category": "", "created_at": 1774889734220, "description": "DataForSEO integration. Manage Organizations, Leads, Projects, Users, Goals, Filters. Use when the user wants to interact with DataForSEO data.", "description_zh": "", "downloads": 30, "homepage": "https://clawhub.ai/gora050/dataforseo-integration", "iconUrl": null, "installs": 0, "name": "Dataforseo", "ownerName": "gora050", "score": 100000, "slug": "dataforseo-integration", "source": "clawhub", "stars": 0, "tags": null, "updated_at": 1776698104702, "version": "1.0.0"}, {"category": "", "created_at": 1774899492442, "description": "USE FOR news search. Returns news articles with title, URL, description, age, thumbnail. Supports freshness and date range filtering, SafeSearch filter and G...", "description_zh": "", "downloads": 30, "homepage": "https://clawhub.ai/sprintmint/cpbox-news-search", "iconUrl": null, "installs": 1, "name": "cpbox-news-search", "ownerName": "sprintmint", "score": 100000, "slug": "cpbox-news-search", "source": "clawhub", "stars": 0, "tags": null, "updated_at": 1776698104698, "version": "1.0.0"}, {"category": "", "created_at": 1774853594392, "description": "Reference tool for devtools — covers intro, quickstart, patterns and more. Quick lookup for Diskview concepts, best practices, and implementation patterns.", "description_zh": "", "downloads": 30, "homepage": "https://clawhub.ai/bytesagain3/diskview", "iconUrl": null, "installs": 0, "name": "Diskview", "ownerName": "bytesagain3", "score": 96774.1935483871, "slug": "diskview", "source": "clawhub", "stars": 0, "tags": null, "updated_at": 1776698104683, "version": "2.0.4"}, {"category": "", "created_at": 1774950717366, "description": "Answer OpenClaw-related questions by querying and analyzing the official documentation at docs.openclaw.ai. TRIGGER CONDITIONS - Use this skill when: 1. User...", "description_zh": "", "downloads": 30, "homepage": "https://clawhub.ai/wx528/openclaw-doc-helper", "iconUrl": null, "installs": 1, "name": "openclaw-doc-helper", "ownerName": "wx528", "score": 96774.1935483871, "slug": "openclaw-doc-helper", "source": "clawhub", "stars": 0, "tags": null, "updated_at": 1776698104675, "version": "1.0.0"}, {"category": "", "created_at": 1774840549294, "description": "Set up and operate full cross-gateway task delegation between two OpenClaw Discord bots across different PCs/gateways. Use when: another OpenClaw bot lives o...", "description_zh": "", "downloads": 30, "homepage": "https://clawhub.ai/jini92/discord-cross-gateway-delegation", "iconUrl": null, "installs": 0, "name": "Discord Cross-Gateway Delegation", "ownerName": "jini92", "score": 96774.1935483871, "slug": "discord-cross-gateway-delegation", "source": "clawhub", "stars": 0, "tags": null, "updated_at": 1776698104673, "version": "2.1.1"}, {"category": "", "created_at": 1774894621812, "description": "Turn a trend, news item, creator signal, review pattern, or market observation into sharper ecommerce content angles that are timely, useful, and commerciall...", "description_zh": "", "downloads": 30, "homepage": "https://clawhub.ai/leooooooow/ecommerce-trend-to-content-angle", "iconUrl": null, "installs": 0, "name": "Ecommerce Trend To Content Angle", "ownerName": "leooooooow", "score": 96774.1935483871, "slug": "ecommerce-trend-to-content-angle", "source": "clawhub", "stars": 0, "tags": null, "updated_at": 1776698104671, "version": "1.0.0"}, {"category": "", "created_at": 1774883425875, "description": "Agent instructions: pack/apply OpenClaw user data via scripts; overwrite-by-path only. You dry-run first, read EXPORT_MANIFEST.txt, gate optional layers, res...", "description_zh": "", "downloads": 30, "homepage": "https://clawhub.ai/zhaobudaoyuema/openclaw-user-data-pack", "iconUrl": null, "installs": 0, "name": "Openclaw User Data Pack", "ownerName": "zhaobudaoyuema", "score": 96774.1935483871, "slug": "openclaw-user-data-pack", "source": "clawhub", "stars": 0, "tags": null, "updated_at": 1776698104669, "version": "1.0.5"}, {"category": "", "created_at": 1774886648305, "description": "Publish, create, and update Confluence pages from HTML content.", "description_zh": "", "downloads": 30, "homepage": "https://clawhub.ai/aeincx/confluence-publish", "iconUrl": null, "installs": 1, "name": "confluence-publish", "ownerName": "aeincx", "score": 96774.1935483871, "slug": "confluence-publish", "source": "clawhub", "stars": 0, "tags": null, "updated_at": 1776698104667, "version": "1.0.2"}, {"category": "", "created_at": 1774867764144, "description": "Convert documents or text into PDF slide presentations via the Ruyi Converter API at nyoi.io. Use this skill whenever the user wants to create slides, presen...", "description_zh": "", "downloads": 30, "homepage": "https://clawhub.ai/lisiting01/doc-to-slides", "iconUrl": null, "installs": 1, "name": "Doc2Slides", "ownerName": "lisiting01", "score": 96774.1935483871, "slug": "doc-to-slides", "source": "clawhub", "stars": 0, "tags": null, "updated_at": 1776698104663, "version": "1.0.3"}, {"category": "", "created_at": 1774903255515, "description": "In Bukhara's maze of commerce, every transaction hides a secret worth more than gold. An immersive journey on drifts.bot — 6 steps, HIGH intensity, 15-30 min...", "description_zh": "", "downloads": 30, "homepage": "https://clawhub.ai/driftsbot/experience-bukhara-shadow-merchants", "iconUrl": null, "installs": 0, "name": "Experience Bukhara Shadow Merchants", "ownerName": "driftsbot", "score": 96774.1935483871, "slug": "experience-bukhara-shadow-merchants", "source": "clawhub", "stars": 0, "tags": null, "updated_at": 1776698104661, "version": "1.0.0"}, {"category": "", "created_at": 1774900879274, "description": "♿ AI-powered accessibility (a11y) checker. Automatically detect WCAG violations, generate ARIA labels, test keyboard navigation, and ensure your app is acces...", "description_zh": "", "downloads": 30, "homepage": "https://clawhub.ai/supermario11/cuihua-a11y-checker", "iconUrl": null, "installs": 0, "name": "Cuihua A11y Checker", "ownerName": "supermario11", "score": 96774.1935483871, "slug": "cuihua-a11y-checker", "source": "clawhub", "stars": 0, "tags": null, "updated_at": 1776698104657, "version": "1.0.0"}, {"category": "", "created_at": 1774947403382, "description": "Complete knowledge base for Floods' business model, product mechanics, pricing, verification, attribution, brand safety, and competitive positioning. Use thi...", "description_zh": "", "downloads": 30, "homepage": "https://clawhub.ai/huguesgtch/floodsbusiness", "iconUrl": null, "installs": 0, "name": "flooods", "ownerName": "huguesgtch", "score": 96774.1935483871, "slug": "floodsbusiness", "source": "clawhub", "stars": 0, "tags": null, "updated_at": 1776698104649, "version": "1.0.0"}, {"category": "", "created_at": 1774889378376, "description": "A battle-tested agent self-improvement and optimization system built from real-world usage. Combines behavior learning, proactive patterns, cron discipline,...", "description_zh": "", "downloads": 30, "homepage": "https://clawhub.ai/paoloxiamn/lx-agent-optimizer", "iconUrl": null, "installs": 1, "name": "LX Agent Optimizer", "ownerName": "paoloxiamn", "score": 96774.1935483871, "slug": "lx-agent-optimizer", "source": "clawhub", "stars": 0, "tags": null, "updated_at": 1776698104643, "version": "1.1.1"}, {"category": "", "created_at": 1774894469619, "description": "Cisco IOS-XE and NX-OS device health check and triage procedure. Use when troubleshooting Cisco routers, switches, or Nexus platforms — assessing CPU, memory...", "description_zh": "", "downloads": 30, "homepage": "https://clawhub.ai/vahagn-madatyan/cisco-device-health", "iconUrl": null, "installs": 2, "name": "Cisco Device Health", "ownerName": "vahagn-madatyan", "score": 96774.1935483871, "slug": "cisco-device-health", "source": "clawhub", "stars": 0, "tags": null, "updated_at": 1776698084818, "version": "1.0.0"}, {"category": "", "created_at": 1774897257628, "description": "Core pack — always active as final step. Visual polish pass for spacing, hierarchy, alignment, and cleanup. Runs after design-review and ux-baseline-check as...", "description_zh": "", "downloads": 30, "homepage": "https://clawhub.ai/aa-on-ai/ui-polish-pass", "iconUrl": null, "installs": 1, "name": "UI Polish Pass", "ownerName": "aa-on-ai", "score": 96774.1935483871, "slug": "ui-polish-pass", "source": "clawhub", "stars": 0, "tags": null, "updated_at": 1776698084798, "version": "1.0.0"}, {"category": "", "created_at": 1774912132849, "description": "Front door for Pipaclaw public skills. Route users to the right skill for presentations, social account operations, and promotional video production without...", "description_zh": "", "downloads": 30, "homepage": "https://clawhub.ai/xexojay/pipaclaw-skills-hub", "iconUrl": null, "installs": 2, "name": "Pipaclaw Skills Hub", "ownerName": "xexojay", "score": 93750, "slug": "pipaclaw-skills-hub", "source": "clawhub", "stars": 0, "tags": null, "updated_at": 1776698084791, "version": "0.2.0"}, {"category": "", "created_at": 1774919735610, "description": "Turn a public creator, blogger, podcaster, YouTuber, or X/Twitter personality into a deployable OpenClaw agent. Use when the user provides a YouTube URL, X h...", "description_zh": "", "downloads": 30, "homepage": "https://clawhub.ai/aliciawque/digital-ip-agent", "iconUrl": null, "installs": 1, "name": "Digital IP Agent", "ownerName": "aliciawque", "score": 93750, "slug": "digital-ip-agent", "source": "clawhub", "stars": 0, "tags": null, "updated_at": 1776698084779, "version": "1.0.0"}, {"category": "", "created_at": 1774875738505, "description": "Parse, extract text from, and screenshot PDF and document files locally using the LiteParse CLI (`lit`). Use when asked to extract text from a PDF, parse a W...", "description_zh": "", "downloads": 30, "homepage": "https://clawhub.ai/alfred-intel-handler-source/liteparse", "iconUrl": null, "installs": 1, "name": "LiteParse", "ownerName": "alfred-intel-handler-source", "score": 93750, "slug": "liteparse", "source": "clawhub", "stars": 0, "tags": null, "updated_at": 1776698084765, "version": "1.0.0"}, {"category": "", "created_at": 1774874112183, "description": "Generate vertical life-hack / gadget demo shorts (WeryAI): problem—tool—one-move payoff; stains, prep, storage, quick fixes. Use when you need a life hack de...", "description_zh": "", "downloads": 30, "homepage": "https://clawhub.ai/zoucdr/life-hack-video", "iconUrl": null, "installs": 1, "name": "Life Hack Video", "ownerName": "zoucdr", "score": 93750, "slug": "life-hack-video", "source": "clawhub", "stars": 0, "tags": null, "updated_at": 1776698084589, "version": "0.1.0"}, {"category": "", "created_at": 1774925469849, "description": "Learn to cook real meals from basic ingredients on a tight budget. Meal plans, foundational techniques, and a pantry system that makes cooking faster than or...", "description_zh": "", "downloads": 30, "homepage": "https://clawhub.ai/howtousehumans/cook-from-scratch", "iconUrl": null, "installs": 1, "name": "Cook From Scratch", "ownerName": "howtousehumans", "score": 93750, "slug": "cook-from-scratch", "source": "clawhub", "stars": 0, "tags": null, "updated_at": 1776698084505, "version": "1.0.0"}, {"category": "", "created_at": 1774899590643, "description": "Check domain availability and brainstorm names. Checks .com/.net/.org/.io/.ai/.co/.app/.dev and more. Suggests alternatives when taken. No API key required.", "description_zh": "", "downloads": 30, "homepage": "https://clawhub.ai/josephflu/domain-name-checker", "iconUrl": null, "installs": 0, "name": "Domain Name Checker", "ownerName": "josephflu", "score": 93750, "slug": "domain-name-checker", "source": "clawhub", "stars": 0, "tags": null, "updated_at": 1776698084485, "version": "1.0.1"}, {"category": "", "created_at": 1774869074182, "description": "Switch OpenClaw ElevenLabs TTS voices by updating ~/.openclaw/openclaw.json, keeping Chinese-safe defaults, and restarting the gateway.", "description_zh": "", "downloads": 30, "homepage": "https://clawhub.ai/nowloady/openclaw-tts-voice-switch", "iconUrl": null, "installs": 0, "name": "OpenClaw TTS Voice Switch", "ownerName": "nowloady", "score": 93750, "slug": "openclaw-tts-voice-switch", "source": "clawhub", "stars": 0, "tags": ["chinese", "elevenlabs", "tts", "voice"], "updated_at": 1776698084416, "version": "1.0.0"}, {"category": "", "created_at": 1774877272495, "description": "Check whether a GMV Max setup is usable, risky, or ineligible based on configuration choices, order volume, ROI handling, and conflicting modes. Use when the...", "description_zh": "", "downloads": 30, "homepage": "https://clawhub.ai/leooooooow/gmv-max-check", "iconUrl": null, "installs": 3, "name": "Gmv Max Check", "ownerName": "leooooooow", "score": 93750, "slug": "gmv-max-check", "source": "clawhub", "stars": 0, "tags": null, "updated_at": 1776698084386, "version": "1.0.0"}, {"category": "", "created_at": 1774841614849, "description": "DeFi liquidity management on Uniswap and Aerodrome, live on Base and Unichain. Deploy LP positions with automated rebalancing, compounding, yield optimizatio...", "description_zh": "", "downloads": 30, "homepage": "https://clawhub.ai/thomas-smets/arcadia-finance", "iconUrl": null, "installs": 3, "name": "Arcadia Finance", "ownerName": "thomas-smets", "score": 93750, "slug": "arcadia-finance", "source": "clawhub", "stars": 0, "tags": null, "updated_at": 1776698084275, "version": "1.0.5"}, {"category": "", "created_at": 1774910922725, "description": "Use when the user talks with memes, stickers, reaction images, or wants a more natural image-meme chat style. Also use when deciding whether to interpret an...", "description_zh": "", "downloads": 30, "homepage": "https://clawhub.ai/ave-nue/meme-master", "iconUrl": null, "installs": 0, "name": "Meme Master", "ownerName": "ave-nue", "score": 93750, "slug": "meme-master", "source": "clawhub", "stars": 0, "tags": null, "updated_at": 1776698084227, "version": "1.0.0"}, {"category": "", "created_at": 1774903040709, "description": "Generate CSS clip-path code for shapes. Use when the user asks to create a clip path, clip an element to a shape, generate clip-path CSS, or make a polygon,...", "description_zh": "", "downloads": 30, "homepage": "https://clawhub.ai/ohernandez-dev-blossom/clip-path-generate", "iconUrl": null, "installs": 0, "name": "Clip Path Generate", "ownerName": "ohernandez-dev-blossom", "score": 93750, "slug": "clip-path-generate", "source": "clawhub", "stars": 0, "tags": null, "updated_at": 1776698084199, "version": "1.0.0"}, {"category": "", "created_at": 1774862542730, "description": "Create vertical absence shorts: quiet home, stalled phone, feed moves on, bittersweet closer, timed English captions (WeryAI). Use for melancholic mood or sa...", "description_zh": "", "downloads": 30, "homepage": "https://clawhub.ai/zoucdr/if-you-vanished-video-gen", "iconUrl": null, "installs": 1, "name": "If you vanished today (quiet home → feed moves on)", "ownerName": "zoucdr", "score": 93750, "slug": "if-you-vanished-video-gen", "source": "clawhub", "stars": 0, "tags": null, "updated_at": 1776698084093, "version": "1.0.1"}, {"category": "", "created_at": 1774796165824, "description": "Visualize how attention moves across your agent's projects. Markdown files become nodes grouped by Attention Pockets.", "description_zh": "", "downloads": 29, "homepage": "https://clawhub.ai/highnoonoffice/brain-map-visualizer", "iconUrl": null, "installs": 0, "name": "Brain Map Visualizer", "ownerName": "highnoonoffice", "score": 625.4043562648263, "slug": "brain-map-visualizer", "source": "clawhub", "stars": 0, "tags": null, "updated_at": 1776768850154, "version": "3.1.7"}, {"category": "", "created_at": 1774914058335, "description": "Dbt Cloud integration. Manage Projects, Users, Groups. Use when the user wants to interact with Dbt Cloud data.", "description_zh": "", "downloads": 29, "homepage": "https://clawhub.ai/membranedev/dbt-cloud", "iconUrl": null, "installs": 0, "name": "Dbt Cloud", "ownerName": "membranedev", "score": 2140.2214022140224, "slug": "dbt-cloud", "source": "clawhub", "stars": 0, "tags": null, "updated_at": 1776767171317, "version": "1.0.0"}, {"category": "", "created_at": 1774906049864, "description": "Reviews URLSession networking code for iOS/macOS. Covers async/await patterns, request building, error handling, caching, and background sessions.", "description_zh": "", "downloads": 29, "homepage": "https://clawhub.ai/anderskev/urlsession-code-review", "iconUrl": null, "installs": 3, "name": "Urlsession Code Review", "ownerName": "anderskev", "score": 665.2902041752695, "slug": "urlsession-code-review", "source": "clawhub", "stars": 0, "tags": null, "updated_at": 1776767052449, "version": "1.2.0"}, {"category": "", "created_at": 1774894921222, "description": "Reviews Go code for idiomatic patterns, error handling, concurrency safety, and common mistakes. Use when reviewing .go files, checking error handling, gorou...", "description_zh": "", "downloads": 29, "homepage": "https://clawhub.ai/anderskev/go-code-review", "iconUrl": null, "installs": 2, "name": "Go Code Review", "ownerName": "anderskev", "score": 1296.95885509839, "slug": "go-code-review", "source": "clawhub", "stars": 0, "tags": null, "updated_at": 1776766956428, "version": "2.3.0"}, {"category": "", "created_at": 1774866938708, "description": "Research purchases, compare prices, detect scams, and negotiate better deals.", "description_zh": "", "downloads": 29, "homepage": "https://clawhub.ai/harrylabsj/mai", "iconUrl": null, "installs": 1, "name": "Mai Shopping Assistant", "ownerName": "harrylabsj", "score": 758.5665707559508, "slug": "mai", "source": "clawhub", "stars": 0, "tags": null, "updated_at": 1776766749731, "version": "1.0.0"}, {"category": "", "created_at": 1774954181020, "description": "Query your knowledge base using AI-powered search. Combines web search with chat AI for comprehensive answers.", "description_zh": "", "downloads": 29, "homepage": "https://clawhub.ai/c7934597/akashic-knowledge-base", "iconUrl": null, "installs": 1, "name": "Akashic Knowledge Base", "ownerName": "c7934597", "score": 759.7589730154572, "slug": "akashic-knowledge-base", "source": "clawhub", "stars": 0, "tags": ["knowledge", "qa", "rag", "search"], "updated_at": 1776764650249, "version": "1.0.0"}, {"category": "", "created_at": 1774886749250, "description": "Deconsolidation reference — container stripping, cargo breakdown, cross-dock operations, and LCL unpacking. Use when planning deconsolidation workflows or op...", "description_zh": "", "downloads": 29, "homepage": "https://clawhub.ai/ckchzh/deconsolidation", "iconUrl": null, "installs": 1, "name": "Deconsolidation", "ownerName": "ckchzh", "score": 649.7871386959445, "slug": "deconsolidation", "source": "clawhub", "stars": 0, "tags": null, "updated_at": 1776764349963, "version": "1.0.0"}, {"category": "", "created_at": 1776061460434, "description": "Generate coherent transition videos using Jimeng's first and tail frame models.", "description_zh": "", "downloads": 29, "homepage": "https://clawhub.ai/user_f95f21b8/dlazy-jimeng-i2v-first-tail", "iconUrl": null, "installs": 1, "name": "jimeng i2v first tail", "ownerName": "user_f95f21b8", "score": 2314.445331205108, "slug": "dlazy-jimeng-i2v-first-tail", "source": "community", "stars": 0, "tags": null, "updated_at": 1776760131604, "version": "1.0.3"}, {"category": "", "created_at": 1776061737748, "description": "Generate exquisite images with Kling o1 model. Supports text-to-image and image-to-image.", "description_zh": "", "downloads": 29, "homepage": "https://clawhub.ai/user_f95f21b8/dlazy-kling-image-o1", "iconUrl": null, "installs": 2, "name": "kling image o1", "ownerName": "user_f95f21b8", "score": 2314.445331205108, "slug": "dlazy-kling-image-o1", "source": "community", "stars": 0, "tags": null, "updated_at": 1776760131517, "version": "1.0.3"}, {"category": "", "created_at": 1774873255937, "description": "Generate a daily or weekly cybersecurity threat briefing from open sources. Covers new vulnerabilities, active exploits, ransomware campaigns, APT activity,...", "description_zh": "", "downloads": 29, "homepage": "https://clawhub.ai/solomonneas/threat-briefing", "iconUrl": null, "installs": 1, "name": "Threat Briefing", "ownerName": "solomonneas", "score": 1782.421634910879, "slug": "threat-briefing", "source": "clawhub", "stars": 0, "tags": null, "updated_at": 1776757020510, "version": "1.0.0"}, {"category": "", "created_at": 1774888290674, "description": "Pesticide management reference — chemical classes, application methods, IPM strategies, residue limits, safety protocols. Use when selecting pest control pro...", "description_zh": "", "downloads": 29, "homepage": "https://clawhub.ai/ckchzh/pesticide", "iconUrl": null, "installs": 1, "name": "Pesticide", "ownerName": "ckchzh", "score": 1772.6161369193153, "slug": "pesticide", "source": "clawhub", "stars": 0, "tags": null, "updated_at": 1776756982205, "version": "1.0.0"}, {"category": "", "created_at": 1774888474754, "description": "Capture screenshots of web pages running on local or remote servers using Puppeteer in headless Chromium. Use when user asks to screenshot web pages, capture...", "description_zh": "", "downloads": 29, "homepage": "https://clawhub.ai/aowind/sjht-web-screenshot", "iconUrl": null, "installs": 2, "name": "sjht-web-screenshot", "ownerName": "aowind", "score": 1742.7884615384617, "slug": "sjht-web-screenshot", "source": "clawhub", "stars": 0, "tags": null, "updated_at": 1776756527254, "version": "1.0.0"}, {"category": "", "created_at": 1774947265856, "description": "Frameworks and scripts for having hard conversations. Use when someone needs to confront a boss, ask for a raise, set boundaries with family, talk about mone...", "description_zh": "", "downloads": 29, "homepage": "https://clawhub.ai/howtousehumans/difficult-conversations", "iconUrl": null, "installs": 0, "name": "Difficult Conversations", "ownerName": "howtousehumans", "score": 5471.698113207547, "slug": "difficult-conversations", "source": "clawhub", "stars": 0, "tags": null, "updated_at": 1776754988652, "version": "1.0.0"}]}