{"page": 476, "total_pages": 522, "total": 26073, "skills": [{"category": "", "created_at": 1774902361525, "description": "Legacy alias for product-manager-skill. Use product-manager-skill for the merged PM + growth-autopilot workflow.", "description_zh": "", "downloads": 29, "homepage": "https://clawhub.ai/wotaso-dev/openclaw-growth-engineer", "iconUrl": null, "installs": 2, "name": "Openclaw Growth Engineer", "ownerName": "wotaso-dev", "score": 5114.638447971781, "slug": "openclaw-growth-engineer", "source": "clawhub", "stars": 0, "tags": null, "updated_at": 1776752569597, "version": "1.0.0"}, {"category": "", "created_at": 1774909109632, "description": "Design and create new AI skills with the right internal structure — not just correct formatting. Works with any AI coding tool (Claude Code, Google Antigravi...", "description_zh": "", "downloads": 29, "homepage": "https://clawhub.ai/vincent-hq/skill-architect", "iconUrl": null, "installs": 0, "name": "Skill Architect", "ownerName": "vincent-hq", "score": 5187.83542039356, "slug": "skill-architect", "source": "clawhub", "stars": 0, "tags": null, "updated_at": 1776751783734, "version": "1.0.0"}, {"category": "", "created_at": 1774871168439, "description": "Ezviz safety production inspection skill. Captures device images and sends to Ezviz AI for workplace safety analysis.", "description_zh": "", "downloads": 29, "homepage": "https://clawhub.ai/ezviz-open/ezviz-open-safety-production-inspection", "iconUrl": null, "installs": 1, "name": "Ezviz Open Safety Production Inspection", "ownerName": "ezviz-open", "score": 10545.454545454546, "slug": "ezviz-open-safety-production-inspection", "source": "clawhub", "stars": 0, "tags": null, "updated_at": 1776748970721, "version": "1.0.0"}, {"category": "", "created_at": 1774906609561, "description": "AI-powered HR Operating System for Southeast Asia. Full payroll with PH/SG/LK compliance, 9 AI agents (payroll specialist, compliance officer, leave advisor....", "description_zh": "", "downloads": 29, "homepage": "https://clawhub.ai/tonypk/halaos-hr", "iconUrl": null, "installs": 0, "name": "Openclaw Skill", "ownerName": "tonypk", "score": 3344.867358708189, "slug": "halaos-hr", "source": "clawhub", "stars": 0, "tags": null, "updated_at": 1776747904792, "version": "1.1.0"}, {"category": "", "created_at": 1774905771097, "description": "Pre-publish audience reaction check. Run any content (tweet, launch copy, pricing page, announcement, blog post) through diverse AI personas before publishin...", "description_zh": "", "downloads": 29, "homepage": "https://clawhub.ai/kbo4sho/preflight", "iconUrl": null, "installs": 1, "name": "Preflight", "ownerName": "kbo4sho", "score": 1793.4446505875078, "slug": "preflight", "source": "clawhub", "stars": 0, "tags": null, "updated_at": 1776746983765, "version": "1.0.0"}, {"category": "", "created_at": 1774954615793, "description": "Automates Snyk security vulnerability scanning, GitHub issue reporting, and auto-fix PR creation for repositories. Use when scanning repositories for securit...", "description_zh": "", "downloads": 29, "homepage": "https://clawhub.ai/cr0m3/snyk-vulnerability-scanner", "iconUrl": null, "installs": 0, "name": "Snyk Vulnerability Scanner", "ownerName": "cr0m3", "score": 31182.795698924732, "slug": "snyk-vulnerability-scanner", "source": "clawhub", "stars": 0, "tags": ["automation", "github", "security", "snyk", "vulnerability"], "updated_at": 1776745483878, "version": "1.0.0"}, {"category": "", "created_at": 1774884910463, "description": "Master memory forensics techniques including memory acquisition, process analysis, and artifact extraction using Volatility and related tools. Use when analy...", "description_zh": "", "downloads": 29, "homepage": "https://clawhub.ai/solomonneas/s3-memory-forensics", "iconUrl": null, "installs": 1, "name": "S³ Memory Forensics", "ownerName": "solomonneas", "score": 27619.047619047622, "slug": "s3-memory-forensics", "source": "clawhub", "stars": 0, "tags": ["forensics", "incident-response", "memory-analysis", "volatility"], "updated_at": 1776745369679, "version": "1.0.0"}, {"category": "", "created_at": 1774877681934, "description": "12-dimensional technical feature attribution engine — compares winner vs loser trade entry conditions using RSI, Bollinger, MACD, volume surge, gap, and more...", "description_zh": "", "downloads": 29, "homepage": "https://clawhub.ai/tltby12341/qc-deep-feature-forensics", "iconUrl": null, "installs": 1, "name": "Qc Deep Feature Forensics", "ownerName": "tltby12341", "score": 27619.047619047622, "slug": "qc-deep-feature-forensics", "source": "clawhub", "stars": 0, "tags": null, "updated_at": 1776745369568, "version": "1.0.0"}, {"category": "", "created_at": 1774889702833, "description": "Scans perpetual futures funding rates across Hyperliquid, Binance, and Bybit to identify delta-neutral carry trade opportunities. A delta-neutral carry trade...", "description_zh": "", "downloads": 29, "homepage": "https://clawhub.ai/mibayy/crypto-funding-harvester", "iconUrl": null, "installs": 1, "name": "Crypto Funding Harvester", "ownerName": "mibayy", "score": 30208.333333333332, "slug": "crypto-funding-harvester", "source": "clawhub", "stars": 0, "tags": null, "updated_at": 1776744769673, "version": "1.0.0"}, {"category": "", "created_at": 1774899947210, "description": "Track leads locally, manage outreach campaigns, and export as CSV for download.", "description_zh": "", "downloads": 29, "homepage": "https://clawhub.ai/3rdbrain/outreach-crm", "iconUrl": null, "installs": 0, "name": "Lead Outreach CRM", "ownerName": "3rdbrain", "score": 30526.315789473683, "slug": "outreach-crm", "source": "clawhub", "stars": 0, "tags": null, "updated_at": 1776744344468, "version": "1.0.0"}, {"category": "", "created_at": 1774912028684, "description": "When the user wants to run native ads on Taboola, Outbrain, or similar platforms. Also use when the user mentions \"native ads,\" \"Taboola,\" \"Outbrain,\" \"conte...", "description_zh": "", "downloads": 29, "homepage": "https://clawhub.ai/kostja94/native-ads", "iconUrl": null, "installs": 0, "name": "native-ads", "ownerName": "kostja94", "score": 30526.315789473683, "slug": "native-ads", "source": "clawhub", "stars": 0, "tags": null, "updated_at": 1776744304834, "version": "1.0.0"}, {"category": "", "created_at": 1774865249341, "description": "Send resume and cover letter to companies via Gmail. Activate when user wants to send, deliver, or submit a resume by email, apply to a job, or email a compa...", "description_zh": "", "downloads": 29, "homepage": "https://clawhub.ai/xiaoxty/resume-email-sender", "iconUrl": null, "installs": 0, "name": "Resume Email Sender", "ownerName": "xiaoxty", "score": 30526.315789473683, "slug": "resume-email-sender", "source": "clawhub", "stars": 0, "tags": null, "updated_at": 1776744284308, "version": "0.1.0"}, {"category": "", "created_at": 1774947617917, "description": "Configures Rocq environments, runs preflight checks, and guides the proving workflow for OpenMath Rocq theorems. Use when the user wants to set up Rocq tooli...", "description_zh": "", "downloads": 29, "homepage": "https://clawhub.ai/shentu-ai/openmath-rocq-theorems", "iconUrl": null, "installs": 0, "name": "openmath-rocq-theorem", "ownerName": "shentu-ai", "score": 33333.33333333333, "slug": "openmath-rocq-theorems", "source": "clawhub", "stars": 0, "tags": null, "updated_at": 1776743984545, "version": "1.0.3"}, {"category": "", "created_at": 1774831675488, "description": "Submits proofs to the OpenMath platform using a two-stage commit-reveal flow. Use when the user wants to commit a proof hash or reveal a Lean/Rocq proof on t...", "description_zh": "", "downloads": 29, "homepage": "https://clawhub.ai/bennyzhe/openmath-submit-theorem", "iconUrl": null, "installs": 0, "name": "openmath-submit-theorem", "ownerName": "bennyzhe", "score": 33333.33333333333, "slug": "openmath-submit-theorem", "source": "clawhub", "stars": 0, "tags": null, "updated_at": 1776743984499, "version": "1.0.7"}, {"category": "", "created_at": 1774831644633, "description": "Queries open formal verification theorems from the OpenMath platform. Use when the user asks for a list of open theorems, wants Lean or Rocq-specific theorem...", "description_zh": "", "downloads": 29, "homepage": "https://clawhub.ai/bennyzhe/openmath-open-theorem", "iconUrl": null, "installs": 0, "name": "openmath-open-theorem", "ownerName": "bennyzhe", "score": 33333.33333333333, "slug": "openmath-open-theorem", "source": "clawhub", "stars": 0, "tags": null, "updated_at": 1776743983860, "version": "1.0.2"}, {"category": "", "created_at": 1774949782084, "description": "Install, configure, validate, or troubleshoot the TeamClaw OpenClaw plugin for virtual software-team workflows. Use when users want TeamClaw setup help, cont...", "description_zh": "", "downloads": 29, "homepage": "https://clawhub.ai/topcheer/teamclaw-setup", "iconUrl": null, "installs": 1, "name": "TeamClaw Setup", "ownerName": "topcheer", "score": 41428.571428571435, "slug": "teamclaw-setup", "source": "clawhub", "stars": 0, "tags": null, "updated_at": 1776743869851, "version": "1.0.0"}, {"category": "", "created_at": 1774955611252, "description": "Use this skill when the user asks about basketball — NBA stats, player comparisons, fantasy advice, rules, play design, scouting, or coaching. Triggers: 'bal...", "description_zh": "", "downloads": 29, "homepage": "https://clawhub.ai/kewang0622/balltalk", "iconUrl": null, "installs": 2, "name": "balltalk", "ownerName": "kewang0622", "score": 29292.929292929293, "slug": "balltalk", "source": "clawhub", "stars": 0, "tags": null, "updated_at": 1776743383871, "version": "1.0.0"}, {"category": "", "created_at": 1774894089955, "description": "Perform structured audits on code, workflows, prompts, and products. Use when: (1) Something is not working as expected, (2) User asks for review or feedback...", "description_zh": "", "downloads": 29, "homepage": "https://clawhub.ai/mededdahby/audit-system", "iconUrl": null, "installs": 0, "name": "audit system", "ownerName": "mededdahby", "score": 29292.929292929293, "slug": "audit-system", "source": "clawhub", "stars": 0, "tags": null, "updated_at": 1776741883697, "version": "1.0.0"}, {"category": "", "created_at": 1774844674377, "description": "Govern a file-based shared-memory layer for OpenClaw multi-agent and subagent systems. Preserve each agent’s private memory while adding a separate, reviewab...", "description_zh": "", "downloads": 29, "homepage": "https://clawhub.ai/jiy29104983/shared-memory-governor", "iconUrl": null, "installs": 0, "name": "Shared Memory Governor", "ownerName": "jiy29104983", "score": 33333.33333333333, "slug": "shared-memory-governor", "source": "clawhub", "stars": 0, "tags": null, "updated_at": 1776741644410, "version": "1.0.1"}, {"category": "", "created_at": 1774878066651, "description": "Build and publish complete websites via WebsitePublisher.ai. Create pages, upload assets, manage dynamic data (products, team members, blog posts), configure...", "description_zh": "", "downloads": 29, "homepage": "https://clawhub.ai/megberts/websitepublisher", "iconUrl": null, "installs": 0, "name": "WebsitePublisher", "ownerName": "megberts", "score": 30526.315789473683, "slug": "websitepublisher", "source": "clawhub", "stars": 0, "tags": null, "updated_at": 1776741469538, "version": "1.0.0"}, {"category": "", "created_at": 1774897103373, "description": "Develop clear, actionable strategy statements. Use for strategic planning and communication.", "description_zh": "", "downloads": 29, "homepage": "https://clawhub.ai/linuszz/strategy-articulation", "iconUrl": null, "installs": 0, "name": "Strategy Articulation", "ownerName": "linuszz", "score": 30526.315789473683, "slug": "strategy-articulation", "source": "clawhub", "stars": 0, "tags": null, "updated_at": 1776741463709, "version": "1.0.0"}, {"category": "", "created_at": 1774948748296, "description": "Physical navigation skills without digital devices. Use when someone wants to learn map reading, compass use, natural navigation, or needs to navigate when t...", "description_zh": "", "downloads": 29, "homepage": "https://clawhub.ai/howtousehumans/navigation-without-screens", "iconUrl": null, "installs": 0, "name": "Navigation Without Screens", "ownerName": "howtousehumans", "score": 35802.469135802465, "slug": "navigation-without-screens", "source": "clawhub", "stars": 0, "tags": null, "updated_at": 1776737772037, "version": "1.0.0"}, {"category": "", "created_at": 1774905912442, "description": "Monitor shipping carrier prices from Excel files and send alerts when prices drop below thresholds. Invoke when user mentions shipping price monitoring, pric...", "description_zh": "", "downloads": 29, "homepage": "https://clawhub.ai/start-ll04/shipping-price-monitor", "iconUrl": null, "installs": 0, "name": "shipping-price-monitor", "ownerName": "start-ll04", "score": 35802.469135802465, "slug": "shipping-price-monitor", "source": "clawhub", "stars": 0, "tags": null, "updated_at": 1776737704833, "version": "1.0.0"}, {"category": "", "created_at": 1774834879000, "description": "When the user wants to analyze website traffic sources, attribution, or dark traffic. Also use when the user mentions \"traffic sources,\" \"dark traffic,\" \"dir...", "description_zh": "", "downloads": 29, "homepage": "https://clawhub.ai/kostja94/kostja94-traffic-analysis", "iconUrl": null, "installs": 0, "name": "traffic-analysis", "ownerName": "kostja94", "score": 35802.469135802465, "slug": "kostja94-traffic-analysis", "source": "clawhub", "stars": 0, "tags": null, "updated_at": 1776737683736, "version": "1.1.0"}, {"category": "", "created_at": 1774902453547, "description": "Provide short, low-risk self-check quizzes for common mental wellness themes such as stress, sleep, and emotional overload. Use when the user wants a quick s...", "description_zh": "", "downloads": 29, "homepage": "https://clawhub.ai/harrylabsj/psych-quiz", "iconUrl": null, "installs": 0, "name": "Psych Quiz", "ownerName": "harrylabsj", "score": 29896.907216494845, "slug": "psych-quiz", "source": "clawhub", "stars": 0, "tags": null, "updated_at": 1776736969615, "version": "1.0.0"}, {"category": "", "created_at": 1774856064365, "description": "LangChain4j is an open-source Java library that simplifies the integration of LLMs into Java applica llm-chain, java, anthropic, chatgpt, chroma, embeddings.", "description_zh": "", "downloads": 29, "homepage": "https://clawhub.ai/bytesagain3/llm-chain", "iconUrl": null, "installs": 1, "name": "Llm Chain", "ownerName": "bytesagain3", "score": 30208.333333333332, "slug": "llm-chain", "source": "clawhub", "stars": 0, "tags": null, "updated_at": 1776734269828, "version": "2.0.0"}, {"category": "", "created_at": 1774913142458, "description": "When the user wants to create, optimize, or audit pricing page content and structure. Also use when the user mentions \"pricing page,\" \"pricing table,\" \"plans...", "description_zh": "", "downloads": 29, "homepage": "https://clawhub.ai/kostja94/pricing-page-generator", "iconUrl": null, "installs": 1, "name": "pricing-page-generator", "ownerName": "kostja94", "score": 29591.836734693876, "slug": "pricing-page-generator", "source": "clawhub", "stars": 0, "tags": null, "updated_at": 1776730544419, "version": "1.2.0"}, {"category": "", "created_at": 1774878906612, "description": "Diagnose and fix OpenClaw messaging channel failures across Telegram, Discord, WhatsApp, Slack, and webchat. Use when users report no replies, no active list...", "description_zh": "", "downloads": 29, "homepage": "https://clawhub.ai/vassiliylakhonin/openclaw-channel-doctor", "iconUrl": null, "installs": 0, "name": "OpenClaw Channel Doctor", "ownerName": "vassiliylakhonin", "score": 74358.97435897436, "slug": "openclaw-channel-doctor", "source": "clawhub", "stars": 0, "tags": null, "updated_at": 1776699044742, "version": "1.0.1"}, {"category": "", "created_at": 1774864091881, "description": "Use when the user explicitly wants to send outbound messages with the OpenClaw CLI rather than built-in tools, especially for `openclaw message send` command...", "description_zh": "", "downloads": 29, "homepage": "https://clawhub.ai/leoustc/openclaw-message-cli-skill", "iconUrl": null, "installs": 0, "name": "openclaw message cli skill", "ownerName": "leoustc", "score": 54716.98113207547, "slug": "openclaw-message-cli-skill", "source": "clawhub", "stars": 0, "tags": null, "updated_at": 1776699044663, "version": "1.0.0"}, {"category": "", "created_at": 1774878930920, "description": "Install, repair, and validate a persistent memory workflow for OpenClaw-style agents using Markdown memory files plus recurring cron jobs. Use when setting u...", "description_zh": "", "downloads": 29, "homepage": "https://clawhub.ai/maiusless/openclaw-memory-pipeline", "iconUrl": null, "installs": 0, "name": "Memory Pipeline", "ownerName": "maiusless", "score": 100000, "slug": "openclaw-memory-pipeline", "source": "clawhub", "stars": 0, "tags": null, "updated_at": 1776699044512, "version": "0.1.0"}, {"category": "", "created_at": 1774890591368, "description": "TPVL (Taiwan Professional Volleyball League) stats, scores, schedules, and standings for Taiwan's pro volleyball.", "description_zh": "", "downloads": 29, "homepage": "https://clawhub.ai/ichendong/tpvl", "iconUrl": null, "installs": 0, "name": "TPVL 台灣職業排球聯盟", "ownerName": "ichendong", "score": 100000, "slug": "tpvl", "source": "clawhub", "stars": 0, "tags": null, "updated_at": 1776698384383, "version": "1.1.0"}, {"category": "", "created_at": 1774877877210, "description": "Reference tool for devtools — covers intro, quickstart, patterns and more. Quick lookup for Server Dashboard concepts, best practices, and implementation pat...", "description_zh": "", "downloads": 29, "homepage": "https://clawhub.ai/xueyetianya/server-dashboard", "iconUrl": null, "installs": 0, "name": "Server Dashboard", "ownerName": "xueyetianya", "score": 100000, "slug": "server-dashboard", "source": "clawhub", "stars": 0, "tags": null, "updated_at": 1776698384336, "version": "2.0.1"}, {"category": "", "created_at": 1774890797487, "description": "Identify new business opportunities based on existing assets and capabilities. Use for market expansion, product development, and strategic growth.", "description_zh": "", "downloads": 29, "homepage": "https://clawhub.ai/linuszz/asset-extension-modeling", "iconUrl": null, "installs": 1, "name": "Asset Extension Modeling", "ownerName": "linuszz", "score": 33333.33333333333, "slug": "asset-extension-modeling", "source": "clawhub", "stars": 0, "tags": null, "updated_at": 1776698384276, "version": "1.0.0"}, {"category": "", "created_at": 1774879287319, "description": "When the user wants to design, optimize, or audit a sidebar for blogs, docs, or content pages. Also use when the user mentions \"sidebar,\" \"blog sidebar,\" \"co...", "description_zh": "", "downloads": 29, "homepage": "https://clawhub.ai/kostja94/sidebar-generator", "iconUrl": null, "installs": 0, "name": "sidebar-generator", "ownerName": "kostja94", "score": 33333.33333333333, "slug": "sidebar-generator", "source": "clawhub", "stars": 0, "tags": null, "updated_at": 1776698384255, "version": "1.0.0"}, {"category": "", "created_at": 1774861696836, "description": "Send the user a video message with an AI avatar that speaks any text, using Runway Character API. For async updates, explanations, or anything better said th...", "description_zh": "", "downloads": 29, "homepage": "https://clawhub.ai/yining1023/send-video-message", "iconUrl": null, "installs": 1, "name": "Send Video Message", "ownerName": "yining1023", "score": 100000, "slug": "send-video-message", "source": "clawhub", "stars": 0, "tags": null, "updated_at": 1776698384220, "version": "1.0.2"}, {"category": "", "created_at": 1774918810662, "description": "Real-time streaming Solana SPL stablecoin transfers (USDT and USDC) over WebSocket from the Bitquery GraphQL API. Subscribes to Transfers filtered by USDT/US...", "description_zh": "", "downloads": 29, "homepage": "https://clawhub.ai/divyn/solana-stablecoin-payments-tracking", "iconUrl": null, "installs": 1, "name": "Solana Stablecoin Payments in Real-time", "ownerName": "divyn", "score": 100000, "slug": "solana-stablecoin-payments-tracking", "source": "clawhub", "stars": 0, "tags": null, "updated_at": 1776698384059, "version": "1.0.1"}, {"category": "", "created_at": 1774855533375, "description": "Get current weather and forecasts (no API key required).", "description_zh": "", "downloads": 29, "homepage": "https://clawhub.ai/asterisk622/xiaoding-weather", "iconUrl": null, "installs": 1, "name": "Weather (XiaoDing)", "ownerName": "asterisk622", "score": 100000, "slug": "xiaoding-weather", "source": "clawhub", "stars": 0, "tags": null, "updated_at": 1776698384049, "version": "1.0.2"}, {"category": "", "created_at": 1774906918003, "description": "SalesBlink integration. Manage Organizations, Pipelines, Projects, Users, Filters. Use when the user wants to interact with SalesBlink data.", "description_zh": "", "downloads": 29, "homepage": "https://clawhub.ai/gora050/salesblink", "iconUrl": null, "installs": 0, "name": "Salesblink", "ownerName": "gora050", "score": 100000, "slug": "salesblink", "source": "clawhub", "stars": 0, "tags": null, "updated_at": 1776698383998, "version": "1.0.0"}, {"category": "", "created_at": 1774921971743, "description": "Snyk integration. Manage Projects, Organizations. Use when the user wants to interact with Snyk data.", "description_zh": "", "downloads": 29, "homepage": "https://clawhub.ai/gora050/snyk-integration", "iconUrl": null, "installs": 0, "name": "Snyk", "ownerName": "gora050", "score": 100000, "slug": "snyk-integration", "source": "clawhub", "stars": 0, "tags": null, "updated_at": 1776698383995, "version": "1.0.0"}, {"category": "", "created_at": 1774898712335, "description": "SavvyCal integration. Manage Users. Use when the user wants to interact with SavvyCal data.", "description_zh": "", "downloads": 29, "homepage": "https://clawhub.ai/gora050/savvycal", "iconUrl": null, "installs": 0, "name": "Savvycal", "ownerName": "gora050", "score": 100000, "slug": "savvycal", "source": "clawhub", "stars": 0, "tags": null, "updated_at": 1776698383920, "version": "1.0.0"}, {"category": "", "created_at": 1774872150758, "description": "Exports Plex Media Library (Movies & TV Shows) as static HTML pages. Features: Multilingual (EN/DE), token obfuscation (machine-bound), genre filter, detail...", "description_zh": "", "downloads": 29, "homepage": "https://clawhub.ai/kesuek/plexmedia2html-export", "iconUrl": null, "installs": 0, "name": "PlexMedia2HTML Export", "ownerName": "kesuek", "score": 100000, "slug": "plexmedia2html-export", "source": "clawhub", "stars": 0, "tags": ["export", "html", "media", "multilingual", "plex", "secure"], "updated_at": 1776698383890, "version": "1.3.1"}, {"category": "", "created_at": 1774871961683, "description": "Reference tool for devtools — covers intro, quickstart, patterns and more. Quick lookup for Video Fetcher concepts, best practices, and implementation patterns.", "description_zh": "", "downloads": 29, "homepage": "https://clawhub.ai/bytesagain1/video-fetcher", "iconUrl": null, "installs": 0, "name": "Video Fetcher", "ownerName": "bytesagain1", "score": 100000, "slug": "video-fetcher", "source": "clawhub", "stars": 0, "tags": null, "updated_at": 1776698383867, "version": "2.0.1"}, {"category": "", "created_at": 1774944756393, "description": "Perform a UX audit on any website or web app using Steve Krug's proven methodology. Provide a URL or local path and get a structured usability review grounde...", "description_zh": "", "downloads": 29, "homepage": "https://clawhub.ai/couriard/steve-krug-ux-audit", "iconUrl": null, "installs": 0, "name": "Steve Krug Ux Audit", "ownerName": "couriard", "score": 93548.38709677418, "slug": "steve-krug-ux-audit", "source": "clawhub", "stars": 0, "tags": null, "updated_at": 1776698383776, "version": "1.0.1"}, {"category": "", "created_at": 1774871890927, "description": "When the user wants to add, optimize, or design customer testimonials, reviews, or case study sections. Also use when the user mentions \"testimonials,\" \"revi...", "description_zh": "", "downloads": 29, "homepage": "https://clawhub.ai/kostja94/testimonials-generator", "iconUrl": null, "installs": 0, "name": "testimonials-generator", "ownerName": "kostja94", "score": 96666.66666666667, "slug": "testimonials-generator", "source": "clawhub", "stars": 0, "tags": null, "updated_at": 1776698383689, "version": "1.0.0"}, {"category": "", "created_at": 1774876490411, "description": "When the user wants to add or optimize trust badges, \"Trusted by\" logos, security seals, or social proof elements. Also use when the user mentions \"trust bad...", "description_zh": "", "downloads": 29, "homepage": "https://clawhub.ai/kostja94/trust-badges-generator", "iconUrl": null, "installs": 0, "name": "trust-badges-generator", "ownerName": "kostja94", "score": 100000, "slug": "trust-badges-generator", "source": "clawhub", "stars": 0, "tags": null, "updated_at": 1776698383663, "version": "1.0.0"}, {"category": "", "created_at": 1774909002874, "description": "Read, explain, and evaluate a software repository or GitHub project in an engineering-oriented way. Use when the user asks to read a repo, understand a codeb...", "description_zh": "", "downloads": 29, "homepage": "https://clawhub.ai/9penny/repo-analysis", "iconUrl": null, "installs": 1, "name": "Repo Analysis", "ownerName": "9penny", "score": 100000, "slug": "repo-analysis", "source": "clawhub", "stars": 0, "tags": null, "updated_at": 1776698270537, "version": "0.4.0"}, {"category": "", "created_at": 1774892035471, "description": "SMS Alert integration. Manage Alerts, Contacts, Templates. Use when the user wants to interact with SMS Alert data.", "description_zh": "", "downloads": 29, "homepage": "https://clawhub.ai/gora050/sms-alert", "iconUrl": null, "installs": 0, "name": "Sms Alert", "ownerName": "gora050", "score": 100000, "slug": "sms-alert", "source": "clawhub", "stars": 0, "tags": null, "updated_at": 1776698270533, "version": "1.0.0"}, {"category": "", "created_at": 1774850237319, "description": "Upload files (images, PDFs, documents) to tmpfiles.org and send download links via messaging platforms. Use when: (1) User asks to send screenshots/files via...", "description_zh": "", "downloads": 29, "homepage": "https://clawhub.ai/turbos7/tmpfiles-upload", "iconUrl": null, "installs": 1, "name": "Tmpfiles Upload", "ownerName": "turbos7", "score": 100000, "slug": "tmpfiles-upload", "source": "clawhub", "stars": 0, "tags": null, "updated_at": 1776698270530, "version": "1.0.0"}, {"category": "", "created_at": 1774923450746, "description": "Weekly meal planner - input people count, budget, taste preference → output 7-day menu with breakfast/lunch/dinner and shopping list", "description_zh": "", "downloads": 29, "homepage": "https://clawhub.ai/harrylabsj/weekly-meal-planner", "iconUrl": null, "installs": 1, "name": "Weekly Meal Planner", "ownerName": "harrylabsj", "score": 100000, "slug": "weekly-meal-planner", "source": "clawhub", "stars": 0, "tags": null, "updated_at": 1776698270521, "version": "1.0.0"}, {"category": "", "created_at": 1774862061610, "description": "Connect WHOOP wearable to OpenClaw — fetch and store recovery, sleep, HRV, strain, and workout data locally. Use when: user asks about recovery, sleep qualit...", "description_zh": "", "downloads": 29, "homepage": "https://clawhub.ai/belugary/whoop-connect", "iconUrl": null, "installs": 1, "name": "Whoop Connect", "ownerName": "belugary", "score": 100000, "slug": "whoop-connect", "source": "clawhub", "stars": 0, "tags": null, "updated_at": 1776698270516, "version": "0.5.0"}]}