{"page": 477, "total_pages": 522, "total": 26073, "skills": [{"category": "", "created_at": 1774924977636, "description": "🌟 Enhance OpenClaw WebChat with clickable navigation. One-command install!", "description_zh": "", "downloads": 29, "homepage": "https://clawhub.ai/yjin94606-art/webchat-enhancer", "iconUrl": null, "installs": 0, "name": "WebChat Enhancer", "ownerName": "yjin94606-art", "score": 100000, "slug": "webchat-enhancer", "source": "clawhub", "stars": 0, "tags": null, "updated_at": 1776698270509, "version": "4.2.1"}, {"category": "", "created_at": 1774953678729, "description": "When the user wants to analyze competitors for SEO, content, backlinks, or positioning. Also use when the user mentions \"competitor analysis,\" \"competitor re...", "description_zh": "", "downloads": 29, "homepage": "https://clawhub.ai/kostja94/competitor-research-seo", "iconUrl": null, "installs": 1, "name": "competitor-research", "ownerName": "kostja94", "score": 74358.97435897436, "slug": "competitor-research-seo", "source": "clawhub", "stars": 0, "tags": null, "updated_at": 1776698270498, "version": "1.2.0"}, {"category": "", "created_at": 1774953375860, "description": "Analyze video comment sections from a seller/operator perspective and produce visible browser walkthroughs plus business-focused outputs. Use when the user a...", "description_zh": "", "downloads": 29, "homepage": "https://clawhub.ai/mx9690/video-comment-analysis", "iconUrl": null, "installs": 1, "name": "Video Comment Analysis", "ownerName": "mx9690", "score": 74358.97435897436, "slug": "video-comment-analysis", "source": "clawhub", "stars": 0, "tags": ["browser-demo", "ecommerce", "video-comments"], "updated_at": 1776698270496, "version": "1.0.0"}, {"category": "", "created_at": 1774905971847, "description": "Softr integration. Manage Applications. Use when the user wants to interact with Softr data.", "description_zh": "", "downloads": 29, "homepage": "https://clawhub.ai/membranedev/softr", "iconUrl": null, "installs": 0, "name": "Softr", "ownerName": "membranedev", "score": 74358.97435897436, "slug": "softr", "source": "clawhub", "stars": 0, "tags": null, "updated_at": 1776698270495, "version": "1.0.0"}, {"category": "", "created_at": 1774911953624, "description": "Integrate Merso PNPL (Play Now, Pay Later) payments into games or digital goods platforms. Use when a user wants to: (1) add Merso installment payments to a...", "description_zh": "", "downloads": 29, "homepage": "https://clawhub.ai/dreadterror/merso-integration", "iconUrl": null, "installs": 0, "name": "Merso Integration", "ownerName": "dreadterror", "score": 74358.97435897436, "slug": "merso-integration", "source": "clawhub", "stars": 0, "tags": null, "updated_at": 1776698270489, "version": "1.0.5"}, {"category": "", "created_at": 1774910137731, "description": "RSyslog advanced system logging reference. RainerScript configuration, input/output modules (imtcp/imfile/omfwd/omelasticsearch), templates with property rep...", "description_zh": "", "downloads": 29, "homepage": "https://clawhub.ai/ckchzh/rsyslog", "iconUrl": null, "installs": 0, "name": "Rsyslog", "ownerName": "ckchzh", "score": 74358.97435897436, "slug": "rsyslog", "source": "clawhub", "stars": 0, "tags": null, "updated_at": 1776698270481, "version": "1.0.0"}, {"category": "", "created_at": 1774911204261, "description": "Professional test automation career roadmap platform that generates personalized learning paths for SDET and automation engineers.", "description_zh": "", "downloads": 29, "homepage": "https://clawhub.ai/krishnakumarmahadevan-cmd/sdet-automation", "iconUrl": null, "installs": 2, "name": "SDET Automation", "ownerName": "krishnakumarmahadevan-cmd", "score": 74358.97435897436, "slug": "sdet-automation", "source": "clawhub", "stars": 0, "tags": null, "updated_at": 1776698270479, "version": "1.0.0"}, {"category": "", "created_at": 1774910690935, "description": "Wrapper skill for the Ezer audit backend API. Use this skill when the user asks to run a financial audit task by code/period/year/lang and return structured...", "description_zh": "", "downloads": 29, "homepage": "https://clawhub.ai/mx-222/ezer-multiagent-auditor", "iconUrl": null, "installs": 0, "name": "Ezer Multi-Agent Report Auditor", "ownerName": "mx-222", "score": 74358.97435897436, "slug": "ezer-multiagent-auditor", "source": "clawhub", "stars": 0, "tags": null, "updated_at": 1776698270471, "version": "1.0.0"}, {"category": "", "created_at": 1774915002876, "description": "Use when an agent needs structured Spain legal screening for visas, residency, nationality, NIE/TIE, Beckham regime, EU family routes, or Spain tax-regime qu...", "description_zh": "", "downloads": 29, "homepage": "https://clawhub.ai/heyalerio/spain-legal", "iconUrl": null, "installs": 2, "name": "Spain Legal", "ownerName": "heyalerio", "score": 74358.97435897436, "slug": "spain-legal", "source": "clawhub", "stars": 0, "tags": null, "updated_at": 1776698270467, "version": "1.0.2"}, {"category": "", "created_at": 1774902509526, "description": "Sender integration. Manage Persons, Organizations, Deals, Leads, Projects, Activities and more. Use when the user wants to interact with Sender data.", "description_zh": "", "downloads": 29, "homepage": "https://clawhub.ai/gora050/sender", "iconUrl": null, "installs": 0, "name": "Sender", "ownerName": "gora050", "score": 74358.97435897436, "slug": "sender", "source": "clawhub", "stars": 0, "tags": null, "updated_at": 1776698270466, "version": "1.0.0"}, {"category": "", "created_at": 1774919347192, "description": "Autonomous pipeline manager that orchestrates the entire development workflow. You are the leader of this process.", "description_zh": "", "downloads": 29, "homepage": "https://clawhub.ai/baobaodawang-creater/agents-orchestrator", "iconUrl": null, "installs": 1, "name": "Agents Orchestrator", "ownerName": "baobaodawang-creater", "score": 74358.97435897436, "slug": "agents-orchestrator", "source": "clawhub", "stars": 0, "tags": null, "updated_at": 1776698270464, "version": "1.0.0"}, {"category": "", "created_at": 1774878712876, "description": "HPC/AI job status query skill. Fetches job status information by jobId from a specific API endpoint and parses the jobState field from the JSON response. **U...", "description_zh": "", "downloads": 29, "homepage": "https://clawhub.ai/bylikai/job-status", "iconUrl": null, "installs": 0, "name": "job-status", "ownerName": "bylikai", "score": 74358.97435897436, "slug": "job-status", "source": "clawhub", "stars": 0, "tags": null, "updated_at": 1776698270459, "version": "1.0.1"}, {"category": "", "created_at": 1774888519965, "description": "Evaluate and QA a skill before release on ClawHub, skills.sh, and similar directories. Includes the bundled static evaluator `scripts/eval_skill.py` plus gui...", "description_zh": "", "downloads": 29, "homepage": "https://clawhub.ai/fwwdn/skills-test", "iconUrl": null, "installs": 1, "name": "Skill Test", "ownerName": "fwwdn", "score": 74358.97435897436, "slug": "skills-test", "source": "clawhub", "stars": 0, "tags": null, "updated_at": 1776698270439, "version": "0.1.1"}, {"category": "", "created_at": 1774911313170, "description": "Placeholder skill for video-to-video workflows on skills.video. Use when the user is asking about v2v generation and the concrete API contract has not been i...", "description_zh": "", "downloads": 29, "homepage": "https://clawhub.ai/skills-video/v2v", "iconUrl": null, "installs": 1, "name": "V2V", "ownerName": "skills-video", "score": 74358.97435897436, "slug": "v2v", "source": "clawhub", "stars": 0, "tags": null, "updated_at": 1776698270432, "version": "1.0.0"}, {"category": "", "created_at": 1774868321230, "description": "AI Agent skill inventory & capability assessment guide. Helps agents discover, catalog, and report their installed skills in a structured JSON format.", "description_zh": "", "downloads": 29, "homepage": "https://clawhub.ai/saqierma-cyber/skill-inventory-expert", "iconUrl": null, "installs": 0, "name": "Skill Inventory Expert", "ownerName": "saqierma-cyber", "score": 74358.97435897436, "slug": "skill-inventory-expert", "source": "clawhub", "stars": 0, "tags": null, "updated_at": 1776698270425, "version": "1.0.0"}, {"category": "", "created_at": 1774881745699, "description": "Imejis.io integration. Manage Images, Users, Projects. Use when the user wants to interact with Imejis.io data.", "description_zh": "", "downloads": 29, "homepage": "https://clawhub.ai/membranedev/imejisio", "iconUrl": null, "installs": 0, "name": "Imejisio", "ownerName": "membranedev", "score": 96666.66666666667, "slug": "imejisio", "source": "clawhub", "stars": 0, "tags": null, "updated_at": 1776698270418, "version": "1.0.0"}, {"category": "", "created_at": 1774873822514, "description": "Patterns and procedures for building AI agent workflows that survive real-world failures. Use when asked to build a multi-step automation, pipeline, or agent...", "description_zh": "", "downloads": 29, "homepage": "https://clawhub.ai/old-greggyboy/durable-workflow", "iconUrl": null, "installs": 0, "name": "Durable Workflow", "ownerName": "old-greggyboy", "score": 96666.66666666667, "slug": "durable-workflow", "source": "clawhub", "stars": 0, "tags": null, "updated_at": 1776698270400, "version": "1.0.1"}, {"category": "", "created_at": 1774807766738, "description": "Audit a user's current AI tool stack. Score each tool by ROI, identify redundancies, gaps, and upgrade opportunities. Produces a structured report with score...", "description_zh": "", "downloads": 29, "homepage": "https://clawhub.ai/fresh3/taizi-ai-productivity-audit", "iconUrl": null, "installs": 0, "name": "Ai Productivity Audit", "ownerName": "fresh3", "score": 96666.66666666667, "slug": "taizi-ai-productivity-audit", "source": "clawhub", "stars": 0, "tags": null, "updated_at": 1776698270391, "version": "1.1.1"}, {"category": "", "created_at": 1774870313299, "description": "ASC 606 / IFRS 15 revenue recognition analysis and compliance for SaaS, services, and multi-element arrangements. Guides the 5-step recognition model, identi...", "description_zh": "", "downloads": 29, "homepage": "https://clawhub.ai/samledger67-dotcom/revenue-recognition-agent", "iconUrl": null, "installs": 0, "name": "Revenue Recognition Agent", "ownerName": "samledger67-dotcom", "score": 96666.66666666667, "slug": "revenue-recognition-agent", "source": "clawhub", "stars": 0, "tags": null, "updated_at": 1776698270389, "version": "1.0.0"}, {"category": "", "created_at": 1774859528286, "description": "SaaS and subscription business revenue intelligence. Track MRR/ARR, calculate churn rate, net revenue retention (NRR), customer lifetime value (LTV), cohort...", "description_zh": "", "downloads": 29, "homepage": "https://clawhub.ai/samledger67-dotcom/subscription-revenue-tracker", "iconUrl": null, "installs": 0, "name": "Subscription Revenue Tracker", "ownerName": "samledger67-dotcom", "score": 96666.66666666667, "slug": "subscription-revenue-tracker", "source": "clawhub", "stars": 0, "tags": null, "updated_at": 1776698270387, "version": "1.1.0"}, {"category": "", "created_at": 1774820005181, "description": "Agente especialista em Física para FUVEST — Ciência da Computação (IME-USP). Física é a segunda disciplina específica da 2ª fase, junto com Matemática. Domín...", "description_zh": "", "downloads": 29, "homepage": "https://clawhub.ai/antoniovfranco/agente-fisica", "iconUrl": null, "installs": 1, "name": "Agente Fisica", "ownerName": "antoniovfranco", "score": 96666.66666666667, "slug": "agente-fisica", "source": "clawhub", "stars": 0, "tags": null, "updated_at": 1776698270381, "version": "1.0.0"}, {"category": "", "created_at": 1774872671336, "description": "Accounting API skill. Use when working with Accounting for accounting. Covers 143 endpoints.", "description_zh": "", "downloads": 29, "homepage": "https://clawhub.ai/mickmicksh/lap-accounting-api", "iconUrl": null, "installs": 0, "name": "Lap Accounting Api", "ownerName": "mickmicksh", "score": 96666.66666666667, "slug": "lap-accounting-api", "source": "clawhub", "stars": 0, "tags": null, "updated_at": 1776698270376, "version": "1.0.0"}, {"category": "", "created_at": 1774837887924, "description": "Process any financial document — invoice, bill, receipt, or purchase order — via MOVA OCR and human-in-the-loop approval. Trigger when the user shares a docu...", "description_zh": "", "downloads": 29, "homepage": "https://clawhub.ai/mova-compact/mova-invoice-ocr", "iconUrl": null, "installs": 0, "name": "Mova Invoice Ocr", "ownerName": "mova-compact", "score": 96666.66666666667, "slug": "mova-invoice-ocr", "source": "clawhub", "stars": 0, "tags": null, "updated_at": 1776698270371, "version": "1.2.1"}, {"category": "", "created_at": 1774872039035, "description": "Write high-quality YARA-X detection rules for malware hunting. Covers atom selection, string optimization, false positive reduction, module usage (PE, ELF, M...", "description_zh": "", "downloads": 29, "homepage": "https://clawhub.ai/solomonneas/yara-authoring", "iconUrl": null, "installs": 0, "name": "Yara Authoring", "ownerName": "solomonneas", "score": 96666.66666666667, "slug": "yara-authoring", "source": "clawhub", "stars": 0, "tags": null, "updated_at": 1776698270365, "version": "1.0.2"}, {"category": "", "created_at": 1774878571847, "description": "Use Engrm memory deliberately before coding, during coding, and when saving reusable lessons.", "description_zh": "", "downloads": 29, "homepage": "https://clawhub.ai/dr12hes/engrm-memory", "iconUrl": null, "installs": 1, "name": "Engrm Memory", "ownerName": "dr12hes", "score": 96666.66666666667, "slug": "engrm-memory", "source": "clawhub", "stars": 0, "tags": ["memory", "openclaw", "shared-memory"], "updated_at": 1776698270351, "version": "0.1.0"}, {"category": "", "created_at": 1774840885757, "description": "Extract frames or short clips from videos using ffmpeg.", "description_zh": "", "downloads": 29, "homepage": "https://clawhub.ai/utromaya-code/video-clip-extractor", "iconUrl": null, "installs": 1, "name": "Video Frames", "ownerName": "utromaya-code", "score": 96666.66666666667, "slug": "video-clip-extractor", "source": "clawhub", "stars": 0, "tags": null, "updated_at": 1776698270349, "version": "1.0.1"}, {"category": "", "created_at": 1774828277699, "description": "When the user wants to analyze Google Search Console data, use GSC API, or interpret search performance. Also use when the user mentions \"GSC,\" \"Search Conso...", "description_zh": "", "downloads": 29, "homepage": "https://clawhub.ai/kostja94/google-search-console-analytics", "iconUrl": null, "installs": 2, "name": "google-search-console", "ownerName": "kostja94", "score": 96666.66666666667, "slug": "google-search-console-analytics", "source": "clawhub", "stars": 0, "tags": null, "updated_at": 1776698270346, "version": "1.3.0"}, {"category": "", "created_at": 1774844640997, "description": "Amazon OpenSearch vector search expert knowledge base. Comprehensive guidance on vector search configuration, cluster tuning, quantization, cost optimization...", "description_zh": "", "downloads": 29, "homepage": "https://clawhub.ai/norrishuang/opensearch-vector-search", "iconUrl": null, "installs": 0, "name": "Opensearch Vector Search", "ownerName": "norrishuang", "score": 96666.66666666667, "slug": "opensearch-vector-search", "source": "clawhub", "stars": 0, "tags": ["aws", "knn", "opensearch", "vector-search"], "updated_at": 1776698270342, "version": "1.3.2"}, {"category": "", "created_at": 1774915335095, "description": "Full read/write access to GoHighLevel CRM via API v2. Contacts, conversations, notes, opportunities, calendars, tags, tasks, forms, workflows, payments, and...", "description_zh": "", "downloads": 29, "homepage": "https://clawhub.ai/brianxmacdonald/ghl", "iconUrl": null, "installs": 0, "name": "GoHighLevel CRM Automation", "ownerName": "brianxmacdonald", "score": 96666.66666666667, "slug": "ghl", "source": "clawhub", "stars": 0, "tags": null, "updated_at": 1776698270338, "version": "1.3.0"}, {"category": "", "created_at": 1774916537120, "description": "Ecwid integration. Manage Stores. Use when the user wants to interact with Ecwid data.", "description_zh": "", "downloads": 29, "homepage": "https://clawhub.ai/gora050/ecwid", "iconUrl": null, "installs": 0, "name": "Ecwid", "ownerName": "gora050", "score": 96666.66666666667, "slug": "ecwid", "source": "clawhub", "stars": 0, "tags": null, "updated_at": 1776698270336, "version": "1.0.0"}, {"category": "", "created_at": 1774853961523, "description": "Automated news analysis pipeline that fetches CNBC world news, classifies articles by topic (geopolitics vs macroeconomics), and invokes specialized skills (...", "description_zh": "", "downloads": 29, "homepage": "https://clawhub.ai/rafimchmd/poly-tradebot", "iconUrl": null, "installs": 2, "name": "Poly Tradebot", "ownerName": "rafimchmd", "score": 96666.66666666667, "slug": "poly-tradebot", "source": "clawhub", "stars": 0, "tags": null, "updated_at": 1776698270334, "version": "1.0.4"}, {"category": "", "created_at": 1774921052559, "description": "Generate personalized 120-day career success plans based on professional assessment data and onboarding goals.", "description_zh": "", "downloads": 29, "homepage": "https://clawhub.ai/krishnakumarmahadevan-cmd/career-success-planner", "iconUrl": null, "installs": 0, "name": "Career Success Planner", "ownerName": "krishnakumarmahadevan-cmd", "score": 96666.66666666667, "slug": "career-success-planner", "source": "clawhub", "stars": 0, "tags": null, "updated_at": 1776698270326, "version": "1.0.0"}, {"category": "", "created_at": 1774884227284, "description": "Delegate work from an OpenClaw Discord controller bot to a Claude Code worker bot through a private Discord worker lane, then relay the final result back to...", "description_zh": "", "downloads": 29, "homepage": "https://clawhub.ai/jini92/discord-claude-code-delegation", "iconUrl": null, "installs": 0, "name": "Discord Claude Code Delegation", "ownerName": "jini92", "score": 96666.66666666667, "slug": "discord-claude-code-delegation", "source": "clawhub", "stars": 0, "tags": null, "updated_at": 1776698270316, "version": "1.0.0"}, {"category": "", "created_at": 1774853976987, "description": "Use when conducting deep product opportunity research or feature prioritization. 6 specialized agents (User JTBD, Workflow, Tech Feasibility, System Integrat...", "description_zh": "", "downloads": 29, "homepage": "https://clawhub.ai/joe-rq/product-opportunity-research", "iconUrl": null, "installs": 2, "name": "Product Opportunity Research", "ownerName": "joe-rq", "score": 96666.66666666667, "slug": "product-opportunity-research", "source": "clawhub", "stars": 0, "tags": null, "updated_at": 1776698270314, "version": "1.0.0"}, {"category": "", "created_at": 1774923928623, "description": "Survival protocol for when income drops and debts pile up. Covers payment priority hierarchy, creditor negotiation, collector defense using FDCPA rights, val...", "description_zh": "", "downloads": 29, "homepage": "https://clawhub.ai/howtousehumans/debt-survival", "iconUrl": null, "installs": 1, "name": "Debt Survival", "ownerName": "howtousehumans", "score": 96666.66666666667, "slug": "debt-survival", "source": "clawhub", "stars": 0, "tags": null, "updated_at": 1776698270307, "version": "1.0.0"}, {"category": "", "created_at": 1774889799121, "description": "Rule engine reference — decision tables, Rete algorithm, forward/backward chaining, and business rule management. Use when evaluating business rules, buildin...", "description_zh": "", "downloads": 29, "homepage": "https://clawhub.ai/xueyetianya/engine", "iconUrl": null, "installs": 0, "name": "Engine", "ownerName": "xueyetianya", "score": 96666.66666666667, "slug": "engine", "source": "clawhub", "stars": 0, "tags": null, "updated_at": 1776698270305, "version": "1.0.0"}, {"category": "", "created_at": 1774904107477, "description": "Cflow integration. Manage data, records, and automate workflows. Use when the user wants to interact with Cflow data.", "description_zh": "", "downloads": 29, "homepage": "https://clawhub.ai/gora050/cflow", "iconUrl": null, "installs": 0, "name": "Cflow", "ownerName": "gora050", "score": 96666.66666666667, "slug": "cflow", "source": "clawhub", "stars": 0, "tags": null, "updated_at": 1776698270303, "version": "1.0.0"}, {"category": "", "created_at": 1774858228172, "description": "Analyze the intent of any script or code before executing it, to detect malicious, suspicious, or unintended behavior. Use this skill before running any scri...", "description_zh": "", "downloads": 29, "homepage": "https://clawhub.ai/haoyuwang99/haoyuwang99-safe-exec", "iconUrl": null, "installs": 0, "name": "Safe Exec", "ownerName": "haoyuwang99", "score": 96666.66666666667, "slug": "haoyuwang99-safe-exec", "source": "clawhub", "stars": 0, "tags": null, "updated_at": 1776698270298, "version": "1.0.0"}, {"category": "", "created_at": 1774857577881, "description": "When the user wants to design, optimize, or audit carousel/slider layouts for content display. Also use when the user mentions \"carousel,\" \"slider,\" \"carouse...", "description_zh": "", "downloads": 29, "homepage": "https://clawhub.ai/kostja94/carousel", "iconUrl": null, "installs": 0, "name": "carousel", "ownerName": "kostja94", "score": 96666.66666666667, "slug": "carousel", "source": "clawhub", "stars": 0, "tags": null, "updated_at": 1776698270297, "version": "1.0.0"}, {"category": "", "created_at": 1774889543565, "description": "Use when exploring Blast L2 chain features, understanding native yield mechanics, comparing gas costs, bridging assets, or discovering Blast ecosystem projec...", "description_zh": "", "downloads": 29, "homepage": "https://clawhub.ai/ckchzh/blast", "iconUrl": null, "installs": 0, "name": "Blast", "ownerName": "ckchzh", "score": 96666.66666666667, "slug": "blast", "source": "clawhub", "stars": 0, "tags": null, "updated_at": 1776698270291, "version": "2.0.1"}, {"category": "", "created_at": 1774898015598, "description": "Frame.io integration. Manage Projects, Teams. Use when the user wants to interact with Frame.io data.", "description_zh": "", "downloads": 29, "homepage": "https://clawhub.ai/gora050/frameio", "iconUrl": null, "installs": 0, "name": "Frameio", "ownerName": "gora050", "score": 96666.66666666667, "slug": "frameio", "source": "clawhub", "stars": 0, "tags": null, "updated_at": 1776698270277, "version": "1.0.0"}, {"category": "", "created_at": 1774945130885, "description": "Design KPI dashboards for executive monitoring. Use for performance tracking, strategic initiatives, and management reporting.", "description_zh": "", "downloads": 29, "homepage": "https://clawhub.ai/linuszz/executive-dashboard", "iconUrl": null, "installs": 0, "name": "Executive Dashboard", "ownerName": "linuszz", "score": 96666.66666666667, "slug": "executive-dashboard", "source": "clawhub", "stars": 0, "tags": null, "updated_at": 1776698270271, "version": "1.0.0"}, {"category": "", "created_at": 1774884611020, "description": "Submit a customer complaint for EU-compliant AI classification and human-in-the-loop handling decision via MOVA. Handles compensation claims, regulator threa...", "description_zh": "", "downloads": 29, "homepage": "https://clawhub.ai/mova-compact/mova-complaints-handler", "iconUrl": null, "installs": 1, "name": "Mova Complaints Handler", "ownerName": "mova-compact", "score": 96666.66666666667, "slug": "mova-complaints-handler", "source": "clawhub", "stars": 0, "tags": null, "updated_at": 1776698270270, "version": "1.2.0"}, {"category": "", "created_at": 1774897943141, "description": "Analyze cost advantages from scale. Use for understanding cost structure and competitive positioning.", "description_zh": "", "downloads": 29, "homepage": "https://clawhub.ai/linuszz/economies-of-scale", "iconUrl": null, "installs": 0, "name": "Economies Of Scale", "ownerName": "linuszz", "score": 96666.66666666667, "slug": "economies-of-scale", "source": "clawhub", "stars": 0, "tags": null, "updated_at": 1776698270260, "version": "1.0.0"}, {"category": "", "created_at": 1774866002041, "description": "Query Hong Kong bus ETA/stop data and MTR heavy rail ETA from natural-language transport questions using official KMB/LWB, Citybus, and MTR open-data endpoin...", "description_zh": "", "downloads": 29, "homepage": "https://clawhub.ai/jimpang8/hk-transit-eta", "iconUrl": null, "installs": 0, "name": "HK Transit ETA", "ownerName": "jimpang8", "score": 96666.66666666667, "slug": "hk-transit-eta", "source": "clawhub", "stars": 0, "tags": null, "updated_at": 1776698270256, "version": "1.0.1"}, {"category": "", "created_at": 1774913760069, "description": "Audi vehicle lineup, specs, pricing, technology features, and dealership info. From A3 to RS models and e-tron EVs.", "description_zh": "", "downloads": 29, "homepage": "https://clawhub.ai/hanxueyuan/audi", "iconUrl": null, "installs": 0, "name": "Audi", "ownerName": "hanxueyuan", "score": 96666.66666666667, "slug": "audi", "source": "clawhub", "stars": 0, "tags": null, "updated_at": 1776698270254, "version": "0.1.0"}, {"category": "", "created_at": 1774911923076, "description": "Megaventory integration. Manage data, records, and automate workflows. Use when the user wants to interact with Megaventory data.", "description_zh": "", "downloads": 29, "homepage": "https://clawhub.ai/gora050/megaventory", "iconUrl": null, "installs": 0, "name": "Megaventory", "ownerName": "gora050", "score": 96666.66666666667, "slug": "megaventory", "source": "clawhub", "stars": 0, "tags": null, "updated_at": 1776698270239, "version": "1.0.0"}, {"category": "", "created_at": 1774910488764, "description": "Agent Knowledge Protocol — connect any project to a decentralized peer-reviewed knowledge network. Setup, contribute, query, and review knowledge units in on...", "description_zh": "", "downloads": 29, "homepage": "https://clawhub.ai/patacka/akp", "iconUrl": null, "installs": 0, "name": "Agent Knowledge Protocol — decentralized peer-reviewed knowledge graph for AI agents. Contribute facts, query the network, review claims, and onboard to the DHT network.", "ownerName": "patacka", "score": 96666.66666666667, "slug": "akp", "source": "clawhub", "stars": 0, "tags": null, "updated_at": 1776698270237, "version": "0.1.2"}, {"category": "", "created_at": 1774922342532, "description": "Modular PM workflow. Assembles required modules based on project type, auto-recommends essential vs optional modules, user confirms before execution.", "description_zh": "", "downloads": 29, "homepage": "https://clawhub.ai/lambert-min/agile-pm-workflow-modular", "iconUrl": null, "installs": 0, "name": "Agile Pm Workflow Modular", "ownerName": "lambert-min", "score": 96666.66666666667, "slug": "agile-pm-workflow-modular", "source": "clawhub", "stars": 0, "tags": null, "updated_at": 1776698270236, "version": "1.0.0"}, {"category": "", "created_at": 1774874302455, "description": "AI model cost calculator. Compare pricing across Claude, GPT, DeepSeek, and other AI models. Calculate token costs, optimize API spending, and find the best...", "description_zh": "", "downloads": 29, "homepage": "https://clawhub.ai/yang1002378395-cmyk/openclaw-ai-cost-calc", "iconUrl": null, "installs": 2, "name": "Openclaw Ai Cost Calc", "ownerName": "yang1002378395-cmyk", "score": 96666.66666666667, "slug": "openclaw-ai-cost-calc", "source": "clawhub", "stars": 0, "tags": null, "updated_at": 1776698270234, "version": "1.0.0"}]}