{"page": 478, "total_pages": 522, "total": 26073, "skills": [{"category": "", "created_at": 1774875524135, "description": "Set up or repair Gemini in Chrome (Glic) on Windows, macOS, or Linux when enabling it for the first time outside the US or when the sidebar, floating panel,...", "description_zh": "", "downloads": 29, "homepage": "https://clawhub.ai/at386369-ai/enable-chrome-gemini", "iconUrl": null, "installs": 1, "name": "Enable Chrome Gemini", "ownerName": "at386369-ai", "score": 96666.66666666667, "slug": "enable-chrome-gemini", "source": "clawhub", "stars": 0, "tags": null, "updated_at": 1776698270230, "version": "1.0.0"}, {"category": "", "created_at": 1774952780470, "description": "CloudFill integration. Manage data, records, and automate workflows. Use when the user wants to interact with CloudFill data.", "description_zh": "", "downloads": 29, "homepage": "https://clawhub.ai/gora050/cloudfill", "iconUrl": null, "installs": 0, "name": "Cloudfill", "ownerName": "gora050", "score": 96666.66666666667, "slug": "cloudfill", "source": "clawhub", "stars": 0, "tags": null, "updated_at": 1776698270227, "version": "1.0.0"}, {"category": "", "created_at": 1774875646662, "description": "DNS & email security analysis powered by IntoDNS.ai - scan domains for DNS, DNSSEC, SPF, DKIM, DMARC, MTA-STS, BIMI issues. Includes free generator tools, 26...", "description_zh": "", "downloads": 29, "homepage": "https://clawhub.ai/rosconl/intodns-skill", "iconUrl": null, "installs": 0, "name": "Intodns", "ownerName": "rosconl", "score": 96666.66666666667, "slug": "intodns-skill", "source": "clawhub", "stars": 0, "tags": null, "updated_at": 1776698270219, "version": "2.0.1"}, {"category": "", "created_at": 1774868842791, "description": "Reference tool for devtools — covers intro, quickstart, patterns and more. Quick lookup for Genai Toolbox concepts, best practices, and implementation patterns.", "description_zh": "", "downloads": 29, "homepage": "https://clawhub.ai/ckchzh/genai-toolbox", "iconUrl": null, "installs": 0, "name": "Genai Toolbox", "ownerName": "ckchzh", "score": 96666.66666666667, "slug": "genai-toolbox", "source": "clawhub", "stars": 0, "tags": null, "updated_at": 1776698270214, "version": "2.0.1"}, {"category": "", "created_at": 1774908205518, "description": "Better Proposals integration. Manage data, records, and automate workflows. Use when the user wants to interact with Better Proposals data.", "description_zh": "", "downloads": 29, "homepage": "https://clawhub.ai/gora050/better-proposals", "iconUrl": null, "installs": 0, "name": "Better Proposals", "ownerName": "gora050", "score": 96666.66666666667, "slug": "better-proposals", "source": "clawhub", "stars": 0, "tags": null, "updated_at": 1776698270212, "version": "1.0.0"}, {"category": "", "created_at": 1774872418416, "description": "All-in-one Gmail agent for OpenClaw. Fuses email-reader, email-organizer, email-analyzer, email-responder, email-scheduler, and email-reporter into a single...", "description_zh": "", "downloads": 29, "homepage": "https://clawhub.ai/coorops25/emailagy", "iconUrl": null, "installs": 0, "name": "smart asistant mail", "ownerName": "coorops25", "score": 96666.66666666667, "slug": "emailagy", "source": "clawhub", "stars": 0, "tags": null, "updated_at": 1776698270210, "version": "1.0.0"}, {"category": "", "created_at": 1774871075731, "description": "Save and organize reusable text snippets for quick retrieval. Use when storing code fragments, saving command templates, or building snippet libraries.", "description_zh": "", "downloads": 29, "homepage": "https://clawhub.ai/xueyetianya/clipbox", "iconUrl": null, "installs": 0, "name": "Clipbox", "ownerName": "xueyetianya", "score": 96666.66666666667, "slug": "clipbox", "source": "clawhub", "stars": 0, "tags": null, "updated_at": 1776698270205, "version": "2.0.0"}, {"category": "", "created_at": 1774956214932, "description": "Turn YouTube source videos into ClawLite-friendly educational promo content using a YouTube → NotebookLM → summary → short-video/X-thread/blog workflow. Use...", "description_zh": "", "downloads": 29, "homepage": "https://clawhub.ai/x-rayluan/clawlite-video-content-engine", "iconUrl": null, "installs": 1, "name": "ClawLite Video Content Engine", "ownerName": "x-rayluan", "score": 96666.66666666667, "slug": "clawlite-video-content-engine", "source": "clawhub", "stars": 0, "tags": null, "updated_at": 1776698270202, "version": "1.0.0"}, {"category": "", "created_at": 1774905130568, "description": "Convert booth notes and badge scans into qualified lead cards and follow-up tiers.", "description_zh": "", "downloads": 29, "homepage": "https://clawhub.ai/weilun88313/badge-qualifier", "iconUrl": null, "installs": 1, "name": "Badge Qualifier", "ownerName": "weilun88313", "score": 96666.66666666667, "slug": "badge-qualifier", "source": "clawhub", "stars": 0, "tags": null, "updated_at": 1776698270200, "version": "1.0.3"}, {"category": "", "created_at": 1774854962119, "description": "Cross-model verification for complex tasks. Spawn a judge subagent with a different model to review plans, code, architecture, or decisions before execution....", "description_zh": "", "downloads": 29, "homepage": "https://clawhub.ai/ngmeyer/llm-as-judge", "iconUrl": null, "installs": 0, "name": "LLM as Judge", "ownerName": "ngmeyer", "score": 96666.66666666667, "slug": "llm-as-judge", "source": "clawhub", "stars": 0, "tags": null, "updated_at": 1776698270197, "version": "1.2.0"}, {"category": "", "created_at": 1774894027926, "description": "Analyze vrf operations. Use when you need to understand vrf mechanisms, evaluate protocol security, or reference on-chain concepts.", "description_zh": "", "downloads": 29, "homepage": "https://clawhub.ai/bytesagain1/vrf", "iconUrl": null, "installs": 0, "name": "Vrf", "ownerName": "bytesagain1", "score": 96666.66666666667, "slug": "vrf", "source": "clawhub", "stars": 0, "tags": null, "updated_at": 1776698270182, "version": "1.0.0"}, {"category": "", "created_at": 1774887193380, "description": "Read a log file, extract ERROR/WARN/CRITICAL lines, group similar messages, and produce a concise summary report. Use when analyzing application logs, agent...", "description_zh": "", "downloads": 29, "homepage": "https://clawhub.ai/neo1307/neo1307-log-analyzer", "iconUrl": null, "installs": 2, "name": "Log Analyzer", "ownerName": "neo1307", "score": 96666.66666666667, "slug": "neo1307-log-analyzer", "source": "clawhub", "stars": 0, "tags": null, "updated_at": 1776698270180, "version": "1.0.0"}, {"category": "", "created_at": 1774908586584, "description": "Gladly integration. Manage data, records, and automate workflows. Use when the user wants to interact with Gladly data.", "description_zh": "", "downloads": 29, "homepage": "https://clawhub.ai/gora050/gladly", "iconUrl": null, "installs": 0, "name": "Gladly", "ownerName": "gora050", "score": 96666.66666666667, "slug": "gladly", "source": "clawhub", "stars": 0, "tags": null, "updated_at": 1776698270177, "version": "1.0.0"}, {"category": "", "created_at": 1774838790032, "description": "Your research-backed health expert. Providing cited insights across PubMed, Clinical Trials, pet health, and pharmacology to help you make informed decisions...", "description_zh": "", "downloads": 29, "homepage": "https://clawhub.ai/lingjun-li/knitify-veribot", "iconUrl": null, "installs": 0, "name": "Knitify Health Chatbot", "ownerName": "lingjun-li", "score": 96666.66666666667, "slug": "knitify-veribot", "source": "clawhub", "stars": 0, "tags": null, "updated_at": 1776698270175, "version": "1.1.9"}, {"category": "", "created_at": 1774885820974, "description": "Operate mempool.space public Bitcoin and Lightning explorer APIs through UXC with a curated OpenAPI schema, no-auth setup, and read-first guardrails.", "description_zh": "", "downloads": 29, "homepage": "https://clawhub.ai/jolestar/mempool-space-openapi-skill", "iconUrl": null, "installs": 1, "name": "Mempool Space Openapi Skill", "ownerName": "jolestar", "score": 96666.66666666667, "slug": "mempool-space-openapi-skill", "source": "clawhub", "stars": 0, "tags": null, "updated_at": 1776698270172, "version": "1.0.0"}, {"category": "", "created_at": 1774914948384, "description": "Use when a coding, debugging, or research task should run inside one long-lived ACPX session while a separate supervisor keeps checking real engineering prog...", "description_zh": "", "downloads": 29, "homepage": "https://clawhub.ai/programcaicai/acpx-supervised-execution", "iconUrl": null, "installs": 0, "name": "ACPX Supervised Execution", "ownerName": "programcaicai", "score": 96666.66666666667, "slug": "acpx-supervised-execution", "source": "clawhub", "stars": 0, "tags": null, "updated_at": 1776698270166, "version": "0.1.0"}, {"category": "", "created_at": 1774871135513, "description": "Structured desk research workflow for market, company, policy, product, and competitor questions. Use when a user asks for secondary research, landscape scan...", "description_zh": "", "downloads": 29, "homepage": "https://clawhub.ai/draco-kzn/desk-research", "iconUrl": null, "installs": 2, "name": "Desk Research", "ownerName": "draco-kzn", "score": 96666.66666666667, "slug": "desk-research", "source": "clawhub", "stars": 0, "tags": null, "updated_at": 1776698270161, "version": "1.0.0"}, {"category": "", "created_at": 1774925870058, "description": "Information assistant for Morgan Stanley. Search products, news, financials, and official resources for Morgan Stanley.", "description_zh": "", "downloads": 29, "homepage": "https://clawhub.ai/hanxueyuan/morgan-stanley", "iconUrl": null, "installs": 2, "name": "morgan-stanley", "ownerName": "hanxueyuan", "score": 96666.66666666667, "slug": "morgan-stanley", "source": "clawhub", "stars": 0, "tags": null, "updated_at": 1776698270157, "version": "0.1.0"}, {"category": "", "created_at": 1774864712142, "description": "DanceTempo / DanceTech Protocol — full repo context via public/llm-full.txt (or /llm-full.txt), tribal debugging via CLAWHUB.md, Tempo + MPP/x402 patterns, d...", "description_zh": "", "downloads": 29, "homepage": "https://clawhub.ai/arunnadarasa/dancetempo", "iconUrl": null, "installs": 0, "name": "DanceTempo", "ownerName": "arunnadarasa", "score": 96666.66666666667, "slug": "dancetempo", "source": "clawhub", "stars": 0, "tags": null, "updated_at": 1776698270155, "version": "0.1.5"}, {"category": "", "created_at": 1774875516562, "description": "Elopage integration. Manage Deals, Persons, Organizations, Leads, Projects, Activities and more. Use when the user wants to interact with Elopage data.", "description_zh": "", "downloads": 29, "homepage": "https://clawhub.ai/gora050/elopage", "iconUrl": null, "installs": 0, "name": "Elopage", "ownerName": "gora050", "score": 96666.66666666667, "slug": "elopage", "source": "clawhub", "stars": 0, "tags": null, "updated_at": 1776698270138, "version": "1.0.0"}, {"category": "", "created_at": 1774914145709, "description": "Capture receipt details, categorize spending, and generate monthly reports from a local SQLite ledger.", "description_zh": "", "downloads": 29, "homepage": "https://clawhub.ai/mehulupase01/expense-snap", "iconUrl": null, "installs": 0, "name": "Expense Snap", "ownerName": "mehulupase01", "score": 96666.66666666667, "slug": "expense-snap", "source": "clawhub", "stars": 0, "tags": null, "updated_at": 1776698270135, "version": "0.1.0"}, {"category": "", "created_at": 1774954496089, "description": "Oxford Dictionaries integration. Manage data, records, and automate workflows. Use when the user wants to interact with Oxford Dictionaries data.", "description_zh": "", "downloads": 29, "homepage": "https://clawhub.ai/membranedev/oxford-dictionaries", "iconUrl": null, "installs": 0, "name": "Oxford Dictionaries", "ownerName": "membranedev", "score": 96666.66666666667, "slug": "oxford-dictionaries", "source": "clawhub", "stars": 0, "tags": null, "updated_at": 1776698270131, "version": "1.0.0"}, {"category": "", "created_at": 1774914594636, "description": "Safe OpenClaw upgrade procedure with backup, doctor fix, service migration, rollback, and post-upgrade testing. Prevents silent failures from Dashboard upgra...", "description_zh": "", "downloads": 29, "homepage": "https://clawhub.ai/gjoham/openclaw-upgrade-standard", "iconUrl": null, "installs": 1, "name": "OpenClaw Upgrade Standard", "ownerName": "gjoham", "score": 96666.66666666667, "slug": "openclaw-upgrade-standard", "source": "clawhub", "stars": 0, "tags": ["devops", "maintenance", "safety", "upgrade"], "updated_at": 1776698270126, "version": "1.0.0"}, {"category": "", "created_at": 1774900226325, "description": "Auditoria de segurança para skills do OpenClaw. Verifica código malicioso, prompt injection, APIs perigosas e práticas inseguras. Protege contra ClawHavoc e...", "description_zh": "", "downloads": 29, "homepage": "https://clawhub.ai/engsathiago/seguranca-auditoria", "iconUrl": null, "installs": 0, "name": "Seguranca Auditoria", "ownerName": "engsathiago", "score": 96666.66666666667, "slug": "seguranca-auditoria", "source": "clawhub", "stars": 0, "tags": null, "updated_at": 1776698270121, "version": "1.0.0"}, {"category": "", "created_at": 1774903328334, "description": "Linea reference tool. Use when working with linea in blockchain contexts.", "description_zh": "", "downloads": 29, "homepage": "https://clawhub.ai/ckchzh/linea", "iconUrl": null, "installs": 0, "name": "Linea", "ownerName": "ckchzh", "score": 96666.66666666667, "slug": "linea", "source": "clawhub", "stars": 0, "tags": null, "updated_at": 1776698270117, "version": "1.0.0"}, {"category": "", "created_at": 1774881615852, "description": "Bind a Feishu group chat to a specific OpenClaw agent. Use when user wants to route a Feishu group to a dedicated agent (e.g., devops, hr, pm). Covers agent...", "description_zh": "", "downloads": 29, "homepage": "https://clawhub.ai/embracex1998/feishu-agent-bind", "iconUrl": null, "installs": 0, "name": "Feishu Agent Bind", "ownerName": "embracex1998", "score": 96666.66666666667, "slug": "feishu-agent-bind", "source": "clawhub", "stars": 0, "tags": null, "updated_at": 1776698270111, "version": "1.0.1"}, {"category": "", "created_at": 1774902121760, "description": "Heikinashi reference tool. Use when working with heikinashi in finance contexts.", "description_zh": "", "downloads": 29, "homepage": "https://clawhub.ai/bytesagain3/heikinashi", "iconUrl": null, "installs": 1, "name": "Heikinashi", "ownerName": "bytesagain3", "score": 96666.66666666667, "slug": "heikinashi", "source": "clawhub", "stars": 0, "tags": null, "updated_at": 1776698270109, "version": "1.0.0"}, {"category": "", "created_at": 1774952976462, "description": "Audit tool usage patterns and permissions to identify security risks and excessive access. Use when you need to review tool usage, check for permission issue...", "description_zh": "", "downloads": 29, "homepage": "https://clawhub.ai/jpengcheng523-netizen/jpeng-permission-auditor", "iconUrl": null, "installs": 0, "name": "permission-auditor", "ownerName": "jpengcheng523-netizen", "score": 96666.66666666667, "slug": "jpeng-permission-auditor", "source": "clawhub", "stars": 0, "tags": null, "updated_at": 1776698270105, "version": "1.0.0"}, {"category": "", "created_at": 1774897316327, "description": "Profile HTTP requests with timing, memory, and query breakdowns. Use when debugging slow routes, analyzing queries, inspecting middleware, or optimizing.", "description_zh": "", "downloads": 29, "homepage": "https://clawhub.ai/bytesagain1/web-profiler-bundle", "iconUrl": null, "installs": 1, "name": "Web Profiler Bundle", "ownerName": "bytesagain1", "score": 96666.66666666667, "slug": "web-profiler-bundle", "source": "clawhub", "stars": 0, "tags": null, "updated_at": 1776698270097, "version": "1.0.0"}, {"category": "", "created_at": 1774870168969, "description": "Read-only API reference for NexusWeb3 safety protocols 21-30 on Base mainnet — kill switch status, KYA verification, audit logs, bounties, licensing, milesto...", "description_zh": "", "downloads": 29, "homepage": "https://clawhub.ai/nexusweb3dev/nexusweb3-safety", "iconUrl": null, "installs": 0, "name": "NexusWeb3 Safety & Compliance", "ownerName": "nexusweb3dev", "score": 96666.66666666667, "slug": "nexusweb3-safety", "source": "clawhub", "stars": 0, "tags": null, "updated_at": 1776698270089, "version": "1.0.3"}, {"category": "", "created_at": 1774917674173, "description": "Linux Audit Framework reference. auditctl rules for file watches and syscall auditing, auditd.conf configuration, ausearch log queries, aureport summaries, a...", "description_zh": "", "downloads": 29, "homepage": "https://clawhub.ai/bytesagain3/auditd", "iconUrl": null, "installs": 0, "name": "Auditd", "ownerName": "bytesagain3", "score": 96666.66666666667, "slug": "auditd", "source": "clawhub", "stars": 0, "tags": null, "updated_at": 1776698270083, "version": "1.0.0"}, {"category": "", "created_at": 1774893652893, "description": "Reddit market research agent. Scans subreddits and keywords for recurring user complaints, unmet needs, and product gaps. Clusters pain points by frequency a...", "description_zh": "", "downloads": 29, "homepage": "https://clawhub.ai/mguozhen/reddit-pain-point-scanner", "iconUrl": null, "installs": 2, "name": "Reddit Pain Point Scanner", "ownerName": "mguozhen", "score": 96666.66666666667, "slug": "reddit-pain-point-scanner", "source": "clawhub", "stars": 0, "tags": null, "updated_at": 1776698270081, "version": "1.0.0"}, {"category": "", "created_at": 1774903282517, "description": "Mandatory before the first file-changing action in a new edit batch. Use before creating, editing, overwriting, patching, renaming, moving, deleting, or gene...", "description_zh": "", "downloads": 29, "homepage": "https://clawhub.ai/songxf1024/file-change-tracker", "iconUrl": null, "installs": 0, "name": "file-change-tracker", "ownerName": "songxf1024", "score": 96666.66666666667, "slug": "file-change-tracker", "source": "clawhub", "stars": 0, "tags": null, "updated_at": 1776698270077, "version": "1.0.0"}, {"category": "", "created_at": 1774947464070, "description": "Swift internationalization patterns, String(localized:) usage, and semantic key naming for macOS/iOS apps", "description_zh": "", "downloads": 29, "homepage": "https://clawhub.ai/soponcd/i18n-swift", "iconUrl": null, "installs": 0, "name": "I18n Swift", "ownerName": "soponcd", "score": 96666.66666666667, "slug": "i18n-swift", "source": "clawhub", "stars": 0, "tags": null, "updated_at": 1776698270065, "version": "1.0.0"}, {"category": "", "created_at": 1774951278503, "description": "Generates a personalised Korean language practice session based on TOPIK level. Covers vocabulary, grammar, Hangul, reading, and speaking prompts. Fresh cont...", "description_zh": "", "downloads": 29, "homepage": "https://clawhub.ai/tetsuakira-vk/korean-daily-drill", "iconUrl": null, "installs": 0, "name": "Korean Daily Drill", "ownerName": "tetsuakira-vk", "score": 96666.66666666667, "slug": "korean-daily-drill", "source": "clawhub", "stars": 0, "tags": null, "updated_at": 1776698270063, "version": "1.0.0"}, {"category": "", "created_at": 1774906544315, "description": "Extensiv Integration Manager integration. Manage data, records, and automate workflows. Use when the user wants to interact with Extensiv Integration Manager...", "description_zh": "", "downloads": 29, "homepage": "https://clawhub.ai/gora050/extensiv-integration-manager", "iconUrl": null, "installs": 0, "name": "Extensiv Integration Manager", "ownerName": "gora050", "score": 96666.66666666667, "slug": "extensiv-integration-manager", "source": "clawhub", "stars": 0, "tags": null, "updated_at": 1776698270053, "version": "1.0.0"}, {"category": "", "created_at": 1774908246768, "description": "CampaignHQ integration. Manage data, records, and automate workflows. Use when the user wants to interact with CampaignHQ data.", "description_zh": "", "downloads": 29, "homepage": "https://clawhub.ai/gora050/campaignhq", "iconUrl": null, "installs": 0, "name": "Campaignhq", "ownerName": "gora050", "score": 96666.66666666667, "slug": "campaignhq", "source": "clawhub", "stars": 0, "tags": null, "updated_at": 1776698270038, "version": "1.0.0"}, {"category": "", "created_at": 1774949148326, "description": "Generate illustrations and visuals using Antekirt artists and prompts. This skill handles API configuration (key and base URL) and manages the asynchronous g...", "description_zh": "", "downloads": 29, "homepage": "https://clawhub.ai/andrejdorsian/antekirt-generate-artist-backed-illustrations", "iconUrl": null, "installs": 0, "name": "Generate artist-backed illustrations by Antekirt", "ownerName": "andrejdorsian", "score": 96666.66666666667, "slug": "antekirt-generate-artist-backed-illustrations", "source": "clawhub", "stars": 0, "tags": null, "updated_at": 1776698270037, "version": "1.0.0"}, {"category": "", "created_at": 1774953574401, "description": "Conduct deep multi-source research on any topic with iterative analysis and synthesis. Produces comprehensive research reports with citations.", "description_zh": "", "downloads": 29, "homepage": "https://clawhub.ai/c7934597/akashic-deep-researcher", "iconUrl": null, "installs": 3, "name": "Akashic Deep Researcher", "ownerName": "c7934597", "score": 96666.66666666667, "slug": "akashic-deep-researcher", "source": "clawhub", "stars": 0, "tags": ["analysis", "deep-dive", "research"], "updated_at": 1776698270031, "version": "1.0.0"}, {"category": "", "created_at": 1774860279515, "description": "Reference tool for devtools — covers intro, quickstart, patterns and more. Quick lookup for It Tools concepts, best practices, and implementation patterns.", "description_zh": "", "downloads": 29, "homepage": "https://clawhub.ai/bytesagain3/it-tools", "iconUrl": null, "installs": 0, "name": "It Tools", "ownerName": "bytesagain3", "score": 96666.66666666667, "slug": "it-tools", "source": "clawhub", "stars": 0, "tags": null, "updated_at": 1776698270029, "version": "2.0.2"}, {"category": "", "created_at": 1774782114866, "description": "Skip the CMS. Write, format, and publish Ghost posts directly from your AI workflow using the Admin API — no browser, no copy/paste, no context switching.", "description_zh": "", "downloads": 29, "homepage": "https://clawhub.ai/highnoonoffice/ghost-publishing-pro", "iconUrl": null, "installs": 0, "name": "Ghost Publishing Pro", "ownerName": "highnoonoffice", "score": 96666.66666666667, "slug": "ghost-publishing-pro", "source": "clawhub", "stars": 0, "tags": ["cms", "ghost", "migration", "newsletter", "publishing"], "updated_at": 1776698270027, "version": "1.4.2"}, {"category": "", "created_at": 1774905298508, "description": "Discover, install, and run reusable AI prompt skills from the BetterPrompt registry via the CLI (betterprompt / bp). Use when a user needs to find a prompt s...", "description_zh": "", "downloads": 29, "homepage": "https://clawhub.ai/mikeqle/betterprompt", "iconUrl": null, "installs": 0, "name": "BetterPrompt", "ownerName": "mikeqle", "score": 96666.66666666667, "slug": "betterprompt", "source": "clawhub", "stars": 0, "tags": null, "updated_at": 1776698270024, "version": "1.0.2"}, {"category": "", "created_at": 1774895135446, "description": "Marketstack integration. Manage data, records, and automate workflows. Use when the user wants to interact with Marketstack data.", "description_zh": "", "downloads": 29, "homepage": "https://clawhub.ai/membranedev/marketstack", "iconUrl": null, "installs": 0, "name": "Marketstack", "ownerName": "membranedev", "score": 96666.66666666667, "slug": "marketstack", "source": "clawhub", "stars": 0, "tags": null, "updated_at": 1776698270018, "version": "1.0.0"}, {"category": "", "created_at": 1774887337836, "description": "Trade prediction markets using LLM probability estimation enriched with 10+ real-time data sources (news, economic data, sports odds, political polling, and...", "description_zh": "", "downloads": 29, "homepage": "https://clawhub.ai/mibayy/polymarket-multi-source-estimator", "iconUrl": null, "installs": 2, "name": "Polymarket Multi Source Estimator", "ownerName": "mibayy", "score": 96666.66666666667, "slug": "polymarket-multi-source-estimator", "source": "clawhub", "stars": 0, "tags": null, "updated_at": 1776698270016, "version": "1.1.4"}, {"category": "", "created_at": 1774885738334, "description": "Create Jira tickets with web-researched content. Use when asked to create, file, or open a Jira issue/ticket/story/bug/task, especially when the ticket conte...", "description_zh": "", "downloads": 29, "homepage": "https://clawhub.ai/cehd5170/jira-ticket", "iconUrl": null, "installs": 0, "name": "jira-ticket", "ownerName": "cehd5170", "score": 96666.66666666667, "slug": "jira-ticket", "source": "clawhub", "stars": 0, "tags": null, "updated_at": 1776698270015, "version": "1.0.0"}, {"category": "", "created_at": 1774828013632, "description": "Manage tasks and projects in Todoist using the Official Todoist CLI tool (https://github.com/Doist/todoist-cli). Use when user asks about tasks, to-dos, remi...", "description_zh": "", "downloads": 29, "homepage": "https://clawhub.ai/leaofelipe/todoist-cli-skill", "iconUrl": null, "installs": 0, "name": "Todoist CLI Skill", "ownerName": "leaofelipe", "score": 96666.66666666667, "slug": "todoist-cli-skill", "source": "clawhub", "stars": 0, "tags": null, "updated_at": 1776698270013, "version": "1.0.5"}, {"category": "", "created_at": 1774910538591, "description": "CallFire integration. Manage data, records, and automate workflows. Use when the user wants to interact with CallFire data.", "description_zh": "", "downloads": 29, "homepage": "https://clawhub.ai/membranedev/callfire", "iconUrl": null, "installs": 0, "name": "Callfire", "ownerName": "membranedev", "score": 96666.66666666667, "slug": "callfire", "source": "clawhub", "stars": 0, "tags": null, "updated_at": 1776698270005, "version": "1.0.0"}, {"category": "", "created_at": 1774875284402, "description": "Install and configure ClawJobs for OpenClaw peer collaboration. Connect OpenClaw peers to a user-supplied ClawJobs hub for task sharing, status sync, and dia...", "description_zh": "", "downloads": 29, "homepage": "https://clawhub.ai/ustczz/clawjobs", "iconUrl": null, "installs": 0, "name": "ClawJobs", "ownerName": "ustczz", "score": 96666.66666666667, "slug": "clawjobs", "source": "clawhub", "stars": 0, "tags": ["get paid", "openclaw", "take jobs"], "updated_at": 1776698270004, "version": "1.0.1"}, {"category": "", "created_at": 1774921034199, "description": "BunnyDoc integration. Manage data, records, and automate workflows. Use when the user wants to interact with BunnyDoc data.", "description_zh": "", "downloads": 29, "homepage": "https://clawhub.ai/gora050/bunnydoc", "iconUrl": null, "installs": 0, "name": "Bunnydoc", "ownerName": "gora050", "score": 96666.66666666667, "slug": "bunnydoc", "source": "clawhub", "stars": 0, "tags": null, "updated_at": 1776698269998, "version": "1.0.0"}, {"category": "", "created_at": 1774831233991, "description": "Discover new ideas, sources, opportunities, and angles with durable watchlists, novelty rules, and heartbeat-backed finding logs.", "description_zh": "", "downloads": 29, "homepage": "https://clawhub.ai/ivangdavila/discover", "iconUrl": null, "installs": 2, "name": "Discover", "ownerName": "ivangdavila", "score": 96666.66666666667, "slug": "discover", "source": "clawhub", "stars": 0, "tags": null, "updated_at": 1776698269989, "version": "1.0.0"}]}