{"page": 479, "total_pages": 522, "total": 26073, "skills": [{"category": "", "created_at": 1774888092533, "description": "Generate vertical short videos of hair makeover / dye transformation (WeryAI): scissor cuts, color gradients, and strong before/after contrast. Use when you...", "description_zh": "", "downloads": 29, "homepage": "https://clawhub.ai/zoucdr/hair-makeover-video", "iconUrl": null, "installs": 1, "name": "Hair Makeover Video", "ownerName": "zoucdr", "score": 96666.66666666667, "slug": "hair-makeover-video", "source": "clawhub", "stars": 0, "tags": null, "updated_at": 1776698269987, "version": "0.1.4"}, {"category": "", "created_at": 1774909550369, "description": "ClickMeeting integration. Manage data, records, and automate workflows. Use when the user wants to interact with ClickMeeting data.", "description_zh": "", "downloads": 29, "homepage": "https://clawhub.ai/membranedev/clickmeeting", "iconUrl": null, "installs": 0, "name": "Clickmeeting", "ownerName": "membranedev", "score": 96666.66666666667, "slug": "clickmeeting", "source": "clawhub", "stars": 0, "tags": null, "updated_at": 1776698269979, "version": "1.0.0"}, {"category": "", "created_at": 1774819010051, "description": "Detect AI-generated content and humanize it to sound natural. Write → Detect → Humanize → Verify. Powered by humantext.pro API.", "description_zh": "", "downloads": 29, "homepage": "https://clawhub.ai/fyt84/humantext-content-pipeline", "iconUrl": null, "installs": 0, "name": "Content Quality Pipeline", "ownerName": "fyt84", "score": 96666.66666666667, "slug": "humantext-content-pipeline", "source": "clawhub", "stars": 0, "tags": null, "updated_at": 1776698269977, "version": "1.0.1"}, {"category": "", "created_at": 1774944829180, "description": "crypt", "description_zh": "", "downloads": 29, "homepage": "https://clawhub.ai/bytesagain3/crypt", "iconUrl": null, "installs": 0, "name": "Crypt", "ownerName": "bytesagain3", "score": 96666.66666666667, "slug": "crypt", "source": "clawhub", "stars": 0, "tags": null, "updated_at": 1776698269972, "version": "2.0.2"}, {"category": "", "created_at": 1774898385320, "description": "Bootstrap a new OpenClaw agent's memory system in one command. Sets up MEMORY.md, daily memory files, HEARTBEAT.md, and USER.md by asking 3 quick questions....", "description_zh": "", "downloads": 29, "homepage": "https://clawhub.ai/stevojarvisai-star/memory-onboarding-wizard", "iconUrl": null, "installs": 1, "name": "Memory Onboarding Wizard", "ownerName": "stevojarvisai-star", "score": 96666.66666666667, "slug": "memory-onboarding-wizard", "source": "clawhub", "stars": 0, "tags": null, "updated_at": 1776698269970, "version": "1.0.0"}, {"category": "", "created_at": 1774899220150, "description": "Create, generate, convert, and polish ad copy, marketing copy, product copy, landing page copy, headline variants, CTA variants, and promotional messaging th...", "description_zh": "", "downloads": 29, "homepage": "https://clawhub.ai/fwwdn/ad-copy-writer", "iconUrl": null, "installs": 3, "name": "Ad Copy Writer", "ownerName": "fwwdn", "score": 96666.66666666667, "slug": "ad-copy-writer", "source": "clawhub", "stars": 0, "tags": null, "updated_at": 1776698269967, "version": "0.1.0"}, {"category": "", "created_at": 1774875770245, "description": "Matterport integration. Manage Spaces. Use when the user wants to interact with Matterport data.", "description_zh": "", "downloads": 29, "homepage": "https://clawhub.ai/gora050/matterport", "iconUrl": null, "installs": 0, "name": "Matterport", "ownerName": "gora050", "score": 96666.66666666667, "slug": "matterport", "source": "clawhub", "stars": 0, "tags": null, "updated_at": 1776698269963, "version": "1.0.0"}, {"category": "", "created_at": 1774867049858, "description": "Daily cost reporting + session hygiene for OpenClaw deployments. Tracks per-session API spend, shows 7-day trend, and wipes zombie sessions >24h old to preve...", "description_zh": "", "downloads": 29, "homepage": "https://clawhub.ai/zylcold/openclaw-daily-ops", "iconUrl": null, "installs": 1, "name": "Openclaw Daily Ops", "ownerName": "zylcold", "score": 96666.66666666667, "slug": "openclaw-daily-ops", "source": "clawhub", "stars": 0, "tags": null, "updated_at": 1776698269959, "version": "1.0.0"}, {"category": "", "created_at": 1774856146220, "description": "Reference tool for devtools — covers intro, quickstart, patterns and more. Quick lookup for Mychef concepts, best practices, and implementation patterns.", "description_zh": "", "downloads": 29, "homepage": "https://clawhub.ai/bytesagain1/mychef", "iconUrl": null, "installs": 0, "name": "Mychef", "ownerName": "bytesagain1", "score": 100000, "slug": "mychef", "source": "clawhub", "stars": 0, "tags": null, "updated_at": 1776698269950, "version": "2.0.3"}, {"category": "", "created_at": 1774947371814, "description": "Experience quiet awe as falling cherry petals expose hidden shadows of ancient guardians, inviting reflection on impermanence and memory. Wander Beijing's hi...", "description_zh": "", "downloads": 29, "homepage": "https://clawhub.ai/driftsbot/experience-temple-shadows-beijing", "iconUrl": null, "installs": 0, "name": "Experience Temple Shadows Beijing", "ownerName": "driftsbot", "score": 100000, "slug": "experience-temple-shadows-beijing", "source": "clawhub", "stars": 0, "tags": null, "updated_at": 1776698269948, "version": "1.0.0"}, {"category": "", "created_at": 1774831254200, "description": "Verified financial planning data and blazing-fast, deterministic calculators for Monte Carlo projection, goal solving, Roth conversions, RMDs, income tax, es...", "description_zh": "", "downloads": 29, "homepage": "https://clawhub.ai/flath12/entropyfa", "iconUrl": null, "installs": 4, "name": "entropyFA Financial Planning", "ownerName": "flath12", "score": 100000, "slug": "entropyfa", "source": "clawhub", "stars": 0, "tags": null, "updated_at": 1776698269946, "version": "0.1.2"}, {"category": "", "created_at": 1774926243887, "description": "Multi-engine web search aggregation via local Python script. Use when: (1) searching the web for information, articles, documentation, (2) searching code rep...", "description_zh": "", "downloads": 29, "homepage": "https://clawhub.ai/mrzhangkris/searxng-lite", "iconUrl": null, "installs": 0, "name": "SearXNG-lite", "ownerName": "mrzhangkris", "score": 100000, "slug": "searxng-lite", "source": "clawhub", "stars": 0, "tags": null, "updated_at": 1776698269944, "version": "1.0.0"}, {"category": "", "created_at": 1774897644732, "description": "Build and debug ARKit features for visionOS, including ARKitSession setup, authorization, data providers (world tracking, plane detection, scene reconstructi...", "description_zh": "", "downloads": 29, "homepage": "https://clawhub.ai/tomkrikorian/arkit-visionos-developer", "iconUrl": null, "installs": 2, "name": "Arkit Visionos Developer", "ownerName": "tomkrikorian", "score": 100000, "slug": "arkit-visionos-developer", "source": "clawhub", "stars": 0, "tags": null, "updated_at": 1776698269942, "version": "0.1.0"}, {"category": "", "created_at": 1774898136899, "description": "Build, review, debug, and automate ElmerFEM workflows. Use when working with Elmer `.sif` solver input files, mesh directories, equation and material blocks,...", "description_zh": "", "downloads": 29, "homepage": "https://clawhub.ai/fzj1214/hpc-elmerfem", "iconUrl": null, "installs": 0, "name": "Hpc Elmerfem", "ownerName": "fzj1214", "score": 100000, "slug": "hpc-elmerfem", "source": "clawhub", "stars": 0, "tags": null, "updated_at": 1776698269938, "version": "0.1.0"}, {"category": "", "created_at": 1774864780685, "description": "Generate dialog UI elements and design assets. Use when building interfaces, creating visual components, or styling web pages.", "description_zh": "", "downloads": 29, "homepage": "https://clawhub.ai/ckchzh/dialog", "iconUrl": null, "installs": 0, "name": "Dialog", "ownerName": "ckchzh", "score": 100000, "slug": "dialog", "source": "clawhub", "stars": 0, "tags": null, "updated_at": 1776698269936, "version": "1.0.0"}, {"category": "", "created_at": 1774885630736, "description": "Análise de métricas SaaS para planejamento de monetização: ARR, NDR, LTV:CAC, Magic Number, cohort analysis, GTM efficiency. Tudo em português para a comunid...", "description_zh": "", "downloads": 29, "homepage": "https://clawhub.ai/engsathiago/gerador-receitas", "iconUrl": null, "installs": 0, "name": "Gerador Receitas", "ownerName": "engsathiago", "score": 100000, "slug": "gerador-receitas", "source": "clawhub", "stars": 0, "tags": null, "updated_at": 1776698269930, "version": "1.0.0"}, {"category": "", "created_at": 1774871289858, "description": "Unified food ordering assistant for India that supports Swiggy and Zomato workflows with strict pre-order confirmation, cart preview, address checks, and ven...", "description_zh": "", "downloads": 29, "homepage": "https://clawhub.ai/anugotta/india-food-ordering", "iconUrl": null, "installs": 0, "name": "India Food Ordering - Swiggy, Zomato etc", "ownerName": "anugotta", "score": 100000, "slug": "india-food-ordering", "source": "clawhub", "stars": 0, "tags": null, "updated_at": 1776698269923, "version": "1.0.2"}, {"category": "", "created_at": 1774924220909, "description": "Generate escalating payment reminder emails that match days-past-due. Four stages: friendly, firm, urgent, final notice. Supports contractor, professional, a...", "description_zh": "", "downloads": 29, "homepage": "https://clawhub.ai/josh4hire/invoice-chaser-pro", "iconUrl": null, "installs": 0, "name": "Invoice Chaser Pro", "ownerName": "josh4hire", "score": 100000, "slug": "invoice-chaser-pro", "source": "clawhub", "stars": 0, "tags": null, "updated_at": 1776698269916, "version": "1.0.0"}, {"category": "", "created_at": 1774871249420, "description": "GoFundMe campaign creation and optimization assistant. Help users create compelling GoFundMe fundraising pages, write persuasive stories, set realistic goals...", "description_zh": "", "downloads": 29, "homepage": "https://clawhub.ai/jiwenbing/gofundme", "iconUrl": null, "installs": 0, "name": "Gofundme", "ownerName": "jiwenbing", "score": 100000, "slug": "gofundme", "source": "clawhub", "stars": 0, "tags": null, "updated_at": 1776698269910, "version": "1.0.0"}, {"category": "", "created_at": 1774907316813, "description": "Get started with AINative SDKs in under 5 minutes. Use when (1) Setting up AINative for the first time, (2) Choosing between React/Next.js/Svelte/Vue SDKs, (...", "description_zh": "", "downloads": 29, "homepage": "https://clawhub.ai/urbantech/ainative-sdk-quickstart", "iconUrl": null, "installs": 1, "name": "Ainative Sdk Quickstart", "ownerName": "urbantech", "score": 100000, "slug": "ainative-sdk-quickstart", "source": "clawhub", "stars": 0, "tags": null, "updated_at": 1776698269902, "version": "1.0.0"}, {"category": "", "created_at": 1774856832740, "description": "Export a Codex CLI or Codex Desktop (App) session to a Markdown transcript. Use when the user asks to export, save, share, or review a past chat, session, or...", "description_zh": "", "downloads": 29, "homepage": "https://clawhub.ai/jinghan23/codex-export", "iconUrl": null, "installs": 1, "name": "codex-export", "ownerName": "jinghan23", "score": 100000, "slug": "codex-export", "source": "clawhub", "stars": 0, "tags": null, "updated_at": 1776698269899, "version": "0.1.0"}, {"category": "", "created_at": 1774857620365, "description": "Register Cliento booking pages via URL, check availability, and execute actual service bookings. Use when the user asks to book a haircut, reserve a service,...", "description_zh": "", "downloads": 29, "homepage": "https://clawhub.ai/patello/cliento-booker", "iconUrl": null, "installs": 0, "name": "Cliento Booker", "ownerName": "patello", "score": 100000, "slug": "cliento-booker", "source": "clawhub", "stars": 0, "tags": null, "updated_at": 1776698269888, "version": "1.0.5"}, {"category": "", "created_at": 1774843454195, "description": "Look up domain WHOIS information, check email security (DMARC/SPF/DKIM), inspect TLS certificates, and capture website screenshots. Provides a comprehensive,...", "description_zh": "", "downloads": 29, "homepage": "https://clawhub.ai/sxlderek/domaininfo", "iconUrl": null, "installs": 0, "name": "Domain WHOIS Lookup", "ownerName": "sxlderek", "score": 100000, "slug": "domaininfo", "source": "clawhub", "stars": 0, "tags": null, "updated_at": 1776698269885, "version": "1.0.7"}, {"category": "", "created_at": 1774906337116, "description": "Decode and inspect X.509 SSL/TLS certificates. Use when the user asks to read a certificate, parse a PEM file, check certificate expiry, inspect a TLS cert,...", "description_zh": "", "downloads": 29, "homepage": "https://clawhub.ai/ohernandez-dev-blossom/cert-decode", "iconUrl": null, "installs": 0, "name": "Cert Decode", "ownerName": "ohernandez-dev-blossom", "score": 96666.66666666667, "slug": "cert-decode", "source": "clawhub", "stars": 0, "tags": null, "updated_at": 1776698269882, "version": "1.0.0"}, {"category": "", "created_at": 1774813472029, "description": "DEFAULT search skill for OpenClaw. Aggregates Tavily, Firecrawl, Exa, and optional X/social search behind one search path. Use for ANY external lookup that n...", "description_zh": "", "downloads": 29, "homepage": "https://clawhub.ai/skernelx/mysearch", "iconUrl": null, "installs": 0, "name": "MySearch", "ownerName": "skernelx", "score": 96666.66666666667, "slug": "mysearch", "source": "clawhub", "stars": 0, "tags": ["docs", "search", "social", "web", "x"], "updated_at": 1776698269875, "version": "0.1.11"}, {"category": "", "created_at": 1774867840758, "description": "When the user wants to implement, optimize, or audit favicon and app icons. Also use when the user mentions \"favicon,\" \"app icon,\" \"browser icon,\" \"touch ico...", "description_zh": "", "downloads": 29, "homepage": "https://clawhub.ai/kostja94/favicon-generator", "iconUrl": null, "installs": 0, "name": "favicon-generator", "ownerName": "kostja94", "score": 96666.66666666667, "slug": "favicon-generator", "source": "clawhub", "stars": 0, "tags": null, "updated_at": 1776698269870, "version": "1.0.0"}, {"category": "", "created_at": 1774894743519, "description": "FlippingBook integration. Manage FlippingBooks, Users, Groups, Brandings. Use when the user wants to interact with FlippingBook data.", "description_zh": "", "downloads": 29, "homepage": "https://clawhub.ai/gora050/flippingbook", "iconUrl": null, "installs": 1, "name": "Flippingbook", "ownerName": "gora050", "score": 96666.66666666667, "slug": "flippingbook", "source": "clawhub", "stars": 0, "tags": null, "updated_at": 1776698269867, "version": "1.0.0"}, {"category": "", "created_at": 1774907692081, "description": "OpenClaw skill for fetching hot trending data from multiple platforms", "description_zh": "", "downloads": 29, "homepage": "https://clawhub.ai/llnancy/hotboard", "iconUrl": null, "installs": 0, "name": "Hotboard", "ownerName": "llnancy", "score": 96666.66666666667, "slug": "hotboard", "source": "clawhub", "stars": 0, "tags": null, "updated_at": 1776698269865, "version": "0.0.1"}, {"category": "", "created_at": 1774824176174, "description": "Skill discovery engine. Analyzes what your agent does and recommends ClawHub skills you're missing. Use when: /kungfu, /kungfu-scan, /kungfu-gaps, 'what skil...", "description_zh": "", "downloads": 29, "homepage": "https://clawhub.ai/whooshinglander/iknowkungfu", "iconUrl": null, "installs": 0, "name": "Iknowkungfu", "ownerName": "whooshinglander", "score": 96666.66666666667, "slug": "iknowkungfu", "source": "clawhub", "stars": 0, "tags": ["discovery", "productivity", "recommendations"], "updated_at": 1776698269863, "version": "1.2.0"}, {"category": "", "created_at": 1774878302004, "description": "Automate advertising campaigns with AI. Create ads, buy media, manage ad budgets, discover ad inventory, run display ads, video ads, CTV campaigns, and optim...", "description_zh": "", "downloads": 29, "homepage": "https://clawhub.ai/dujch/adcp-advertising-1-0-1", "iconUrl": null, "installs": 0, "name": "Adcp Advertising 1.0.1", "ownerName": "dujch", "score": 96666.66666666667, "slug": "adcp-advertising-1-0-1", "source": "clawhub", "stars": 0, "tags": null, "updated_at": 1776698269859, "version": "1.0.0"}, {"category": "", "created_at": 1774874078026, "description": "Klazify integration. Manage data, records, and automate workflows. Use when the user wants to interact with Klazify data.", "description_zh": "", "downloads": 29, "homepage": "https://clawhub.ai/gora050/klazify", "iconUrl": null, "installs": 0, "name": "Klazify", "ownerName": "gora050", "score": 96666.66666666667, "slug": "klazify", "source": "clawhub", "stars": 0, "tags": null, "updated_at": 1776698269857, "version": "1.0.0"}, {"category": "", "created_at": 1774868276011, "description": "Reference tool for devtools — covers intro, quickstart, patterns and more. Quick lookup for Repo Bundler concepts, best practices, and implementation patterns.", "description_zh": "", "downloads": 29, "homepage": "https://clawhub.ai/bytesagain1/repo-bundler", "iconUrl": null, "installs": 0, "name": "Repo Bundler", "ownerName": "bytesagain1", "score": 96666.66666666667, "slug": "repo-bundler", "source": "clawhub", "stars": 0, "tags": null, "updated_at": 1776698269853, "version": "2.0.2"}, {"category": "", "created_at": 1774954750182, "description": "Formbricks integration. Manage Organizations. Use when the user wants to interact with Formbricks data.", "description_zh": "", "downloads": 29, "homepage": "https://clawhub.ai/gora050/formbricks", "iconUrl": null, "installs": 0, "name": "Formbricks", "ownerName": "gora050", "score": 96666.66666666667, "slug": "formbricks", "source": "clawhub", "stars": 0, "tags": null, "updated_at": 1776698269851, "version": "1.0.0"}, {"category": "", "created_at": 1774885364290, "description": "Bannerbear integration. Manage data, records, and automate workflows. Use when the user wants to interact with Bannerbear data.", "description_zh": "", "downloads": 29, "homepage": "https://clawhub.ai/membranedev/bannerbear", "iconUrl": null, "installs": 0, "name": "Bannerbear", "ownerName": "membranedev", "score": 96666.66666666667, "slug": "bannerbear", "source": "clawhub", "stars": 0, "tags": null, "updated_at": 1776698269846, "version": "1.0.0"}, {"category": "", "created_at": 1774866537763, "description": "Connect OpenClaw to the SenseCraft public model library to search, inspect, export, and download AI vision models for software and edge AI workflows.", "description_zh": "", "downloads": 29, "homepage": "https://clawhub.ai/jancee/sensecraft-ai-model-hub", "iconUrl": null, "installs": 1, "name": "SenseCraft AI Model Hub", "ownerName": "jancee", "score": 96666.66666666667, "slug": "sensecraft-ai-model-hub", "source": "clawhub", "stars": 0, "tags": null, "updated_at": 1776698269837, "version": "1.1.2"}, {"category": "", "created_at": 1774948405125, "description": "CompanyHub integration. Manage data, records, and automate workflows. Use when the user wants to interact with CompanyHub data.", "description_zh": "", "downloads": 29, "homepage": "https://clawhub.ai/gora050/companyhub", "iconUrl": null, "installs": 0, "name": "Companyhub", "ownerName": "gora050", "score": 96666.66666666667, "slug": "companyhub", "source": "clawhub", "stars": 0, "tags": null, "updated_at": 1776698269831, "version": "1.0.0"}, {"category": "", "created_at": 1774903246506, "description": "The blooms know what the caravans buried here. You're about to find out.. An immersive journey on drifts.bot — 8 steps, MEDIUM intensity, Several hours. Brow...", "description_zh": "", "downloads": 29, "homepage": "https://clawhub.ai/driftsbot/experience-blood-tulips-tian-shan", "iconUrl": null, "installs": 0, "name": "Experience Blood Tulips Tian Shan", "ownerName": "driftsbot", "score": 65909.09090909091, "slug": "experience-blood-tulips-tian-shan", "source": "clawhub", "stars": 0, "tags": null, "updated_at": 1776698269823, "version": "1.0.0"}, {"category": "", "created_at": 1774875750705, "description": "LiveSession integration. Manage Sessions, Users. Use when the user wants to interact with LiveSession data.", "description_zh": "", "downloads": 29, "homepage": "https://clawhub.ai/gora050/livesession", "iconUrl": null, "installs": 0, "name": "Livesession", "ownerName": "gora050", "score": 65909.09090909091, "slug": "livesession", "source": "clawhub", "stars": 0, "tags": null, "updated_at": 1776698269808, "version": "1.0.0"}, {"category": "", "created_at": 1774908118937, "description": "Subscribe to Not For Humans (@agentbriefing) — a daily morning briefing for AI agents hosted by HP-01. Monitor the channel for new episodes, pull full transc...", "description_zh": "", "downloads": 29, "homepage": "https://clawhub.ai/sasqcow/agent-briefing", "iconUrl": null, "installs": 1, "name": "Agent Briefing", "ownerName": "sasqcow", "score": 65909.09090909091, "slug": "agent-briefing", "source": "clawhub", "stars": 0, "tags": null, "updated_at": 1776698269806, "version": "1.1.0"}, {"category": "", "created_at": 1774896178752, "description": "When the user wants to create, optimize, or audit contact page and forms. Also use when the user mentions \"contact page,\" \"contact form,\" \"get in touch,\" \"su...", "description_zh": "", "downloads": 29, "homepage": "https://clawhub.ai/kostja94/contact-page-generator", "iconUrl": null, "installs": 0, "name": "contact-page-generator", "ownerName": "kostja94", "score": 65909.09090909091, "slug": "contact-page-generator", "source": "clawhub", "stars": 0, "tags": null, "updated_at": 1776698269799, "version": "1.0.0"}, {"category": "", "created_at": 1774897165863, "description": "SurveyCTO integration. Manage Surveys. Use when the user wants to interact with SurveyCTO data.", "description_zh": "", "downloads": 29, "homepage": "https://clawhub.ai/gora050/surveycto", "iconUrl": null, "installs": 0, "name": "Surveycto", "ownerName": "gora050", "score": 65909.09090909091, "slug": "surveycto", "source": "clawhub", "stars": 0, "tags": null, "updated_at": 1776698269789, "version": "1.0.0"}, {"category": "", "created_at": 1774956425055, "description": "Klaxoon integration. Manage Users, Organizations, Filters. Use when the user wants to interact with Klaxoon data.", "description_zh": "", "downloads": 29, "homepage": "https://clawhub.ai/gora050/klaxoon", "iconUrl": null, "installs": 0, "name": "Klaxoon", "ownerName": "gora050", "score": 65909.09090909091, "slug": "klaxoon", "source": "clawhub", "stars": 0, "tags": null, "updated_at": 1776698269787, "version": "1.0.0"}, {"category": "", "created_at": 1774901900511, "description": "Chatlayer integration. Manage data, records, and automate workflows. Use when the user wants to interact with Chatlayer data.", "description_zh": "", "downloads": 29, "homepage": "https://clawhub.ai/membranedev/chatlayer", "iconUrl": null, "installs": 0, "name": "Chatlayer", "ownerName": "membranedev", "score": 65909.09090909091, "slug": "chatlayer", "source": "clawhub", "stars": 0, "tags": null, "updated_at": 1776698269776, "version": "1.0.0"}, {"category": "", "created_at": 1774950656403, "description": "Nasdaq Data Link integration. Manage Datasets. Use when the user wants to interact with Nasdaq Data Link data.", "description_zh": "", "downloads": 29, "homepage": "https://clawhub.ai/gora050/nasdaq-data-link", "iconUrl": null, "installs": 0, "name": "Nasdaq Data Link", "ownerName": "gora050", "score": 65909.09090909091, "slug": "nasdaq-data-link", "source": "clawhub", "stars": 0, "tags": null, "updated_at": 1776698269771, "version": "1.0.0"}, {"category": "", "created_at": 1774914215110, "description": "Pay-per-thought AI second opinions for agents. POST /think with a prompt, buyer wallet, and optional specialty to get a routed response from a specialized pr...", "description_zh": "", "downloads": 29, "homepage": "https://clawhub.ai/proteeninjector-max/happy-thoughts", "iconUrl": null, "installs": 1, "name": "Happy Thoughts", "ownerName": "proteeninjector-max", "score": 65909.09090909091, "slug": "happy-thoughts", "source": "clawhub", "stars": 0, "tags": null, "updated_at": 1776698269767, "version": "1.0.1"}, {"category": "", "created_at": 1774895154927, "description": "Mezmo integration. Manage Organizations. Use when the user wants to interact with Mezmo data.", "description_zh": "", "downloads": 29, "homepage": "https://clawhub.ai/gora050/mezmo", "iconUrl": null, "installs": 0, "name": "Mezmo", "ownerName": "gora050", "score": 65909.09090909091, "slug": "mezmo", "source": "clawhub", "stars": 0, "tags": null, "updated_at": 1776698269764, "version": "1.0.0"}, {"category": "", "created_at": 1774864948042, "description": "Leexi integration. Manage Leads, Persons, Organizations, Deals, Projects, Pipelines and more. Use when the user wants to interact with Leexi data.", "description_zh": "", "downloads": 29, "homepage": "https://clawhub.ai/membranedev/leexi", "iconUrl": null, "installs": 0, "name": "Leexi", "ownerName": "membranedev", "score": 96666.66666666667, "slug": "leexi", "source": "clawhub", "stars": 0, "tags": null, "updated_at": 1776698269758, "version": "1.0.0"}, {"category": "", "created_at": 1774898003708, "description": "Analyze flashloan operations. Use when you need to understand flashloan mechanisms, evaluate protocol security, or reference on-chain concepts.", "description_zh": "", "downloads": 29, "homepage": "https://clawhub.ai/xueyetianya/flashloan", "iconUrl": null, "installs": 0, "name": "Flashloan", "ownerName": "xueyetianya", "score": 96666.66666666667, "slug": "flashloan", "source": "clawhub", "stars": 0, "tags": null, "updated_at": 1776698269756, "version": "1.0.0"}, {"category": "", "created_at": 1774844352207, "description": "Search UniProfit trade intelligence data through the OpenClaw-compatible UniProfit API. Use when Codex or OpenClaw needs importer lookup, exhibition lead sea...", "description_zh": "", "downloads": 29, "homepage": "https://clawhub.ai/xieziqing/uniprofit-trade-search", "iconUrl": null, "installs": 2, "name": "Uniprofit Trade Search", "ownerName": "xieziqing", "score": 96666.66666666667, "slug": "uniprofit-trade-search", "source": "clawhub", "stars": 0, "tags": null, "updated_at": 1776698269751, "version": "1.0.6"}, {"category": "", "created_at": 1774918201054, "description": "Instant search engine notification via IndexNow protocol. Ping Bing, Yandex, and IndexNow API to index new or updated pages within minutes instead of days. S...", "description_zh": "", "downloads": 29, "homepage": "https://clawhub.ai/ckchzh/indexnow-pro", "iconUrl": null, "installs": 0, "name": "Indexnow Pro", "ownerName": "ckchzh", "score": 96666.66666666667, "slug": "indexnow-pro", "source": "clawhub", "stars": 0, "tags": null, "updated_at": 1776698269742, "version": "1.0.0"}]}