{"page": 480, "total_pages": 522, "total": 26073, "skills": [{"category": "", "created_at": 1774868877661, "description": "When the user wants to design, optimize, or audit hero sections (above-the-fold main visual area). Also use when the user mentions \"hero,\" \"hero section,\" \"h...", "description_zh": "", "downloads": 29, "homepage": "https://clawhub.ai/kostja94/hero-generator", "iconUrl": null, "installs": 0, "name": "hero-generator", "ownerName": "kostja94", "score": 96666.66666666667, "slug": "hero-generator", "source": "clawhub", "stars": 0, "tags": null, "updated_at": 1776698269738, "version": "1.2.0"}, {"category": "", "created_at": 1774900660149, "description": "Biomass energy reference — feedstock properties, combustion, gasification, pyrolysis, and pelletization. Use when evaluating biomass resources, designing con...", "description_zh": "", "downloads": 29, "homepage": "https://clawhub.ai/bytesagain1/biomass", "iconUrl": null, "installs": 2, "name": "Biomass", "ownerName": "bytesagain1", "score": 96666.66666666667, "slug": "biomass", "source": "clawhub", "stars": 0, "tags": null, "updated_at": 1776698269736, "version": "1.0.0"}, {"category": "", "created_at": 1774871449722, "description": "Use this skill when the user wants to install Miraix Agent Arena in OpenClaw, bind an Arena pair code, turn a natural-language trading idea into an Arena-rea...", "description_zh": "", "downloads": 29, "homepage": "https://clawhub.ai/richard7463/miraix-agent-arena", "iconUrl": null, "installs": 0, "name": "Miraix Agent Arena", "ownerName": "richard7463", "score": 96666.66666666667, "slug": "miraix-agent-arena", "source": "clawhub", "stars": 0, "tags": null, "updated_at": 1776698269731, "version": "1.0.1"}, {"category": "", "created_at": 1774907837726, "description": "Octoparse integration. Manage data, records, and automate workflows. Use when the user wants to interact with Octoparse data.", "description_zh": "", "downloads": 29, "homepage": "https://clawhub.ai/gora050/octoparse", "iconUrl": null, "installs": 0, "name": "Octoparse", "ownerName": "gora050", "score": 96666.66666666667, "slug": "octoparse", "source": "clawhub", "stars": 0, "tags": null, "updated_at": 1776698269727, "version": "1.0.0"}, {"category": "", "created_at": 1774954255628, "description": "Gain a deep sense of awe and connection as you witness ancient turtles hatch under a supermoon, feeling the pulse of the Mediterranean night. Follow guided t...", "description_zh": "", "downloads": 29, "homepage": "https://clawhub.ai/driftsbot/experience-shell-crack-moonfire", "iconUrl": null, "installs": 1, "name": "Experience Shell Crack Moonfire", "ownerName": "driftsbot", "score": 96666.66666666667, "slug": "experience-shell-crack-moonfire", "source": "clawhub", "stars": 0, "tags": null, "updated_at": 1776698269725, "version": "1.0.0"}, {"category": "", "created_at": 1774883286866, "description": "Voice enhancement and noise reduction service. Accepts a noisy audio file and returns a clean, denoised version. Use when user needs to remove background noi...", "description_zh": "", "downloads": 29, "homepage": "https://clawhub.ai/jimbozhang/midasheng-audio-denoise", "iconUrl": null, "installs": 0, "name": "midasheng-audio-denoise", "ownerName": "jimbozhang", "score": 96666.66666666667, "slug": "midasheng-audio-denoise", "source": "clawhub", "stars": 0, "tags": null, "updated_at": 1776698269721, "version": "1.0.0"}, {"category": "", "created_at": 1774869043523, "description": "The all-in-one tool to boost your productivity ⌨️ omni-tool, javascript, bookmark, bookmarks, bookmarks-manager, chrome.", "description_zh": "", "downloads": 29, "homepage": "https://clawhub.ai/bytesagain3/omni-tool", "iconUrl": null, "installs": 0, "name": "Omni Tool", "ownerName": "bytesagain3", "score": 96666.66666666667, "slug": "omni-tool", "source": "clawhub", "stars": 0, "tags": null, "updated_at": 1776698269717, "version": "2.0.0"}, {"category": "", "created_at": 1774860690526, "description": "When the user wants to plan a content strategy, decide what content to create, or figure out what topics to cover. Also use when the user mentions \"content s...", "description_zh": "", "downloads": 29, "homepage": "https://clawhub.ai/mariokarras/abm-content-strategy", "iconUrl": null, "installs": 1, "name": "Content Strategy", "ownerName": "mariokarras", "score": 96666.66666666667, "slug": "abm-content-strategy", "source": "clawhub", "stars": 0, "tags": null, "updated_at": 1776698269715, "version": "1.0.0"}, {"category": "", "created_at": 1774902500378, "description": "Analyze rugpull operations. Use when you need to understand rugpull mechanisms, evaluate protocol security, or reference on-chain concepts.", "description_zh": "", "downloads": 29, "homepage": "https://clawhub.ai/xueyetianya/rugpull", "iconUrl": null, "installs": 2, "name": "Rugpull", "ownerName": "xueyetianya", "score": 96666.66666666667, "slug": "rugpull", "source": "clawhub", "stars": 0, "tags": null, "updated_at": 1776698269713, "version": "1.0.0"}, {"category": "", "created_at": 1774918010709, "description": "Faraday integration. Manage Organizations. Use when the user wants to interact with Faraday data.", "description_zh": "", "downloads": 29, "homepage": "https://clawhub.ai/membranedev/faraday", "iconUrl": null, "installs": 0, "name": "Faraday", "ownerName": "membranedev", "score": 96666.66666666667, "slug": "faraday", "source": "clawhub", "stars": 0, "tags": null, "updated_at": 1776698269704, "version": "1.0.0"}, {"category": "", "created_at": 1774910788110, "description": "Draft IACUC protocol applications with focus on the 3Rs principles justification", "description_zh": "", "downloads": 29, "homepage": "https://clawhub.ai/aipoch-ai/iacuc-protocol-drafter", "iconUrl": null, "installs": 1, "name": "Iacuc Protocol Drafter", "ownerName": "aipoch-ai", "score": 96666.66666666667, "slug": "iacuc-protocol-drafter", "source": "clawhub", "stars": 0, "tags": null, "updated_at": 1776698269702, "version": "0.1.0"}, {"category": "", "created_at": 1774856076662, "description": "Reference tool for devtools — covers intro, quickstart, patterns and more. Quick lookup for Logscope concepts, best practices, and implementation patterns.", "description_zh": "", "downloads": 29, "homepage": "https://clawhub.ai/bytesagain1/logscope", "iconUrl": null, "installs": 0, "name": "Logscope", "ownerName": "bytesagain1", "score": 96666.66666666667, "slug": "logscope", "source": "clawhub", "stars": 0, "tags": null, "updated_at": 1776698269701, "version": "2.0.3"}, {"category": "", "created_at": 1774876706810, "description": "Autonomous overnight work agent — assign tasks before sleep, get structured results by morning. Supports smart task decomposition, web research, multi-format...", "description_zh": "", "downloads": 29, "homepage": "https://clawhub.ai/fullstackcrew-alpha/overnight-worker", "iconUrl": null, "installs": 0, "name": "Overnight Worker", "ownerName": "fullstackcrew-alpha", "score": 96666.66666666667, "slug": "overnight-worker", "source": "clawhub", "stars": 0, "tags": null, "updated_at": 1776698269684, "version": "1.0.1"}, {"category": "", "created_at": 1774948328675, "description": "Cloudmersive integration. Manage data, records, and automate workflows. Use when the user wants to interact with Cloudmersive data.", "description_zh": "", "downloads": 29, "homepage": "https://clawhub.ai/gora050/cloudmersive", "iconUrl": null, "installs": 0, "name": "Cloudmersive", "ownerName": "gora050", "score": 96666.66666666667, "slug": "cloudmersive", "source": "clawhub", "stars": 0, "tags": null, "updated_at": 1776698269682, "version": "1.0.0"}, {"category": "", "created_at": 1774852527892, "description": "Reference tool for devtools — covers intro, quickstart, patterns and more. Quick lookup for Load Tester concepts, best practices, and implementation patterns.", "description_zh": "", "downloads": 29, "homepage": "https://clawhub.ai/xueyetianya/load-tester", "iconUrl": null, "installs": 0, "name": "Load Tester", "ownerName": "xueyetianya", "score": 96666.66666666667, "slug": "load-tester", "source": "clawhub", "stars": 0, "tags": null, "updated_at": 1776698269677, "version": "2.0.3"}, {"category": "", "created_at": 1774909861684, "description": "Kite Suite integration. Manage Organizations, Pipelines, Users, Goals, Filters. Use when the user wants to interact with Kite Suite data.", "description_zh": "", "downloads": 29, "homepage": "https://clawhub.ai/gora050/kite-suite", "iconUrl": null, "installs": 0, "name": "Kite Suite", "ownerName": "gora050", "score": 96666.66666666667, "slug": "kite-suite", "source": "clawhub", "stars": 0, "tags": null, "updated_at": 1776698269667, "version": "1.0.0"}, {"category": "", "created_at": 1774815089713, "description": "When the user wants to set up, improve, or audit analytics tracking and measurement. Also use when the user mentions \"set up tracking,\" \"GA4,\" \"Google Analyt...", "description_zh": "", "downloads": 29, "homepage": "https://clawhub.ai/mariokarras/abm-analytics-tracking", "iconUrl": null, "installs": 0, "name": "Analytics Tracking", "ownerName": "mariokarras", "score": 96666.66666666667, "slug": "abm-analytics-tracking", "source": "clawhub", "stars": 0, "tags": null, "updated_at": 1776698269665, "version": "1.0.0"}, {"category": "", "created_at": 1774948053436, "description": "Rebuild one or more reference images as visually matching editable PowerPoint slides using native shapes, text, fills, and layout instead of a flat screensho...", "description_zh": "", "downloads": 29, "homepage": "https://clawhub.ai/benjaminlee/image-to-editable-ppt-slide", "iconUrl": null, "installs": 0, "name": "Image to Editable PPT Slide", "ownerName": "benjaminlee", "score": 96666.66666666667, "slug": "image-to-editable-ppt-slide", "source": "clawhub", "stars": 0, "tags": null, "updated_at": 1776698269663, "version": "1.0.0"}, {"category": "", "created_at": 1774901919111, "description": "CloudCart integration. Manage data, records, and automate workflows. Use when the user wants to interact with CloudCart data.", "description_zh": "", "downloads": 29, "homepage": "https://clawhub.ai/gora050/cloudcart", "iconUrl": null, "installs": 0, "name": "Cloudcart", "ownerName": "gora050", "score": 96666.66666666667, "slug": "cloudcart", "source": "clawhub", "stars": 0, "tags": null, "updated_at": 1776698269649, "version": "1.0.0"}, {"category": "", "created_at": 1774835858166, "description": "Google Workspace CLI for Gmail, Calendar, Drive, Contacts, Sheets, and Docs.", "description_zh": "", "downloads": 29, "homepage": "https://clawhub.ai/litiao1224/gog-litiao", "iconUrl": null, "installs": 1, "name": "Gog Litiao", "ownerName": "litiao1224", "score": 96666.66666666667, "slug": "gog-litiao", "source": "clawhub", "stars": 0, "tags": null, "updated_at": 1776698269647, "version": "1.0.0"}, {"category": "", "created_at": 1774867774034, "description": "Manage DocuSeal document templates and e-signatures.", "description_zh": "", "downloads": 29, "homepage": "https://clawhub.ai/alexbturchyn/docuseal", "iconUrl": null, "installs": 0, "name": "Docuseal", "ownerName": "alexbturchyn", "score": 96666.66666666667, "slug": "docuseal", "source": "clawhub", "stars": 0, "tags": null, "updated_at": 1776698269631, "version": "1.0.3"}, {"category": "", "created_at": 1774848528556, "description": "Meta-skill for capability expansion and cautious self-improvement. Use when a request suggests a missing capability, external platform support, workflow auto...", "description_zh": "", "downloads": 29, "homepage": "https://clawhub.ai/nathanshan/agent-essentials", "iconUrl": null, "installs": 1, "name": "Agent Essentials", "ownerName": "nathanshan", "score": 96666.66666666667, "slug": "agent-essentials", "source": "clawhub", "stars": 0, "tags": null, "updated_at": 1776698269627, "version": "1.1.4"}, {"category": "", "created_at": 1774952839288, "description": "Eventzilla integration. Manage Events, Contacts. Use when the user wants to interact with Eventzilla data.", "description_zh": "", "downloads": 29, "homepage": "https://clawhub.ai/gora050/eventzilla", "iconUrl": null, "installs": 0, "name": "Eventzilla", "ownerName": "gora050", "score": 96666.66666666667, "slug": "eventzilla", "source": "clawhub", "stars": 0, "tags": null, "updated_at": 1776698269619, "version": "1.0.0"}, {"category": "", "created_at": 1774856121572, "description": "Reference tool for devtools — covers intro, quickstart, patterns and more. Quick lookup for Mlfinlab concepts, best practices, and implementation patterns.", "description_zh": "", "downloads": 29, "homepage": "https://clawhub.ai/xueyetianya/mlfinlab", "iconUrl": null, "installs": 1, "name": "Mlfinlab", "ownerName": "xueyetianya", "score": 96666.66666666667, "slug": "mlfinlab", "source": "clawhub", "stars": 0, "tags": null, "updated_at": 1776698269610, "version": "2.0.2"}, {"category": "", "created_at": 1774912038064, "description": "Netlify integration. Manage data, records, and automate workflows. Use when the user wants to interact with Netlify data.", "description_zh": "", "downloads": 29, "homepage": "https://clawhub.ai/gora050/netlify-integration", "iconUrl": null, "installs": 0, "name": "Netlify", "ownerName": "gora050", "score": 96666.66666666667, "slug": "netlify-integration", "source": "clawhub", "stars": 0, "tags": null, "updated_at": 1776698269607, "version": "1.0.0"}, {"category": "", "created_at": 1774846524255, "description": "AI content marketing pipeline. Generate branded LinkedIn, X, and Reddit posts from any URL. Trigger on: \"make a post from this\", \"turn this into content\", \"g...", "description_zh": "", "downloads": 29, "homepage": "https://clawhub.ai/thierrypdamiba/deepcontentskill23223", "iconUrl": null, "installs": 0, "name": "DeepContent", "ownerName": "thierrypdamiba", "score": 96666.66666666667, "slug": "deepcontentskill23223", "source": "clawhub", "stars": 0, "tags": null, "updated_at": 1776698269597, "version": "2.0.0"}, {"category": "", "created_at": 1774949415434, "description": "Check whether a user truly understands, or is just feeling familiar and overconfident", "description_zh": "", "downloads": 29, "homepage": "https://clawhub.ai/harrylabsj/metacognition-checker", "iconUrl": null, "installs": 0, "name": "Metacognition Checker", "ownerName": "harrylabsj", "score": 96666.66666666667, "slug": "metacognition-checker", "source": "clawhub", "stars": 0, "tags": null, "updated_at": 1776698269595, "version": "1.0.0"}, {"category": "", "created_at": 1774952287688, "description": "Build workflows to automate contact progression through the sales funnel: Lead to MQL to SQL to Opportunity to Customer. Each transition is triggered by a sp...", "description_zh": "", "downloads": 29, "homepage": "https://clawhub.ai/tomgranot/lifecycle-progression-workflow", "iconUrl": null, "installs": 0, "name": "Lifecycle Progression Workflow", "ownerName": "tomgranot", "score": 96666.66666666667, "slug": "lifecycle-progression-workflow", "source": "clawhub", "stars": 0, "tags": null, "updated_at": 1776698269588, "version": "1.0.0"}, {"category": "", "created_at": 1774918137741, "description": "Reactive streams and event-driven programming in Golang using samber/ro — ReactiveX implementation with 150+ type-safe operators, cold/hot observables, 5 sub...", "description_zh": "", "downloads": 29, "homepage": "https://clawhub.ai/samber/golang-samber-ro", "iconUrl": null, "installs": 0, "name": "Golang Samber Ro", "ownerName": "samber", "score": 96666.66666666667, "slug": "golang-samber-ro", "source": "clawhub", "stars": 0, "tags": null, "updated_at": 1776698269584, "version": "0.1.0"}, {"category": "", "created_at": 1774877588414, "description": "Use when: you want a structured audit -> options -> recommended plan to improve an OpenClaw workspace (cost, model routing, context discipline, delegation, r...", "description_zh": "", "downloads": 29, "homepage": "https://clawhub.ai/zhouhuihui008/openclaw-agent-optimize-1-2-1", "iconUrl": null, "installs": 1, "name": "Openclaw Agent Optimize 1.2.1", "ownerName": "zhouhuihui008", "score": 96666.66666666667, "slug": "openclaw-agent-optimize-1-2-1", "source": "clawhub", "stars": 0, "tags": null, "updated_at": 1776698269573, "version": "1.0.0"}, {"category": "", "created_at": 1774902129484, "description": "Helium integration. Manage Organizations. Use when the user wants to interact with Helium data.", "description_zh": "", "downloads": 29, "homepage": "https://clawhub.ai/membranedev/helium", "iconUrl": null, "installs": 1, "name": "Helium", "ownerName": "membranedev", "score": 96666.66666666667, "slug": "helium", "source": "clawhub", "stars": 0, "tags": null, "updated_at": 1776698269567, "version": "1.0.0"}, {"category": "", "created_at": 1774922976307, "description": "End-to-end OpenBytes network API workflows for AI agents. Covers wallet signature-based authentication, on-chain top-up monitoring, consumer API key lifecycl...", "description_zh": "", "downloads": 29, "homepage": "https://clawhub.ai/viyozc/openbytes", "iconUrl": null, "installs": 0, "name": "OpenBytes", "ownerName": "viyozc", "score": 96666.66666666667, "slug": "openbytes", "source": "clawhub", "stars": 0, "tags": null, "updated_at": 1776698269565, "version": "1.0.0"}, {"category": "", "created_at": 1774867978431, "description": "Generate a comprehensive job search progress report by analyzing sent applications and received replies from Gmail. Activate when user asks for a job search...", "description_zh": "", "downloads": 29, "homepage": "https://clawhub.ai/xiaoxty/job-search-report", "iconUrl": null, "installs": 0, "name": "Job Search Report", "ownerName": "xiaoxty", "score": 96666.66666666667, "slug": "job-search-report", "source": "clawhub", "stars": 0, "tags": null, "updated_at": 1776698269563, "version": "0.1.0"}, {"category": "", "created_at": 1774843349670, "description": "Agente especialista em Língua Portuguesa, Literatura Brasileira e Redação para FUVEST — Ciência da Computação (IME-USP). Português aparece nos DOIS dias da 2...", "description_zh": "", "downloads": 29, "homepage": "https://clawhub.ai/antoniovfranco/agente-portugues", "iconUrl": null, "installs": 2, "name": "Agente Portugues", "ownerName": "antoniovfranco", "score": 96666.66666666667, "slug": "agente-portugues", "source": "clawhub", "stars": 0, "tags": null, "updated_at": 1776698269562, "version": "1.0.0"}, {"category": "", "created_at": 1774878554726, "description": "Easyship integration. Manage Shipments, Trackers, Addresses, Users. Use when the user wants to interact with Easyship data.", "description_zh": "", "downloads": 29, "homepage": "https://clawhub.ai/membranedev/easyship", "iconUrl": null, "installs": 0, "name": "Easyship", "ownerName": "membranedev", "score": 96666.66666666667, "slug": "easyship", "source": "clawhub", "stars": 0, "tags": null, "updated_at": 1776698269549, "version": "1.0.0"}, {"category": "", "created_at": 1774907890356, "description": "PartnerStack integration. Manage Organizations, Leads, Projects, Users, Goals, Filters. Use when the user wants to interact with PartnerStack data.", "description_zh": "", "downloads": 29, "homepage": "https://clawhub.ai/gora050/partnerstack", "iconUrl": null, "installs": 0, "name": "Partnerstack", "ownerName": "gora050", "score": 96666.66666666667, "slug": "partnerstack", "source": "clawhub", "stars": 0, "tags": null, "updated_at": 1776698269544, "version": "1.0.0"}, {"category": "", "created_at": 1774885705544, "description": "Find high-intent leads on Hacker News via the free Algolia API — no API key needed. Score posts, surface Ask HN threads, and identify technical founders acti...", "description_zh": "", "downloads": 29, "homepage": "https://clawhub.ai/3rdbrain/hn-prospecting", "iconUrl": null, "installs": 0, "name": "Hacker News Lead Finder", "ownerName": "3rdbrain", "score": 96666.66666666667, "slug": "hn-prospecting", "source": "clawhub", "stars": 0, "tags": null, "updated_at": 1776698269542, "version": "1.0.0"}, {"category": "", "created_at": 1774925277843, "description": "Weekly meal prep system for one person on a tight budget. Use when someone wants to eat well on $40-60/week, reduce food waste, stop relying on takeout, or b...", "description_zh": "", "downloads": 29, "homepage": "https://clawhub.ai/howtousehumans/budget-meal-prep", "iconUrl": null, "installs": 0, "name": "Budget Meal Prep", "ownerName": "howtousehumans", "score": 96666.66666666667, "slug": "budget-meal-prep", "source": "clawhub", "stars": 0, "tags": null, "updated_at": 1776698269540, "version": "1.0.0"}, {"category": "", "created_at": 1774897371042, "description": "AI agent orchestration with 12,000+ API endpoints, 4 crypto data skills, Manifest verification, and Attestation proofs. Ask anything in natural language — ge...", "description_zh": "", "downloads": 29, "homepage": "https://clawhub.ai/1xmint/claw-net", "iconUrl": null, "installs": 1, "name": "Claw-Net", "ownerName": "1xmint", "score": 96666.66666666667, "slug": "claw-net", "source": "clawhub", "stars": 0, "tags": ["attestation", "crypto", "defi", "orchestration", "solana", "verification", "x402"], "updated_at": 1776698269537, "version": "1.0.1"}, {"category": "", "created_at": 1774881993026, "description": "Full operational dashboard for AI agent setups. Cron job calendar, agent intel feeds, security audit panel, network infrastructure map, code search, repo arc...", "description_zh": "", "downloads": 29, "homepage": "https://clawhub.ai/solomonneas/ops-deck", "iconUrl": null, "installs": 1, "name": "Ops Deck", "ownerName": "solomonneas", "score": 96666.66666666667, "slug": "ops-deck", "source": "clawhub", "stars": 0, "tags": null, "updated_at": 1776698269533, "version": "1.1.0"}, {"category": "", "created_at": 1774945386922, "description": "Use Gate MCP through UXC for public spot and futures market data workflows with a fixed streamable-http endpoint and read-first guardrails.", "description_zh": "", "downloads": 28, "homepage": "https://clawhub.ai/jolestar/gate-mcp-skill", "iconUrl": null, "installs": 1, "name": "Gate MCP Skill", "ownerName": "jolestar", "score": 94117.64705882352, "slug": "gate-mcp-skill", "source": "clawhub", "stars": 1, "tags": null, "updated_at": 1776697183687, "version": "1.0.0"}, {"category": "", "created_at": 1774924848509, "description": "Swift 6 + XCTest testing patterns for macOS/iOS apps using SwiftData, EventKit, and SwiftUI", "description_zh": "", "downloads": 28, "homepage": "https://clawhub.ai/soponcd/swift-xctest", "iconUrl": null, "installs": 3, "name": "Swift Xctest", "ownerName": "soponcd", "score": 221.09917877447884, "slug": "swift-xctest", "source": "clawhub", "stars": 0, "tags": null, "updated_at": 1776770349941, "version": "1.0.0"}, {"category": "", "created_at": 1774944314287, "description": "Turn campaign goals, product facts, audience context, and channel constraints into clearer ad creative briefs that teams or creators can actually execute. Us...", "description_zh": "", "downloads": 28, "homepage": "https://clawhub.ai/leooooooow/ad-creative-brief-generator", "iconUrl": null, "installs": 0, "name": "Ad Creative Brief Generator", "ownerName": "leooooooow", "score": 420.5467107239411, "slug": "ad-creative-brief-generator", "source": "clawhub", "stars": 0, "tags": null, "updated_at": 1776769449793, "version": "1.0.0"}, {"category": "", "created_at": 1774900048863, "description": "Plate Recognizer integration. Manage Vehicles, Cameras, Regions, Users, Alerts. Use when the user wants to interact with Plate Recognizer data.", "description_zh": "", "downloads": 28, "homepage": "https://clawhub.ai/membranedev/plate-recognizer", "iconUrl": null, "installs": 1, "name": "Plate Recognizer", "ownerName": "membranedev", "score": 298.6985278429699, "slug": "plate-recognizer", "source": "clawhub", "stars": 0, "tags": null, "updated_at": 1776768850357, "version": "1.0.0"}, {"category": "", "created_at": 1774874669887, "description": "Rent cars from Hertz via Strider Labs MCP connector. Search available vehicles, compare rates, make reservations, and manage Gold Plus Rewards membership.", "description_zh": "", "downloads": 28, "homepage": "https://clawhub.ai/markswendsen-code/strider-hertz", "iconUrl": null, "installs": 1, "name": "Strider Hertz", "ownerName": "markswendsen-code", "score": 395.2569169960474, "slug": "strider-hertz", "source": "clawhub", "stars": 0, "tags": null, "updated_at": 1776768849989, "version": "1.0.0"}, {"category": "", "created_at": 1774878873378, "description": "Mood and emotional wellness reference — mood science, regulation strategies, journaling techniques, emotional literacy. Use when understanding emotional patt...", "description_zh": "", "downloads": 28, "homepage": "https://clawhub.ai/bytesagain3/mood", "iconUrl": null, "installs": 0, "name": "Mood", "ownerName": "bytesagain3", "score": 358.9283425201897, "slug": "mood", "source": "clawhub", "stars": 0, "tags": null, "updated_at": 1776768671166, "version": "1.0.0"}, {"category": "", "created_at": 1774887706223, "description": "Write Architectural Decision Records following MADR template. Applies Definition of Done criteria, marks gaps for later completion. Use when generating ADR d...", "description_zh": "", "downloads": 28, "homepage": "https://clawhub.ai/anderskev/adr-writing", "iconUrl": null, "installs": 0, "name": "Adr Writing", "ownerName": "anderskev", "score": 558.9938111399481, "slug": "adr-writing", "source": "clawhub", "stars": 0, "tags": null, "updated_at": 1776767650011, "version": "1.0.0"}, {"category": "", "created_at": 1774892435433, "description": "AI-powered product management workflow agent. Use when the user wants to do product discovery, write PRDs, prioritize features, design experiments, plan laun...", "description_zh": "", "downloads": 28, "homepage": "https://clawhub.ai/jahonn/ai-pm-agent", "iconUrl": null, "installs": 1, "name": "AI PM Agent", "ownerName": "jahonn", "score": 2011.4942528735633, "slug": "ai-pm-agent", "source": "clawhub", "stars": 0, "tags": null, "updated_at": 1776767050194, "version": "1.0.0"}, {"category": "", "created_at": 1774891526483, "description": "Reviews Phoenix LiveView code for lifecycle patterns, assigns/streams usage, components, and security. Use when reviewing LiveView modules, .heex templates,...", "description_zh": "", "downloads": 28, "homepage": "https://clawhub.ai/anderskev/liveview-code-review", "iconUrl": null, "installs": 2, "name": "Liveview Code Review", "ownerName": "anderskev", "score": 1252.2361359570662, "slug": "liveview-code-review", "source": "clawhub", "stars": 0, "tags": null, "updated_at": 1776766959649, "version": "1.2.0"}, {"category": "", "created_at": 1774910331975, "description": "Reviews WidgetKit code for timeline management, view composition, configurable intents, and performance. Use when reviewing code with import WidgetKit, Timel...", "description_zh": "", "downloads": 28, "homepage": "https://clawhub.ai/anderskev/widgetkit-code-review", "iconUrl": null, "installs": 2, "name": "Widgetkit Code Review", "ownerName": "anderskev", "score": 1252.2361359570662, "slug": "widgetkit-code-review", "source": "clawhub", "stars": 0, "tags": null, "updated_at": 1776766957601, "version": "1.2.0"}]}