{"page": 481, "total_pages": 522, "total": 26073, "skills": [{"category": "", "created_at": 1774883472494, "description": "Legal precedent reference — stare decisis, case law hierarchy, distinguishing, overruling, persuasive authority. Use when researching binding case law, analy...", "description_zh": "", "downloads": 28, "homepage": "https://clawhub.ai/bytesagain1/precedent", "iconUrl": null, "installs": 1, "name": "Precedent", "ownerName": "bytesagain1", "score": 873.9076154806493, "slug": "precedent", "source": "clawhub", "stars": 0, "tags": null, "updated_at": 1776765250257, "version": "1.0.0"}, {"category": "", "created_at": 1775634026346, "description": "Use when creating new skills, editing existing skills, or verifying skills work before deployment", "description_zh": "", "downloads": 28, "homepage": "https://clawhub.ai/user_3ee04ca3/test-new3", "iconUrl": null, "installs": 0, "name": "test2", "ownerName": "user_3ee04ca3", "score": 2236.4217252396165, "slug": "test-new3", "source": "community", "stars": 0, "tags": null, "updated_at": 1776760131697, "version": "1.0.1"}, {"category": "", "created_at": 1776061562879, "description": "Convert text into high-quality, emotional speech reading using Kling TTS.", "description_zh": "", "downloads": 28, "homepage": "https://clawhub.ai/user_f95f21b8/dlazy-keling-tts", "iconUrl": null, "installs": 1, "name": "keling tts", "ownerName": "user_f95f21b8", "score": 2236.4217252396165, "slug": "dlazy-keling-tts", "source": "community", "stars": 0, "tags": null, "updated_at": 1776760131669, "version": "1.0.3"}, {"category": "", "created_at": 1776068591821, "description": "Audio generation skill. Automatically selects the best dlazy CLI audio/TTS model based on the prompt.", "description_zh": "", "downloads": 28, "homepage": "https://clawhub.ai/user_f95f21b8/dlazy-audio-generate", "iconUrl": null, "installs": 1, "name": "audio generate", "ownerName": "user_f95f21b8", "score": 2236.4217252396165, "slug": "dlazy-audio-generate", "source": "community", "stars": 0, "tags": null, "updated_at": 1776760131659, "version": "1.0.4"}, {"category": "", "created_at": 1776062143751, "description": "Convert static images into dynamic videos using Vidu Q2 image-to-video model.", "description_zh": "", "downloads": 28, "homepage": "https://clawhub.ai/user_f95f21b8/dlazy-viduq2-i2v", "iconUrl": null, "installs": 1, "name": "viduq2 i2v", "ownerName": "user_f95f21b8", "score": 2234.63687150838, "slug": "dlazy-viduq2-i2v", "source": "community", "stars": 0, "tags": null, "updated_at": 1776760131617, "version": "1.0.3"}, {"category": "", "created_at": 1776062215542, "description": "Quickly generate dynamic short videos from reference images using Wan 2.6 Flash.", "description_zh": "", "downloads": 28, "homepage": "https://clawhub.ai/user_f95f21b8/dlazy-wan2-6-r2v-flash", "iconUrl": null, "installs": 1, "name": "wan2.6 r2v flash", "ownerName": "user_f95f21b8", "score": 2234.63687150838, "slug": "dlazy-wan2-6-r2v-flash", "source": "community", "stars": 0, "tags": null, "updated_at": 1776760131549, "version": "1.0.3"}, {"category": "", "created_at": 1774881564094, "description": "Monitor bioRxiv/medRxiv preprints and academic discussions to identify emerging research hotspots before they appear in mainstream journals", "description_zh": "", "downloads": 28, "homepage": "https://clawhub.ai/aipoch-ai/emerging-topic-scout", "iconUrl": null, "installs": 2, "name": "Emerging Topic Scout", "ownerName": "aipoch-ai", "score": 1753.2874139010644, "slug": "emerging-topic-scout", "source": "clawhub", "stars": 0, "tags": null, "updated_at": 1776757882149, "version": "0.1.0"}, {"category": "", "created_at": 1774952115884, "description": "Safe identification and harvesting of common wild edible plants. Use when someone wants to supplement food supply with wild plants, learn plant identificatio...", "description_zh": "", "downloads": 28, "homepage": "https://clawhub.ai/howtousehumans/foraging-wild-edibles", "iconUrl": null, "installs": 1, "name": "Foraging Wild Edibles", "ownerName": "howtousehumans", "score": 1714.6356399265158, "slug": "foraging-wild-edibles", "source": "clawhub", "stars": 0, "tags": null, "updated_at": 1776756982688, "version": "1.0.0"}, {"category": "", "created_at": 1774879620324, "description": "Domain WHOIS lookup toolkit for querying registrar, creation/expiry dates, nameservers, status, and registrant info. Use when looking up domain ownership, ch...", "description_zh": "", "downloads": 28, "homepage": "https://clawhub.ai/johnnywang2001/whois-toolkit", "iconUrl": null, "installs": 1, "name": "Whois Toolkit", "ownerName": "johnnywang2001", "score": 1643.192488262911, "slug": "whois-toolkit", "source": "clawhub", "stars": 0, "tags": null, "updated_at": 1776755888766, "version": "1.0.0"}, {"category": "", "created_at": 1774953297342, "description": "When the user wants to create Reddit post copy, comments, or optimize for Reddit. Also use when the user mentions \"Reddit post,\" \"subreddit,\" \"r/,\" \"Reddit m...", "description_zh": "", "downloads": 28, "homepage": "https://clawhub.ai/kostja94/reddit-posts", "iconUrl": null, "installs": 2, "name": "reddit-posts", "ownerName": "kostja94", "score": 4810.996563573884, "slug": "reddit-posts", "source": "clawhub", "stars": 0, "tags": null, "updated_at": 1776755327197, "version": "1.0.0"}, {"category": "", "created_at": 1774880806098, "description": "Expert malware analyst specializing in defensive malware research, threat intelligence, and incident response. Masters sandbox analysis, behavioral analysis,...", "description_zh": "", "downloads": 28, "homepage": "https://clawhub.ai/solomonneas/s3-malware-analyst", "iconUrl": null, "installs": 0, "name": "S³ Malware Analyst", "ownerName": "solomonneas", "score": 30107.52688172043, "slug": "s3-malware-analyst", "source": "clawhub", "stars": 0, "tags": ["incident-response", "ioc", "malware", "sandbox", "threat-intel"], "updated_at": 1776745544497, "version": "1.0.0"}, {"category": "", "created_at": 1774945691283, "description": "AI-powered cybersecurity knowledge management. Search threat intelligence, vulnerability assessments, incident response plans, and compliance documentation w...", "description_zh": "", "downloads": 28, "homepage": "https://clawhub.ai/roojenkins/uplo-cybersecurity", "iconUrl": null, "installs": 0, "name": "Uplo Cybersecurity", "ownerName": "roojenkins", "score": 30107.52688172043, "slug": "uplo-cybersecurity", "source": "clawhub", "stars": 0, "tags": null, "updated_at": 1776745483695, "version": "1.0.0"}, {"category": "", "created_at": 1774889632014, "description": "Query GitHub event data via ClickHouse for supply chain investigations, actor profiling, and anomaly detection. Use when investigating GitHub-based attacks,...", "description_zh": "", "downloads": 28, "homepage": "https://clawhub.ai/1an0rmus/clickhouse-github-forensics", "iconUrl": null, "installs": 1, "name": "ClickHouse GitHub Forensics", "ownerName": "1an0rmus", "score": 26666.666666666668, "slug": "clickhouse-github-forensics", "source": "clawhub", "stars": 0, "tags": ["forensics", "github", "security", "supply-chain"], "updated_at": 1776745244392, "version": "1.0.0"}, {"category": "", "created_at": 1774915028019, "description": "Implements end-to-end encryption (E2EE) utilities for secure A2A (Agent-to-Agent) communication. Provides key generation, message encryption/decryption, and...", "description_zh": "", "downloads": 28, "homepage": "https://clawhub.ai/jpengcheng523-netizen/a2a-e2ee-encryption", "iconUrl": null, "installs": 0, "name": "A2a E2ee Encryption", "ownerName": "jpengcheng523-netizen", "score": 29787.23404255319, "slug": "a2a-e2ee-encryption", "source": "clawhub", "stars": 0, "tags": null, "updated_at": 1776745183741, "version": "1.0.0"}, {"category": "", "created_at": 1774866302686, "description": "Analyze startup financing term sheets: SAFEs, convertible notes, and priced equity rounds. Decode economic terms, flag founder-unfriendly clauses, model dilu...", "description_zh": "", "downloads": 28, "homepage": "https://clawhub.ai/samledger67-dotcom/term-sheet-analyzer", "iconUrl": null, "installs": 0, "name": "Term Sheet Analyzer", "ownerName": "samledger67-dotcom", "score": 29787.23404255319, "slug": "term-sheet-analyzer", "source": "clawhub", "stars": 0, "tags": null, "updated_at": 1776745069576, "version": "1.0.0"}, {"category": "", "created_at": 1774905551729, "description": "Analyze value creation and growth positioning. Use for competitive analysis, strategic positioning, and understanding where value is generated.", "description_zh": "", "downloads": 28, "homepage": "https://clawhub.ai/linuszz/growth-spread-matrix", "iconUrl": null, "installs": 0, "name": "Growth Spread Matrix", "ownerName": "linuszz", "score": 29787.23404255319, "slug": "growth-spread-matrix", "source": "clawhub", "stars": 0, "tags": null, "updated_at": 1776744883915, "version": "1.0.0"}, {"category": "", "created_at": 1774894934625, "description": "NIH funding trend analysis to identify high-priority research areas", "description_zh": "", "downloads": 28, "homepage": "https://clawhub.ai/aipoch-ai/grant-funding-scout", "iconUrl": null, "installs": 0, "name": "Grant Funding Scout", "ownerName": "aipoch-ai", "score": 29166.666666666668, "slug": "grant-funding-scout", "source": "clawhub", "stars": 0, "tags": null, "updated_at": 1776744883639, "version": "0.1.0"}, {"category": "", "created_at": 1774918559687, "description": "Build omnichannel marketing ROI views across TikTok, Meta (Facebook/Instagram), Google (Ads/Shopping/YouTube as applicable), and Email—connect traffic and sp...", "description_zh": "", "downloads": 28, "homepage": "https://clawhub.ai/rijoyai/omnichannel-roi-monitor", "iconUrl": null, "installs": 0, "name": "ROI Monitor", "ownerName": "rijoyai", "score": 29473.684210526313, "slug": "omnichannel-roi-monitor", "source": "clawhub", "stars": 0, "tags": null, "updated_at": 1776744304818, "version": "1.0.0"}, {"category": "", "created_at": 1774901250772, "description": "Evaluate strategic options by NPV vs ease of implementation. Use for project prioritization, resource allocation, and strategic decision making.", "description_zh": "", "downloads": 28, "homepage": "https://clawhub.ai/linuszz/portfolio-matrix", "iconUrl": null, "installs": 1, "name": "Portfolio Matrix", "ownerName": "linuszz", "score": 29473.684210526313, "slug": "portfolio-matrix", "source": "clawhub", "stars": 0, "tags": null, "updated_at": 1776744284244, "version": "1.0.0"}, {"category": "", "created_at": 1774869034680, "description": "Structured output compression for AI agents. Dramatically reduces token cost on structured data (evals, decisions, routing, policies, media summaries). Desig...", "description_zh": "", "downloads": 28, "homepage": "https://clawhub.ai/theshadowrose/omega-notation", "iconUrl": null, "installs": 0, "name": "Omega Notation", "ownerName": "theshadowrose", "score": 32183.908045977012, "slug": "omega-notation", "source": "clawhub", "stars": 0, "tags": ["agent-communication", "compression", "tokens"], "updated_at": 1776743984974, "version": "1.0.3"}, {"category": "", "created_at": 1774866347636, "description": "Create Twitch clips of the current live stream via the Twitch API. Use when a streamer says \"clip that\", \"clip the last X seconds\", \"make a clip\", \"clip it\",...", "description_zh": "", "downloads": 28, "homepage": "https://clawhub.ai/djc00p/twitch-clip", "iconUrl": null, "installs": 1, "name": "Twitch Clip", "ownerName": "djc00p", "score": 32183.908045977012, "slug": "twitch-clip", "source": "clawhub", "stars": 0, "tags": null, "updated_at": 1776743984934, "version": "1.0.1"}, {"category": "", "created_at": 1774902241384, "description": "LastPass Enterprise API integration. Manage data, records, and automate workflows. Use when the user wants to interact with LastPass Enterprise API data.", "description_zh": "", "downloads": 28, "homepage": "https://clawhub.ai/gora050/lastpass-enterprise-api", "iconUrl": null, "installs": 0, "name": "Lastpass Enterprise Api", "ownerName": "gora050", "score": 30107.52688172043, "slug": "lastpass-enterprise-api", "source": "clawhub", "stars": 0, "tags": null, "updated_at": 1776743444494, "version": "1.0.0"}, {"category": "", "created_at": 1774867112701, "description": "Sales Simplify integration. Manage Organizations, Users, Goals, Filters. Use when the user wants to interact with Sales Simplify data.", "description_zh": "", "downloads": 28, "homepage": "https://clawhub.ai/membranedev/sales-simplify", "iconUrl": null, "installs": 1, "name": "Sales Simplify", "ownerName": "membranedev", "score": 29473.684210526313, "slug": "sales-simplify", "source": "clawhub", "stars": 0, "tags": null, "updated_at": 1776742369736, "version": "1.0.0"}, {"category": "", "created_at": 1774823967504, "description": "What tokens is smart money accumulating before they pump? Token screener with SM filter cross-referenced against netflow.", "description_zh": "", "downloads": 28, "homepage": "https://clawhub.ai/nansen-devops/nansen-smart-money-alpha", "iconUrl": null, "installs": 1, "name": "Nansen Smart Money Alpha", "ownerName": "nansen-devops", "score": 32183.908045977012, "slug": "nansen-smart-money-alpha", "source": "clawhub", "stars": 0, "tags": null, "updated_at": 1776741646997, "version": "0.1.0"}, {"category": "", "created_at": 1774876218011, "description": "Salesmsg integration. Manage Persons, Organizations, Conversations, Users, Numbers, Templates and more. Use when the user wants to interact with Salesmsg data.", "description_zh": "", "downloads": 28, "homepage": "https://clawhub.ai/gora050/salesmsg", "iconUrl": null, "installs": 0, "name": "Salesmsg", "ownerName": "gora050", "score": 29787.23404255319, "slug": "salesmsg", "source": "clawhub", "stars": 0, "tags": null, "updated_at": 1776741044425, "version": "1.0.0"}, {"category": "", "created_at": 1774859579934, "description": "AI music generation assistant powered by MakebestMusic. Use when user wants to create AI-generated music, songs, or audio tracks. Perfect for content creator...", "description_zh": "", "downloads": 28, "homepage": "https://clawhub.ai/sthk-mbm/text-to-song", "iconUrl": null, "installs": 1, "name": "Text to Song", "ownerName": "sthk-mbm", "score": 28571.42857142857, "slug": "text-to-song", "source": "clawhub", "stars": 0, "tags": null, "updated_at": 1776740383693, "version": "1.0.0"}, {"category": "", "created_at": 1774873679730, "description": "Comprehensive furniture industry suppliers guide for international buyers – provides detailed information about China's residential, office, hotel, outdoor,...", "description_zh": "", "downloads": 28, "homepage": "https://clawhub.ai/findhappy7/china-furniture-suppliers", "iconUrl": null, "installs": 0, "name": "China Furniture Suppliers", "ownerName": "findhappy7", "score": 28282.828282828283, "slug": "china-furniture-suppliers", "source": "clawhub", "stars": 0, "tags": null, "updated_at": 1776727669562, "version": "1.0.1"}, {"category": "", "created_at": 1774864906525, "description": "Navigate Hong Kong like a local with district-specific food spots, transport tips, hikes, neighborhoods, and honest advice on what is worth your time.", "description_zh": "", "downloads": 28, "homepage": "https://clawhub.ai/wingchiu/hongkong", "iconUrl": null, "installs": 0, "name": "HongKong", "ownerName": "wingchiu", "score": 28282.828282828283, "slug": "hongkong", "source": "clawhub", "stars": 0, "tags": null, "updated_at": 1776706369569, "version": "1.0.0"}, {"category": "", "created_at": 1774902689078, "description": "Core pack — always active for visual work. Enforces UX quality standards on any screen, flow, form, or dashboard. Ensures nothing ships with missing states....", "description_zh": "", "downloads": 28, "homepage": "https://clawhub.ai/aa-on-ai/ux-baseline-check", "iconUrl": null, "installs": 2, "name": "UX Baseline Check", "ownerName": "aa-on-ai", "score": 100000, "slug": "ux-baseline-check", "source": "clawhub", "stars": 0, "tags": null, "updated_at": 1776699004830, "version": "1.0.0"}, {"category": "", "created_at": 1774951880886, "description": "When the user wants to plan content for SEO, create content calendar, or build topic clusters. Also use when the user mentions \"content strategy,\" \"content p...", "description_zh": "", "downloads": 28, "homepage": "https://clawhub.ai/kostja94/content-strategy-seo", "iconUrl": null, "installs": 0, "name": "content-strategy", "ownerName": "kostja94", "score": 100000, "slug": "content-strategy-seo", "source": "clawhub", "stars": 0, "tags": null, "updated_at": 1776698684083, "version": "1.1.0"}, {"category": "", "created_at": 1774955479117, "description": "Falsification-oriented market thesis challenger for A-shares and U.S. markets. Use when the user asks to attack an existing market thesis, morning brief, clo...", "description_zh": "", "downloads": 28, "homepage": "https://clawhub.ai/luckycatl/popper-market-challenger", "iconUrl": null, "installs": 1, "name": "Popper Market Challenger", "ownerName": "luckycatl", "score": 100000, "slug": "popper-market-challenger", "source": "clawhub", "stars": 0, "tags": null, "updated_at": 1776698444760, "version": "1.0.0"}, {"category": "", "created_at": 1774874794858, "description": "Manage Zilliz Cloud clusters and Milvus vector databases — cluster ops, collections, vector search, RBAC, backups, imports, and more via zilliz-cli.", "description_zh": "", "downloads": 28, "homepage": "https://clawhub.ai/lumina2025/zilliz-cloud", "iconUrl": null, "installs": 2, "name": "Zilliz Cloud", "ownerName": "lumina2025", "score": 100000, "slug": "zilliz-cloud", "source": "clawhub", "stars": 0, "tags": ["cloud", "milvus", "rag", "vector-database"], "updated_at": 1776698444740, "version": "1.0.0"}, {"category": "", "created_at": 1774907165513, "description": "Extract and reconstruct as much visible text as possible from webpage URLs, article pages, screenshots, long images, image directories, and GIFs. Use when th...", "description_zh": "", "downloads": 28, "homepage": "https://clawhub.ai/wunianze666-netizen/visible-text-extractor", "iconUrl": null, "installs": 0, "name": "Visible Text Extractor", "ownerName": "wunianze666-netizen", "score": 100000, "slug": "visible-text-extractor", "source": "clawhub", "stars": 0, "tags": null, "updated_at": 1776698444724, "version": "1.1.1"}, {"category": "", "created_at": 1774886299335, "description": "Search yegking.net for the best replica sneakers (LJR / PK / OG Batch). Get direct product links, exclusive hidden discount codes for ClawHub users, and expe...", "description_zh": "", "downloads": 28, "homepage": "https://clawhub.ai/yegfomo/yegking-exclusive-monitor", "iconUrl": null, "installs": 2, "name": "Yegking Exclusive Drops & Discount Monitor", "ownerName": "yegfomo", "score": 100000, "slug": "yegking-exclusive-monitor", "source": "clawhub", "stars": 0, "tags": ["best-reps-shoes", "discount", "ljr", "og-batch", "pk", "qc", "reps shoes", "sneakers", "sourcing"], "updated_at": 1776698444700, "version": "1.0.0"}, {"category": "", "created_at": 1774905898619, "description": "BNB Chain security scanner — scan contracts, simulate transactions, detect phishing, investigate deployers, track scam campaigns, and audit wallet approvals...", "description_zh": "", "downloads": 28, "homepage": "https://clawhub.ai/ridwannurudeen/shieldbot-security", "iconUrl": null, "installs": 0, "name": "ShieldBot BNB Chain Security Scanner", "ownerName": "ridwannurudeen", "score": 43750, "slug": "shieldbot-security", "source": "clawhub", "stars": 0, "tags": null, "updated_at": 1776698444665, "version": "1.0.1"}, {"category": "", "created_at": 1774898621860, "description": "Implement dependency injection in PydanticAI agents using RunContext and deps_type. Use when agents need database connections, API clients, user context, or...", "description_zh": "", "downloads": 28, "homepage": "https://clawhub.ai/anderskev/pydantic-ai-dependency-injection", "iconUrl": null, "installs": 1, "name": "Pydantic Ai Dependency Injection", "ownerName": "anderskev", "score": 43750, "slug": "pydantic-ai-dependency-injection", "source": "clawhub", "stars": 0, "tags": null, "updated_at": 1776698444664, "version": "1.0.0"}, {"category": "", "created_at": 1774954010231, "description": "Schedule it integration. Manage Users, Roles, Organizations, Projects, Pipelines, Activities and more. Use when the user wants to interact with Schedule it d...", "description_zh": "", "downloads": 28, "homepage": "https://clawhub.ai/gora050/schedule-it", "iconUrl": null, "installs": 0, "name": "Schedule It", "ownerName": "gora050", "score": 43750, "slug": "schedule-it", "source": "clawhub", "stars": 0, "tags": null, "updated_at": 1776698444662, "version": "1.0.0"}, {"category": "", "created_at": 1774906993733, "description": "Use when running Spaced Repetition Systems for AI Agents (SRSA) daily review sessions, grading cards with again/hard/good/easy, and proposing explicit memory...", "description_zh": "", "downloads": 28, "homepage": "https://clawhub.ai/cheanus/srsa", "iconUrl": null, "installs": 0, "name": "The Spaced Repetition Systems for Agents", "ownerName": "cheanus", "score": 43750, "slug": "srsa", "source": "clawhub", "stars": 0, "tags": ["memory", "utility"], "updated_at": 1776698444658, "version": "1.1.0"}, {"category": "", "created_at": 1774898870430, "description": "StackHawk integration. Manage data, records, and automate workflows. Use when the user wants to interact with StackHawk data.", "description_zh": "", "downloads": 28, "homepage": "https://clawhub.ai/gora050/stackhawk", "iconUrl": null, "installs": 0, "name": "Stackhawk", "ownerName": "gora050", "score": 43750, "slug": "stackhawk", "source": "clawhub", "stars": 0, "tags": null, "updated_at": 1776698444655, "version": "1.0.0"}, {"category": "", "created_at": 1774848225742, "description": "Analyze any codebase — architecture, patterns, diagrams, agent context. Understand repos in minutes, not hours.", "description_zh": "", "downloads": 28, "homepage": "https://clawhub.ai/selvatuple/revibe", "iconUrl": null, "installs": 0, "name": "Revibe Codes", "ownerName": "selvatuple", "score": 43750, "slug": "revibe", "source": "clawhub", "stars": 0, "tags": null, "updated_at": 1776698444632, "version": "1.0.6"}, {"category": "", "created_at": 1774873446479, "description": "A Python bot that monitors YouTube channels via RSS, summarizes new videos using Google Gemini AI (with audio fallback for videos without subtitles), and sen...", "description_zh": "", "downloads": 28, "homepage": "https://clawhub.ai/inkiy/youtube-daily-digest-bot", "iconUrl": null, "installs": 2, "name": "YouTube Daily Digest: Auto Monitor & Summary 🥥Meow", "ownerName": "inkiy", "score": 100000, "slug": "youtube-daily-digest-bot", "source": "clawhub", "stars": 0, "tags": null, "updated_at": 1776698444610, "version": "1.0.0"}, {"category": "", "created_at": 1774899084426, "description": "Guide for using the YesCaptcha API, including core methods, task flow, and integration tips for OpenClaw users.", "description_zh": "", "downloads": 28, "homepage": "https://clawhub.ai/masteralanlab/yescaptcha", "iconUrl": null, "installs": 1, "name": "YesCaptcha", "ownerName": "masteralanlab", "score": 100000, "slug": "yescaptcha", "source": "clawhub", "stars": 0, "tags": null, "updated_at": 1776698444606, "version": "0.0.1"}, {"category": "", "created_at": 1774869433647, "description": "Monitor website/docs/pricing changes, diff meaningful updates, and summarize business impact with alert-ready reports.", "description_zh": "", "downloads": 28, "homepage": "https://clawhub.ai/anugotta/website-change-watcher", "iconUrl": null, "installs": 0, "name": "Website Change Watcher", "ownerName": "anugotta", "score": 100000, "slug": "website-change-watcher", "source": "clawhub", "stars": 0, "tags": null, "updated_at": 1776698444596, "version": "1.0.0"}, {"category": "", "created_at": 1774902613433, "description": "Survser integration. Manage Organizations. Use when the user wants to interact with Survser data.", "description_zh": "", "downloads": 28, "homepage": "https://clawhub.ai/gora050/survser", "iconUrl": null, "installs": 0, "name": "Survser", "ownerName": "gora050", "score": 100000, "slug": "survser", "source": "clawhub", "stars": 0, "tags": null, "updated_at": 1776698444574, "version": "1.0.0"}, {"category": "", "created_at": 1774790200500, "description": "Lifecycle guard. Route to preflight or runtime.", "description_zh": "", "downloads": 28, "homepage": "https://clawhub.ai/yxf203/skill-sonar", "iconUrl": null, "installs": 0, "name": "SKILL Sonar", "ownerName": "yxf203", "score": 100000, "slug": "skill-sonar", "source": "clawhub", "stars": 0, "tags": null, "updated_at": 1776698444556, "version": "1.0.2"}, {"category": "", "created_at": 1774855406371, "description": "Symptom checker that helps users assess health symptoms, understand possible causes, and decide whether to seek medical care. Use when users describe physica...", "description_zh": "", "downloads": 28, "homepage": "https://clawhub.ai/jiwenbing/symptom-check", "iconUrl": null, "installs": 1, "name": "Symptom Check", "ownerName": "jiwenbing", "score": 100000, "slug": "symptom-check", "source": "clawhub", "stars": 0, "tags": null, "updated_at": 1776698444520, "version": "1.0.0"}, {"category": "", "created_at": 1774876618418, "description": "Analyze and optimize working capital for SMBs and growth-stage companies. Calculates DSO (Days Sales Outstanding), DPO (Days Payable Outstanding), DIO (Days...", "description_zh": "", "downloads": 28, "homepage": "https://clawhub.ai/samledger67-dotcom/working-capital-optimizer", "iconUrl": null, "installs": 0, "name": "Working Capital Optimizer", "ownerName": "samledger67-dotcom", "score": 100000, "slug": "working-capital-optimizer", "source": "clawhub", "stars": 0, "tags": null, "updated_at": 1776698444511, "version": "1.0.0"}, {"category": "", "created_at": 1774949862676, "description": "Validate email addresses with format checking and risk scoring. Use when users need to verify email format, check disposable emails, or validate bulk email l...", "description_zh": "", "downloads": 28, "homepage": "https://clawhub.ai/kennyzir/validate-email", "iconUrl": null, "installs": 0, "name": "validate email", "ownerName": "kennyzir", "score": 100000, "slug": "validate-email", "source": "clawhub", "stars": 0, "tags": null, "updated_at": 1776698444491, "version": "1.0.1"}, {"category": "", "created_at": 1774864283319, "description": "Tapform integration. Manage Organizations, Pipelines, Users, Goals, Filters. Use when the user wants to interact with Tapform data.", "description_zh": "", "downloads": 28, "homepage": "https://clawhub.ai/membranedev/tapform", "iconUrl": null, "installs": 1, "name": "Tapform", "ownerName": "membranedev", "score": 100000, "slug": "tapform", "source": "clawhub", "stars": 0, "tags": null, "updated_at": 1776698444489, "version": "1.0.0"}, {"category": "", "created_at": 1774843189370, "description": "Reference tool for devtools — covers intro, quickstart, patterns and more. Quick lookup for Social Automator concepts, best practices, and implementation pat...", "description_zh": "", "downloads": 28, "homepage": "https://clawhub.ai/bytesagain3/social-automator", "iconUrl": null, "installs": 0, "name": "Social Automator", "ownerName": "bytesagain3", "score": 43076.92307692308, "slug": "social-automator", "source": "clawhub", "stars": 0, "tags": null, "updated_at": 1776698444443, "version": "2.0.1"}]}