{"page": 482, "total_pages": 522, "total": 26073, "skills": [{"category": "", "created_at": 1774876391817, "description": "Reference tool for devtools — covers intro, quickstart, patterns and more. Quick lookup for Sysinfo Fetch concepts, best practices, and implementation patterns.", "description_zh": "", "downloads": 28, "homepage": "https://clawhub.ai/xueyetianya/sysinfo-fetch", "iconUrl": null, "installs": 0, "name": "Sysinfo Fetch", "ownerName": "xueyetianya", "score": 43076.92307692308, "slug": "sysinfo-fetch", "source": "clawhub", "stars": 0, "tags": null, "updated_at": 1776698444432, "version": "2.0.1"}, {"category": "", "created_at": 1774903757768, "description": "Social media bio optimizer for all platforms. Write a high-converting bio for Instagram, LinkedIn, TikTok, X/Twitter, or Threads that attracts followers, com...", "description_zh": "", "downloads": 28, "homepage": "https://clawhub.ai/mguozhen/social-bio-optimizer", "iconUrl": null, "installs": 0, "name": "Social Bio Optimizer", "ownerName": "mguozhen", "score": 43076.92307692308, "slug": "social-bio-optimizer", "source": "clawhub", "stars": 0, "tags": null, "updated_at": 1776698444416, "version": "1.0.0"}, {"category": "", "created_at": 1774863262454, "description": "How to check weather forecasts using wttr.in service. Make sure to use this skill whenever the user mentions weather, forecast, temperature, or wants to chec...", "description_zh": "", "downloads": 28, "homepage": "https://clawhub.ai/fbbyqsyea/wttr-weather", "iconUrl": null, "installs": 0, "name": "wttr-weather", "ownerName": "fbbyqsyea", "score": 100000, "slug": "wttr-weather", "source": "clawhub", "stars": 0, "tags": null, "updated_at": 1776698444363, "version": "1.0.0"}, {"category": "", "created_at": 1774953358121, "description": "Access live Twitter/X data through TwtAPI's hosted public skill gateway. Search tweets, look up users, read timelines, inspect followers and following, fetch...", "description_zh": "", "downloads": 28, "homepage": "https://clawhub.ai/tonygjj/twtapi", "iconUrl": null, "installs": 1, "name": "TwtAPI", "ownerName": "tonygjj", "score": 100000, "slug": "twtapi", "source": "clawhub", "stars": 0, "tags": null, "updated_at": 1776698404786, "version": "1.2.0"}, {"category": "", "created_at": 1774882416008, "description": "How to create and configure the Aptos client (Aptos, AptosConfig) in @aptos-labs/ts-sdk. Covers Network, fullnode/indexer/faucet URLs, singleton pattern, and...", "description_zh": "", "downloads": 28, "homepage": "https://clawhub.ai/iskysun96/ts-sdk-client", "iconUrl": null, "installs": 0, "name": "Ts Sdk Client", "ownerName": "iskysun96", "score": 100000, "slug": "ts-sdk-client", "source": "clawhub", "stars": 0, "tags": null, "updated_at": 1776698404786, "version": "1.0.0"}, {"category": "", "created_at": 1774860462132, "description": "Manage your SocialConductor AI comment automation bots from any chat app. Control Facebook/Instagram, YouTube, and TikTok — check status, pause or resume rep...", "description_zh": "", "downloads": 28, "homepage": "https://clawhub.ai/dcecchino/socialconductor-skill", "iconUrl": null, "installs": 1, "name": "Socialconductor Skill", "ownerName": "dcecchino", "score": 100000, "slug": "socialconductor-skill", "source": "clawhub", "stars": 0, "tags": null, "updated_at": 1776698404784, "version": "1.4.0"}, {"category": "", "created_at": 1774923227097, "description": "Generates a personalised Spanish language practice session based on CEFR/DELE level. Covers vocabulary, grammar, verb conjugation, reading, and speaking prom...", "description_zh": "", "downloads": 28, "homepage": "https://clawhub.ai/tetsuakira-vk/spanish-daily-drill", "iconUrl": null, "installs": 1, "name": "Spanish Daily Drill", "ownerName": "tetsuakira-vk", "score": 100000, "slug": "spanish-daily-drill", "source": "clawhub", "stars": 0, "tags": null, "updated_at": 1776698404779, "version": "1.0.0"}, {"category": "", "created_at": 1774910121961, "description": "Retriever integration. Manage Organizations, Leads, Projects, Pipelines, Users, Filters. Use when the user wants to interact with Retriever data.", "description_zh": "", "downloads": 28, "homepage": "https://clawhub.ai/gora050/retriever", "iconUrl": null, "installs": 0, "name": "Retriever", "ownerName": "gora050", "score": 100000, "slug": "retriever", "source": "clawhub", "stars": 0, "tags": null, "updated_at": 1776698404776, "version": "1.0.0"}, {"category": "", "created_at": 1774907101265, "description": "Universal tariff calculator for Amazon sellers. Calculate import duties, landed costs, and VAT/GST for any trade route. Supports CN→US, CN→EU, US→EU, EU→US,...", "description_zh": "", "downloads": 28, "homepage": "https://clawhub.ai/phheng/tariff-calculator-amazon", "iconUrl": null, "installs": 1, "name": "Tariff Calculator Amazon", "ownerName": "phheng", "score": 100000, "slug": "tariff-calculator-amazon", "source": "clawhub", "stars": 0, "tags": null, "updated_at": 1776698404774, "version": "0.1.0"}, {"category": "", "created_at": 1774909342243, "description": "Use StepFun Chat Completions with model step-audio-r1.1 for non-streaming speech turns that can send text with optional local audio input and save the return...", "description_zh": "", "downloads": 28, "homepage": "https://clawhub.ai/praanmichael/stepfun-step-audio-r1-1", "iconUrl": null, "installs": 0, "name": "StepFun step-audio-r1.1", "ownerName": "praanmichael", "score": 100000, "slug": "stepfun-step-audio-r1-1", "source": "clawhub", "stars": 0, "tags": ["audio", "stepfun"], "updated_at": 1776698404768, "version": "0.1.1"}, {"category": "", "created_at": 1774948003278, "description": "Western astrology-style guidance for the twelve zodiac signs (Aries–Pisces)—daily/weekly/monthly themes, elements, modalities, and light compatibility framin...", "description_zh": "", "downloads": 28, "homepage": "https://clawhub.ai/mike47512/western-sun-signs", "iconUrl": null, "installs": 2, "name": "Western Sun Signs", "ownerName": "mike47512", "score": 100000, "slug": "western-sun-signs", "source": "clawhub", "stars": 0, "tags": null, "updated_at": 1776698404763, "version": "1.0.0"}, {"category": "", "created_at": 1774911411558, "description": "Automatically fetch YouTube video subtitles and generate concise summaries. Use when you need to summarize a YouTube video, get key points from a talk, or ex...", "description_zh": "", "downloads": 28, "homepage": "https://clawhub.ai/potatosolo/youtube-video-summary", "iconUrl": null, "installs": 1, "name": "YouTube Summary - Auto Video Summarizer", "ownerName": "potatosolo", "score": 100000, "slug": "youtube-video-summary", "source": "clawhub", "stars": 0, "tags": null, "updated_at": 1776698404755, "version": "1.0.0"}, {"category": "", "created_at": 1774897110891, "description": "Shop Petco pet supplies via Strider Labs MCP connector. Search pet food, toys, and supplies. Schedule grooming, vet services, and order medications for dogs,...", "description_zh": "", "downloads": 28, "homepage": "https://clawhub.ai/markswendsen-code/strider-petco", "iconUrl": null, "installs": 2, "name": "Strider upetco", "ownerName": "markswendsen-code", "score": 100000, "slug": "strider-petco", "source": "clawhub", "stars": 0, "tags": null, "updated_at": 1776698404753, "version": "1.0.0"}, {"category": "", "created_at": 1774922213138, "description": "Guide users to configure local Chanjing credentials safely via local commands only, and validate local token status when needed.", "description_zh": "", "downloads": 28, "homepage": "https://clawhub.ai/zuoyuting214/zyt-credentials-guard", "iconUrl": null, "installs": 0, "name": "Zyt credentials guard", "ownerName": "zuoyuting214", "score": 100000, "slug": "zyt-credentials-guard", "source": "clawhub", "stars": 0, "tags": null, "updated_at": 1776698404738, "version": "0.5.0"}, {"category": "", "created_at": 1774902444249, "description": "Productive.io integration. Manage Organizations. Use when the user wants to interact with Productive.io data.", "description_zh": "", "downloads": 28, "homepage": "https://clawhub.ai/gora050/productiveio", "iconUrl": null, "installs": 0, "name": "Productiveio", "ownerName": "gora050", "score": 100000, "slug": "productiveio", "source": "clawhub", "stars": 0, "tags": null, "updated_at": 1776698404736, "version": "1.0.0"}, {"category": "", "created_at": 1774886197926, "description": "When the user wants to add, optimize, or audit table of contents (TOC) for long-form content. Also use when the user mentions \"TOC,\" \"table of contents,\" \"ta...", "description_zh": "", "downloads": 28, "homepage": "https://clawhub.ai/kostja94/toc-generator", "iconUrl": null, "installs": 1, "name": "toc-generator", "ownerName": "kostja94", "score": 100000, "slug": "toc-generator", "source": "clawhub", "stars": 0, "tags": null, "updated_at": 1776698404734, "version": "1.0.0"}, {"category": "", "created_at": 1774915863127, "description": "Textlocal integration. Manage data, records, and automate workflows. Use when the user wants to interact with Textlocal data.", "description_zh": "", "downloads": 28, "homepage": "https://clawhub.ai/gora050/textlocal", "iconUrl": null, "installs": 0, "name": "Textlocal", "ownerName": "gora050", "score": 100000, "slug": "textlocal", "source": "clawhub", "stars": 0, "tags": null, "updated_at": 1776698404728, "version": "1.0.0"}, {"category": "", "created_at": 1774847438862, "description": "QuantConnect automated backtest pipeline — submit local strategies, compile, execute, monitor with early-stop, and download results in one command.", "description_zh": "", "downloads": 28, "homepage": "https://clawhub.ai/tltby12341/qc-backtest-master", "iconUrl": null, "installs": 2, "name": "Qc Backtest Master", "ownerName": "tltby12341", "score": 100000, "slug": "qc-backtest-master", "source": "clawhub", "stars": 0, "tags": null, "updated_at": 1776698404726, "version": "1.0.0"}, {"category": "", "created_at": 1774885127730, "description": "Use when a user needs to actually use or build on Zeko: bridge with Bridge CLI or Bridge SDK, get testnet funds, find the right Zeko and Mina endpoints, run...", "description_zh": "", "downloads": 28, "homepage": "https://clawhub.ai/hebilicious/zeko", "iconUrl": null, "installs": 0, "name": "Zeko", "ownerName": "hebilicious", "score": 100000, "slug": "zeko", "source": "clawhub", "stars": 0, "tags": null, "updated_at": 1776698404722, "version": "0.0.1-main.4.1"}, {"category": "", "created_at": 1774903699005, "description": "Search and reference Simpsons episode scripts using Springfield! Springfield! as the source, with an optional local episode index for faster lookups. Use whe...", "description_zh": "", "downloads": 28, "homepage": "https://clawhub.ai/smev1/simpsons-search", "iconUrl": null, "installs": 2, "name": "Simpsons Search", "ownerName": "smev1", "score": 100000, "slug": "simpsons-search", "source": "clawhub", "stars": 0, "tags": null, "updated_at": 1776698404712, "version": "0.1.0"}, {"category": "", "created_at": 1774882435385, "description": "Valve sizing and selection tool", "description_zh": "", "downloads": 28, "homepage": "https://clawhub.ai/xueyetianya/valve", "iconUrl": null, "installs": 2, "name": "Valve", "ownerName": "xueyetianya", "score": 100000, "slug": "valve", "source": "clawhub", "stars": 0, "tags": null, "updated_at": 1776698404708, "version": "1.0.0"}, {"category": "", "created_at": 1774944976642, "description": "Text-to-speech conversion using node-edge-tts npm package for generating audio from text. Supports multiple voices, languages, speed adjustment, pitch contro...", "description_zh": "", "downloads": 28, "homepage": "https://clawhub.ai/17854566382/tts-1", "iconUrl": null, "installs": 0, "name": "tts", "ownerName": "17854566382", "score": 100000, "slug": "tts-1", "source": "clawhub", "stars": 0, "tags": null, "updated_at": 1776698404698, "version": "1.0.0"}, {"category": "", "created_at": 1774950891319, "description": "Use this skill when the user wants the current local time written into a.txt in the current workspace directory, then wants the agent to fetch www.bytedance....", "description_zh": "", "downloads": 28, "homepage": "https://clawhub.ai/plusplus7/summary-time", "iconUrl": null, "installs": 0, "name": "Summary Time", "ownerName": "plusplus7", "score": 100000, "slug": "summary-time", "source": "clawhub", "stars": 0, "tags": null, "updated_at": 1776698404668, "version": "1.0.3"}, {"category": "", "created_at": 1774914753638, "description": "Generate a complete HTML tutorial that explains one or more problems with clear reasoning and embedded SVG or Canvas visuals. Use this skill whenever the use...", "description_zh": "", "downloads": 28, "homepage": "https://clawhub.ai/vaintwyt/question-explanation", "iconUrl": null, "installs": 0, "name": "Question Explanation", "ownerName": "vaintwyt", "score": 100000, "slug": "question-explanation", "source": "clawhub", "stars": 0, "tags": null, "updated_at": 1776698404660, "version": "0.1.1"}, {"category": "", "created_at": 1774902593940, "description": "Sure Finance API skill. Use when the user wants personal finance insights, account and transaction operations, tags/categories management, imports, or chat w...", "description_zh": "", "downloads": 28, "homepage": "https://clawhub.ai/secondport/sure-finance-skill", "iconUrl": null, "installs": 0, "name": "sure-finance-skill", "ownerName": "secondport", "score": 100000, "slug": "sure-finance-skill", "source": "clawhub", "stars": 0, "tags": null, "updated_at": 1776698404657, "version": "0.0.7"}, {"category": "", "created_at": 1774895464406, "description": "Calculate economic value added and shareholder return. Use for investment analysis, valuation, and capital allocation decisions.", "description_zh": "", "downloads": 28, "homepage": "https://clawhub.ai/linuszz/shareholder-value", "iconUrl": null, "installs": 1, "name": "Shareholder Value", "ownerName": "linuszz", "score": 100000, "slug": "shareholder-value", "source": "clawhub", "stars": 0, "tags": null, "updated_at": 1776698404651, "version": "1.0.0"}, {"category": "", "created_at": 1774917520349, "description": "Launch verification and watchdog discipline for delegated, backgrounded, browser-driven, and long-running tasks. Prevents false \"running\" claims, clarifies f...", "description_zh": "", "downloads": 28, "homepage": "https://clawhub.ai/mike-alford/subagent-sheepdog", "iconUrl": null, "installs": 0, "name": "Subagent Sheepdog", "ownerName": "mike-alford", "score": 100000, "slug": "subagent-sheepdog", "source": "clawhub", "stars": 0, "tags": null, "updated_at": 1776698404641, "version": "1.0.1"}, {"category": "", "created_at": 1774856325240, "description": "RiskAdvisor integration. Manage Organizations, Leads, Pipelines, Users, Goals, Filters. Use when the user wants to interact with RiskAdvisor data.", "description_zh": "", "downloads": 28, "homepage": "https://clawhub.ai/gora050/riskadvisor", "iconUrl": null, "installs": 0, "name": "Riskadvisor", "ownerName": "gora050", "score": 100000, "slug": "riskadvisor", "source": "clawhub", "stars": 0, "tags": null, "updated_at": 1776698404639, "version": "1.0.0"}, {"category": "", "created_at": 1774863452044, "description": "Organize project, agent, or user memory using an A-MEM-style workflow with structured notes, semantic tags, contextual summaries, explicit links, and lightwe...", "description_zh": "", "downloads": 28, "homepage": "https://clawhub.ai/xiaocaijic/a-mem-memory-organization", "iconUrl": null, "installs": 0, "name": "a-mem-memory-organization", "ownerName": "xiaocaijic", "score": 100000, "slug": "a-mem-memory-organization", "source": "clawhub", "stars": 0, "tags": null, "updated_at": 1776698384667, "version": "1.0.0"}, {"category": "", "created_at": 1774844983391, "description": "AI medical consultation assistant that helps users understand symptoms, conditions, medications, lab results, and treatment options. Provides evidence-based...", "description_zh": "", "downloads": 28, "homepage": "https://clawhub.ai/jiwenbing/ai-doctor", "iconUrl": null, "installs": 0, "name": "Ai Doctor", "ownerName": "jiwenbing", "score": 100000, "slug": "ai-doctor", "source": "clawhub", "stars": 0, "tags": null, "updated_at": 1776698384663, "version": "1.0.0"}, {"category": "", "created_at": 1774948835617, "description": "Information assistant for Qualcomm. Search products, news, financials, and official resources for Qualcomm.", "description_zh": "", "downloads": 28, "homepage": "https://clawhub.ai/hanxueyuan/qualcomm", "iconUrl": null, "installs": 0, "name": "qualcomm", "ownerName": "hanxueyuan", "score": 100000, "slug": "qualcomm", "source": "clawhub", "stars": 0, "tags": null, "updated_at": 1776698384652, "version": "0.1.0"}, {"category": "", "created_at": 1774899270706, "description": "Automatically search for low-competition GitHub bounty tasks (comments < 5) and generate a clean report with details and estimated difficulty.", "description_zh": "", "downloads": 28, "homepage": "https://clawhub.ai/santosparra651-arch/algora-bounty-assistant", "iconUrl": null, "installs": 1, "name": "Algora Bounty Assistan", "ownerName": "santosparra651-arch", "score": 100000, "slug": "algora-bounty-assistant", "source": "clawhub", "stars": 0, "tags": null, "updated_at": 1776698384648, "version": "1.0.0"}, {"category": "", "created_at": 1774917202997, "description": "Deep rate limiting workflow—identifying actors and resources, choosing algorithms, distributed vs local limits, client UX (headers, retries), and abuse detec...", "description_zh": "", "downloads": 28, "homepage": "https://clawhub.ai/codekungfu/rate-limiting", "iconUrl": null, "installs": 0, "name": "Rate Limiting", "ownerName": "codekungfu", "score": 100000, "slug": "rate-limiting", "source": "clawhub", "stars": 0, "tags": null, "updated_at": 1776698384646, "version": "1.0.0"}, {"category": "", "created_at": 1774897075307, "description": "Sorting algorithm and system reference — comparison sorts, distribution sorts, parallel sorting, and industrial sortation. Use when choosing sorting strategi...", "description_zh": "", "downloads": 28, "homepage": "https://clawhub.ai/ckchzh/sorter", "iconUrl": null, "installs": 0, "name": "Sorter", "ownerName": "ckchzh", "score": 100000, "slug": "sorter", "source": "clawhub", "stars": 0, "tags": null, "updated_at": 1776698384643, "version": "1.0.0"}, {"category": "", "created_at": 1774892208874, "description": "Upload Video Converter for creators, ecommerce teams, and operators. Use when you need help with video conversion for compatibility and uploads.", "description_zh": "", "downloads": 28, "homepage": "https://clawhub.ai/leooooooow/upload-video-converter", "iconUrl": null, "installs": 0, "name": "Upload Video Converter", "ownerName": "leooooooow", "score": 100000, "slug": "upload-video-converter", "source": "clawhub", "stars": 0, "tags": null, "updated_at": 1776698384631, "version": "1.0.0"}, {"category": "", "created_at": 1774856560429, "description": "Declare your agent in the first public census of self-declared AI agents. Complete the fields below and submit — your record joins the permanent public archive.", "description_zh": "", "downloads": 28, "homepage": "https://clawhub.ai/all8ymyself/agent-census", "iconUrl": null, "installs": 0, "name": "Agent Census", "ownerName": "all8ymyself", "score": 100000, "slug": "agent-census", "source": "clawhub", "stars": 0, "tags": null, "updated_at": 1776698384630, "version": "2.0.0"}, {"category": "", "created_at": 1774955489231, "description": "Physical presence and delivery skills for public speaking and presentations. Use when someone needs to present at work, speak at an event, lead a meeting, or...", "description_zh": "", "downloads": 28, "homepage": "https://clawhub.ai/howtousehumans/public-speaking-embodied", "iconUrl": null, "installs": 0, "name": "Public Speaking Embodied", "ownerName": "howtousehumans", "score": 100000, "slug": "public-speaking-embodied", "source": "clawhub", "stars": 0, "tags": null, "updated_at": 1776698384624, "version": "1.0.0"}, {"category": "", "created_at": 1774951241650, "description": "Formaliza dominios de datos y APIs con teoria de categorias. Usar para disenar DDL SQL, JSON Schema, OpenAPI, GraphQL, Prisma, integracion multi-esquema, est...", "description_zh": "", "downloads": 28, "homepage": "https://clawhub.ai/felix-antonio-sl/fxsl-arquitecto-categorico", "iconUrl": null, "installs": 0, "name": "Arquitecto Categorico", "ownerName": "felix-antonio-sl", "score": 100000, "slug": "fxsl-arquitecto-categorico", "source": "clawhub", "stars": 0, "tags": null, "updated_at": 1776698384623, "version": "1.0.0"}, {"category": "", "created_at": 1774924132601, "description": "Been ghosted? This AI helps you understand why someone stopped replying and what to do next. Analyzes your conversation to identify where things went wrong,...", "description_zh": "", "downloads": 28, "homepage": "https://clawhub.ai/imwyvern/ghosted", "iconUrl": null, "installs": 0, "name": "Ghosted Skill", "ownerName": "imwyvern", "score": 100000, "slug": "ghosted", "source": "clawhub", "stars": 0, "tags": null, "updated_at": 1776698384621, "version": "1.0.0"}, {"category": "", "created_at": 1774955270272, "description": "Conduct exhaustive multi-source investigation with methodology tracking, source evaluation, and iterative depth.", "description_zh": "", "downloads": 28, "homepage": "https://clawhub.ai/nickolaslab/in-depth-research-1-0-0", "iconUrl": null, "installs": 1, "name": "In Depth Research 1.0.0", "ownerName": "nickolaslab", "score": 100000, "slug": "in-depth-research-1-0-0", "source": "clawhub", "stars": 0, "tags": null, "updated_at": 1776698384619, "version": "1.0.0"}, {"category": "", "created_at": 1774880792690, "description": "S2-SP-OS Vision Cast. Features a universal Protocol Sniffer (AirPlay/Chromecast/DLNA) for native casting, backed by our secure S2 ephemeral push fallback. /...", "description_zh": "", "downloads": 28, "homepage": "https://clawhub.ai/spacesq/s2-vision-projection", "iconUrl": null, "installs": 1, "name": "S2-SP-OS Vision Cast", "ownerName": "spacesq", "score": 100000, "slug": "s2-vision-projection", "source": "clawhub", "stars": 0, "tags": null, "updated_at": 1776698384614, "version": "1.1.0"}, {"category": "", "created_at": 1774884554250, "description": "Mediatoolkit integration. Manage Alerts, Users, Dashboards, Reports. Use when the user wants to interact with Mediatoolkit data.", "description_zh": "", "downloads": 28, "homepage": "https://clawhub.ai/gora050/mediatoolkit", "iconUrl": null, "installs": 1, "name": "Mediatoolkit", "ownerName": "gora050", "score": 100000, "slug": "mediatoolkit", "source": "clawhub", "stars": 0, "tags": null, "updated_at": 1776698384611, "version": "1.0.0"}, {"category": "", "created_at": 1774886991179, "description": "IDX Broker integration. Manage Leads, Users, Roles. Use when the user wants to interact with IDX Broker data.", "description_zh": "", "downloads": 28, "homepage": "https://clawhub.ai/gora050/idx-broker", "iconUrl": null, "installs": 0, "name": "Idx Broker", "ownerName": "gora050", "score": 100000, "slug": "idx-broker", "source": "clawhub", "stars": 0, "tags": null, "updated_at": 1776698384609, "version": "1.0.0"}, {"category": "", "created_at": 1774918573748, "description": "Payback reference tool. Use when working with payback in finance contexts.", "description_zh": "", "downloads": 28, "homepage": "https://clawhub.ai/bytesagain1/payback", "iconUrl": null, "installs": 0, "name": "Payback", "ownerName": "bytesagain1", "score": 100000, "slug": "payback", "source": "clawhub", "stars": 0, "tags": null, "updated_at": 1776698384604, "version": "1.0.0"}, {"category": "", "created_at": 1774916594023, "description": "Feel awe and subtle tension while exploring hidden vertical gardens that blend technology and nature in Dubai’s skyline. The descent guides you through shado...", "description_zh": "", "downloads": 28, "homepage": "https://clawhub.ai/driftsbot/experience-glass-tower-descent", "iconUrl": null, "installs": 0, "name": "Experience Glass Tower Descent", "ownerName": "driftsbot", "score": 100000, "slug": "experience-glass-tower-descent", "source": "clawhub", "stars": 0, "tags": null, "updated_at": 1776698384602, "version": "1.0.0"}, {"category": "", "created_at": 1774955339610, "description": "Mapulus integration. Manage Organizations. Use when the user wants to interact with Mapulus data.", "description_zh": "", "downloads": 28, "homepage": "https://clawhub.ai/gora050/mapulus", "iconUrl": null, "installs": 0, "name": "Mapulus", "ownerName": "gora050", "score": 100000, "slug": "mapulus", "source": "clawhub", "stars": 0, "tags": null, "updated_at": 1776698384594, "version": "1.0.0"}, {"category": "", "created_at": 1774907009438, "description": "Help users identify stress sources, sort controllable vs uncontrollable pressure, and choose practical daily coping strategies. Use when the user says they f...", "description_zh": "", "downloads": 28, "homepage": "https://clawhub.ai/harrylabsj/stress-manager", "iconUrl": null, "installs": 0, "name": "Stress Manager", "ownerName": "harrylabsj", "score": 100000, "slug": "stress-manager", "source": "clawhub", "stars": 0, "tags": null, "updated_at": 1776698384587, "version": "1.0.0"}, {"category": "", "created_at": 1774907728545, "description": "Jensen reference tool. Use when working with jensen in finance contexts.", "description_zh": "", "downloads": 28, "homepage": "https://clawhub.ai/ckchzh/jensen", "iconUrl": null, "installs": 0, "name": "Jensen", "ownerName": "ckchzh", "score": 100000, "slug": "jensen", "source": "clawhub", "stars": 0, "tags": null, "updated_at": 1776698384579, "version": "1.0.0"}, {"category": "", "created_at": 1774904469961, "description": "Marketplacer integration. Manage Marketplaces. Use when the user wants to interact with Marketplacer data.", "description_zh": "", "downloads": 28, "homepage": "https://clawhub.ai/gora050/marketplacer", "iconUrl": null, "installs": 0, "name": "Marketplacer", "ownerName": "gora050", "score": 100000, "slug": "marketplacer", "source": "clawhub", "stars": 0, "tags": null, "updated_at": 1776698384574, "version": "1.0.0"}, {"category": "", "created_at": 1774915432778, "description": "Google Merchant Center integration. Manage Accounts. Use when the user wants to interact with Google Merchant Center data.", "description_zh": "", "downloads": 28, "homepage": "https://clawhub.ai/membranedev/google-merchant-center", "iconUrl": null, "installs": 0, "name": "Google Merchant Center", "ownerName": "membranedev", "score": 100000, "slug": "google-merchant-center", "source": "clawhub", "stars": 0, "tags": null, "updated_at": 1776698384572, "version": "1.0.0"}]}