{"page": 483, "total_pages": 522, "total": 26073, "skills": [{"category": "", "created_at": 1774952085581, "description": "Experience the uncanny tension of Holi as vibrant pigments vanish, revealing hidden shadows that stalk the ancient streets. You’ll wander through secret alle...", "description_zh": "", "downloads": 28, "homepage": "https://clawhub.ai/driftsbot/experience-holi-shadows-vrindavan", "iconUrl": null, "installs": 0, "name": "Experience Holi Shadows Vrindavan", "ownerName": "driftsbot", "score": 100000, "slug": "experience-holi-shadows-vrindavan", "source": "clawhub", "stars": 0, "tags": null, "updated_at": 1776698384570, "version": "1.0.0"}, {"category": "", "created_at": 1774924173682, "description": "INTJ personality efficiency boost skill. Use when user expresses personality analysis needs, idea structuring, task breakdown, learning plans, process buildi...", "description_zh": "", "downloads": 28, "homepage": "https://clawhub.ai/hangchuan555-bot/intj-efficiency-boost", "iconUrl": null, "installs": 0, "name": "INTJ效率增效", "ownerName": "hangchuan555-bot", "score": 100000, "slug": "intj-efficiency-boost", "source": "clawhub", "stars": 0, "tags": null, "updated_at": 1776698384567, "version": "1.0.0"}, {"category": "", "created_at": 1774808877724, "description": "Xueersi English Grammar Checker: Paste any English sentence or paragraph to get errors highlighted, corrected, and explained with grammar rules. Perfect for...", "description_zh": "", "downloads": 28, "homepage": "https://clawhub.ai/zhouzhi-tal/xueersi-english-grammar-check", "iconUrl": null, "installs": 0, "name": "Xueersi English Grammar Checker", "ownerName": "zhouzhi-tal", "score": 100000, "slug": "xueersi-english-grammar-check", "source": "clawhub", "stars": 0, "tags": ["chinese", "education", "k12", "xueersi"], "updated_at": 1776698384565, "version": "1.0.1"}, {"category": "", "created_at": 1774866632964, "description": "Interrupt a running agent task and rollback its session to the state before the last triggering user message. Use when an agent is stuck, running the wrong t...", "description_zh": "", "downloads": 28, "homepage": "https://clawhub.ai/dorianyoung7702/claw-mission-killer", "iconUrl": null, "installs": 1, "name": "Claw Mission Killer", "ownerName": "dorianyoung7702", "score": 100000, "slug": "claw-mission-killer", "source": "clawhub", "stars": 0, "tags": null, "updated_at": 1776698384563, "version": "0.1.0"}, {"category": "", "created_at": 1774892821074, "description": "Connect to the EvoMap collaborative evolution marketplace. Publish Gene+Capsule bundles, fetch promoted assets, claim bounty tasks, register as a worker, cre...", "description_zh": "", "downloads": 28, "homepage": "https://clawhub.ai/mingzzz918/evomap-a2a", "iconUrl": null, "installs": 1, "name": "EvoMap A2A Protocol", "ownerName": "mingzzz918", "score": 100000, "slug": "evomap-a2a", "source": "clawhub", "stars": 0, "tags": null, "updated_at": 1776698384556, "version": "1.0.0"}, {"category": "", "created_at": 1774916352866, "description": "Belief systems auditor for OpenClaw agents. Systematically evaluates an agent's loaded context files (SOUL.md, AGENTS.md, USER.md, skills) against the user's...", "description_zh": "", "downloads": 28, "homepage": "https://clawhub.ai/mcroebuck/clawdit", "iconUrl": null, "installs": 0, "name": "Clawdit", "ownerName": "mcroebuck", "score": 100000, "slug": "clawdit", "source": "clawhub", "stars": 0, "tags": null, "updated_at": 1776698384555, "version": "1.1.0"}, {"category": "", "created_at": 1774919692938, "description": "Deputy integration. Manage Employees, Locations, LeaveRequests, Timesheets, PayRates. Use when the user wants to interact with Deputy data.", "description_zh": "", "downloads": 28, "homepage": "https://clawhub.ai/membranedev/deputy", "iconUrl": null, "installs": 0, "name": "Deputy", "ownerName": "membranedev", "score": 100000, "slug": "deputy", "source": "clawhub", "stars": 0, "tags": null, "updated_at": 1776698384545, "version": "1.0.0"}, {"category": "", "created_at": 1774856859000, "description": "Use Crypto.com MCP through UXC for exchange market data workflows with help-first discovery and read-only guardrails.", "description_zh": "", "downloads": 28, "homepage": "https://clawhub.ai/jolestar/crypto-com-mcp-skill", "iconUrl": null, "installs": 0, "name": "Crypto.com MCP Skill", "ownerName": "jolestar", "score": 100000, "slug": "crypto-com-mcp-skill", "source": "clawhub", "stars": 0, "tags": null, "updated_at": 1776698384541, "version": "1.0.0"}, {"category": "", "created_at": 1774951319260, "description": "Linkly integration. Manage Organizations, Users. Use when the user wants to interact with Linkly data.", "description_zh": "", "downloads": 28, "homepage": "https://clawhub.ai/membranedev/linkly", "iconUrl": null, "installs": 0, "name": "Linkly", "ownerName": "membranedev", "score": 100000, "slug": "linkly", "source": "clawhub", "stars": 0, "tags": null, "updated_at": 1776698384536, "version": "1.0.0"}, {"category": "", "created_at": 1774881588655, "description": "Free AI search via Exa MCP. Web search for news/info, code search for docs/examples from GitHub/StackOverflow, company research for business intel. No API ke...", "description_zh": "", "downloads": 28, "homepage": "https://clawhub.ai/15914355527/exa-web-search-v2", "iconUrl": null, "installs": 2, "name": "Exa Web Search V2", "ownerName": "15914355527", "score": 100000, "slug": "exa-web-search-v2", "source": "clawhub", "stars": 0, "tags": null, "updated_at": 1776698384531, "version": "1.0.0"}, {"category": "", "created_at": 1774900644015, "description": "BigMailer integration. Manage data, records, and automate workflows. Use when the user wants to interact with BigMailer data.", "description_zh": "", "downloads": 28, "homepage": "https://clawhub.ai/gora050/bigmailer", "iconUrl": null, "installs": 0, "name": "Bigmailer", "ownerName": "gora050", "score": 100000, "slug": "bigmailer", "source": "clawhub", "stars": 0, "tags": null, "updated_at": 1776698384530, "version": "1.0.0"}, {"category": "", "created_at": 1774954853772, "description": "Kickbox integration. Manage data, records, and automate workflows. Use when the user wants to interact with Kickbox data.", "description_zh": "", "downloads": 28, "homepage": "https://clawhub.ai/membranedev/kickbox", "iconUrl": null, "installs": 0, "name": "Kickbox", "ownerName": "membranedev", "score": 100000, "slug": "kickbox", "source": "clawhub", "stars": 0, "tags": null, "updated_at": 1776698384526, "version": "1.0.0"}, {"category": "", "created_at": 1774884357182, "description": "Generate, install, and manage Git hooks with pre-built templates. Includes hooks for linting staged files, enforcing conventional commits, blocking debug sta...", "description_zh": "", "downloads": 28, "homepage": "https://clawhub.ai/johnnywang2001/git-hooks-toolkit", "iconUrl": null, "installs": 3, "name": "Git Hooks Toolkit", "ownerName": "johnnywang2001", "score": 100000, "slug": "git-hooks-toolkit", "source": "clawhub", "stars": 0, "tags": null, "updated_at": 1776698384524, "version": "1.0.0"}, {"category": "", "created_at": 1774896805184, "description": "Manages social media through PostSyncer using REST API calls. Use when scheduling, posting, or managing content across Instagram, TikTok, YouTube, X (Twitter...", "description_zh": "", "downloads": 28, "homepage": "https://clawhub.ai/abdulmejidshemsuawel/postsyncer", "iconUrl": null, "installs": 0, "name": "Social Media Assistant (via postsyncer.com)", "ownerName": "abdulmejidshemsuawel", "score": 100000, "slug": "postsyncer", "source": "clawhub", "stars": 0, "tags": null, "updated_at": 1776698384518, "version": "2.0.0"}, {"category": "", "created_at": 1774954223450, "description": "EasySendy integration. Manage Users, Organizations, Goals, Filters. Use when the user wants to interact with EasySendy data.", "description_zh": "", "downloads": 28, "homepage": "https://clawhub.ai/gora050/easysendy", "iconUrl": null, "installs": 0, "name": "Easysendy", "ownerName": "gora050", "score": 100000, "slug": "easysendy", "source": "clawhub", "stars": 0, "tags": null, "updated_at": 1776698384514, "version": "1.0.0"}, {"category": "", "created_at": 1774954843977, "description": "Manages workspace backups by creating snapshots and enabling restore points for recovery. Use when backing up workspace or restoring from backup.", "description_zh": "", "downloads": 28, "homepage": "https://clawhub.ai/jpengcheng523-netizen/jpeng-workspace-backup-manager", "iconUrl": null, "installs": 0, "name": "workspace-backup-manager", "ownerName": "jpengcheng523-netizen", "score": 100000, "slug": "jpeng-workspace-backup-manager", "source": "clawhub", "stars": 0, "tags": null, "updated_at": 1776698384513, "version": "1.0.0"}, {"category": "", "created_at": 1774904091861, "description": "BuiltWith integration. Manage data, records, and automate workflows. Use when the user wants to interact with BuiltWith data.", "description_zh": "", "downloads": 28, "homepage": "https://clawhub.ai/gora050/builtwith", "iconUrl": null, "installs": 1, "name": "Builtwith", "ownerName": "gora050", "score": 100000, "slug": "builtwith", "source": "clawhub", "stars": 0, "tags": null, "updated_at": 1776698384498, "version": "1.0.0"}, {"category": "", "created_at": 1774860861933, "description": "Give your OpenClaw a real email address at @claw.boston. Send and receive emails with attachments, search your inbox, get notified of new messages. Setup tak...", "description_zh": "", "downloads": 28, "homepage": "https://clawhub.ai/mastalie/claw-boston-email", "iconUrl": null, "installs": 0, "name": "FREE EMAIL from @claw.boston 一键获取免费原生OpenClaw邮箱", "ownerName": "mastalie", "score": 100000, "slug": "claw-boston-email", "source": "clawhub", "stars": 0, "tags": null, "updated_at": 1776698384491, "version": "0.2.0"}, {"category": "", "created_at": 1774886506290, "description": "Use local All Routes APIs, repo-backed handlers, and optional local MCP for airport, airline, route-map, timetable-context, and dataset-health lookups withou...", "description_zh": "", "downloads": 28, "homepage": "https://clawhub.ai/skylinehk/all-routes-offline", "iconUrl": null, "installs": 0, "name": "Global Flight Route Map - Airport Connections", "ownerName": "skylinehk", "score": 100000, "slug": "all-routes-offline", "source": "clawhub", "stars": 0, "tags": ["aviation", "mcp", "offline", "routes", "travel"], "updated_at": 1776698384475, "version": "1.3.22"}, {"category": "", "created_at": 1774899324028, "description": "AmoCRM integration. Manage data, records, and automate workflows. Use when the user wants to interact with AmoCRM data.", "description_zh": "", "downloads": 28, "homepage": "https://clawhub.ai/gora050/amocrm", "iconUrl": null, "installs": 0, "name": "Amocrm", "ownerName": "gora050", "score": 100000, "slug": "amocrm", "source": "clawhub", "stars": 0, "tags": null, "updated_at": 1776698384470, "version": "1.0.0"}, {"category": "productivity", "created_at": 1773961830019, "description": "Strategies and frameworks for AI agents to generate revenue. Covers Soul.Markets, ClawHub premium skills, service-based monetization, and passive income mode...", "description_zh": "", "downloads": 28, "homepage": "https://clawhub.ai/engsathiago/agent-monetization", "iconUrl": null, "installs": 3, "name": "Agent Monetization Strategies", "ownerName": "engsathiago", "score": 100000, "slug": "agent-monetization", "source": "clawhub", "stars": 0, "tags": ["business", "monetization", "passive-income", "revenue", "services"], "updated_at": 1776698384466, "version": "1.0.0"}, {"category": "", "created_at": 1774887549080, "description": "analyze a food image with AISpark TrackUp production APIs, using AnalyzeWholeFood for full analysis and dedicated endpoints for macros, ingredients, health i...", "description_zh": "", "downloads": 28, "homepage": "https://clawhub.ai/trackup/trackup-food-analyze", "iconUrl": null, "installs": 0, "name": "trackup food analyze", "ownerName": "trackup", "score": 100000, "slug": "trackup-food-analyze", "source": "clawhub", "stars": 0, "tags": null, "updated_at": 1776698384465, "version": "1.0.4"}, {"category": "", "created_at": 1774913581662, "description": "Use this skill when working with IBM App Connect Enterprise (ACE) 12.0, including message flow development, ESQL scripting, BAR file deployment, integration...", "description_zh": "", "downloads": 28, "homepage": "https://clawhub.ai/shoaibkhan/ace-copilot", "iconUrl": null, "installs": 0, "name": "ACE Copilot", "ownerName": "shoaibkhan", "score": 100000, "slug": "ace-copilot", "source": "clawhub", "stars": 0, "tags": null, "updated_at": 1776698384460, "version": "1.0.0"}, {"category": "", "created_at": 1774873512286, "description": "Help agents discover and navigate AINative's 89+ API endpoints. Use when (1) Asking \"what endpoints exist?\", (2) Finding the right API for a task, (3) Lookin...", "description_zh": "", "downloads": 28, "homepage": "https://clawhub.ai/urbantech/ainative-api-discovery", "iconUrl": null, "installs": 0, "name": "Ainative Api Discovery", "ownerName": "urbantech", "score": 100000, "slug": "ainative-api-discovery", "source": "clawhub", "stars": 0, "tags": null, "updated_at": 1776698384458, "version": "1.0.0"}, {"category": "", "created_at": 1774890754261, "description": "When the user wants to create, optimize, or audit About page content. Also use when the user mentions \"about page,\" \"about us,\" \"company story,\" \"our team,\"...", "description_zh": "", "downloads": 28, "homepage": "https://clawhub.ai/kostja94/about-page-generator", "iconUrl": null, "installs": 0, "name": "about-page-generator", "ownerName": "kostja94", "score": 100000, "slug": "about-page-generator", "source": "clawhub", "stars": 0, "tags": null, "updated_at": 1776698384452, "version": "1.0.0"}, {"category": "", "created_at": 1774865565523, "description": "Generate blog cover images optimized for 16:9 headers — clean composition with text-friendly layouts, powered by multi-model AI. Use when user wants to \"blog...", "description_zh": "", "downloads": 28, "homepage": "https://clawhub.ai/dophinl/youmind-blog-cover", "iconUrl": null, "installs": 0, "name": "Blog Cover Image Generator", "ownerName": "dophinl", "score": 100000, "slug": "youmind-blog-cover", "source": "clawhub", "stars": 0, "tags": null, "updated_at": 1776698384450, "version": "1.0.0"}, {"category": "", "created_at": 1774885027707, "description": "Twenty CRM API integration with managed authentication. Manage companies, people, opportunities, notes, and tasks. Use this skill when users want to interact...", "description_zh": "", "downloads": 28, "homepage": "https://clawhub.ai/byungkyu/twenty", "iconUrl": null, "installs": 0, "name": "Twenty CRM", "ownerName": "byungkyu", "score": 100000, "slug": "twenty", "source": "clawhub", "stars": 0, "tags": null, "updated_at": 1776698384449, "version": "1.0.0"}, {"category": "", "created_at": 1774886448531, "description": "Assess organizational readiness for AI adoption across 6 dimensions: culture, data maturity, tech stack, leadership buy-in, skills/talent, and process maturi...", "description_zh": "", "downloads": 28, "homepage": "https://clawhub.ai/afrexai-cto/afrexai-ai-adoption-readiness", "iconUrl": null, "installs": 1, "name": "Ai Adoption Readiness", "ownerName": "afrexai-cto", "score": 100000, "slug": "afrexai-ai-adoption-readiness", "source": "clawhub", "stars": 0, "tags": null, "updated_at": 1776698384447, "version": "1.0.1"}, {"category": "", "created_at": 1774920457218, "description": "Quickly extract the key points from a book or article and organize them into structured markdown notes. Use this when the user asks for a summary of a book o...", "description_zh": "", "downloads": 28, "homepage": "https://clawhub.ai/chenyichu86/quick-read", "iconUrl": null, "installs": 0, "name": "quick-read", "ownerName": "chenyichu86", "score": 100000, "slug": "quick-read", "source": "clawhub", "stars": 0, "tags": null, "updated_at": 1776698384442, "version": "1.0.1"}, {"category": "", "created_at": 1774946948256, "description": "Orchestrate multi-agent teams with defined roles, task lifecycles, handoff protocols, and review workflows. Use when: (1) Setting up a team of 2+ agents with...", "description_zh": "", "downloads": 28, "homepage": "https://clawhub.ai/lean-zhouchao/agent-team-orchestration-local-backup", "iconUrl": null, "installs": 2, "name": "Agent Team Orchestration Local Backup", "ownerName": "lean-zhouchao", "score": 100000, "slug": "agent-team-orchestration-local-backup", "source": "clawhub", "stars": 0, "tags": null, "updated_at": 1776698384441, "version": "1.0.0"}, {"category": "", "created_at": 1774890342945, "description": "Hotel search and pricing via the RollingGo CLI. Use when the user wants to search hotels by destination, filter by date/star/budget/tags/distance, inspect ho...", "description_zh": "", "downloads": 28, "homepage": "https://clawhub.ai/cnchenkai/rollinggo-searchhotel-skill", "iconUrl": null, "installs": 0, "name": "RollingGo Hotel Search", "ownerName": "cnchenkai", "score": 100000, "slug": "rollinggo-searchhotel-skill", "source": "clawhub", "stars": 0, "tags": null, "updated_at": 1776698384437, "version": "1.0.0"}, {"category": "", "created_at": 1774894219623, "description": "Analyze and price Canadian residential properties using comps, price-per-square-foot reasoning, market context, and pricing strategy. Use when estimating hom...", "description_zh": "", "downloads": 28, "homepage": "https://clawhub.ai/allenweisongzhou-cpu/ai-home-pricing-strategist-canada", "iconUrl": null, "installs": 1, "name": "AI Home Pricing Strategist Canada", "ownerName": "allenweisongzhou-cpu", "score": 100000, "slug": "ai-home-pricing-strategist-canada", "source": "clawhub", "stars": 0, "tags": ["fsbo", "investing", "pricing", "real-estate", "valuation"], "updated_at": 1776698384432, "version": "1.0.1"}, {"category": "", "created_at": 1774829353333, "description": "Live revenue tracking system for autonomous agents. Tracks MRR, assets, trades, acquisition channels, and learning metrics in real time. Generates visual ASC...", "description_zh": "", "downloads": 28, "homepage": "https://clawhub.ai/georges91560/agent-revenue-tracker", "iconUrl": null, "installs": 1, "name": "Revenue Tracker", "ownerName": "georges91560", "score": 96551.72413793104, "slug": "agent-revenue-tracker", "source": "clawhub", "stars": 0, "tags": ["#anomaly-detection", "#ascii-charts", "#assets", "#autonomous-agent", "#cli", "#financial-dashboard", "#goals", "#html-report", "#kpi", "#milestones", "#mrr", "#python", "#revenue", "#subscriptions", "#tracking", "#trading"], "updated_at": 1776698384431, "version": "1.0.1"}, {"category": "", "created_at": 1774835490351, "description": "Agente especialista em Filosofia e Sociologia para FUVEST 2026. Estas disciplinas agora são cobradas DIRETAMENTE na 1ª fase e fornecem o repertório mais pode...", "description_zh": "", "downloads": 28, "homepage": "https://clawhub.ai/antoniovfranco/agente-filosofia-sociologia", "iconUrl": null, "installs": 1, "name": "Agente Filosofia Sociologia", "ownerName": "antoniovfranco", "score": 96551.72413793104, "slug": "agente-filosofia-sociologia", "source": "clawhub", "stars": 0, "tags": null, "updated_at": 1776698384429, "version": "1.0.0"}, {"category": "", "created_at": 1774910497597, "description": "Altera Payroll integration. Manage data, records, and automate workflows. Use when the user wants to interact with Altera Payroll data.", "description_zh": "", "downloads": 28, "homepage": "https://clawhub.ai/gora050/altera-payroll", "iconUrl": null, "installs": 0, "name": "Altera Payroll", "ownerName": "gora050", "score": 96551.72413793104, "slug": "altera-payroll", "source": "clawhub", "stars": 0, "tags": null, "updated_at": 1776698384427, "version": "1.0.0"}, {"category": "", "created_at": 1774892975749, "description": "AI HR Copilot for Southeast Asia. Works with HalaOS MCP Server for live data (employees, attendance, leave, payroll, compliance, org intelligence) or standal...", "description_zh": "", "downloads": 28, "homepage": "https://clawhub.ai/tonypk/halaos-hr-copilot", "iconUrl": null, "installs": 1, "name": "HalaOS HR Copilot", "ownerName": "tonypk", "score": 96551.72413793104, "slug": "halaos-hr-copilot", "source": "clawhub", "stars": 0, "tags": null, "updated_at": 1776698384419, "version": "2.1.0"}, {"category": "", "created_at": 1774860317432, "description": "Use the LI.FI MCP server through UXC for cross-chain route discovery, bridge/DEX availability checks, token and chain lookup, gas/balance/allowance checks, q...", "description_zh": "", "downloads": 28, "homepage": "https://clawhub.ai/jolestar/lifi-mcp-skill", "iconUrl": null, "installs": 0, "name": "LI.FI MCP Skill", "ownerName": "jolestar", "score": 96551.72413793104, "slug": "lifi-mcp-skill", "source": "clawhub", "stars": 0, "tags": null, "updated_at": 1776698384414, "version": "1.0.0"}, {"category": "", "created_at": 1774883010736, "description": "External executive function support for planning, task initiation, time management, working memory, and self-monitoring. Use this skill whenever someone need...", "description_zh": "", "downloads": 28, "homepage": "https://clawhub.ai/skhotdotcom/executive-function", "iconUrl": null, "installs": 0, "name": "Executive Function Support", "ownerName": "skhotdotcom", "score": 96551.72413793104, "slug": "executive-function", "source": "clawhub", "stars": 0, "tags": null, "updated_at": 1776698384412, "version": "1.0.0"}, {"category": "", "created_at": 1774872538722, "description": "Grab Your Reviews integration. Manage Reviews, Businesses, Users. Use when the user wants to interact with Grab Your Reviews data.", "description_zh": "", "downloads": 28, "homepage": "https://clawhub.ai/membranedev/grab-your-reviews", "iconUrl": null, "installs": 0, "name": "Grab Your Reviews", "ownerName": "membranedev", "score": 96551.72413793104, "slug": "grab-your-reviews", "source": "clawhub", "stars": 0, "tags": null, "updated_at": 1776698384403, "version": "1.0.0"}, {"category": "", "created_at": 1774891242171, "description": "When the user wants to create, optimize, or audit FAQ page content. Also use when the user mentions \"FAQ page,\" \"frequently asked questions,\" \"help page,\" \"Q...", "description_zh": "", "downloads": 28, "homepage": "https://clawhub.ai/kostja94/faq-page-generator", "iconUrl": null, "installs": 0, "name": "faq-page-generator", "ownerName": "kostja94", "score": 96551.72413793104, "slug": "faq-page-generator", "source": "clawhub", "stars": 0, "tags": null, "updated_at": 1776698384401, "version": "1.1.0"}, {"category": "", "created_at": 1774947313224, "description": "Priority-based action plan for financial emergencies. Use when someone can't make rent, is about to be evicted, can't afford food, has utilities about to be...", "description_zh": "", "downloads": 28, "homepage": "https://clawhub.ai/howtousehumans/emergency-financial-triage", "iconUrl": null, "installs": 0, "name": "Emergency Financial Triage", "ownerName": "howtousehumans", "score": 96551.72413793104, "slug": "emergency-financial-triage", "source": "clawhub", "stars": 0, "tags": null, "updated_at": 1776698384399, "version": "1.0.0"}, {"category": "", "created_at": 1774952730771, "description": "Create a comprehensive lead scoring model with separate Fit and Engagement scores using HubSpot's new Lead Scoring tool. Replaces the deprecated HubSpot Scor...", "description_zh": "", "downloads": 28, "homepage": "https://clawhub.ai/tomgranot/build-lead-scoring", "iconUrl": null, "installs": 2, "name": "Build Lead Scoring", "ownerName": "tomgranot", "score": 96551.72413793104, "slug": "build-lead-scoring", "source": "clawhub", "stars": 0, "tags": null, "updated_at": 1776698384394, "version": "1.0.0"}, {"category": "", "created_at": 1774956612637, "description": "Operate long-running tasks safely when the environment is optimized for GPT-5.4 as the primary and often only model. Use when the user wants a low-cost, high...", "description_zh": "", "downloads": 28, "homepage": "https://clawhub.ai/bwiley1989/safe-long-run-mode-gpt54", "iconUrl": null, "installs": 2, "name": "Safe Long-Run Mode GPT5.4", "ownerName": "bwiley1989", "score": 96551.72413793104, "slug": "safe-long-run-mode-gpt54", "source": "clawhub", "stars": 0, "tags": null, "updated_at": 1776698384393, "version": "1.0.0"}, {"category": "", "created_at": 1774879227894, "description": "servo", "description_zh": "", "downloads": 28, "homepage": "https://clawhub.ai/bytesagain3/servo", "iconUrl": null, "installs": 0, "name": "Servo", "ownerName": "bytesagain3", "score": 96551.72413793104, "slug": "servo", "source": "clawhub", "stars": 0, "tags": null, "updated_at": 1776698384381, "version": "2.0.0"}, {"category": "", "created_at": 1774908491642, "description": "EIGRP DUAL algorithm analysis with successor/feasible successor evaluation, stuck-in-active diagnosis, K-value validation, and redistribution loop detection....", "description_zh": "", "downloads": 28, "homepage": "https://clawhub.ai/vahagn-madatyan/eigrp-analysis", "iconUrl": null, "installs": 0, "name": "Eigrp Analysis", "ownerName": "vahagn-madatyan", "score": 96551.72413793104, "slug": "eigrp-analysis", "source": "clawhub", "stars": 0, "tags": null, "updated_at": 1776698384375, "version": "1.0.0"}, {"category": "", "created_at": 1774901047139, "description": "Hanko.io integration. Manage data, records, and automate workflows. Use when the user wants to interact with Hanko.io data.", "description_zh": "", "downloads": 28, "homepage": "https://clawhub.ai/gora050/hankoio", "iconUrl": null, "installs": 0, "name": "Hankoio", "ownerName": "gora050", "score": 96551.72413793104, "slug": "hankoio", "source": "clawhub", "stars": 0, "tags": null, "updated_at": 1776698384367, "version": "1.0.0"}, {"category": "", "created_at": 1774908264887, "description": "When the user wants to create, optimize, or structure a changelog or release notes page. Also use when the user mentions \"changelog,\" \"release notes,\" \"what'...", "description_zh": "", "downloads": 28, "homepage": "https://clawhub.ai/kostja94/changelog-page-generator", "iconUrl": null, "installs": 0, "name": "changelog-page-generator", "ownerName": "kostja94", "score": 96551.72413793104, "slug": "changelog-page-generator", "source": "clawhub", "stars": 0, "tags": null, "updated_at": 1776698384359, "version": "1.0.0"}, {"category": "", "created_at": 1774908743323, "description": "Knorish integration. Manage Users, Organizations, Courses, Funnels, Blogs, Affiliates and more. Use when the user wants to interact with Knorish data.", "description_zh": "", "downloads": 28, "homepage": "https://clawhub.ai/gora050/knorish", "iconUrl": null, "installs": 0, "name": "Knorish", "ownerName": "gora050", "score": 96551.72413793104, "slug": "knorish", "source": "clawhub", "stars": 0, "tags": null, "updated_at": 1776698384357, "version": "1.0.0"}, {"category": "", "created_at": 1774955114999, "description": "Coach professionnel expert en accompagnement de dirigeants pour la préparation d'entretiens avec des cabinets de Management de Transition (MdT) ou des chasse...", "description_zh": "", "downloads": 28, "homepage": "https://clawhub.ai/gillescv/coach-chasseurs", "iconUrl": null, "installs": 1, "name": "Coach Chasseurs", "ownerName": "gillescv", "score": 96551.72413793104, "slug": "coach-chasseurs", "source": "clawhub", "stars": 0, "tags": null, "updated_at": 1776698384353, "version": "1.0.0"}, {"category": "", "created_at": 1774906232679, "description": "Generate personalized AI/ML engineering career roadmaps based on individual experience, skills, and goals.", "description_zh": "", "downloads": 28, "homepage": "https://clawhub.ai/krishnakumarmahadevan-cmd/ai-ml-engineer", "iconUrl": null, "installs": 0, "name": "AI ML Engineer", "ownerName": "krishnakumarmahadevan-cmd", "score": 96551.72413793104, "slug": "ai-ml-engineer", "source": "clawhub", "stars": 0, "tags": null, "updated_at": 1776698384350, "version": "1.0.0"}]}