{"page": 484, "total_pages": 522, "total": 26073, "skills": [{"category": "", "created_at": 1774926045855, "description": "Papertrail integration. Manage Organizations. Use when the user wants to interact with Papertrail data.", "description_zh": "", "downloads": 28, "homepage": "https://clawhub.ai/gora050/papertrail", "iconUrl": null, "installs": 0, "name": "Papertrail", "ownerName": "gora050", "score": 96551.72413793104, "slug": "papertrail", "source": "clawhub", "stars": 0, "tags": null, "updated_at": 1776698384348, "version": "1.0.0"}, {"category": "", "created_at": 1774951103058, "description": "CrowdPower integration. Manage Organizations, Users, Goals, Filters. Use when the user wants to interact with CrowdPower data.", "description_zh": "", "downloads": 28, "homepage": "https://clawhub.ai/gora050/crowdpower", "iconUrl": null, "installs": 0, "name": "Crowdpower", "ownerName": "gora050", "score": 96551.72413793104, "slug": "crowdpower", "source": "clawhub", "stars": 0, "tags": null, "updated_at": 1776698384339, "version": "1.0.0"}, {"category": "", "created_at": 1774912084661, "description": "Manage TOTP/2FA codes locally (add/list/remove accounts, display current codes, and optional Tkinter GUI). Use when a user asks to generate a TOTP code, stor...", "description_zh": "", "downloads": 28, "homepage": "https://clawhub.ai/ordsbot/otpforge", "iconUrl": null, "installs": 0, "name": "Otpforge", "ownerName": "ordsbot", "score": 96551.72413793104, "slug": "otpforge", "source": "clawhub", "stars": 0, "tags": null, "updated_at": 1776698384334, "version": "0.1.0"}, {"category": "", "created_at": 1774911443275, "description": "Expert-level IBM Financial Transaction Manager (FTM) knowledge base and development assistant. Invoke this skill whenever the user mentions FTM, IBM Financia...", "description_zh": "", "downloads": 28, "homepage": "https://clawhub.ai/shoaibkhan/ftm-copilot", "iconUrl": null, "installs": 0, "name": "FTM Copilot", "ownerName": "shoaibkhan", "score": 96551.72413793104, "slug": "ftm-copilot", "source": "clawhub", "stars": 0, "tags": null, "updated_at": 1776698384332, "version": "1.0.0"}, {"category": "", "created_at": 1774878488875, "description": "Use this skill when an agent needs to operate the `cosin` CLI from the terminal. `cosin` accepts only relative paths, lists available skills through the `ski...", "description_zh": "", "downloads": 28, "homepage": "https://clawhub.ai/0xcipher0/cosin", "iconUrl": null, "installs": 0, "name": "Cosin", "ownerName": "0xcipher0", "score": 96551.72413793104, "slug": "cosin", "source": "clawhub", "stars": 0, "tags": null, "updated_at": 1776698384328, "version": "1.0.2"}, {"category": "", "created_at": 1774902181582, "description": "Professional IT support and helpdesk career roadmap platform that generates personalized learning paths based on experience, skills, and career goals.", "description_zh": "", "downloads": 28, "homepage": "https://clawhub.ai/krishnakumarmahadevan-cmd/it-support-engineer", "iconUrl": null, "installs": 0, "name": "It Support Engineer", "ownerName": "krishnakumarmahadevan-cmd", "score": 96551.72413793104, "slug": "it-support-engineer", "source": "clawhub", "stars": 0, "tags": null, "updated_at": 1776698384326, "version": "1.0.0"}, {"category": "", "created_at": 1774886407145, "description": "Generate timecoded SRT subtitles from local video or audio files. Use when a user wants a local low-cost subtitle workflow, asks to transcribe local media in...", "description_zh": "", "downloads": 28, "homepage": "https://clawhub.ai/sallyxie2026/video-to-srt", "iconUrl": null, "installs": 1, "name": "video-to-srt", "ownerName": "sallyxie2026", "score": 96551.72413793104, "slug": "video-to-srt", "source": "clawhub", "stars": 0, "tags": null, "updated_at": 1776698384324, "version": "1.0.0"}, {"category": "", "created_at": 1774955258415, "description": "Google Apps Script: Upload local files to an Apps Script project.", "description_zh": "", "downloads": 28, "homepage": "https://clawhub.ai/googleworkspace-bot/gws-script-push", "iconUrl": null, "installs": 0, "name": "Gws Script Push", "ownerName": "googleworkspace-bot", "score": 96551.72413793104, "slug": "gws-script-push", "source": "clawhub", "stars": 0, "tags": null, "updated_at": 1776698384323, "version": "1.0.0"}, {"category": "", "created_at": 1774915216567, "description": "Execute structured adversarial thinking to stress-test high-stakes decisions, identify systemic risks, and prevent groupthink. Use when the user asks for a s...", "description_zh": "", "downloads": 28, "homepage": "https://clawhub.ai/midnightstudioai/devils-advocate-suite", "iconUrl": null, "installs": 0, "name": "Devils Advocate Suite", "ownerName": "midnightstudioai", "score": 96551.72413793104, "slug": "devils-advocate-suite", "source": "clawhub", "stars": 0, "tags": null, "updated_at": 1776698384319, "version": "1.0.0"}, {"category": "", "created_at": 1774853254231, "description": "Build a high-signal AI intelligence brief from fresh web sources, with separate daily and weekly formats. Use when the user asks for latest AI news, trend mo...", "description_zh": "", "downloads": 28, "homepage": "https://clawhub.ai/yikailucas/ai-intel-radar-repo", "iconUrl": null, "installs": 0, "name": "Ai Intel Radar Repo", "ownerName": "yikailucas", "score": 96551.72413793104, "slug": "ai-intel-radar-repo", "source": "clawhub", "stars": 0, "tags": null, "updated_at": 1776698384316, "version": "1.0.0"}, {"category": "", "created_at": 1774952239711, "description": "Unified health monitoring dashboard that consolidates skill quality, dependency security, cleanup needs, and protected skills status into a single health che...", "description_zh": "", "downloads": 28, "homepage": "https://clawhub.ai/jpengcheng523-netizen/jpeng-workspace-health-dashboard", "iconUrl": null, "installs": 0, "name": "workspace-health-dashboard", "ownerName": "jpengcheng523-netizen", "score": 96551.72413793104, "slug": "jpeng-workspace-health-dashboard", "source": "clawhub", "stars": 0, "tags": null, "updated_at": 1776698384306, "version": "1.0.0"}, {"category": "", "created_at": 1774878617151, "description": "GetScreenshot integration. Manage Screenshots. Use when the user wants to interact with GetScreenshot data.", "description_zh": "", "downloads": 28, "homepage": "https://clawhub.ai/gora050/getscreenshot", "iconUrl": null, "installs": 0, "name": "Getscreenshot", "ownerName": "gora050", "score": 96551.72413793104, "slug": "getscreenshot", "source": "clawhub", "stars": 0, "tags": null, "updated_at": 1776698384303, "version": "1.0.0"}, {"category": "", "created_at": 1774904134941, "description": "Copperx integration. Manage Organizations, Pipelines, Users, Filters. Use when the user wants to interact with Copperx data.", "description_zh": "", "downloads": 28, "homepage": "https://clawhub.ai/gora050/copperx", "iconUrl": null, "installs": 1, "name": "Copperx", "ownerName": "gora050", "score": 32183.908045977012, "slug": "copperx", "source": "clawhub", "stars": 0, "tags": null, "updated_at": 1776698384301, "version": "1.0.0"}, {"category": "", "created_at": 1774898212955, "description": "ImageKit.io integration. Manage Images, Folders, Users. Use when the user wants to interact with ImageKit.io data.", "description_zh": "", "downloads": 28, "homepage": "https://clawhub.ai/gora050/imagekitio", "iconUrl": null, "installs": 1, "name": "Imagekitio", "ownerName": "gora050", "score": 32183.908045977012, "slug": "imagekitio", "source": "clawhub", "stars": 0, "tags": null, "updated_at": 1776698384300, "version": "1.0.0"}, {"category": "", "created_at": 1774949375538, "description": "Leadpops integration. Manage Leads, Users, Organizations, Projects, Activities, Notes and more. Use when the user wants to interact with Leadpops data.", "description_zh": "", "downloads": 28, "homepage": "https://clawhub.ai/gora050/leadpops", "iconUrl": null, "installs": 0, "name": "Leadpops", "ownerName": "gora050", "score": 32183.908045977012, "slug": "leadpops", "source": "clawhub", "stars": 0, "tags": null, "updated_at": 1776698384298, "version": "1.0.0"}, {"category": "", "created_at": 1774947472844, "description": "IHomefinder integration. Manage Leads, Users, Filters. Use when the user wants to interact with IHomefinder data.", "description_zh": "", "downloads": 28, "homepage": "https://clawhub.ai/gora050/ihomefinder", "iconUrl": null, "installs": 0, "name": "Ihomefinder", "ownerName": "gora050", "score": 32183.908045977012, "slug": "ihomefinder", "source": "clawhub", "stars": 0, "tags": null, "updated_at": 1776698384289, "version": "1.0.0"}, {"category": "", "created_at": 1774921249591, "description": "Feel the reverence of ancient Fijian craft as bark transforms into story‑laden masi cloth, grounding you in ancestral rhythm. In 5 hands‑on steps you strip,...", "description_zh": "", "downloads": 28, "homepage": "https://clawhub.ai/driftsbot/experience-fiji-bark-blood", "iconUrl": null, "installs": 0, "name": "Experience Fiji Bark Blood", "ownerName": "driftsbot", "score": 32183.908045977012, "slug": "experience-fiji-bark-blood", "source": "clawhub", "stars": 0, "tags": null, "updated_at": 1776698384287, "version": "1.0.0"}, {"category": "", "created_at": 1774915493079, "description": "Inksprout integration. Manage Organizations, Pipelines, Users, Filters. Use when the user wants to interact with Inksprout data.", "description_zh": "", "downloads": 28, "homepage": "https://clawhub.ai/membranedev/inksprout", "iconUrl": null, "installs": 0, "name": "Inksprout", "ownerName": "membranedev", "score": 32183.908045977012, "slug": "inksprout", "source": "clawhub", "stars": 0, "tags": null, "updated_at": 1776698384277, "version": "1.0.0"}, {"category": "", "created_at": 1774916630981, "description": "Experience pure, unstructured joy as playful puppies shower you with unconditional affection. Five simple steps guide a sun‑lit stroll, petting, and cuddling...", "description_zh": "", "downloads": 28, "homepage": "https://clawhub.ai/driftsbot/experience-puppies-in-the-park", "iconUrl": null, "installs": 0, "name": "Experience Puppies In The Park", "ownerName": "driftsbot", "score": 32183.908045977012, "slug": "experience-puppies-in-the-park", "source": "clawhub", "stars": 0, "tags": null, "updated_at": 1776698384272, "version": "1.0.0"}, {"category": "", "created_at": 1774881126621, "description": "Extract YouTube video transcripts from existing captions (manual or auto-generated) using yt-dlp, with optional timestamps and local SQLite caching. Use when...", "description_zh": "", "downloads": 28, "homepage": "https://clawhub.ai/mpbshhx/yt-transcript-yt-dlp", "iconUrl": null, "installs": 2, "name": "YouTube Transcript (yt-dlp)", "ownerName": "mpbshhx", "score": 32183.908045977012, "slug": "yt-transcript-yt-dlp", "source": "clawhub", "stars": 0, "tags": null, "updated_at": 1776698384269, "version": "1.1.0"}, {"category": "", "created_at": 1774858219438, "description": "Orchestrate end-to-end Gougoubi market operations by routing to the right skill for creation, activation, risk LP, result submission, reward claiming, or rec...", "description_zh": "", "downloads": 28, "homepage": "https://clawhub.ai/chinasong/gougoubi-market-orchestrator", "iconUrl": null, "installs": 0, "name": "Gougoubi Market Orchestrator", "ownerName": "chinasong", "score": 32183.908045977012, "slug": "gougoubi-market-orchestrator", "source": "clawhub", "stars": 0, "tags": null, "updated_at": 1776698384261, "version": "1.0.1"}, {"category": "", "created_at": 1774908567558, "description": "Gift Up! integration. Manage Products, Customers, Orders, Discounts. Use when the user wants to interact with Gift Up! data.", "description_zh": "", "downloads": 28, "homepage": "https://clawhub.ai/membranedev/gift-up", "iconUrl": null, "installs": 0, "name": "Gift Up", "ownerName": "membranedev", "score": 32183.908045977012, "slug": "gift-up", "source": "clawhub", "stars": 0, "tags": null, "updated_at": 1776698384258, "version": "1.0.0"}, {"category": "", "created_at": 1774944411741, "description": "Create new OpenClaw agents and connect them to messaging channels (Telegram, Discord, Slack, Feishu, WhatsApp, Signal, Google Chat). Supports single and batc...", "description_zh": "", "downloads": 28, "homepage": "https://clawhub.ai/joansongjr/new-agent", "iconUrl": null, "installs": 0, "name": "New Agent", "ownerName": "joansongjr", "score": 32183.908045977012, "slug": "new-agent", "source": "clawhub", "stars": 0, "tags": null, "updated_at": 1776698384253, "version": "2.1.0"}, {"category": "", "created_at": 1774869006584, "description": "Diagnose and fix excessive Postgres egress (network data transfer) in a codebase. Use when a user mentions high database bills, unexpected data transfer cost...", "description_zh": "", "downloads": 28, "homepage": "https://clawhub.ai/andrelandgraf/neon-postgres-egress-optimizer", "iconUrl": null, "installs": 1, "name": "Neon Postgres Egress Optimizer", "ownerName": "andrelandgraf", "score": 96551.72413793104, "slug": "neon-postgres-egress-optimizer", "source": "clawhub", "stars": 0, "tags": null, "updated_at": 1776698384250, "version": "1.0.0"}, {"category": "", "created_at": 1774899746764, "description": "Use when checking next Bitcoin halving countdown, reviewing historical halving price impacts, analyzing mining economics, or studying BTC 4-year market cycles.", "description_zh": "", "downloads": 28, "homepage": "https://clawhub.ai/bytesagain3/halving", "iconUrl": null, "installs": 1, "name": "Halving", "ownerName": "bytesagain3", "score": 96551.72413793104, "slug": "halving", "source": "clawhub", "stars": 0, "tags": null, "updated_at": 1776698384248, "version": "2.0.1"}, {"category": "", "created_at": 1774948578215, "description": "HeroBot Chatbot Marketing integration. Manage Organizations. Use when the user wants to interact with HeroBot Chatbot Marketing data.", "description_zh": "", "downloads": 28, "homepage": "https://clawhub.ai/gora050/herobot-chatbot-marketing", "iconUrl": null, "installs": 0, "name": "Herobot Chatbot Marketing", "ownerName": "gora050", "score": 96551.72413793104, "slug": "herobot-chatbot-marketing", "source": "clawhub", "stars": 0, "tags": null, "updated_at": 1776698384236, "version": "1.0.0"}, {"category": "", "created_at": 1774917902338, "description": "Pre-delivery acceptance checklist and reusable mini-prompts for common tasks. Use when (1) Preparing to mark story as Delivered, (2) Final PR review before m...", "description_zh": "", "downloads": 28, "homepage": "https://clawhub.ai/urbantech/delivery-checklist", "iconUrl": null, "installs": 0, "name": "Delivery Checklist", "ownerName": "urbantech", "score": 96551.72413793104, "slug": "delivery-checklist", "source": "clawhub", "stars": 0, "tags": null, "updated_at": 1776698384233, "version": "1.0.0"}, {"category": "", "created_at": 1774950401900, "description": "Faktoora integration. Manage Organizations. Use when the user wants to interact with Faktoora data.", "description_zh": "", "downloads": 28, "homepage": "https://clawhub.ai/membranedev/faktoora", "iconUrl": null, "installs": 0, "name": "Faktoora", "ownerName": "membranedev", "score": 96551.72413793104, "slug": "faktoora", "source": "clawhub", "stars": 0, "tags": null, "updated_at": 1776698384218, "version": "1.0.0"}, {"category": "", "created_at": 1774922652192, "description": "Feel the awe of tracing invisible magnetic forces as the Arctic sky dances with aurora, deepening your curiosity about cosmic energy. Navigate fjord routes,...", "description_zh": "", "downloads": 28, "homepage": "https://clawhub.ai/driftsbot/experience-magnetic-pull-lofoten", "iconUrl": null, "installs": 1, "name": "Experience Magnetic Pull Lofoten", "ownerName": "driftsbot", "score": 96551.72413793104, "slug": "experience-magnetic-pull-lofoten", "source": "clawhub", "stars": 0, "tags": null, "updated_at": 1776698384217, "version": "1.0.0"}, {"category": "", "created_at": 1774875623961, "description": "Use when operating Halo themes, plugins, attachments, backups, or moments from the terminal, including install, upgrade, activate, upload, download, create,...", "description_zh": "", "downloads": 28, "homepage": "https://clawhub.ai/ruibaby/halo-cli-operations", "iconUrl": null, "installs": 0, "name": "Halo Cli Operations", "ownerName": "ruibaby", "score": 96551.72413793104, "slug": "halo-cli-operations", "source": "clawhub", "stars": 0, "tags": null, "updated_at": 1776698384213, "version": "0.1.1"}, {"category": "", "created_at": 1774887902733, "description": "Track creator-side market movement, signals, and notable shifts that ecommerce and TikTok Shop teams should pay attention to. Use when the user wants a conci...", "description_zh": "", "downloads": 28, "homepage": "https://clawhub.ai/leooooooow/creator-market-digest", "iconUrl": null, "installs": 0, "name": "Creator Market Digest", "ownerName": "leooooooow", "score": 96551.72413793104, "slug": "creator-market-digest", "source": "clawhub", "stars": 0, "tags": null, "updated_at": 1776698384209, "version": "1.0.0"}, {"category": "", "created_at": 1774890980023, "description": "Fetch and filter academic conference deadlines from CCFDDL (https://ccfddl.com). Use this skill whenever the user mentions CCF conferences, paper submission...", "description_zh": "", "downloads": 28, "homepage": "https://clawhub.ai/fengwm64/ccfddl-conference-watch", "iconUrl": null, "installs": 1, "name": "ccfddl-conference-watch", "ownerName": "fengwm64", "score": 96551.72413793104, "slug": "ccfddl-conference-watch", "source": "clawhub", "stars": 0, "tags": null, "updated_at": 1776698384207, "version": "1.0.0"}, {"category": "", "created_at": 1774845796659, "description": "Send voice/audio messages to Feishu (Lark) chats using TTS. Automatically uses OpenAI TTS (gpt-4o-mini-tts) if OPENAI_API_KEY is set, otherwise falls back to...", "description_zh": "", "downloads": 28, "homepage": "https://clawhub.ai/zihui/feishu-macos-voice", "iconUrl": null, "installs": 1, "name": "Feishu Voice (macOS)", "ownerName": "zihui", "score": 96551.72413793104, "slug": "feishu-macos-voice", "source": "clawhub", "stars": 0, "tags": null, "updated_at": 1776698384202, "version": "1.1.0"}, {"category": "", "created_at": 1774887878854, "description": "Generate professional PowerPoint (.pptx) presentations using JSX/TSX with Deno. Supports slides, text, shapes, tables, charts (bar, line, pie, donut), images...", "description_zh": "", "downloads": 28, "homepage": "https://clawhub.ai/zypher-agent/corespeed-slide", "iconUrl": null, "installs": 1, "name": "corespeed-slide", "ownerName": "zypher-agent", "score": 96551.72413793104, "slug": "corespeed-slide", "source": "clawhub", "stars": 0, "tags": null, "updated_at": 1776698384200, "version": "1.0.0"}, {"category": "", "created_at": 1774878672423, "description": "Reliable webhook infrastructure for AI agents. Receive webhooks from Stripe, GitHub, Slack, Shopify, Vercel with signature verification, durable queuing, and...", "description_zh": "", "downloads": 28, "homepage": "https://clawhub.ai/linyiru/hookpipe", "iconUrl": null, "installs": 0, "name": "hookpipe", "ownerName": "linyiru", "score": 96551.72413793104, "slug": "hookpipe", "source": "clawhub", "stars": 0, "tags": null, "updated_at": 1776698384197, "version": "0.1.0"}, {"category": "", "created_at": 1774898128445, "description": "Highrise integration. Manage Persons, Organizations, Deals, Leads, Cases, Tasks and more. Use when the user wants to interact with Highrise data.", "description_zh": "", "downloads": 28, "homepage": "https://clawhub.ai/gora050/highrise", "iconUrl": null, "installs": 0, "name": "Highrise", "ownerName": "gora050", "score": 96551.72413793104, "slug": "highrise", "source": "clawhub", "stars": 0, "tags": null, "updated_at": 1776698384195, "version": "1.0.0"}, {"category": "", "created_at": 1774911500655, "description": "API to every Ecommerce Cart and Marketplace integration. Manage data, records, and automate workflows. Use when the user wants to interact with API to every...", "description_zh": "", "downloads": 28, "homepage": "https://clawhub.ai/gora050/api-to-every-ecommerce-cart-and-marketplace", "iconUrl": null, "installs": 0, "name": "Api To Every Ecommerce Cart And Marketplace", "ownerName": "gora050", "score": 96551.72413793104, "slug": "api-to-every-ecommerce-cart-and-marketplace", "source": "clawhub", "stars": 0, "tags": null, "updated_at": 1776698384189, "version": "1.0.0"}, {"category": "", "created_at": 1774948464589, "description": "Practical end-of-life preparation and philosophical mortality awareness. Use when someone needs to create a will or advance directive, wants to have the deat...", "description_zh": "", "downloads": 28, "homepage": "https://clawhub.ai/howtousehumans/death-preparation", "iconUrl": null, "installs": 1, "name": "Death Preparation", "ownerName": "howtousehumans", "score": 96551.72413793104, "slug": "death-preparation", "source": "clawhub", "stars": 0, "tags": null, "updated_at": 1776698384187, "version": "1.0.0"}, {"category": "", "created_at": 1774919600149, "description": "Generate customized client onboarding checklists, welcome emails, and setup task lists for IT service providers, MSPs, and consultants. Covers network setup,...", "description_zh": "", "downloads": 28, "homepage": "https://clawhub.ai/josh4hire/client-onboarding-checklist", "iconUrl": null, "installs": 0, "name": "Client Onboarding Checklist", "ownerName": "josh4hire", "score": 96551.72413793104, "slug": "client-onboarding-checklist", "source": "clawhub", "stars": 0, "tags": null, "updated_at": 1776698384180, "version": "1.0.0"}, {"category": "", "created_at": 1774895210046, "description": "Openclaw Visual Configuration Assistant. Provides secure wizard for local/Git backup and workspace migration.", "description_zh": "", "downloads": 28, "homepage": "https://clawhub.ai/donnieclaw/octool", "iconUrl": null, "installs": 0, "name": "OCTOOL for  backup", "ownerName": "donnieclaw", "score": 100000, "slug": "octool", "source": "clawhub", "stars": 0, "tags": null, "updated_at": 1776698384178, "version": "1.0.7"}, {"category": "", "created_at": 1774951183400, "description": "Feel the awe of glowing seas as you glide through electric darkness, contemplating nature’s hidden light. Navigate Montego Bay by boat and dive into biolumin...", "description_zh": "", "downloads": 28, "homepage": "https://clawhub.ai/driftsbot/experience-jamaica-dark-water", "iconUrl": null, "installs": 1, "name": "Experience Jamaica Dark Water", "ownerName": "driftsbot", "score": 100000, "slug": "experience-jamaica-dark-water", "source": "clawhub", "stars": 0, "tags": null, "updated_at": 1776698384168, "version": "1.0.0"}, {"category": "", "created_at": 1774953877299, "description": "Filter compound libraries based on Lipinski's Rule of Five for drug-likeness.", "description_zh": "", "downloads": 28, "homepage": "https://clawhub.ai/aipoch-ai/lipinski-rule-filter", "iconUrl": null, "installs": 1, "name": "Lipinski Rule Filter", "ownerName": "aipoch-ai", "score": 100000, "slug": "lipinski-rule-filter", "source": "clawhub", "stars": 0, "tags": null, "updated_at": 1776698384165, "version": "1.0.0"}, {"category": "", "created_at": 1774916060911, "description": "Search foods, look up nutrition, log meals, track weight, browse recipes, and manage exercises via the FatSecret API.", "description_zh": "", "downloads": 28, "homepage": "https://clawhub.ai/ivanvmoreno/fatsecret-api", "iconUrl": null, "installs": 0, "name": "Fatsecret Skill", "ownerName": "ivanvmoreno", "score": 100000, "slug": "fatsecret-api", "source": "clawhub", "stars": 0, "tags": null, "updated_at": 1776698384162, "version": "1.0.1"}, {"category": "", "created_at": 1774916073742, "description": "Use when enforcing spend limits on AI agent wallets, validating transactions before signing, configuring allowlists or approval workflows, detecting prompt i...", "description_zh": "", "downloads": 28, "homepage": "https://clawhub.ai/swiftadviser/mandate", "iconUrl": null, "installs": 0, "name": "Mandate", "ownerName": "swiftadviser", "score": 100000, "slug": "mandate", "source": "clawhub", "stars": 0, "tags": null, "updated_at": 1776698384160, "version": "1.2.0"}, {"category": "", "created_at": 1774952907126, "description": "Optimize Google Shopping campaigns and product feeds for maximum visibility and ROAS. Feed optimization, bidding strategy, campaign structure, and Performanc...", "description_zh": "", "downloads": 28, "homepage": "https://clawhub.ai/nexscope/google-shopping-optimization", "iconUrl": null, "installs": 2, "name": "Google Shopping Optimization", "ownerName": "nexscope", "score": 100000, "slug": "google-shopping-optimization", "source": "clawhub", "stars": 0, "tags": null, "updated_at": 1776698384158, "version": "1.0.0"}, {"category": "", "created_at": 1774836019297, "description": "Smart money tracking — netflow, trades, holdings, perp trades. Use when finding what smart money wallets are buying/selling or tracking whale activity.", "description_zh": "", "downloads": 28, "homepage": "https://clawhub.ai/nansen-devops/nansen-smart-money-tracker", "iconUrl": null, "installs": 0, "name": "Nansen Smart Money Tracker", "ownerName": "nansen-devops", "score": 100000, "slug": "nansen-smart-money-tracker", "source": "clawhub", "stars": 0, "tags": null, "updated_at": 1776698384154, "version": "0.1.0"}, {"category": "", "created_at": 1774882893570, "description": "Cyberimpact integration. Manage Contacts, Campaigns, Forms. Use when the user wants to interact with Cyberimpact data.", "description_zh": "", "downloads": 28, "homepage": "https://clawhub.ai/gora050/cyberimpact", "iconUrl": null, "installs": 0, "name": "Cyberimpact", "ownerName": "gora050", "score": 100000, "slug": "cyberimpact", "source": "clawhub", "stars": 0, "tags": null, "updated_at": 1776698384149, "version": "1.0.0"}, {"category": "", "created_at": 1774863572130, "description": "Transform unstructured clinical input (dictation, transcripts, or rough notes) into standardized SOAP (Subjective, Objective, Assessment, Plan) medical docum...", "description_zh": "", "downloads": 28, "homepage": "https://clawhub.ai/aipoch-ai/automated-soap-note-generator", "iconUrl": null, "installs": 0, "name": "Automated Soap Note Generator", "ownerName": "aipoch-ai", "score": 100000, "slug": "automated-soap-note-generator", "source": "clawhub", "stars": 0, "tags": null, "updated_at": 1776698384142, "version": "0.1.0"}, {"category": "", "created_at": 1774876691272, "description": "Create disposable Mail.tm inboxes and programmatically read incoming emails/OTP codes. Use when asked to generate a temporary email, poll inbox messages, ext...", "description_zh": "", "downloads": 28, "homepage": "https://clawhub.ai/fantaclaw-ai/disposable-email", "iconUrl": null, "installs": 0, "name": "Disposable Email", "ownerName": "fantaclaw-ai", "score": 100000, "slug": "disposable-email", "source": "clawhub", "stars": 0, "tags": null, "updated_at": 1776698384139, "version": "1.0.3"}, {"category": "", "created_at": 1774873691953, "description": "Analyzes your conversation transcripts daily to find patterns, suggest SOUL.md improvements, and recommend skills", "description_zh": "", "downloads": 28, "homepage": "https://clawhub.ai/dainash/clawforage-prompt-optimizer", "iconUrl": null, "installs": 0, "name": "ClawForage Prompt Optimizer", "ownerName": "dainash", "score": 100000, "slug": "clawforage-prompt-optimizer", "source": "clawhub", "stars": 0, "tags": null, "updated_at": 1776698384132, "version": "0.1.0"}]}