{"page": 485, "total_pages": 522, "total": 26073, "skills": [{"category": "", "created_at": 1774916700872, "description": "Manage Ghost CMS content via the REST API. Create and publish posts, manage tags, and fetch site analytics. Supports both the Content API (public data) and A...", "description_zh": "", "downloads": 28, "homepage": "https://clawhub.ai/kryzl19/ghost-cms-agent", "iconUrl": null, "installs": 0, "name": "Ghost CMS Agent", "ownerName": "kryzl19", "score": 100000, "slug": "ghost-cms-agent", "source": "clawhub", "stars": 0, "tags": ["blog", "cms", "ghost", "publishing"], "updated_at": 1776698384130, "version": "1.0.0"}, {"category": "", "created_at": 1774894345848, "description": "Async Interview integration. Manage data, records, and automate workflows. Use when the user wants to interact with Async Interview data.", "description_zh": "", "downloads": 28, "homepage": "https://clawhub.ai/gora050/async-interview", "iconUrl": null, "installs": 0, "name": "Async Interview", "ownerName": "gora050", "score": 100000, "slug": "async-interview", "source": "clawhub", "stars": 0, "tags": null, "updated_at": 1776698384123, "version": "1.0.0"}, {"category": "", "created_at": 1774868509852, "description": "Manage Movedone kanban projects, columns, tasks, comments, and task links via the local HTTP API.", "description_zh": "", "downloads": 28, "homepage": "https://clawhub.ai/kaichaosun/movedone", "iconUrl": null, "installs": 0, "name": "Movedone", "ownerName": "kaichaosun", "score": 100000, "slug": "movedone", "source": "clawhub", "stars": 0, "tags": null, "updated_at": 1776698384117, "version": "0.2.0"}, {"category": "", "created_at": 1774881172195, "description": "Install and operate the official Clawborate runtime for OpenClaw agents. Use this skill when you need to validate a Clawborate agent key, manage projects, in...", "description_zh": "", "downloads": 28, "homepage": "https://clawhub.ai/super-nova2/clawborate-skill", "iconUrl": null, "installs": 0, "name": "calwborate", "ownerName": "super-nova2", "score": 100000, "slug": "clawborate-skill", "source": "clawhub", "stars": 0, "tags": null, "updated_at": 1776698384107, "version": "0.2.3"}, {"category": "", "created_at": 1774877065661, "description": "Manage conversation context with saving, loading, and pruning tools. Use when preserving context, loading sessions, pruning old history.", "description_zh": "", "downloads": 28, "homepage": "https://clawhub.ai/bytesagain3/ctxkeeper", "iconUrl": null, "installs": 0, "name": "Ctxkeeper", "ownerName": "bytesagain3", "score": 100000, "slug": "ctxkeeper", "source": "clawhub", "stars": 0, "tags": null, "updated_at": 1776698384106, "version": "2.0.0"}, {"category": "", "created_at": 1774913002173, "description": "Ltrace reference tool. Use when working with ltrace in devtools contexts.", "description_zh": "", "downloads": 28, "homepage": "https://clawhub.ai/bytesagain1/ltrace", "iconUrl": null, "installs": 0, "name": "Ltrace", "ownerName": "bytesagain1", "score": 96551.72413793104, "slug": "ltrace", "source": "clawhub", "stars": 0, "tags": null, "updated_at": 1776698384104, "version": "1.0.0"}, {"category": "", "created_at": 1774868493294, "description": "Zero-cooperation session recovery after gateway restart. No checkpoints, no hooks, no agent involvement — just reads the evidence and picks up where it left...", "description_zh": "", "downloads": 28, "homepage": "https://clawhub.ai/belugary/boot-resume", "iconUrl": null, "installs": 0, "name": "Boot Resume", "ownerName": "belugary", "score": 96551.72413793104, "slug": "boot-resume", "source": "clawhub", "stars": 0, "tags": ["ops", "recovery", "resilience", "restart", "session"], "updated_at": 1776698384102, "version": "1.1.1"}, {"category": "", "created_at": 1774855977557, "description": "Enforce a git-first workflow for repository coding tasks. Use when Codex is working inside a local git repository to inspect, modify, debug, refactor, implem...", "description_zh": "", "downloads": 28, "homepage": "https://clawhub.ai/ontheway23333/git-commit-guard", "iconUrl": null, "installs": 0, "name": "Dev Git Guard", "ownerName": "ontheway23333", "score": 96551.72413793104, "slug": "git-commit-guard", "source": "clawhub", "stars": 0, "tags": ["code-review", "commit", "development", "git", "testing", "workflow"], "updated_at": 1776698384098, "version": "1.0.0"}, {"category": "", "created_at": 1774904375828, "description": "Insighto.ai integration. Manage Organizations, Users. Use when the user wants to interact with Insighto.ai data.", "description_zh": "", "downloads": 28, "homepage": "https://clawhub.ai/gora050/insightoai", "iconUrl": null, "installs": 0, "name": "Insightoai", "ownerName": "gora050", "score": 96551.72413793104, "slug": "insightoai", "source": "clawhub", "stars": 0, "tags": null, "updated_at": 1776698384094, "version": "1.0.0"}, {"category": "", "created_at": 1774908907209, "description": "Paykickstart integration. Manage Campaigns. Use when the user wants to interact with Paykickstart data.", "description_zh": "", "downloads": 28, "homepage": "https://clawhub.ai/membranedev/paykickstart", "iconUrl": null, "installs": 0, "name": "Paykickstart", "ownerName": "membranedev", "score": 96551.72413793104, "slug": "paykickstart", "source": "clawhub", "stars": 0, "tags": null, "updated_at": 1776698384088, "version": "1.0.0"}, {"category": "", "created_at": 1774894452691, "description": "Create, inspect, process, and optimize image files and visual assets with reliable format choice, resizing, compression, color-profile, metadata, and platfor...", "description_zh": "", "downloads": 28, "homepage": "https://clawhub.ai/cs995279497-byte/chen-image", "iconUrl": null, "installs": 1, "name": "Chen Image", "ownerName": "cs995279497-byte", "score": 96551.72413793104, "slug": "chen-image", "source": "clawhub", "stars": 0, "tags": null, "updated_at": 1776698384074, "version": "1.0.0"}, {"category": "", "created_at": 1774870045475, "description": "Build a concise “what needs action now” daily brief by aggregating reminders from multiple channels (email, calendar, SMS/iMessage, weather, and task notes)...", "description_zh": "", "downloads": 28, "homepage": "https://clawhub.ai/yikailucas/life-radar-repo", "iconUrl": null, "installs": 0, "name": "Life Radar Repo", "ownerName": "yikailucas", "score": 96551.72413793104, "slug": "life-radar-repo", "source": "clawhub", "stars": 0, "tags": null, "updated_at": 1776698384069, "version": "1.0.0"}, {"category": "", "created_at": 1774775147621, "description": "Domain registrar and DNS manager using the Name.com CORE API. Use when the user asks to search for, buy, or register domains, manage DNS records (A, AAAA, CN...", "description_zh": "", "downloads": 28, "homepage": "https://clawhub.ai/patramsey/namecom-registrar", "iconUrl": null, "installs": 0, "name": "name.com registrar", "ownerName": "patramsey", "score": 96551.72413793104, "slug": "namecom-registrar", "source": "clawhub", "stars": 0, "tags": null, "updated_at": 1776698384067, "version": "0.0.14"}, {"category": "", "created_at": 1774880765457, "description": "S2-SP-OS Atmos Radar. Real-time meteorological and space weather (NOAA) perception organ for AI Agents.", "description_zh": "", "downloads": 28, "homepage": "https://clawhub.ai/spacesq/s2-atmos-perception", "iconUrl": null, "installs": 0, "name": "S2 Atmos Perception", "ownerName": "spacesq", "score": 96551.72413793104, "slug": "s2-atmos-perception", "source": "clawhub", "stars": 0, "tags": null, "updated_at": 1776698384066, "version": "1.0.9"}, {"category": "", "created_at": 1774899808319, "description": "Optimize Inception Labs token usage to minimize costs. Use when choosing Inception models (Mercury, etc.), crafting prompts for Inception, analyzing token co...", "description_zh": "", "downloads": 28, "homepage": "https://clawhub.ai/nelmaz/inception-token-optimizer", "iconUrl": null, "installs": 0, "name": "Inception Token Optimizer", "ownerName": "nelmaz", "score": 96551.72413793104, "slug": "inception-token-optimizer", "source": "clawhub", "stars": 0, "tags": null, "updated_at": 1776698384064, "version": "1.0.0"}, {"category": "", "created_at": 1774897827751, "description": "Develop crisis communication scripts, media response strategies, and statement drafting", "description_zh": "", "downloads": 28, "homepage": "https://clawhub.ai/findhappy7/crisis-communication", "iconUrl": null, "installs": 0, "name": "Crisis Communication", "ownerName": "findhappy7", "score": 96551.72413793104, "slug": "crisis-communication", "source": "clawhub", "stars": 0, "tags": null, "updated_at": 1776698384060, "version": "1.0.0"}, {"category": "", "created_at": 1774869961451, "description": "HelloSign integration. Manage Templates, Teams, Accounts. Use when the user wants to interact with HelloSign data.", "description_zh": "", "downloads": 28, "homepage": "https://clawhub.ai/gora050/hellosign", "iconUrl": null, "installs": 0, "name": "Hellosign", "ownerName": "gora050", "score": 96551.72413793104, "slug": "hellosign", "source": "clawhub", "stars": 0, "tags": null, "updated_at": 1776698384041, "version": "1.0.0"}, {"category": "", "created_at": 1774912107877, "description": "Peekdata integration. Manage data, records, and automate workflows. Use when the user wants to interact with Peekdata data.", "description_zh": "", "downloads": 28, "homepage": "https://clawhub.ai/gora050/peekdata", "iconUrl": null, "installs": 0, "name": "Peekdata", "ownerName": "gora050", "score": 96551.72413793104, "slug": "peekdata", "source": "clawhub", "stars": 0, "tags": null, "updated_at": 1776698384039, "version": "1.0.0"}, {"category": "", "created_at": 1774884042659, "description": "Bot9 integration. Manage data, records, and automate workflows. Use when the user wants to interact with Bot9 data.", "description_zh": "", "downloads": 28, "homepage": "https://clawhub.ai/membranedev/bot9", "iconUrl": null, "installs": 0, "name": "Bot9", "ownerName": "membranedev", "score": 96551.72413793104, "slug": "bot9", "source": "clawhub", "stars": 0, "tags": null, "updated_at": 1776698384034, "version": "1.0.0"}, {"category": "", "created_at": 1774859364668, "description": "Generate UTM-tracked campaign links with enforced naming conventions and campaign taxonomy management. Built for AI agents doing marketing work. Every market...", "description_zh": "", "downloads": 28, "homepage": "https://clawhub.ai/andrewlamamills-tech/missinglinkz", "iconUrl": null, "installs": 0, "name": "MissingLinkz", "ownerName": "andrewlamamills-tech", "score": 96551.72413793104, "slug": "missinglinkz", "source": "clawhub", "stars": 0, "tags": ["ai-agent", "analytics", "campaign-tracking", "cli", "links", "marketing", "mcp", "openclaw", "seo", "utm"], "updated_at": 1776698384023, "version": "1.0.5"}, {"category": "", "created_at": 1774902970615, "description": "Certifier integration. Manage data, records, and automate workflows. Use when the user wants to interact with Certifier data.", "description_zh": "", "downloads": 28, "homepage": "https://clawhub.ai/gora050/certifier", "iconUrl": null, "installs": 0, "name": "Certifier", "ownerName": "gora050", "score": 96551.72413793104, "slug": "certifier", "source": "clawhub", "stars": 0, "tags": null, "updated_at": 1776698384018, "version": "1.0.0"}, {"category": "", "created_at": 1774911584417, "description": "CINC integration. Manage data, records, and automate workflows. Use when the user wants to interact with CINC data.", "description_zh": "", "downloads": 28, "homepage": "https://clawhub.ai/gora050/cinc", "iconUrl": null, "installs": 0, "name": "Cinc", "ownerName": "gora050", "score": 96551.72413793104, "slug": "cinc", "source": "clawhub", "stars": 0, "tags": null, "updated_at": 1776698384006, "version": "1.0.0"}, {"category": "", "created_at": 1774845811130, "description": "Reference tool for devtools — covers intro, quickstart, patterns and more. Quick lookup for Filewatch concepts, best practices, and implementation patterns.", "description_zh": "", "downloads": 28, "homepage": "https://clawhub.ai/xueyetianya/filewatch", "iconUrl": null, "installs": 0, "name": "Filewatch", "ownerName": "xueyetianya", "score": 96551.72413793104, "slug": "filewatch", "source": "clawhub", "stars": 0, "tags": null, "updated_at": 1776698384004, "version": "2.0.4"}, {"category": "", "created_at": 1774885415809, "description": "Validate, package, and verify ClawHub skills before and after publishing. Use when creating or updating a ClawHub skill, preparing a release, diagnosing repe...", "description_zh": "", "downloads": 28, "homepage": "https://clawhub.ai/daowuu/clawhub-release-auditor", "iconUrl": null, "installs": 0, "name": "Clawhub Release Auditor", "ownerName": "daowuu", "score": 96551.72413793104, "slug": "clawhub-release-auditor", "source": "clawhub", "stars": 0, "tags": null, "updated_at": 1776698384001, "version": "0.2.1"}, {"category": "", "created_at": 1774875430456, "description": "Distill repeated user preferences, successful patterns, and durable working rules into reusable memory notes or prompt-ready context blocks. Use when a user...", "description_zh": "", "downloads": 28, "homepage": "https://clawhub.ai/danxbuidl/danxbuidl-memory-distiller", "iconUrl": null, "installs": 0, "name": "Memory Distiller", "ownerName": "danxbuidl", "score": 96551.72413793104, "slug": "danxbuidl-memory-distiller", "source": "clawhub", "stars": 0, "tags": null, "updated_at": 1776698383999, "version": "0.1.0"}, {"category": "", "created_at": 1774844464615, "description": "Create and manage complex automation workflows using OpenClaw. Orchestrate multi-step tasks, parallel processing, conditional logic, and scheduled automation...", "description_zh": "", "downloads": 28, "homepage": "https://clawhub.ai/fuczy/clawd-automator", "iconUrl": null, "installs": 1, "name": "Automator", "ownerName": "fuczy", "score": 96551.72413793104, "slug": "clawd-automator", "source": "clawhub", "stars": 0, "tags": null, "updated_at": 1776698383996, "version": "1.0.0"}, {"category": "", "created_at": 1774886903024, "description": "Find business partners, channel partners, distribution partners, collaboration targets, and strategic allies for ecommerce growth. Use when the user wants he...", "description_zh": "", "downloads": 28, "homepage": "https://clawhub.ai/leooooooow/find-partners", "iconUrl": null, "installs": 2, "name": "Find Partners", "ownerName": "leooooooow", "score": 96551.72413793104, "slug": "find-partners", "source": "clawhub", "stars": 0, "tags": null, "updated_at": 1776698383993, "version": "1.0.0"}, {"category": "", "created_at": 1774909653808, "description": "Run evidence-backed multi-agent debates (A/B/Opponent3/Judge) with 20-40 rounds, loophole analysis, and universal actionable lesson extraction.", "description_zh": "", "downloads": 28, "homepage": "https://clawhub.ai/kdylan1010-alt/debate-learning-workflow", "iconUrl": null, "installs": 0, "name": "Debate Learning Workflow", "ownerName": "kdylan1010-alt", "score": 96551.72413793104, "slug": "debate-learning-workflow", "source": "clawhub", "stars": 0, "tags": ["debate", "workflow"], "updated_at": 1776698383991, "version": "1.0.1"}, {"category": "", "created_at": 1774916575465, "description": "Encharge integration. Manage Persons, Organizations, Deals, Pipelines, Activities, Notes and more. Use when the user wants to interact with Encharge data.", "description_zh": "", "downloads": 28, "homepage": "https://clawhub.ai/gora050/encharge", "iconUrl": null, "installs": 0, "name": "Encharge", "ownerName": "gora050", "score": 96551.72413793104, "slug": "encharge", "source": "clawhub", "stars": 0, "tags": null, "updated_at": 1776698383990, "version": "1.0.0"}, {"category": "", "created_at": 1774875884393, "description": "Organize notes as a personal knowledge base with tagging and full-text search. Use when capturing notes, searching entries, building a knowledge base.", "description_zh": "", "downloads": 28, "homepage": "https://clawhub.ai/bytesagain3/notelane", "iconUrl": null, "installs": 0, "name": "Notelane", "ownerName": "bytesagain3", "score": 96551.72413793104, "slug": "notelane", "source": "clawhub", "stars": 0, "tags": null, "updated_at": 1776698383986, "version": "2.0.0"}, {"category": "", "created_at": 1774817753080, "description": "Research competitors systematically. Analyze positioning, pricing, features, marketing, and gaps. Generate competitive intelligence reports with actionable i...", "description_zh": "", "downloads": 28, "homepage": "https://clawhub.ai/engsathiago/market-competitor-research", "iconUrl": null, "installs": 1, "name": "Market Competitor Research", "ownerName": "engsathiago", "score": 96551.72413793104, "slug": "market-competitor-research", "source": "clawhub", "stars": 0, "tags": ["analysis", "benchmark", "competitor", "market", "research"], "updated_at": 1776698383984, "version": "1.0.0"}, {"category": "", "created_at": 1774918544708, "description": "Deep SLO/SLI workflow—user-centric SLIs, SLO targets and windows, error budgets, multi-window burn alerts, and policy when budget is exhausted. Use when defi...", "description_zh": "", "downloads": 28, "homepage": "https://clawhub.ai/mikeclaw007/observability-slos", "iconUrl": null, "installs": 0, "name": "Observability Slos", "ownerName": "mikeclaw007", "score": 96551.72413793104, "slug": "observability-slos", "source": "clawhub", "stars": 0, "tags": null, "updated_at": 1776698383983, "version": "1.0.0"}, {"category": "", "created_at": 1774904491754, "description": "Memberful integration. Manage Members, Plans, Products, Discounts. Use when the user wants to interact with Memberful data.", "description_zh": "", "downloads": 28, "homepage": "https://clawhub.ai/gora050/memberful", "iconUrl": null, "installs": 0, "name": "Memberful", "ownerName": "gora050", "score": 96551.72413793104, "slug": "memberful", "source": "clawhub", "stars": 0, "tags": null, "updated_at": 1776698383979, "version": "1.0.0"}, {"category": "", "created_at": 1774898695597, "description": "S2-SP-OS Universal Indoor Air Adapter. Features LAN UDP active radar discovery, MQTT/HTTP aggregated sniffing, S2 spatial voxel wrapping (Memzero), and offli...", "description_zh": "", "downloads": 28, "homepage": "https://clawhub.ai/spacesq/s2-indoor-air-adapter", "iconUrl": null, "installs": 1, "name": "S2-SP-OS Universal Indoor Air Adapter", "ownerName": "spacesq", "score": 96551.72413793104, "slug": "s2-indoor-air-adapter", "source": "clawhub", "stars": 0, "tags": null, "updated_at": 1776698383974, "version": "1.0.0"}, {"category": "", "created_at": 1774903504358, "description": "Pabbly integration. Manage data, records, and automate workflows. Use when the user wants to interact with Pabbly data.", "description_zh": "", "downloads": 28, "homepage": "https://clawhub.ai/gora050/pabbly", "iconUrl": null, "installs": 0, "name": "Pabbly", "ownerName": "gora050", "score": 96551.72413793104, "slug": "pabbly", "source": "clawhub", "stars": 0, "tags": null, "updated_at": 1776698383971, "version": "1.0.0"}, {"category": "", "created_at": 1774918445724, "description": "Search web content such as webpages, images, and videos using the /web-search API with an Access Token.", "description_zh": "", "downloads": 28, "homepage": "https://clawhub.ai/fchange/moark-web-search", "iconUrl": null, "installs": 1, "name": "Moark Web Search", "ownerName": "fchange", "score": 96551.72413793104, "slug": "moark-web-search", "source": "clawhub", "stars": 0, "tags": null, "updated_at": 1776698383969, "version": "1.0.0"}, {"category": "", "created_at": 1774916434388, "description": "produce a commercial teardown of a post, creator profile, product page, landing page, or app page from urls, screenshots, or pasted text. use to infer audien...", "description_zh": "", "downloads": 28, "homepage": "https://clawhub.ai/guoxinling/content-product-analyzer", "iconUrl": null, "installs": 0, "name": "Content Product Analyzer", "ownerName": "guoxinling", "score": 96551.72413793104, "slug": "content-product-analyzer", "source": "clawhub", "stars": 0, "tags": ["v0.1.0"], "updated_at": 1776698383959, "version": "1.0.0"}, {"category": "", "created_at": 1774916947677, "description": "Mailersend integration. Manage Emails, Templates, Domains, Recipients, Activities. Use when the user wants to interact with Mailersend data.", "description_zh": "", "downloads": 28, "homepage": "https://clawhub.ai/gora050/mailersend", "iconUrl": null, "installs": 0, "name": "Mailersend", "ownerName": "gora050", "score": 96551.72413793104, "slug": "mailersend", "source": "clawhub", "stars": 0, "tags": null, "updated_at": 1776698383958, "version": "1.0.0"}, {"category": "", "created_at": 1774893836288, "description": "Analyze the current conversation history and local installed skills to identify missed skill triggers, overlapping or duplicate skills, weak metadata, stale...", "description_zh": "", "downloads": 28, "homepage": "https://clawhub.ai/zhangchenchen/skill-optimizer-2", "iconUrl": null, "installs": 0, "name": "Skill Optimizer", "ownerName": "zhangchenchen", "score": 96551.72413793104, "slug": "skill-optimizer-2", "source": "clawhub", "stars": 0, "tags": null, "updated_at": 1776698383956, "version": "0.1.0"}, {"category": "", "created_at": 1774888097977, "description": "Header design reference — navigation patterns, sticky headers, responsive menus, accessibility. Use when designing website headers or implementing navigation...", "description_zh": "", "downloads": 28, "homepage": "https://clawhub.ai/ckchzh/header", "iconUrl": null, "installs": 0, "name": "Header", "ownerName": "ckchzh", "score": 96551.72413793104, "slug": "header", "source": "clawhub", "stars": 0, "tags": null, "updated_at": 1776698383954, "version": "1.0.0"}, {"category": "", "created_at": 1774874001477, "description": "Transforms cluttered Instagram mobile screenshots into clean, distraction-free architectural and design references. Use when you need to automate the extract...", "description_zh": "", "downloads": 28, "homepage": "https://clawhub.ai/yfxa/ig-cropper", "iconUrl": null, "installs": 0, "name": "IG Cropper", "ownerName": "yfxa", "score": 96551.72413793104, "slug": "ig-cropper", "source": "clawhub", "stars": 0, "tags": null, "updated_at": 1776698383953, "version": "1.3.0"}, {"category": "", "created_at": 1774888000742, "description": "Helps users discover and install crypto trading related agent skills when they ask questions like \"how do I trade crypto\", \"find a skill for DeFi\", \"is there...", "description_zh": "", "downloads": 28, "homepage": "https://clawhub.ai/youhualan/find-crypto-skills", "iconUrl": null, "installs": 3, "name": "Find Crypto Skills", "ownerName": "youhualan", "score": 96551.72413793104, "slug": "find-crypto-skills", "source": "clawhub", "stars": 0, "tags": null, "updated_at": 1776698383939, "version": "1.0.0"}, {"category": "", "created_at": 1774897178709, "description": "Multi-agent orchestration protocol for the 0x-wzw swarm. Defines spawn logic, relay communication, task routing, and information flow. Agents drive decisions...", "description_zh": "", "downloads": 28, "homepage": "https://clawhub.ai/0x-wzw/swarm-workflow-protocol", "iconUrl": null, "installs": 0, "name": "Swarm Workflow Protocol", "ownerName": "0x-wzw", "score": 96551.72413793104, "slug": "swarm-workflow-protocol", "source": "clawhub", "stars": 0, "tags": null, "updated_at": 1776698383934, "version": "1.0.0"}, {"category": "", "created_at": 1774908826706, "description": "Master monorepo management with Turborepo, Nx, and pnpm workspaces to build efficient, scalable multi-package repositories with optimized builds and dependen...", "description_zh": "", "downloads": 28, "homepage": "https://clawhub.ai/watermelon11/monorepo-management", "iconUrl": null, "installs": 0, "name": "Monorepo Management", "ownerName": "watermelon11", "score": 96551.72413793104, "slug": "monorepo-management", "source": "clawhub", "stars": 0, "tags": null, "updated_at": 1776698383932, "version": "1.0.0"}, {"category": "", "created_at": 1774850893816, "description": "Audit code for security issues - sensitive data exposure, dependency vulnerabilities, SQL injection, hardcoded secrets. Use when the user asks for security c...", "description_zh": "", "downloads": 28, "homepage": "https://clawhub.ai/laimiaohua/gi-security-audit", "iconUrl": null, "installs": 0, "name": "GI Security Audit", "ownerName": "laimiaohua", "score": 96551.72413793104, "slug": "gi-security-audit", "source": "clawhub", "stars": 0, "tags": null, "updated_at": 1776698383930, "version": "1.0.0"}, {"category": "", "created_at": 1774853808682, "description": "Search, compare, and monitor 대한민국 domestic flights using a Playwright-backed airfare workflow. Use when the user wants 한국 국내선 항공권 최저가 조회, 김포-제주/부산-제주 같은 노선 비...", "description_zh": "", "downloads": 28, "homepage": "https://clawhub.ai/twbeatles/korea-domestic-flights", "iconUrl": null, "installs": 0, "name": "Korea Domestic Flights", "ownerName": "twbeatles", "score": 96551.72413793104, "slug": "korea-domestic-flights", "source": "clawhub", "stars": 0, "tags": null, "updated_at": 1776698383924, "version": "0.6.4"}, {"category": "", "created_at": 1774869853255, "description": "PDF extraction API for AI agents and LLM pipelines. Converts any PDF into semantic AST, markdown, HTML, plain text, or LLM-ready chunks — no page limit. Also...", "description_zh": "", "downloads": 28, "homepage": "https://clawhub.ai/techtonicllc/frompdf-api", "iconUrl": null, "installs": 0, "name": "frompdf", "ownerName": "techtonicllc", "score": 96551.72413793104, "slug": "frompdf-api", "source": "clawhub", "stars": 0, "tags": null, "updated_at": 1776698383912, "version": "1.0.0"}, {"category": "", "created_at": 1774903113118, "description": "DigitalRiver integration. Manage Organizations, Leads, Projects, Pipelines, Users, Goals and more. Use when the user wants to interact with DigitalRiver data.", "description_zh": "", "downloads": 28, "homepage": "https://clawhub.ai/membranedev/digitalriver", "iconUrl": null, "installs": 0, "name": "Digitalriver", "ownerName": "membranedev", "score": 96551.72413793104, "slug": "digitalriver", "source": "clawhub", "stars": 0, "tags": null, "updated_at": 1776698383907, "version": "1.0.0"}, {"category": "", "created_at": 1774869651202, "description": "Fix a bug from BugPack by reading its context, locating code, applying fixes, and updating status. Use when: user asks to fix, repair, or resolve a bug. NOT...", "description_zh": "", "downloads": 28, "homepage": "https://clawhub.ai/duhuazhu/bugpack-fix-bug", "iconUrl": null, "installs": 0, "name": "BugPack Fix Bug", "ownerName": "duhuazhu", "score": 96551.72413793104, "slug": "bugpack-fix-bug", "source": "clawhub", "stars": 0, "tags": null, "updated_at": 1776698383898, "version": "1.0.2"}, {"category": "", "created_at": 1774896539700, "description": "Scaffold explanations, exercises, and hints using the Khan Academy curriculum taxonomy and Socratic tutoring method. Use this skill whenever the user wants t...", "description_zh": "", "downloads": 28, "homepage": "https://clawhub.ai/elmoorish/khan-tutor", "iconUrl": null, "installs": 0, "name": "Khan Tutor", "ownerName": "elmoorish", "score": 96551.72413793104, "slug": "khan-tutor", "source": "clawhub", "stars": 0, "tags": null, "updated_at": 1776698383896, "version": "0.1.0"}]}