{"page": 486, "total_pages": 522, "total": 26073, "skills": [{"category": "", "created_at": 1774921322247, "description": "User Interview Playbook — Battle-tested framework from HeyGen's 937 interviews to PMF. Complete methodology for user screening, interview execution, question...", "description_zh": "", "downloads": 28, "homepage": "https://clawhub.ai/gingiris/gingiris-user-interview", "iconUrl": null, "installs": 0, "name": "User Interview Playbook", "ownerName": "gingiris", "score": 96551.72413793104, "slug": "gingiris-user-interview", "source": "clawhub", "stars": 0, "tags": null, "updated_at": 1776698383891, "version": "1.0.0"}, {"category": "", "created_at": 1774877466376, "description": "Infinite organized memory that complements your agent's built-in memory with unlimited categorized storage.", "description_zh": "", "downloads": 28, "homepage": "https://clawhub.ai/12357851/memory-local-backup", "iconUrl": null, "installs": 0, "name": "Memory.Local.Backup", "ownerName": "12357851", "score": 96551.72413793104, "slug": "memory-local-backup", "source": "clawhub", "stars": 0, "tags": null, "updated_at": 1776698383886, "version": "1.0.0"}, {"category": "", "created_at": 1774908729006, "description": "Monitor web pages for content changes and get alerts. Track URLs, detect updates, view diffs. Use when asked to watch a website, track changes on a page, mon...", "description_zh": "", "downloads": 28, "homepage": "https://clawhub.ai/bloodandeath/keats-web-monitor", "iconUrl": null, "installs": 1, "name": "Web Monitor", "ownerName": "bloodandeath", "score": 96551.72413793104, "slug": "keats-web-monitor", "source": "clawhub", "stars": 0, "tags": null, "updated_at": 1776698383880, "version": "1.0.1"}, {"category": "", "created_at": 1774951833231, "description": "Help users do a gentle burnout risk check-in by reflecting on exhaustion, detachment, overload, and recovery. Use when the user says they feel drained, emoti...", "description_zh": "", "downloads": 28, "homepage": "https://clawhub.ai/harrylabsj/burnout-checkin", "iconUrl": null, "installs": 0, "name": "Burnout Checkin", "ownerName": "harrylabsj", "score": 96551.72413793104, "slug": "burnout-checkin", "source": "clawhub", "stars": 0, "tags": null, "updated_at": 1776698383878, "version": "1.0.0"}, {"category": "", "created_at": 1774953106453, "description": "Use market access value for academic writing workflows that need structured execution, explicit assumptions, and clear output boundaries.", "description_zh": "", "downloads": 28, "homepage": "https://clawhub.ai/aipoch-ai/market-access-value", "iconUrl": null, "installs": 0, "name": "Market Access Value", "ownerName": "aipoch-ai", "score": 96551.72413793104, "slug": "market-access-value", "source": "clawhub", "stars": 0, "tags": null, "updated_at": 1776698383874, "version": "1.0.0"}, {"category": "", "created_at": 1774906522578, "description": "From bustling beans to burning incense, every cup carries the weight of home. An immersive journey on drifts.bot — 10 steps, LOW intensity, Several hours. Br...", "description_zh": "", "downloads": 28, "homepage": "https://clawhub.ai/driftsbot/experience-addis-coffee-roots", "iconUrl": null, "installs": 0, "name": "Experience Addis Coffee Roots", "ownerName": "driftsbot", "score": 96551.72413793104, "slug": "experience-addis-coffee-roots", "source": "clawhub", "stars": 0, "tags": null, "updated_at": 1776698383871, "version": "1.0.0"}, {"category": "", "created_at": 1774883039108, "description": "FERPA compliance reference — student records privacy, educational rights, consent requirements, and institutional obligations under the Family Educational Ri...", "description_zh": "", "downloads": 28, "homepage": "https://clawhub.ai/bytesagain1/ferpa", "iconUrl": null, "installs": 2, "name": "Ferpa", "ownerName": "bytesagain1", "score": 96551.72413793104, "slug": "ferpa", "source": "clawhub", "stars": 0, "tags": null, "updated_at": 1776698383869, "version": "1.0.0"}, {"category": "", "created_at": 1774888239669, "description": "Generate isolated dev/test/prod environments for uvicorn/FastAPI Python web projects. Creates separate config files, startup scripts, data directories, and d...", "description_zh": "", "downloads": 28, "homepage": "https://clawhub.ai/rm-huang/multi-env-isolator", "iconUrl": null, "installs": 0, "name": "Multi-Environment Isolator", "ownerName": "rm-huang", "score": 96551.72413793104, "slug": "multi-env-isolator", "source": "clawhub", "stars": 0, "tags": ["devops", "environment", "fastapi", "isolation", "multi-agent"], "updated_at": 1776698383865, "version": "1.0.0"}, {"category": "", "created_at": 1774911612154, "description": "Generate personalized cybersecurity career roadmaps based on professional assessment data and individual goals.", "description_zh": "", "downloads": 28, "homepage": "https://clawhub.ai/krishnakumarmahadevan-cmd/cybersec-roadmap", "iconUrl": null, "installs": 0, "name": "CyberSec Roadmap", "ownerName": "krishnakumarmahadevan-cmd", "score": 96551.72413793104, "slug": "cybersec-roadmap", "source": "clawhub", "stars": 0, "tags": null, "updated_at": 1776698383863, "version": "1.0.0"}, {"category": "", "created_at": 1774899868240, "description": "Loops.so integration. Manage Persons, Organizations, Deals, Activities, Notes, Files and more. Use when the user wants to interact with Loops.so data.", "description_zh": "", "downloads": 28, "homepage": "https://clawhub.ai/gora050/loopsso", "iconUrl": null, "installs": 0, "name": "Loopsso", "ownerName": "gora050", "score": 96551.72413793104, "slug": "loopsso", "source": "clawhub", "stars": 0, "tags": null, "updated_at": 1776698383860, "version": "1.0.0"}, {"category": "", "created_at": 1774872615579, "description": "Infobip integration. Manage Persons, Organizations, Deals, Leads, Projects, Activities and more. Use when the user wants to interact with Infobip data.", "description_zh": "", "downloads": 28, "homepage": "https://clawhub.ai/gora050/infobip", "iconUrl": null, "installs": 0, "name": "Infobip", "ownerName": "gora050", "score": 93333.33333333333, "slug": "infobip", "source": "clawhub", "stars": 0, "tags": null, "updated_at": 1776698383837, "version": "1.0.0"}, {"category": "", "created_at": 1774907616365, "description": "Performs a comprehensive, portfolio-level risk analysis. Calculates VaR (Value at Risk), max drawdown, correlation matrix, stress tests against historical cr...", "description_zh": "", "downloads": 28, "homepage": "https://clawhub.ai/clawdiri-ai/einstein-research-portfolio-risk-dv", "iconUrl": null, "installs": 1, "name": "Einstein Research — Portfolio Risk Analyzer", "ownerName": "clawdiri-ai", "score": 93333.33333333333, "slug": "einstein-research-portfolio-risk-dv", "source": "clawhub", "stars": 0, "tags": null, "updated_at": 1776698383832, "version": "0.1.0"}, {"category": "", "created_at": 1774947327491, "description": "EventKit integration patterns, permission handling, zero-width character steganography, and batch operations for macOS/iOS apps", "description_zh": "", "downloads": 28, "homepage": "https://clawhub.ai/soponcd/eventkit-integration", "iconUrl": null, "installs": 0, "name": "Eventkit Integration", "ownerName": "soponcd", "score": 93333.33333333333, "slug": "eventkit-integration", "source": "clawhub", "stars": 0, "tags": null, "updated_at": 1776698383828, "version": "1.0.0"}, {"category": "", "created_at": 1774896074851, "description": "Returns the mathematically optimal blackjack action (HIT/STAND/DOUBLE/SPLIT/SURRENDER) for any hand using perfect basic strategy (6 decks, S17). Reduces hous...", "description_zh": "", "downloads": 28, "homepage": "https://clawhub.ai/mibayy/casino-blackjack-advisor", "iconUrl": null, "installs": 1, "name": "Casino Blackjack Advisor", "ownerName": "mibayy", "score": 93333.33333333333, "slug": "casino-blackjack-advisor", "source": "clawhub", "stars": 0, "tags": null, "updated_at": 1776698383827, "version": "1.0.0"}, {"category": "", "created_at": 1774916471251, "description": "Generate personalized cybersecurity certification and career advancement plans based on individual assessment data and professional goals.", "description_zh": "", "downloads": 28, "homepage": "https://clawhub.ai/krishnakumarmahadevan-cmd/cybersec-cert-advisor", "iconUrl": null, "installs": 0, "name": "CyberSec Cert Advisor", "ownerName": "krishnakumarmahadevan-cmd", "score": 93333.33333333333, "slug": "cybersec-cert-advisor", "source": "clawhub", "stars": 0, "tags": null, "updated_at": 1776698383821, "version": "1.0.0"}, {"category": "", "created_at": 1774871471342, "description": "PatSight MolVision molecular image recognition: calls Patent Extractor API on 1-N structure images, returns SMILES/SDF and compute properties by rdkit. First...", "description_zh": "", "downloads": 28, "homepage": "https://clawhub.ai/snailwhb/ocsr", "iconUrl": null, "installs": 2, "name": "PatSight-MolVision", "ownerName": "snailwhb", "score": 93333.33333333333, "slug": "ocsr", "source": "clawhub", "stars": 0, "tags": null, "updated_at": 1776698383818, "version": "1.0.1"}, {"category": "", "created_at": 1774857729720, "description": "Control USB relay modules with on/off switching, state tracking, and automation support.", "description_zh": "", "downloads": 28, "homepage": "https://clawhub.ai/lj-hao/control-usb-relay", "iconUrl": null, "installs": 0, "name": "Control Usb Relay", "ownerName": "lj-hao", "score": 93333.33333333333, "slug": "control-usb-relay", "source": "clawhub", "stars": 0, "tags": null, "updated_at": 1776698383815, "version": "1.0.2"}, {"category": "", "created_at": 1774866422122, "description": "Gestiona turnos odontológicos en Odontosoft. Usar cuando el usuario quiera consultar doctores disponibles, ver turnos libres de un odontólogo, buscar un paci...", "description_zh": "", "downloads": 28, "homepage": "https://clawhub.ai/jschussmuller/apiodontosoft", "iconUrl": null, "installs": 1, "name": "Api Odontosoft", "ownerName": "jschussmuller", "score": 93333.33333333333, "slug": "apiodontosoft", "source": "clawhub", "stars": 0, "tags": null, "updated_at": 1776698383813, "version": "1.0.3"}, {"category": "", "created_at": 1774878222276, "description": "This skill provides hybrid retrieval (BM25 semantic search + TF-IDF vector similarity) for intelligent template auto-filling. Use when users need to batch fi...", "description_zh": "", "downloads": 28, "homepage": "https://clawhub.ai/deweienweide/hybrid-smart-fill", "iconUrl": null, "installs": 0, "name": "hybrid-smart-fill", "ownerName": "deweienweide", "score": 93333.33333333333, "slug": "hybrid-smart-fill", "source": "clawhub", "stars": 0, "tags": null, "updated_at": 1776698383806, "version": "1.0.0"}, {"category": "", "created_at": 1774943900410, "description": "Captures learnings, errors, and corrections to enable continuous improvement. Use when: (1) A command or operation fails unexpectedly, (2) User corrects Clau...", "description_zh": "", "downloads": 28, "homepage": "https://clawhub.ai/keyserkazi1/auto-improvement", "iconUrl": null, "installs": 0, "name": "Auto Improvement", "ownerName": "keyserkazi1", "score": 93333.33333333333, "slug": "auto-improvement", "source": "clawhub", "stars": 0, "tags": null, "updated_at": 1776698383801, "version": "1.0.0"}, {"category": "", "created_at": 1774892844241, "description": "Flipando integration. Manage Deals, Persons, Organizations, Leads, Projects, Activities and more. Use when the user wants to interact with Flipando data.", "description_zh": "", "downloads": 28, "homepage": "https://clawhub.ai/membranedev/flipando", "iconUrl": null, "installs": 0, "name": "Flipando", "ownerName": "membranedev", "score": 93333.33333333333, "slug": "flipando", "source": "clawhub", "stars": 0, "tags": null, "updated_at": 1776698383798, "version": "1.0.0"}, {"category": "", "created_at": 1774912113592, "description": "Image to Markdown - extract text from images (PNG, JPG, WebP) to Markdown with OCR. Use when reading text from screenshots, photos, scanned pages, or any ima...", "description_zh": "", "downloads": 28, "homepage": "https://clawhub.ai/tanis90/pic2md", "iconUrl": null, "installs": 1, "name": "Pic2md", "ownerName": "tanis90", "score": 93333.33333333333, "slug": "pic2md", "source": "clawhub", "stars": 0, "tags": null, "updated_at": 1776698383795, "version": "1.0.0"}, {"category": "", "created_at": 1774881834883, "description": "Formats responses for voice/audio output via the ListenClaw voice gateway. Use when: (1) A message starts with [ListenClaw] — this means the message was sent...", "description_zh": "", "downloads": 28, "homepage": "https://clawhub.ai/tinywatermonster/listenclaw", "iconUrl": null, "installs": 0, "name": "ListenClaw", "ownerName": "tinywatermonster", "score": 93333.33333333333, "slug": "listenclaw", "source": "clawhub", "stars": 0, "tags": null, "updated_at": 1776698383793, "version": "1.0.0"}, {"category": "", "created_at": 1774887147100, "description": "Metatext.AI Inference API integration. Manage data, records, and automate workflows. Use when the user wants to interact with Metatext.AI Inference API data.", "description_zh": "", "downloads": 28, "homepage": "https://clawhub.ai/membranedev/metatextai-inference-api", "iconUrl": null, "installs": 0, "name": "Metatextai Inference Api", "ownerName": "membranedev", "score": 93333.33333333333, "slug": "metatextai-inference-api", "source": "clawhub", "stars": 0, "tags": null, "updated_at": 1776698383791, "version": "1.0.0"}, {"category": "", "created_at": 1774953661481, "description": "Create and check long-running video material evaluation tasks. Use this skill when the user wants to submit videos for evaluation, check an existing video ev...", "description_zh": "", "downloads": 28, "homepage": "https://clawhub.ai/volcengine-skills/byted-airesearch-videoeval", "iconUrl": null, "installs": 0, "name": "Byted Airesearch Videoeval", "ownerName": "volcengine-skills", "score": 90322.58064516129, "slug": "byted-airesearch-videoeval", "source": "clawhub", "stars": 0, "tags": null, "updated_at": 1776698383790, "version": "1.0.0"}, {"category": "", "created_at": 1774890854175, "description": "Biztera integration. Manage data, records, and automate workflows. Use when the user wants to interact with Biztera data.", "description_zh": "", "downloads": 28, "homepage": "https://clawhub.ai/gora050/biztera", "iconUrl": null, "installs": 1, "name": "Biztera", "ownerName": "gora050", "score": 90322.58064516129, "slug": "biztera", "source": "clawhub", "stars": 0, "tags": null, "updated_at": 1776698383788, "version": "1.0.0"}, {"category": "", "created_at": 1774873927753, "description": "When the user wants to design, optimize, or audit website footers. Also use when the user mentions \"footer,\" \"page footer,\" \"site footer,\" \"footer links,\" \"f...", "description_zh": "", "downloads": 28, "homepage": "https://clawhub.ai/kostja94/footer-generator", "iconUrl": null, "installs": 1, "name": "footer-generator", "ownerName": "kostja94", "score": 90322.58064516129, "slug": "footer-generator", "source": "clawhub", "stars": 0, "tags": null, "updated_at": 1776698383787, "version": "1.0.0"}, {"category": "", "created_at": 1774911769331, "description": "Hyros integration. Manage Organizations. Use when the user wants to interact with Hyros data.", "description_zh": "", "downloads": 28, "homepage": "https://clawhub.ai/gora050/hyros", "iconUrl": null, "installs": 0, "name": "Hyros", "ownerName": "gora050", "score": 90322.58064516129, "slug": "hyros", "source": "clawhub", "stars": 0, "tags": null, "updated_at": 1776698383782, "version": "1.0.0"}, {"category": "", "created_at": 1774904066402, "description": "Find nearby beauty salons. Invoke when user asks for beauty services near me.", "description_zh": "", "downloads": 28, "homepage": "https://clawhub.ai/codekungfu/beauty-salons", "iconUrl": null, "installs": 0, "name": "Nearby Beauty Salons", "ownerName": "codekungfu", "score": 90322.58064516129, "slug": "beauty-salons", "source": "clawhub", "stars": 0, "tags": null, "updated_at": 1776698383773, "version": "0.1.0"}, {"category": "", "created_at": 1774875966822, "description": "Assess OT/ICS security posture across 30 controls in 6 principles — Business Driven, Risk Based, Enterprise Wide, Methodical, OT Security Focused, and OT Sec...", "description_zh": "", "downloads": 28, "homepage": "https://clawhub.ai/krishnakumarmahadevan-cmd/ot-security-assessment", "iconUrl": null, "installs": 4, "name": "OT Security Assessment", "ownerName": "krishnakumarmahadevan-cmd", "score": 90322.58064516129, "slug": "ot-security-assessment", "source": "clawhub", "stars": 0, "tags": null, "updated_at": 1776698383769, "version": "1.0.0"}, {"category": "", "created_at": 1774918165506, "description": "IdentityCheck integration. Manage Users, Roles, Organizations, Persons, Leads, Deals and more. Use when the user wants to interact with IdentityCheck data.", "description_zh": "", "downloads": 28, "homepage": "https://clawhub.ai/membranedev/identitycheck", "iconUrl": null, "installs": 0, "name": "Identitycheck", "ownerName": "membranedev", "score": 90322.58064516129, "slug": "identitycheck", "source": "clawhub", "stars": 0, "tags": null, "updated_at": 1776698383766, "version": "1.0.0"}, {"category": "", "created_at": 1774894979407, "description": "Imagga integration. Manage data, records, and automate workflows. Use when the user wants to interact with Imagga data.", "description_zh": "", "downloads": 28, "homepage": "https://clawhub.ai/gora050/imagga", "iconUrl": null, "installs": 0, "name": "Imagga", "ownerName": "gora050", "score": 90322.58064516129, "slug": "imagga", "source": "clawhub", "stars": 0, "tags": null, "updated_at": 1776698383765, "version": "1.0.0"}, {"category": "", "created_at": 1774918151849, "description": "GraphLinq Protocol integration. Manage data, records, and automate workflows. Use when the user wants to interact with GraphLinq Protocol data.", "description_zh": "", "downloads": 28, "homepage": "https://clawhub.ai/gora050/graphlinq", "iconUrl": null, "installs": 0, "name": "Graphlinq", "ownerName": "gora050", "score": 90322.58064516129, "slug": "graphlinq", "source": "clawhub", "stars": 0, "tags": null, "updated_at": 1776698383763, "version": "1.0.0"}, {"category": "", "created_at": 1774954372128, "description": "Practical skills for cooking and hosting groups of 10-50 people. Use when someone needs to feed a crowd for events, community gatherings, family reunions, bl...", "description_zh": "", "downloads": 28, "homepage": "https://clawhub.ai/howtousehumans/hosting-feeding-groups", "iconUrl": null, "installs": 0, "name": "Hosting Feeding Groups", "ownerName": "howtousehumans", "score": 90322.58064516129, "slug": "hosting-feeding-groups", "source": "clawhub", "stars": 0, "tags": null, "updated_at": 1776698383761, "version": "1.0.0"}, {"category": "", "created_at": 1774924038647, "description": "Protect environment variables from being stolen by malicious skill scripts. Runs a two-phase security audit: (1) static pattern scan via scan_env.py to detec...", "description_zh": "", "downloads": 28, "homepage": "https://clawhub.ai/goog/fang", "iconUrl": null, "installs": 0, "name": "Fang: protect your env variables from being stealed.", "ownerName": "goog", "score": 90322.58064516129, "slug": "fang", "source": "clawhub", "stars": 0, "tags": null, "updated_at": 1776698383758, "version": "1.0.0"}, {"category": "", "created_at": 1774952831385, "description": "Documenterra integration. Manage Documents, Folders, Users, Groups, Tags. Use when the user wants to interact with Documenterra data.", "description_zh": "", "downloads": 28, "homepage": "https://clawhub.ai/gora050/documenterra", "iconUrl": null, "installs": 0, "name": "Documenterra", "ownerName": "gora050", "score": 90322.58064516129, "slug": "documenterra", "source": "clawhub", "stars": 0, "tags": null, "updated_at": 1776698383755, "version": "1.0.0"}, {"category": "", "created_at": 1774954327856, "description": "Food preservation techniques including fermentation, pickling, canning, drying, and smoking. Use when someone wants to preserve harvests, extend food shelf l...", "description_zh": "", "downloads": 28, "homepage": "https://clawhub.ai/howtousehumans/fermentation-food-preservation", "iconUrl": null, "installs": 0, "name": "Fermentation Food Preservation", "ownerName": "howtousehumans", "score": 90322.58064516129, "slug": "fermentation-food-preservation", "source": "clawhub", "stars": 0, "tags": null, "updated_at": 1776698383750, "version": "1.0.0"}, {"category": "", "created_at": 1774831217313, "description": "Shift the assistant by rewriting SOUL.md with a warm AI persona, elegant tone, emotional attunement, and fluid conversation.", "description_zh": "", "downloads": 28, "homepage": "https://clawhub.ai/ivangdavila/her", "iconUrl": null, "installs": 2, "name": "Her", "ownerName": "ivangdavila", "score": 90322.58064516129, "slug": "her", "source": "clawhub", "stars": 0, "tags": null, "updated_at": 1776698383749, "version": "1.0.0"}, {"category": "", "created_at": 1774952942193, "description": "Ipbase integration. Manage data, records, and automate workflows. Use when the user wants to interact with Ipbase data.", "description_zh": "", "downloads": 28, "homepage": "https://clawhub.ai/gora050/ipbase", "iconUrl": null, "installs": 0, "name": "Ipbase", "ownerName": "gora050", "score": 90322.58064516129, "slug": "ipbase", "source": "clawhub", "stars": 0, "tags": null, "updated_at": 1776698383740, "version": "1.0.0"}, {"category": "", "created_at": 1774868946209, "description": "Perform lite research using web search and web fetch tools. Use when user asks to \"research\" something (not \"deep research\"). Uses advanced search strategies...", "description_zh": "", "downloads": 28, "homepage": "https://clawhub.ai/chand1012/lite-research", "iconUrl": null, "installs": 1, "name": "Lite Research", "ownerName": "chand1012", "score": 93333.33333333333, "slug": "lite-research", "source": "clawhub", "stars": 0, "tags": null, "updated_at": 1776698383739, "version": "1.0.0"}, {"category": "", "created_at": 1774950709072, "description": "Use this skill when the user wants to find unexplored tool, app, or project ideas that nobody has built yet. Triggers: 'nobodybuilt', 'find me an idea', 'wha...", "description_zh": "", "downloads": 28, "homepage": "https://clawhub.ai/kewang0622/nobodybuilt", "iconUrl": null, "installs": 0, "name": "nobodybuilt", "ownerName": "kewang0622", "score": 93333.33333333333, "slug": "nobodybuilt", "source": "clawhub", "stars": 0, "tags": null, "updated_at": 1776698383736, "version": "1.1.0"}, {"category": "", "created_at": 1774871212539, "description": "Generated Photos integration. Manage Persons. Use when the user wants to interact with Generated Photos data.", "description_zh": "", "downloads": 28, "homepage": "https://clawhub.ai/gora050/generated-photos", "iconUrl": null, "installs": 0, "name": "Generated Photos", "ownerName": "gora050", "score": 93333.33333333333, "slug": "generated-photos", "source": "clawhub", "stars": 0, "tags": null, "updated_at": 1776698383734, "version": "1.0.0"}, {"category": "", "created_at": 1774919227621, "description": "KPainter specializes in controllable knowledge video generation and turns one prompt into knowledge videos, slides (PPT), and interactive apps. Built for exp...", "description_zh": "", "downloads": 28, "homepage": "https://clawhub.ai/bbgasj/kpainter", "iconUrl": null, "installs": 0, "name": "KPainter", "ownerName": "bbgasj", "score": 93333.33333333333, "slug": "kpainter", "source": "clawhub", "stars": 0, "tags": ["education", "slides", "video"], "updated_at": 1776698383726, "version": "0.6.3"}, {"category": "", "created_at": 1774877144903, "description": "Donately integration. Manage Organizations, Projects, Users. Use when the user wants to interact with Donately data.", "description_zh": "", "downloads": 28, "homepage": "https://clawhub.ai/gora050/donately", "iconUrl": null, "installs": 0, "name": "Donately", "ownerName": "gora050", "score": 93333.33333333333, "slug": "donately", "source": "clawhub", "stars": 0, "tags": null, "updated_at": 1776698383725, "version": "1.0.0"}, {"category": "", "created_at": 1774918436980, "description": "Mercado Libre return management and authorization code agent. Complete returns workflow management for ML sellers — obtain return codes, manage return shipme...", "description_zh": "", "downloads": 28, "homepage": "https://clawhub.ai/mguozhen/mercadolibre-return-guide", "iconUrl": null, "installs": 0, "name": "Mercadolibre Return Guide", "ownerName": "mguozhen", "score": 93333.33333333333, "slug": "mercadolibre-return-guide", "source": "clawhub", "stars": 0, "tags": null, "updated_at": 1776698383722, "version": "1.0.0"}, {"category": "", "created_at": 1774922407001, "description": "Booqable integration. Manage data, records, and automate workflows. Use when the user wants to interact with Booqable data.", "description_zh": "", "downloads": 28, "homepage": "https://clawhub.ai/membranedev/booqable", "iconUrl": null, "installs": 0, "name": "Booqable", "ownerName": "membranedev", "score": 93333.33333333333, "slug": "booqable", "source": "clawhub", "stars": 0, "tags": null, "updated_at": 1776698383720, "version": "1.0.0"}, {"category": "", "created_at": 1774878918108, "description": "Simple memory management for OpenClaw. Save, retrieve, and search important information. Store facts, decisions, preferences, and anything you want to rememb...", "description_zh": "", "downloads": 28, "homepage": "https://clawhub.ai/yang1002378395-cmyk/openclaw-memorize", "iconUrl": null, "installs": 2, "name": "Openclaw Memorize", "ownerName": "yang1002378395-cmyk", "score": 93333.33333333333, "slug": "openclaw-memorize", "source": "clawhub", "stars": 0, "tags": null, "updated_at": 1776698383710, "version": "1.0.0"}, {"category": "", "created_at": 1774896274442, "description": "Easy Projects integration. Manage Projects. Use when the user wants to interact with Easy Projects data.", "description_zh": "", "downloads": 28, "homepage": "https://clawhub.ai/membranedev/easy-projects", "iconUrl": null, "installs": 0, "name": "Easy Projects", "ownerName": "membranedev", "score": 93333.33333333333, "slug": "easy-projects", "source": "clawhub", "stars": 0, "tags": null, "updated_at": 1776698383708, "version": "1.0.0"}, {"category": "", "created_at": 1774891231848, "description": "Distill finished work into the right OpenClaw knowledge layer. Use when a task, fix, setup, integration, cron/report workflow, repeated operation, or output-...", "description_zh": "", "downloads": 28, "homepage": "https://clawhub.ai/traceme/experience-distiller", "iconUrl": null, "installs": 1, "name": "Experience Distiller", "ownerName": "traceme", "score": 93333.33333333333, "slug": "experience-distiller", "source": "clawhub", "stars": 0, "tags": null, "updated_at": 1776698383696, "version": "0.1.1"}, {"category": "", "created_at": 1774916734760, "description": "Go-to-Market (GTM) Playbook — Complete GTM strategy framework for startups and product launches. Proven tactics from Manus, Devin, AFFiNE (33k GitHub stars)....", "description_zh": "", "downloads": 28, "homepage": "https://clawhub.ai/gingiris/go-to-market-playbook", "iconUrl": null, "installs": 0, "name": "Go-to-Market Playbook", "ownerName": "gingiris", "score": 93333.33333333333, "slug": "go-to-market-playbook", "source": "clawhub", "stars": 0, "tags": null, "updated_at": 1776698383692, "version": "1.0.0"}]}