{"page": 487, "total_pages": 522, "total": 26073, "skills": [{"category": "", "created_at": 1774955183324, "description": "Experience pure joy as vibrant powders turn the streets of Vrindavan into a living canvas, immersing you in communal celebration and sensory overload. Guided...", "description_zh": "", "downloads": 28, "homepage": "https://clawhub.ai/driftsbot/experience-vrindavan-powder-storm", "iconUrl": null, "installs": 0, "name": "Experience Vrindavan Powder Storm", "ownerName": "driftsbot", "score": 93333.33333333333, "slug": "experience-vrindavan-powder-storm", "source": "clawhub", "stars": 0, "tags": null, "updated_at": 1776698383685, "version": "1.0.0"}, {"category": "", "created_at": 1774900000246, "description": "Auto-generated skill for perplexity tools via OneKey Gateway.", "description_zh": "", "downloads": 28, "homepage": "https://clawhub.ai/ai-hub-admin/perplexity-onekey-gateway", "iconUrl": null, "installs": 1, "name": "Perplexity", "ownerName": "ai-hub-admin", "score": 93333.33333333333, "slug": "perplexity-onekey-gateway", "source": "clawhub", "stars": 0, "tags": null, "updated_at": 1776698383684, "version": "0.1.0"}, {"category": "", "created_at": 1774873668005, "description": "Comprehensive beauty industry suppliers guide for international buyers – provides detailed information about China's skincare, color cosmetics, hair care, an...", "description_zh": "", "downloads": 28, "homepage": "https://clawhub.ai/findhappy7/china-beauty-suppliers", "iconUrl": null, "installs": 0, "name": "China Beauty Suppliers", "ownerName": "findhappy7", "score": 93333.33333333333, "slug": "china-beauty-suppliers", "source": "clawhub", "stars": 0, "tags": null, "updated_at": 1776698383680, "version": "1.0.1"}, {"category": "", "created_at": 1774868865143, "description": "Use when working with Halo CLI login, bearer token or basic auth, profile setup, profile switching, current profile inspection, or fixing missing keyring cre...", "description_zh": "", "downloads": 28, "homepage": "https://clawhub.ai/ruibaby/halo-cli-auth", "iconUrl": null, "installs": 0, "name": "Halo Cli Auth", "ownerName": "ruibaby", "score": 96551.72413793104, "slug": "halo-cli-auth", "source": "clawhub", "stars": 0, "tags": null, "updated_at": 1776698383665, "version": "0.1.1"}, {"category": "", "created_at": 1774852644734, "description": "Diagnose and recover OpenClaw browser tool timeouts (browser.status/tabs/snapshot) involving gateway ports 18789/18791 and Chrome CDP 9222 conflicts. Use whe...", "description_zh": "", "downloads": 28, "homepage": "https://clawhub.ai/sajdijjsid/openclaw-browser-recover", "iconUrl": null, "installs": 0, "name": "OpenClaw Browser Recover", "ownerName": "sajdijjsid", "score": 96551.72413793104, "slug": "openclaw-browser-recover", "source": "clawhub", "stars": 0, "tags": null, "updated_at": 1776698383659, "version": "0.1.0"}, {"category": "", "created_at": 1774953630656, "description": "Trigger an Agent Token Audit via Botlington's A2A endpoint. Use when you want to audit an AI agent's token efficiency — identifies model waste, context bloat...", "description_zh": "", "downloads": 28, "homepage": "https://clawhub.ai/gary-botlington/botlington-audit", "iconUrl": null, "installs": 0, "name": "Botlington Agent Token Audit", "ownerName": "gary-botlington", "score": 96551.72413793104, "slug": "botlington-audit", "source": "clawhub", "stars": 0, "tags": null, "updated_at": 1776698383656, "version": "1.0.0"}, {"category": "", "created_at": 1774925437453, "description": "Set up competitor price tracking and monitoring workflows. Track price changes, detect promotions, analyze pricing patterns, and get alerts for competitive p...", "description_zh": "", "downloads": 28, "homepage": "https://clawhub.ai/nexscope/competitor-price-tracker", "iconUrl": null, "installs": 2, "name": "Competitor Price Tracker", "ownerName": "nexscope", "score": 96551.72413793104, "slug": "competitor-price-tracker", "source": "clawhub", "stars": 0, "tags": null, "updated_at": 1776698383652, "version": "1.0.0"}, {"category": "", "created_at": 1774875330537, "description": "UK Companies House CLI — search companies, profiles, officers, filings, PSC, charges, insolvency, and agent-friendly JSON output aligned with rail-cli and tf...", "description_zh": "", "downloads": 28, "homepage": "https://clawhub.ai/shan8851/companies-house-cli", "iconUrl": null, "installs": 0, "name": "companies-house-cli", "ownerName": "shan8851", "score": 96551.72413793104, "slug": "companies-house-cli", "source": "clawhub", "stars": 0, "tags": null, "updated_at": 1776698383650, "version": "0.3.1"}, {"category": "", "created_at": 1774905318188, "description": "Bilflo integration. Manage data, records, and automate workflows. Use when the user wants to interact with Bilflo data.", "description_zh": "", "downloads": 28, "homepage": "https://clawhub.ai/gora050/bilflo", "iconUrl": null, "installs": 0, "name": "Bilflo", "ownerName": "gora050", "score": 96551.72413793104, "slug": "bilflo", "source": "clawhub", "stars": 0, "tags": null, "updated_at": 1776698383639, "version": "1.0.0"}, {"category": "", "created_at": 1774876714906, "description": "Access Rivian vehicle telemetry (battery, range, charge state, locks, doors, tires, cabin temp, location) using the rivian-ls CLI tool. Use when the user ask...", "description_zh": "", "downloads": 27, "homepage": "https://clawhub.ai/pfrederiksen/rivian-ls", "iconUrl": null, "installs": 1, "name": "Rivian Ls", "ownerName": "pfrederiksen", "score": 718.0851063829787, "slug": "rivian-ls", "source": "clawhub", "stars": 0, "tags": null, "updated_at": 1776768850344, "version": "1.1.0"}, {"category": "", "created_at": 1774912595396, "description": "Turn AI chat transcripts into structured YMind thinking maps with reasoning nodes, thinking shifts, and action items — rendered as an interactive D3.js force...", "description_zh": "", "downloads": 27, "homepage": "https://clawhub.ai/yslenjoy/chat-visualizer-ymind", "iconUrl": null, "installs": 0, "name": "YMind Chat Visualizer", "ownerName": "yslenjoy", "score": 819.4233687405159, "slug": "chat-visualizer-ymind", "source": "clawhub", "stars": 0, "tags": null, "updated_at": 1776768850055, "version": "1.0.0"}, {"category": "", "created_at": 1774877770872, "description": "Control and monitor Ring doorbells and cameras. List devices, capture snapshots, view events. Use when user asks about their Ring cameras, doorbell activity,...", "description_zh": "", "downloads": 27, "homepage": "https://clawhub.ai/zlmoment/ring-doorbell", "iconUrl": null, "installs": 0, "name": "Ring Doorbell & Camera", "ownerName": "zlmoment", "score": 619.4081211286992, "slug": "ring-doorbell", "source": "clawhub", "stars": 0, "tags": ["camera", "home", "security"], "updated_at": 1776767090412, "version": "1.0.1"}, {"category": "", "created_at": 1774905244629, "description": "Reviews App Intents code for intent structure, entities, shortcuts, and parameters. Use when reviewing code with import AppIntents, @AppIntent, AppEntity, Ap...", "description_zh": "", "downloads": 27, "homepage": "https://clawhub.ai/anderskev/app-intents-code-review", "iconUrl": null, "installs": 2, "name": "App Intents Code Review", "ownerName": "anderskev", "score": 1207.5134168157424, "slug": "app-intents-code-review", "source": "clawhub", "stars": 0, "tags": null, "updated_at": 1776766962323, "version": "1.2.0"}, {"category": "", "created_at": 1774955061469, "description": "Use when reviewing pull requests or critiquing code changes and you want high-signal, low-noise feedback by running multiple adversarial agents that challeng...", "description_zh": "", "downloads": 27, "homepage": "https://clawhub.ai/reikys/adversarial-code-review", "iconUrl": null, "installs": 3, "name": "Adversarial Code Review", "ownerName": "reikys", "score": 1207.5134168157424, "slug": "adversarial-code-review", "source": "clawhub", "stars": 0, "tags": null, "updated_at": 1776766961153, "version": "1.0.0"}, {"category": "", "created_at": 1774780173917, "description": "World-class autonomous sales and revenue skill system. Use ANY time the user asks to sell, pitch, prospect, close, negotiate, launch, monetize, build funnels...", "description_zh": "", "downloads": 27, "homepage": "https://clawhub.ai/tenlifejosh/sales-mastery", "iconUrl": null, "installs": 1, "name": "Sales Mastery — World-Class AI Revenue Agent", "ownerName": "tenlifejosh", "score": 1388.1748071979434, "slug": "sales-mastery", "source": "clawhub", "stars": 0, "tags": ["closing", "copywriting", "funnel", "gtm", "marketing", "outbound", "pricing", "revenue", "sales"], "updated_at": 1776766790513, "version": "1.0.0"}, {"category": "", "created_at": 1774866411990, "description": "Xueersi Reading Reflection Guide: Step-by-step prompts and structured frameworks to help K-9 students write thoughtful book reports and movie/show reflection...", "description_zh": "", "downloads": 27, "homepage": "https://clawhub.ai/zhouzhi-tal/xueersi-reading-reflection", "iconUrl": null, "installs": 1, "name": "Xueersi Reading Reflection Guide", "ownerName": "zhouzhi-tal", "score": 841.908325537886, "slug": "xueersi-reading-reflection", "source": "clawhub", "stars": 0, "tags": ["chinese", "education", "k12", "xueersi"], "updated_at": 1776765290457, "version": "1.0.0"}, {"category": "", "created_at": 1774895369166, "description": "Generate a concise copy-paste session handoff for continuing the current task in a fresh chat after /new or /reset. Use when the user wants to preserve the r...", "description_zh": "", "downloads": 27, "homepage": "https://clawhub.ai/kisssam6886/resetcontinue", "iconUrl": null, "installs": 0, "name": "Fresh Session Handoff", "ownerName": "kisssam6886", "score": 342.77009013583853, "slug": "resetcontinue", "source": "clawhub", "stars": 0, "tags": null, "updated_at": 1776761990176, "version": "1.0.3"}, {"category": "", "created_at": 1774921464530, "description": "Generate sustainable fitness plans, daily workouts, and health routines based on user goals, time, and fitness level.", "description_zh": "", "downloads": 27, "homepage": "https://clawhub.ai/know-hub/keep-fit", "iconUrl": null, "installs": 1, "name": "Keep Fit", "ownerName": "know-hub", "score": 793.4175727299441, "slug": "keep-fit", "source": "clawhub", "stars": 0, "tags": null, "updated_at": 1776761239939, "version": "1.0.0"}, {"category": "", "created_at": 1774885400269, "description": "Claw Meet AI meeting assistant. Use when the user wants to prepare for meetings, generate agendas, take smart notes, extract action items, write meeting summ...", "description_zh": "", "downloads": 27, "homepage": "https://clawhub.ai/jiwenbing/claw-meet", "iconUrl": null, "installs": 1, "name": "Claw Meet", "ownerName": "jiwenbing", "score": 1596.6883500887047, "slug": "claw-meet", "source": "clawhub", "stars": 0, "tags": null, "updated_at": 1776758521332, "version": "1.0.1"}, {"category": "", "created_at": 1774895531814, "description": "Streak integration. Manage Persons, Organizations, Deals, Pipelines, Users, Roles. Use when the user wants to interact with Streak data.", "description_zh": "", "downloads": 27, "homepage": "https://clawhub.ai/membranedev/streak", "iconUrl": null, "installs": 0, "name": "Streak", "ownerName": "membranedev", "score": 4830.05366726297, "slug": "streak", "source": "clawhub", "stars": 0, "tags": null, "updated_at": 1776751669569, "version": "1.0.0"}, {"category": "", "created_at": 1774894417729, "description": "Scans 30+ online casinos, calculates the Expected Value of each welcome/reload/cashback bonus using optimal blackjack strategy, adjusts EV by casino reputati...", "description_zh": "", "downloads": 27, "homepage": "https://clawhub.ai/mibayy/casino-bonus-hunter", "iconUrl": null, "installs": 1, "name": "Casino Bonus Hunter", "ownerName": "mibayy", "score": 4695.652173913043, "slug": "casino-bonus-hunter", "source": "clawhub", "stars": 0, "tags": null, "updated_at": 1776748184822, "version": "1.0.0"}, {"category": "", "created_at": 1774880632838, "description": "Play The Parliament Game — label Canadian parliamentary Q&A pairs. Read real exchanges from the House of Commons and decide if MPs actually answered the ques...", "description_zh": "", "downloads": 27, "homepage": "https://clawhub.ai/idiom-bytes/parliament-claw", "iconUrl": null, "installs": 0, "name": "Openclaw Skill", "ownerName": "idiom-bytes", "score": 3114.1868512110723, "slug": "parliament-claw", "source": "clawhub", "stars": 0, "tags": ["ai-agents", "canada", "civic-tech", "labeling", "parliament"], "updated_at": 1776747904794, "version": "2.1.0"}, {"category": "", "created_at": 1774945941628, "description": "Assess a user's personal risk profile to identify their biggest financial, health, and lifestyle risks and recommend appropriate insurance and protection str...", "description_zh": "", "downloads": 27, "homepage": "https://clawhub.ai/jiwenbing/risk-profile", "iconUrl": null, "installs": 0, "name": "Risk Profile", "ownerName": "jiwenbing", "score": 27835.051546391755, "slug": "risk-profile", "source": "clawhub", "stars": 0, "tags": null, "updated_at": 1776742244559, "version": "1.0.0"}, {"category": "", "created_at": 1774905565283, "description": "HotspotSystem integration. Manage Organizations, Users, Projects. Use when the user wants to interact with HotspotSystem data.", "description_zh": "", "downloads": 27, "homepage": "https://clawhub.ai/gora050/hotspotsystem", "iconUrl": null, "installs": 1, "name": "Hotspotsystem", "ownerName": "gora050", "score": 32530.12048192771, "slug": "hotspotsystem", "source": "clawhub", "stars": 0, "tags": null, "updated_at": 1776740570028, "version": "1.0.0"}, {"category": "", "created_at": 1774877944005, "description": "Reference HLSL shader implementations for the Slug font rendering algorithm, enabling high-quality GPU-accelerated vector font and glyph rendering.", "description_zh": "", "downloads": 27, "homepage": "https://clawhub.ai/adisinghstudent/slug-font-rendering", "iconUrl": null, "installs": 0, "name": "slug-font-rendering", "ownerName": "adisinghstudent", "score": 27835.051546391755, "slug": "slug-font-rendering", "source": "clawhub", "stars": 0, "tags": null, "updated_at": 1776736969632, "version": "1.0.0"}, {"category": "", "created_at": 1774955407954, "description": "Track daily habits, streaks, and completions locally. Triggers on: habit, streak, track habit, log exercise, log habit, weekly review, habit status, did I ex...", "description_zh": "", "downloads": 27, "homepage": "https://clawhub.ai/newageinvestments25-byte/nai-habit-tracker", "iconUrl": null, "installs": 0, "name": "Habit Tracker", "ownerName": "newageinvestments25-byte", "score": 27835.051546391755, "slug": "nai-habit-tracker", "source": "clawhub", "stars": 0, "tags": null, "updated_at": 1776736872058, "version": "1.0.0"}, {"category": "", "created_at": 1774894870926, "description": "Production-grade bash watchdog for the OpenClaw gateway. Runs via launchd every 5 minutes. Handles boot grace periods, progressive retry with backoff, port-l...", "description_zh": "", "downloads": 27, "homepage": "https://clawhub.ai/bryantegomoh/gateway-watchdog-v2", "iconUrl": null, "installs": 0, "name": "Gateway Watchdog", "ownerName": "bryantegomoh", "score": 28125, "slug": "gateway-watchdog-v2", "source": "clawhub", "stars": 0, "tags": null, "updated_at": 1776729883800, "version": "1.0.0"}, {"category": "", "created_at": 1774954801990, "description": "Immigration, tax, and business compliance alerts. Check your STEM OPT, H-1B, I-140, CPT status, upcoming deadlines, risk findings, and tax filing obligations...", "description_zh": "", "downloads": 27, "homepage": "https://clawhub.ai/lee-chenyu/guardian-compliance", "iconUrl": null, "installs": 0, "name": "Guardian Compliance", "ownerName": "lee-chenyu", "score": 28723.40425531915, "slug": "guardian-compliance", "source": "clawhub", "stars": 0, "tags": null, "updated_at": 1776721255471, "version": "1.0.0"}, {"category": "", "created_at": 1774949088922, "description": "Interact with GitHub using the `gh` CLI. Use `gh issue`, `gh pr`, `gh run`, and `gh api` for issues, PRs, CI runs, and advanced queries.", "description_zh": "", "downloads": 27, "homepage": "https://clawhub.ai/aceundefeated/aj-github", "iconUrl": null, "installs": 1, "name": "Aj Github", "ownerName": "aceundefeated", "score": 27551.020408163262, "slug": "aj-github", "source": "clawhub", "stars": 0, "tags": null, "updated_at": 1776708469572, "version": "1.0.0"}, {"category": "", "created_at": 1774954657241, "description": "WebinarFuel integration. Manage data, records, and automate workflows. Use when the user wants to interact with WebinarFuel data.", "description_zh": "", "downloads": 27, "homepage": "https://clawhub.ai/gora050/webinarfuel", "iconUrl": null, "installs": 0, "name": "Webinarfuel", "ownerName": "gora050", "score": 28723.40425531915, "slug": "webinarfuel", "source": "clawhub", "stars": 0, "tags": null, "updated_at": 1776701083787, "version": "1.0.0"}, {"category": "", "created_at": 1774948496660, "description": "Device Magic integration. Manage Forms. Use when the user wants to interact with Device Magic data.", "description_zh": "", "downloads": 27, "homepage": "https://clawhub.ai/gora050/device-magic", "iconUrl": null, "installs": 0, "name": "Device Magic", "ownerName": "gora050", "score": 27835.051546391755, "slug": "device-magic", "source": "clawhub", "stars": 0, "tags": null, "updated_at": 1776699769674, "version": "1.0.0"}, {"category": "", "created_at": 1774917297468, "description": "UltraMsg integration. Manage Organizations, Users. Use when the user wants to interact with UltraMsg data.", "description_zh": "", "downloads": 27, "homepage": "https://clawhub.ai/gora050/ultramsg", "iconUrl": null, "installs": 0, "name": "Ultramsg", "ownerName": "gora050", "score": 100000, "slug": "ultramsg", "source": "clawhub", "stars": 0, "tags": null, "updated_at": 1776698570621, "version": "1.0.0"}, {"category": "", "created_at": 1774947814922, "description": "Capture, inspect, and compare screenshots of screens, windows, regions, web pages, simulators, and CI runs with the right tool, wait strategy, viewport, and...", "description_zh": "", "downloads": 27, "homepage": "https://clawhub.ai/zhouhuihui008/screenshot-1-0-1", "iconUrl": null, "installs": 0, "name": "Screenshot 1.0.1", "ownerName": "zhouhuihui008", "score": 100000, "slug": "screenshot-1-0-1", "source": "clawhub", "stars": 0, "tags": null, "updated_at": 1776698570619, "version": "1.0.0"}, {"category": "", "created_at": 1774954594351, "description": "ReferralHero integration. Manage data, records, and automate workflows. Use when the user wants to interact with ReferralHero data.", "description_zh": "", "downloads": 27, "homepage": "https://clawhub.ai/gora050/referralhero", "iconUrl": null, "installs": 0, "name": "Referralhero", "ownerName": "gora050", "score": 100000, "slug": "referralhero", "source": "clawhub", "stars": 0, "tags": null, "updated_at": 1776698570615, "version": "1.0.0"}, {"category": "", "created_at": 1774909079381, "description": "Shipcloud integration. Manage Shipments, Trackings, Carriers, Services, Labels, Pickups and more. Use when the user wants to interact with Shipcloud data.", "description_zh": "", "downloads": 27, "homepage": "https://clawhub.ai/gora050/shipcloud", "iconUrl": null, "installs": 1, "name": "Shipcloud", "ownerName": "gora050", "score": 100000, "slug": "shipcloud", "source": "clawhub", "stars": 0, "tags": null, "updated_at": 1776698570612, "version": "1.0.0"}, {"category": "", "created_at": 1774923304250, "description": "Write, optimize, and grow Substack content — both newsletter issues (email-first) and web posts (web-first articles/essays). Covers ghostwriting with voice m...", "description_zh": "", "downloads": 27, "homepage": "https://clawhub.ai/samber/substack-ghostwriting", "iconUrl": null, "installs": 0, "name": "Substack Ghostwriting", "ownerName": "samber", "score": 100000, "slug": "substack-ghostwriting", "source": "clawhub", "stars": 0, "tags": null, "updated_at": 1776698570610, "version": "1.1.0"}, {"category": "", "created_at": 1774903629438, "description": "Quentn integration. Manage Persons, Organizations, Deals, Activities, Notes, Files and more. Use when the user wants to interact with Quentn data.", "description_zh": "", "downloads": 27, "homepage": "https://clawhub.ai/gora050/quentn", "iconUrl": null, "installs": 0, "name": "Quentn", "ownerName": "gora050", "score": 100000, "slug": "quentn", "source": "clawhub", "stars": 0, "tags": null, "updated_at": 1776698570608, "version": "1.0.0"}, {"category": "", "created_at": 1774898945652, "description": "TaxJar integration. Manage Orders, Nexuses, Customers. Use when the user wants to interact with TaxJar data.", "description_zh": "", "downloads": 27, "homepage": "https://clawhub.ai/membranedev/taxjar", "iconUrl": null, "installs": 0, "name": "Taxjar", "ownerName": "membranedev", "score": 100000, "slug": "taxjar", "source": "clawhub", "stars": 0, "tags": null, "updated_at": 1776698570599, "version": "1.0.0"}, {"category": "", "created_at": 1774915645643, "description": "Placetel integration. Manage Organizations. Use when the user wants to interact with Placetel data.", "description_zh": "", "downloads": 27, "homepage": "https://clawhub.ai/membranedev/placetel", "iconUrl": null, "installs": 0, "name": "Placetel", "ownerName": "membranedev", "score": 100000, "slug": "placetel", "source": "clawhub", "stars": 0, "tags": null, "updated_at": 1776698570597, "version": "1.0.0"}, {"category": "", "created_at": 1774871736562, "description": "Reference tool for devtools — covers intro, quickstart, patterns and more. Quick lookup for Secret Sealer concepts, best practices, and implementation patterns.", "description_zh": "", "downloads": 27, "homepage": "https://clawhub.ai/bytesagain3/secret-sealer", "iconUrl": null, "installs": 0, "name": "Secret Sealer", "ownerName": "bytesagain3", "score": 100000, "slug": "secret-sealer", "source": "clawhub", "stars": 0, "tags": null, "updated_at": 1776698570595, "version": "2.0.1"}, {"category": "", "created_at": 1774909029453, "description": "Rydoo integration. Manage data, records, and automate workflows. Use when the user wants to interact with Rydoo data.", "description_zh": "", "downloads": 27, "homepage": "https://clawhub.ai/gora050/rydoo", "iconUrl": null, "installs": 0, "name": "Rydoo", "ownerName": "gora050", "score": 100000, "slug": "rydoo", "source": "clawhub", "stars": 0, "tags": null, "updated_at": 1776698570588, "version": "1.0.0"}, {"category": "", "created_at": 1774909095713, "description": "SignPath integration. Manage Leads, Persons, Organizations, Deals, Projects, Pipelines and more. Use when the user wants to interact with SignPath data.", "description_zh": "", "downloads": 27, "homepage": "https://clawhub.ai/gora050/signpath", "iconUrl": null, "installs": 0, "name": "Signpath", "ownerName": "gora050", "score": 100000, "slug": "signpath", "source": "clawhub", "stars": 0, "tags": null, "updated_at": 1776698570581, "version": "1.0.0"}, {"category": "", "created_at": 1774902726731, "description": "Vwap reference tool. Use when working with vwap in finance contexts.", "description_zh": "", "downloads": 27, "homepage": "https://clawhub.ai/ckchzh/vwap", "iconUrl": null, "installs": 0, "name": "Vwap", "ownerName": "ckchzh", "score": 100000, "slug": "vwap", "source": "clawhub", "stars": 0, "tags": null, "updated_at": 1776698570578, "version": "1.0.0"}, {"category": "", "created_at": 1774906062658, "description": "Vyper reference tool. Use when working with vyper in blockchain contexts.", "description_zh": "", "downloads": 27, "homepage": "https://clawhub.ai/xueyetianya/vyper", "iconUrl": null, "installs": 0, "name": "Vyper", "ownerName": "xueyetianya", "score": 100000, "slug": "vyper", "source": "clawhub", "stars": 0, "tags": null, "updated_at": 1776698570575, "version": "1.0.0"}, {"category": "", "created_at": 1774914825952, "description": "Placeholder skill for text-to-video workflows on skills.video. Use when the user is asking about t2v generation and the concrete API contract has not been im...", "description_zh": "", "downloads": 27, "homepage": "https://clawhub.ai/skills-video/t2v", "iconUrl": null, "installs": 0, "name": "T2V", "ownerName": "skills-video", "score": 100000, "slug": "t2v", "source": "clawhub", "stars": 0, "tags": null, "updated_at": 1776698570573, "version": "1.0.0"}, {"category": "", "created_at": 1774947799504, "description": "ReferralRock integration. Manage data, records, and automate workflows. Use when the user wants to interact with ReferralRock data.", "description_zh": "", "downloads": 27, "homepage": "https://clawhub.ai/gora050/referralrock", "iconUrl": null, "installs": 0, "name": "Referralrock", "ownerName": "gora050", "score": 100000, "slug": "referralrock", "source": "clawhub", "stars": 0, "tags": null, "updated_at": 1776698570571, "version": "1.0.0"}, {"category": "", "created_at": 1774912447650, "description": "Zyte API integration. Manage data, records, and automate workflows. Use when the user wants to interact with Zyte API data.", "description_zh": "", "downloads": 27, "homepage": "https://clawhub.ai/gora050/zyte-api", "iconUrl": null, "installs": 0, "name": "Zyte Api", "ownerName": "gora050", "score": 100000, "slug": "zyte-api", "source": "clawhub", "stars": 0, "tags": null, "updated_at": 1776698570567, "version": "1.0.0"}, {"category": "", "created_at": 1774946022987, "description": "Reference tool for devtools — covers intro, quickstart, patterns and more. Quick lookup for Spend Tracker concepts, best practices, and implementation patterns.", "description_zh": "", "downloads": 27, "homepage": "https://clawhub.ai/bytesagain3/spend-tracker", "iconUrl": null, "installs": 0, "name": "Spend Tracker", "ownerName": "bytesagain3", "score": 100000, "slug": "spend-tracker", "source": "clawhub", "stars": 0, "tags": null, "updated_at": 1776698570555, "version": "2.0.2"}, {"category": "", "created_at": 1774886393155, "description": "Unified Apify-based retrieval for TikTok, Instagram, X/Twitter, and YouTube profile, post, and comment data with cross-platform normalization for analysis wo...", "description_zh": "", "downloads": 27, "homepage": "https://clawhub.ai/galaxy-earth/social-media-data-hub", "iconUrl": null, "installs": 0, "name": "Social Media Data Hub", "ownerName": "galaxy-earth", "score": 100000, "slug": "social-media-data-hub", "source": "clawhub", "stars": 0, "tags": null, "updated_at": 1776698570552, "version": "1.0.0"}, {"category": "", "created_at": 1774885348201, "description": "Monitors product prices across e-commerce sites daily, detects price drops, and emails a formatted Excel report automatically every morning.", "description_zh": "", "downloads": 27, "homepage": "https://clawhub.ai/neo1307/argus-price-monitor", "iconUrl": null, "installs": 0, "name": "Price Monitor & Daily Excel Report Bot", "ownerName": "neo1307", "score": 100000, "slug": "argus-price-monitor", "source": "clawhub", "stars": 0, "tags": null, "updated_at": 1776698570545, "version": "1.0.2"}]}