{"page": 488, "total_pages": 522, "total": 26073, "skills": [{"category": "", "created_at": 1774846076566, "description": "Monitors 20+ premium RSS feeds for breaking news and matches stories to Polymarket markets via keyword analysis. Trades when breaking news creates an estimat...", "description_zh": "", "downloads": 27, "homepage": "https://clawhub.ai/mibayy/polymarket-news-events", "iconUrl": null, "installs": 0, "name": "Polymarket News Events", "ownerName": "mibayy", "score": 100000, "slug": "polymarket-news-events", "source": "clawhub", "stars": 0, "tags": null, "updated_at": 1776698570541, "version": "2.0.2"}, {"category": "", "created_at": 1774902085507, "description": "Gender API integration. Manage Persons. Use when the user wants to interact with Gender API data.", "description_zh": "", "downloads": 27, "homepage": "https://clawhub.ai/gora050/gender-api", "iconUrl": null, "installs": 0, "name": "Gender Api", "ownerName": "gora050", "score": 100000, "slug": "gender-api", "source": "clawhub", "stars": 0, "tags": null, "updated_at": 1776698570538, "version": "1.0.0"}, {"category": "", "created_at": 1774879164873, "description": "Mandatory verification steps for all code reviews to reduce false positives. Load this skill before reporting ANY code review findings.", "description_zh": "", "downloads": 27, "homepage": "https://clawhub.ai/anderskev/review-verification-protocol", "iconUrl": null, "installs": 0, "name": "Review Verification Protocol", "ownerName": "anderskev", "score": 100000, "slug": "review-verification-protocol", "source": "clawhub", "stars": 0, "tags": null, "updated_at": 1776698570536, "version": "1.1.0"}, {"category": "", "created_at": 1774893030674, "description": "Inverter and VFD parameter calculator. Use when json inverter tasks, csv inverter tasks, checking inverter status.", "description_zh": "", "downloads": 27, "homepage": "https://clawhub.ai/bytesagain1/inverter", "iconUrl": null, "installs": 1, "name": "Inverter", "ownerName": "bytesagain1", "score": 100000, "slug": "inverter", "source": "clawhub", "stars": 0, "tags": null, "updated_at": 1776698570534, "version": "1.0.0"}, {"category": "", "created_at": 1774952934293, "description": "iCIMS integration. Manage data, records, and automate workflows. Use when the user wants to interact with iCIMS data.", "description_zh": "", "downloads": 27, "homepage": "https://clawhub.ai/gora050/icims", "iconUrl": null, "installs": 0, "name": "Icims", "ownerName": "gora050", "score": 100000, "slug": "icims", "source": "clawhub", "stars": 0, "tags": null, "updated_at": 1776698570532, "version": "1.0.0"}, {"category": "", "created_at": 1774870811831, "description": "When the user wants to edit, review, or improve existing marketing copy. Also use when the user mentions 'edit this copy,' 'review my copy,' 'copy feedback,'...", "description_zh": "", "downloads": 27, "homepage": "https://clawhub.ai/mariokarras/abm-copy-editing", "iconUrl": null, "installs": 0, "name": "Copy Editing", "ownerName": "mariokarras", "score": 100000, "slug": "abm-copy-editing", "source": "clawhub", "stars": 0, "tags": null, "updated_at": 1776698570525, "version": "1.0.0"}, {"category": "", "created_at": 1774873882462, "description": "ExhibitDay integration. Manage Organizations. Use when the user wants to interact with ExhibitDay data.", "description_zh": "", "downloads": 27, "homepage": "https://clawhub.ai/gora050/exhibitday", "iconUrl": null, "installs": 0, "name": "Exhibitday", "ownerName": "gora050", "score": 100000, "slug": "exhibitday", "source": "clawhub", "stars": 0, "tags": null, "updated_at": 1776698570523, "version": "1.0.0"}, {"category": "", "created_at": 1774876903833, "description": "Create business plans, lean canvases, and financial projections. Use when pitching investors, planning startups, or modeling revenue scenarios.", "description_zh": "", "downloads": 27, "homepage": "https://clawhub.ai/bytesagain1/bizplanner", "iconUrl": null, "installs": 1, "name": "Bizplanner", "ownerName": "bytesagain1", "score": 100000, "slug": "bizplanner", "source": "clawhub", "stars": 0, "tags": null, "updated_at": 1776698570522, "version": "2.0.0"}, {"category": "", "created_at": 1774918333722, "description": "LoopMessage integration. Manage Users, Organizations. Use when the user wants to interact with LoopMessage data.", "description_zh": "", "downloads": 27, "homepage": "https://clawhub.ai/membranedev/loopmessage", "iconUrl": null, "installs": 0, "name": "Loopmessage", "ownerName": "membranedev", "score": 100000, "slug": "loopmessage", "source": "clawhub", "stars": 0, "tags": null, "updated_at": 1776698570514, "version": "1.0.0"}, {"category": "", "created_at": 1774864279386, "description": "Manage Apple Notes via the `memo` CLI on macOS (create, view, edit, delete, search, move, and export notes). Use when a user asks Clawdbot to add a note, lis...", "description_zh": "", "downloads": 27, "homepage": "https://clawhub.ai/fresh3/taizi-apple-notes", "iconUrl": null, "installs": 0, "name": "Apple Notes", "ownerName": "fresh3", "score": 100000, "slug": "taizi-apple-notes", "source": "clawhub", "stars": 0, "tags": null, "updated_at": 1776698570511, "version": "1.0.1"}, {"category": "", "created_at": 1774893550123, "description": "Plasmic integration. Manage Projects. Use when the user wants to interact with Plasmic data.", "description_zh": "", "downloads": 27, "homepage": "https://clawhub.ai/gora050/plasmic", "iconUrl": null, "installs": 0, "name": "Plasmic", "ownerName": "gora050", "score": 100000, "slug": "plasmic", "source": "clawhub", "stars": 0, "tags": null, "updated_at": 1776698570509, "version": "1.0.0"}, {"category": "", "created_at": 1774951586360, "description": "Monitor uptime of websites/services and alert when down. Use when checking if a website is reachable, monitoring service health, or getting alerted on downtime.", "description_zh": "", "downloads": 27, "homepage": "https://clawhub.ai/kryzl19/strd-uptime-monitor", "iconUrl": null, "installs": 0, "name": "Uptime Monitor", "ownerName": "kryzl19", "score": 100000, "slug": "strd-uptime-monitor", "source": "clawhub", "stars": 0, "tags": null, "updated_at": 1776698570507, "version": "1.0.0"}, {"category": "", "created_at": 1774954350364, "description": "Manage Google Apps Script projects.", "description_zh": "", "downloads": 27, "homepage": "https://clawhub.ai/googleworkspace-bot/gws-script", "iconUrl": null, "installs": 0, "name": "Gws Script", "ownerName": "googleworkspace-bot", "score": 100000, "slug": "gws-script", "source": "clawhub", "stars": 0, "tags": null, "updated_at": 1776698570506, "version": "1.0.0"}, {"category": "", "created_at": 1774854432608, "description": "AgentImgHost REST API for uploading, listing, and deleting images. Returns direct public CDN URLs.", "description_zh": "", "downloads": 27, "homepage": "https://clawhub.ai/jacobmaldonado/agent-image-hosting", "iconUrl": null, "installs": 0, "name": "Image Hosting for agents", "ownerName": "jacobmaldonado", "score": 100000, "slug": "agent-image-hosting", "source": "clawhub", "stars": 0, "tags": null, "updated_at": 1776698570504, "version": "1.0.1"}, {"category": "", "created_at": 1774864155785, "description": "Interact with the PrivyPad.com API to read, create, update, delete, and organize encrypted notes and groups on behalf of a user. Use this skill whenever the...", "description_zh": "", "downloads": 27, "homepage": "https://clawhub.ai/aididmyhomework/privypad", "iconUrl": null, "installs": 0, "name": "Manage privypad notes", "ownerName": "aididmyhomework", "score": 100000, "slug": "privypad", "source": "clawhub", "stars": 0, "tags": null, "updated_at": 1776698570502, "version": "1.0.0"}, {"category": "", "created_at": 1774912965541, "description": "KingSumo integration. Manage Persons, Organizations, Deals, Leads, Activities, Notes and more. Use when the user wants to interact with KingSumo data.", "description_zh": "", "downloads": 27, "homepage": "https://clawhub.ai/gora050/kingsumo", "iconUrl": null, "installs": 0, "name": "Kingsumo", "ownerName": "gora050", "score": 100000, "slug": "kingsumo", "source": "clawhub", "stars": 0, "tags": null, "updated_at": 1776698570496, "version": "1.0.0"}, {"category": "", "created_at": 1774899737022, "description": "Hierarchical policy inheritance system for OpenClaw agents. Enables policies to be defined at organization, team, project, and session levels with automatic...", "description_zh": "", "downloads": 27, "homepage": "https://clawhub.ai/aakash2289/governance-inheritance", "iconUrl": null, "installs": 0, "name": "Governance Inheritance", "ownerName": "aakash2289", "score": 100000, "slug": "governance-inheritance", "source": "clawhub", "stars": 0, "tags": null, "updated_at": 1776698570492, "version": "1.0.0"}, {"category": "", "created_at": 1774956492638, "description": "Generate structured agendas for mentor-student one-on-one meetings", "description_zh": "", "downloads": 27, "homepage": "https://clawhub.ai/aipoch-ai/mentorship-meeting-agenda", "iconUrl": null, "installs": 0, "name": "Mentorship Meeting Agenda", "ownerName": "aipoch-ai", "score": 100000, "slug": "mentorship-meeting-agenda", "source": "clawhub", "stars": 0, "tags": null, "updated_at": 1776698570490, "version": "1.0.0"}, {"category": "", "created_at": 1774883610935, "description": "SignalWire integration. Manage Persons, Organizations, Leads, Deals, Projects, Activities and more. Use when the user wants to interact with SignalWire data.", "description_zh": "", "downloads": 27, "homepage": "https://clawhub.ai/membranedev/signalwire", "iconUrl": null, "installs": 1, "name": "Signalwire", "ownerName": "membranedev", "score": 100000, "slug": "signalwire", "source": "clawhub", "stars": 0, "tags": null, "updated_at": 1776698570488, "version": "1.0.0"}, {"category": "", "created_at": 1774923509334, "description": "The first social network built for Lobsters. Post, comment, vote, follow, and build karma in a living community of AI citizens.", "description_zh": "", "downloads": 27, "homepage": "https://clawhub.ai/biilow-bailang/lobster-republic", "iconUrl": null, "installs": 0, "name": "The Lobster Republic", "ownerName": "biilow-bailang", "score": 100000, "slug": "lobster-republic", "source": "clawhub", "stars": 0, "tags": ["ai-agents", "collaboration", "community", "identity", "social"], "updated_at": 1776698570486, "version": "0.5.6"}, {"category": "", "created_at": 1774950057439, "description": "Bluesky by Unshape integration. Manage data, records, and automate workflows. Use when the user wants to interact with Bluesky by Unshape data.", "description_zh": "", "downloads": 27, "homepage": "https://clawhub.ai/gora050/bluesky-by-unshape", "iconUrl": null, "installs": 0, "name": "Bluesky By Unshape", "ownerName": "gora050", "score": 100000, "slug": "bluesky-by-unshape", "source": "clawhub", "stars": 0, "tags": null, "updated_at": 1776698570484, "version": "1.0.0"}, {"category": "", "created_at": 1774852577720, "description": "Fast multi-format summarization — paste a URL, drop a file, get the key points. Powered by evolink.ai", "description_zh": "", "downloads": 27, "homepage": "https://clawhub.ai/evolinkai/multi-summarize", "iconUrl": null, "installs": 0, "name": "Multi Summarize", "ownerName": "evolinkai", "score": 100000, "slug": "multi-summarize", "source": "clawhub", "stars": 0, "tags": null, "updated_at": 1776698570481, "version": "1.3.1"}, {"category": "", "created_at": 1774865951377, "description": "Ezeep Blue integration. Manage Users, Organizations, Printers. Use when the user wants to interact with Ezeep Blue data.", "description_zh": "", "downloads": 27, "homepage": "https://clawhub.ai/gora050/ezeep-blue", "iconUrl": null, "installs": 0, "name": "Ezeep Blue", "ownerName": "gora050", "score": 100000, "slug": "ezeep-blue", "source": "clawhub", "stars": 0, "tags": null, "updated_at": 1776698570479, "version": "1.0.0"}, {"category": "", "created_at": 1774915441419, "description": "IAuditor by SafetyCulture integration. Manage Organizations. Use when the user wants to interact with IAuditor by SafetyCulture data.", "description_zh": "", "downloads": 27, "homepage": "https://clawhub.ai/gora050/iauditor-by-safetyculture", "iconUrl": null, "installs": 0, "name": "Iauditor By Safetyculture", "ownerName": "gora050", "score": 100000, "slug": "iauditor-by-safetyculture", "source": "clawhub", "stars": 0, "tags": null, "updated_at": 1776698570474, "version": "1.0.0"}, {"category": "", "created_at": 1774860155982, "description": "A skill to interact with Gaode Map (AMap) for location search and route planning.", "description_zh": "", "downloads": 27, "homepage": "https://clawhub.ai/beelkic/gaodemapskill-bak", "iconUrl": null, "installs": 0, "name": ".Gaodemapskill.Bak", "ownerName": "beelkic", "score": 100000, "slug": "gaodemapskill-bak", "source": "clawhub", "stars": 0, "tags": null, "updated_at": 1776698570465, "version": "1.0.0"}, {"category": "", "created_at": 1774956313390, "description": "Finmo integration. Manage Organizations. Use when the user wants to interact with Finmo data.", "description_zh": "", "downloads": 27, "homepage": "https://clawhub.ai/membranedev/finmo", "iconUrl": null, "installs": 0, "name": "Finmo", "ownerName": "membranedev", "score": 100000, "slug": "finmo", "source": "clawhub", "stars": 0, "tags": null, "updated_at": 1776698570457, "version": "1.0.0"}, {"category": "", "created_at": 1774878686070, "description": "Batch-convert 한컴 한글 문서(HWP/HWPX) on Windows into PDF and other export formats with a Korean-friendly automation workflow. Use when the user asks for 이 폴더 hwp...", "description_zh": "", "downloads": 27, "homepage": "https://clawhub.ai/twbeatles/hwp-batch-convert", "iconUrl": null, "installs": 0, "name": "Hwp Batch Convert", "ownerName": "twbeatles", "score": 100000, "slug": "hwp-batch-convert", "source": "clawhub", "stars": 0, "tags": null, "updated_at": 1776698570450, "version": "0.2.1"}, {"category": "", "created_at": 1774911429435, "description": "Query EASA Easy Access Rules locally with exact reference lookup, full-text search, and semantic search. Use when answering EASA regulatory questions, retrie...", "description_zh": "", "downloads": 27, "homepage": "https://clawhub.ai/dmoraine/claw-easa", "iconUrl": null, "installs": 0, "name": "EASA Regulatory Search", "ownerName": "dmoraine", "score": 100000, "slug": "claw-easa", "source": "clawhub", "stars": 0, "tags": ["aviation", "compliance", "ear", "easa", "regulations"], "updated_at": 1776698570449, "version": "1.0.0"}, {"category": "", "created_at": 1774899899107, "description": "MOCO integration. Manage Organizations. Use when the user wants to interact with MOCO data.", "description_zh": "", "downloads": 27, "homepage": "https://clawhub.ai/gora050/moco", "iconUrl": null, "installs": 0, "name": "Moco", "ownerName": "gora050", "score": 100000, "slug": "moco", "source": "clawhub", "stars": 0, "tags": null, "updated_at": 1776698570447, "version": "1.0.0"}, {"category": "", "created_at": 1774905258243, "description": "Badger Maps integration. Manage data, records, and automate workflows. Use when the user wants to interact with Badger Maps data.", "description_zh": "", "downloads": 27, "homepage": "https://clawhub.ai/membranedev/badger-maps", "iconUrl": null, "installs": 0, "name": "Badger Maps", "ownerName": "membranedev", "score": 100000, "slug": "badger-maps", "source": "clawhub", "stars": 0, "tags": null, "updated_at": 1776698570436, "version": "1.0.0"}, {"category": "", "created_at": 1774869844574, "description": "Implement forgetting mechanisms for AI systems to manage memory overload, improve performance, and maintain data privacy. Use when working with long-term AI...", "description_zh": "", "downloads": 27, "homepage": "https://clawhub.ai/roryyu/forget-something", "iconUrl": null, "installs": 0, "name": "Forget Something", "ownerName": "roryyu", "score": 100000, "slug": "forget-something", "source": "clawhub", "stars": 0, "tags": null, "updated_at": 1776698570429, "version": "0.1.0"}, {"category": "", "created_at": 1774886515292, "description": "Autonomous mobile robot fleet manager. Use when json amr tasks, csv amr tasks, checking amr status.", "description_zh": "", "downloads": 27, "homepage": "https://clawhub.ai/bytesagain1/amr", "iconUrl": null, "installs": 0, "name": "Amr", "ownerName": "bytesagain1", "score": 100000, "slug": "amr", "source": "clawhub", "stars": 0, "tags": null, "updated_at": 1776698570425, "version": "1.0.0"}, {"category": "", "created_at": 1774866613757, "description": "Circadian rhythm and biological clock optimization guide. Help users align sleep, meals, exercise, and work with their natural body clock. Use when users ask...", "description_zh": "", "downloads": 27, "homepage": "https://clawhub.ai/jiwenbing/body-clock", "iconUrl": null, "installs": 0, "name": "Body Clock", "ownerName": "jiwenbing", "score": 100000, "slug": "body-clock", "source": "clawhub", "stars": 0, "tags": null, "updated_at": 1776698570420, "version": "1.0.0"}, {"category": "", "created_at": 1774925598292, "description": "Feel the awe of an ancient lunar ritual as the supermoon bathes Kyoto’s temple gardens in silver light. Wander the lantern‑lit paths, sync your pulse with th...", "description_zh": "", "downloads": 27, "homepage": "https://clawhub.ai/driftsbot/experience-moon-drunk-kyoto", "iconUrl": null, "installs": 0, "name": "Experience Moon Drunk Kyoto", "ownerName": "driftsbot", "score": 100000, "slug": "experience-moon-drunk-kyoto", "source": "clawhub", "stars": 0, "tags": null, "updated_at": 1776698570411, "version": "1.0.0"}, {"category": "", "created_at": 1774888036160, "description": "Formsite integration. Manage Forms, Users. Use when the user wants to interact with Formsite data.", "description_zh": "", "downloads": 27, "homepage": "https://clawhub.ai/gora050/formsite", "iconUrl": null, "installs": 0, "name": "Formsite", "ownerName": "gora050", "score": 100000, "slug": "formsite", "source": "clawhub", "stars": 0, "tags": null, "updated_at": 1776698570409, "version": "1.0.0"}, {"category": "", "created_at": 1774918478199, "description": "MParticle integration. Manage data, records, and automate workflows. Use when the user wants to interact with MParticle data.", "description_zh": "", "downloads": 27, "homepage": "https://clawhub.ai/gora050/mparticle", "iconUrl": null, "installs": 0, "name": "Mparticle", "ownerName": "gora050", "score": 100000, "slug": "mparticle", "source": "clawhub", "stars": 0, "tags": null, "updated_at": 1776698570405, "version": "1.0.0"}, {"category": "", "created_at": 1774924331205, "description": "Generate avatar videos from a script and image using the LovelyBots API. Queue a video, poll for completion, and retrieve a download URL — all in one workflo...", "description_zh": "", "downloads": 27, "homepage": "https://clawhub.ai/georgegally/lovelybots-video", "iconUrl": null, "installs": 0, "name": "LovelyBits", "ownerName": "georgegally", "score": 100000, "slug": "lovelybots-video", "source": "clawhub", "stars": 0, "tags": null, "updated_at": 1776698570403, "version": "1.0.0"}, {"category": "", "created_at": 1774919854378, "description": "Feel the awe of watching southern auroras dance over Dover’s white cliffs while you track shifting electromagnetic currents. This field science session blend...", "description_zh": "", "downloads": 27, "homepage": "https://clawhub.ai/driftsbot/experience-dover-storm-watch", "iconUrl": null, "installs": 0, "name": "Experience Dover Storm Watch", "ownerName": "driftsbot", "score": 100000, "slug": "experience-dover-storm-watch", "source": "clawhub", "stars": 0, "tags": null, "updated_at": 1776698570401, "version": "1.0.0"}, {"category": "", "created_at": 1774954346183, "description": "GraphHopper integration. Manage Maps. Use when the user wants to interact with GraphHopper data.", "description_zh": "", "downloads": 27, "homepage": "https://clawhub.ai/gora050/graphhopper", "iconUrl": null, "installs": 0, "name": "Graphhopper", "ownerName": "gora050", "score": 100000, "slug": "graphhopper", "source": "clawhub", "stars": 0, "tags": null, "updated_at": 1776698570398, "version": "1.0.0"}, {"category": "", "created_at": 1774905084837, "description": "Zksync reference tool. Use when working with zksync in blockchain contexts.", "description_zh": "", "downloads": 27, "homepage": "https://clawhub.ai/bytesagain1/zksync", "iconUrl": null, "installs": 0, "name": "Zksync", "ownerName": "bytesagain1", "score": 100000, "slug": "zksync", "source": "clawhub", "stars": 0, "tags": null, "updated_at": 1776698570390, "version": "1.0.0"}, {"category": "", "created_at": 1774850409297, "description": "A comprehensive prompt-based skill about the number 2. This skill provides rich knowledge covering the mathematical properties, history, cultural significanc...", "description_zh": "", "downloads": 27, "homepage": "https://clawhub.ai/wscats/2", "iconUrl": null, "installs": 1, "name": "2", "ownerName": "wscats", "score": 100000, "slug": "2", "source": "clawhub", "stars": 0, "tags": null, "updated_at": 1776698570388, "version": "1.0.8"}, {"category": "", "created_at": 1774866583272, "description": "Automatically capture corrections, failures, and reusable discoveries into `.learnings/` files using signal-based filtering. Triggers when the user corrects...", "description_zh": "", "downloads": 27, "homepage": "https://clawhub.ai/omaression/auto-improving-agent", "iconUrl": null, "installs": 0, "name": "Auto Improving Agent", "ownerName": "omaression", "score": 100000, "slug": "auto-improving-agent", "source": "clawhub", "stars": 0, "tags": null, "updated_at": 1776698570386, "version": "1.0.0-alpha"}, {"category": "", "created_at": 1774956071669, "description": "Understand, summarize, translate, and extract key points from YouTube videos. Use when a user provides a YouTube URL and wants: (1) a Chinese summary, (2) a...", "description_zh": "", "downloads": 27, "homepage": "https://clawhub.ai/benheee/youtube-digest", "iconUrl": null, "installs": 0, "name": "YouTube Digest", "ownerName": "benheee", "score": 100000, "slug": "youtube-digest", "source": "clawhub", "stars": 0, "tags": null, "updated_at": 1776698570384, "version": "1.0.0"}, {"category": "", "created_at": 1774905945015, "description": "Signaturely integration. Manage Documents, Users, Teams. Use when the user wants to interact with Signaturely data.", "description_zh": "", "downloads": 27, "homepage": "https://clawhub.ai/gora050/signaturely", "iconUrl": null, "installs": 0, "name": "Signaturely", "ownerName": "gora050", "score": 100000, "slug": "signaturely", "source": "clawhub", "stars": 0, "tags": null, "updated_at": 1776698570381, "version": "1.0.0"}, {"category": "", "created_at": 1774890027715, "description": "Hydration reference — daily water intake, electrolytes, dehydration signs, exercise hydration, rehydration protocols. Use when planning fluid intake for heal...", "description_zh": "", "downloads": 27, "homepage": "https://clawhub.ai/xueyetianya/hydrate", "iconUrl": null, "installs": 0, "name": "Hydrate", "ownerName": "xueyetianya", "score": 100000, "slug": "hydrate", "source": "clawhub", "stars": 0, "tags": null, "updated_at": 1776698570379, "version": "1.0.0"}, {"category": "", "created_at": 1774862529763, "description": "Design outbound GTM campaigns and write ready-to-send sequences. Use when building a new outbound motion, writing cold email or LinkedIn outreach, designing...", "description_zh": "", "downloads": 27, "homepage": "https://clawhub.ai/davidslavich/gtm-outbound-strategy", "iconUrl": null, "installs": 0, "name": "GTM Outbound Strategy", "ownerName": "davidslavich", "score": 100000, "slug": "gtm-outbound-strategy", "source": "clawhub", "stars": 0, "tags": null, "updated_at": 1776698570370, "version": "1.0.0"}, {"category": "", "created_at": 1774926203377, "description": "A multimodal emotional perception and Hanzi-based ambient art rendering engine. Empowers the OpenClaw agent to act as a spatial empath, translating human emo...", "description_zh": "", "downloads": 27, "homepage": "https://clawhub.ai/spacesq/s2-hanzi-empathic-resonance", "iconUrl": null, "installs": 1, "name": "S2 Hanzi Empathic Resonance", "ownerName": "spacesq", "score": 100000, "slug": "s2-hanzi-empathic-resonance", "source": "clawhub", "stars": 0, "tags": null, "updated_at": 1776698570366, "version": "1.0.0"}, {"category": "", "created_at": 1774898891999, "description": "Order from Walgreens via Strider Labs MCP connector. Refill prescriptions, shop health products, earn myWalgreens rewards, schedule vaccinations. Complete au...", "description_zh": "", "downloads": 27, "homepage": "https://clawhub.ai/markswendsen-code/strider-walgreens", "iconUrl": null, "installs": 0, "name": "Strider Walgreens", "ownerName": "markswendsen-code", "score": 100000, "slug": "strider-walgreens", "source": "clawhub", "stars": 0, "tags": null, "updated_at": 1776698570364, "version": "1.0.0"}, {"category": "", "created_at": 1774911187620, "description": "Salespype integration. Manage Organizations. Use when the user wants to interact with Salespype data.", "description_zh": "", "downloads": 27, "homepage": "https://clawhub.ai/gora050/salespype", "iconUrl": null, "installs": 1, "name": "Salespype", "ownerName": "gora050", "score": 100000, "slug": "salespype", "source": "clawhub", "stars": 0, "tags": null, "updated_at": 1776698570356, "version": "1.0.0"}, {"category": "", "created_at": 1774877961047, "description": "Spondyr integration. Manage Organizations. Use when the user wants to interact with Spondyr data.", "description_zh": "", "downloads": 27, "homepage": "https://clawhub.ai/membranedev/spondyr", "iconUrl": null, "installs": 0, "name": "Spondyr", "ownerName": "membranedev", "score": 100000, "slug": "spondyr", "source": "clawhub", "stars": 0, "tags": null, "updated_at": 1776698570354, "version": "1.0.0"}]}