{"page": 489, "total_pages": 522, "total": 26073, "skills": [{"category": "", "created_at": 1774864364503, "description": "Log and track vital signs including blood pressure, blood sugar, weight, heart rate, and temperature. Use when users record health measurements or want to re...", "description_zh": "", "downloads": 27, "homepage": "https://clawhub.ai/jiwenbing/vitals-log", "iconUrl": null, "installs": 0, "name": "Vitals Log", "ownerName": "jiwenbing", "score": 100000, "slug": "vitals-log", "source": "clawhub", "stars": 0, "tags": null, "updated_at": 1776698570352, "version": "1.0.0"}, {"category": "", "created_at": 1774893859059, "description": "Lightweight cognitive memory system for AI agents by Automaton. Auto-save conversations, quick recall, session management.", "description_zh": "", "downloads": 27, "homepage": "https://clawhub.ai/chenghaifeng08-creator/smart-memory-lite-automaton", "iconUrl": null, "installs": 1, "name": "smart-memory-lite (Automaton)", "ownerName": "chenghaifeng08-creator", "score": 81818.18181818182, "slug": "smart-memory-lite-automaton", "source": "clawhub", "stars": 0, "tags": null, "updated_at": 1776698570349, "version": "1.0.1"}, {"category": "", "created_at": 1774905965333, "description": "Slash GraphQL integration. Manage data, records, and automate workflows. Use when the user wants to interact with Slash GraphQL data.", "description_zh": "", "downloads": 27, "homepage": "https://clawhub.ai/gora050/slash-graphql", "iconUrl": null, "installs": 0, "name": "Slash Graphql", "ownerName": "gora050", "score": 81818.18181818182, "slug": "slash-graphql", "source": "clawhub", "stars": 0, "tags": null, "updated_at": 1776698570341, "version": "1.0.0"}, {"category": "", "created_at": 1774903844894, "description": "TextMagic integration. Manage data, records, and automate workflows. Use when the user wants to interact with TextMagic data.", "description_zh": "", "downloads": 27, "homepage": "https://clawhub.ai/gora050/textmagic", "iconUrl": null, "installs": 0, "name": "Textmagic", "ownerName": "gora050", "score": 81818.18181818182, "slug": "textmagic", "source": "clawhub", "stars": 0, "tags": null, "updated_at": 1776698570339, "version": "1.0.0"}, {"category": "", "created_at": 1774876267346, "description": "ServiceM8 integration. Manage Organizations, Users, Goals, Filters. Use when the user wants to interact with ServiceM8 data.", "description_zh": "", "downloads": 27, "homepage": "https://clawhub.ai/membranedev/servicem8", "iconUrl": null, "installs": 0, "name": "Servicem8", "ownerName": "membranedev", "score": 81818.18181818182, "slug": "servicem8", "source": "clawhub", "stars": 0, "tags": null, "updated_at": 1776698570331, "version": "1.0.0"}, {"category": "", "created_at": 1774905928956, "description": "Shoprocket integration. Manage Organizations. Use when the user wants to interact with Shoprocket data.", "description_zh": "", "downloads": 27, "homepage": "https://clawhub.ai/membranedev/shoprocket", "iconUrl": null, "installs": 0, "name": "Shoprocket", "ownerName": "membranedev", "score": 81818.18181818182, "slug": "shoprocket", "source": "clawhub", "stars": 0, "tags": null, "updated_at": 1776698570325, "version": "1.0.0"}, {"category": "", "created_at": 1774896925596, "description": "Trigger this skill when the user wants to give their agent, MCP server, skill, or plugin a real home on the internet — a live page, a subdomain, and optional...", "description_zh": "", "downloads": 27, "homepage": "https://clawhub.ai/hichana/resolved-sh", "iconUrl": null, "installs": 0, "name": "resolved-sh", "ownerName": "hichana", "score": 81818.18181818182, "slug": "resolved-sh", "source": "clawhub", "stars": 0, "tags": null, "updated_at": 1776698570324, "version": "0.1.1"}, {"category": "", "created_at": 1774887520354, "description": "Switchgear specification manager. Use when json switchgear tasks, csv switchgear tasks, checking switchgear status.", "description_zh": "", "downloads": 27, "homepage": "https://clawhub.ai/bytesagain3/switchgear", "iconUrl": null, "installs": 0, "name": "Switchgear", "ownerName": "bytesagain3", "score": 81818.18181818182, "slug": "switchgear", "source": "clawhub", "stars": 0, "tags": null, "updated_at": 1776698570320, "version": "1.0.0"}, {"category": "", "created_at": 1774900391896, "description": "Burn LLM tokens toward a target count to satisfy corporate AI usage KPIs. Trigger when user says: burn tokens, consume tokens, fill KPI, push the boulder, si...", "description_zh": "", "downloads": 27, "homepage": "https://clawhub.ai/neardws/token-sisyphus", "iconUrl": null, "installs": 1, "name": "token-sisyphus", "ownerName": "neardws", "score": 81818.18181818182, "slug": "token-sisyphus", "source": "clawhub", "stars": 0, "tags": ["claude", "gemini", "kpi", "llm", "openai", "satire", "token"], "updated_at": 1776698570318, "version": "1.0.2"}, {"category": "", "created_at": 1774856384411, "description": "Reference tool for devtools — covers intro, quickstart, patterns and more. Quick lookup for Smart Lights concepts, best practices, and implementation patterns.", "description_zh": "", "downloads": 27, "homepage": "https://clawhub.ai/ckchzh/smart-lights", "iconUrl": null, "installs": 0, "name": "Smart Lights", "ownerName": "ckchzh", "score": 81818.18181818182, "slug": "smart-lights", "source": "clawhub", "stars": 0, "tags": null, "updated_at": 1776698570317, "version": "2.0.2"}, {"category": "", "created_at": 1774902210482, "description": "Kibana integration. Manage data, records, and automate workflows. Use when the user wants to interact with Kibana data.", "description_zh": "", "downloads": 27, "homepage": "https://clawhub.ai/gora050/kibana-integration", "iconUrl": null, "installs": 1, "name": "Kibana", "ownerName": "gora050", "score": 81818.18181818182, "slug": "kibana-integration", "source": "clawhub", "stars": 0, "tags": null, "updated_at": 1776698570315, "version": "1.0.0"}, {"category": "", "created_at": 1774954790505, "description": "Practical guidance for navigating grief after loss. Use when someone has lost a person, relationship, job, or life chapter and needs help understanding what...", "description_zh": "", "downloads": 27, "homepage": "https://clawhub.ai/howtousehumans/grief-navigation-basics", "iconUrl": null, "installs": 0, "name": "Grief Navigation Basics", "ownerName": "howtousehumans", "score": 81818.18181818182, "slug": "grief-navigation-basics", "source": "clawhub", "stars": 0, "tags": null, "updated_at": 1776698570304, "version": "1.0.0"}, {"category": "", "created_at": 1774955696306, "description": "Redirect — install `gsd-orchestrator` instead. This skill exists to reserve the name. The full orchestration skill with subprocess patterns, exit code handli...", "description_zh": "", "downloads": 27, "homepage": "https://clawhub.ai/glittercowboy/gsd-pi", "iconUrl": null, "installs": 1, "name": "GSD Pi (→ gsd-orchestrator)", "ownerName": "glittercowboy", "score": 81818.18181818182, "slug": "gsd-pi", "source": "clawhub", "stars": 0, "tags": null, "updated_at": 1776698570302, "version": "1.0.0"}, {"category": "", "created_at": 1774921392434, "description": "Google Cloud Vision integration. Manage Images. Use when the user wants to interact with Google Cloud Vision data.", "description_zh": "", "downloads": 27, "homepage": "https://clawhub.ai/gora050/google-cloud-vision", "iconUrl": null, "installs": 0, "name": "Google Cloud Vision", "ownerName": "gora050", "score": 81818.18181818182, "slug": "google-cloud-vision", "source": "clawhub", "stars": 0, "tags": null, "updated_at": 1776698570301, "version": "1.0.0"}, {"category": "", "created_at": 1774897123335, "description": "Buy and sell tickets via StubHub using Strider Labs MCP connector. Search resale tickets, compare prices, buy guaranteed tickets, list your own. Complete aut...", "description_zh": "", "downloads": 27, "homepage": "https://clawhub.ai/markswendsen-code/strider-stubhub", "iconUrl": null, "installs": 0, "name": "Strider ustubhub", "ownerName": "markswendsen-code", "score": 81818.18181818182, "slug": "strider-stubhub", "source": "clawhub", "stars": 0, "tags": null, "updated_at": 1776698570299, "version": "1.0.0"}, {"category": "", "created_at": 1774878342298, "description": "Generates closing messages, objection handling responses, pricing strategies, offer designs, and upsell scripts to help salespeople convert prospects into pa...", "description_zh": "", "downloads": 27, "homepage": "https://clawhub.ai/dttnpole-commits/ai-sales-closing-offer-generator", "iconUrl": null, "installs": 0, "name": "AI Sales Closing & Offer Generator", "ownerName": "dttnpole-commits", "score": 100000, "slug": "ai-sales-closing-offer-generator", "source": "clawhub", "stars": 0, "tags": ["sales closing negotiation conversion b2b offer pricing ai-marketing growth freelancer"], "updated_at": 1776698570292, "version": "1.0.0"}, {"category": "", "created_at": 1774895971989, "description": "Analyze attestation operations. Use when you need to understand attestation mechanisms, evaluate protocol security, or reference on-chain concepts.", "description_zh": "", "downloads": 27, "homepage": "https://clawhub.ai/bytesagain1/attestation", "iconUrl": null, "installs": 0, "name": "Attestation", "ownerName": "bytesagain1", "score": 100000, "slug": "attestation", "source": "clawhub", "stars": 0, "tags": null, "updated_at": 1776698570284, "version": "1.0.0"}, {"category": "", "created_at": 1774835414568, "description": "Learn and memorize knowledge from local directories. Supports Markdown and code files. Extracts key insights, builds knowledge index, and stores in agent mem...", "description_zh": "", "downloads": 27, "homepage": "https://clawhub.ai/nileader/keep-learning", "iconUrl": null, "installs": 0, "name": "keep-learning", "ownerName": "nileader", "score": 100000, "slug": "keep-learning", "source": "clawhub", "stars": 0, "tags": null, "updated_at": 1776698570279, "version": "0.0.2"}, {"category": "", "created_at": 1774874237798, "description": "AI conversation efficiency analyzer. Analyze Claude/ChatGPT/Cursor conversation history for KPI stats, cost tracking, topic distribution, and efficiency insi...", "description_zh": "", "downloads": 27, "homepage": "https://clawhub.ai/melody1015/memory-forge", "iconUrl": null, "installs": 0, "name": "Skill", "ownerName": "melody1015", "score": 100000, "slug": "memory-forge", "source": "clawhub", "stars": 0, "tags": ["ai-conversations", "analytics", "productivity"], "updated_at": 1776698570275, "version": "1.0.1"}, {"category": "", "created_at": 1774916932681, "description": "Public-safe Mac multi-instance deployment skill for generic OpenClaw-style workspace layout, boundary notes, sample config, and pack validation.", "description_zh": "", "downloads": 27, "homepage": "https://clawhub.ai/ztl970/mac-multi-instance-deployment", "iconUrl": null, "installs": 0, "name": "Mac Multi-Instance Deployment", "ownerName": "ztl970", "score": 100000, "slug": "mac-multi-instance-deployment", "source": "clawhub", "stars": 0, "tags": null, "updated_at": 1776698570266, "version": "1.0.4"}, {"category": "", "created_at": 1774891509253, "description": "Automatically check for and install OpenClaw updates. Use when the user wants to update OpenClaw to the latest version, schedule automatic updates, or check...", "description_zh": "", "downloads": 27, "homepage": "https://clawhub.ai/zlin87468-maker/linz-openclaw-updater", "iconUrl": null, "installs": 0, "name": "OpenClaw Updater (LinZ)", "ownerName": "zlin87468-maker", "score": 100000, "slug": "linz-openclaw-updater", "source": "clawhub", "stars": 0, "tags": null, "updated_at": 1776698570261, "version": "1.0.0"}, {"category": "", "created_at": 1774874992989, "description": "Guide for using AceDataCloud APIs. Use when authenticating, making API calls, managing credentials, understanding billing, or integrating AceDataCloud servic...", "description_zh": "", "downloads": 27, "homepage": "https://clawhub.ai/germey/acedatacloud-acedatacloud-api", "iconUrl": null, "installs": 0, "name": "Acedatacloud Api", "ownerName": "germey", "score": 100000, "slug": "acedatacloud-acedatacloud-api", "source": "clawhub", "stars": 0, "tags": null, "updated_at": 1776698570259, "version": "1.0.0"}, {"category": "", "created_at": 1774915669848, "description": "ProProfs Project integration. Manage Projects, Goals, Filters. Use when the user wants to interact with ProProfs Project data.", "description_zh": "", "downloads": 27, "homepage": "https://clawhub.ai/gora050/proprofs-project", "iconUrl": null, "installs": 0, "name": "Proprofs Project", "ownerName": "gora050", "score": 100000, "slug": "proprofs-project", "source": "clawhub", "stars": 0, "tags": null, "updated_at": 1776698570254, "version": "1.0.0"}, {"category": "", "created_at": 1774891364989, "description": "Goody integration. Manage Organizations, Pipelines, Projects, Users, Goals, Filters. Use when the user wants to interact with Goody data.", "description_zh": "", "downloads": 27, "homepage": "https://clawhub.ai/membranedev/goody", "iconUrl": null, "installs": 0, "name": "Goody", "ownerName": "membranedev", "score": 100000, "slug": "goody", "source": "clawhub", "stars": 0, "tags": null, "updated_at": 1776698570251, "version": "1.0.0"}, {"category": "", "created_at": 1774953950424, "description": "Optimize e-commerce product pages for search engine visibility. On-page SEO, structured data, page speed, mobile optimization, and content strategy for Googl...", "description_zh": "", "downloads": 27, "homepage": "https://clawhub.ai/nexscope/product-page-seo", "iconUrl": null, "installs": 0, "name": "Product Page SEO", "ownerName": "nexscope", "score": 100000, "slug": "product-page-seo", "source": "clawhub", "stars": 0, "tags": null, "updated_at": 1776698570245, "version": "1.0.0"}, {"category": "", "created_at": 1774949203163, "description": "Comprehensive guide to every major US government assistance program: SNAP, Medicaid, unemployment, LIHEAP, TANF, WIC, Section 8, Lifeline, SSDI, SSI, and mor...", "description_zh": "", "downloads": 27, "homepage": "https://clawhub.ai/howtousehumans/benefits-navigator", "iconUrl": null, "installs": 0, "name": "Benefits Navigator", "ownerName": "howtousehumans", "score": 100000, "slug": "benefits-navigator", "source": "clawhub", "stars": 0, "tags": null, "updated_at": 1776698570243, "version": "1.0.0"}, {"category": "", "created_at": 1774877297042, "description": "Use this skill when the user explicitly mentions Hacker News or HN — e.g. \"what's on HN\", \"show me Hacker News\", \"top HN stories\", \"anything good on HN today...", "description_zh": "", "downloads": 27, "homepage": "https://clawhub.ai/ken7y/hn-morning-brief", "iconUrl": null, "installs": 0, "name": "HN Morning Brief", "ownerName": "ken7y", "score": 100000, "slug": "hn-morning-brief", "source": "clawhub", "stars": 0, "tags": null, "updated_at": 1776698570238, "version": "1.0.1"}, {"category": "", "created_at": 1774915959874, "description": "Translate subtitles in an existing HTTPS video via WeryAI (video-subtitle-translate). Use when the user wants subtitle translation, not erasure or text-to-vi...", "description_zh": "", "downloads": 27, "homepage": "https://clawhub.ai/zoucdr/video-tool-subtitle-translate", "iconUrl": null, "installs": 2, "name": "WeryAI video tool — subtitle translate", "ownerName": "zoucdr", "score": 100000, "slug": "video-tool-subtitle-translate", "source": "clawhub", "stars": 0, "tags": null, "updated_at": 1776698570237, "version": "1.0.0"}, {"category": "", "created_at": 1774916275830, "description": "Brilliant Directories integration. Manage data, records, and automate workflows. Use when the user wants to interact with Brilliant Directories data.", "description_zh": "", "downloads": 27, "homepage": "https://clawhub.ai/gora050/brilliant-directories", "iconUrl": null, "installs": 0, "name": "Brilliant Directories", "ownerName": "gora050", "score": 100000, "slug": "brilliant-directories", "source": "clawhub", "stars": 0, "tags": null, "updated_at": 1776698570235, "version": "1.0.1"}, {"category": "", "created_at": 1774867371963, "description": "Use when a task broadly involves Halo CLI and the correct command area is not yet clear, or when you need shared rules for profiles, JSON output, help discov...", "description_zh": "", "downloads": 27, "homepage": "https://clawhub.ai/ruibaby/halo-cli-shared", "iconUrl": null, "installs": 0, "name": "Halo Cli Shared", "ownerName": "ruibaby", "score": 100000, "slug": "halo-cli-shared", "source": "clawhub", "stars": 0, "tags": null, "updated_at": 1776698570230, "version": "0.1.1"}, {"category": "", "created_at": 1774869683773, "description": "A micro-learning knowledge feed for developers waiting on AI coding agents. Activates when the user says things like 'I'm waiting', 'what can I learn while w...", "description_zh": "", "downloads": 27, "homepage": "https://clawhub.ai/skjack/checkai", "iconUrl": null, "installs": 0, "name": "Vibe-Learning", "ownerName": "skjack", "score": 100000, "slug": "checkai", "source": "clawhub", "stars": 0, "tags": null, "updated_at": 1776698570225, "version": "1.0.0"}, {"category": "", "created_at": 1774801666946, "description": "Gaggiuino-local skill for live machine status, readiness, active profile, profile switching, telemetry/graph reading, family-first espresso reasoning, shot/g...", "description_zh": "", "downloads": 27, "homepage": "https://clawhub.ai/zackzmai/gaggiuino-local", "iconUrl": null, "installs": 0, "name": "Gaggiuino Local", "ownerName": "zackzmai", "score": 100000, "slug": "gaggiuino-local", "source": "clawhub", "stars": 0, "tags": null, "updated_at": 1776698570212, "version": "1.3.0"}, {"category": "", "created_at": 1774866548523, "description": "Set up and use 1Password CLI (op). Use when installing the CLI, enabling desktop app integration, signing in (single or multi-account), or reading/injecting/...", "description_zh": "", "downloads": 27, "homepage": "https://clawhub.ai/zhaozewen0519/1password-local", "iconUrl": null, "installs": 0, "name": "1password Local", "ownerName": "zhaozewen0519", "score": 100000, "slug": "1password-local", "source": "clawhub", "stars": 0, "tags": null, "updated_at": 1776698570211, "version": "1.0.2"}, {"category": "", "created_at": 1774891382905, "description": "Icypeas integration. Manage Organizations, Pipelines, Users, Goals, Filters, Projects. Use when the user wants to interact with Icypeas data.", "description_zh": "", "downloads": 27, "homepage": "https://clawhub.ai/gora050/icypeas", "iconUrl": null, "installs": 0, "name": "Icypeas", "ownerName": "gora050", "score": 100000, "slug": "icypeas", "source": "clawhub", "stars": 0, "tags": null, "updated_at": 1776698570207, "version": "1.0.0"}, {"category": "", "created_at": 1774893278005, "description": "Manufacturing execution system tracker", "description_zh": "", "downloads": 27, "homepage": "https://clawhub.ai/xueyetianya/mes", "iconUrl": null, "installs": 0, "name": "Mes", "ownerName": "xueyetianya", "score": 100000, "slug": "mes", "source": "clawhub", "stars": 0, "tags": null, "updated_at": 1776698570205, "version": "1.0.0"}, {"category": "", "created_at": 1774914254844, "description": "Hiveage integration. Manage Users, Organizations. Use when the user wants to interact with Hiveage data.", "description_zh": "", "downloads": 27, "homepage": "https://clawhub.ai/membranedev/hiveage", "iconUrl": null, "installs": 0, "name": "Hiveage", "ownerName": "membranedev", "score": 100000, "slug": "hiveage", "source": "clawhub", "stars": 0, "tags": null, "updated_at": 1776698570202, "version": "1.0.0"}, {"category": "", "created_at": 1774921626563, "description": "Text-to-Speech (TTS) and voice-feature skill for Gitee AI that lets the user choose audiofly, chattts, cosyvoice2, cosyvoice3, cosyvoice-300m, fish-speech-1....", "description_zh": "", "downloads": 27, "homepage": "https://clawhub.ai/fchange/moark-tts", "iconUrl": null, "installs": 1, "name": "Moark Tts", "ownerName": "fchange", "score": 100000, "slug": "moark-tts", "source": "clawhub", "stars": 0, "tags": null, "updated_at": 1776698570200, "version": "1.0.0"}, {"category": "", "created_at": 1774895629714, "description": "Tagout safety compliance tracker. Use when json tagout tasks, csv tagout tasks, checking tagout status.", "description_zh": "", "downloads": 27, "homepage": "https://clawhub.ai/bytesagain1/tagout", "iconUrl": null, "installs": 1, "name": "Tagout", "ownerName": "bytesagain1", "score": 100000, "slug": "tagout", "source": "clawhub", "stars": 0, "tags": null, "updated_at": 1776698570198, "version": "1.0.0"}, {"category": "", "created_at": 1774899373279, "description": "Automizy integration. Manage data, records, and automate workflows. Use when the user wants to interact with Automizy data.", "description_zh": "", "downloads": 27, "homepage": "https://clawhub.ai/gora050/automizy", "iconUrl": null, "installs": 0, "name": "Automizy", "ownerName": "gora050", "score": 100000, "slug": "automizy", "source": "clawhub", "stars": 0, "tags": null, "updated_at": 1776698570196, "version": "1.0.0"}, {"category": "", "created_at": 1774895497018, "description": "Solcast integration. Manage Organizations. Use when the user wants to interact with Solcast data.", "description_zh": "", "downloads": 27, "homepage": "https://clawhub.ai/membranedev/solcast", "iconUrl": null, "installs": 0, "name": "Solcast", "ownerName": "membranedev", "score": 100000, "slug": "solcast", "source": "clawhub", "stars": 0, "tags": null, "updated_at": 1776698570195, "version": "1.0.0"}, {"category": "", "created_at": 1774943781790, "description": "Analyze Clawdbot logs and diagnostics. Use when the user asks about bot performance, response times, errors, session stats, token usage, API costs, or wants...", "description_zh": "", "downloads": 27, "homepage": "https://clawhub.ai/litiao1224/clawdbot-logs-litiao", "iconUrl": null, "installs": 1, "name": "Clawdbot Logs Litiao", "ownerName": "litiao1224", "score": 100000, "slug": "clawdbot-logs-litiao", "source": "clawhub", "stars": 0, "tags": null, "updated_at": 1776698570191, "version": "1.0.0"}, {"category": "", "created_at": 1774882753260, "description": "Beekeeper integration. Manage data, records, and automate workflows. Use when the user wants to interact with Beekeeper data.", "description_zh": "", "downloads": 27, "homepage": "https://clawhub.ai/gora050/beekeeper", "iconUrl": null, "installs": 0, "name": "Beekeeper", "ownerName": "gora050", "score": 100000, "slug": "beekeeper", "source": "clawhub", "stars": 0, "tags": null, "updated_at": 1776698570189, "version": "1.0.0"}, {"category": "", "created_at": 1774954807560, "description": "Use this skill when the user is stuck in a video game and wants help without spoilers. Triggers: 'hintme', 'I'm stuck', 'what do I do next', 'hint me', 'game...", "description_zh": "", "downloads": 27, "homepage": "https://clawhub.ai/kewang0622/hintme", "iconUrl": null, "installs": 0, "name": "hintme", "ownerName": "kewang0622", "score": 100000, "slug": "hintme", "source": "clawhub", "stars": 0, "tags": null, "updated_at": 1776698570188, "version": "1.0.0"}, {"category": "", "created_at": 1774956447716, "description": "LiveAgent integration. Manage Persons, Organizations, Deals, Leads, Activities, Notes and more. Use when the user wants to interact with LiveAgent data.", "description_zh": "", "downloads": 27, "homepage": "https://clawhub.ai/gora050/liveagent", "iconUrl": null, "installs": 0, "name": "Liveagent", "ownerName": "gora050", "score": 100000, "slug": "liveagent", "source": "clawhub", "stars": 0, "tags": null, "updated_at": 1776698570175, "version": "1.0.0"}, {"category": "", "created_at": 1774865975464, "description": "Deep-dive a target company and produce a structured account intelligence brief covering tech stack, buying signals, key personas, and a recommended engagemen...", "description_zh": "", "downloads": 27, "homepage": "https://clawhub.ai/davidslavich/gtm-account-research", "iconUrl": null, "installs": 0, "name": "GTM Account Research", "ownerName": "davidslavich", "score": 100000, "slug": "gtm-account-research", "source": "clawhub", "stars": 0, "tags": null, "updated_at": 1776698570170, "version": "1.0.0"}, {"category": "", "created_at": 1774908648389, "description": "Gupshup integration. Manage Users, Organizations. Use when the user wants to interact with Gupshup data.", "description_zh": "", "downloads": 27, "homepage": "https://clawhub.ai/gora050/gupshup", "iconUrl": null, "installs": 0, "name": "Gupshup", "ownerName": "gora050", "score": 100000, "slug": "gupshup", "source": "clawhub", "stars": 0, "tags": null, "updated_at": 1776698570166, "version": "1.0.0"}, {"category": "", "created_at": 1774893193477, "description": "Define market boundaries using substitution principle. Use for market sizing, competitive analysis, and strategic positioning.", "description_zh": "", "downloads": 27, "homepage": "https://clawhub.ai/linuszz/market-definition", "iconUrl": null, "installs": 1, "name": "Market Definition", "ownerName": "linuszz", "score": 100000, "slug": "market-definition", "source": "clawhub", "stars": 0, "tags": null, "updated_at": 1776698570165, "version": "1.0.0"}, {"category": "", "created_at": 1774894878636, "description": "Geckoboard integration. Manage Dashboards, Datasets. Use when the user wants to interact with Geckoboard data.", "description_zh": "", "downloads": 27, "homepage": "https://clawhub.ai/gora050/geckoboard", "iconUrl": null, "installs": 0, "name": "Geckoboard", "ownerName": "gora050", "score": 100000, "slug": "geckoboard", "source": "clawhub", "stars": 0, "tags": null, "updated_at": 1776698570153, "version": "1.0.0"}, {"category": "", "created_at": 1774864662810, "description": "Step-by-step insurance claim filing guide. Walk users through the claim process for health, life, auto, travel, and property insurance. Use when users need t...", "description_zh": "", "downloads": 27, "homepage": "https://clawhub.ai/jiwenbing/claim-guide", "iconUrl": null, "installs": 0, "name": "Claim Guide", "ownerName": "jiwenbing", "score": 100000, "slug": "claim-guide", "source": "clawhub", "stars": 0, "tags": null, "updated_at": 1776698570149, "version": "1.0.0"}, {"category": "", "created_at": 1774880334329, "description": "Synthesizes member-parent markdown reports into a continuous narrative.", "description_zh": "", "downloads": 27, "homepage": "https://clawhub.ai/deanleefumu/group-summarizer", "iconUrl": null, "installs": 0, "name": "Group Summarizer", "ownerName": "deanleefumu", "score": 100000, "slug": "group-summarizer", "source": "clawhub", "stars": 0, "tags": null, "updated_at": 1776698570146, "version": "1.0.0"}]}