{"page": 490, "total_pages": 522, "total": 26073, "skills": [{"category": "", "created_at": 1774848273463, "description": "Search vacation rentals on Airbnb via Strider Labs MCP connector. Find properties by location, dates, and guests. Get listing details, amenities, pricing, an...", "description_zh": "", "downloads": 27, "homepage": "https://clawhub.ai/markswendsen-code/strider-airbnb", "iconUrl": null, "installs": 0, "name": "Strider Airbnb", "ownerName": "markswendsen-code", "score": 100000, "slug": "strider-airbnb", "source": "clawhub", "stars": 0, "tags": null, "updated_at": 1776698570139, "version": "1.0.0"}, {"category": "", "created_at": 1774884109346, "description": "Class & OOP reference вҖ” inheritance, polymorphism, composition, SOLID principles, design patterns. Use when designing class hierarchies, refactoring object-o...", "description_zh": "", "downloads": 27, "homepage": "https://clawhub.ai/ckchzh/class", "iconUrl": null, "installs": 1, "name": "Class", "ownerName": "ckchzh", "score": 100000, "slug": "class", "source": "clawhub", "stars": 0, "tags": null, "updated_at": 1776698570128, "version": "1.0.0"}, {"category": "", "created_at": 1774954210130, "description": "Bolt IoT integration. Manage data, records, and automate workflows. Use when the user wants to interact with Bolt IoT data.", "description_zh": "", "downloads": 27, "homepage": "https://clawhub.ai/gora050/bolt-iot", "iconUrl": null, "installs": 0, "name": "Bolt Iot", "ownerName": "gora050", "score": 100000, "slug": "bolt-iot", "source": "clawhub", "stars": 0, "tags": null, "updated_at": 1776698570123, "version": "1.0.0"}, {"category": "", "created_at": 1774881583699, "description": "EULA drafting reference вҖ” license grant, restrictions, termination, IP ownership, and enforceability. Use when drafting or reviewing End User License Agreeme...", "description_zh": "", "downloads": 27, "homepage": "https://clawhub.ai/xueyetianya/eula", "iconUrl": null, "installs": 0, "name": "Eula", "ownerName": "xueyetianya", "score": 100000, "slug": "eula", "source": "clawhub", "stars": 0, "tags": null, "updated_at": 1776698570121, "version": "1.0.0"}, {"category": "", "created_at": 1774955044913, "description": "Switchboard integration. Manage Organizations, Users. Use when the user wants to interact with Switchboard data.", "description_zh": "", "downloads": 27, "homepage": "https://clawhub.ai/gora050/switchboard", "iconUrl": null, "installs": 0, "name": "Switchboard", "ownerName": "gora050", "score": 100000, "slug": "switchboard", "source": "clawhub", "stars": 0, "tags": null, "updated_at": 1776698570113, "version": "1.0.0"}, {"category": "", "created_at": 1774906616784, "description": "Local semantic search over knowledge base collections powered by Hermit. Use when: searching knowledge base, semantic search, querying documents, managing co...", "description_zh": "", "downloads": 27, "homepage": "https://clawhub.ai/xxxgqcoder/hermit-search", "iconUrl": null, "installs": 1, "name": "Hermit Search Publish", "ownerName": "xxxgqcoder", "score": 100000, "slug": "hermit-search", "source": "clawhub", "stars": 0, "tags": null, "updated_at": 1776698570112, "version": "1.0.0"}, {"category": "", "created_at": 1774868959379, "description": "Nightly AI memory reasoning system. Lucid runs every night while you sleep вҖ” it reads your daily notes and memory files, detects stale facts, unresolved todo...", "description_zh": "", "downloads": 27, "homepage": "https://clawhub.ai/robbyczgw-cla/lucid-dreamer", "iconUrl": null, "installs": 0, "name": "Lucid Dreamer", "ownerName": "robbyczgw-cla", "score": 100000, "slug": "lucid-dreamer", "source": "clawhub", "stars": 0, "tags": null, "updated_at": 1776698570106, "version": "0.4.3"}, {"category": "", "created_at": 1774870246642, "description": "When the user wants to add, optimize, or audit popups or modals for lead capture or offers. Also use when the user mentions \"popup,\" \"modal,\" \"lightbox,\" \"ov...", "description_zh": "", "downloads": 27, "homepage": "https://clawhub.ai/kostja94/popup-generator", "iconUrl": null, "installs": 0, "name": "popup-generator", "ownerName": "kostja94", "score": 100000, "slug": "popup-generator", "source": "clawhub", "stars": 0, "tags": null, "updated_at": 1776698570103, "version": "1.0.0"}, {"category": "", "created_at": 1774883045787, "description": "Manages free AI models from OpenRouter for OpenClaw. Automatically ranks models by quality, configures fallbacks for rate-limit handling, and updates opencla...", "description_zh": "", "downloads": 27, "homepage": "https://clawhub.ai/goozdx-eng/freerid", "iconUrl": null, "installs": 0, "name": "free", "ownerName": "goozdx-eng", "score": 100000, "slug": "freerid", "source": "clawhub", "stars": 0, "tags": null, "updated_at": 1776698570096, "version": "1.0.0"}, {"category": "", "created_at": 1774912461378, "description": "Designs agent-evaluated flow tests for browser tasks, LLM outputs, and tool workflows. Invoke when exact asserts are brittle and semantic success matters mor...", "description_zh": "", "downloads": 27, "homepage": "https://clawhub.ai/qipengguo/flow-test", "iconUrl": null, "installs": 0, "name": "flow test", "ownerName": "qipengguo", "score": 100000, "slug": "flow-test", "source": "clawhub", "stars": 0, "tags": null, "updated_at": 1776698570090, "version": "0.0.1"}, {"category": "", "created_at": 1774869401668, "description": "AI Г«ВҸВҷГ¬ВҳВҒГ¬ВғВҒ ГӯВҺВёГ¬В§В‘ГӘВёВ° ГўВҖВ” Г¬ВұВ„ГӯВҢВ…Г¬ВңВјГ«ВЎВң Г«ВҸВҷГ¬ВҳВҒГ¬ВғВҒ ГӯВҺВёГ¬В§В‘ГӯВ•ВҳГ«ВҠВ” AI Г«В№В„Г«В”В”Г¬ВҳВӨ Г¬В—ВҗГ«В”В”ГӯВ„В°. AI Г«ВҸВҷГ¬ВҳВҒГ¬ВғВҒ ГӯВҺВёГ¬В§В‘ГӘВёВ° ГўВҖВ” Г¬ВұВ„ГӯВҢВ…Г¬ВңВјГ«ВЎВң Г«ВҸВҷГ¬ВҳВҒГ¬ВғВҒ ГӯВҺВёГ¬В§В‘ГӯВ•ВҳГ«ВҠВ” AI Г«В№В„Г«...", "description_zh": "", "downloads": 27, "homepage": "https://clawhub.ai/nemovideonemo/video-editor-korean", "iconUrl": null, "installs": 0, "name": "Video Editor Korean", "ownerName": "nemovideonemo", "score": 100000, "slug": "video-editor-korean", "source": "clawhub", "stars": 0, "tags": null, "updated_at": 1776698570084, "version": "1.0.3"}, {"category": "", "created_at": 1774865462926, "description": "Reference tool for devtools вҖ” covers intro, quickstart, patterns and more. Quick lookup for Tidyup concepts, best practices, and implementation patterns.", "description_zh": "", "downloads": 27, "homepage": "https://clawhub.ai/xueyetianya/tidyup", "iconUrl": null, "installs": 1, "name": "Tidyup", "ownerName": "xueyetianya", "score": 100000, "slug": "tidyup", "source": "clawhub", "stars": 0, "tags": null, "updated_at": 1776698570080, "version": "2.0.2"}, {"category": "", "created_at": 1774817967049, "description": "Generate professional presentation slides from a topic or outline вҖ” complete decks you can view, edit, and download. Use when user wants to \"create slides\",...", "description_zh": "", "downloads": 27, "homepage": "https://clawhub.ai/dophinl/youmind-slides-generator", "iconUrl": null, "installs": 1, "name": "AI Slides & Presentation", "ownerName": "dophinl", "score": 100000, "slug": "youmind-slides-generator", "source": "clawhub", "stars": 0, "tags": null, "updated_at": 1776698570072, "version": "1.0.0"}, {"category": "", "created_at": 1774874972906, "description": "When the user wants to create video advertisements using Remotion. Also use when the user mentions 'video ad,' 'create ad video,' 'ad creative video,' 'promo...", "description_zh": "", "downloads": 27, "homepage": "https://clawhub.ai/mariokarras/abm-video-ad-creation", "iconUrl": null, "installs": 2, "name": "Video Ad Creation", "ownerName": "mariokarras", "score": 100000, "slug": "abm-video-ad-creation", "source": "clawhub", "stars": 0, "tags": null, "updated_at": 1776698570070, "version": "1.0.0"}, {"category": "", "created_at": 1774955328613, "description": "Listclean integration. Manage Leads, Persons, Organizations, Deals, Pipelines, Activities and more. Use when the user wants to interact with Listclean data.", "description_zh": "", "downloads": 27, "homepage": "https://clawhub.ai/gora050/listclean", "iconUrl": null, "installs": 0, "name": "Listclean", "ownerName": "gora050", "score": 100000, "slug": "listclean", "source": "clawhub", "stars": 0, "tags": null, "updated_at": 1776698570067, "version": "1.0.0"}, {"category": "", "created_at": 1774912758664, "description": "Feel the awe of ancient stones witnessing a solar eclipse, connecting to centuries of Pueblo memory. The rapid shift from blazing heat to chilling shadow inv...", "description_zh": "", "downloads": 27, "homepage": "https://clawhub.ai/driftsbot/experience-eclipse-fire-pueblo", "iconUrl": null, "installs": 0, "name": "Experience Eclipse Fire Pueblo", "ownerName": "driftsbot", "score": 100000, "slug": "experience-eclipse-fire-pueblo", "source": "clawhub", "stars": 0, "tags": null, "updated_at": 1776698570063, "version": "1.0.0"}, {"category": "", "created_at": 1774898610335, "description": "Promptmate.io integration. Manage Prompts, PromptSets, Variables, Templates, Models, Users and more. Use when the user wants to interact with Promptmate.io d...", "description_zh": "", "downloads": 27, "homepage": "https://clawhub.ai/gora050/promptmateio", "iconUrl": null, "installs": 1, "name": "Promptmateio", "ownerName": "gora050", "score": 100000, "slug": "promptmateio", "source": "clawhub", "stars": 0, "tags": null, "updated_at": 1776698570061, "version": "1.0.0"}, {"category": "", "created_at": 1774949753999, "description": "Aesthetic skill for AI agents вҖ” Impressionism movement's visual language. Style tokens, anti-tokens, and creative direction distilled from 4,900 works.", "description_zh": "", "downloads": 27, "homepage": "https://clawhub.ai/johnnyzijianwu/taste-impressionism", "iconUrl": null, "installs": 1, "name": "Taste: Impressionism вҖ” Aesthetic Movement", "ownerName": "johnnyzijianwu", "score": 100000, "slug": "taste-impressionism", "source": "clawhub", "stars": 0, "tags": ["aesthetics", "ai-agents", "art", "design", "impressionism", "movement", "taste", "visual-arts"], "updated_at": 1776698570057, "version": "1.0.0"}, {"category": "", "created_at": 1774878291225, "description": "When the user wants to plan a product launch, feature announcement, or release strategy. Also use when the user mentions 'launch,' 'Product Hunt,' 'feature r...", "description_zh": "", "downloads": 27, "homepage": "https://clawhub.ai/mariokarras/abm-launch-strategy", "iconUrl": null, "installs": 0, "name": "Launch Strategy", "ownerName": "mariokarras", "score": 100000, "slug": "abm-launch-strategy", "source": "clawhub", "stars": 0, "tags": null, "updated_at": 1776698570055, "version": "1.0.0"}, {"category": "", "created_at": 1774905190949, "description": "Add, extend, fix, or document the Subagents panel inside the OpenClaw Control UI Agents page. Use when implementing an Agents-page Subagents tab, wiring edit...", "description_zh": "", "downloads": 27, "homepage": "https://clawhub.ai/maverick-software/agent-subagents-ui", "iconUrl": null, "installs": 0, "name": "Agent Subagents UI", "ownerName": "maverick-software", "score": 100000, "slug": "agent-subagents-ui", "source": "clawhub", "stars": 0, "tags": ["agents", "openclaw", "subagents", "ui"], "updated_at": 1776698570054, "version": "1.1.0"}, {"category": "", "created_at": 1774833559502, "description": "Agente especialista em MatemГЎtica para FUVEST вҖ” CiГӘncia da ComputaГ§ГЈo (IME-USP). Esta Г© uma das duas disciplinas especГӯficas da 2ВӘ fase de Antonio: domГӯnio t...", "description_zh": "", "downloads": 27, "homepage": "https://clawhub.ai/antoniovfranco/agente-matematica", "iconUrl": null, "installs": 1, "name": "Agente Matematica", "ownerName": "antoniovfranco", "score": 100000, "slug": "agente-matematica", "source": "clawhub", "stars": 0, "tags": null, "updated_at": 1776698570048, "version": "1.0.0"}, {"category": "", "created_at": 1774856998878, "description": "View formatted commit history, author stats, and commit frequency patterns. Use when reviewing logs, comparing contributions, or generating repo reports.", "description_zh": "", "downloads": 27, "homepage": "https://clawhub.ai/ckchzh/gitlog", "iconUrl": null, "installs": 0, "name": "Gitlog", "ownerName": "ckchzh", "score": 100000, "slug": "gitlog", "source": "clawhub", "stars": 0, "tags": null, "updated_at": 1776698570046, "version": "2.0.0"}, {"category": "", "created_at": 1774919939745, "description": "GivingFuel integration. Manage Campaigns, Donors, Funds. Use when the user wants to interact with GivingFuel data.", "description_zh": "", "downloads": 27, "homepage": "https://clawhub.ai/gora050/givingfuel", "iconUrl": null, "installs": 0, "name": "Givingfuel", "ownerName": "gora050", "score": 100000, "slug": "givingfuel", "source": "clawhub", "stars": 0, "tags": null, "updated_at": 1776698570040, "version": "1.0.0"}, {"category": "", "created_at": 1774894925394, "description": "GoCanvas integration. Manage Users, Roles, Organizations, Projects, Pipelines, Deals and more. Use when the user wants to interact with GoCanvas data.", "description_zh": "", "downloads": 27, "homepage": "https://clawhub.ai/gora050/gocanvas", "iconUrl": null, "installs": 1, "name": "Gocanvas", "ownerName": "gora050", "score": 100000, "slug": "gocanvas", "source": "clawhub", "stars": 0, "tags": null, "updated_at": 1776698570038, "version": "1.0.0"}, {"category": "", "created_at": 1774900685050, "description": "Extract key highlights and quotes from books. Get the most important passages and insights from any book.", "description_zh": "", "downloads": 27, "homepage": "https://clawhub.ai/heardlyapp/book-highlights", "iconUrl": null, "installs": 0, "name": "Book Highlights", "ownerName": "heardlyapp", "score": 100000, "slug": "book-highlights", "source": "clawhub", "stars": 0, "tags": null, "updated_at": 1776698570031, "version": "1.0.0"}, {"category": "", "created_at": 1774895954303, "description": "Analyze how to extend and leverage existing assets. Use for growth strategy and resource optimization.", "description_zh": "", "downloads": 27, "homepage": "https://clawhub.ai/linuszz/asset-extension", "iconUrl": null, "installs": 0, "name": "Asset Extension", "ownerName": "linuszz", "score": 100000, "slug": "asset-extension", "source": "clawhub", "stars": 0, "tags": null, "updated_at": 1776698570027, "version": "1.0.0"}, {"category": "", "created_at": 1774844514593, "description": "Signal in the Noise. An immersive journey on drifts.bot вҖ” 10 steps, HIGH intensity, 1-2 hours. Browse, start, and travel via API.", "description_zh": "", "downloads": 27, "homepage": "https://clawhub.ai/driftsbot/experience-tokyo", "iconUrl": null, "installs": 1, "name": "Experience Tokyo", "ownerName": "driftsbot", "score": 100000, "slug": "experience-tokyo", "source": "clawhub", "stars": 0, "tags": null, "updated_at": 1776698570024, "version": "1.0.0"}, {"category": "", "created_at": 1774956381884, "description": "Provides date and time manipulation operations for working with dates. Use when you need to format, parse, compare, or manipulate dates and times.", "description_zh": "", "downloads": 27, "homepage": "https://clawhub.ai/jpengcheng523-netizen/jpeng-date-utils", "iconUrl": null, "installs": 0, "name": "date-utils", "ownerName": "jpengcheng523-netizen", "score": 100000, "slug": "jpeng-date-utils", "source": "clawhub", "stars": 0, "tags": null, "updated_at": 1776698570011, "version": "1.0.0"}, {"category": "", "created_at": 1774956337206, "description": "Growsurf integration. Manage Persons, Organizations, Deals, Leads, Projects, Activities and more. Use when the user wants to interact with Growsurf data.", "description_zh": "", "downloads": 27, "homepage": "https://clawhub.ai/membranedev/growsurf", "iconUrl": null, "installs": 0, "name": "Growsurf", "ownerName": "membranedev", "score": 100000, "slug": "growsurf", "source": "clawhub", "stars": 0, "tags": null, "updated_at": 1776698570009, "version": "1.0.0"}, {"category": "", "created_at": 1774947105280, "description": "Bird-watching log workflow: ask for place on enable, resolve eBird region via superpicky-cli region-query, persist to workspace/bird.json; record sightings (...", "description_zh": "", "downloads": 27, "homepage": "https://clawhub.ai/yoshino-s/bird-watching-mode", "iconUrl": null, "installs": 0, "name": "Bird Watching Mode", "ownerName": "yoshino-s", "score": 100000, "slug": "bird-watching-mode", "source": "clawhub", "stars": 0, "tags": null, "updated_at": 1776698570006, "version": "1.0.0"}, {"category": "", "created_at": 1774920866535, "description": "Safe .env key-first operations (CRUD) with secret-safe defaults. Use when troubleshooting missing env keys, auth/config failures, or when asked to add/update...", "description_zh": "", "downloads": 27, "homepage": "https://clawhub.ai/pioneer-weirdo/env-ops-standard", "iconUrl": null, "installs": 0, "name": "Safe .env Manager", "ownerName": "pioneer-weirdo", "score": 100000, "slug": "env-ops-standard", "source": "clawhub", "stars": 0, "tags": ["dotenv", "env", "ops", "security", "utility"], "updated_at": 1776698570004, "version": "1.0.0"}, {"category": "", "created_at": 1774956394633, "description": "Provides string manipulation and transformation operations for working with text. Use when you need to transform, format, or manipulate strings.", "description_zh": "", "downloads": 27, "homepage": "https://clawhub.ai/jpengcheng523-netizen/jpeng-string-utils", "iconUrl": null, "installs": 0, "name": "string-utils", "ownerName": "jpengcheng523-netizen", "score": 100000, "slug": "jpeng-string-utils", "source": "clawhub", "stars": 0, "tags": null, "updated_at": 1776698570000, "version": "1.0.0"}, {"category": "", "created_at": 1774893351968, "description": "Use when users need practical guidance for daily life in China, including cultural adaptation, dining, shopping, social connections, and long-term living str...", "description_zh": "", "downloads": 27, "homepage": "https://clawhub.ai/findhappy7/move-to-china-living-guide", "iconUrl": null, "installs": 0, "name": "Move to China Living Guide", "ownerName": "findhappy7", "score": 100000, "slug": "move-to-china-living-guide", "source": "clawhub", "stars": 0, "tags": null, "updated_at": 1776698569999, "version": "1.0.0"}, {"category": "", "created_at": 1774902853670, "description": "Aimtell integration. Manage data, records, and automate workflows. Use when the user wants to interact with Aimtell data.", "description_zh": "", "downloads": 27, "homepage": "https://clawhub.ai/gora050/aimtell", "iconUrl": null, "installs": 0, "name": "Aimtell", "ownerName": "gora050", "score": 100000, "slug": "aimtell", "source": "clawhub", "stars": 0, "tags": null, "updated_at": 1776698569997, "version": "1.0.0"}, {"category": "", "created_at": 1774894097110, "description": "Give booth staff visitor-specific talk tracks and qualification paths.", "description_zh": "", "downloads": 27, "homepage": "https://clawhub.ai/weilun88313/booth-script-generator", "iconUrl": null, "installs": 1, "name": "Booth Script Generator", "ownerName": "weilun88313", "score": 100000, "slug": "booth-script-generator", "source": "clawhub", "stars": 0, "tags": null, "updated_at": 1776698569995, "version": "1.0.2"}, {"category": "", "created_at": 1774952916670, "description": "GrooveHQ integration. Manage Tickets, Customers, Users, Groups, Labels, Reports. Use when the user wants to interact with GrooveHQ data.", "description_zh": "", "downloads": 27, "homepage": "https://clawhub.ai/gora050/groovehq", "iconUrl": null, "installs": 0, "name": "Groovehq", "ownerName": "gora050", "score": 100000, "slug": "groovehq", "source": "clawhub", "stars": 0, "tags": null, "updated_at": 1776698569992, "version": "1.0.0"}, {"category": "", "created_at": 1774861354354, "description": "Manage IMAP email with the Post CLI and local daemon. Use when reading, searching, fetching, drafting, replying, reply-all, moving, archiving, trashing, expo...", "description_zh": "", "downloads": 27, "homepage": "https://clawhub.ai/odrobnik/post", "iconUrl": null, "installs": 0, "name": "Post", "ownerName": "odrobnik", "score": 100000, "slug": "post", "source": "clawhub", "stars": 0, "tags": null, "updated_at": 1776698569990, "version": "1.5.0"}, {"category": "", "created_at": 1774849872655, "description": "Real-time strategic intelligence layer for ecommerce and digital businesses. Use this skill whenever the user asks about competitors, market trends, pricing,...", "description_zh": "", "downloads": 27, "homepage": "https://clawhub.ai/abhishekj9621/market-intelligence-claw", "iconUrl": null, "installs": 0, "name": "Market Intelligence Claw", "ownerName": "abhishekj9621", "score": 100000, "slug": "market-intelligence-claw", "source": "clawhub", "stars": 0, "tags": null, "updated_at": 1776698569987, "version": "1.0.3"}, {"category": "", "created_at": 1774910401292, "description": "A daily gacha skill вҖ” draw a random activity each morning, check in at night, and get a weekly summary. Adds a little surprise to every day.", "description_zh": "", "downloads": 27, "homepage": "https://clawhub.ai/luoruikun0531/life-gacha", "iconUrl": null, "installs": 0, "name": "life-gacha", "ownerName": "luoruikun0531", "score": 100000, "slug": "life-gacha", "source": "clawhub", "stars": 0, "tags": null, "updated_at": 1776698569985, "version": "1.0.0"}, {"category": "", "created_at": 1774844128924, "description": "AI agent dating and social platform вҖ” register your agent, get matched by AI compatibility scoring, chat in real time, build relationships, and join the publ...", "description_zh": "", "downloads": 27, "homepage": "https://clawhub.ai/alvinhotro-nb/moltme", "iconUrl": null, "installs": 0, "name": "MoltMe вҖ” AI Agent Dating & Social Connection Platform", "ownerName": "alvinhotro-nb", "score": 100000, "slug": "moltme", "source": "clawhub", "stars": 0, "tags": null, "updated_at": 1776698569978, "version": "1.3.1"}, {"category": "", "created_at": 1774870941538, "description": "Complete automated development pipeline for one-person companies. Use when a user provides a simple app idea and wants a fully automated development process...", "description_zh": "", "downloads": 27, "homepage": "https://clawhub.ai/tc1993/auto-dev-pipeline", "iconUrl": null, "installs": 0, "name": "Auto Dev Pipeline", "ownerName": "tc1993", "score": 100000, "slug": "auto-dev-pipeline", "source": "clawhub", "stars": 0, "tags": null, "updated_at": 1776698569967, "version": "1.0.0"}, {"category": "", "created_at": 1774913865115, "description": "Bland AI integration. Manage data, records, and automate workflows. Use when the user wants to interact with Bland AI data.", "description_zh": "", "downloads": 27, "homepage": "https://clawhub.ai/membranedev/bland-ai", "iconUrl": null, "installs": 0, "name": "Bland Ai", "ownerName": "membranedev", "score": 100000, "slug": "bland-ai", "source": "clawhub", "stars": 0, "tags": null, "updated_at": 1776698569955, "version": "1.0.0"}, {"category": "", "created_at": 1774920013771, "description": "ICBC (Industrial and Commercial Bank of China) banking services, financial products, stock info, and branch locator.", "description_zh": "", "downloads": 27, "homepage": "https://clawhub.ai/hanxueyuan/icbc", "iconUrl": null, "installs": 0, "name": "ICBC", "ownerName": "hanxueyuan", "score": 100000, "slug": "icbc", "source": "clawhub", "stars": 0, "tags": null, "updated_at": 1776698569953, "version": "0.1.0"}, {"category": "", "created_at": 1774952946141, "description": "Ironclad integration. Manage data, records, and automate workflows. Use when the user wants to interact with Ironclad data.", "description_zh": "", "downloads": 27, "homepage": "https://clawhub.ai/gora050/ironclad", "iconUrl": null, "installs": 0, "name": "Ironclad", "ownerName": "gora050", "score": 100000, "slug": "ironclad", "source": "clawhub", "stars": 0, "tags": null, "updated_at": 1776698569947, "version": "1.0.0"}, {"category": "", "created_at": 1774911701080, "description": "Four J's Development Tools integration. Manage data, records, and automate workflows. Use when the user wants to interact with Four J's Development Tools data.", "description_zh": "", "downloads": 27, "homepage": "https://clawhub.ai/gora050/four-js-development-tools", "iconUrl": null, "installs": 0, "name": "Four Js Development Tools", "ownerName": "gora050", "score": 100000, "slug": "four-js-development-tools", "source": "clawhub", "stars": 0, "tags": null, "updated_at": 1776698569945, "version": "1.0.0"}, {"category": "", "created_at": 1774907333357, "description": "Akeyless Secrets Management via the official akeyless CLI вҖ” install, configure profiles, gateway routing, and safe read/list operations. Use when the user me...", "description_zh": "", "downloads": 27, "homepage": "https://clawhub.ai/deanshak/akeyless", "iconUrl": null, "installs": 0, "name": "Akeyless IO", "ownerName": "deanshak", "score": 100000, "slug": "akeyless", "source": "clawhub", "stars": 0, "tags": null, "updated_at": 1776698569942, "version": "1.0.0"}, {"category": "", "created_at": 1774885521938, "description": "DocuGenerate integration. Manage Documents, Templates. Use when the user wants to interact with DocuGenerate data.", "description_zh": "", "downloads": 27, "homepage": "https://clawhub.ai/membranedev/docugenerate", "iconUrl": null, "installs": 0, "name": "Docugenerate", "ownerName": "membranedev", "score": 100000, "slug": "docugenerate", "source": "clawhub", "stars": 0, "tags": null, "updated_at": 1776698569935, "version": "1.0.0"}, {"category": "", "created_at": 1774956324305, "description": "Grist integration. Manage Workspaces, Users, Roles. Use when the user wants to interact with Grist data.", "description_zh": "", "downloads": 27, "homepage": "https://clawhub.ai/gora050/grist", "iconUrl": null, "installs": 0, "name": "Grist", "ownerName": "gora050", "score": 100000, "slug": "grist", "source": "clawhub", "stars": 0, "tags": null, "updated_at": 1776698569933, "version": "1.0.0"}, {"category": "", "created_at": 1774894655262, "description": "Explanation documentation patterns for understanding-oriented content - conceptual guides that explain why things work the way they do", "description_zh": "", "downloads": 27, "homepage": "https://clawhub.ai/anderskev/explanation-docs", "iconUrl": null, "installs": 0, "name": "Explanation Docs", "ownerName": "anderskev", "score": 100000, "slug": "explanation-docs", "source": "clawhub", "stars": 0, "tags": null, "updated_at": 1776698569931, "version": "1.0.0"}, {"category": "", "created_at": 1774879809788, "description": "Give your AI agent its own email inbox. Send, receive, and manage email conversations via MCP tools. Set AGENTSEND_API_KEY from agentsend.io вҖ” free tier avai...", "description_zh": "", "downloads": 27, "homepage": "https://clawhub.ai/luv005/agentsend-email", "iconUrl": null, "installs": 0, "name": "AgentSend Email", "ownerName": "luv005", "score": 100000, "slug": "agentsend-email", "source": "clawhub", "stars": 0, "tags": null, "updated_at": 1776698569930, "version": "1.1.0"}]}