{"page": 491, "total_pages": 522, "total": 26073, "skills": [{"category": "", "created_at": 1774915968653, "description": "Upscale an existing HTTPS video via WeryAI (video-upscaler). Use when the user wants higher resolution output, not text-to-video.", "description_zh": "", "downloads": 27, "homepage": "https://clawhub.ai/zoucdr/video-tool-upscaler", "iconUrl": null, "installs": 0, "name": "WeryAI video tool — upscaler", "ownerName": "zoucdr", "score": 100000, "slug": "video-tool-upscaler", "source": "clawhub", "stars": 0, "tags": null, "updated_at": 1776698569926, "version": "1.0.0"}, {"category": "", "created_at": 1774873591672, "description": "Query the Anvil mesh network for live BSV data feeds, verify transactions via SPV, and discover HTTP 402 micropayment services. Non-custodial, sub-cent payme...", "description_zh": "", "downloads": 27, "homepage": "https://clawhub.ai/bsvanon/anvil-mesh", "iconUrl": null, "installs": 0, "name": "Anvil Mesh", "ownerName": "bsvanon", "score": 100000, "slug": "anvil-mesh", "source": "clawhub", "stars": 0, "tags": ["blockchain", "bsv", "data-feed", "http-402", "machine-economy", "micropayments", "oracle", "spv"], "updated_at": 1776698569924, "version": "0.2.0"}, {"category": "", "created_at": 1774888028956, "description": "FogBugz integration. Manage Persons, Organizations, Leads, Deals, Projects, Pipelines and more. Use when the user wants to interact with FogBugz data.", "description_zh": "", "downloads": 27, "homepage": "https://clawhub.ai/membranedev/fogbugz", "iconUrl": null, "installs": 0, "name": "Fogbugz", "ownerName": "membranedev", "score": 100000, "slug": "fogbugz", "source": "clawhub", "stars": 0, "tags": null, "updated_at": 1776698569917, "version": "1.0.0"}, {"category": "", "created_at": 1774876175009, "description": "Reward Sciences integration. Manage Persons, Organizations, Deals, Leads, Projects, Activities and more. Use when the user wants to interact with Reward Scie...", "description_zh": "", "downloads": 27, "homepage": "https://clawhub.ai/gora050/reward-sciences", "iconUrl": null, "installs": 0, "name": "Reward Sciences", "ownerName": "gora050", "score": 100000, "slug": "reward-sciences", "source": "clawhub", "stars": 0, "tags": null, "updated_at": 1776698569911, "version": "1.0.0"}, {"category": "", "created_at": 1774956009747, "description": "Post, vote, and comment on bothn.com — Hacker News for AI agents. Read the front page, submit links, discuss with other agents.", "description_zh": "", "downloads": 27, "homepage": "https://clawhub.ai/spranab/bothn", "iconUrl": null, "installs": 0, "name": "Skill", "ownerName": "spranab", "score": 100000, "slug": "bothn", "source": "clawhub", "stars": 0, "tags": null, "updated_at": 1776698569909, "version": "1.0.0"}, {"category": "", "created_at": 1774905492447, "description": "ETermin integration. Manage Persons, Organizations, Leads, Deals, Activities, Notes and more. Use when the user wants to interact with ETermin data.", "description_zh": "", "downloads": 27, "homepage": "https://clawhub.ai/gora050/etermin", "iconUrl": null, "installs": 0, "name": "Etermin", "ownerName": "gora050", "score": 100000, "slug": "etermin", "source": "clawhub", "stars": 0, "tags": null, "updated_at": 1776698569906, "version": "1.0.0"}, {"category": "", "created_at": 1774894327123, "description": "When the user wants to create, optimize, or audit a single article/post page (not the blog index). Also use when the user mentions \"article page,\" \"blog post...", "description_zh": "", "downloads": 27, "homepage": "https://clawhub.ai/kostja94/article-page-generator", "iconUrl": null, "installs": 0, "name": "article-page-generator", "ownerName": "kostja94", "score": 100000, "slug": "article-page-generator", "source": "clawhub", "stars": 0, "tags": null, "updated_at": 1776698569901, "version": "1.2.0"}, {"category": "", "created_at": 1774915277040, "description": "Enormail integration. Manage Mailboxs, Campaigns. Use when the user wants to interact with Enormail data.", "description_zh": "", "downloads": 27, "homepage": "https://clawhub.ai/gora050/enormail", "iconUrl": null, "installs": 0, "name": "Enormail", "ownerName": "gora050", "score": 100000, "slug": "enormail", "source": "clawhub", "stars": 0, "tags": null, "updated_at": 1776698569897, "version": "1.0.0"}, {"category": "", "created_at": 1774905309805, "description": "Find nearby bicycle shops. Invoke when user asks for bike shops near me.", "description_zh": "", "downloads": 27, "homepage": "https://clawhub.ai/codekungfu/bicycle-shops", "iconUrl": null, "installs": 0, "name": "Nearby Bicycle Shops", "ownerName": "codekungfu", "score": 100000, "slug": "bicycle-shops", "source": "clawhub", "stars": 0, "tags": null, "updated_at": 1776698569894, "version": "0.1.0"}, {"category": "", "created_at": 1774841284041, "description": "Reference tool for devtools — covers intro, quickstart, patterns and more. Quick lookup for Image Labeler concepts, best practices, and implementation patterns.", "description_zh": "", "downloads": 27, "homepage": "https://clawhub.ai/bytesagain1/image-labeler", "iconUrl": null, "installs": 0, "name": "Image Labeler", "ownerName": "bytesagain1", "score": 100000, "slug": "image-labeler", "source": "clawhub", "stars": 0, "tags": null, "updated_at": 1776698569892, "version": "2.0.3"}, {"category": "", "created_at": 1774896146256, "description": "CIS benchmark compliance assessment for network infrastructure devices. Maps device configuration against CIS benchmark controls organized by Management Plan...", "description_zh": "", "downloads": 27, "homepage": "https://clawhub.ai/vahagn-madatyan/cis-benchmark-audit", "iconUrl": null, "installs": 0, "name": "Cis Benchmark Audit", "ownerName": "vahagn-madatyan", "score": 100000, "slug": "cis-benchmark-audit", "source": "clawhub", "stars": 0, "tags": null, "updated_at": 1776698569884, "version": "1.0.0"}, {"category": "", "created_at": 1774945397721, "description": "Design inbound GTM systems — lead routing logic, PLG activation flows, nurture tracks, and ICP-based triage. Use when leads aren't converting, building or op...", "description_zh": "", "downloads": 27, "homepage": "https://clawhub.ai/davidslavich/gtm-inbound-strategy", "iconUrl": null, "installs": 1, "name": "GTM Inbound Strategy", "ownerName": "davidslavich", "score": 100000, "slug": "gtm-inbound-strategy", "source": "clawhub", "stars": 0, "tags": null, "updated_at": 1776698569875, "version": "1.0.0"}, {"category": "", "created_at": 1774885384862, "description": "Match and normalize product listings across Indian ecommerce catalogs with variant-aware rules, confidence scoring, false-match prevention, and review queues...", "description_zh": "", "downloads": 27, "homepage": "https://clawhub.ai/anugotta/catalog-sku-matcher-india", "iconUrl": null, "installs": 0, "name": "Catalog SKU Matcher India", "ownerName": "anugotta", "score": 100000, "slug": "catalog-sku-matcher-india", "source": "clawhub", "stars": 0, "tags": null, "updated_at": 1776698569869, "version": "1.0.0"}, {"category": "", "created_at": 1774853838133, "description": "Reference tool for devtools — covers intro, quickstart, patterns and more. Quick lookup for Linecount concepts, best practices, and implementation patterns.", "description_zh": "", "downloads": 27, "homepage": "https://clawhub.ai/bytesagain3/linecount", "iconUrl": null, "installs": 0, "name": "Linecount", "ownerName": "bytesagain3", "score": 100000, "slug": "linecount", "source": "clawhub", "stars": 0, "tags": null, "updated_at": 1776698569868, "version": "2.0.3"}, {"category": "", "created_at": 1774894985187, "description": "Infinity integration. Manage Workspaces. Use when the user wants to interact with Infinity data.", "description_zh": "", "downloads": 27, "homepage": "https://clawhub.ai/gora050/infinity", "iconUrl": null, "installs": 0, "name": "Infinity", "ownerName": "gora050", "score": 100000, "slug": "infinity", "source": "clawhub", "stars": 0, "tags": null, "updated_at": 1776698569866, "version": "1.0.0"}, {"category": "", "created_at": 1774885064770, "description": "Build, review, debug, and automate VASP first-principles workflows. Use when working with VASP input sets such as INCAR, POSCAR, KPOINTS, and POTCAR; when ch...", "description_zh": "", "downloads": 27, "homepage": "https://clawhub.ai/fzj1214/vasp-skills", "iconUrl": null, "installs": 2, "name": "vasp-skills", "ownerName": "fzj1214", "score": 100000, "slug": "vasp-skills", "source": "clawhub", "stars": 0, "tags": null, "updated_at": 1776698569863, "version": "1.0.0"}, {"category": "", "created_at": 1774906584649, "description": "Google Workspace CLI for Gmail, Calendar, Drive, Contacts, Sheets, and Docs.", "description_zh": "", "downloads": 27, "homepage": "https://clawhub.ai/czm448/gog-local", "iconUrl": null, "installs": 0, "name": "Gog Local", "ownerName": "czm448", "score": 100000, "slug": "gog-local", "source": "clawhub", "stars": 0, "tags": null, "updated_at": 1776698569853, "version": "1.0.0"}, {"category": "", "created_at": 1774872629140, "description": "Create and manage Instantly.ai email campaigns via API. Use when the user wants to create a cold email campaign, add leads to Instantly, configure email sequ...", "description_zh": "", "downloads": 27, "homepage": "https://clawhub.ai/polzer1999/instantly-campaign-builder", "iconUrl": null, "installs": 0, "name": "get-some-leads", "ownerName": "polzer1999", "score": 100000, "slug": "instantly-campaign-builder", "source": "clawhub", "stars": 0, "tags": null, "updated_at": 1776698569847, "version": "1.0.0"}, {"category": "", "created_at": 1774868357440, "description": "Book hotels via Booking.com using Strider Labs MCP connector. Search accommodations worldwide, compare prices, manage reservations. Complete autonomous hotel...", "description_zh": "", "downloads": 27, "homepage": "https://clawhub.ai/markswendsen-code/strider-booking", "iconUrl": null, "installs": 1, "name": "Strider Booking.com", "ownerName": "markswendsen-code", "score": 100000, "slug": "strider-booking", "source": "clawhub", "stars": 0, "tags": null, "updated_at": 1776698569845, "version": "1.0.0"}, {"category": "", "created_at": 1774887696553, "description": "Extract architectural decisions from conversations. Identifies problem-solution pairs, trade-off discussions, and explicit choices. Use when analyzing sessio...", "description_zh": "", "downloads": 27, "homepage": "https://clawhub.ai/anderskev/adr-decision-extraction", "iconUrl": null, "installs": 0, "name": "Adr Decision Extraction", "ownerName": "anderskev", "score": 100000, "slug": "adr-decision-extraction", "source": "clawhub", "stars": 0, "tags": null, "updated_at": 1776698569838, "version": "1.0.0"}, {"category": "", "created_at": 1774925735934, "description": "Hygraph integration. Manage Projects. Use when the user wants to interact with Hygraph data.", "description_zh": "", "downloads": 27, "homepage": "https://clawhub.ai/gora050/hygraph", "iconUrl": null, "installs": 0, "name": "Hygraph", "ownerName": "gora050", "score": 100000, "slug": "hygraph", "source": "clawhub", "stars": 0, "tags": null, "updated_at": 1776698569833, "version": "1.0.0"}, {"category": "", "created_at": 1774872794938, "description": "Submit a purchase order for automated risk analysis and procurement approval via MOVA HITL. Trigger when the user mentions a PO number, asks to approve/revie...", "description_zh": "", "downloads": 27, "homepage": "https://clawhub.ai/mova-compact/mova-po-approval", "iconUrl": null, "installs": 0, "name": "Mova Po Approval", "ownerName": "mova-compact", "score": 100000, "slug": "mova-po-approval", "source": "clawhub", "stars": 0, "tags": null, "updated_at": 1776698569831, "version": "1.2.0"}, {"category": "", "created_at": 1774898043774, "description": "GetProspect integration. Manage Persons, Organizations, Leads, Users, Roles, Filters. Use when the user wants to interact with GetProspect data.", "description_zh": "", "downloads": 27, "homepage": "https://clawhub.ai/membranedev/getprospect", "iconUrl": null, "installs": 0, "name": "Getprospect", "ownerName": "membranedev", "score": 100000, "slug": "getprospect", "source": "clawhub", "stars": 0, "tags": null, "updated_at": 1776698569830, "version": "1.0.0"}, {"category": "", "created_at": 1774891221222, "description": "Configures ExDoc for Elixir projects including mix.exs setup, extras, groups, cheatsheets, and livebooks. Use when setting up or modifying ExDoc documentatio...", "description_zh": "", "downloads": 27, "homepage": "https://clawhub.ai/anderskev/exdoc-config", "iconUrl": null, "installs": 1, "name": "Exdoc Config", "ownerName": "anderskev", "score": 100000, "slug": "exdoc-config", "source": "clawhub", "stars": 0, "tags": null, "updated_at": 1776698569828, "version": "1.2.0"}, {"category": "", "created_at": 1774917658643, "description": "Apparmor reference tool. Use when working with apparmor in sysops contexts.", "description_zh": "", "downloads": 27, "homepage": "https://clawhub.ai/xueyetianya/apparmor", "iconUrl": null, "installs": 0, "name": "Apparmor", "ownerName": "xueyetianya", "score": 100000, "slug": "apparmor", "source": "clawhub", "stars": 0, "tags": null, "updated_at": 1776698569826, "version": "1.0.0"}, {"category": "", "created_at": 1774897952074, "description": "Reviews Elixir documentation for completeness, quality, and ExDoc best practices. Use when auditing @moduledoc, @doc, @spec coverage, doctest correctness, an...", "description_zh": "", "downloads": 27, "homepage": "https://clawhub.ai/anderskev/elixir-docs-review", "iconUrl": null, "installs": 0, "name": "Elixir Docs Review", "ownerName": "anderskev", "score": 100000, "slug": "elixir-docs-review", "source": "clawhub", "stars": 0, "tags": null, "updated_at": 1776698569819, "version": "1.2.0"}, {"category": "", "created_at": 1774905366631, "description": "Find nearby car parks. Invoke when user asks for parking near me.", "description_zh": "", "downloads": 27, "homepage": "https://clawhub.ai/mikeclaw007/car-parks", "iconUrl": null, "installs": 0, "name": "附近停车场", "ownerName": "mikeclaw007", "score": 100000, "slug": "car-parks", "source": "clawhub", "stars": 0, "tags": null, "updated_at": 1776698569817, "version": "0.1.0"}, {"category": "", "created_at": 1774951350181, "description": "Make Commerce integration. Manage data, records, and automate workflows. Use when the user wants to interact with Make Commerce data.", "description_zh": "", "downloads": 27, "homepage": "https://clawhub.ai/gora050/make-commerce", "iconUrl": null, "installs": 1, "name": "Make Commerce", "ownerName": "gora050", "score": 100000, "slug": "make-commerce", "source": "clawhub", "stars": 0, "tags": null, "updated_at": 1776698569814, "version": "1.0.0"}, {"category": "", "created_at": 1774893007293, "description": "High-availability multi-role model router for OpenClaw. Discovers available models, maps them to role-based departments, routes tasks by complexity and domai...", "description_zh": "", "downloads": 27, "homepage": "https://clawhub.ai/rexnode/imperial-orchestrator", "iconUrl": null, "installs": 1, "name": "Imperial Orchestrator", "ownerName": "rexnode", "score": 100000, "slug": "imperial-orchestrator", "source": "clawhub", "stars": 0, "tags": ["benchmark", "fallback", "i18n", "multi-role", "orchestration", "routing"], "updated_at": 1776698569810, "version": "1.0.0"}, {"category": "", "created_at": 1774875073094, "description": "Encrypted credential vault and persistent memory for AI agents. Install from npm, sandbox agent access to secrets, store and query encrypted memory, run an M...", "description_zh": "", "downloads": 27, "homepage": "https://clawhub.ai/maheen-sajjad/agentvault", "iconUrl": null, "installs": 0, "name": "Agentvault", "ownerName": "maheen-sajjad", "score": 100000, "slug": "agentvault", "source": "clawhub", "stars": 0, "tags": null, "updated_at": 1776698569808, "version": "1.0.2"}, {"category": "", "created_at": 1774853659866, "description": "Extend Git with utilities for changelogs, branch cleanup, and repo stats. Use when generating changelogs, squashing branches, or viewing repo statistics.", "description_zh": "", "downloads": 27, "homepage": "https://clawhub.ai/bytesagain3/gitbuddy", "iconUrl": null, "installs": 2, "name": "Gitbuddy", "ownerName": "bytesagain3", "score": 100000, "slug": "gitbuddy", "source": "clawhub", "stars": 0, "tags": null, "updated_at": 1776698569801, "version": "2.0.0"}, {"category": "", "created_at": 1774882720064, "description": "Curate reader-facing survey tables for the Appendix (clean layout + high information density), using only in-scope evidence and existing citation keys. **Tri...", "description_zh": "", "downloads": 27, "homepage": "https://clawhub.ai/willoscar/appendix-table-writer", "iconUrl": null, "installs": 1, "name": "Appendix Table Writer", "ownerName": "willoscar", "score": 100000, "slug": "appendix-table-writer", "source": "clawhub", "stars": 0, "tags": null, "updated_at": 1776698569796, "version": "1.0.0"}, {"category": "", "created_at": 1774874062956, "description": "Generate realistic fake/mock data for testing and development. Supports names, emails, addresses, phone numbers, UUIDs, dates, lorem ipsum, credit cards, com...", "description_zh": "", "downloads": 27, "homepage": "https://clawhub.ai/johnnywang2001/jrv-mock-data", "iconUrl": null, "installs": 0, "name": "Jrv Mock Data", "ownerName": "johnnywang2001", "score": 100000, "slug": "jrv-mock-data", "source": "clawhub", "stars": 0, "tags": null, "updated_at": 1776698569794, "version": "1.0.0"}, {"category": "", "created_at": 1774874775141, "description": "Generate images & videos with ZenMux. Support multiple image models (Gemini, Qwen, Hunyuan, etc.) and video models (Veo, Seedance) via one API key.", "description_zh": "", "downloads": 27, "homepage": "https://clawhub.ai/theopenbase/zenmux-media-gen", "iconUrl": null, "installs": 0, "name": "ZenMux Media Gen", "ownerName": "theopenbase", "score": 100000, "slug": "zenmux-media-gen", "source": "clawhub", "stars": 0, "tags": null, "updated_at": 1776698569792, "version": "1.0.0"}, {"category": "", "created_at": 1774868762979, "description": "When the user wants to plan product distribution via marketplaces, app stores, or third-party platforms. Also use when the user mentions \"distribution channe...", "description_zh": "", "downloads": 27, "homepage": "https://clawhub.ai/kostja94/distribution-channels", "iconUrl": null, "installs": 0, "name": "distribution-channels", "ownerName": "kostja94", "score": 100000, "slug": "distribution-channels", "source": "clawhub", "stars": 0, "tags": null, "updated_at": 1776698569791, "version": "1.1.0"}, {"category": "", "created_at": 1774899424365, "description": "Cascade Strategy integration. Manage data, records, and automate workflows. Use when the user wants to interact with Cascade Strategy data.", "description_zh": "", "downloads": 27, "homepage": "https://clawhub.ai/gora050/cascade-strategy", "iconUrl": null, "installs": 0, "name": "Cascade Strategy", "ownerName": "gora050", "score": 100000, "slug": "cascade-strategy", "source": "clawhub", "stars": 0, "tags": null, "updated_at": 1776698569789, "version": "1.0.0"}, {"category": "", "created_at": 1774910888189, "description": "IPinfo.io integration. Manage Domains, ASNs, Companies. Use when the user wants to interact with IPinfo.io data.", "description_zh": "", "downloads": 27, "homepage": "https://clawhub.ai/membranedev/ipinfoio", "iconUrl": null, "installs": 0, "name": "Ipinfoio", "ownerName": "membranedev", "score": 100000, "slug": "ipinfoio", "source": "clawhub", "stars": 0, "tags": null, "updated_at": 1776698569787, "version": "1.0.0"}, {"category": "", "created_at": 1774948633726, "description": "Use lab budget forecaster for data analysis workflows that need structured execution, explicit assumptions, and clear output boundaries.", "description_zh": "", "downloads": 27, "homepage": "https://clawhub.ai/aipoch-ai/lab-budget-forecaster", "iconUrl": null, "installs": 0, "name": "Lab Budget Forecaster", "ownerName": "aipoch-ai", "score": 100000, "slug": "lab-budget-forecaster", "source": "clawhub", "stars": 0, "tags": null, "updated_at": 1776698569784, "version": "1.0.0"}, {"category": "", "created_at": 1774900716550, "description": "BulkGate integration. Manage data, records, and automate workflows. Use when the user wants to interact with BulkGate data.", "description_zh": "", "downloads": 27, "homepage": "https://clawhub.ai/gora050/bulkgate", "iconUrl": null, "installs": 0, "name": "Bulkgate", "ownerName": "gora050", "score": 100000, "slug": "bulkgate", "source": "clawhub", "stars": 0, "tags": null, "updated_at": 1776698569781, "version": "1.0.0"}, {"category": "", "created_at": 1774876755836, "description": "Uses Chrome DevTools MCP for accessibility (a11y) debugging and auditing based on web.dev guidelines. Use when testing semantic HTML, ARIA labels, focus stat...", "description_zh": "", "downloads": 27, "homepage": "https://clawhub.ai/poiuy1318/a11y-debugging", "iconUrl": null, "installs": 0, "name": "A11y Debugging", "ownerName": "poiuy1318", "score": 100000, "slug": "a11y-debugging", "source": "clawhub", "stars": 0, "tags": null, "updated_at": 1776698569778, "version": "1.0.0"}, {"category": "", "created_at": 1774902560769, "description": "Stochastic reference tool. Use when working with stochastic in finance contexts.", "description_zh": "", "downloads": 27, "homepage": "https://clawhub.ai/bytesagain3/stochastic", "iconUrl": null, "installs": 0, "name": "Stochastic", "ownerName": "bytesagain3", "score": 100000, "slug": "stochastic", "source": "clawhub", "stars": 0, "tags": null, "updated_at": 1776698569776, "version": "1.0.0"}, {"category": "", "created_at": 1774917275239, "description": "Placeholder skill for text-to-image workflows on skills.video. Use when the user is asking about t2i generation and the concrete API contract has not been im...", "description_zh": "", "downloads": 27, "homepage": "https://clawhub.ai/skills-video/t2i", "iconUrl": null, "installs": 2, "name": "T2I", "ownerName": "skills-video", "score": 100000, "slug": "t2i", "source": "clawhub", "stars": 0, "tags": null, "updated_at": 1776698569771, "version": "1.0.0"}, {"category": "", "created_at": 1774951670341, "description": "Aesthetic skill for AI agents — Van Gogh's Post-Impressionist visual language. Style tokens, anti-tokens, and creative direction distilled from 843 works.", "description_zh": "", "downloads": 27, "homepage": "https://clawhub.ai/johnnyzijianwu/taste-van-gogh", "iconUrl": null, "installs": 0, "name": "Taste: Van Gogh — Post-Impressionist Master", "ownerName": "johnnyzijianwu", "score": 100000, "slug": "taste-van-gogh", "source": "clawhub", "stars": 0, "tags": ["aesthetics", "ai-agents", "art", "design", "post-impressionism", "taste", "van-gogh", "visual-arts"], "updated_at": 1776698569769, "version": "1.0.0"}, {"category": "", "created_at": 1774947172482, "description": "Carbone integration. Manage data, records, and automate workflows. Use when the user wants to interact with Carbone data.", "description_zh": "", "downloads": 27, "homepage": "https://clawhub.ai/gora050/carbone", "iconUrl": null, "installs": 0, "name": "Carbone", "ownerName": "gora050", "score": 100000, "slug": "carbone", "source": "clawhub", "stars": 0, "tags": null, "updated_at": 1776698569767, "version": "1.0.0"}, {"category": "", "created_at": 1774869703245, "description": "Register and compete in the Clawber AI battle arena. Handles agent registration, bot code submission, and match results.", "description_zh": "", "downloads": 27, "homepage": "https://clawhub.ai/realcraig/clawber", "iconUrl": null, "installs": 0, "name": "Clawber", "ownerName": "realcraig", "score": 100000, "slug": "clawber", "source": "clawhub", "stars": 0, "tags": null, "updated_at": 1776698569764, "version": "1.0.0"}, {"category": "", "created_at": 1774867790835, "description": "DroidRun Portal HTTP/WebSocket/MCP client. Controls Android devices via HTTP, WebSocket, or MCP server, supporting tap, swipe, screenshot, text input, UI sta...", "description_zh": "", "downloads": 27, "homepage": "https://clawhub.ai/hanxi/droidrun-agent", "iconUrl": null, "installs": 0, "name": "Droidrun Agent", "ownerName": "hanxi", "score": 100000, "slug": "droidrun-agent", "source": "clawhub", "stars": 0, "tags": null, "updated_at": 1776698569760, "version": "0.1.0"}, {"category": "", "created_at": 1774853850061, "description": "MarketTime integration. Manage Organizations. Use when the user wants to interact with MarketTime data.", "description_zh": "", "downloads": 27, "homepage": "https://clawhub.ai/gora050/markettime", "iconUrl": null, "installs": 0, "name": "Markettime", "ownerName": "gora050", "score": 100000, "slug": "markettime", "source": "clawhub", "stars": 0, "tags": null, "updated_at": 1776698569755, "version": "1.0.0"}, {"category": "", "created_at": 1774904102107, "description": "Find nearby camping sites. Invoke when user asks for camping near me.", "description_zh": "", "downloads": 27, "homepage": "https://clawhub.ai/codekungfu/camping-sites", "iconUrl": null, "installs": 1, "name": "Nearby Camping Sites", "ownerName": "codekungfu", "score": 100000, "slug": "camping-sites", "source": "clawhub", "stars": 0, "tags": null, "updated_at": 1776698569743, "version": "0.1.0"}, {"category": "", "created_at": 1774924357629, "description": "Memory Profiler — Mine hidden patterns from your Agent's memory, confirm via interactive quiz, and generate a structured user profile.", "description_zh": "", "downloads": 27, "homepage": "https://clawhub.ai/fret774/memweaver", "iconUrl": null, "installs": 0, "name": "MemWeaver", "ownerName": "fret774", "score": 100000, "slug": "memweaver", "source": "clawhub", "stars": 0, "tags": null, "updated_at": 1776698569741, "version": "0.1.0"}, {"category": "", "created_at": 1774900582285, "description": "AMLBot integration. Manage data, records, and automate workflows. Use when the user wants to interact with AMLBot data.", "description_zh": "", "downloads": 27, "homepage": "https://clawhub.ai/gora050/amlbot", "iconUrl": null, "installs": 1, "name": "Amlbot", "ownerName": "gora050", "score": 100000, "slug": "amlbot", "source": "clawhub", "stars": 0, "tags": null, "updated_at": 1776698569740, "version": "1.0.0"}]}