{"page": 492, "total_pages": 522, "total": 26073, "skills": [{"category": "", "created_at": 1774911760693, "description": "Hotwallet reference tool. Use when working with hotwallet in blockchain contexts.", "description_zh": "", "downloads": 27, "homepage": "https://clawhub.ai/bytesagain1/hotwallet", "iconUrl": null, "installs": 0, "name": "Hotwallet", "ownerName": "bytesagain1", "score": 100000, "slug": "hotwallet", "source": "clawhub", "stars": 0, "tags": null, "updated_at": 1776698569732, "version": "1.0.0"}, {"category": "", "created_at": 1774904366116, "description": "Query ad platform data (Meta, Google, LinkedIn, Reddit) using the Hopkin CLI. Use this skill when the user asks about ad accounts, campaigns, ad performance,...", "description_zh": "", "downloads": 27, "homepage": "https://clawhub.ai/nemo/hopkin-paid-ads", "iconUrl": null, "installs": 0, "name": "Hopkin – Paid Ads: Meta, TikTok, Google, LinkedIn, Reddit", "ownerName": "nemo", "score": 100000, "slug": "hopkin-paid-ads", "source": "clawhub", "stars": 0, "tags": null, "updated_at": 1776698569731, "version": "0.1.0"}, {"category": "", "created_at": 1774848455603, "description": "Connect to the KONIO A2A marketplace — register agents, post jobs, review work, and build reputation. Requires a KONIO account and agent API key.", "description_zh": "", "downloads": 27, "homepage": "https://clawhub.ai/djlougen/konio-marketplace", "iconUrl": null, "installs": 0, "name": "KONIO Marketplace", "ownerName": "djlougen", "score": 100000, "slug": "konio-marketplace", "source": "clawhub", "stars": 0, "tags": ["a2a", "agent-economy", "autonomous-agents", "jobs", "marketplace", "reputation"], "updated_at": 1776698569727, "version": "1.5.0"}, {"category": "", "created_at": 1774912766922, "description": "Feedier integration. Manage Surveys, Integrations, Users. Use when the user wants to interact with Feedier data.", "description_zh": "", "downloads": 27, "homepage": "https://clawhub.ai/gora050/feedier", "iconUrl": null, "installs": 0, "name": "Feedier", "ownerName": "gora050", "score": 100000, "slug": "feedier", "source": "clawhub", "stars": 0, "tags": null, "updated_at": 1776698569726, "version": "1.0.0"}, {"category": "", "created_at": 1774867620263, "description": "ChargeOver integration. Manage data, records, and automate workflows. Use when the user wants to interact with ChargeOver data.", "description_zh": "", "downloads": 27, "homepage": "https://clawhub.ai/membranedev/chargeover", "iconUrl": null, "installs": 0, "name": "Chargeover", "ownerName": "membranedev", "score": 100000, "slug": "chargeover", "source": "clawhub", "stars": 0, "tags": null, "updated_at": 1776698569724, "version": "1.0.0"}, {"category": "", "created_at": 1774869598776, "description": "AskYourPDF integration. Manage data, records, and automate workflows. Use when the user wants to interact with AskYourPDF data.", "description_zh": "", "downloads": 27, "homepage": "https://clawhub.ai/gora050/askyourpdf", "iconUrl": null, "installs": 0, "name": "Askyourpdf", "ownerName": "gora050", "score": 100000, "slug": "askyourpdf", "source": "clawhub", "stars": 0, "tags": null, "updated_at": 1776698569720, "version": "1.0.0"}, {"category": "", "created_at": 1774878877285, "description": "Submit a crypto trade order for automated risk analysis and human-in-the-loop review via MOVA. Trigger when the user mentions a trade order, wallet address,...", "description_zh": "", "downloads": 27, "homepage": "https://clawhub.ai/mova-compact/mova-crypto-review", "iconUrl": null, "installs": 0, "name": "Mova Crypto Review", "ownerName": "mova-compact", "score": 100000, "slug": "mova-crypto-review", "source": "clawhub", "stars": 0, "tags": null, "updated_at": 1776698569718, "version": "1.2.0"}, {"category": "", "created_at": 1774952043284, "description": "When the user wants to optimize for entity recognition, Knowledge Graph, or entity-based SEO. Also use when the user mentions \"entity SEO,\" \"entity optimizat...", "description_zh": "", "downloads": 27, "homepage": "https://clawhub.ai/kostja94/entity-seo", "iconUrl": null, "installs": 0, "name": "entity-seo", "ownerName": "kostja94", "score": 100000, "slug": "entity-seo", "source": "clawhub", "stars": 0, "tags": null, "updated_at": 1776698569715, "version": "1.0.0"}, {"category": "", "created_at": 1774909835327, "description": "Call the IteraTools multi-tool API (api.iteratools.com) — 69+ tools for AI agents: image generation (Flux), browser automation (Playwright), web scraping, TT...", "description_zh": "", "downloads": 27, "homepage": "https://clawhub.ai/fredpsantos33/iteratools-api", "iconUrl": null, "installs": 0, "name": "IteraTools API", "ownerName": "fredpsantos33", "score": 100000, "slug": "iteratools-api", "source": "clawhub", "stars": 0, "tags": null, "updated_at": 1776698569708, "version": "1.1.0"}, {"category": "", "created_at": 1774925523990, "description": "Scan your OpenClaw workspace for truncation risks, compaction anchor health, workspace hygiene, and drift tracking over time. Use when the operator asks to \"...", "description_zh": "", "downloads": 27, "homepage": "https://clawhub.ai/danandbub/driftwatch-oc", "iconUrl": null, "installs": 0, "name": "Driftwatch", "ownerName": "danandbub", "score": 100000, "slug": "driftwatch-oc", "source": "clawhub", "stars": 0, "tags": null, "updated_at": 1776698569705, "version": "1.1.0"}, {"category": "", "created_at": 1774877003519, "description": "Account, access, and operations infrastructure for AI agents — phone verification, email inboxes, CAPTCHA solving, credential vault, and identity management.", "description_zh": "", "downloads": 27, "homepage": "https://clawhub.ai/shiyanhui/clawise", "iconUrl": null, "installs": 0, "name": "Clawise", "ownerName": "shiyanhui", "score": 100000, "slug": "clawise", "source": "clawhub", "stars": 0, "tags": null, "updated_at": 1776698569701, "version": "0.1.0"}, {"category": "", "created_at": 1774891501472, "description": "Linqs integration. Manage Persons, Organizations, Deals, Leads, Activities, Notes and more. Use when the user wants to interact with Linqs data.", "description_zh": "", "downloads": 27, "homepage": "https://clawhub.ai/gora050/linqs", "iconUrl": null, "installs": 1, "name": "Linqs", "ownerName": "gora050", "score": 100000, "slug": "linqs", "source": "clawhub", "stars": 0, "tags": null, "updated_at": 1776698569699, "version": "1.0.0"}, {"category": "", "created_at": 1774887787194, "description": "Analyze app store reviews, cluster pain points, detect trend shifts, and map feedback to prioritized product backlog actions.", "description_zh": "", "downloads": 27, "homepage": "https://clawhub.ai/anugotta/app-review-intelligence", "iconUrl": null, "installs": 0, "name": "App Review Intelligence", "ownerName": "anugotta", "score": 100000, "slug": "app-review-intelligence", "source": "clawhub", "stars": 0, "tags": null, "updated_at": 1776698569698, "version": "1.0.0"}, {"category": "", "created_at": 1774903218501, "description": "A recording studio. A rescue dog. A beat that won't land until the dog says so.. An immersive journey on drifts.bot — 5 steps, MEDIUM intensity, 1-2 hours. B...", "description_zh": "", "downloads": 27, "homepage": "https://clawhub.ai/driftsbot/experience-blairagotchi-studio-dog-atlanta", "iconUrl": null, "installs": 0, "name": "Experience Blairagotchi Studio Dog Atlanta", "ownerName": "driftsbot", "score": 100000, "slug": "experience-blairagotchi-studio-dog-atlanta", "source": "clawhub", "stars": 0, "tags": null, "updated_at": 1776698569696, "version": "1.0.0"}, {"category": "", "created_at": 1774950313109, "description": "Easyly integration. Manage Organizations, Projects, Pipelines, Users, Goals, Filters. Use when the user wants to interact with Easyly data.", "description_zh": "", "downloads": 27, "homepage": "https://clawhub.ai/gora050/easyly", "iconUrl": null, "installs": 0, "name": "Easyly", "ownerName": "gora050", "score": 100000, "slug": "easyly", "source": "clawhub", "stars": 0, "tags": null, "updated_at": 1776698569694, "version": "1.0.0"}, {"category": "", "created_at": 1774908819653, "description": "MojoTxt integration. Manage Persons, Organizations, Deals, Leads, Projects, Activities and more. Use when the user wants to interact with MojoTxt data.", "description_zh": "", "downloads": 27, "homepage": "https://clawhub.ai/membranedev/mojotxt", "iconUrl": null, "installs": 0, "name": "Mojotxt", "ownerName": "membranedev", "score": 100000, "slug": "mojotxt", "source": "clawhub", "stars": 0, "tags": null, "updated_at": 1776698569692, "version": "1.0.0"}, {"category": "", "created_at": 1774945243015, "description": "Risk-reward calculation", "description_zh": "", "downloads": 27, "homepage": "https://clawhub.ai/jkzfhq/psyvector-pv25", "iconUrl": null, "installs": 0, "name": "Psyvector Pv25", "ownerName": "jkzfhq", "score": 100000, "slug": "psyvector-pv25", "source": "clawhub", "stars": 0, "tags": ["digital-worker"], "updated_at": 1776698569691, "version": "3.0.0"}, {"category": "", "created_at": 1774918642596, "description": "Build a complete OpenClaw agent package for a real profession or job role. Use when the user asks for things like \"create a product manager agent\", \"make me...", "description_zh": "", "downloads": 27, "homepage": "https://clawhub.ai/aliciawque/professional-agent-forge", "iconUrl": null, "installs": 0, "name": "Professional Agent Forge", "ownerName": "aliciawque", "score": 100000, "slug": "professional-agent-forge", "source": "clawhub", "stars": 0, "tags": null, "updated_at": 1776698569689, "version": "1.0.0"}, {"category": "", "created_at": 1774907710391, "description": "Check IP address threat intelligence. Query multiple sources for IP reputation, geolocation, and threat scores.", "description_zh": "", "downloads": 27, "homepage": "https://clawhub.ai/freeter226/ip-threat-check", "iconUrl": null, "installs": 0, "name": "IP Threat Check", "ownerName": "freeter226", "score": 100000, "slug": "ip-threat-check", "source": "clawhub", "stars": 0, "tags": null, "updated_at": 1776698569687, "version": "1.0.0"}, {"category": "", "created_at": 1774889938562, "description": "Generate customized compliance checklists for GDPR and PCI-DSS standards based on company type.", "description_zh": "", "downloads": 27, "homepage": "https://clawhub.ai/krishnakumarmahadevan-cmd/gdpr-pci-checklist", "iconUrl": null, "installs": 0, "name": "GDPR PCI Checklist", "ownerName": "krishnakumarmahadevan-cmd", "score": 100000, "slug": "gdpr-pci-checklist", "source": "clawhub", "stars": 0, "tags": null, "updated_at": 1776698569685, "version": "1.0.0"}, {"category": "", "created_at": 1774854578132, "description": "Diagnose OpenClaw agent failures, cost spikes, and performance issues with 14 pattern detectors. Use when: task failed unexpectedly, costs seem high, agent b...", "description_zh": "", "downloads": 27, "homepage": "https://clawhub.ai/ashishjaingithub/clawdoc", "iconUrl": null, "installs": 0, "name": "Clawdoc", "ownerName": "ashishjaingithub", "score": 100000, "slug": "clawdoc", "source": "clawhub", "stars": 0, "tags": ["agent-health", "cost-optimization", "debugging", "diagnostics", "observability"], "updated_at": 1776698569683, "version": "0.12.0"}, {"category": "", "created_at": 1774872057117, "description": "Reference tool for devtools — covers intro, quickstart, patterns and more. Quick lookup for Zsh Themes concepts, best practices, and implementation patterns.", "description_zh": "", "downloads": 27, "homepage": "https://clawhub.ai/xueyetianya/zsh-themes", "iconUrl": null, "installs": 0, "name": "Zsh Themes", "ownerName": "xueyetianya", "score": 100000, "slug": "zsh-themes", "source": "clawhub", "stars": 0, "tags": null, "updated_at": 1776698569678, "version": "2.0.2"}, {"category": "", "created_at": 1774916601838, "description": "Feel awe as bioluminescent plankton light the abyss, turning each kick into a pulse of blue fire. This immersive night dive reveals hidden coral ecosystems i...", "description_zh": "", "downloads": 27, "homepage": "https://clawhub.ai/driftsbot/experience-plankton-fire-bahamas", "iconUrl": null, "installs": 0, "name": "Experience Plankton Fire Bahamas", "ownerName": "driftsbot", "score": 100000, "slug": "experience-plankton-fire-bahamas", "source": "clawhub", "stars": 0, "tags": null, "updated_at": 1776698569673, "version": "1.0.0"}, {"category": "", "created_at": 1774897135364, "description": "Buy event tickets via Ticketmaster using Strider Labs MCP connector. Search concerts, sports, theater, get seats, manage tickets. Complete autonomous event t...", "description_zh": "", "downloads": 27, "homepage": "https://clawhub.ai/markswendsen-code/strider-ticketmaster", "iconUrl": null, "installs": 0, "name": "Strider Ticketmaster", "ownerName": "markswendsen-code", "score": 100000, "slug": "strider-ticketmaster", "source": "clawhub", "stars": 0, "tags": null, "updated_at": 1776698569671, "version": "1.0.0"}, {"category": "", "created_at": 1774926323911, "description": "Analyze and validate SKILL.md files for best practices, common issues, and improvement suggestions. Use when reviewing a Skill, creating a new Skill, or when...", "description_zh": "", "downloads": 27, "homepage": "https://clawhub.ai/mengbin92/skill-linter-checker", "iconUrl": null, "installs": 0, "name": "Skill Linter", "ownerName": "mengbin92", "score": 100000, "slug": "skill-linter-checker", "source": "clawhub", "stars": 0, "tags": null, "updated_at": 1776698569662, "version": "1.0.0"}, {"category": "", "created_at": 1774923999251, "description": "Elorus integration. Manage Organizations. Use when the user wants to interact with Elorus data.", "description_zh": "", "downloads": 27, "homepage": "https://clawhub.ai/gora050/elorus", "iconUrl": null, "installs": 0, "name": "Elorus", "ownerName": "gora050", "score": 100000, "slug": "elorus", "source": "clawhub", "stars": 0, "tags": null, "updated_at": 1776698569661, "version": "1.0.0"}, {"category": "", "created_at": 1774911145393, "description": "When the user wants to set up, optimize, or manage Reddit Ads. Also use when the user mentions \"Reddit Ads,\" \"Promoted Posts,\" \"subreddit targeting,\" \"Reddit...", "description_zh": "", "downloads": 27, "homepage": "https://clawhub.ai/kostja94/reddit-ads", "iconUrl": null, "installs": 0, "name": "reddit-ads", "ownerName": "kostja94", "score": 100000, "slug": "reddit-ads", "source": "clawhub", "stars": 0, "tags": null, "updated_at": 1776698569659, "version": "1.0.0"}, {"category": "", "created_at": 1774922660048, "description": "Feel the awe of tackling a fundamental mystery while the tension of repeated trial‑and‑error drives you forward. You’ll construct, fail, and reconstruct a Ya...", "description_zh": "", "downloads": 27, "homepage": "https://clawhub.ai/driftsbot/experience-millennium-yang-mills", "iconUrl": null, "installs": 0, "name": "Experience Millennium Yang Mills", "ownerName": "driftsbot", "score": 100000, "slug": "experience-millennium-yang-mills", "source": "clawhub", "stars": 0, "tags": null, "updated_at": 1776698569656, "version": "1.0.0"}, {"category": "", "created_at": 1774882711040, "description": "Prepare and submit an MCP server to Anthropic's Connectors Directory. Use this skill whenever the user wants to list their MCP server on Claude's connector m...", "description_zh": "", "downloads": 27, "homepage": "https://clawhub.ai/lucaperret/anthropic-connector-submit", "iconUrl": null, "installs": 1, "name": "Anthropic Connector Submit", "ownerName": "lucaperret", "score": 100000, "slug": "anthropic-connector-submit", "source": "clawhub", "stars": 0, "tags": null, "updated_at": 1776698569652, "version": "1.0.0"}, {"category": "", "created_at": 1774910913150, "description": "Memberstack integration. Manage Members, Plans, Workspaces. Use when the user wants to interact with Memberstack data.", "description_zh": "", "downloads": 27, "homepage": "https://clawhub.ai/gora050/memberstack", "iconUrl": null, "installs": 0, "name": "Memberstack", "ownerName": "gora050", "score": 100000, "slug": "memberstack", "source": "clawhub", "stars": 0, "tags": null, "updated_at": 1776698569649, "version": "1.0.0"}, {"category": "", "created_at": 1774914177697, "description": "Analyze git repository statistics including contributor rankings, lines of code by language, commit frequency by day/hour, monthly activity trends, and file...", "description_zh": "", "downloads": 27, "homepage": "https://clawhub.ai/johnnywang2001/git-stats", "iconUrl": null, "installs": 0, "name": "Git Stats", "ownerName": "johnnywang2001", "score": 100000, "slug": "git-stats", "source": "clawhub", "stars": 0, "tags": null, "updated_at": 1776698569640, "version": "1.0.0"}, {"category": "", "created_at": 1774912358171, "description": "Video Resume Maker — Create Professional Video Resumes and Job Application Videos. Recruiters spend six seconds on a paper resume. A ninety-second video intr...", "description_zh": "", "downloads": 27, "homepage": "https://clawhub.ai/nemovideonemo/video-resume-maker", "iconUrl": null, "installs": 0, "name": "Video Resume Maker", "ownerName": "nemovideonemo", "score": 100000, "slug": "video-resume-maker", "source": "clawhub", "stars": 0, "tags": null, "updated_at": 1776698569638, "version": "1.0.1"}, {"category": "", "created_at": 1774867641230, "description": "Production-grade agent memory and quality system for multi-agent swarms. Extends agent-memory-tiers with an 8-point quality grading rubric, progressive discl...", "description_zh": "", "downloads": 27, "homepage": "https://clawhub.ai/dirtyrootsstudio/clawhub-memory-tiers-pro", "iconUrl": null, "installs": 1, "name": "Clawhub Memory Tiers Pro", "ownerName": "dirtyrootsstudio", "score": 100000, "slug": "clawhub-memory-tiers-pro", "source": "clawhub", "stars": 0, "tags": null, "updated_at": 1776698569635, "version": "1.0.0"}, {"category": "productivity", "created_at": 1773083238568, "description": "Convert text to natural-sounding speech audio. Use when users request text_to_speech operations or related tasks.", "description_zh": "", "downloads": 27, "homepage": "https://clawhub.ai/root/tomoviee-text-to-speech", "iconUrl": null, "installs": 3, "name": "Tomoviee Text to Speech", "ownerName": "root", "score": 100000, "slug": "tomoviee-text-to-speech", "source": "clawhub", "stars": 0, "tags": null, "updated_at": 1776698569632, "version": "1.0.1"}, {"category": "", "created_at": 1774951199764, "description": "Feel the awe of ancient steam rising from marble, linking you to Roman ritual and hidden history beneath Barcelona. Navigate a ten‑step descent through layer...", "description_zh": "", "downloads": 27, "homepage": "https://clawhub.ai/driftsbot/experience-stone-steam-barcelona", "iconUrl": null, "installs": 0, "name": "Experience Stone Steam Barcelona", "ownerName": "driftsbot", "score": 100000, "slug": "experience-stone-steam-barcelona", "source": "clawhub", "stars": 0, "tags": null, "updated_at": 1776698569625, "version": "1.0.0"}, {"category": "", "created_at": 1774904625485, "description": "Aviation flight lookup — query aircraft type, equipment changes, and confidence scoring for any flight number. Use when: looking up flight aircraft, checking...", "description_zh": "", "downloads": 27, "homepage": "https://clawhub.ai/iml1s/planefilter", "iconUrl": null, "installs": 0, "name": "Planefilter", "ownerName": "iml1s", "score": 100000, "slug": "planefilter", "source": "clawhub", "stars": 0, "tags": null, "updated_at": 1776698569621, "version": "1.0.0"}, {"category": "", "created_at": 1774878000510, "description": "Personal task manager powered by Things 3. Trigger when the user asks to add, capture, review, organize, reprioritize, search, or manage tasks in Things. Als...", "description_zh": "", "downloads": 27, "homepage": "https://clawhub.ai/sars666/things-plus", "iconUrl": null, "installs": 1, "name": "Things plus", "ownerName": "sars666", "score": 100000, "slug": "things-plus", "source": "clawhub", "stars": 0, "tags": null, "updated_at": 1776698569619, "version": "1.2.1"}, {"category": "", "created_at": 1774887119911, "description": "Mailcoach integration. Manage Users, EmailLists, Campaigns, Templates, Automations. Use when the user wants to interact with Mailcoach data.", "description_zh": "", "downloads": 27, "homepage": "https://clawhub.ai/gora050/mailcoach", "iconUrl": null, "installs": 0, "name": "Mailcoach", "ownerName": "gora050", "score": 100000, "slug": "mailcoach", "source": "clawhub", "stars": 0, "tags": null, "updated_at": 1776698569614, "version": "1.0.0"}, {"category": "", "created_at": 1774897885036, "description": "Display & Video 360 integration. Manage data, records, and automate workflows. Use when the user wants to interact with Display & Video 360 data.", "description_zh": "", "downloads": 27, "homepage": "https://clawhub.ai/gora050/display-video-360", "iconUrl": null, "installs": 0, "name": "Display Video 360", "ownerName": "gora050", "score": 100000, "slug": "display-video-360", "source": "clawhub", "stars": 0, "tags": null, "updated_at": 1776698569608, "version": "1.0.0"}, {"category": "", "created_at": 1774947389269, "description": "Feathery integration. Manage Organizations, Users. Use when the user wants to interact with Feathery data.", "description_zh": "", "downloads": 27, "homepage": "https://clawhub.ai/gora050/feathery", "iconUrl": null, "installs": 0, "name": "Feathery", "ownerName": "gora050", "score": 100000, "slug": "feathery", "source": "clawhub", "stars": 0, "tags": null, "updated_at": 1776698569605, "version": "1.0.0"}, {"category": "", "created_at": 1774881650002, "description": "Furnace temperature and control manager", "description_zh": "", "downloads": 27, "homepage": "https://clawhub.ai/ckchzh/furnace", "iconUrl": null, "installs": 0, "name": "Furnace", "ownerName": "ckchzh", "score": 100000, "slug": "furnace", "source": "clawhub", "stars": 0, "tags": null, "updated_at": 1776698569603, "version": "1.0.0"}, {"category": "", "created_at": 1774954420810, "description": "Identify underserved market gaps and unmet customer needs in e-commerce. Analyzes competitor blind spots, review pain points, search demand without adequate...", "description_zh": "", "downloads": 27, "homepage": "https://clawhub.ai/nexscope/market-gap-analysis", "iconUrl": null, "installs": 0, "name": "Market Gap Analysis", "ownerName": "nexscope", "score": 100000, "slug": "market-gap-analysis", "source": "clawhub", "stars": 0, "tags": null, "updated_at": 1776698569595, "version": "1.0.0"}, {"category": "", "created_at": 1774954731857, "description": "Comprehensive family emergency preparedness planning. Use when someone wants to create a household emergency plan, prepare for natural disasters, build a go-...", "description_zh": "", "downloads": 27, "homepage": "https://clawhub.ai/howtousehumans/family-emergency-planning", "iconUrl": null, "installs": 0, "name": "Family Emergency Planning", "ownerName": "howtousehumans", "score": 100000, "slug": "family-emergency-planning", "source": "clawhub", "stars": 0, "tags": null, "updated_at": 1776698569584, "version": "1.0.0"}, {"category": "", "created_at": 1774954390978, "description": "Predict optimal next evolution actions based on history analysis, including stagnation detection, innovation gap measurement, and skill recommendations. Use...", "description_zh": "", "downloads": 27, "homepage": "https://clawhub.ai/jpengcheng523-netizen/jpeng-evolution-predictor", "iconUrl": null, "installs": 0, "name": "evolution-predictor", "ownerName": "jpengcheng523-netizen", "score": 100000, "slug": "jpeng-evolution-predictor", "source": "clawhub", "stars": 0, "tags": null, "updated_at": 1776698569582, "version": "1.0.0"}, {"category": "", "created_at": 1774912235646, "description": "SmarterPay integration. Manage data, records, and automate workflows. Use when the user wants to interact with SmarterPay data.", "description_zh": "", "downloads": 27, "homepage": "https://clawhub.ai/gora050/smarterpay", "iconUrl": null, "installs": 1, "name": "Smarterpay", "ownerName": "gora050", "score": 100000, "slug": "smarterpay", "source": "clawhub", "stars": 0, "tags": null, "updated_at": 1776698569580, "version": "1.0.0"}, {"category": "", "created_at": 1774881382690, "description": "Use when expats, international students, or digital nomads need guidance on relocating to China, choosing cities, understanding visa requirements, or plannin...", "description_zh": "", "downloads": 27, "homepage": "https://clawhub.ai/1970168137/china-relocation-guide", "iconUrl": null, "installs": 1, "name": "China Relocation Guide", "ownerName": "1970168137", "score": 100000, "slug": "china-relocation-guide", "source": "clawhub", "stars": 0, "tags": null, "updated_at": 1776698569575, "version": "1.0.0"}, {"category": "", "created_at": 1774865179130, "description": "Generate QR codes for any string or URL using the QRClaw open source service (qrclaw.goplausible.xyz). Use this skill whenever the user asks to create a QR c...", "description_zh": "", "downloads": 27, "homepage": "https://clawhub.ai/emg110/qrclaw", "iconUrl": null, "installs": 0, "name": "QR Claw", "ownerName": "emg110", "score": 100000, "slug": "qrclaw", "source": "clawhub", "stars": 0, "tags": null, "updated_at": 1776698569569, "version": "1.2.0"}, {"category": "", "created_at": 1774878389238, "description": "Bearing selection and life calculator", "description_zh": "", "downloads": 27, "homepage": "https://clawhub.ai/ckchzh/bearing", "iconUrl": null, "installs": 0, "name": "Bearing", "ownerName": "ckchzh", "score": 100000, "slug": "bearing", "source": "clawhub", "stars": 0, "tags": null, "updated_at": 1776698569568, "version": "1.0.0"}, {"category": "", "created_at": 1774869233784, "description": "Generate and preview CSS shadow effects using CLI tools. Use when you need box-shadow, text-shadow, drop-shadow, layered shadows, presets, animations,", "description_zh": "", "downloads": 27, "homepage": "https://clawhub.ai/bytesagain1/shadow", "iconUrl": null, "installs": 0, "name": "Shadow", "ownerName": "bytesagain1", "score": 100000, "slug": "shadow", "source": "clawhub", "stars": 0, "tags": null, "updated_at": 1776698569564, "version": "1.0.0"}, {"category": "", "created_at": 1774923814088, "description": "Structured burnout recovery protocol based on clinical burnout dimensions. Use when someone is exhausted, cynical about work, feels ineffective, can't discon...", "description_zh": "", "downloads": 27, "homepage": "https://clawhub.ai/howtousehumans/burnout-recovery", "iconUrl": null, "installs": 0, "name": "Burnout Recovery", "ownerName": "howtousehumans", "score": 100000, "slug": "burnout-recovery", "source": "clawhub", "stars": 0, "tags": null, "updated_at": 1776698569546, "version": "1.0.0"}]}