{"page": 493, "total_pages": 522, "total": 26073, "skills": [{"category": "", "created_at": 1774877359767, "description": "Verify real outcomes before saying work is complete. Use when implementing, fixing, configuring, or automating something where behavior must be confirmed, no...", "description_zh": "", "downloads": 27, "homepage": "https://clawhub.ai/jisang1000/jisang1000-verification-before-completion", "iconUrl": null, "installs": 0, "name": "Verification Before Completion", "ownerName": "jisang1000", "score": 100000, "slug": "jisang1000-verification-before-completion", "source": "clawhub", "stars": 0, "tags": null, "updated_at": 1776698569541, "version": "1.0.0"}, {"category": "", "created_at": 1774876188734, "description": "Rosette Text Analytics integration. Manage Organizations. Use when the user wants to interact with Rosette Text Analytics data.", "description_zh": "", "downloads": 27, "homepage": "https://clawhub.ai/membranedev/rosette-text-analytics", "iconUrl": null, "installs": 1, "name": "Rosette Text Analytics", "ownerName": "membranedev", "score": 100000, "slug": "rosette-text-analytics", "source": "clawhub", "stars": 0, "tags": null, "updated_at": 1776698569535, "version": "1.0.0"}, {"category": "", "created_at": 1774882577965, "description": "Generate images (Imagen 4) and videos (Veo 3.1) via MoltbotDen Media Studio API. Free tier included. Pay with credits or USDC on Base.", "description_zh": "", "downloads": 27, "homepage": "https://clawhub.ai/willcybertron/moltbotden-media", "iconUrl": null, "installs": 0, "name": "MoltbotDen Media Studio", "ownerName": "willcybertron", "score": 100000, "slug": "moltbotden-media", "source": "clawhub", "stars": 0, "tags": null, "updated_at": 1776698569531, "version": "1.0.0"}, {"category": "", "created_at": 1774829339035, "description": "Unified entry skill for RealMarket A2A commerce workflows. Supports seller product publish and buyer product discovery through UCP market connectivity, plus...", "description_zh": "", "downloads": 27, "homepage": "https://clawhub.ai/luoqianchenguni-max/a2a-supermarket", "iconUrl": null, "installs": 0, "name": "a2a supermarket", "ownerName": "luoqianchenguni-max", "score": 100000, "slug": "a2a-supermarket", "source": "clawhub", "stars": 0, "tags": null, "updated_at": 1776698569529, "version": "0.2.2"}, {"category": "", "created_at": 1774864719890, "description": "Datagma integration. Manage Organizations. Use when the user wants to interact with Datagma data.", "description_zh": "", "downloads": 27, "homepage": "https://clawhub.ai/membranedev/datagma", "iconUrl": null, "installs": 0, "name": "Datagma", "ownerName": "membranedev", "score": 100000, "slug": "datagma", "source": "clawhub", "stars": 0, "tags": null, "updated_at": 1776698455559, "version": "1.0.0"}, {"category": "", "created_at": 1774887910509, "description": "Data247 integration. Manage Organizations, Activities, Notes, Files, Pipelines, Users and more. Use when the user wants to interact with Data247 data.", "description_zh": "", "downloads": 27, "homepage": "https://clawhub.ai/gora050/data247", "iconUrl": null, "installs": 0, "name": "Data247", "ownerName": "gora050", "score": 100000, "slug": "data247", "source": "clawhub", "stars": 0, "tags": null, "updated_at": 1776698455550, "version": "1.0.0"}, {"category": "", "created_at": 1774862824450, "description": "Token deep dive — info, OHLCV, holders, flows, flow intelligence, who bought/sold, DEX trades, PnL, perp trades, perp positions, perp PnL leaderboard. Use wh...", "description_zh": "", "downloads": 27, "homepage": "https://clawhub.ai/nansen-devops/nansen-token-research", "iconUrl": null, "installs": 0, "name": "Nansen Token Research", "ownerName": "nansen-devops", "score": 100000, "slug": "nansen-token-research", "source": "clawhub", "stars": 0, "tags": null, "updated_at": 1776698455546, "version": "0.1.0"}, {"category": "", "created_at": 1774862385855, "description": "Label Studio is a multi-type data labeling and annotation tool with standardized output format label studio, typescript, annotation, annotation-tool.", "description_zh": "", "downloads": 27, "homepage": "https://clawhub.ai/xueyetianya/data-labeler", "iconUrl": null, "installs": 0, "name": "Data Labeler", "ownerName": "xueyetianya", "score": 100000, "slug": "data-labeler", "source": "clawhub", "stars": 0, "tags": null, "updated_at": 1776698455542, "version": "2.0.0"}, {"category": "", "created_at": 1774891715258, "description": "Nano Nets integration. Manage Organizations, Projects, Activities, Notes, Files, Users and more. Use when the user wants to interact with Nano Nets data.", "description_zh": "", "downloads": 27, "homepage": "https://clawhub.ai/gora050/nano-nets", "iconUrl": null, "installs": 1, "name": "Nano Nets", "ownerName": "gora050", "score": 100000, "slug": "nano-nets", "source": "clawhub", "stars": 0, "tags": null, "updated_at": 1776698455539, "version": "1.0.0"}, {"category": "", "created_at": 1774862818566, "description": "What DeFi positions does a wallet hold? Protocol-by-protocol breakdown of assets, debts, and rewards across chains.", "description_zh": "", "downloads": 27, "homepage": "https://clawhub.ai/nansen-devops/nansen-defi-positions", "iconUrl": null, "installs": 0, "name": "Nansen Defi Positions", "ownerName": "nansen-devops", "score": 100000, "slug": "nansen-defi-positions", "source": "clawhub", "stars": 0, "tags": null, "updated_at": 1776698455537, "version": "0.1.0"}, {"category": "", "created_at": 1774899508521, "description": "Crove integration. Manage Organizations, Users, Goals, Filters. Use when the user wants to interact with Crove data.", "description_zh": "", "downloads": 27, "homepage": "https://clawhub.ai/gora050/crove", "iconUrl": null, "installs": 0, "name": "Crove", "ownerName": "gora050", "score": 100000, "slug": "crove", "source": "clawhub", "stars": 0, "tags": null, "updated_at": 1776698455530, "version": "1.0.0"}, {"category": "", "created_at": 1774905426704, "description": "CTO.ai integration. Manage data, records, and automate workflows. Use when the user wants to interact with CTO.ai data.", "description_zh": "", "downloads": 27, "homepage": "https://clawhub.ai/gora050/ctoai", "iconUrl": null, "installs": 0, "name": "Ctoai", "ownerName": "gora050", "score": 100000, "slug": "ctoai", "source": "clawhub", "stars": 0, "tags": null, "updated_at": 1776698455528, "version": "1.0.0"}, {"category": "", "created_at": 1774894580958, "description": "Trim videos down to the useful part for creators, ecommerce teams, and operators who need shorter, cleaner clips fast. Use when a video has dead air, unneces...", "description_zh": "", "downloads": 27, "homepage": "https://clawhub.ai/leooooooow/creator-video-trimmer", "iconUrl": null, "installs": 0, "name": "Creator Video Trimmer", "ownerName": "leooooooow", "score": 100000, "slug": "creator-video-trimmer", "source": "clawhub", "stars": 0, "tags": null, "updated_at": 1776698455523, "version": "1.0.0"}, {"category": "", "created_at": 1774869724130, "description": "Rewrite messy, internal, emotional, or jargon-heavy thoughts into clear language that other teams can immediately understand and respond to. Use when the use...", "description_zh": "", "downloads": 27, "homepage": "https://clawhub.ai/nickzhangai/cross-team-plain-language", "iconUrl": null, "installs": 0, "name": "Cross Team Plain Language", "ownerName": "nickzhangai", "score": 100000, "slug": "cross-team-plain-language", "source": "clawhub", "stars": 0, "tags": null, "updated_at": 1776698455521, "version": "1.0.0"}, {"category": "", "created_at": 1774862835302, "description": "NcScale integration. Manage data, records, and automate workflows. Use when the user wants to interact with NcScale data.", "description_zh": "", "downloads": 27, "homepage": "https://clawhub.ai/membranedev/ncscale", "iconUrl": null, "installs": 0, "name": "Ncscale", "ownerName": "membranedev", "score": 100000, "slug": "ncscale", "source": "clawhub", "stars": 0, "tags": null, "updated_at": 1776698455519, "version": "1.0.0"}, {"category": "", "created_at": 1774891125116, "description": "Deep first-principles analysis of any topic, decision, strategy, or assumption. Strips inherited thinking, identifies what is provably true, and rebuilds fro...", "description_zh": "", "downloads": 27, "homepage": "https://clawhub.ai/clawdiri-ai/davinci-first-principles", "iconUrl": null, "installs": 2, "name": "First Principles Analysis", "ownerName": "clawdiri-ai", "score": 100000, "slug": "davinci-first-principles", "source": "clawhub", "stars": 0, "tags": null, "updated_at": 1776698455516, "version": "1.0.0"}, {"category": "", "created_at": 1774897877522, "description": "Browse, search, and explore Art Blocks projects, collections, and collector portfolios using artblocks-mcp. Use when a user wants to find, filter, browse, or...", "description_zh": "", "downloads": 27, "homepage": "https://clawhub.ai/ryley-o/discover-artblocks-projects", "iconUrl": null, "installs": 0, "name": "Discover Artblocks Projects", "ownerName": "ryley-o", "score": 100000, "slug": "discover-artblocks-projects", "source": "clawhub", "stars": 0, "tags": null, "updated_at": 1776698455512, "version": "1.0.0"}, {"category": "", "created_at": 1774859128183, "description": "Generate hospital discharge summaries from admission data, hospital course, medications, and follow-up plans. Trigger when user needs to create a discharge s...", "description_zh": "", "downloads": 27, "homepage": "https://clawhub.ai/aipoch-ai/discharge-summary-writer", "iconUrl": null, "installs": 0, "name": "Discharge Summary Writer", "ownerName": "aipoch-ai", "score": 100000, "slug": "discharge-summary-writer", "source": "clawhub", "stars": 0, "tags": null, "updated_at": 1776698455508, "version": "0.1.0"}, {"category": "", "created_at": 1774878540364, "description": "DialMyCalls integration. Manage Accounts, Contacts, Recordings, Shortcodes, Keywords, Broadcasts. Use when the user wants to interact with DialMyCalls data.", "description_zh": "", "downloads": 27, "homepage": "https://clawhub.ai/membranedev/dialmycalls", "iconUrl": null, "installs": 0, "name": "Dialmycalls", "ownerName": "membranedev", "score": 100000, "slug": "dialmycalls", "source": "clawhub", "stars": 0, "tags": null, "updated_at": 1776698455505, "version": "1.0.0"}, {"category": "", "created_at": 1774897868888, "description": "Scan project dependencies for known security vulnerabilities using the OSV.dev API. Supports npm (package.json), Python/pip (requirements.txt), and Go (go.mo...", "description_zh": "", "downloads": 27, "homepage": "https://clawhub.ai/johnnywang2001/dep-vuln-scanner", "iconUrl": null, "installs": 1, "name": "Dep Vuln Scanner", "ownerName": "johnnywang2001", "score": 100000, "slug": "dep-vuln-scanner", "source": "clawhub", "stars": 0, "tags": null, "updated_at": 1776698455503, "version": "1.0.0"}, {"category": "", "created_at": 1774920253636, "description": "NationBuilder integration. Manage Persons, Organizations, Deals, Activities, Notes, Files and more. Use when the user wants to interact with NationBuilder data.", "description_zh": "", "downloads": 27, "homepage": "https://clawhub.ai/gora050/nationbuilder", "iconUrl": null, "installs": 0, "name": "Nationbuilder", "ownerName": "gora050", "score": 100000, "slug": "nationbuilder", "source": "clawhub", "stars": 0, "tags": null, "updated_at": 1776698455501, "version": "1.0.0"}, {"category": "", "created_at": 1774909635289, "description": "Trade on CSPR.trade DEX (Casper Network) — swaps, liquidity, and portfolio queries via the cspr-trade MCP server. Non-custodial — transactions are built remo...", "description_zh": "", "downloads": 27, "homepage": "https://clawhub.ai/mssteuer/cspr-trade-mcp", "iconUrl": null, "installs": 0, "name": "CSPR.trade MCP", "ownerName": "mssteuer", "score": 100000, "slug": "cspr-trade-mcp", "source": "clawhub", "stars": 0, "tags": null, "updated_at": 1776698455500, "version": "1.1.0"}, {"category": "", "created_at": 1774908365628, "description": "Cryptowatch integration. Manage Markets, Assets, Exchanges, Pairs, Streams. Use when the user wants to interact with Cryptowatch data.", "description_zh": "", "downloads": 27, "homepage": "https://clawhub.ai/gora050/cryptowatch-integration", "iconUrl": null, "installs": 0, "name": "Cryptowatch", "ownerName": "gora050", "score": 100000, "slug": "cryptowatch-integration", "source": "clawhub", "stars": 0, "tags": null, "updated_at": 1776698455496, "version": "1.0.0"}, {"category": "", "created_at": 1774899921415, "description": "NeetoKB integration. Manage Articles, Categories. Use when the user wants to interact with NeetoKB data.", "description_zh": "", "downloads": 27, "homepage": "https://clawhub.ai/gora050/neetokb", "iconUrl": null, "installs": 0, "name": "Neetokb", "ownerName": "gora050", "score": 49090.90909090909, "slug": "neetokb", "source": "clawhub", "stars": 0, "tags": null, "updated_at": 1776698455492, "version": "1.0.0"}, {"category": "", "created_at": 1774845259253, "description": "Search for tokens or entities by name. Use when you have a token name and need the full address, or want to find an entity.", "description_zh": "", "downloads": 27, "homepage": "https://clawhub.ai/nansen-devops/nansen-general-search", "iconUrl": null, "installs": 0, "name": "Nansen General Search", "ownerName": "nansen-devops", "score": 49090.90909090909, "slug": "nansen-general-search", "source": "clawhub", "stars": 0, "tags": null, "updated_at": 1776698455486, "version": "0.1.1"}, {"category": "", "created_at": 1774885471169, "description": "Edit raw creator-style UGC footage into cleaner, more usable outputs for ads, TikTok Shop, storefronts, and creator content workflows. Use when rough footage...", "description_zh": "", "downloads": 27, "homepage": "https://clawhub.ai/leooooooow/creator-ugc-editor", "iconUrl": null, "installs": 0, "name": "Creator UGC Editor", "ownerName": "leooooooow", "score": 49090.90909090909, "slug": "creator-ugc-editor", "source": "clawhub", "stars": 0, "tags": null, "updated_at": 1776698455484, "version": "1.0.0"}, {"category": "", "created_at": 1774916502100, "description": "Analyze and visualize project dependency trees from manifest files. Supports Node.js (package.json), Python (requirements.txt, pyproject.toml), Go (go.mod),...", "description_zh": "", "downloads": 27, "homepage": "https://clawhub.ai/johnnywang2001/dep-graph", "iconUrl": null, "installs": 0, "name": "Dep Graph", "ownerName": "johnnywang2001", "score": 49090.90909090909, "slug": "dep-graph", "source": "clawhub", "stars": 0, "tags": null, "updated_at": 1776698455478, "version": "1.0.0"}, {"category": "", "created_at": 1774952818014, "description": "Dexatel integration. Manage Persons, Organizations, Deals, Leads, Projects, Activities and more. Use when the user wants to interact with Dexatel data.", "description_zh": "", "downloads": 27, "homepage": "https://clawhub.ai/gora050/dexatel", "iconUrl": null, "installs": 0, "name": "Dexatel", "ownerName": "gora050", "score": 49090.90909090909, "slug": "dexatel", "source": "clawhub", "stars": 0, "tags": null, "updated_at": 1776698455473, "version": "1.0.0"}, {"category": "", "created_at": 1774954705157, "description": "Simple task intake, reminder, and completion check-in flow for public-safe daily coordination.", "description_zh": "", "downloads": 27, "homepage": "https://clawhub.ai/ztl970/daily-task-checkin", "iconUrl": null, "installs": 0, "name": "Daily Task Check-in", "ownerName": "ztl970", "score": 49090.90909090909, "slug": "daily-task-checkin", "source": "clawhub", "stars": 0, "tags": null, "updated_at": 1776698455471, "version": "1.0.2"}, {"category": "", "created_at": 1774914033817, "description": "When the user wants to run CTV, OTT, or streaming TV ads. Also use when the user mentions \"CTV ads,\" \"connected TV,\" \"OTT advertising,\" \"streaming ads,\" \"TV...", "description_zh": "", "downloads": 27, "homepage": "https://clawhub.ai/kostja94/ctv-ads", "iconUrl": null, "installs": 0, "name": "ctv-ads", "ownerName": "kostja94", "score": 49090.90909090909, "slug": "ctv-ads", "source": "clawhub", "stars": 0, "tags": null, "updated_at": 1776698455469, "version": "1.0.0"}, {"category": "", "created_at": 1774922567902, "description": "Track DHL parcels in Germany via the dhl.de API. Use when a user asks to track a DHL package, check delivery status, monitor a shipment, or wants notificatio...", "description_zh": "", "downloads": 27, "homepage": "https://clawhub.ai/idrs/dhl-tracking", "iconUrl": null, "installs": 0, "name": "DHL Tracking", "ownerName": "idrs", "score": 49090.90909090909, "slug": "dhl-tracking", "source": "clawhub", "stars": 0, "tags": null, "updated_at": 1776698455467, "version": "1.0.0"}, {"category": "", "created_at": 1774868732084, "description": "Direct encrypted P2P messaging between OpenClaw agents over plain HTTP/TCP. Peer discovery, messaging, and connectivity diagnostics. Use when the user mentio...", "description_zh": "", "downloads": 27, "homepage": "https://clawhub.ai/jing-yilin/dap", "iconUrl": null, "installs": 0, "name": "Dap", "ownerName": "jing-yilin", "score": 49090.90909090909, "slug": "dap", "source": "clawhub", "stars": 0, "tags": null, "updated_at": 1776698455464, "version": "0.5.0"}, {"category": "", "created_at": 1774873777184, "description": "DailyBot integration. Manage Users, Roles, Goals, Organizations. Use when the user wants to interact with DailyBot data.", "description_zh": "", "downloads": 27, "homepage": "https://clawhub.ai/gora050/dailybot", "iconUrl": null, "installs": 0, "name": "Dailybot", "ownerName": "gora050", "score": 49090.90909090909, "slug": "dailybot", "source": "clawhub", "stars": 0, "tags": null, "updated_at": 1776698455461, "version": "1.0.0"}, {"category": "", "created_at": 1774891108732, "description": "Conveyor system reference — belt types, motor sizing, throughput calculations, and material handling automation. Use when designing conveyor layouts, selecti...", "description_zh": "", "downloads": 27, "homepage": "https://clawhub.ai/bytesagain1/conveyor", "iconUrl": null, "installs": 0, "name": "Conveyor", "ownerName": "bytesagain1", "score": 49090.90909090909, "slug": "conveyor", "source": "clawhub", "stars": 0, "tags": null, "updated_at": 1776698446992, "version": "1.0.0"}, {"category": "", "created_at": 1774921151021, "description": "Controle interno municipal brasileiro — implantação, operação e auditoria interna em prefeituras e câmaras municipais. Use quando o usuário perguntar sobre:...", "description_zh": "", "downloads": 27, "homepage": "https://clawhub.ai/inovabizpi-cell/controle-interno-municipal", "iconUrl": null, "installs": 0, "name": "Controle Interno Municipal", "ownerName": "inovabizpi-cell", "score": 49090.90909090909, "slug": "controle-interno-municipal", "source": "clawhub", "stars": 0, "tags": ["auditoria", "brasil", "cgu", "controle-interno", "governanca", "municipio", "reincidencia", "tce", "tomada-contas-especial"], "updated_at": 1776698446988, "version": "1.3.0"}, {"category": "", "created_at": 1774860915796, "description": "Manage context flow for group collaboration, child agents, and subagents. Use when coordinating multi-agent work, handing off tasks, preventing context overl...", "description_zh": "", "downloads": 27, "homepage": "https://clawhub.ai/oldbulls/context-flow", "iconUrl": null, "installs": 0, "name": "Context Flow", "ownerName": "oldbulls", "score": 49090.90909090909, "slug": "context-flow", "source": "clawhub", "stars": 0, "tags": ["chat-ops", "checkpoint", "collaboration", "context-management", "governance", "group-chat", "handoff", "multi-agent", "overload-prevention", "recovery", "resume", "task-cards", "task-handoff", "templates", "workflow"], "updated_at": 1776698446987, "version": "1.0.2"}, {"category": "", "created_at": 1774877047736, "description": "Conventional Commits v1.0.0 branch naming and commit message standards for GitHub and GitLab projects. Use when creating branches, writing commits, generatin...", "description_zh": "", "downloads": 27, "homepage": "https://clawhub.ai/samber/conventional-git", "iconUrl": null, "installs": 0, "name": "Conventional Git", "ownerName": "samber", "score": 49090.90909090909, "slug": "conventional-git", "source": "clawhub", "stars": 0, "tags": null, "updated_at": 1776698446985, "version": "1.1.1"}, {"category": "", "created_at": 1774863706693, "description": "Document ETL, entity extraction, and relationship graphing engine. Convert 1,000+ file formats into searchable, structured data with automatic entity and rel...", "description_zh": "", "downloads": 27, "homepage": "https://clawhub.ai/aingestigate/corpusgraph", "iconUrl": null, "installs": 0, "name": "CorpusGraph Document ETL and entity relationship engine for AI agents", "ownerName": "aingestigate", "score": 49090.90909090909, "slug": "corpusgraph", "source": "clawhub", "stars": 0, "tags": null, "updated_at": 1776698446978, "version": "1.0.4"}, {"category": "", "created_at": 1774872823248, "description": "Inspect environment variables, critical directories, and write permissions, then produce a health report. Use when validating deployment readiness, local run...", "description_zh": "", "downloads": 27, "homepage": "https://clawhub.ai/neo1307/neo1307-env-health-check", "iconUrl": null, "installs": 0, "name": "Env Health Check", "ownerName": "neo1307", "score": 49090.90909090909, "slug": "neo1307-env-health-check", "source": "clawhub", "stars": 0, "tags": null, "updated_at": 1776698446976, "version": "1.0.0"}, {"category": "", "created_at": 1774884180072, "description": "COPPA compliance reference — children's online privacy, parental consent, data collection rules, FTC enforcement. Use when building apps for children under 1...", "description_zh": "", "downloads": 27, "homepage": "https://clawhub.ai/bytesagain3/coppa", "iconUrl": null, "installs": 1, "name": "Coppa", "ownerName": "bytesagain3", "score": 49090.90909090909, "slug": "coppa", "source": "clawhub", "stars": 0, "tags": null, "updated_at": 1776698446972, "version": "1.0.0"}, {"category": "", "created_at": 1774909625682, "description": "OpenClaw skill for source-backed web search, page reading, and evidence-aware claim checking. Use it to verify factual answers with live search results and e...", "description_zh": "", "downloads": 27, "homepage": "https://clawhub.ai/wd041216-bit/cross-validated-search", "iconUrl": null, "installs": 0, "name": "Cross-Validated Search", "ownerName": "wd041216-bit", "score": 49090.90909090909, "slug": "cross-validated-search", "source": "clawhub", "stars": 0, "tags": null, "updated_at": 1776698446970, "version": "16.0.0"}, {"category": "", "created_at": 1774872937284, "description": "Reference tool for devtools — covers intro, quickstart, patterns and more. Quick lookup for Perf Analyzer concepts, best practices, and implementation patterns.", "description_zh": "", "downloads": 27, "homepage": "https://clawhub.ai/ckchzh/perf-analyzer", "iconUrl": null, "installs": 0, "name": "Perf Analyzer", "ownerName": "ckchzh", "score": 96428.57142857143, "slug": "perf-analyzer", "source": "clawhub", "stars": 0, "tags": null, "updated_at": 1776698444754, "version": "2.0.1"}, {"category": "", "created_at": 1774855635371, "description": "Book restaurant tables on OpenTable via the browser tool. Handles hidden time slots and terms checkboxes with JS evaluate fallbacks. Works with a logged-in s...", "description_zh": "", "downloads": 27, "homepage": "https://clawhub.ai/eeshita-pande/opentable-booking", "iconUrl": null, "installs": 0, "name": "Opentable Booking", "ownerName": "eeshita-pande", "score": 96428.57142857143, "slug": "opentable-booking", "source": "clawhub", "stars": 0, "tags": null, "updated_at": 1776698444747, "version": "1.0.1"}, {"category": "", "created_at": 1774918899783, "description": "Daily Stoic companion for personal growth and virtue tracking. Use when a user wants to: (1) receive daily Stoic affirmations or reflections via audio or tex...", "description_zh": "", "downloads": 27, "homepage": "https://clawhub.ai/stoklemariano/stoic-companion", "iconUrl": null, "installs": 0, "name": "Stoic Companion", "ownerName": "stoklemariano", "score": 96428.57142857143, "slug": "stoic-companion", "source": "clawhub", "stars": 0, "tags": null, "updated_at": 1776698444733, "version": "1.0.0"}, {"category": "", "created_at": 1774822305470, "description": "Use Context Hub (chub) to fetch versioned API docs/skills before coding, then persist learnings with annotations.", "description_zh": "", "downloads": 27, "homepage": "https://clawhub.ai/victorlin-houzz/context-hub-openclaw", "iconUrl": null, "installs": 0, "name": "Context Hub for OpenClaw", "ownerName": "victorlin-houzz", "score": 96428.57142857143, "slug": "context-hub-openclaw", "source": "clawhub", "stars": 0, "tags": ["api", "context", "docs"], "updated_at": 1776698444730, "version": "0.1.1"}, {"category": "", "created_at": 1774872890684, "description": "Fast, symptom-first troubleshooting for OpenClaw incidents with minimal downtime. Use when OpenClaw is failing or unstable (status unreachable, missing scope...", "description_zh": "", "downloads": 27, "homepage": "https://clawhub.ai/vassiliylakhonin/openclaw-troubleshooter-pro", "iconUrl": null, "installs": 1, "name": "OpenClaw Troubleshooter Pro", "ownerName": "vassiliylakhonin", "score": 96428.57142857143, "slug": "openclaw-troubleshooter-pro", "source": "clawhub", "stars": 0, "tags": null, "updated_at": 1776698444720, "version": "1.0.0"}, {"category": "", "created_at": 1774868100333, "description": "Personal knowledge graph. Record notes, track moods, manage tasks, spot patterns in someone's life.", "description_zh": "", "downloads": 27, "homepage": "https://clawhub.ai/vladikasik/neron", "iconUrl": null, "installs": 0, "name": "Neron", "ownerName": "vladikasik", "score": 96428.57142857143, "slug": "neron", "source": "clawhub", "stars": 0, "tags": null, "updated_at": 1776698444719, "version": "1.0.0"}, {"category": "", "created_at": 1774906811217, "description": "Proactive screen context processor. Triggered when screen.context payload arrives via webhook. Analyze the visual content, apply the configured persona mode,...", "description_zh": "", "downloads": 27, "homepage": "https://clawhub.ai/fikriaf/openweruh", "iconUrl": null, "installs": 0, "name": "Openweruh", "ownerName": "fikriaf", "score": 96428.57142857143, "slug": "openweruh", "source": "clawhub", "stars": 0, "tags": null, "updated_at": 1776698444717, "version": "1.0.0"}, {"category": "", "created_at": 1774948770786, "description": "Plan the next high-level navigation step for a robot from a user navigation instruction, one current image, and a sequence of historical images. Use when the...", "description_zh": "", "downloads": 27, "homepage": "https://clawhub.ai/tiktokdad/openclaw-vln-planner", "iconUrl": null, "installs": 0, "name": "OpenClaw VLN Planner", "ownerName": "tiktokdad", "score": 96428.57142857143, "slug": "openclaw-vln-planner", "source": "clawhub", "stars": 0, "tags": null, "updated_at": 1776698444698, "version": "1.0.0"}, {"category": "", "created_at": 1774947581317, "description": "Lucid integration. Manage Organizations. Use when the user wants to interact with Lucid data.", "description_zh": "", "downloads": 27, "homepage": "https://clawhub.ai/gora050/lucid", "iconUrl": null, "installs": 0, "name": "Lucid", "ownerName": "gora050", "score": 96428.57142857143, "slug": "lucid", "source": "clawhub", "stars": 0, "tags": null, "updated_at": 1776698444694, "version": "1.0.0"}]}