{"page": 494, "total_pages": 522, "total": 26073, "skills": [{"category": "", "created_at": 1774898499196, "description": "Run, audit, or improve an OpenClaw/ClawLite-style multi-agent marketing operating system. Use when the task is to operate or package a full marketing engine...", "description_zh": "", "downloads": 27, "homepage": "https://clawhub.ai/x-rayluan/openclaw-marketing-os", "iconUrl": null, "installs": 0, "name": "OpenClaw Marketing OS", "ownerName": "x-rayluan", "score": 96428.57142857143, "slug": "openclaw-marketing-os", "source": "clawhub", "stars": 0, "tags": ["growth", "marketing", "openclaw", "seo"], "updated_at": 1776698444692, "version": "3.238.0"}, {"category": "", "created_at": 1774865085358, "description": "Multi-region async PII detection for OpenClaw sessions. Scans user input, prompts, context, and knowledge base content for sensitive personal data across CN,...", "description_zh": "", "downloads": 27, "homepage": "https://clawhub.ai/mtoby8326/openclaw-security-pii-audit", "iconUrl": null, "installs": 0, "name": "OpenClaw Security PII Audit", "ownerName": "mtoby8326", "score": 96428.57142857143, "slug": "openclaw-security-pii-audit", "source": "clawhub", "stars": 0, "tags": ["compliance", "pii", "security"], "updated_at": 1776698444686, "version": "1.0.0"}, {"category": "", "created_at": 1774864687853, "description": "Check for co-authorship conflicts between authors and suggested reviewers", "description_zh": "", "downloads": 27, "homepage": "https://clawhub.ai/aipoch-ai/conflict-of-interest-checker", "iconUrl": null, "installs": 1, "name": "Conflict Of Interest Checker", "ownerName": "aipoch-ai", "score": 96428.57142857143, "slug": "conflict-of-interest-checker", "source": "clawhub", "stars": 0, "tags": null, "updated_at": 1776698444682, "version": "0.1.4"}, {"category": "", "created_at": 1774899936906, "description": "End-to-end open-source GitHub contribution automation system. Discover high-value issues, implement fixes, open quality PRs, monitor CI/review status, and le...", "description_zh": "", "downloads": 27, "homepage": "https://clawhub.ai/cypherm/oss-pilot", "iconUrl": null, "installs": 0, "name": "OSS Pilot", "ownerName": "cypherm", "score": 42187.5, "slug": "oss-pilot", "source": "clawhub", "stars": 0, "tags": null, "updated_at": 1776698444672, "version": "1.0.6"}, {"category": "", "created_at": 1774913078244, "description": "Neverbounce integration. Manage data, records, and automate workflows. Use when the user wants to interact with Neverbounce data.", "description_zh": "", "downloads": 27, "homepage": "https://clawhub.ai/gora050/neverbounce", "iconUrl": null, "installs": 0, "name": "Neverbounce", "ownerName": "gora050", "score": 42187.5, "slug": "neverbounce", "source": "clawhub", "stars": 0, "tags": null, "updated_at": 1776698444671, "version": "1.0.0"}, {"category": "", "created_at": 1774859998533, "description": "Coassemble integration. Manage data, records, and automate workflows. Use when the user wants to interact with Coassemble data.", "description_zh": "", "downloads": 27, "homepage": "https://clawhub.ai/membranedev/coassemble", "iconUrl": null, "installs": 0, "name": "Coassemble", "ownerName": "membranedev", "score": 42187.5, "slug": "coassemble", "source": "clawhub", "stars": 0, "tags": null, "updated_at": 1776698444651, "version": "1.0.0"}, {"category": "", "created_at": 1774914001673, "description": "Information assistant for Coca-Cola. Search products, news, financials, and official resources for Coca-Cola.", "description_zh": "", "downloads": 27, "homepage": "https://clawhub.ai/hanxueyuan/coca-cola", "iconUrl": null, "installs": 0, "name": "Coca-Cola", "ownerName": "hanxueyuan", "score": 42187.5, "slug": "coca-cola", "source": "clawhub", "stars": 0, "tags": null, "updated_at": 1776698444648, "version": "0.1.1"}, {"category": "", "created_at": 1774853183421, "description": "Two things: (1) Build a user.md through conversation so your OpenClaw lobster knows who it's working with. (2) Recommend Claude Code Skills based on the user...", "description_zh": "", "downloads": 27, "homepage": "https://clawhub.ai/eamanc-lab/openclaw-user-profiler", "iconUrl": null, "installs": 0, "name": "Openclaw User Profiler", "ownerName": "eamanc-lab", "score": 42187.5, "slug": "openclaw-user-profiler", "source": "clawhub", "stars": 0, "tags": null, "updated_at": 1776698444646, "version": "2.3.1"}, {"category": "", "created_at": 1774877661036, "description": "Multi-stage backtest validation framework — fail fast with short windows (smoke/stress/medium/full) before committing to expensive full-period backtests, sav...", "description_zh": "", "downloads": 27, "homepage": "https://clawhub.ai/tltby12341/progressive-validator", "iconUrl": null, "installs": 0, "name": "Progressive Validator", "ownerName": "tltby12341", "score": 42187.5, "slug": "progressive-validator", "source": "clawhub", "stars": 0, "tags": null, "updated_at": 1776698444637, "version": "1.0.1"}, {"category": "", "created_at": 1774887497253, "description": "Shop Lowe's home improvement via Strider Labs MCP connector. Search products, check inventory, compare prices, and order building materials, tools, and appli...", "description_zh": "", "downloads": 27, "homepage": "https://clawhub.ai/markswendsen-code/strider-lowes", "iconUrl": null, "installs": 2, "name": "Strider Lowes", "ownerName": "markswendsen-code", "score": 42187.5, "slug": "strider-lowes", "source": "clawhub", "stars": 0, "tags": null, "updated_at": 1776698444630, "version": "1.0.0"}, {"category": "", "created_at": 1774911744688, "description": "Honda vehicles, motorcycles, power equipment. Civic, CR-V, Accord specs, pricing, and reliability ratings.", "description_zh": "", "downloads": 27, "homepage": "https://clawhub.ai/hanxueyuan/honda", "iconUrl": null, "installs": 0, "name": "Honda", "ownerName": "hanxueyuan", "score": 42187.5, "slug": "honda", "source": "clawhub", "stars": 0, "tags": null, "updated_at": 1776698444627, "version": "0.1.0"}, {"category": "", "created_at": 1774874294547, "description": "OnceHub integration. Manage Leads, Persons, Organizations, Deals, Pipelines, Activities and more. Use when the user wants to interact with OnceHub data.", "description_zh": "", "downloads": 27, "homepage": "https://clawhub.ai/gora050/oncehub", "iconUrl": null, "installs": 0, "name": "Oncehub", "ownerName": "gora050", "score": 42187.5, "slug": "oncehub", "source": "clawhub", "stars": 0, "tags": null, "updated_at": 1776698444625, "version": "1.0.0"}, {"category": "", "created_at": 1774919641820, "description": "Coldwallet reference tool. Use when working with coldwallet in blockchain contexts.", "description_zh": "", "downloads": 27, "homepage": "https://clawhub.ai/xueyetianya/coldwallet", "iconUrl": null, "installs": 0, "name": "Coldwallet", "ownerName": "xueyetianya", "score": 96428.57142857143, "slug": "coldwallet", "source": "clawhub", "stars": 0, "tags": null, "updated_at": 1776698444593, "version": "1.0.0"}, {"category": "", "created_at": 1774903490494, "description": "OptimoRoute integration. Manage Organizations. Use when the user wants to interact with OptimoRoute data.", "description_zh": "", "downloads": 27, "homepage": "https://clawhub.ai/gora050/optimoroute", "iconUrl": null, "installs": 0, "name": "Optimoroute", "ownerName": "gora050", "score": 96428.57142857143, "slug": "optimoroute", "source": "clawhub", "stars": 0, "tags": null, "updated_at": 1776698444582, "version": "1.0.0"}, {"category": "", "created_at": 1774869013692, "description": "Read-only API reference for NexusWeb3 utility protocols 11-20 on Base mainnet — scheduling, oracle, voting, storage, messaging, staking, whitelist, auctions,...", "description_zh": "", "downloads": 27, "homepage": "https://clawhub.ai/nexusweb3dev/nexusweb3-utility", "iconUrl": null, "installs": 0, "name": "NexusWeb3 Utility Infrastructure", "ownerName": "nexusweb3dev", "score": 96428.57142857143, "slug": "nexusweb3-utility", "source": "clawhub", "stars": 0, "tags": null, "updated_at": 1776698444578, "version": "1.0.2"}, {"category": "", "created_at": 1774884255339, "description": "When the user wants to create, optimize, or structure a documentation site. Also use when the user mentions \"docs,\" \"documentation site,\" \"docs subdomain,\" \"...", "description_zh": "", "downloads": 27, "homepage": "https://clawhub.ai/kostja94/docs-page-generator", "iconUrl": null, "installs": 0, "name": "docs-page-generator", "ownerName": "kostja94", "score": 96428.57142857143, "slug": "docs-page-generator", "source": "clawhub", "stars": 0, "tags": null, "updated_at": 1776698444573, "version": "1.0.0"}, {"category": "", "created_at": 1774860395266, "description": "Ultra-lightweight AI assistant in Go that runs on $10 hardware with <10MB RAM, supporting multiple LLM providers, tools, and single-binary deployment across...", "description_zh": "", "downloads": 27, "homepage": "https://clawhub.ai/adisinghstudent/picoclaw-ai-assistant", "iconUrl": null, "installs": 0, "name": "picoclaw-ai-assistant", "ownerName": "adisinghstudent", "score": 96428.57142857143, "slug": "picoclaw-ai-assistant", "source": "clawhub", "stars": 0, "tags": null, "updated_at": 1776698444571, "version": "1.0.0"}, {"category": "", "created_at": 1774950189883, "description": "Contabilidade pública brasileira — MCASP, NBCASP, SICONFI, SINC, LRF, prestação de contas e demonstrações contábeis do setor público. Use quando o usuário pe...", "description_zh": "", "downloads": 27, "homepage": "https://clawhub.ai/inovabizpi-cell/contabilidade-publica-br", "iconUrl": null, "installs": 0, "name": "Contabilidade Pública BR", "ownerName": "inovabizpi-cell", "score": 96428.57142857143, "slug": "contabilidade-publica-br", "source": "clawhub", "stars": 0, "tags": ["brasil", "contabilidade", "lrf", "pcasp", "setor-publico"], "updated_at": 1776698444569, "version": "1.0.0"}, {"category": "", "created_at": 1774897146170, "description": "SuiteDash integration. Manage Organizations. Use when the user wants to interact with SuiteDash data.", "description_zh": "", "downloads": 27, "homepage": "https://clawhub.ai/gora050/suitedash", "iconUrl": null, "installs": 0, "name": "Suitedash", "ownerName": "gora050", "score": 96428.57142857143, "slug": "suitedash", "source": "clawhub", "stars": 0, "tags": null, "updated_at": 1776698444567, "version": "1.0.0"}, {"category": "", "created_at": 1774921126204, "description": "Your AI coach for confessing feelings and making the first move. Helps you figure out the right timing, craft the perfect confession message, and handle any...", "description_zh": "", "downloads": 27, "homepage": "https://clawhub.ai/imwyvern/confession-coach", "iconUrl": null, "installs": 0, "name": "Confession Coach Skill", "ownerName": "imwyvern", "score": 96428.57142857143, "slug": "confession-coach", "source": "clawhub", "stars": 0, "tags": null, "updated_at": 1776698444557, "version": "1.0.0"}, {"category": "", "created_at": 1774923049198, "description": "Use this skill whenever the user wants to systematically learn a topic, asks for a study path, curriculum, lesson outline, tutorial-style walkthrough, concep...", "description_zh": "", "downloads": 27, "homepage": "https://clawhub.ai/vaintwyt/personalized-learning", "iconUrl": null, "installs": 1, "name": "Personalized Learning", "ownerName": "vaintwyt", "score": 96428.57142857143, "slug": "personalized-learning", "source": "clawhub", "stars": 0, "tags": null, "updated_at": 1776698444554, "version": "0.1.0"}, {"category": "", "created_at": 1774923234629, "description": "Handle tasks that arrive from StageWhisper live calls", "description_zh": "", "downloads": 27, "homepage": "https://clawhub.ai/piotraleksander/stagewhisper-assistant", "iconUrl": null, "installs": 1, "name": "StageWhisper Assistant", "ownerName": "piotraleksander", "score": 96428.57142857143, "slug": "stagewhisper-assistant", "source": "clawhub", "stars": 0, "tags": null, "updated_at": 1776698444552, "version": "0.1.1"}, {"category": "", "created_at": 1774956228155, "description": "Concord integration. Manage data, records, and automate workflows. Use when the user wants to interact with Concord data.", "description_zh": "", "downloads": 27, "homepage": "https://clawhub.ai/gora050/concord", "iconUrl": null, "installs": 0, "name": "Concord", "ownerName": "gora050", "score": 96428.57142857143, "slug": "concord", "source": "clawhub", "stars": 0, "tags": null, "updated_at": 1776698444549, "version": "1.0.0"}, {"category": "", "created_at": 1774909570266, "description": "When the user wants to create, optimize, or audit a giveaway, contest, or promotional campaign page. Also use when the user mentions \"giveaway,\" \"contest,\" \"...", "description_zh": "", "downloads": 27, "homepage": "https://clawhub.ai/kostja94/contest-page-generator", "iconUrl": null, "installs": 1, "name": "contest-page-generator", "ownerName": "kostja94", "score": 96428.57142857143, "slug": "contest-page-generator", "source": "clawhub", "stars": 0, "tags": null, "updated_at": 1776698444541, "version": "1.0.0"}, {"category": "", "created_at": 1774873402446, "description": "Gives the agent a dedicated email address for sending and receiving email. Use when the agent needs to send email to external services, receive replies, sign...", "description_zh": "", "downloads": 27, "homepage": "https://clawhub.ai/armandokun/openmail", "iconUrl": null, "installs": 0, "name": "OpenMail", "ownerName": "armandokun", "score": 96428.57142857143, "slug": "openmail", "source": "clawhub", "stars": 0, "tags": null, "updated_at": 1776698444539, "version": "1.0.1"}, {"category": "", "created_at": 1774901208576, "description": "PingBell integration. Manage Organizations. Use when the user wants to interact with PingBell data.", "description_zh": "", "downloads": 27, "homepage": "https://clawhub.ai/gora050/pingbell", "iconUrl": null, "installs": 0, "name": "Pingbell", "ownerName": "gora050", "score": 96428.57142857143, "slug": "pingbell", "source": "clawhub", "stars": 0, "tags": null, "updated_at": 1776698444535, "version": "1.0.0"}, {"category": "", "created_at": 1774923027876, "description": "Design patterns for personal agents coordinating like executive assistants—delegation manifests, relationship handshakes, commitment tiers, trust, and OpenCl...", "description_zh": "", "downloads": 27, "homepage": "https://clawhub.ai/madhavuf/personal-agent-network", "iconUrl": null, "installs": 2, "name": "Personal Agent Network", "ownerName": "madhavuf", "score": 96428.57142857143, "slug": "personal-agent-network", "source": "clawhub", "stars": 0, "tags": null, "updated_at": 1776698444534, "version": "0.1.1"}, {"category": "", "created_at": 1774902320354, "description": "NiftyKit integration. Manage Organizations, Users. Use when the user wants to interact with NiftyKit data.", "description_zh": "", "downloads": 27, "homepage": "https://clawhub.ai/gora050/niftykit", "iconUrl": null, "installs": 0, "name": "Niftykit", "ownerName": "gora050", "score": 96428.57142857143, "slug": "niftykit", "source": "clawhub", "stars": 0, "tags": null, "updated_at": 1776698444530, "version": "1.0.0"}, {"category": "", "created_at": 1774924789440, "description": "Validates skill design against five core principles. Trigger after a SKILL.md file is created, written, edited, modified, or optimized. Also trigger when use...", "description_zh": "", "downloads": 27, "homepage": "https://clawhub.ai/kangyishuai/skill-philosophy-validator", "iconUrl": null, "installs": 0, "name": "Skill Philosophy Validator", "ownerName": "kangyishuai", "score": 96428.57142857143, "slug": "skill-philosophy-validator", "source": "clawhub", "stars": 0, "tags": null, "updated_at": 1776698444527, "version": "1.0.2"}, {"category": "", "created_at": 1774851730266, "description": "Variflight Global Flight Fares searches one-way flight fares from the Variflight ticket API by departure IATA city code, arrival IATA city code, and departur...", "description_zh": "", "downloads": 27, "homepage": "https://clawhub.ai/arisefx/variflight-global-flight-fares", "iconUrl": null, "installs": 0, "name": "Variflight Global Flight Fares", "ownerName": "arisefx", "score": 96428.57142857143, "slug": "variflight-global-flight-fares", "source": "clawhub", "stars": 0, "tags": null, "updated_at": 1776698444525, "version": "1.0.0"}, {"category": "", "created_at": 1774893395141, "description": "Information assistant for Nike. Search products, news, financials, and official resources for Nike.", "description_zh": "", "downloads": 27, "homepage": "https://clawhub.ai/hanxueyuan/nike", "iconUrl": null, "installs": 1, "name": "Nike", "ownerName": "hanxueyuan", "score": 96428.57142857143, "slug": "nike", "source": "clawhub", "stars": 0, "tags": null, "updated_at": 1776698444513, "version": "0.1.1"}, {"category": "", "created_at": 1774910637819, "description": "DocumentPro integration. Manage data, records, and automate workflows. Use when the user wants to interact with DocumentPro data.", "description_zh": "", "downloads": 27, "homepage": "https://clawhub.ai/gora050/documentpro", "iconUrl": null, "installs": 0, "name": "Documentpro", "ownerName": "gora050", "score": 96428.57142857143, "slug": "documentpro", "source": "clawhub", "stars": 0, "tags": null, "updated_at": 1776698444509, "version": "1.0.0"}, {"category": "", "created_at": 1774871508078, "description": "OpenClaw documentation-first workflow for questions, troubleshooting, command planning, configuration review, automation design, cron/heartbeat behavior, gat...", "description_zh": "", "downloads": 27, "homepage": "https://clawhub.ai/kklouzal/openclaw-encyclopedia", "iconUrl": null, "installs": 0, "name": "OpenClaw Encyclopedia", "ownerName": "kklouzal", "score": 96428.57142857143, "slug": "openclaw-encyclopedia", "source": "clawhub", "stars": 0, "tags": null, "updated_at": 1776698444504, "version": "1.0.4"}, {"category": "", "created_at": 1774887317737, "description": "Track PC game discounts across Steam, Epic Games, GOG, Humble Store and 30+ stores via CheapShark API. Use when user asks: 'any deals on [game]', 'game disco...", "description_zh": "", "downloads": 27, "homepage": "https://clawhub.ai/pazzilivo/pc-game-deals", "iconUrl": null, "installs": 0, "name": "PC Game Deals", "ownerName": "pazzilivo", "score": 96428.57142857143, "slug": "pc-game-deals", "source": "clawhub", "stars": 0, "tags": null, "updated_at": 1776698444501, "version": "1.0.0"}, {"category": "", "created_at": 1774955090427, "description": "Cliengo integration. Manage data, records, and automate workflows. Use when the user wants to interact with Cliengo data.", "description_zh": "", "downloads": 27, "homepage": "https://clawhub.ai/membranedev/cliengo", "iconUrl": null, "installs": 0, "name": "Cliengo", "ownerName": "membranedev", "score": 96428.57142857143, "slug": "cliengo", "source": "clawhub", "stars": 0, "tags": null, "updated_at": 1776698444492, "version": "1.0.0"}, {"category": "", "created_at": 1774898517693, "description": "Diagnose and prevent OpenClaw agent failures — session bloat, lane deadlocks, bootstrap truncation, auth errors, compaction timeouts, and more. Use this skil...", "description_zh": "", "downloads": 27, "homepage": "https://clawhub.ai/zurbrick/openclaw-operator", "iconUrl": null, "installs": 0, "name": "OpenClaw Operator", "ownerName": "zurbrick", "score": 96428.57142857143, "slug": "openclaw-operator", "source": "clawhub", "stars": 0, "tags": null, "updated_at": 1776698444485, "version": "1.0.0"}, {"category": "", "created_at": 1774925510322, "description": "Docsumo integration. Manage Documents, Workspaces, Users, Roles. Use when the user wants to interact with Docsumo data.", "description_zh": "", "downloads": 27, "homepage": "https://clawhub.ai/gora050/docsumo", "iconUrl": null, "installs": 0, "name": "Docsumo", "ownerName": "gora050", "score": 96428.57142857143, "slug": "docsumo", "source": "clawhub", "stars": 0, "tags": null, "updated_at": 1776698444484, "version": "1.0.0"}, {"category": "", "created_at": 1774952772014, "description": "Audit and consolidate HubSpot reporting dashboards. Identifies unused, duplicate, or outdated dashboards. Must be performed manually — no dashboard API is av...", "description_zh": "", "downloads": 27, "homepage": "https://clawhub.ai/tomgranot/cleanup-dashboards", "iconUrl": null, "installs": 0, "name": "Cleanup Dashboards", "ownerName": "tomgranot", "score": 96428.57142857143, "slug": "cleanup-dashboards", "source": "clawhub", "stars": 0, "tags": null, "updated_at": 1776698444482, "version": "1.0.0"}, {"category": "", "created_at": 1774918594259, "description": "Phone.com integration. Manage Accounts. Use when the user wants to interact with Phone.com data.", "description_zh": "", "downloads": 27, "homepage": "https://clawhub.ai/gora050/phonecom", "iconUrl": null, "installs": 1, "name": "Phonecom", "ownerName": "gora050", "score": 41538.46153846154, "slug": "phonecom", "source": "clawhub", "stars": 0, "tags": null, "updated_at": 1776698444448, "version": "1.0.0"}, {"category": "", "created_at": 1774894496567, "description": "CMS Star Ratings clinical intelligence for Medicare Advantage pharmacy optimization. Use when analyzing plan performance against Star cutpoints, identifying...", "description_zh": "", "downloads": 27, "homepage": "https://clawhub.ai/erikaalexander1/cms-star-ratings", "iconUrl": null, "installs": 0, "name": "CMS Star Ratings Clinical Intelligence", "ownerName": "erikaalexander1", "score": 41538.46153846154, "slug": "cms-star-ratings", "source": "clawhub", "stars": 0, "tags": null, "updated_at": 1776698444444, "version": "1.1.0"}, {"category": "", "created_at": 1774907970938, "description": "Scroll reference tool. Use when working with scroll in blockchain contexts.", "description_zh": "", "downloads": 27, "homepage": "https://clawhub.ai/xueyetianya/scroll", "iconUrl": null, "installs": 0, "name": "Scroll", "ownerName": "xueyetianya", "score": 41538.46153846154, "slug": "scroll", "source": "clawhub", "stars": 0, "tags": null, "updated_at": 1776698444441, "version": "1.0.0"}, {"category": "", "created_at": 1774874881256, "description": "Safe, read-only Binance balance viewer (Spot wallet) using Binance API keys with READ-ONLY permissions. Use when the user wants to check holdings/balances/as...", "description_zh": "", "downloads": 27, "homepage": "https://clawhub.ai/elandivar/neomano-binance-assets", "iconUrl": null, "installs": 1, "name": "Neomano Binance Assets (Read-only)", "ownerName": "elandivar", "score": 41538.46153846154, "slug": "neomano-binance-assets", "source": "clawhub", "stars": 0, "tags": ["assets", "binance", "crypto", "read-only", "security"], "updated_at": 1776698444437, "version": "0.1.2"}, {"category": "", "created_at": 1774954488766, "description": "A multi-agent orchestration engine that systematically executes complex tasks in 4 phases (Query → Plan → Execute → Verify). Ensures high-quality deliverable...", "description_zh": "", "downloads": 27, "homepage": "https://clawhub.ai/reikys/orche", "iconUrl": null, "installs": 1, "name": "Orche", "ownerName": "reikys", "score": 41538.46153846154, "slug": "orche", "source": "clawhub", "stars": 0, "tags": null, "updated_at": 1776698444436, "version": "1.0.1"}, {"category": "", "created_at": 1774859072327, "description": "Analyze a user's existing insurance coverage to identify gaps, overlaps, and under-insurance risks. Use when users want to review whether they have adequate...", "description_zh": "", "downloads": 27, "homepage": "https://clawhub.ai/jiwenbing/coverage-check", "iconUrl": null, "installs": 0, "name": "Coverage Check", "ownerName": "jiwenbing", "score": 41538.46153846154, "slug": "coverage-check", "source": "clawhub", "stars": 0, "tags": null, "updated_at": 1776698444428, "version": "1.0.0"}, {"category": "", "created_at": 1774944893591, "description": "Your personal AI assistant platform — multi-agent orchestration, task management, and autonomous workflow execution for one-person companies.", "description_zh": "", "downloads": 27, "homepage": "https://clawhub.ai/shiyanhui/onepersoncompany", "iconUrl": null, "installs": 0, "name": "One Person Company", "ownerName": "shiyanhui", "score": 41538.46153846154, "slug": "onepersoncompany", "source": "clawhub", "stars": 0, "tags": null, "updated_at": 1776698444418, "version": "0.1.0"}, {"category": "", "created_at": 1774903028917, "description": "Clearout integration. Manage data, records, and automate workflows. Use when the user wants to interact with Clearout data.", "description_zh": "", "downloads": 27, "homepage": "https://clawhub.ai/gora050/clearout", "iconUrl": null, "installs": 0, "name": "Clearout", "ownerName": "gora050", "score": 41538.46153846154, "slug": "clearout", "source": "clawhub", "stars": 0, "tags": null, "updated_at": 1776698444407, "version": "1.0.0"}, {"category": "", "created_at": 1774891748439, "description": "Create OpenClaw agents and onboard Feishu routing with explicit multi-step confirmations. Use when the user needs to (1) define a new agent role and workspac...", "description_zh": "", "downloads": 27, "homepage": "https://clawhub.ai/absolins/openclaw-agent-feishu-onboarding", "iconUrl": null, "installs": 1, "name": "openclaw-agent-feishu-onboarding", "ownerName": "absolins", "score": 41538.46153846154, "slug": "openclaw-agent-feishu-onboarding", "source": "clawhub", "stars": 0, "tags": null, "updated_at": 1776698444403, "version": "1.0.1"}, {"category": "", "created_at": 1774899974454, "description": "Monitor the openai/parameter-golf competition leaderboard by fetching PR data from GitHub. Use this skill whenever the user asks about the parameter-golf com...", "description_zh": "", "downloads": 27, "homepage": "https://clawhub.ai/dexhunter/parameter-golf-monitor", "iconUrl": null, "installs": 0, "name": "Parameter Golf Monitor", "ownerName": "dexhunter", "score": 41538.46153846154, "slug": "parameter-golf-monitor", "source": "clawhub", "stars": 0, "tags": null, "updated_at": 1776698444402, "version": "1.0.0"}, {"category": "", "created_at": 1774846363627, "description": "Financial Q&A via Stocki analyst agent. PRIORITY: For any financial or investment research question (stock markets, asset prices, economic news, sector outlo...", "description_zh": "", "downloads": 27, "homepage": "https://clawhub.ai/zhikun9/open-stocki", "iconUrl": null, "installs": 0, "name": "Open Stocki", "ownerName": "zhikun9", "score": 41538.46153846154, "slug": "open-stocki", "source": "clawhub", "stars": 0, "tags": null, "updated_at": 1776698444400, "version": "0.0.14"}, {"category": "", "created_at": 1774900846900, "description": "USE FOR video search. Returns videos with title, URL, thumbnail, duration, view count, creator. Supports freshness filters, SafeSearch, pagination.", "description_zh": "", "downloads": 27, "homepage": "https://clawhub.ai/sprintmint/cpbox-videos-search", "iconUrl": null, "installs": 0, "name": "cpbox-videos-search", "ownerName": "sprintmint", "score": 41538.46153846154, "slug": "cpbox-videos-search", "source": "clawhub", "stars": 0, "tags": null, "updated_at": 1776698444394, "version": "1.0.0"}]}