{"page": 495, "total_pages": 522, "total": 26073, "skills": [{"category": "", "created_at": 1774890198418, "description": "Use when editing openclaw.json, adding or changing config keys, troubleshooting a gateway crash after a config change, validating config before restart, or r...", "description_zh": "", "downloads": 27, "homepage": "https://clawhub.ai/codeinonenight/openclaw-safe-config", "iconUrl": null, "installs": 2, "name": "OpenClaw Safe Config", "ownerName": "codeinonenight", "score": 41538.46153846154, "slug": "openclaw-safe-config", "source": "clawhub", "stars": 0, "tags": null, "updated_at": 1776698444389, "version": "1.0.0"}, {"category": "", "created_at": 1774903452973, "description": "Plan and implement OIDC and OAuth 2.0 integration for React or TypeScript frontends and Java or Spring Boot backends. Use whenever the user mentions OIDC, Op...", "description_zh": "", "downloads": 27, "homepage": "https://clawhub.ai/jeff-tian/oidc-integration", "iconUrl": null, "installs": 0, "name": "Oidc Integration", "ownerName": "jeff-tian", "score": 41538.46153846154, "slug": "oidc-integration", "source": "clawhub", "stars": 0, "tags": null, "updated_at": 1776698444387, "version": "0.1.0"}, {"category": "", "created_at": 1774900855155, "description": "USE FOR web search. Returns ranked results with snippets, URLs, thumbnails. Supports freshness filters, SafeSearch, Goggles for custom ranking, pagination. P...", "description_zh": "", "downloads": 27, "homepage": "https://clawhub.ai/sprintmint/cpbox-web-search", "iconUrl": null, "installs": 0, "name": "cpbox-web-search", "ownerName": "sprintmint", "score": 41538.46153846154, "slug": "cpbox-web-search", "source": "clawhub", "stars": 0, "tags": null, "updated_at": 1776698444386, "version": "1.0.0"}, {"category": "", "created_at": 1774887266541, "description": "Security audit and credential hardening tool for OpenClaw instances. Scan for sensitive files, detect credential exposure, check gateway configuration, and m...", "description_zh": "", "downloads": 27, "homepage": "https://clawhub.ai/vincent-big-fish/openclaw-safe-audit", "iconUrl": null, "installs": 1, "name": "OpenClaw Security Audit", "ownerName": "vincent-big-fish", "score": 96428.57142857143, "slug": "openclaw-safe-audit", "source": "clawhub", "stars": 0, "tags": ["audit", "credentials", "hardening", "privacy", "safety", "security"], "updated_at": 1776698444384, "version": "1.0.0"}, {"category": "", "created_at": 1774891251361, "description": "Force openclaw-lark bot replies into message threads in Feishu group chats, preventing main chat noise. Patches the plugin's dispatch layer and optionally th...", "description_zh": "", "downloads": 27, "homepage": "https://clawhub.ai/arianxx/feishu-group-thread-reply", "iconUrl": null, "installs": 0, "name": "Feishu Group Thread Reply", "ownerName": "arianxx", "score": 96428.57142857143, "slug": "feishu-group-thread-reply", "source": "clawhub", "stars": 0, "tags": null, "updated_at": 1776698444379, "version": "1.0.0"}, {"category": "", "created_at": 1774866989045, "description": "Reference tool for devtools — covers intro, quickstart, patterns and more. Quick lookup for Netwatch concepts, best practices, and implementation patterns.", "description_zh": "", "downloads": 27, "homepage": "https://clawhub.ai/bytesagain3/netwatch", "iconUrl": null, "installs": 0, "name": "Netwatch", "ownerName": "bytesagain3", "score": 96428.57142857143, "slug": "netwatch", "source": "clawhub", "stars": 0, "tags": null, "updated_at": 1776698444374, "version": "2.0.2"}, {"category": "", "created_at": 1774866103289, "description": "Enterprise-grade persistent memory for AI agents — rollback, audit trails, knowledge graph, governed actions, time-travel debugging, and 60+ commands coverin...", "description_zh": "", "downloads": 27, "homepage": "https://clawhub.ai/novyxlabs/novyx-memory", "iconUrl": null, "installs": 0, "name": "Novyx Memory", "ownerName": "novyxlabs", "score": 96428.57142857143, "slug": "novyx-memory", "source": "clawhub", "stars": 0, "tags": ["audit", "governed-actions", "knowledge-graph", "memory", "multi-agent", "persistence", "rollback", "semantic-search", "time-travel", "tracing"], "updated_at": 1776698444365, "version": "3.0.0"}, {"category": "", "created_at": 1776676425216, "description": "Extract high-performing WeChat articles (100k+ reads) published within a recent time window, using multiple data sources such as APIs or web scraping.", "description_zh": "", "downloads": 26, "homepage": "https://clawhub.ai/user_d82fedf3/wechat-hot-article-extractor", "iconUrl": "https://cloudcache.tencent-cloud.com/qcloud/ui/static/other_external_resource/7920727c-4e7d-496a-9223-d9c6673e9e53.png", "installs": 2, "name": "公众号最近7日爆文提取", "ownerName": "user_d82fedf3", "score": 543.075783757097, "slug": "wechat-hot-article-extractor", "source": "community", "stars": 2, "tags": null, "updated_at": 1776770349755, "version": "1.0.0"}, {"category": "", "created_at": 1774890891507, "description": "Breathing techniques reference — box breathing, 4-7-8, Wim Hof, pranayama, resonance breathing. Use when guiding breathwork for stress relief, focus, sleep,...", "description_zh": "", "downloads": 26, "homepage": "https://clawhub.ai/bytesagain1/breathe", "iconUrl": null, "installs": 0, "name": "Breathe", "ownerName": "bytesagain1", "score": 510.8055009823182, "slug": "breathe", "source": "clawhub", "stars": 0, "tags": null, "updated_at": 1776768890539, "version": "1.0.0"}, {"category": "", "created_at": 1774869257923, "description": "Rent cars from Avis via Strider Labs MCP connector. Search availability, book rentals, modify reservations, and manage Avis Preferred status.", "description_zh": "", "downloads": 26, "homepage": "https://clawhub.ai/markswendsen-code/strider-avis", "iconUrl": null, "installs": 1, "name": "Strider Avis", "ownerName": "markswendsen-code", "score": 689.838153356328, "slug": "strider-avis", "source": "clawhub", "stars": 0, "tags": null, "updated_at": 1776768850410, "version": "1.0.0"}, {"category": "", "created_at": 1774906075810, "description": "Reviews watchOS code for app lifecycle, complications (ClockKit/WidgetKit), WatchConnectivity, and performance constraints. Use when reviewing code with impo...", "description_zh": "", "downloads": 26, "homepage": "https://clawhub.ai/anderskev/watchos-code-review", "iconUrl": null, "installs": 2, "name": "Watchos Code Review", "ownerName": "anderskev", "score": 1162.7906976744187, "slug": "watchos-code-review", "source": "clawhub", "stars": 0, "tags": null, "updated_at": 1776766963624, "version": "1.2.0"}, {"category": "", "created_at": 1776061825587, "description": "Generate artistic images using Midjourney (MJ) model. Supports text-to-image.", "description_zh": "", "downloads": 26, "homepage": "https://clawhub.ai/user_f95f21b8/dlazy-mj-imagine", "iconUrl": null, "installs": 0, "name": "mj-imagine", "ownerName": "user_f95f21b8", "score": 1038.338658146965, "slug": "dlazy-mj-imagine", "source": "community", "stars": 0, "tags": null, "updated_at": 1776760282623, "version": "1.0.3"}, {"category": "", "created_at": 1776068630674, "description": "A comprehensive generation skill. Can generate images, videos, and audio by automatically selecting the appropriate dlazy CLI model.", "description_zh": "", "downloads": 26, "homepage": "https://clawhub.ai/user_f95f21b8/dlazy-generate", "iconUrl": null, "installs": 0, "name": "image/video/audio generate", "ownerName": "user_f95f21b8", "score": 1038.338658146965, "slug": "dlazy-generate", "source": "community", "stars": 0, "tags": null, "updated_at": 1776760282590, "version": "1.0.4"}, {"category": "", "created_at": 1776061849780, "description": "Generate diverse design style images with Recraft v3. Supports text-to-image and image-to-image.", "description_zh": "", "downloads": 26, "homepage": "https://clawhub.ai/user_f95f21b8/dlazy-recraft-v3", "iconUrl": null, "installs": 0, "name": "recraft v3", "ownerName": "user_f95f21b8", "score": 522.2981116914423, "slug": "dlazy-recraft-v3", "source": "community", "stars": 0, "tags": null, "updated_at": 1776760282468, "version": "1.0.3"}, {"category": "", "created_at": 1776062092272, "description": "Fast response and generation of short videos with Google Veo 3.1 Fast.", "description_zh": "", "downloads": 26, "homepage": "https://clawhub.ai/user_f95f21b8/dlazy-veo-3-1-fast", "iconUrl": null, "installs": 0, "name": "veo 3.1 fast", "ownerName": "user_f95f21b8", "score": 522.2981116914423, "slug": "dlazy-veo-3-1-fast", "source": "community", "stars": 0, "tags": null, "updated_at": 1776760282430, "version": "1.0.3"}, {"category": "", "created_at": 1774887328836, "description": "Phosphate fertilizer reference — P2O5 forms, application timing, soil testing, runoff management, crop requirements. Use when planning phosphorus fertilizati...", "description_zh": "", "downloads": 26, "homepage": "https://clawhub.ai/xueyetianya/phosphate", "iconUrl": null, "installs": 1, "name": "Phosphate", "ownerName": "xueyetianya", "score": 1598.0331899200985, "slug": "phosphate", "source": "clawhub", "stars": 0, "tags": null, "updated_at": 1776756983153, "version": "1.0.0"}, {"category": "", "created_at": 1774828543421, "description": "Create a new skill through a guided conversation. Use when a user wants help authoring a skill from scratch, choosing between quick or full guidance, analyzi...", "description_zh": "", "downloads": 26, "homepage": "https://clawhub.ai/xiaohaoxing/create-new-skill", "iconUrl": null, "installs": 0, "name": "Create New Skill", "ownerName": "xiaohaoxing", "score": 1536.6430260047282, "slug": "create-new-skill", "source": "clawhub", "stars": 0, "tags": null, "updated_at": 1776756188806, "version": "1.0.3"}, {"category": "", "created_at": 1774886573366, "description": "Bonded warehouse reference — customs procedures, duty deferral, FTZ operations, compliance requirements. Use when managing bonded storage, customs clearance,...", "description_zh": "", "downloads": 26, "homepage": "https://clawhub.ai/bytesagain1/bonded", "iconUrl": null, "installs": 1, "name": "Bonded", "ownerName": "bytesagain1", "score": 4459.691252144083, "slug": "bonded", "source": "clawhub", "stars": 0, "tags": null, "updated_at": 1776754388848, "version": "1.0.0"}, {"category": "", "created_at": 1774897726216, "description": "Circuit breaker sizing and coordination tool. Use when json breaker tasks, csv breaker tasks, checking breaker status.", "description_zh": "", "downloads": 26, "homepage": "https://clawhub.ai/bytesagain1/breaker", "iconUrl": null, "installs": 1, "name": "Breaker", "ownerName": "bytesagain1", "score": 4429.301533219761, "slug": "breaker", "source": "clawhub", "stars": 0, "tags": null, "updated_at": 1776748071669, "version": "1.0.0"}, {"category": "", "created_at": 1774922384934, "description": "The 15 most common home repairs that anyone can do with basic tools. Fixes that save hundreds per call. For people who've never picked up a wrench and curren...", "description_zh": "", "downloads": 26, "homepage": "https://clawhub.ai/howtousehumans/basic-home-repair", "iconUrl": null, "installs": 1, "name": "Basic Home Repair", "ownerName": "howtousehumans", "score": 4436.860068259386, "slug": "basic-home-repair", "source": "clawhub", "stars": 0, "tags": null, "updated_at": 1776748070220, "version": "1.0.0"}, {"category": "", "created_at": 1774925234883, "description": "Foundational masonry and concrete skills for home and property projects. Use when someone needs to pour a concrete slab, build a retaining wall, lay bricks o...", "description_zh": "", "downloads": 26, "homepage": "https://clawhub.ai/howtousehumans/basic-masonry", "iconUrl": null, "installs": 1, "name": "Basic Masonry", "ownerName": "howtousehumans", "score": 4436.860068259386, "slug": "basic-masonry", "source": "clawhub", "stars": 0, "tags": null, "updated_at": 1776748069750, "version": "1.0.0"}, {"category": "", "created_at": 1774874509304, "description": "Forensic diagnosis engine for backtest order data — trade quality, ROI attribution, monthly cashflow, drawdown root-cause analysis, and LLM-readable reports.", "description_zh": "", "downloads": 26, "homepage": "https://clawhub.ai/tltby12341/qc-order-forensics", "iconUrl": null, "installs": 0, "name": "Qc Order Forensics", "ownerName": "tltby12341", "score": 24761.904761904763, "slug": "qc-order-forensics", "source": "clawhub", "stars": 0, "tags": null, "updated_at": 1776745369818, "version": "1.0.0"}, {"category": "", "created_at": 1774893821034, "description": "Choose the best OpenClaw skill by matching trigger keywords to the TOOLS.md index, then applying strict judgment rules (most specific first; if in doubt, use...", "description_zh": "", "downloads": 26, "homepage": "https://clawhub.ai/xuchang9337-dev/skill-invocation", "iconUrl": null, "installs": 1, "name": "skill invocation", "ownerName": "xuchang9337-dev", "score": 27083.333333333332, "slug": "skill-invocation", "source": "clawhub", "stars": 0, "tags": null, "updated_at": 1776744469621, "version": "1.0.0"}, {"category": "", "created_at": 1774913314746, "description": "Generate team quality daily report automatically", "description_zh": "", "downloads": 26, "homepage": "https://clawhub.ai/bondli/team-quality-daily-report", "iconUrl": null, "installs": 0, "name": "team-quality-daily-report", "ownerName": "bondli", "score": 37142.857142857145, "slug": "team-quality-daily-report", "source": "clawhub", "stars": 0, "tags": null, "updated_at": 1776743869739, "version": "1.0.0"}, {"category": "", "created_at": 1774906967005, "description": "Shared persistent memory layer across multiple AI agents. Use when setting up a multi-agent workspace for the first time, when an agent discovers a permanent...", "description_zh": "", "downloads": 26, "homepage": "https://clawhub.ai/ohernandez-dev-blossom/shared-brain", "iconUrl": null, "installs": 0, "name": "Shared Brain", "ownerName": "ohernandez-dev-blossom", "score": 26262.626262626265, "slug": "shared-brain", "source": "clawhub", "stars": 0, "tags": null, "updated_at": 1776743384059, "version": "1.0.2"}, {"category": "", "created_at": 1774867419133, "description": "Wake or shut down LAN devices by sending WOL-plus packets from the agent host. Use this when the user wants to power on a device with a raw Ethernet magic pa...", "description_zh": "", "downloads": 26, "homepage": "https://clawhub.ai/leeyeel/wolp", "iconUrl": null, "installs": 1, "name": "WOLP LAN Power Control", "ownerName": "leeyeel", "score": 27083.333333333332, "slug": "wolp", "source": "clawhub", "stars": 0, "tags": null, "updated_at": 1776743083886, "version": "0.0.2"}, {"category": "", "created_at": 1774945915055, "description": "Scan a resolved Polymarket market for wallets exhibiting suspicious trading patterns: fresh funding, single-market focus, extreme ROI, late entry at high pri...", "description_zh": "", "downloads": 26, "homepage": "https://clawhub.ai/nansen-devops/nansen-polymarket-insider-scan", "iconUrl": null, "installs": 0, "name": "Nansen Polymarket Insider Scan", "ownerName": "nansen-devops", "score": 29885.05747126437, "slug": "nansen-polymarket-insider-scan", "source": "clawhub", "stars": 0, "tags": null, "updated_at": 1776741583958, "version": "0.1.0"}, {"category": "", "created_at": 1774955538958, "description": "Practical small livestock management starting with chickens and progressing to goats. Use when someone wants to raise chickens for eggs, keep goats for milk...", "description_zh": "", "downloads": 26, "homepage": "https://clawhub.ai/howtousehumans/raising-livestock", "iconUrl": null, "installs": 0, "name": "Raising Livestock", "ownerName": "howtousehumans", "score": 26804.123711340206, "slug": "raising-livestock", "source": "clawhub", "stars": 0, "tags": null, "updated_at": 1776737869863, "version": "1.0.0"}, {"category": "", "created_at": 1774840826486, "description": "When the user wants to create or optimize a shipping or delivery information page. Also use when the user mentions \"shipping,\" \"delivery,\" \"shipping policy,\"...", "description_zh": "", "downloads": 26, "homepage": "https://clawhub.ai/kostja94/shipping-page-generator", "iconUrl": null, "installs": 0, "name": "shipping-page-generator", "ownerName": "kostja94", "score": 32098.765432098764, "slug": "shipping-page-generator", "source": "clawhub", "stars": 0, "tags": null, "updated_at": 1776737704873, "version": "1.0.0"}, {"category": "", "created_at": 1774868370479, "description": "Exchange cryptocurrencies via kyc.rip aggregator API. Use when swapping, converting, or exchanging crypto assets. Supports 700+ coins, no KYC, best rates acr...", "description_zh": "", "downloads": 26, "homepage": "https://clawhub.ai/xbtoshi/swap-api", "iconUrl": null, "installs": 0, "name": "KYC.RIP Swap API", "ownerName": "xbtoshi", "score": 28888.888888888887, "slug": "swap-api", "source": "clawhub", "stars": 0, "tags": ["aggregator", "anonymous", "api", "atomic-swap", "bitcoin", "bridge", "btc", "cross-chain", "cryptocurrency", "defi", "eth", "ethereum", "exchange", "ghost-protocol", "monero", "mwc", "no-kyc", "non-custodial", "payments", "privacy", "rate-comparison", "stablecoin", "swap", "usdt", "wallet", "xmr", "zano", "zcash", "zec"], "updated_at": 1776737404793, "version": "1.0.0"}, {"category": "", "created_at": 1774884995269, "description": "Persistent memory that learns. Records what matters, reflects overnight, recalls with intelligence. Powered by Spark by Zellin (https://zellin.ai) — memory i...", "description_zh": "", "downloads": 26, "homepage": "https://clawhub.ai/zellinun/spark-memory", "iconUrl": null, "installs": 0, "name": "Spark Memory", "ownerName": "zellinun", "score": 26804.123711340206, "slug": "spark-memory", "source": "clawhub", "stars": 0, "tags": null, "updated_at": 1776736844400, "version": "0.3.2"}, {"category": "", "created_at": 1774909410220, "description": "AI industry news aggregation from curated RSS feeds. Catches model releases from major labs.", "description_zh": "", "downloads": 26, "homepage": "https://clawhub.ai/justintieu/ai-news-skill", "iconUrl": null, "installs": 0, "name": "Morning Briefing AI News", "ownerName": "justintieu", "score": 26530.612244897962, "slug": "ai-news-skill", "source": "clawhub", "stars": 0, "tags": ["ai news tldr hackernews decoder morning briefing"], "updated_at": 1776731569660, "version": "0.1.0"}, {"category": "", "created_at": 1774921730710, "description": "Open Source Marketing Playbook — Complete guide to marketing open source projects. Proven tactics from AFFiNE (33k stars in 18 months). Covers: open source m...", "description_zh": "", "downloads": 26, "homepage": "https://clawhub.ai/gingiris/open-source-marketing-playbook", "iconUrl": null, "installs": 0, "name": "Open Source Marketing Playbook", "ownerName": "gingiris", "score": 22033.898305084746, "slug": "open-source-marketing-playbook", "source": "clawhub", "stars": 0, "tags": null, "updated_at": 1776716269529, "version": "1.0.0"}, {"category": "", "created_at": 1774908557290, "description": "Get the machine's current public IP address by calling `curl ifconfig.me`. Use when the user asks for their IP address, public IP, external IP, or explicitly...", "description_zh": "", "downloads": 26, "homepage": "https://clawhub.ai/hilaraklesantosw-art/get-my-ip", "iconUrl": null, "installs": 1, "name": "Get My Ip", "ownerName": "hilaraklesantosw-art", "score": 26262.626262626265, "slug": "get-my-ip", "source": "clawhub", "stars": 0, "tags": null, "updated_at": 1776707083772, "version": "0.1.0"}, {"category": "", "created_at": 1774902982170, "description": "Manage multiple communication channels, admin identity recognition, and primary channel configuration", "description_zh": "", "downloads": 26, "homepage": "https://clawhub.ai/montycn/channel-management", "iconUrl": null, "installs": 0, "name": "Channel Management", "ownerName": "montycn", "score": 23214.285714285714, "slug": "channel-management", "source": "clawhub", "stars": 0, "tags": null, "updated_at": 1776702169534, "version": "1.0.0"}, {"category": "", "created_at": 1774955820264, "description": "Appointedd integration. Manage data, records, and automate workflows. Use when the user wants to interact with Appointedd data.", "description_zh": "", "downloads": 26, "homepage": "https://clawhub.ai/membranedev/appointedd", "iconUrl": null, "installs": 0, "name": "Appointedd", "ownerName": "membranedev", "score": 27659.574468085106, "slug": "appointedd", "source": "clawhub", "stars": 0, "tags": null, "updated_at": 1776701083856, "version": "1.0.0"}, {"category": "", "created_at": 1774878376064, "description": "Curated free public APIs for AI agents — geocoding, weather, forex, validation, facts, finance, and test data. Use when an agent needs real-world data withou...", "description_zh": "", "downloads": 26, "homepage": "https://clawhub.ai/alexuser/api-bridge", "iconUrl": null, "installs": 0, "name": "Api Bridge", "ownerName": "alexuser", "score": 92857.14285714286, "slug": "api-bridge", "source": "clawhub", "stars": 0, "tags": null, "updated_at": 1776699004808, "version": "1.0.0"}, {"category": "", "created_at": 1774871821542, "description": "Reference tool for devtools — covers intro, quickstart, patterns and more. Quick lookup for Site Inspector concepts, best practices, and implementation patte...", "description_zh": "", "downloads": 26, "homepage": "https://clawhub.ai/bytesagain1/site-inspector", "iconUrl": null, "installs": 0, "name": "Site Inspector", "ownerName": "bytesagain1", "score": 100000, "slug": "site-inspector", "source": "clawhub", "stars": 0, "tags": null, "updated_at": 1776698747003, "version": "2.0.1"}, {"category": "", "created_at": 1774825772761, "description": "A/B evaluates any AI agent skill's real impact through three-role isolation (orchestrator + two sub-agents). Generates skill profiles, synthetic test tasks,...", "description_zh": "", "downloads": 26, "homepage": "https://clawhub.ai/luarassassin/skillprobe", "iconUrl": null, "installs": 0, "name": "SkillProbe", "ownerName": "luarassassin", "score": 100000, "slug": "skillprobe", "source": "clawhub", "stars": 0, "tags": null, "updated_at": 1776698747001, "version": "1.0.0"}, {"category": "", "created_at": 1774946421708, "description": "TELOS (Telic Evolution and Life Operating System) — Reads, updates, and backs up the user's personal life OS stored in ~/clawd/telos/. Provides missions, goa...", "description_zh": "", "downloads": 26, "homepage": "https://clawhub.ai/sauldataman/telos", "iconUrl": null, "installs": 0, "name": "TELOS", "ownerName": "sauldataman", "score": 100000, "slug": "telos", "source": "clawhub", "stars": 0, "tags": null, "updated_at": 1776698746999, "version": "1.0.2"}, {"category": "", "created_at": 1774910230145, "description": "Stripo integration. Manage Users, Workspaces. Use when the user wants to interact with Stripo data.", "description_zh": "", "downloads": 26, "homepage": "https://clawhub.ai/gora050/stripo", "iconUrl": null, "installs": 0, "name": "Stripo", "ownerName": "gora050", "score": 100000, "slug": "stripo", "source": "clawhub", "stars": 0, "tags": null, "updated_at": 1776698746984, "version": "1.0.0"}, {"category": "", "created_at": 1774954017446, "description": "SendX integration. Manage Persons, Organizations, Deals, Leads, Activities, Notes and more. Use when the user wants to interact with SendX data.", "description_zh": "", "downloads": 26, "homepage": "https://clawhub.ai/gora050/sendx", "iconUrl": null, "installs": 0, "name": "Sendx", "ownerName": "gora050", "score": 100000, "slug": "sendx", "source": "clawhub", "stars": 0, "tags": null, "updated_at": 1776698746974, "version": "1.0.0"}, {"category": "", "created_at": 1774955032029, "description": "Seqera integration. Manage Organizations, Users, Pipelines. Use when the user wants to interact with Seqera data.", "description_zh": "", "downloads": 26, "homepage": "https://clawhub.ai/gora050/seqera", "iconUrl": null, "installs": 0, "name": "Seqera", "ownerName": "gora050", "score": 100000, "slug": "seqera", "source": "clawhub", "stars": 0, "tags": null, "updated_at": 1776698746970, "version": "1.0.0"}, {"category": "", "created_at": 1774954651762, "description": "Invoke a strong UMGo speech simulation surface with explicit slash activation, affirmation-led cadence, readable flow, and GPT-4o-inspired conversational pol...", "description_zh": "", "downloads": 26, "homepage": "https://clawhub.ai/neomagnetar/umgo-speech-sim", "iconUrl": null, "installs": 0, "name": "UMGo Speech Sim", "ownerName": "neomagnetar", "score": 100000, "slug": "umgo-speech-sim", "source": "clawhub", "stars": 0, "tags": ["sim", "speech", "style", "umgo"], "updated_at": 1776698744835, "version": "3.0.0"}, {"category": "", "created_at": 1774905165794, "description": "Decide which trade shows deserve booth budget, team time, and follow-up.", "description_zh": "", "downloads": 26, "homepage": "https://clawhub.ai/weilun88313/trade-show-finder", "iconUrl": null, "installs": 0, "name": "Trade Show Finder", "ownerName": "weilun88313", "score": 100000, "slug": "trade-show-finder", "source": "clawhub", "stars": 0, "tags": null, "updated_at": 1776698744825, "version": "1.0.2"}, {"category": "", "created_at": 1774874698691, "description": "When the user wants to add or optimize tab or accordion components for content organization. Also use when the user mentions \"tab component,\" \"accordion,\" \"e...", "description_zh": "", "downloads": 26, "homepage": "https://clawhub.ai/kostja94/tab-accordion", "iconUrl": null, "installs": 0, "name": "tab-accordion", "ownerName": "kostja94", "score": 100000, "slug": "tab-accordion", "source": "clawhub", "stars": 0, "tags": null, "updated_at": 1776698744822, "version": "1.1.0"}, {"category": "", "created_at": 1774898938456, "description": "Tapfiliate integration. Manage Affiliates, Referrals, Conversions, Programs, Invoices. Use when the user wants to interact with Tapfiliate data.", "description_zh": "", "downloads": 26, "homepage": "https://clawhub.ai/membranedev/tapfiliate", "iconUrl": null, "installs": 1, "name": "Tapfiliate", "ownerName": "membranedev", "score": 100000, "slug": "tapfiliate", "source": "clawhub", "stars": 0, "tags": null, "updated_at": 1776698744820, "version": "1.0.0"}, {"category": "", "created_at": 1774838996279, "description": "Generate vtuber avatar creator ai images with AI via the Neta AI image generation API (free trial at neta.art/open).", "description_zh": "", "downloads": 26, "homepage": "https://clawhub.ai/blammectrappora/vtuber-avatar-skill", "iconUrl": null, "installs": 0, "name": "Vtuber Avatar Skill", "ownerName": "blammectrappora", "score": 100000, "slug": "vtuber-avatar-skill", "source": "clawhub", "stars": 0, "tags": null, "updated_at": 1776698744817, "version": "2.0.1"}, {"category": "", "created_at": 1774895714887, "description": "Unified.to integration. Manage data, records, and automate workflows. Use when the user wants to interact with Unified.to data.", "description_zh": "", "downloads": 26, "homepage": "https://clawhub.ai/gora050/unifiedto", "iconUrl": null, "installs": 0, "name": "Unifiedto", "ownerName": "gora050", "score": 100000, "slug": "unifiedto", "source": "clawhub", "stars": 0, "tags": null, "updated_at": 1776698744815, "version": "1.0.0"}, {"category": "", "created_at": 1774870516642, "description": "Find the true top-performing US stocks per year by downloading all NASDAQ-listed symbols, filtering by liquidity (Top 500 daily dollar volume), and ranking b...", "description_zh": "", "downloads": 26, "homepage": "https://clawhub.ai/tltby12341/top-performer-scanner", "iconUrl": null, "installs": 0, "name": "Top Performer Scanner", "ownerName": "tltby12341", "score": 100000, "slug": "top-performer-scanner", "source": "clawhub", "stars": 0, "tags": null, "updated_at": 1776698744813, "version": "1.0.0"}]}