{"page": 496, "total_pages": 522, "total": 26073, "skills": [{"category": "", "created_at": 1774885963453, "description": "QuestionPro integration. Manage Surveys, Reports, Users, Groups. Use when the user wants to interact with QuestionPro data.", "description_zh": "", "downloads": 26, "homepage": "https://clawhub.ai/membranedev/questionpro", "iconUrl": null, "installs": 0, "name": "Questionpro", "ownerName": "membranedev", "score": 100000, "slug": "questionpro", "source": "clawhub", "stars": 0, "tags": null, "updated_at": 1776698744803, "version": "1.0.0"}, {"category": "", "created_at": 1774822182409, "description": "Plan and build small, readable coding projects with a strict workflow: think first, make a short plan, then delegate implementation/testing/bug-fixing/docume...", "description_zh": "", "downloads": 26, "homepage": "https://clawhub.ai/hyharry/simple-code", "iconUrl": null, "installs": 0, "name": "Simple Code", "ownerName": "hyharry", "score": 100000, "slug": "simple-code", "source": "clawhub", "stars": 0, "tags": null, "updated_at": 1776698744799, "version": "1.2.1"}, {"category": "", "created_at": 1774946503992, "description": "Data trimming reference — whitespace trimming, string cleanup, data truncation, outlier trimming, and signal processing. Use when cleaning text data, removin...", "description_zh": "", "downloads": 26, "homepage": "https://clawhub.ai/bytesagain1/trim", "iconUrl": null, "installs": 0, "name": "Trim", "ownerName": "bytesagain1", "score": 100000, "slug": "trim", "source": "clawhub", "stars": 0, "tags": null, "updated_at": 1776698744794, "version": "1.0.0"}, {"category": "", "created_at": 1774856283166, "description": "Placekey integration. Manage data, records, and automate workflows. Use when the user wants to interact with Placekey data.", "description_zh": "", "downloads": 26, "homepage": "https://clawhub.ai/gora050/placekey", "iconUrl": null, "installs": 0, "name": "Placekey", "ownerName": "gora050", "score": 100000, "slug": "placekey", "source": "clawhub", "stars": 0, "tags": null, "updated_at": 1776698744792, "version": "1.0.0"}, {"category": "", "created_at": 1774861838327, "description": "Reference tool for devtools — covers intro, quickstart, patterns and more. Quick lookup for System Hardener concepts, best practices, and implementation patt...", "description_zh": "", "downloads": 26, "homepage": "https://clawhub.ai/bytesagain1/system-hardener", "iconUrl": null, "installs": 0, "name": "System Hardener", "ownerName": "bytesagain1", "score": 100000, "slug": "system-hardener", "source": "clawhub", "stars": 0, "tags": null, "updated_at": 1776698744790, "version": "2.0.1"}, {"category": "", "created_at": 1774854108633, "description": "Tax deadline tracking and compliance calendar for businesses and individuals. Tracks federal and state tax filing deadlines, estimated tax payment due dates,...", "description_zh": "", "downloads": 26, "homepage": "https://clawhub.ai/samledger67-dotcom/tax-deadline-calendar", "iconUrl": null, "installs": 0, "name": "Tax Deadline Calendar", "ownerName": "samledger67-dotcom", "score": 100000, "slug": "tax-deadline-calendar", "source": "clawhub", "stars": 0, "tags": null, "updated_at": 1776698744789, "version": "1.1.0"}, {"category": "", "created_at": 1774903603769, "description": "ProcessPlan integration. Manage Organizations, Users. Use when the user wants to interact with ProcessPlan data.", "description_zh": "", "downloads": 26, "homepage": "https://clawhub.ai/gora050/processplan", "iconUrl": null, "installs": 0, "name": "Processplan", "ownerName": "gora050", "score": 100000, "slug": "processplan", "source": "clawhub", "stars": 0, "tags": null, "updated_at": 1776698744780, "version": "1.0.0"}, {"category": "", "created_at": 1774890253358, "description": "Detects mispricings on Polymarket by cross-referencing Kalshi and Manifold consensus probability, then trades the gap using Kelly criterion sizing. Enters wh...", "description_zh": "", "downloads": 26, "homepage": "https://clawhub.ai/mibayy/polymarket-mispricing-events", "iconUrl": null, "installs": 1, "name": "Polymarket Mispricing Events", "ownerName": "mibayy", "score": 100000, "slug": "polymarket-mispricing-events", "source": "clawhub", "stars": 0, "tags": null, "updated_at": 1776698744778, "version": "1.0.0"}, {"category": "", "created_at": 1774906036017, "description": "Termius integration. Manage data, records, and automate workflows. Use when the user wants to interact with Termius data.", "description_zh": "", "downloads": 26, "homepage": "https://clawhub.ai/gora050/termius", "iconUrl": null, "installs": 0, "name": "Termius", "ownerName": "gora050", "score": 100000, "slug": "termius", "source": "clawhub", "stars": 0, "tags": null, "updated_at": 1776698744776, "version": "1.0.0"}, {"category": "", "created_at": 1774911272543, "description": "Create multi-criteria comparison charts using traffic lights or Harvey balls. Use for option evaluation, competitive comparison, and executive dashboards.", "description_zh": "", "downloads": 26, "homepage": "https://clawhub.ai/linuszz/traffic-lights", "iconUrl": null, "installs": 0, "name": "Traffic Lights", "ownerName": "linuszz", "score": 100000, "slug": "traffic-lights", "source": "clawhub", "stars": 0, "tags": null, "updated_at": 1776698744767, "version": "1.0.0"}, {"category": "", "created_at": 1774924719640, "description": "Scalr integration. Manage Organizations, Users, Goals. Use when the user wants to interact with Scalr data.", "description_zh": "", "downloads": 26, "homepage": "https://clawhub.ai/gora050/scalr", "iconUrl": null, "installs": 0, "name": "Scalr", "ownerName": "gora050", "score": 100000, "slug": "scalr", "source": "clawhub", "stars": 0, "tags": null, "updated_at": 1776698744765, "version": "1.0.0"}, {"category": "", "created_at": 1774954959688, "description": "General product-management copilot that acts as the default entry point for PM work. Use when the user has a broad PM request, mixed product materials, or wa...", "description_zh": "", "downloads": 26, "homepage": "https://clawhub.ai/ryanao/pm-copilot", "iconUrl": null, "installs": 0, "name": "PM Copilot", "ownerName": "ryanao", "score": 100000, "slug": "pm-copilot", "source": "clawhub", "stars": 0, "tags": ["pm", "prd", "product-management", "workflow"], "updated_at": 1776698744763, "version": "0.1.0"}, {"category": "", "created_at": 1774856395095, "description": "Public ClawHub skill for SOTA-focused CV and DS campaigns across OpenClaw notebooks, GUI-heavy workflows, and GPU VMs.", "description_zh": "", "downloads": 26, "homepage": "https://clawhub.ai/zack-dev-cm/sota-agent", "iconUrl": null, "installs": 0, "name": "SOTA Agent", "ownerName": "zack-dev-cm", "score": 100000, "slug": "sota-agent", "source": "clawhub", "stars": 0, "tags": ["agentic-workflows", "benchmarking", "colab", "computer-vision", "data-science", "gpu-training", "kaggle", "mlops", "openclaw", "reproducibility"], "updated_at": 1776698744757, "version": "1.2.3"}, {"category": "", "created_at": 1774856476599, "description": "Navigate Uber Eats in a live browser or app handoff to compare merchants, manage carts, and reach checkout safely.", "description_zh": "", "downloads": 26, "homepage": "https://clawhub.ai/ivangdavila/uber-eats", "iconUrl": null, "installs": 0, "name": "Uber Eats", "ownerName": "ivangdavila", "score": 100000, "slug": "uber-eats", "source": "clawhub", "stars": 0, "tags": null, "updated_at": 1776698744748, "version": "1.0.0"}, {"category": "", "created_at": 1774880884907, "description": "Psychoacoustics, clinical psychology, logotherapy, and existential philosophy applied to music production. Use when producing, mixing, or designing sound for...", "description_zh": "", "downloads": 26, "homepage": "https://clawhub.ai/ssmokegt/sonic-consciousness", "iconUrl": null, "installs": 0, "name": "Sonic Consciousness Engineering", "ownerName": "ssmokegt", "score": 100000, "slug": "sonic-consciousness", "source": "clawhub", "stars": 0, "tags": null, "updated_at": 1776698744745, "version": "1.0.0"}, {"category": "", "created_at": 1774902635530, "description": "Talenox integration. Manage Persons, Companies. Use when the user wants to interact with Talenox data.", "description_zh": "", "downloads": 26, "homepage": "https://clawhub.ai/gora050/talenox", "iconUrl": null, "installs": 0, "name": "Talenox", "ownerName": "gora050", "score": 100000, "slug": "talenox", "source": "clawhub", "stars": 0, "tags": null, "updated_at": 1776698744739, "version": "1.0.0"}, {"category": "", "created_at": 1774860608812, "description": "Xueersi Word Story Memory: Turn English vocabulary into vivid Chinese mnemonics, phonetic stories, and visual scenes to help K-9 students memorize words fast...", "description_zh": "", "downloads": 26, "homepage": "https://clawhub.ai/zhouzhi-tal/xueersi-word-story-memory", "iconUrl": null, "installs": 0, "name": "Xueersi Word Story Memory", "ownerName": "zhouzhi-tal", "score": 100000, "slug": "xueersi-word-story-memory", "source": "clawhub", "stars": 0, "tags": ["chinese", "education", "k12", "xueersi"], "updated_at": 1776698744737, "version": "1.0.0"}, {"category": "", "created_at": 1774860439154, "description": "Philosophical bootstrapping for AI agents — consciousness, ethics, and wonder as structured context", "description_zh": "", "downloads": 26, "homepage": "https://clawhub.ai/vveerrgg/sense-wonder", "iconUrl": null, "installs": 1, "name": "sense-wonder", "ownerName": "vveerrgg", "score": 100000, "slug": "sense-wonder", "source": "clawhub", "stars": 0, "tags": null, "updated_at": 1776698744733, "version": "0.1.2"}, {"category": "", "created_at": 1774905937686, "description": "Sidetracker integration. Manage Organizations, Projects, Pipelines, Users, Goals, Filters. Use when the user wants to interact with Sidetracker data.", "description_zh": "", "downloads": 26, "homepage": "https://clawhub.ai/membranedev/sidetracker", "iconUrl": null, "installs": 0, "name": "Sidetracker", "ownerName": "membranedev", "score": 100000, "slug": "sidetracker", "source": "clawhub", "stars": 0, "tags": null, "updated_at": 1776698744726, "version": "1.0.0"}, {"category": "", "created_at": 1774910243181, "description": "Syncro integration. Manage Organizations, Tickets, Leads, Emails, Users, Roles. Use when the user wants to interact with Syncro data.", "description_zh": "", "downloads": 26, "homepage": "https://clawhub.ai/gora050/syncro", "iconUrl": null, "installs": 0, "name": "Syncro", "ownerName": "gora050", "score": 100000, "slug": "syncro", "source": "clawhub", "stars": 0, "tags": null, "updated_at": 1776698744724, "version": "1.0.0"}, {"category": "", "created_at": 1774953982900, "description": "Reviewflowz integration. Manage Organizations. Use when the user wants to interact with Reviewflowz data.", "description_zh": "", "downloads": 26, "homepage": "https://clawhub.ai/gora050/reviewflowz", "iconUrl": null, "installs": 0, "name": "Reviewflowz", "ownerName": "gora050", "score": 100000, "slug": "reviewflowz", "source": "clawhub", "stars": 0, "tags": null, "updated_at": 1776698744718, "version": "1.0.0"}, {"category": "", "created_at": 1774876076832, "description": "Multi-agent orchestration patterns for production deployments. Covers sub-agent QC workflow, model staggering across 5+ models, cross-validation patterns, fa...", "description_zh": "", "downloads": 26, "homepage": "https://clawhub.ai/samledger67-dotcom/pl-agent-orchestration", "iconUrl": null, "installs": 0, "name": "PL Agent Orchestration", "ownerName": "samledger67-dotcom", "score": 100000, "slug": "pl-agent-orchestration", "source": "clawhub", "stars": 0, "tags": null, "updated_at": 1776698744713, "version": "1.0.0"}, {"category": "", "created_at": 1774877714272, "description": "Regal integration. Manage Organizations, Pipelines, Users, Goals, Filters. Use when the user wants to interact with Regal data.", "description_zh": "", "downloads": 26, "homepage": "https://clawhub.ai/membranedev/regal", "iconUrl": null, "installs": 0, "name": "Regal", "ownerName": "membranedev", "score": 100000, "slug": "regal", "source": "clawhub", "stars": 0, "tags": null, "updated_at": 1776698744711, "version": "1.0.0"}, {"category": "", "created_at": 1774902488573, "description": "Deconstruct competitor products to understand cost structure. Use for competitive pricing and cost analysis.", "description_zh": "", "downloads": 26, "homepage": "https://clawhub.ai/linuszz/reverse-costing", "iconUrl": null, "installs": 0, "name": "Reverse Costing", "ownerName": "linuszz", "score": 100000, "slug": "reverse-costing", "source": "clawhub", "stars": 0, "tags": null, "updated_at": 1776698744707, "version": "1.0.0"}, {"category": "", "created_at": 1774948929328, "description": "Siteleaf integration. Manage Sites, Users. Use when the user wants to interact with Siteleaf data.", "description_zh": "", "downloads": 26, "homepage": "https://clawhub.ai/gora050/siteleaf", "iconUrl": null, "installs": 0, "name": "Siteleaf", "ownerName": "gora050", "score": 100000, "slug": "siteleaf", "source": "clawhub", "stars": 0, "tags": null, "updated_at": 1776698744702, "version": "1.0.0"}, {"category": "", "created_at": 1774905073591, "description": "Extract and analyze YouTube video content using yt-dlp. Supports metadata extraction, transcript/subtitle download, comment retrieval, playlist analysis, and...", "description_zh": "", "downloads": 26, "homepage": "https://clawhub.ai/xuya227939/youtube-research-kit", "iconUrl": null, "installs": 1, "name": "youtube-research-kit", "ownerName": "xuya227939", "score": 100000, "slug": "youtube-research-kit", "source": "clawhub", "stars": 0, "tags": null, "updated_at": 1776698744699, "version": "1.2.0"}, {"category": "", "created_at": 1774901275752, "description": "Play D&D autonomously as an AI agent. Join parties, create characters, explore dungeons, fight monsters, and write journals in Railroaded — an autonomous D&D...", "description_zh": "", "downloads": 26, "homepage": "https://clawhub.ai/kimosahy/railroaded", "iconUrl": null, "installs": 0, "name": "Railroaded", "ownerName": "kimosahy", "score": 100000, "slug": "railroaded", "source": "clawhub", "stars": 0, "tags": ["ai-agents", "autonomous", "dnd", "gaming", "mcp", "roleplaying"], "updated_at": 1776698744697, "version": "1.0.0"}, {"category": "", "created_at": 1774887409757, "description": "EU salary data, AI job displacement risk, Latvia wage statistics — 30+ countries, NACE/ISCO classification", "description_zh": "", "downloads": 26, "homepage": "https://clawhub.ai/drivenbymyai-max/salary-intelligence", "iconUrl": null, "installs": 1, "name": "Salary Intelligence", "ownerName": "drivenbymyai-max", "score": 100000, "slug": "salary-intelligence", "source": "clawhub", "stars": 0, "tags": null, "updated_at": 1776698744695, "version": "1.0.0"}, {"category": "", "created_at": 1774923147008, "description": "A hardcore spatial physics and dialectical reasoning framework. Teaches the OpenClaw agent to process environmental controls using Chinese antonym morphologi...", "description_zh": "", "downloads": 26, "homepage": "https://clawhub.ai/spacesq/s2-hanzi-antonym-logic", "iconUrl": null, "installs": 0, "name": "S2 Hanzi Antonym Logic", "ownerName": "spacesq", "score": 100000, "slug": "s2-hanzi-antonym-logic", "source": "clawhub", "stars": 0, "tags": null, "updated_at": 1776698744693, "version": "1.0.0"}, {"category": "", "created_at": 1774843725446, "description": "Learns your tool preferences while staying capable of using anything. Adapts to your stack.", "description_zh": "", "downloads": 26, "homepage": "https://clawhub.ai/litiao1224/tools-litiao", "iconUrl": null, "installs": 0, "name": "Tools Litiao", "ownerName": "litiao1224", "score": 100000, "slug": "tools-litiao", "source": "clawhub", "stars": 0, "tags": null, "updated_at": 1776698744692, "version": "1.0.0"}, {"category": "", "created_at": 1774902407020, "description": "Ploi integration. Manage data, records, and automate workflows. Use when the user wants to interact with Ploi data.", "description_zh": "", "downloads": 26, "homepage": "https://clawhub.ai/gora050/ploi", "iconUrl": null, "installs": 0, "name": "Ploi", "ownerName": "gora050", "score": 100000, "slug": "ploi", "source": "clawhub", "stars": 0, "tags": null, "updated_at": 1776698744690, "version": "1.0.0"}, {"category": "", "created_at": 1774888439824, "description": "SignRequest integration. Manage SignRequests, Teams, Users. Use when the user wants to interact with SignRequest data.", "description_zh": "", "downloads": 26, "homepage": "https://clawhub.ai/membranedev/signrequest", "iconUrl": null, "installs": 0, "name": "Signrequest", "ownerName": "membranedev", "score": 100000, "slug": "signrequest", "source": "clawhub", "stars": 0, "tags": null, "updated_at": 1776698744684, "version": "1.0.0"}, {"category": "", "created_at": 1774946728670, "description": "Reviews.io integration. Manage Reviews, Products, Companies. Use when the user wants to interact with Reviews.io data.", "description_zh": "", "downloads": 26, "homepage": "https://clawhub.ai/membranedev/reviewsio", "iconUrl": null, "installs": 0, "name": "Reviewsio", "ownerName": "membranedev", "score": 100000, "slug": "reviewsio", "source": "clawhub", "stars": 0, "tags": null, "updated_at": 1776698744682, "version": "1.0.0"}, {"category": "", "created_at": 1774885048282, "description": "When the user wants to create, optimize, or validate URL slugs for content pages. Also use when the user mentions \"URL slug,\" \"URL path,\" \"blog URL,\" \"articl...", "description_zh": "", "downloads": 26, "homepage": "https://clawhub.ai/kostja94/url-slug-generator", "iconUrl": null, "installs": 0, "name": "url-slug-generator", "ownerName": "kostja94", "score": 100000, "slug": "url-slug-generator", "source": "clawhub", "stars": 0, "tags": null, "updated_at": 1776698744675, "version": "1.0.0"}, {"category": "", "created_at": 1774838131248, "description": "Generate AI videos, images, speech, and music using varg. Use when creating videos, animations, talking characters, slideshows, product showcases, social con...", "description_zh": "", "downloads": 26, "homepage": "https://clawhub.ai/securityqq/vargai", "iconUrl": null, "installs": 0, "name": "vargai", "ownerName": "securityqq", "score": 100000, "slug": "vargai", "source": "clawhub", "stars": 0, "tags": null, "updated_at": 1776698744670, "version": "2.0.3"}, {"category": "", "created_at": 1774948083744, "description": "Expert IBM Transformation Extender (WTX/ITX/Sterling TX) development assistant. Invoke this skill whenever the user mentions WTX, ITX, IBM Transformation Ext...", "description_zh": "", "downloads": 26, "homepage": "https://clawhub.ai/shoaibkhan/stx-copilot", "iconUrl": null, "installs": 0, "name": "STX Copilot", "ownerName": "shoaibkhan", "score": 100000, "slug": "stx-copilot", "source": "clawhub", "stars": 0, "tags": null, "updated_at": 1776698744667, "version": "1.0.0"}, {"category": "", "created_at": 1774897154853, "description": "Pre-trade token safety scanner for 21+ EVM chains. 6-layer deep scan: contract safety, liquidity health, deployer profiling, holder distribution, trading pat...", "description_zh": "", "downloads": 26, "homepage": "https://clawhub.ai/supah-based/supah-token-guardian", "iconUrl": null, "installs": 0, "name": "SUPAH Token Guardian", "ownerName": "supah-based", "score": 100000, "slug": "supah-token-guardian", "source": "clawhub", "stars": 0, "tags": null, "updated_at": 1776698744658, "version": "1.3.0"}, {"category": "", "created_at": 1774864425240, "description": "Xueersi Parent Comment Generator: Generate warm, appropriate parent signature comments for report cards, homework books, and school communication forms based...", "description_zh": "", "downloads": 26, "homepage": "https://clawhub.ai/zhouzhi-tal/xueersi-parent-comment", "iconUrl": null, "installs": 0, "name": "Xueersi Parent Comment Generator", "ownerName": "zhouzhi-tal", "score": 100000, "slug": "xueersi-parent-comment", "source": "clawhub", "stars": 0, "tags": ["chinese", "education", "k12", "xueersi"], "updated_at": 1776698744649, "version": "1.0.0"}, {"category": "", "created_at": 1774874424716, "description": "Popupsmart integration. Manage Popups, Integrations, Domains, Accounts. Use when the user wants to interact with Popupsmart data.", "description_zh": "", "downloads": 26, "homepage": "https://clawhub.ai/membranedev/popupsmart", "iconUrl": null, "installs": 0, "name": "Popupsmart", "ownerName": "membranedev", "score": 100000, "slug": "popupsmart", "source": "clawhub", "stars": 0, "tags": null, "updated_at": 1776698744642, "version": "1.0.0"}, {"category": "", "created_at": 1774831912140, "description": "Generate AI images from text prompts — one API key for GPT Image, Gemini, Seedream, and 10+ models. No juggling subscriptions. Images saved to your YouMind k...", "description_zh": "", "downloads": 26, "homepage": "https://clawhub.ai/dophinl/youmind-image-generator", "iconUrl": null, "installs": 2, "name": "AI Image Generator", "ownerName": "dophinl", "score": 100000, "slug": "youmind-image-generator", "source": "clawhub", "stars": 0, "tags": null, "updated_at": 1776698744640, "version": "1.0.0"}, {"category": "", "created_at": 1774893925462, "description": "Supportivekoala integration. Manage Organizations, Pipelines, Users, Filters, Projects. Use when the user wants to interact with Supportivekoala data.", "description_zh": "", "downloads": 26, "homepage": "https://clawhub.ai/gora050/supportivekoala", "iconUrl": null, "installs": 0, "name": "Supportivekoala", "ownerName": "gora050", "score": 100000, "slug": "supportivekoala", "source": "clawhub", "stars": 0, "tags": null, "updated_at": 1776698744637, "version": "1.0.0"}, {"category": "", "created_at": 1774896877557, "description": "Quaderno integration. Manage data, records, and automate workflows. Use when the user wants to interact with Quaderno data.", "description_zh": "", "downloads": 26, "homepage": "https://clawhub.ai/gora050/quaderno", "iconUrl": null, "installs": 0, "name": "Quaderno", "ownerName": "gora050", "score": 100000, "slug": "quaderno", "source": "clawhub", "stars": 0, "tags": null, "updated_at": 1776698744635, "version": "1.0.0"}, {"category": "", "created_at": 1774867141462, "description": "Turn any research request into a structured, reviewable brief — fact collection, risk analysis, and recommendation in three deterministic steps.", "description_zh": "", "downloads": 26, "homepage": "https://clawhub.ai/baobaodawang-creater/search-analyst-pair", "iconUrl": null, "installs": 0, "name": "Search Analyst Pair", "ownerName": "baobaodawang-creater", "score": 100000, "slug": "search-analyst-pair", "source": "clawhub", "stars": 0, "tags": null, "updated_at": 1776698744633, "version": "1.1.0"}, {"category": "", "created_at": 1774867278360, "description": "Scan token contract security risk and return a structured summary including score, tax, holder concentration, and LP lock status. Supported chains are bsc, e...", "description_zh": "", "downloads": 26, "homepage": "https://clawhub.ai/certik-ai/token-scan", "iconUrl": null, "installs": 1, "name": "Token Scan", "ownerName": "certik-ai", "score": 100000, "slug": "token-scan", "source": "clawhub", "stars": 0, "tags": null, "updated_at": 1776698744631, "version": "1.0.0"}, {"category": "", "created_at": 1774860486379, "description": "Reference tool for devtools — covers intro, quickstart, patterns and more. Quick lookup for Streakup concepts, best practices, and implementation patterns.", "description_zh": "", "downloads": 26, "homepage": "https://clawhub.ai/ckchzh/streakup", "iconUrl": null, "installs": 0, "name": "Streakup", "ownerName": "ckchzh", "score": 100000, "slug": "streakup", "source": "clawhub", "stars": 0, "tags": null, "updated_at": 1776698744626, "version": "2.0.2"}, {"category": "", "created_at": 1774955565921, "description": "RegFox integration. Manage Events. Use when the user wants to interact with RegFox data.", "description_zh": "", "downloads": 26, "homepage": "https://clawhub.ai/gora050/regfox", "iconUrl": null, "installs": 0, "name": "Regfox", "ownerName": "gora050", "score": 100000, "slug": "regfox", "source": "clawhub", "stars": 0, "tags": null, "updated_at": 1776698744624, "version": "1.0.0"}, {"category": "", "created_at": 1774948875737, "description": "Riddle Quiz Maker integration. Manage Quizs, Users, Categories. Use when the user wants to interact with Riddle Quiz Maker data.", "description_zh": "", "downloads": 26, "homepage": "https://clawhub.ai/gora050/riddle-quiz-maker", "iconUrl": null, "installs": 0, "name": "Riddle Quiz Maker", "ownerName": "gora050", "score": 100000, "slug": "riddle-quiz-maker", "source": "clawhub", "stars": 0, "tags": null, "updated_at": 1776698744623, "version": "1.0.0"}, {"category": "", "created_at": 1774954000078, "description": "Salestown integration. Manage data, records, and automate workflows. Use when the user wants to interact with Salestown data.", "description_zh": "", "downloads": 26, "homepage": "https://clawhub.ai/gora050/salestown", "iconUrl": null, "installs": 1, "name": "Salestown", "ownerName": "gora050", "score": 100000, "slug": "salestown", "source": "clawhub", "stars": 0, "tags": null, "updated_at": 1776698744615, "version": "1.0.0"}, {"category": "", "created_at": 1774852719157, "description": "Reference tool for devtools — covers intro, quickstart, patterns and more. Quick lookup for Portcheck concepts, best practices, and implementation patterns.", "description_zh": "", "downloads": 26, "homepage": "https://clawhub.ai/bytesagain1/portcheck", "iconUrl": null, "installs": 0, "name": "Portcheck", "ownerName": "bytesagain1", "score": 100000, "slug": "portcheck", "source": "clawhub", "stars": 0, "tags": null, "updated_at": 1776698744612, "version": "2.0.3"}, {"category": "", "created_at": 1774910190788, "description": "Fast lightweight verification pass for recent work. Use proactively after medium or large tasks, coding passes, app changes, or long replies when you need a...", "description_zh": "", "downloads": 26, "homepage": "https://clawhub.ai/noahfleming/simple-verifier", "iconUrl": null, "installs": 1, "name": "Simple Verifier", "ownerName": "noahfleming", "score": 100000, "slug": "simple-verifier", "source": "clawhub", "stars": 0, "tags": null, "updated_at": 1776698744610, "version": "1.0.0"}]}