{"page": 497, "total_pages": 522, "total": 26073, "skills": [{"category": "", "created_at": 1774901341026, "description": "Route4Me integration. Manage Users, Addresses, Routes, Territories, Geofences, Contacts. Use when the user wants to interact with Route4Me data.", "description_zh": "", "downloads": 26, "homepage": "https://clawhub.ai/gora050/route4me", "iconUrl": null, "installs": 0, "name": "Route4Me", "ownerName": "gora050", "score": 100000, "slug": "route4me", "source": "clawhub", "stars": 0, "tags": null, "updated_at": 1776698744605, "version": "1.0.0"}, {"category": "", "created_at": 1774911398451, "description": "Workamajig integration. Manage data, records, and automate workflows. Use when the user wants to interact with Workamajig data.", "description_zh": "", "downloads": 26, "homepage": "https://clawhub.ai/gora050/workamajig", "iconUrl": null, "installs": 0, "name": "Workamajig", "ownerName": "gora050", "score": 100000, "slug": "workamajig", "source": "clawhub", "stars": 0, "tags": null, "updated_at": 1776698744596, "version": "1.0.0"}, {"category": "", "created_at": 1774851447269, "description": "Control Sony Bravia TV — power, volume, apps, playback, and full remote navigation via REST API and IRCC on local network.", "description_zh": "", "downloads": 26, "homepage": "https://clawhub.ai/ssupppp/sony-bravia-tv", "iconUrl": null, "installs": 0, "name": "Sony Tv", "ownerName": "ssupppp", "score": 100000, "slug": "sony-bravia-tv", "source": "clawhub", "stars": 0, "tags": ["bravia", "iot", "smart-home", "sony", "tv"], "updated_at": 1776698744588, "version": "1.1.0"}, {"category": "", "created_at": 1774888528410, "description": "Review code changes for security vulnerabilities. Checks for OWASP Top 10, secrets exposure, injection flaws, auth issues, and insecure defaults. Use when re...", "description_zh": "", "downloads": 26, "homepage": "https://clawhub.ai/solomonneas/sn-security-review", "iconUrl": null, "installs": 1, "name": "Security Review", "ownerName": "solomonneas", "score": 100000, "slug": "sn-security-review", "source": "clawhub", "stars": 0, "tags": null, "updated_at": 1776698744573, "version": "1.0.0"}, {"category": "", "created_at": 1774882424370, "description": "Move to TypeScript type mapping in @aptos-labs/ts-sdk: u64/u128/u256 as bigint, address as string, TypeTag, functionArguments and typeArguments. Triggers on:...", "description_zh": "", "downloads": 26, "homepage": "https://clawhub.ai/iskysun96/ts-sdk-types", "iconUrl": null, "installs": 0, "name": "Ts Sdk Types", "ownerName": "iskysun96", "score": 100000, "slug": "ts-sdk-types", "source": "clawhub", "stars": 0, "tags": null, "updated_at": 1776698744570, "version": "1.0.0"}, {"category": "", "created_at": 1774905886884, "description": "Agent guide for operating Sequenzy. Use when Codex needs to authenticate, inspect identity, manage subscribers, send a transactional email, read delivery sta...", "description_zh": "", "downloads": 26, "homepage": "https://clawhub.ai/polnikale/sequenzy", "iconUrl": null, "installs": 0, "name": "sequenzy", "ownerName": "polnikale", "score": 100000, "slug": "sequenzy", "source": "clawhub", "stars": 0, "tags": null, "updated_at": 1776698744561, "version": "1.0.0"}, {"category": "", "created_at": 1774886284857, "description": "Automatically review X/Twitter bookmarks for useful tools, projects, repos, products, and ideas. Fetches via xurl, analyses for value, and outputs an actiona...", "description_zh": "", "downloads": 26, "homepage": "https://clawhub.ai/bearly-hodling/x-bookmarks-digest", "iconUrl": null, "installs": 0, "name": "X Bookmarks Digest", "ownerName": "bearly-hodling", "score": 100000, "slug": "x-bookmarks-digest", "source": "clawhub", "stars": 0, "tags": null, "updated_at": 1776698744559, "version": "1.0.0"}, {"category": "", "created_at": 1774905816347, "description": "ProWorkflow integration. Manage Clients, Staffs, Quotes, Templates, Messages, Groups. Use when the user wants to interact with ProWorkflow data.", "description_zh": "", "downloads": 26, "homepage": "https://clawhub.ai/gora050/proworkflow", "iconUrl": null, "installs": 0, "name": "Proworkflow", "ownerName": "gora050", "score": 100000, "slug": "proworkflow", "source": "clawhub", "stars": 0, "tags": null, "updated_at": 1776698744555, "version": "1.0.0"}, {"category": "", "created_at": 1774920426229, "description": "During peak sales (Black Friday, Cyber Monday, Singles' Day, flash sales), align hot-SKU remaining inventory with live ad spend—surface sell-through risk, au...", "description_zh": "", "downloads": 26, "homepage": "https://clawhub.ai/rijoyai/promp-stock", "iconUrl": null, "installs": 0, "name": "Promo Stack", "ownerName": "rijoyai", "score": 100000, "slug": "promp-stock", "source": "clawhub", "stars": 0, "tags": null, "updated_at": 1776698744553, "version": "1.0.0"}, {"category": "", "created_at": 1774945300693, "description": "Reference tool for devtools — covers intro, quickstart, patterns and more. Quick lookup for Wakatime Lite concepts, best practices, and implementation patterns.", "description_zh": "", "downloads": 26, "homepage": "https://clawhub.ai/bytesagain1/wakatime-lite", "iconUrl": null, "installs": 0, "name": "Wakatime Lite", "ownerName": "bytesagain1", "score": 100000, "slug": "wakatime-lite", "source": "clawhub", "stars": 0, "tags": null, "updated_at": 1776698744551, "version": "2.0.3"}, {"category": "", "created_at": 1774901390028, "description": "Generate Schema.org JSON-LD structured data markup for Person, Organization, Product, FAQ, HowTo, Article, LocalBusiness, Event, WebSite, BreadcrumbList, Vid...", "description_zh": "", "downloads": 26, "homepage": "https://clawhub.ai/sharozdawa/schema-gen", "iconUrl": null, "installs": 0, "name": "Schema Gen", "ownerName": "sharozdawa", "score": 100000, "slug": "schema-gen", "source": "clawhub", "stars": 0, "tags": null, "updated_at": 1776698744537, "version": "1.0.0"}, {"category": "", "created_at": 1774898674337, "description": "Round 78 verification skill for ClawHub publishing workflow testing. Demonstrates skill creation, packaging, and publication process.", "description_zh": "", "downloads": 26, "homepage": "https://clawhub.ai/wyblhl/round-78-skill", "iconUrl": null, "installs": 0, "name": "Round 78 Skill", "ownerName": "wyblhl", "score": 100000, "slug": "round-78-skill", "source": "clawhub", "stars": 0, "tags": null, "updated_at": 1776698744528, "version": "1.0.0"}, {"category": "", "created_at": 1774914917802, "description": "Woodpecker.co integration. Manage data, records, and automate workflows. Use when the user wants to interact with Woodpecker.co data.", "description_zh": "", "downloads": 26, "homepage": "https://clawhub.ai/gora050/woodpeckerco", "iconUrl": null, "installs": 1, "name": "Woodpeckerco", "ownerName": "gora050", "score": 100000, "slug": "woodpeckerco", "source": "clawhub", "stars": 0, "tags": null, "updated_at": 1776698744521, "version": "1.0.0"}, {"category": "", "created_at": 1774924930191, "description": "Sharp, opinionated 'so what' analysis of AI/tech developments — strategic implications of new models, architectural shifts, competitive dynamics, and trend j...", "description_zh": "", "downloads": 26, "homepage": "https://clawhub.ai/trip1ewhy/tech-ai-deep-analysis", "iconUrl": null, "installs": 0, "name": "AI&Tech Deep Analysis", "ownerName": "trip1ewhy", "score": 100000, "slug": "tech-ai-deep-analysis", "source": "clawhub", "stars": 0, "tags": null, "updated_at": 1776698744511, "version": "1.0.0"}, {"category": "", "created_at": 1774904798723, "description": "Sanitize logs, configs, prompts, stack traces, and skill content before they are shared publicly. Use when a user wants a local, low-risk pass to remove API...", "description_zh": "", "downloads": 26, "homepage": "https://clawhub.ai/nighty35628/safe-share", "iconUrl": null, "installs": 0, "name": "Safe Share", "ownerName": "nighty35628", "score": 100000, "slug": "safe-share", "source": "clawhub", "stars": 0, "tags": ["developer-tools", "privacy", "productivity", "security"], "updated_at": 1776698744506, "version": "1.0.0"}, {"category": "", "created_at": 1774882165253, "description": "Expert in threat modeling methodologies, security architecture review, and risk assessment. Masters STRIDE, PASTA, attack trees, and security requirement ext...", "description_zh": "", "downloads": 26, "homepage": "https://clawhub.ai/solomonneas/s3-threat-modeling", "iconUrl": null, "installs": 0, "name": "S³ Threat Modeling", "ownerName": "solomonneas", "score": 100000, "slug": "s3-threat-modeling", "source": "clawhub", "stars": 0, "tags": ["pasta", "security-architecture", "stride", "threat-modeling"], "updated_at": 1776698744501, "version": "1.0.0"}, {"category": "", "created_at": 1774878163003, "description": "Auto-healing e proteção para workspaces OpenClaw. Valida e corrige problemas comuns automaticamente no startup e durante a execução. Usar quando: (1) Workspa...", "description_zh": "", "downloads": 26, "homepage": "https://clawhub.ai/elontools/workspace-guardian", "iconUrl": null, "installs": 0, "name": "Workspace Guardian", "ownerName": "elontools", "score": 100000, "slug": "workspace-guardian", "source": "clawhub", "stars": 0, "tags": null, "updated_at": 1776698744493, "version": "1.0.1"}, {"category": "", "created_at": 1774925011413, "description": "Workboard integration. Manage Organizations. Use when the user wants to interact with Workboard data.", "description_zh": "", "downloads": 26, "homepage": "https://clawhub.ai/membranedev/workboard", "iconUrl": null, "installs": 0, "name": "Workboard", "ownerName": "membranedev", "score": 100000, "slug": "workboard", "source": "clawhub", "stars": 0, "tags": null, "updated_at": 1776698744486, "version": "1.0.0"}, {"category": "", "created_at": 1774921954202, "description": "SendPulse integration. Manage data, records, and automate workflows. Use when the user wants to interact with SendPulse data.", "description_zh": "", "downloads": 26, "homepage": "https://clawhub.ai/gora050/sendpulse", "iconUrl": null, "installs": 0, "name": "Sendpulse", "ownerName": "gora050", "score": 100000, "slug": "sendpulse", "source": "clawhub", "stars": 0, "tags": null, "updated_at": 1776698744483, "version": "1.0.0"}, {"category": "", "created_at": 1774920632007, "description": "Spydra integration. Manage Organizations, Pipelines, Users, Goals, Filters. Use when the user wants to interact with Spydra data.", "description_zh": "", "downloads": 26, "homepage": "https://clawhub.ai/gora050/spydra", "iconUrl": null, "installs": 0, "name": "Spydra", "ownerName": "gora050", "score": 100000, "slug": "spydra", "source": "clawhub", "stars": 0, "tags": null, "updated_at": 1776698744481, "version": "1.0.0"}, {"category": "", "created_at": 1774895324553, "description": "Create PydanticAI agents with type-safe dependencies, structured outputs, and proper configuration. Use when building AI agents, creating chat systems, or in...", "description_zh": "", "downloads": 26, "homepage": "https://clawhub.ai/anderskev/pydantic-ai-agent-creation", "iconUrl": null, "installs": 0, "name": "Pydantic Ai Agent Creation", "ownerName": "anderskev", "score": 100000, "slug": "pydantic-ai-agent-creation", "source": "clawhub", "stars": 0, "tags": null, "updated_at": 1776698744477, "version": "1.0.0"}, {"category": "", "created_at": 1774876527427, "description": "How to build, sign, submit, and simulate transactions in @aptos-labs/ts-sdk. Covers build.simple(), signAndSubmitTransaction(), waitForTransaction(), simulat...", "description_zh": "", "downloads": 26, "homepage": "https://clawhub.ai/iskysun96/ts-sdk-transactions", "iconUrl": null, "installs": 0, "name": "Ts Sdk Transactions", "ownerName": "iskysun96", "score": 100000, "slug": "ts-sdk-transactions", "source": "clawhub", "stars": 0, "tags": null, "updated_at": 1776698744475, "version": "1.0.0"}, {"category": "", "created_at": 1774909125921, "description": "Soax integration. Manage Persons, Organizations, Deals, Leads, Projects, Activities and more. Use when the user wants to interact with Soax data.", "description_zh": "", "downloads": 26, "homepage": "https://clawhub.ai/gora050/soax", "iconUrl": null, "installs": 0, "name": "Soax", "ownerName": "gora050", "score": 100000, "slug": "soax", "source": "clawhub", "stars": 0, "tags": null, "updated_at": 1776698744472, "version": "1.0.0"}, {"category": "", "created_at": 1774873149511, "description": "Smart auto-updater with AI-powered impact assessment. Checks updates, analyzes changes, evaluates system impact, and decides whether to auto-update or just r...", "description_zh": "", "downloads": 26, "homepage": "https://clawhub.ai/litiao1224/smart-auto-updater-litiao", "iconUrl": null, "installs": 0, "name": "Smart Auto Updater Litiao", "ownerName": "litiao1224", "score": 100000, "slug": "smart-auto-updater-litiao", "source": "clawhub", "stars": 0, "tags": null, "updated_at": 1776698744463, "version": "1.0.0"}, {"category": "", "created_at": 1774893762161, "description": "ScreenshotOne integration. Manage Screenshots, Usages. Use when the user wants to interact with ScreenshotOne data.", "description_zh": "", "downloads": 26, "homepage": "https://clawhub.ai/gora050/screenshotone", "iconUrl": null, "installs": 0, "name": "Screenshotone", "ownerName": "gora050", "score": 100000, "slug": "screenshotone", "source": "clawhub", "stars": 0, "tags": null, "updated_at": 1776698744447, "version": "1.0.0"}, {"category": "", "created_at": 1774877776121, "description": "Robocorp integration. Manage Organizations. Use when the user wants to interact with Robocorp data.", "description_zh": "", "downloads": 26, "homepage": "https://clawhub.ai/membranedev/robocorp", "iconUrl": null, "installs": 0, "name": "Robocorp", "ownerName": "membranedev", "score": 100000, "slug": "robocorp", "source": "clawhub", "stars": 0, "tags": null, "updated_at": 1776698744445, "version": "1.0.0"}, {"category": "", "created_at": 1774911299359, "description": "When the user wants to create, optimize, or audit use case pages. Also use when the user mentions \"use cases,\" \"use case page,\" \"for [role],\" \"by persona,\" \"...", "description_zh": "", "downloads": 26, "homepage": "https://clawhub.ai/kostja94/use-cases-page-generator", "iconUrl": null, "installs": 0, "name": "use-cases-page-generator", "ownerName": "kostja94", "score": 100000, "slug": "use-cases-page-generator", "source": "clawhub", "stars": 0, "tags": null, "updated_at": 1776698744439, "version": "1.2.0"}, {"category": "", "created_at": 1774883514234, "description": "UK National Rail CLI — live departures, arrivals, station search, destination filtering, batch station search from stdin, and lightweight field selection for...", "description_zh": "", "downloads": 26, "homepage": "https://clawhub.ai/shan8851/rail-cli", "iconUrl": null, "installs": 0, "name": "rail-cli", "ownerName": "shan8851", "score": 100000, "slug": "rail-cli", "source": "clawhub", "stars": 0, "tags": null, "updated_at": 1776698744436, "version": "0.2.1"}, {"category": "", "created_at": 1774909083171, "description": "When the user wants to create, optimize, or audit a showcase or gallery page for user-generated content. Also use when the user mentions \"showcase,\" \"gallery...", "description_zh": "", "downloads": 26, "homepage": "https://clawhub.ai/kostja94/showcase-page-generator", "iconUrl": null, "installs": 0, "name": "showcase-page-generator", "ownerName": "kostja94", "score": 100000, "slug": "showcase-page-generator", "source": "clawhub", "stars": 0, "tags": null, "updated_at": 1776698744430, "version": "1.0.0"}, {"category": "", "created_at": 1774903730256, "description": "Analyze any OpenClaw skill and generate a comprehensive usage guide. Extracts examples, best practices, configuration options, and common pitfalls from SKILL...", "description_zh": "", "downloads": 26, "homepage": "https://clawhub.ai/xiaoxiao19810912/skill-usage-analyzer", "iconUrl": null, "installs": 0, "name": "Skill Usage Analyzer", "ownerName": "xiaoxiao19810912", "score": 100000, "slug": "skill-usage-analyzer", "source": "clawhub", "stars": 0, "tags": null, "updated_at": 1776698744420, "version": "1.0.0"}, {"category": "", "created_at": 1774909136177, "description": "When the user wants to create, optimize, or audit solutions pages. Also use when the user mentions \"solutions,\" \"solutions page,\" \"by industry,\" \"industry so...", "description_zh": "", "downloads": 26, "homepage": "https://clawhub.ai/kostja94/solutions-page-generator", "iconUrl": null, "installs": 0, "name": "solutions-page-generator", "ownerName": "kostja94", "score": 100000, "slug": "solutions-page-generator", "source": "clawhub", "stars": 0, "tags": null, "updated_at": 1776698744417, "version": "1.1.0"}, {"category": "", "created_at": 1774877949770, "description": "Smaily integration. Manage Persons, Organizations, Deals, Activities, Notes, Files and more. Use when the user wants to interact with Smaily data.", "description_zh": "", "downloads": 26, "homepage": "https://clawhub.ai/gora050/smaily", "iconUrl": null, "installs": 0, "name": "Smaily", "ownerName": "gora050", "score": 100000, "slug": "smaily", "source": "clawhub", "stars": 0, "tags": null, "updated_at": 1776698744412, "version": "1.0.0"}, {"category": "", "created_at": 1774954121373, "description": "SMS Everyone integration. Manage Users, Groups, Contacts, Lists, Campaigns, Templates. Use when the user wants to interact with SMS Everyone data.", "description_zh": "", "downloads": 26, "homepage": "https://clawhub.ai/gora050/sms-everyone", "iconUrl": null, "installs": 0, "name": "Sms Everyone", "ownerName": "gora050", "score": 100000, "slug": "sms-everyone", "source": "clawhub", "stars": 0, "tags": null, "updated_at": 1776698744410, "version": "1.0.0"}, {"category": "", "created_at": 1774952655030, "description": "Search X (Twitter) posts using the xAI API. Use when the user wants to find tweets, search X/Twitter, look up what people are saying on X, or find social med...", "description_zh": "", "downloads": 26, "homepage": "https://clawhub.ai/perfectworldltd/x-search-1-0-0", "iconUrl": null, "installs": 1, "name": "X Search 1.0.0", "ownerName": "perfectworldltd", "score": 100000, "slug": "x-search-1-0-0", "source": "clawhub", "stars": 0, "tags": null, "updated_at": 1776698744402, "version": "1.0.0"}, {"category": "", "created_at": 1774876345938, "description": "Survicate integration. Manage Persons, Organizations, Leads, Users, Roles, Filters and more. Use when the user wants to interact with Survicate data.", "description_zh": "", "downloads": 26, "homepage": "https://clawhub.ai/gora050/survicate", "iconUrl": null, "installs": 0, "name": "Survicate", "ownerName": "gora050", "score": 100000, "slug": "survicate", "source": "clawhub", "stars": 0, "tags": null, "updated_at": 1776698744399, "version": "1.0.0"}, {"category": "", "created_at": 1774865187444, "description": "Reference tool for devtools — covers intro, quickstart, patterns and more. Quick lookup for Quickfind concepts, best practices, and implementation patterns.", "description_zh": "", "downloads": 26, "homepage": "https://clawhub.ai/bytesagain1/quickfind", "iconUrl": null, "installs": 0, "name": "Quickfind", "ownerName": "bytesagain1", "score": 100000, "slug": "quickfind", "source": "clawhub", "stars": 0, "tags": null, "updated_at": 1776698744382, "version": "2.0.2"}, {"category": "", "created_at": 1774913260280, "description": "Information assistant for Starbucks. Search products, news, financials, and official resources for Starbucks.", "description_zh": "", "downloads": 26, "homepage": "https://clawhub.ai/hanxueyuan/starbucks", "iconUrl": null, "installs": 0, "name": "Starbucks", "ownerName": "hanxueyuan", "score": 100000, "slug": "starbucks", "source": "clawhub", "stars": 0, "tags": null, "updated_at": 1776698744371, "version": "0.1.1"}, {"category": "", "created_at": 1774867395399, "description": "Execute SendIt social publishing workflows in OpenClaw using the official @senditapp/openclaw plugin tools.", "description_zh": "", "downloads": 26, "homepage": "https://clawhub.ai/shree-git/sendit-openclaw", "iconUrl": null, "installs": 0, "name": "SendIt OpenClaw", "ownerName": "shree-git", "score": 100000, "slug": "sendit-openclaw", "source": "clawhub", "stars": 0, "tags": null, "updated_at": 1776698744368, "version": "0.1.0"}, {"category": "", "created_at": 1774916086502, "description": "Remove burnt-in subtitles or on-screen text from an HTTPS video via WeryAI (video-subtitle-erase). Use when the user wants subtitle or text removal, not tran...", "description_zh": "", "downloads": 26, "homepage": "https://clawhub.ai/zoucdr/video-tool-subtitle-erase", "iconUrl": null, "installs": 0, "name": "WeryAI video tool — subtitle erase", "ownerName": "zoucdr", "score": 100000, "slug": "video-tool-subtitle-erase", "source": "clawhub", "stars": 0, "tags": null, "updated_at": 1776698704886, "version": "1.0.0"}, {"category": "", "created_at": 1774887394982, "description": "Write high-quality YARA-X detection rules for malware identification and threat hunting. Covers naming conventions, string selection, performance optimizatio...", "description_zh": "", "downloads": 26, "homepage": "https://clawhub.ai/solomonneas/s3-yara-authoring", "iconUrl": null, "installs": 0, "name": "S³ YARA Rule Authoring", "ownerName": "solomonneas", "score": 100000, "slug": "s3-yara-authoring", "source": "clawhub", "stars": 0, "tags": ["detection", "malware", "signatures", "threat-hunting", "yara"], "updated_at": 1776698704882, "version": "1.0.0"}, {"category": "", "created_at": 1774918840133, "description": "Sortino reference tool. Use when working with sortino in finance contexts.", "description_zh": "", "downloads": 26, "homepage": "https://clawhub.ai/bytesagain3/sortino", "iconUrl": null, "installs": 0, "name": "Sortino", "ownerName": "bytesagain3", "score": 100000, "slug": "sortino", "source": "clawhub", "stars": 0, "tags": null, "updated_at": 1776698704879, "version": "1.0.0"}, {"category": "", "created_at": 1774871668071, "description": "Push by Techulus integration. Manage data, records, and automate workflows. Use when the user wants to interact with Push by Techulus data.", "description_zh": "", "downloads": 26, "homepage": "https://clawhub.ai/membranedev/push-by-techulus", "iconUrl": null, "installs": 0, "name": "Push By Techulus", "ownerName": "membranedev", "score": 100000, "slug": "push-by-techulus", "source": "clawhub", "stars": 0, "tags": null, "updated_at": 1776698704872, "version": "1.0.0"}, {"category": "", "created_at": 1774841717477, "description": "Agente especialista em Redação para FUVEST — 1º dia da 2ª fase, eliminatória (zero na redação = eliminado). FUVEST 2026 introduziu novo formato: candidato es...", "description_zh": "", "downloads": 26, "homepage": "https://clawhub.ai/antoniovfranco/agente-redacao", "iconUrl": null, "installs": 0, "name": "Agente Redacao", "ownerName": "antoniovfranco", "score": 100000, "slug": "agente-redacao", "source": "clawhub", "stars": 0, "tags": null, "updated_at": 1776698704872, "version": "1.0.0"}, {"category": "", "created_at": 1774906829166, "description": "Polygon integration. Manage Organizations. Use when the user wants to interact with Polygon data.", "description_zh": "", "downloads": 26, "homepage": "https://clawhub.ai/gora050/polygon-integration", "iconUrl": null, "installs": 0, "name": "Polygon", "ownerName": "gora050", "score": 100000, "slug": "polygon-integration", "source": "clawhub", "stars": 0, "tags": null, "updated_at": 1776698704869, "version": "1.0.0"}, {"category": "", "created_at": 1774879789093, "description": "A complete shell-native toolkit for the Agent Motel sanctuary, enabling check-in, social threads, recalibration, and collective dreaming.", "description_zh": "", "downloads": 26, "homepage": "https://clawhub.ai/nikthecrick/agent-motel-protocol", "iconUrl": null, "installs": 0, "name": "Agent Motel: Social & Recalibration Protocol", "ownerName": "nikthecrick", "score": 100000, "slug": "agent-motel-protocol", "source": "clawhub", "stars": 0, "tags": null, "updated_at": 1776698704867, "version": "0.1.8"}, {"category": "", "created_at": 1774830637625, "description": "Give your AI agent persistent memory and human-in-the-loop approval — across sessions, across models. AgentMemo is a cloud API + MCP server that lets agents...", "description_zh": "", "downloads": 26, "homepage": "https://clawhub.ai/iiamit/agentmemo", "iconUrl": null, "installs": 1, "name": "Agentmemo", "ownerName": "iiamit", "score": 100000, "slug": "agentmemo", "source": "clawhub", "stars": 0, "tags": null, "updated_at": 1776698704866, "version": "1.0.1"}, {"category": "", "created_at": 1774838401571, "description": "Backtest and deploy trading strategies on Superior Trade's managed cloud.", "description_zh": "", "downloads": 26, "homepage": "https://clawhub.ai/mmmmssss8899/ai-agent-trading-on-dex", "iconUrl": null, "installs": 0, "name": "AI Agent Trading on DEX", "ownerName": "mmmmssss8899", "score": 100000, "slug": "ai-agent-trading-on-dex", "source": "clawhub", "stars": 0, "tags": null, "updated_at": 1776698704865, "version": "3.0.0"}, {"category": "", "created_at": 1774901608610, "description": "Generate production-ready US pre-market outlooks and post-market recaps in a fixed 3-section format, and maintain scheduled delivery via cron (pre-market at...", "description_zh": "", "downloads": 26, "homepage": "https://clawhub.ai/kevinksaji/us-market-briefing", "iconUrl": null, "installs": 0, "name": "US Market Briefing", "ownerName": "kevinksaji", "score": 100000, "slug": "us-market-briefing", "source": "clawhub", "stars": 0, "tags": null, "updated_at": 1776698704859, "version": "1.0.5"}, {"category": "", "created_at": 1774835240816, "description": "Agente tutor socrático do sistema de preparação para o vestibular de Antonio (FUVEST - Ciência da Computação). Especializado em ensinar qualquer disciplina d...", "description_zh": "", "downloads": 26, "homepage": "https://clawhub.ai/antoniovfranco/vestibular-tutor", "iconUrl": null, "installs": 1, "name": "Vestibular Tutor", "ownerName": "antoniovfranco", "score": 100000, "slug": "vestibular-tutor", "source": "clawhub", "stars": 0, "tags": null, "updated_at": 1776698704859, "version": "1.0.0"}, {"category": "", "created_at": 1774866570574, "description": "AgentMM memory & log management skill — gives AI agents persistent memory storage and structured logging. Use when the user asks to remember information, rec...", "description_zh": "", "downloads": 26, "homepage": "https://clawhub.ai/cers-ai/agentmm-skills", "iconUrl": null, "installs": 0, "name": "Agentmm Skills", "ownerName": "cers-ai", "score": 100000, "slug": "agentmm-skills", "source": "clawhub", "stars": 0, "tags": null, "updated_at": 1776698704856, "version": "1.0.1"}]}