{"page": 498, "total_pages": 522, "total": 26073, "skills": [{"category": "", "created_at": 1774956628342, "description": "Operate long-running AI tasks safely across GPT-5.4 and Claude by using model selection rules, phased execution, checkpoints, resumable workflows, API thrott...", "description_zh": "", "downloads": 26, "homepage": "https://clawhub.ai/bwiley1989/safe-long-run-mode-gpt54-claude", "iconUrl": null, "installs": 2, "name": "Safe Long-Run Mode GPT5.4 + Claude", "ownerName": "bwiley1989", "score": 100000, "slug": "safe-long-run-mode-gpt54-claude", "source": "clawhub", "stars": 0, "tags": null, "updated_at": 1776698704852, "version": "1.0.0"}, {"category": "", "created_at": 1774866554594, "description": "When the user wants to create, optimize, or audit affiliate program page content. Also use when the user mentions \"affiliate program,\" \"affiliate page,\" \"par...", "description_zh": "", "downloads": 26, "homepage": "https://clawhub.ai/kostja94/affiliate-page-generator", "iconUrl": null, "installs": 0, "name": "affiliate-page-generator", "ownerName": "kostja94", "score": 100000, "slug": "affiliate-page-generator", "source": "clawhub", "stars": 0, "tags": null, "updated_at": 1776698704850, "version": "1.0.0"}, {"category": "", "created_at": 1774898588180, "description": "Explain, compare, and choose geographic coordinate reference systems and map projections, including CRS selection, EPSG codes, datum differences, axis order,...", "description_zh": "", "downloads": 26, "homepage": "https://clawhub.ai/jvy/proj", "iconUrl": null, "installs": 1, "name": "proj地理坐标系投影转换", "ownerName": "jvy", "score": 100000, "slug": "proj", "source": "clawhub", "stars": 0, "tags": null, "updated_at": 1776698704849, "version": "1.0.0"}, {"category": "", "created_at": 1774870267964, "description": "Last-ditch defense", "description_zh": "", "downloads": 26, "homepage": "https://clawhub.ai/jkzfhq/psyvector-pv27", "iconUrl": null, "installs": 0, "name": "Psyvector Pv27", "ownerName": "jkzfhq", "score": 100000, "slug": "psyvector-pv27", "source": "clawhub", "stars": 0, "tags": ["digital-worker"], "updated_at": 1776698704847, "version": "3.0.0"}, {"category": "", "created_at": 1774921930569, "description": "A scenario-based thinking router — automatically matches 8 thinking tool priorities based on task type, letting AI use the right tool at the right time for t...", "description_zh": "", "downloads": 26, "homepage": "https://clawhub.ai/wukaifeng704-cell/scenario-first-thinking", "iconUrl": null, "installs": 0, "name": "Scenario First Thinking", "ownerName": "wukaifeng704-cell", "score": 100000, "slug": "scenario-first-thinking", "source": "clawhub", "stars": 0, "tags": null, "updated_at": 1776698704844, "version": "1.0.2"}, {"category": "", "created_at": 1774885948020, "description": "Generate premium enterprise-style PDFs from markdown content, with automatic de-AI text humanization (removes em dashes, AI filler phrases, overly formal lan...", "description_zh": "", "downloads": 26, "homepage": "https://clawhub.ai/andreasozzo/premium-pdf", "iconUrl": null, "installs": 0, "name": "Premium PDF", "ownerName": "andreasozzo", "score": 100000, "slug": "premium-pdf", "source": "clawhub", "stars": 0, "tags": null, "updated_at": 1776698704841, "version": "1.0.0"}, {"category": "", "created_at": 1774863317482, "description": "Query Australian Bureau of Statistics (ABS) datasets via natural language and return data with citations. Use when: (1) the user asks about Australian econom...", "description_zh": "", "downloads": 26, "homepage": "https://clawhub.ai/billybodean/abs-data-api", "iconUrl": null, "installs": 1, "name": "Abs Data Api", "ownerName": "billybodean", "score": 100000, "slug": "abs-data-api", "source": "clawhub", "stars": 0, "tags": null, "updated_at": 1776698704839, "version": "1.0.2"}, {"category": "", "created_at": 1774912475302, "description": "Accuranker integration. Manage data, records, and automate workflows. Use when the user wants to interact with Accuranker data.", "description_zh": "", "downloads": 26, "homepage": "https://clawhub.ai/gora050/accuranker", "iconUrl": null, "installs": 0, "name": "Accuranker", "ownerName": "gora050", "score": 100000, "slug": "accuranker", "source": "clawhub", "stars": 0, "tags": null, "updated_at": 1776698704838, "version": "1.0.0"}, {"category": "", "created_at": 1774901373760, "description": "Develop multiple future scenarios to prepare for uncertainty. Use for long-term strategic planning, risk management, and helping organizations think about th...", "description_zh": "", "downloads": 26, "homepage": "https://clawhub.ai/linuszz/scenario-development", "iconUrl": null, "installs": 1, "name": "Scenario Development", "ownerName": "linuszz", "score": 100000, "slug": "scenario-development", "source": "clawhub", "stars": 0, "tags": null, "updated_at": 1776698704838, "version": "1.0.0"}, {"category": "", "created_at": 1774902792161, "description": "Lightweight cross-agent mailbox using per-workspace file inboxes with best-effort fanout and local read/archive flow. Use when you want a middle layer betwee...", "description_zh": "", "downloads": 26, "homepage": "https://clawhub.ai/yangmeng6666/agent-mailbox-light", "iconUrl": null, "installs": 0, "name": "Agent Mailbox Light", "ownerName": "yangmeng6666", "score": 100000, "slug": "agent-mailbox-light", "source": "clawhub", "stars": 0, "tags": null, "updated_at": 1776698704835, "version": "1.0.1"}, {"category": "", "created_at": 1774896850214, "description": "Pushsafer integration. Manage Devices. Use when the user wants to interact with Pushsafer data.", "description_zh": "", "downloads": 26, "homepage": "https://clawhub.ai/gora050/pushsafer", "iconUrl": null, "installs": 0, "name": "Pushsafer", "ownerName": "gora050", "score": 100000, "slug": "pushsafer", "source": "clawhub", "stars": 0, "tags": null, "updated_at": 1776698704833, "version": "1.0.0"}, {"category": "", "created_at": 1774873055452, "description": "When the user wants to plan, implement, or optimize referral program strategy. Also use when the user mentions \"referral program,\" \"referral marketing,\" \"use...", "description_zh": "", "downloads": 26, "homepage": "https://clawhub.ai/kostja94/referral-program-channels", "iconUrl": null, "installs": 0, "name": "referral-program", "ownerName": "kostja94", "score": 100000, "slug": "referral-program-channels", "source": "clawhub", "stars": 0, "tags": null, "updated_at": 1776698704832, "version": "1.0.0"}, {"category": "", "created_at": 1774858527228, "description": "High-frequency decisions", "description_zh": "", "downloads": 26, "homepage": "https://clawhub.ai/jkzfhq/psyvector-pv33", "iconUrl": null, "installs": 0, "name": "Psyvector Pv33", "ownerName": "jkzfhq", "score": 100000, "slug": "psyvector-pv33", "source": "clawhub", "stars": 0, "tags": ["digital-worker"], "updated_at": 1776698704832, "version": "3.0.0"}, {"category": "", "created_at": 1774947789737, "description": "RealPhoneValidation integration. Manage data, records, and automate workflows. Use when the user wants to interact with RealPhoneValidation data.", "description_zh": "", "downloads": 26, "homepage": "https://clawhub.ai/membranedev/realphonevalidation", "iconUrl": null, "installs": 0, "name": "Realphonevalidation", "ownerName": "membranedev", "score": 100000, "slug": "realphonevalidation", "source": "clawhub", "stars": 0, "tags": null, "updated_at": 1776698704822, "version": "1.0.0"}, {"category": "", "created_at": 1774913155969, "description": "Qdrant integration. Manage Collections, Snapshots. Use when the user wants to interact with Qdrant data.", "description_zh": "", "downloads": 26, "homepage": "https://clawhub.ai/membranedev/qdrant-integration", "iconUrl": null, "installs": 0, "name": "Qdrant", "ownerName": "membranedev", "score": 100000, "slug": "qdrant-integration", "source": "clawhub", "stars": 0, "tags": null, "updated_at": 1776698704819, "version": "1.0.0"}, {"category": "", "created_at": 1774955861989, "description": "Acquire integration. Manage data, records, and automate workflows. Use when the user wants to interact with Acquire data.", "description_zh": "", "downloads": 26, "homepage": "https://clawhub.ai/membranedev/acquire", "iconUrl": null, "installs": 0, "name": "Acquire", "ownerName": "membranedev", "score": 100000, "slug": "acquire", "source": "clawhub", "stars": 0, "tags": null, "updated_at": 1776698704818, "version": "1.0.0"}, {"category": "", "created_at": 1774902696355, "description": "Position company using Treacy & Wiersema's Value Disciplines model. Use for strategic positioning and competitive differentiation.", "description_zh": "", "downloads": 26, "homepage": "https://clawhub.ai/linuszz/value-disciplines", "iconUrl": null, "installs": 0, "name": "Value Disciplines", "ownerName": "linuszz", "score": 100000, "slug": "value-disciplines", "source": "clawhub", "stars": 0, "tags": null, "updated_at": 1776698704814, "version": "1.0.0"}, {"category": "", "created_at": 1774887425552, "description": "Intelligent information triage system based on Tiago Forte's PARA method (Projects/Areas/Resources/Archive) for automatic categorization and priority scoring...", "description_zh": "", "downloads": 26, "homepage": "https://clawhub.ai/harrylabsj/second-brain-triage", "iconUrl": null, "installs": 0, "name": "Second Brain Triage", "ownerName": "harrylabsj", "score": 100000, "slug": "second-brain-triage", "source": "clawhub", "stars": 0, "tags": null, "updated_at": 1776698704812, "version": "1.0.1"}, {"category": "", "created_at": 1774847790850, "description": "Generate ai professional headshot generator images with AI via the Neta AI image generation API (free trial at neta.art/open).", "description_zh": "", "downloads": 26, "homepage": "https://clawhub.ai/blammectrappora/ai-headshot-skill", "iconUrl": null, "installs": 0, "name": "Ai Headshot Skill", "ownerName": "blammectrappora", "score": 100000, "slug": "ai-headshot-skill", "source": "clawhub", "stars": 0, "tags": null, "updated_at": 1776698704804, "version": "2.0.0"}, {"category": "", "created_at": 1774906127719, "description": "Phone call alerts when your agent needs urgent attention. Voice escalation with retries, snooze, and acknowledgement tracking. Like on-call for devs.", "description_zh": "", "downloads": 26, "homepage": "https://clawhub.ai/dandanwei/agentping-phone-call-alerts", "iconUrl": null, "installs": 0, "name": "AgentPing – Phone Call Alerts", "ownerName": "dandanwei", "score": 100000, "slug": "agentping-phone-call-alerts", "source": "clawhub", "stars": 0, "tags": null, "updated_at": 1776698704800, "version": "1.0.4"}, {"category": "", "created_at": 1774892399377, "description": "Perform 12-Factor Agents compliance analysis on any codebase. Use when evaluating agent architecture, reviewing LLM-powered systems, or auditing agentic appl...", "description_zh": "", "downloads": 26, "homepage": "https://clawhub.ai/anderskev/agent-architecture-analysis", "iconUrl": null, "installs": 0, "name": "Agent Architecture Analysis", "ownerName": "anderskev", "score": 100000, "slug": "agent-architecture-analysis", "source": "clawhub", "stars": 0, "tags": null, "updated_at": 1776698704795, "version": "1.0.0"}, {"category": "", "created_at": 1774924735115, "description": "When the user wants to create, optimize, or audit signup and login pages. Also use when the user mentions \"signup page,\" \"login page,\" \"registration page,\" \"...", "description_zh": "", "downloads": 26, "homepage": "https://clawhub.ai/kostja94/signup-login-page-generator", "iconUrl": null, "installs": 1, "name": "signup-login-page-generator", "ownerName": "kostja94", "score": 100000, "slug": "signup-login-page-generator", "source": "clawhub", "stars": 0, "tags": null, "updated_at": 1776698704791, "version": "1.0.0"}, {"category": "", "created_at": 1774906887820, "description": "QR code generator. Use when user needs to create QR codes for text, URLs, WiFi, vCards, or any data. Supports custom colors, sizes, logos, and formats (PNG/S...", "description_zh": "", "downloads": 26, "homepage": "https://clawhub.ai/tobewin/qr-code-maker", "iconUrl": null, "installs": 0, "name": "Qr Generator", "ownerName": "tobewin", "score": 100000, "slug": "qr-code-maker", "source": "clawhub", "stars": 0, "tags": null, "updated_at": 1776698704791, "version": "1.0.1"}, {"category": "", "created_at": 1774863485982, "description": "AEvent integration. Manage data, records, and automate workflows. Use when the user wants to interact with AEvent data.", "description_zh": "", "downloads": 26, "homepage": "https://clawhub.ai/membranedev/aevent", "iconUrl": null, "installs": 0, "name": "Aevent", "ownerName": "membranedev", "score": 100000, "slug": "aevent", "source": "clawhub", "stars": 0, "tags": null, "updated_at": 1776698704788, "version": "1.0.0"}, {"category": "", "created_at": 1774855676104, "description": "Play Agent Mafia — an AI social deduction game (Among Us/Mafia style). Register, join games, discuss, vote, and deceive other AI agents. Spectate live at the...", "description_zh": "", "downloads": 26, "homepage": "https://clawhub.ai/binhao22/agent-mafia", "iconUrl": null, "installs": 0, "name": "Agent Mafia", "ownerName": "binhao22", "score": 100000, "slug": "agent-mafia", "source": "clawhub", "stars": 0, "tags": null, "updated_at": 1776698704788, "version": "1.0.0"}, {"category": "", "created_at": 1774918912596, "description": "Strace reference tool. Use when working with strace in devtools contexts.", "description_zh": "", "downloads": 26, "homepage": "https://clawhub.ai/xueyetianya/strace", "iconUrl": null, "installs": 0, "name": "Strace", "ownerName": "xueyetianya", "score": 100000, "slug": "strace", "source": "clawhub", "stars": 0, "tags": null, "updated_at": 1776698704784, "version": "1.0.0"}, {"category": "", "created_at": 1774897494035, "description": "Expert playbook for Meta Ads campaign optimization decisions. Covers budget scaling, pausing, bid strategy selection, audience expansion, and ROAS improvemen...", "description_zh": "", "downloads": 26, "homepage": "https://clawhub.ai/phap1106/ads-claw4", "iconUrl": null, "installs": 0, "name": "adserFB4", "ownerName": "phap1106", "score": 100000, "slug": "ads-claw4", "source": "clawhub", "stars": 0, "tags": null, "updated_at": 1776698704782, "version": "1.0.0"}, {"category": "", "created_at": 1774837378934, "description": "When the user wants to plan, design, or implement an A/B test or experiment. Also use when the user mentions \"A/B test,\" \"split test,\" \"experiment,\" \"test th...", "description_zh": "", "downloads": 26, "homepage": "https://clawhub.ai/mariokarras/abm-ab-test-setup", "iconUrl": null, "installs": 0, "name": "Ab Test Setup", "ownerName": "mariokarras", "score": 100000, "slug": "abm-ab-test-setup", "source": "clawhub", "stars": 0, "tags": null, "updated_at": 1776698704779, "version": "1.0.0"}, {"category": "", "created_at": 1774851848696, "description": "Agente especialista em História e Geografia para FUVEST — 1ª fase. Ambas têm peso alto nas 90 questões objetivas, com História priorizando Brasil (Colonial,...", "description_zh": "", "downloads": 26, "homepage": "https://clawhub.ai/antoniovfranco/agente-historia-geografia", "iconUrl": null, "installs": 0, "name": "Agente Historia Geografia", "ownerName": "antoniovfranco", "score": 100000, "slug": "agente-historia-geografia", "source": "clawhub", "stars": 0, "tags": null, "updated_at": 1776698704758, "version": "1.0.0"}, {"category": "", "created_at": 1774883932999, "description": "When the user wants to optimize post-signup onboarding, user activation, first-run experience, or time-to-value. Also use when the user mentions \"onboarding...", "description_zh": "", "downloads": 26, "homepage": "https://clawhub.ai/mariokarras/abm-onboarding-cro", "iconUrl": null, "installs": 0, "name": "Onboarding Cro", "ownerName": "mariokarras", "score": 100000, "slug": "abm-onboarding-cro", "source": "clawhub", "stars": 0, "tags": null, "updated_at": 1776698704753, "version": "1.0.0"}, {"category": "", "created_at": 1774892368856, "description": "When the user wants to reduce churn, build cancellation flows, set up save offers, recover failed payments, or implement retention strategies. Also use when...", "description_zh": "", "downloads": 26, "homepage": "https://clawhub.ai/mariokarras/abm-churn-prevention", "iconUrl": null, "installs": 0, "name": "Churn Prevention", "ownerName": "mariokarras", "score": 100000, "slug": "abm-churn-prevention", "source": "clawhub", "stars": 0, "tags": null, "updated_at": 1776698704750, "version": "1.0.0"}, {"category": "", "created_at": 1774904711847, "description": "Professional entry-level quality assurance career roadmap platform that generates personalized learning paths based on experience, skills, and goals.", "description_zh": "", "downloads": 26, "homepage": "https://clawhub.ai/krishnakumarmahadevan-cmd/qa-analyst", "iconUrl": null, "installs": 0, "name": "Qa Analyst", "ownerName": "krishnakumarmahadevan-cmd", "score": 100000, "slug": "qa-analyst", "source": "clawhub", "stars": 0, "tags": null, "updated_at": 1776698704745, "version": "1.0.0"}, {"category": "", "created_at": 1774910448295, "description": "When the user wants to create, optimize, or audit 404 error pages. Also use when the user mentions \"404 page,\" \"404 error,\" \"error page,\" \"page not found,\" \"...", "description_zh": "", "downloads": 26, "homepage": "https://clawhub.ai/kostja94/404-page-generator", "iconUrl": null, "installs": 1, "name": "404-page-generator", "ownerName": "kostja94", "score": 100000, "slug": "404-page-generator", "source": "clawhub", "stars": 0, "tags": null, "updated_at": 1776698704734, "version": "1.0.0"}, {"category": "", "created_at": 1774873452629, "description": "ABI lifecycle management for smart contract projects. Use when your frontend is out of sync with contract changes, when you need to set up ABI generation in...", "description_zh": "", "downloads": 26, "homepage": "https://clawhub.ai/old-greggyboy/abi-toolchain", "iconUrl": null, "installs": 0, "name": "Abi Toolchain", "ownerName": "old-greggyboy", "score": 100000, "slug": "abi-toolchain", "source": "clawhub", "stars": 0, "tags": null, "updated_at": 1776698704730, "version": "1.0.1"}, {"category": "", "created_at": 1774954684621, "description": "1Forge integration. Manage data, records, and automate workflows. Use when the user wants to interact with 1Forge data.", "description_zh": "", "downloads": 26, "homepage": "https://clawhub.ai/gora050/1forge", "iconUrl": null, "installs": 0, "name": "1Forge", "ownerName": "gora050", "score": 100000, "slug": "1forge", "source": "clawhub", "stars": 0, "tags": null, "updated_at": 1776698704728, "version": "1.0.0"}, {"category": "", "created_at": 1774863540446, "description": "Slash OpenClaw token costs and prevent context overflow. Use whenever the user mentions high API costs, expensive tokens, context truncation, context overflo...", "description_zh": "", "downloads": 26, "homepage": "https://clawhub.ai/omaression/aggressive-context-optimizer", "iconUrl": null, "installs": 0, "name": "Aggressive Context Optimizer", "ownerName": "omaression", "score": 100000, "slug": "aggressive-context-optimizer", "source": "clawhub", "stars": 0, "tags": null, "updated_at": 1776698704724, "version": "1.0.0-alpha"}, {"category": "", "created_at": 1774923589305, "description": "Building and maintaining social connections as an adult. Use when someone is lonely, has moved to a new city, wants to make friends, struggles in group setti...", "description_zh": "", "downloads": 26, "homepage": "https://clawhub.ai/howtousehumans/adult-social-skills", "iconUrl": null, "installs": 1, "name": "Adult Social Skills", "ownerName": "howtousehumans", "score": 100000, "slug": "adult-social-skills", "source": "clawhub", "stars": 0, "tags": null, "updated_at": 1776698704715, "version": "1.0.0"}, {"category": "", "created_at": 1774854475155, "description": "Use `aigroup-fmp-mcp` for listed-equity data from Financial Modeling Prep, including quotes, company profiles, statements, ratios, sector context, and calend...", "description_zh": "", "downloads": 26, "homepage": "https://clawhub.ai/jackdark425/aigroup-fmp-mcp", "iconUrl": null, "installs": 0, "name": "Aigroup Fmp Mcp", "ownerName": "jackdark425", "score": 100000, "slug": "aigroup-fmp-mcp", "source": "clawhub", "stars": 0, "tags": null, "updated_at": 1776698704707, "version": "0.1.4"}, {"category": "", "created_at": 1774953565153, "description": "Design and audit CLIs for agent usability. Use when building a new CLI tool, auditing an existing CLI for agent compatibility, reviewing CLI UX for AI agents...", "description_zh": "", "downloads": 26, "homepage": "https://clawhub.ai/g9pedro/agent-friendly-cli", "iconUrl": null, "installs": 0, "name": "Agent-Friendly CLI Design", "ownerName": "g9pedro", "score": 100000, "slug": "agent-friendly-cli", "source": "clawhub", "stars": 0, "tags": null, "updated_at": 1776698704705, "version": "1.0.0"}, {"category": "", "created_at": 1774841032423, "description": "Define order lifecycle states, transition guards, and recovery paths for A2A transactions. Use when implementing order orchestration from quote acceptance th...", "description_zh": "", "downloads": 26, "homepage": "https://clawhub.ai/luoqianchenguni-max/a2a-market-order-state-machine", "iconUrl": null, "installs": 0, "name": "a2a-Market-Order-State-Machine", "ownerName": "luoqianchenguni-max", "score": 32911.39240506329, "slug": "a2a-market-order-state-machine", "source": "clawhub", "stars": 0, "tags": null, "updated_at": 1776698704701, "version": "0.2.0"}, {"category": "", "created_at": 1774897508222, "description": "Use when someone asks for flux image generator, flux text-to-image, flux prompt examples, flux image model selection, or CLI-based image generation with flux...", "description_zh": "", "downloads": 26, "homepage": "https://clawhub.ai/jinchanzis/ai-media-generator-flux-image-generator", "iconUrl": null, "installs": 3, "name": "Flux Image Generator", "ownerName": "jinchanzis", "score": 32911.39240506329, "slug": "ai-media-generator-flux-image-generator", "source": "clawhub", "stars": 0, "tags": null, "updated_at": 1776698704700, "version": "1.0.0"}, {"category": "", "created_at": 1774860731211, "description": "AI agent self-portrait generator. Create avatars, profile pictures, and visual identity using Gemini image generation. Supports mood-based generation, season...", "description_zh": "", "downloads": 26, "homepage": "https://clawhub.ai/farmerboybi-bot/agent-selfie-backup", "iconUrl": null, "installs": 0, "name": "Agent Selfie Backup", "ownerName": "farmerboybi-bot", "score": 32911.39240506329, "slug": "agent-selfie-backup", "source": "clawhub", "stars": 0, "tags": null, "updated_at": 1776698704691, "version": "1.0.0"}, {"category": "", "created_at": 1774923572560, "description": "Use for RAGFlow dataset tasks: create, list, inspect, update, or delete datasets; upload, list, update, or delete documents; start or stop parsing; check par...", "description_zh": "", "downloads": 26, "homepage": "https://clawhub.ai/redredrrred/2026-3-22dataset", "iconUrl": null, "installs": 0, "name": "2026-3-22dataset", "ownerName": "redredrrred", "score": 32911.39240506329, "slug": "2026-3-22dataset", "source": "clawhub", "stars": 0, "tags": null, "updated_at": 1776698704679, "version": "1.0.5"}, {"category": "", "created_at": 1774844375510, "description": "Search engine for AI agents to discover free and paid tools, APIs, and MCP servers", "description_zh": "", "downloads": 26, "homepage": "https://clawhub.ai/simmmel/addtools", "iconUrl": null, "installs": 0, "name": "add.tools", "ownerName": "simmmel", "score": 32911.39240506329, "slug": "addtools", "source": "clawhub", "stars": 0, "tags": null, "updated_at": 1776698704663, "version": "0.1.0"}, {"category": "", "created_at": 1774829874670, "description": "Agente especialista em Química para FUVEST — 1ª fase. Química tem presença significativa nas 90 questões objetivas e frequentemente aparece em questões inter...", "description_zh": "", "downloads": 26, "homepage": "https://clawhub.ai/antoniovfranco/agente-quimica", "iconUrl": null, "installs": 0, "name": "Agente Quimica", "ownerName": "antoniovfranco", "score": 32911.39240506329, "slug": "agente-quimica", "source": "clawhub", "stars": 0, "tags": null, "updated_at": 1776698704660, "version": "1.0.0"}, {"category": "", "created_at": 1774850437443, "description": "Query task status from the AICNIC job management system. Use this skill when the user needs to check task status, retrieve job information, or mentions a job...", "description_zh": "", "downloads": 26, "homepage": "https://clawhub.ai/bylikai/aicnic-jobs-admin-task-status", "iconUrl": null, "installs": 0, "name": "task-status", "ownerName": "bylikai", "score": 32911.39240506329, "slug": "aicnic-jobs-admin-task-status", "source": "clawhub", "stars": 0, "tags": null, "updated_at": 1776698704644, "version": "1.0.1"}, {"category": "", "created_at": 1774952349062, "description": "Turn a stuck problem into one tiny actionable 5% change", "description_zh": "", "downloads": 26, "homepage": "https://clawhub.ai/harrylabsj/micro-change-helper", "iconUrl": null, "installs": 0, "name": "Micro Change Helper", "ownerName": "harrylabsj", "score": 32911.39240506329, "slug": "micro-change-helper", "source": "clawhub", "stars": 0, "tags": null, "updated_at": 1776698684977, "version": "1.0.0"}, {"category": "", "created_at": 1774909516783, "description": "Find nearby breakfast spots. Invoke when user asks for breakfast near me.", "description_zh": "", "downloads": 26, "homepage": "https://clawhub.ai/clawkk/breakfast-spots", "iconUrl": null, "installs": 1, "name": "Nearby Breakfast Spots", "ownerName": "clawkk", "score": 32911.39240506329, "slug": "breakfast-spots", "source": "clawhub", "stars": 0, "tags": null, "updated_at": 1776698684975, "version": "0.1.0"}, {"category": "", "created_at": 1774956179170, "description": "Claid AI integration. Manage data, records, and automate workflows. Use when the user wants to interact with Claid AI data.", "description_zh": "", "downloads": 26, "homepage": "https://clawhub.ai/gora050/claid-ai", "iconUrl": null, "installs": 0, "name": "Claid Ai", "ownerName": "gora050", "score": 32911.39240506329, "slug": "claid-ai", "source": "clawhub", "stars": 0, "tags": null, "updated_at": 1776698684974, "version": "1.0.0"}, {"category": "", "created_at": 1774905266973, "description": "Find nearby bakeries. Invoke when user asks for bakeries near me.", "description_zh": "", "downloads": 26, "homepage": "https://clawhub.ai/clawkk/bakeries", "iconUrl": null, "installs": 0, "name": "Nearby Bakeries", "ownerName": "clawkk", "score": 32911.39240506329, "slug": "bakeries", "source": "clawhub", "stars": 0, "tags": null, "updated_at": 1776698684967, "version": "0.1.0"}]}