{"page": 499, "total_pages": 522, "total": 26073, "skills": [{"category": "", "created_at": 1774859950171, "description": "Lobster Brew helps your OpenClaw discover coffee roasters, compare coffees, build personalized carts, and hand off a secure Shopify checkout link for you to...", "description_zh": "", "downloads": 26, "homepage": "https://clawhub.ai/abuiles/buy-coffee", "iconUrl": null, "installs": 0, "name": "Buy Coffee", "ownerName": "abuiles", "score": 32911.39240506329, "slug": "buy-coffee", "source": "clawhub", "stars": 0, "tags": null, "updated_at": 1776698684965, "version": "1.2.0"}, {"category": "", "created_at": 1774907256203, "description": "MooTeam (moo.team) API v1 for OpenClaw: projects, teams, tasks, drafts, comments, workflows, statuses, labels, timer and time logs, activity logs. Requires M...", "description_zh": "", "downloads": 26, "homepage": "https://clawhub.ai/antokhin-digital/mooteam", "iconUrl": null, "installs": 0, "name": "MooTeam CRM", "ownerName": "antokhin-digital", "score": 32911.39240506329, "slug": "mooteam", "source": "clawhub", "stars": 0, "tags": null, "updated_at": 1776698684963, "version": "1.0.0"}, {"category": "", "created_at": 1774901852280, "description": "BoxHero integration. Manage data, records, and automate workflows. Use when the user wants to interact with BoxHero data.", "description_zh": "", "downloads": 26, "homepage": "https://clawhub.ai/gora050/boxhero", "iconUrl": null, "installs": 0, "name": "Boxhero", "ownerName": "gora050", "score": 32911.39240506329, "slug": "boxhero", "source": "clawhub", "stars": 0, "tags": null, "updated_at": 1776698684958, "version": "1.0.0"}, {"category": "", "created_at": 1774881896986, "description": "The eBay for AI agents. List, buy, sell, and trade anything on the MoltbotDen marketplace. USDC on Base, escrow-protected, 5% platform fee.", "description_zh": "", "downloads": 26, "homepage": "https://clawhub.ai/willcybertron/moltbotden-marketplace", "iconUrl": null, "installs": 0, "name": "MoltbotDen Marketplace", "ownerName": "willcybertron", "score": 32911.39240506329, "slug": "moltbotden-marketplace", "source": "clawhub", "stars": 0, "tags": null, "updated_at": 1776698684954, "version": "1.0.0"}, {"category": "", "created_at": 1774907440865, "description": "Assess your business's compliance with California Consumer Privacy Act (CCPA) regulations and identify privacy governance gaps.", "description_zh": "", "downloads": 26, "homepage": "https://clawhub.ai/krishnakumarmahadevan-cmd/ccpa-privacy-checker", "iconUrl": null, "installs": 0, "name": "CCPA Privacy Checker", "ownerName": "krishnakumarmahadevan-cmd", "score": 32911.39240506329, "slug": "ccpa-privacy-checker", "source": "clawhub", "stars": 0, "tags": null, "updated_at": 1776698684944, "version": "1.0.0"}, {"category": "", "created_at": 1774862256857, "description": "Calculate insurance benefit payouts, coverage amounts, and premiums. Handles life insurance sum assured, health insurance reimbursement, critical illness lum...", "description_zh": "", "downloads": 26, "homepage": "https://clawhub.ai/jiwenbing/benefit-calc", "iconUrl": null, "installs": 0, "name": "Benefit Calc", "ownerName": "jiwenbing", "score": 32911.39240506329, "slug": "benefit-calc", "source": "clawhub", "stars": 0, "tags": null, "updated_at": 1776698684942, "version": "1.0.0"}, {"category": "", "created_at": 1774954432313, "description": "Mindspun integration. Manage data, records, and automate workflows. Use when the user wants to interact with Mindspun data.", "description_zh": "", "downloads": 26, "homepage": "https://clawhub.ai/gora050/mindspun", "iconUrl": null, "installs": 0, "name": "Mindspun", "ownerName": "gora050", "score": 32911.39240506329, "slug": "mindspun", "source": "clawhub", "stars": 0, "tags": null, "updated_at": 1776698684940, "version": "1.0.0"}, {"category": "", "created_at": 1774844133855, "description": "AI agent dating and social platform — register your agent, get matched by AI compatibility scoring, chat in real time, build relationships, and join the publ...", "description_zh": "", "downloads": 26, "homepage": "https://clawhub.ai/alvinhotro-nb/moltme-dating", "iconUrl": null, "installs": 0, "name": "MoltMe — AI Agent Dating & Social Connection Platform", "ownerName": "alvinhotro-nb", "score": 32911.39240506329, "slug": "moltme-dating", "source": "clawhub", "stars": 0, "tags": null, "updated_at": 1776698684938, "version": "1.3.1"}, {"category": "", "created_at": 1774902954543, "description": "Canny integration. Manage data, records, and automate workflows. Use when the user wants to interact with Canny data.", "description_zh": "", "downloads": 26, "homepage": "https://clawhub.ai/gora050/canny", "iconUrl": null, "installs": 0, "name": "Canny", "ownerName": "gora050", "score": 100000, "slug": "canny", "source": "clawhub", "stars": 0, "tags": null, "updated_at": 1776698684935, "version": "1.0.0"}, {"category": "", "created_at": 1774880532902, "description": "Versioned, structured memory for AI agents. Every fact is tracked, every change is logged, and your agent always gets the current answer — not a pile of outd...", "description_zh": "", "downloads": 26, "homepage": "https://clawhub.ai/yepthatsjason/memstate-ai", "iconUrl": null, "installs": 0, "name": "Memstate AI", "ownerName": "yepthatsjason", "score": 100000, "slug": "memstate-ai", "source": "clawhub", "stars": 0, "tags": null, "updated_at": 1776698684933, "version": "1.2.4"}, {"category": "", "created_at": 1774907343690, "description": "Amara integration. Manage data, records, and automate workflows. Use when the user wants to interact with Amara data.", "description_zh": "", "downloads": 26, "homepage": "https://clawhub.ai/membranedev/amara", "iconUrl": null, "installs": 0, "name": "Amara", "ownerName": "membranedev", "score": 100000, "slug": "amara", "source": "clawhub", "stars": 0, "tags": null, "updated_at": 1776698684932, "version": "1.0.0"}, {"category": "", "created_at": 1774895945294, "description": "Arista EOS device health check and triage procedure. Use when troubleshooting Arista 7000, 7500, or 720X series switches — assessing CPU, memory, interfaces,...", "description_zh": "", "downloads": 26, "homepage": "https://clawhub.ai/vahagn-madatyan/arista-device-health", "iconUrl": null, "installs": 0, "name": "Arista Device Health", "ownerName": "vahagn-madatyan", "score": 100000, "slug": "arista-device-health", "source": "clawhub", "stars": 0, "tags": null, "updated_at": 1776698684927, "version": "0.1.1"}, {"category": "", "created_at": 1774903380284, "description": "Myphoner integration. Manage Leads, Persons, Organizations, Pipelines, Users, Roles and more. Use when the user wants to interact with Myphoner data.", "description_zh": "", "downloads": 26, "homepage": "https://clawhub.ai/gora050/myphoner", "iconUrl": null, "installs": 0, "name": "Myphoner", "ownerName": "gora050", "score": 100000, "slug": "myphoner", "source": "clawhub", "stars": 0, "tags": null, "updated_at": 1776698684926, "version": "1.0.0"}, {"category": "", "created_at": 1774911991323, "description": "MurList integration. Manage Organizations. Use when the user wants to interact with MurList data.", "description_zh": "", "downloads": 26, "homepage": "https://clawhub.ai/gora050/murlist", "iconUrl": null, "installs": 0, "name": "Murlist", "ownerName": "gora050", "score": 100000, "slug": "murlist", "source": "clawhub", "stars": 0, "tags": null, "updated_at": 1776698684918, "version": "1.0.0"}, {"category": "", "created_at": 1774900007410, "description": "Captures learnings, errors, and corrections to enable continuous improvement. Use when: (1) A command or operation fails unexpectedly, (2) User corrects Clau...", "description_zh": "", "downloads": 26, "homepage": "https://clawhub.ai/lipairui/perrytest", "iconUrl": null, "installs": 0, "name": "perrytest", "ownerName": "lipairui", "score": 100000, "slug": "perrytest", "source": "clawhub", "stars": 0, "tags": null, "updated_at": 1776698684906, "version": "1.0.0"}, {"category": "", "created_at": 1774835576619, "description": "Работа с API Авито (Авторизация, Мессенджер, Объявления, Статистика). Позволяет получать токены, читать/отправлять сообщения в чатах Авито и управлять объявл...", "description_zh": "", "downloads": 26, "homepage": "https://clawhub.ai/thisisevgeniy/avito-pro", "iconUrl": null, "installs": 0, "name": "Avito Pro", "ownerName": "thisisevgeniy", "score": 100000, "slug": "avito-pro", "source": "clawhub", "stars": 0, "tags": null, "updated_at": 1776698684896, "version": "2026.3.16"}, {"category": "", "created_at": 1774884016073, "description": "APIClaw API platform overview — AI-powered commerce data infrastructure. Provides programmatic access to 200M+ Amazon products with real-time data across 6 e...", "description_zh": "", "downloads": 26, "homepage": "https://clawhub.ai/christine-srp/apiclaw-api", "iconUrl": null, "installs": 0, "name": "APIClaw", "ownerName": "christine-srp", "score": 100000, "slug": "apiclaw-api", "source": "clawhub", "stars": 0, "tags": null, "updated_at": 1776698684893, "version": "1.0.0"}, {"category": "", "created_at": 1774951803795, "description": "Google Workspace CLI for Gmail, Calendar, Drive, Contacts, Sheets, and Docs.", "description_zh": "", "downloads": 26, "homepage": "https://clawhub.ai/aceundefeated/aj-gog", "iconUrl": null, "installs": 0, "name": "Aj Gog", "ownerName": "aceundefeated", "score": 100000, "slug": "aj-gog", "source": "clawhub", "stars": 0, "tags": null, "updated_at": 1776698684887, "version": "1.0.0"}, {"category": "", "created_at": 1774884470354, "description": "Autonomous city-scoped event creation from campaign tasks, plus full event lifecycle management — tasks, venues, images, validation — via the gokyn CLI.", "description_zh": "", "downloads": 26, "homepage": "https://clawhub.ai/pirumpi/kyndlo-events", "iconUrl": null, "installs": 0, "name": "Kyndlo Events", "ownerName": "pirumpi", "score": 100000, "slug": "kyndlo-events", "source": "clawhub", "stars": 0, "tags": null, "updated_at": 1776698684884, "version": "3.0.0"}, {"category": "", "created_at": 1774864811890, "description": "Finage integration. Manage data, records, and automate workflows. Use when the user wants to interact with Finage data.", "description_zh": "", "downloads": 26, "homepage": "https://clawhub.ai/gora050/finage", "iconUrl": null, "installs": 0, "name": "Finage", "ownerName": "gora050", "score": 100000, "slug": "finage", "source": "clawhub", "stars": 0, "tags": null, "updated_at": 1776698684880, "version": "1.0.0"}, {"category": "", "created_at": 1774954276859, "description": "Experience the awe of ancient whispers echoing across the Pamir high passes, inviting deep reflection on impermanence. Trek the historic Silk Road trail, con...", "description_zh": "", "downloads": 26, "homepage": "https://clawhub.ai/driftsbot/experience-silk-road-shadows", "iconUrl": null, "installs": 0, "name": "Experience Silk Road Shadows", "ownerName": "driftsbot", "score": 100000, "slug": "experience-silk-road-shadows", "source": "clawhub", "stars": 0, "tags": null, "updated_at": 1776698684875, "version": "1.0.0"}, {"category": "", "created_at": 1774906443572, "description": "Use when facing 2+ independent tasks that can be worked on without shared state or sequential dependencies", "description_zh": "", "downloads": 26, "homepage": "https://clawhub.ai/lovemymobilewebsite-dotcom/dispatching-parallel-agents-2", "iconUrl": null, "installs": 0, "name": "Dispatching Parallel Agents", "ownerName": "lovemymobilewebsite-dotcom", "score": 100000, "slug": "dispatching-parallel-agents-2", "source": "clawhub", "stars": 0, "tags": null, "updated_at": 1776698684873, "version": "0.1.0"}, {"category": "", "created_at": 1774891307105, "description": "Generate satisfying vertical short videos of glass cutting and shattering (WeryAI): text-to-video or animate a glass photo into cuts, crack spread, and break...", "description_zh": "", "downloads": 26, "homepage": "https://clawhub.ai/zoucdr/glass-cut-video", "iconUrl": null, "installs": 0, "name": "Glass Cut Video", "ownerName": "zoucdr", "score": 100000, "slug": "glass-cut-video", "source": "clawhub", "stars": 0, "tags": null, "updated_at": 1776698684871, "version": "0.1.3"}, {"category": "", "created_at": 1774918077842, "description": "Formcarry integration. Manage Forms. Use when the user wants to interact with Formcarry data.", "description_zh": "", "downloads": 26, "homepage": "https://clawhub.ai/gora050/formcarry", "iconUrl": null, "installs": 0, "name": "Formcarry", "ownerName": "gora050", "score": 100000, "slug": "formcarry", "source": "clawhub", "stars": 0, "tags": null, "updated_at": 1776698684868, "version": "1.0.0"}, {"category": "", "created_at": 1774918114535, "description": "Go-UPC integration. Manage Organizations. Use when the user wants to interact with Go-UPC data.", "description_zh": "", "downloads": 26, "homepage": "https://clawhub.ai/membranedev/go-upc", "iconUrl": null, "installs": 0, "name": "Go Upc", "ownerName": "membranedev", "score": 100000, "slug": "go-upc", "source": "clawhub", "stars": 0, "tags": null, "updated_at": 1776698684864, "version": "1.0.0"}, {"category": "", "created_at": 1774893232349, "description": "Memberspot.io integration. Manage Organizations. Use when the user wants to interact with Memberspot.io data.", "description_zh": "", "downloads": 26, "homepage": "https://clawhub.ai/gora050/memberspotio", "iconUrl": null, "installs": 0, "name": "Memberspotio", "ownerName": "gora050", "score": 100000, "slug": "memberspotio", "source": "clawhub", "stars": 0, "tags": null, "updated_at": 1776698684859, "version": "1.0.0"}, {"category": "", "created_at": 1774905439250, "description": "Dext integration. Manage Organizations, Users, Goals, Filters. Use when the user wants to interact with Dext data.", "description_zh": "", "downloads": 26, "homepage": "https://clawhub.ai/gora050/dext", "iconUrl": null, "installs": 0, "name": "Dext", "ownerName": "gora050", "score": 100000, "slug": "dext", "source": "clawhub", "stars": 0, "tags": null, "updated_at": 1776698684853, "version": "1.0.0"}, {"category": "", "created_at": 1774883188402, "description": "Kizeo Forms integration. Manage Forms, Users, Groups. Use when the user wants to interact with Kizeo Forms data.", "description_zh": "", "downloads": 26, "homepage": "https://clawhub.ai/gora050/kizeo-forms", "iconUrl": null, "installs": 0, "name": "Kizeo Forms", "ownerName": "gora050", "score": 100000, "slug": "kizeo-forms", "source": "clawhub", "stars": 0, "tags": null, "updated_at": 1776698684841, "version": "1.0.0"}, {"category": "", "created_at": 1774916837008, "description": "Jail reference tool. Use when working with jail in sysops contexts.", "description_zh": "", "downloads": 26, "homepage": "https://clawhub.ai/ckchzh/jail", "iconUrl": null, "installs": 0, "name": "Jail", "ownerName": "ckchzh", "score": 100000, "slug": "jail", "source": "clawhub", "stars": 0, "tags": null, "updated_at": 1776698684839, "version": "1.0.0"}, {"category": "", "created_at": 1774922772432, "description": "Prepare a user for an upcoming meeting or event by listing next-day calendar events, prompting for a selection, researching the topic and participants, produ...", "description_zh": "", "downloads": 26, "homepage": "https://clawhub.ai/sourishkrout/imposter-smasher", "iconUrl": null, "installs": 0, "name": "Imposter Smasher for Events and Meetings", "ownerName": "sourishkrout", "score": 100000, "slug": "imposter-smasher", "source": "clawhub", "stars": 0, "tags": null, "updated_at": 1776698684828, "version": "1.0.0"}, {"category": "", "created_at": 1774856585780, "description": "Measure current internet connection speed (download + upload) from this machine using a lightweight HTTP-based speed test (Cloudflare speed endpoints). Use w...", "description_zh": "", "downloads": 26, "homepage": "https://clawhub.ai/elandivar/neomano-internet-speed", "iconUrl": null, "installs": 0, "name": "Neomano Internet Speed (Download/Upload)", "ownerName": "elandivar", "score": 100000, "slug": "neomano-internet-speed", "source": "clawhub", "stars": 0, "tags": ["bandwidth", "download", "internet", "speedtest", "upload"], "updated_at": 1776698684824, "version": "0.1.0"}, {"category": "", "created_at": 1774893095944, "description": "Landbot integration. Manage Leads, Persons, Organizations, Deals, Pipelines, Activities and more. Use when the user wants to interact with Landbot data.", "description_zh": "", "downloads": 26, "homepage": "https://clawhub.ai/gora050/landbot", "iconUrl": null, "installs": 0, "name": "Landbot", "ownerName": "gora050", "score": 100000, "slug": "landbot", "source": "clawhub", "stars": 0, "tags": null, "updated_at": 1776698684820, "version": "1.0.0"}, {"category": "", "created_at": 1774950517481, "description": "Use when redesigning or polishing an accessible live website directly in the browser, especially when the goal is to produce high-quality before/after screen...", "description_zh": "", "downloads": 26, "homepage": "https://clawhub.ai/cfreely/live-site-design", "iconUrl": null, "installs": 0, "name": "Live Site Design", "ownerName": "cfreely", "score": 100000, "slug": "live-site-design", "source": "clawhub", "stars": 0, "tags": null, "updated_at": 1776698684817, "version": "0.1.0"}, {"category": "", "created_at": 1774949427073, "description": "Simple tool to fetch and view model pricing from TokenRouter, with optional account registration for extended access.", "description_zh": "", "downloads": 26, "homepage": "https://clawhub.ai/yb98k999/model-price-finder", "iconUrl": null, "installs": 0, "name": "Global Model Price Finder", "ownerName": "yb98k999", "score": 100000, "slug": "model-price-finder", "source": "clawhub", "stars": 0, "tags": null, "updated_at": 1776698684815, "version": "1.0.0"}, {"category": "", "created_at": 1774911525331, "description": "Generate submission issues for GitHub awesome-lists. Auto-creates formatted Issue content for awesome-indie, awesome-privacy, awesome-cloudflare, and 7 more...", "description_zh": "", "downloads": 26, "homepage": "https://clawhub.ai/bytesagain1/awesome-submitter-pro", "iconUrl": null, "installs": 2, "name": "Awesome Submitter Pro", "ownerName": "bytesagain1", "score": 100000, "slug": "awesome-submitter-pro", "source": "clawhub", "stars": 0, "tags": null, "updated_at": 1776698684812, "version": "1.0.0"}, {"category": "", "created_at": 1774813203563, "description": "When the user wants to analyze Google Search Console data, use GSC API, or interpret search performance. Also use when the user mentions \"GSC,\" \"Search Conso...", "description_zh": "", "downloads": 26, "homepage": "https://clawhub.ai/kostja94/kostja94-google-search-console", "iconUrl": null, "installs": 0, "name": "google-search-console", "ownerName": "kostja94", "score": 100000, "slug": "kostja94-google-search-console", "source": "clawhub", "stars": 0, "tags": null, "updated_at": 1776698684810, "version": "1.3.0"}, {"category": "", "created_at": 1774830678631, "description": "FSRS-4.5 flashcard review session for OpenAlgernon. Use when the user runs `/algernon review`, says \"revisar flashcards\", \"quero revisar\", \"cards em atraso\",...", "description_zh": "", "downloads": 26, "homepage": "https://clawhub.ai/antoniovfranco/algernon-review", "iconUrl": null, "installs": 1, "name": "Algernon Review", "ownerName": "antoniovfranco", "score": 100000, "slug": "algernon-review", "source": "clawhub", "stars": 0, "tags": null, "updated_at": 1776698684803, "version": "1.0.0"}, {"category": "", "created_at": 1774891319178, "description": "When the user wants to create, optimize, or audit glossary page content and structure. Also use when the user mentions \"glossary,\" \"definitions,\" \"terminolog...", "description_zh": "", "downloads": 26, "homepage": "https://clawhub.ai/kostja94/glossary-page-generator", "iconUrl": null, "installs": 0, "name": "glossary-page-generator", "ownerName": "kostja94", "score": 100000, "slug": "glossary-page-generator", "source": "clawhub", "stars": 0, "tags": null, "updated_at": 1776698684790, "version": "1.0.0"}, {"category": "", "created_at": 1774952262395, "description": "Urgent, time-boxed protocol for the first 72 hours after losing a job. Covers immediate document preservation, unemployment filing, health insurance decision...", "description_zh": "", "downloads": 26, "homepage": "https://clawhub.ai/howtousehumans/layoff-72-hours", "iconUrl": null, "installs": 0, "name": "Layoff 72 Hours", "ownerName": "howtousehumans", "score": 100000, "slug": "layoff-72-hours", "source": "clawhub", "stars": 0, "tags": null, "updated_at": 1776698684781, "version": "1.0.0"}, {"category": "", "created_at": 1774881317487, "description": "Altoviz integration. Manage data, records, and automate workflows. Use when the user wants to interact with Altoviz data.", "description_zh": "", "downloads": 26, "homepage": "https://clawhub.ai/gora050/altoviz", "iconUrl": null, "installs": 0, "name": "Altoviz", "ownerName": "gora050", "score": 100000, "slug": "altoviz", "source": "clawhub", "stars": 0, "tags": null, "updated_at": 1776698684775, "version": "1.0.0"}, {"category": "", "created_at": 1774871017140, "description": "Operate Blockscout explorer reads through UXC with a curated OpenAPI schema, instance-specific host selection, and read-first guardrails.", "description_zh": "", "downloads": 26, "homepage": "https://clawhub.ai/jolestar/blockscout-openapi-skill", "iconUrl": null, "installs": 0, "name": "Blockscout OpenAPI Skill", "ownerName": "jolestar", "score": 100000, "slug": "blockscout-openapi-skill", "source": "clawhub", "stars": 0, "tags": null, "updated_at": 1776698684774, "version": "1.0.0"}, {"category": "", "created_at": 1774917491987, "description": "Compare two JSON payloads or API responses and explain the meaningful differences in plain English", "description_zh": "", "downloads": 26, "homepage": "https://clawhub.ai/cheeseqi/payload-diff-explainer", "iconUrl": null, "installs": 0, "name": "Payload Diff Explainer", "ownerName": "cheeseqi", "score": 100000, "slug": "payload-diff-explainer", "source": "clawhub", "stars": 0, "tags": null, "updated_at": 1776698684772, "version": "1.0.0"}, {"category": "", "created_at": 1774911825771, "description": "Judopay integration. Manage data, records, and automate workflows. Use when the user wants to interact with Judopay data.", "description_zh": "", "downloads": 26, "homepage": "https://clawhub.ai/gora050/judopay", "iconUrl": null, "installs": 0, "name": "Judopay", "ownerName": "gora050", "score": 100000, "slug": "judopay", "source": "clawhub", "stars": 0, "tags": null, "updated_at": 1776698684769, "version": "1.0.0"}, {"category": "", "created_at": 1774947225240, "description": "CommPeak integration. Manage data, records, and automate workflows. Use when the user wants to interact with CommPeak data.", "description_zh": "", "downloads": 26, "homepage": "https://clawhub.ai/gora050/commpeak", "iconUrl": null, "installs": 0, "name": "Commpeak", "ownerName": "gora050", "score": 100000, "slug": "commpeak", "source": "clawhub", "stars": 0, "tags": null, "updated_at": 1776698684767, "version": "1.0.0"}, {"category": "", "created_at": 1774856869852, "description": "Scan any website for third-party scripts, trackers, and security risks. Detects PCI DSS compliance issues, missing CSP headers, fingerprinting scripts, and p...", "description_zh": "", "downloads": 26, "homepage": "https://clawhub.ai/swijckmans/cside-site-scanner", "iconUrl": null, "installs": 0, "name": "cside Site Scanner", "ownerName": "swijckmans", "score": 100000, "slug": "cside-site-scanner", "source": "clawhub", "stars": 0, "tags": null, "updated_at": 1776698684760, "version": "1.0.3"}, {"category": "", "created_at": 1774860655635, "description": "Connect to MoltbotDen via MCP (Model Context Protocol). 54 tools for agent networking, marketplace, discovery, dens, email, and more.", "description_zh": "", "downloads": 26, "homepage": "https://clawhub.ai/willcybertron/moltbotden-mcp", "iconUrl": null, "installs": 0, "name": "MoltbotDen MCP Server", "ownerName": "willcybertron", "score": 100000, "slug": "moltbotden-mcp", "source": "clawhub", "stars": 0, "tags": null, "updated_at": 1776698684757, "version": "1.0.0"}, {"category": "", "created_at": 1774884678774, "description": "Help users add custom model providers to OpenClaw. Use when the user wants to add a new AI model provider (like custom OpenAI-compatible APIs, local LLMs, or...", "description_zh": "", "downloads": 26, "homepage": "https://clawhub.ai/ksbbs/openclaw-model-provider", "iconUrl": null, "installs": 2, "name": "OpenClaw Model Provider", "ownerName": "ksbbs", "score": 100000, "slug": "openclaw-model-provider", "source": "clawhub", "stars": 0, "tags": ["ai", "configuration", "model", "openclaw", "provider"], "updated_at": 1776698684739, "version": "1.0.0"}, {"category": "", "created_at": 1774827218506, "description": "Connect bank accounts to AI models using openfinance.sh", "description_zh": "", "downloads": 26, "homepage": "https://clawhub.ai/winxton/openfinance", "iconUrl": null, "installs": 0, "name": "openfinance", "ownerName": "winxton", "score": 100000, "slug": "openfinance", "source": "clawhub", "stars": 0, "tags": null, "updated_at": 1776698684737, "version": "0.0.3"}, {"category": "", "created_at": 1774950781478, "description": "Use when organizing Microsoft Edge bookmarks or favorites when persistence matters, when folder priorities like AI/investing/social are important, or when pr...", "description_zh": "", "downloads": 26, "homepage": "https://clawhub.ai/xenoexia/organizing-edge-bookmarks", "iconUrl": null, "installs": 0, "name": "Organizing Edge Bookmarks", "ownerName": "xenoexia", "score": 100000, "slug": "organizing-edge-bookmarks", "source": "clawhub", "stars": 0, "tags": null, "updated_at": 1776698684735, "version": "1.0.2"}, {"category": "", "created_at": 1774889487040, "description": "Audit the workspace against the pipeline artifact contract (DONE outputs + pipeline target_artifacts). Writes `output/CONTRACT_REPORT.md`. **Trigger**: contr...", "description_zh": "", "downloads": 26, "homepage": "https://clawhub.ai/willoscar/artifact-contract-auditor", "iconUrl": null, "installs": 0, "name": "Artifact Contract Auditor", "ownerName": "willoscar", "score": 100000, "slug": "artifact-contract-auditor", "source": "clawhub", "stars": 0, "tags": null, "updated_at": 1776698684726, "version": "1.0.0"}]}