{"page": 5, "total_pages": 22, "total": 1089, "skills": [{"slug": "apollographql-apollo-client", "name": "apollographql/apollo-client", "description": "Build React applications with Apollo Client 4", "description_zh": "", "homepage": "https://officialskills.sh/apollographql/skills/apollo-client", "tags": ["TypeScript Skills"], "category": "TypeScript Skills", "ownerName": "", "sources": ["VoltAgent/awesome-agent-skills"], "score": 900, "downloads": 0, "stars": 0, "installs": 0, "version": "", "updated_at": 0}, {"slug": "apollographql-apollo-connectors", "name": "apollographql/apollo-connectors", "description": "Integrate REST APIs into GraphQL supergraphs using Apollo Connectors", "description_zh": "", "homepage": "https://officialskills.sh/apollographql/skills/apollo-connectors", "tags": ["TypeScript Skills"], "category": "TypeScript Skills", "ownerName": "", "sources": ["VoltAgent/awesome-agent-skills"], "score": 899, "downloads": 0, "stars": 0, "installs": 0, "version": "", "updated_at": 0}, {"slug": "apollographql-apollo-federation", "name": "apollographql/apollo-federation", "description": "Write Apollo Federation 2 subgraph schemas and compose them into a supergraph", "description_zh": "", "homepage": "https://officialskills.sh/apollographql/skills/apollo-federation", "tags": ["TypeScript Skills"], "category": "TypeScript Skills", "ownerName": "", "sources": ["VoltAgent/awesome-agent-skills"], "score": 898, "downloads": 0, "stars": 0, "installs": 0, "version": "", "updated_at": 0}, {"slug": "apollographql-apollo-kotlin", "name": "apollographql/apollo-kotlin", "description": "A GraphQL client for Android, JVM, and Kotlin Multiplatform projects", "description_zh": "", "homepage": "https://officialskills.sh/apollographql/skills/apollo-kotlin", "tags": ["TypeScript Skills"], "category": "TypeScript Skills", "ownerName": "", "sources": ["VoltAgent/awesome-agent-skills"], "score": 897, "downloads": 0, "stars": 0, "installs": 0, "version": "", "updated_at": 0}, {"slug": "apollographql-apollo-mcp-server", "name": "apollographql/apollo-mcp-server", "description": "Connect AI agents to GraphQL APIs through the Model Context Protocol", "description_zh": "", "homepage": "https://officialskills.sh/apollographql/skills/apollo-mcp-server", "tags": ["TypeScript Skills"], "category": "TypeScript Skills", "ownerName": "", "sources": ["VoltAgent/awesome-agent-skills"], "score": 896, "downloads": 0, "stars": 0, "installs": 0, "version": "", "updated_at": 0}, {"slug": "apollographql-apollo-router", "name": "apollographql/apollo-router", "description": "Version-aware configuration generator for the Rust-based Apollo Router", "description_zh": "", "homepage": "https://officialskills.sh/apollographql/skills/apollo-router", "tags": ["TypeScript Skills"], "category": "TypeScript Skills", "ownerName": "", "sources": ["VoltAgent/awesome-agent-skills"], "score": 895, "downloads": 0, "stars": 0, "installs": 0, "version": "", "updated_at": 0}, {"slug": "apollographql-apollo-router-plugin-creator", "name": "apollographql/apollo-router-plugin-creator", "description": "Write native Rust plugins for Apollo Router", "description_zh": "", "homepage": "https://officialskills.sh/apollographql/skills/apollo-router-plugin-creator", "tags": ["TypeScript Skills"], "category": "TypeScript Skills", "ownerName": "", "sources": ["VoltAgent/awesome-agent-skills"], "score": 894, "downloads": 0, "stars": 0, "installs": 0, "version": "", "updated_at": 0}, {"slug": "apollographql-apollo-server", "name": "apollographql/apollo-server", "description": "Build GraphQL servers using Apollo Server 5", "description_zh": "", "homepage": "https://officialskills.sh/apollographql/skills/apollo-server", "tags": ["TypeScript Skills"], "category": "TypeScript Skills", "ownerName": "", "sources": ["VoltAgent/awesome-agent-skills"], "score": 893, "downloads": 0, "stars": 0, "installs": 0, "version": "", "updated_at": 0}, {"slug": "apollographql-graphql-operations", "name": "apollographql/graphql-operations", "description": "Write GraphQL queries, mutations, and subscriptions following best practices", "description_zh": "", "homepage": "https://officialskills.sh/apollographql/skills/graphql-operations", "tags": ["TypeScript Skills"], "category": "TypeScript Skills", "ownerName": "", "sources": ["VoltAgent/awesome-agent-skills"], "score": 892, "downloads": 0, "stars": 0, "installs": 0, "version": "", "updated_at": 0}, {"slug": "apollographql-graphql-schema", "name": "apollographql/graphql-schema", "description": "Reference guide for designing clean, evolvable GraphQL schemas", "description_zh": "", "homepage": "https://officialskills.sh/apollographql/skills/graphql-schema", "tags": ["TypeScript Skills"], "category": "TypeScript Skills", "ownerName": "", "sources": ["VoltAgent/awesome-agent-skills"], "score": 891, "downloads": 0, "stars": 0, "installs": 0, "version": "", "updated_at": 0}, {"slug": "apollographql-rover", "name": "apollographql/rover", "description": "CLI tool for managing GraphQL schemas in Apollo GraphOS", "description_zh": "", "homepage": "https://officialskills.sh/apollographql/skills/rover", "tags": ["TypeScript Skills"], "category": "TypeScript Skills", "ownerName": "", "sources": ["VoltAgent/awesome-agent-skills"], "score": 890, "downloads": 0, "stars": 0, "installs": 0, "version": "", "updated_at": 0}, {"slug": "apollographql-rust-best-practices", "name": "apollographql/rust-best-practices", "description": "Rust coding guidelines drawn from Apollo GraphQL's internal handbook", "description_zh": "", "homepage": "https://officialskills.sh/apollographql/skills/rust-best-practices", "tags": ["TypeScript Skills"], "category": "TypeScript Skills", "ownerName": "", "sources": ["VoltAgent/awesome-agent-skills"], "score": 889, "downloads": 0, "stars": 0, "installs": 0, "version": "", "updated_at": 0}, {"slug": "apollographql-skill-creator", "name": "apollographql/skill-creator", "description": "Create and structure Agent Skills focused on Apollo GraphQL", "description_zh": "", "homepage": "https://officialskills.sh/apollographql/skills/skill-creator", "tags": ["TypeScript Skills"], "category": "TypeScript Skills", "ownerName": "", "sources": ["VoltAgent/awesome-agent-skills"], "score": 888, "downloads": 0, "stars": 0, "installs": 0, "version": "", "updated_at": 0}, {"slug": "asana-automation", "name": "Asana Automation", "description": "Automate Asana: tasks, projects, sections, assignments, and workspaces.", "description_zh": "", "homepage": "./asana-automation", "tags": ["App Automation via Composio"], "category": "App Automation via Composio", "ownerName": "", "sources": ["ComposioHQ/awesome-claude-skills"], "score": 887, "downloads": 0, "stars": 0, "installs": 0, "version": "", "updated_at": 0}, {"slug": "auth0-auth0-android", "name": "auth0/auth0-android", "description": "Add authentication to native Android apps using the Auth0 SDK", "description_zh": "", "homepage": "https://officialskills.sh/auth0/skills/auth0-android", "tags": ["TypeScript Skills"], "category": "TypeScript Skills", "ownerName": "", "sources": ["VoltAgent/awesome-agent-skills"], "score": 886, "downloads": 0, "stars": 0, "installs": 0, "version": "", "updated_at": 0}, {"slug": "auth0-auth0-angular", "name": "auth0/auth0-angular", "description": "Add authentication to Angular apps using @auth0/auth0-angular", "description_zh": "", "homepage": "https://officialskills.sh/auth0/skills/auth0-angular", "tags": ["TypeScript Skills"], "category": "TypeScript Skills", "ownerName": "", "sources": ["VoltAgent/awesome-agent-skills"], "score": 885, "downloads": 0, "stars": 0, "installs": 0, "version": "", "updated_at": 0}, {"slug": "auth0-auth0-aspnetcore-api", "name": "auth0/auth0-aspnetcore-api", "description": "Add JWT access token validation to ASP.NET Core APIs", "description_zh": "", "homepage": "https://officialskills.sh/auth0/skills/auth0-aspnetcore-api", "tags": ["TypeScript Skills"], "category": "TypeScript Skills", "ownerName": "", "sources": ["VoltAgent/awesome-agent-skills"], "score": 884, "downloads": 0, "stars": 0, "installs": 0, "version": "", "updated_at": 0}, {"slug": "auth0-auth0-express", "name": "auth0/auth0-express", "description": "Add session-based authentication to Express.js apps", "description_zh": "", "homepage": "https://officialskills.sh/auth0/skills/auth0-express", "tags": ["TypeScript Skills"], "category": "TypeScript Skills", "ownerName": "", "sources": ["VoltAgent/awesome-agent-skills"], "score": 883, "downloads": 0, "stars": 0, "installs": 0, "version": "", "updated_at": 0}, {"slug": "auth0-auth0-fastify", "name": "auth0/auth0-fastify", "description": "Add session-based authentication to Fastify web apps", "description_zh": "", "homepage": "https://officialskills.sh/auth0/skills/auth0-fastify", "tags": ["TypeScript Skills"], "category": "TypeScript Skills", "ownerName": "", "sources": ["VoltAgent/awesome-agent-skills"], "score": 882, "downloads": 0, "stars": 0, "installs": 0, "version": "", "updated_at": 0}, {"slug": "auth0-auth0-fastify-api", "name": "auth0/auth0-fastify-api", "description": "Secure Fastify API endpoints with JWT Bearer token validation", "description_zh": "", "homepage": "https://officialskills.sh/auth0/skills/auth0-fastify-api", "tags": ["TypeScript Skills"], "category": "TypeScript Skills", "ownerName": "", "sources": ["VoltAgent/awesome-agent-skills"], "score": 881, "downloads": 0, "stars": 0, "installs": 0, "version": "", "updated_at": 0}, {"slug": "auth0-auth0-mfa", "name": "auth0/auth0-mfa", "description": "Add Multi-Factor Authentication to Auth0-powered apps", "description_zh": "", "homepage": "https://officialskills.sh/auth0/skills/auth0-mfa", "tags": ["TypeScript Skills"], "category": "TypeScript Skills", "ownerName": "", "sources": ["VoltAgent/awesome-agent-skills"], "score": 880, "downloads": 0, "stars": 0, "installs": 0, "version": "", "updated_at": 0}, {"slug": "auth0-auth0-migration", "name": "auth0/auth0-migration", "description": "Migrate users and auth flows from other providers to Auth0", "description_zh": "", "homepage": "https://officialskills.sh/auth0/skills/auth0-migration", "tags": ["TypeScript Skills"], "category": "TypeScript Skills", "ownerName": "", "sources": ["VoltAgent/awesome-agent-skills"], "score": 879, "downloads": 0, "stars": 0, "installs": 0, "version": "", "updated_at": 0}, {"slug": "auth0-auth0-nextjs", "name": "auth0/auth0-nextjs", "description": "Add authentication to Next.js apps", "description_zh": "", "homepage": "https://officialskills.sh/auth0/skills/auth0-nextjs", "tags": ["TypeScript Skills"], "category": "TypeScript Skills", "ownerName": "", "sources": ["VoltAgent/awesome-agent-skills"], "score": 878, "downloads": 0, "stars": 0, "installs": 0, "version": "", "updated_at": 0}, {"slug": "auth0-auth0-nuxt", "name": "auth0/auth0-nuxt", "description": "Add Auth0 authentication to Nuxt 3/4 apps with encrypted cookie sessions", "description_zh": "", "homepage": "https://officialskills.sh/auth0/skills/auth0-nuxt", "tags": ["TypeScript Skills"], "category": "TypeScript Skills", "ownerName": "", "sources": ["VoltAgent/awesome-agent-skills"], "score": 877, "downloads": 0, "stars": 0, "installs": 0, "version": "", "updated_at": 0}, {"slug": "auth0-auth0-quickstart", "name": "auth0/auth0-quickstart", "description": "Detect your framework and scaffold Auth0 integration automatically", "description_zh": "", "homepage": "https://officialskills.sh/auth0/skills/auth0-quickstart", "tags": ["TypeScript Skills"], "category": "TypeScript Skills", "ownerName": "", "sources": ["VoltAgent/awesome-agent-skills"], "score": 876, "downloads": 0, "stars": 0, "installs": 0, "version": "", "updated_at": 0}, {"slug": "auth0-auth0-react", "name": "auth0/auth0-react", "description": "Add authentication to React SPAs using @auth0/auth0-react", "description_zh": "", "homepage": "https://officialskills.sh/auth0/skills/auth0-react", "tags": ["TypeScript Skills"], "category": "TypeScript Skills", "ownerName": "", "sources": ["VoltAgent/awesome-agent-skills"], "score": 875, "downloads": 0, "stars": 0, "installs": 0, "version": "", "updated_at": 0}, {"slug": "auth0-auth0-react-native", "name": "auth0/auth0-react-native", "description": "Add authentication to React Native and Expo mobile apps", "description_zh": "", "homepage": "https://officialskills.sh/auth0/skills/auth0-react-native", "tags": ["TypeScript Skills"], "category": "TypeScript Skills", "ownerName": "", "sources": ["VoltAgent/awesome-agent-skills"], "score": 874, "downloads": 0, "stars": 0, "installs": 0, "version": "", "updated_at": 0}, {"slug": "auth0-auth0-vue", "name": "auth0/auth0-vue", "description": "Add authentication to Vue.js apps", "description_zh": "", "homepage": "https://officialskills.sh/auth0/skills/auth0-vue", "tags": ["TypeScript Skills"], "category": "TypeScript Skills", "ownerName": "", "sources": ["VoltAgent/awesome-agent-skills"], "score": 873, "downloads": 0, "stars": 0, "installs": 0, "version": "", "updated_at": 0}, {"slug": "avoid-ai-writing", "name": "avoid-ai-writing", "description": "Audits and rewrites content to remove 21 categories of AI writing patterns with a 43-entry replacement table and two-pass detection.", "description_zh": "", "homepage": "https://github.com/conorbronsdon/avoid-ai-writing", "tags": ["✍️ Writing & Research"], "category": "✍️ Writing & Research", "ownerName": "conorbronsdon", "sources": ["BehiSecc/awesome-claude-skills"], "score": 872, "downloads": 0, "stars": 0, "installs": 0, "version": "", "updated_at": 0}, {"slug": "awrshift-claude-memory-kit", "name": "awrshift/claude-memory-kit", "description": "Persistent memory with hooks, wiki, and daily synthesis for multi-project workflows", "description_zh": "", "homepage": "https://github.com/awrshift/claude-memory-kit", "tags": ["Community Skills"], "category": "Community Skills", "ownerName": "awrshift", "sources": ["VoltAgent/awesome-agent-skills"], "score": 871, "downloads": 0, "stars": 0, "installs": 0, "version": "", "updated_at": 0}, {"slug": "bamboohr-automation", "name": "BambooHR Automation", "description": "Automate BambooHR: employees, time off, reports, and directory management.", "description_zh": "", "homepage": "./bamboohr-automation", "tags": ["App Automation via Composio"], "category": "App Automation via Composio", "ownerName": "", "sources": ["ComposioHQ/awesome-claude-skills"], "score": 870, "downloads": 0, "stars": 0, "installs": 0, "version": "", "updated_at": 0}, {"slug": "basecamp-automation", "name": "Basecamp Automation", "description": "Automate Basecamp: to-do lists, messages, people, groups, and projects.", "description_zh": "", "homepage": "./basecamp-automation", "tags": ["App Automation via Composio"], "category": "App Automation via Composio", "ownerName": "", "sources": ["ComposioHQ/awesome-claude-skills"], "score": 869, "downloads": 0, "stars": 0, "installs": 0, "version": "", "updated_at": 0}, {"slug": "better-auth-best-practices", "name": "better-auth/best-practices", "description": "Best practices for Better Auth integration", "description_zh": "", "homepage": "https://officialskills.sh/better-auth/skills/best-practices", "tags": ["Skills by Better Auth Team"], "category": "Skills by Better Auth Team", "ownerName": "", "sources": ["VoltAgent/awesome-agent-skills"], "score": 868, "downloads": 0, "stars": 0, "installs": 0, "version": "", "updated_at": 0}, {"slug": "better-auth-create-auth", "name": "better-auth/create-auth", "description": "Create authentication setup with Better Auth", "description_zh": "", "homepage": "https://officialskills.sh/better-auth/skills/create-auth", "tags": ["Skills by Better Auth Team"], "category": "Skills by Better Auth Team", "ownerName": "", "sources": ["VoltAgent/awesome-agent-skills"], "score": 867, "downloads": 0, "stars": 0, "installs": 0, "version": "", "updated_at": 0}, {"slug": "better-auth-emailandpassword", "name": "better-auth/emailAndPassword", "description": "Email and password authentication with Better Auth", "description_zh": "", "homepage": "https://officialskills.sh/better-auth/skills/emailAndPassword", "tags": ["Skills by Better Auth Team"], "category": "Skills by Better Auth Team", "ownerName": "", "sources": ["VoltAgent/awesome-agent-skills"], "score": 866, "downloads": 0, "stars": 0, "installs": 0, "version": "", "updated_at": 0}, {"slug": "better-auth-explain-error", "name": "better-auth/explain-error", "description": "Explain Better Auth error messages", "description_zh": "", "homepage": "https://officialskills.sh/better-auth/skills/explain-error", "tags": ["Skills by Better Auth Team"], "category": "Skills by Better Auth Team", "ownerName": "", "sources": ["VoltAgent/awesome-agent-skills"], "score": 865, "downloads": 0, "stars": 0, "installs": 0, "version": "", "updated_at": 0}, {"slug": "better-auth-organization", "name": "better-auth/organization", "description": "Organization management with Better Auth", "description_zh": "", "homepage": "https://officialskills.sh/better-auth/skills/organization", "tags": ["Skills by Better Auth Team"], "category": "Skills by Better Auth Team", "ownerName": "", "sources": ["VoltAgent/awesome-agent-skills"], "score": 864, "downloads": 0, "stars": 0, "installs": 0, "version": "", "updated_at": 0}, {"slug": "better-auth-providers", "name": "better-auth/providers", "description": "Better Auth authentication providers", "description_zh": "", "homepage": "https://officialskills.sh/better-auth/skills/providers", "tags": ["Skills by Better Auth Team"], "category": "Skills by Better Auth Team", "ownerName": "", "sources": ["VoltAgent/awesome-agent-skills"], "score": 863, "downloads": 0, "stars": 0, "installs": 0, "version": "", "updated_at": 0}, {"slug": "better-auth-twofactor", "name": "better-auth/twoFactor", "description": "Two-factor authentication with Better Auth", "description_zh": "", "homepage": "https://officialskills.sh/better-auth/skills/twoFactor", "tags": ["Skills by Better Auth Team"], "category": "Skills by Better Auth Team", "ownerName": "", "sources": ["VoltAgent/awesome-agent-skills"], "score": 862, "downloads": 0, "stars": 0, "installs": 0, "version": "", "updated_at": 0}, {"slug": "binance-crypto-market-rank", "name": "binance/crypto-market-rank", "description": "Query crypto market rankings including trending tokens, smart money inflows, meme rankings, and top trader PnL leaderboards", "description_zh": "", "homepage": "https://officialskills.sh/binance/skills/crypto-market-rank", "tags": ["TypeScript Skills"], "category": "TypeScript Skills", "ownerName": "", "sources": ["VoltAgent/awesome-agent-skills"], "score": 861, "downloads": 0, "stars": 0, "installs": 0, "version": "", "updated_at": 0}, {"slug": "binance-meme-rush", "name": "binance/meme-rush", "description": "Track real-time meme token lists from launchpads (Pump.fun, Four.meme) and AI-powered hot market topics ranked by net inflow", "description_zh": "", "homepage": "https://officialskills.sh/binance/skills/meme-rush", "tags": ["TypeScript Skills"], "category": "TypeScript Skills", "ownerName": "", "sources": ["VoltAgent/awesome-agent-skills"], "score": 860, "downloads": 0, "stars": 0, "installs": 0, "version": "", "updated_at": 0}, {"slug": "binance-query-address-info", "name": "binance/query-address-info", "description": "Retrieve all token holdings and portfolio positions for any wallet address on BSC, Base, or Solana", "description_zh": "", "homepage": "https://officialskills.sh/binance/skills/query-address-info", "tags": ["TypeScript Skills"], "category": "TypeScript Skills", "ownerName": "", "sources": ["VoltAgent/awesome-agent-skills"], "score": 859, "downloads": 0, "stars": 0, "installs": 0, "version": "", "updated_at": 0}, {"slug": "binance-query-token-audit", "name": "binance/query-token-audit", "description": "Audit token security to detect scams, honeypots, and malicious contracts across BSC, Base, Solana, and Ethereum", "description_zh": "", "homepage": "https://officialskills.sh/binance/skills/query-token-audit", "tags": ["TypeScript Skills"], "category": "TypeScript Skills", "ownerName": "", "sources": ["VoltAgent/awesome-agent-skills"], "score": 858, "downloads": 0, "stars": 0, "installs": 0, "version": "", "updated_at": 0}, {"slug": "binance-query-token-info", "name": "binance/query-token-info", "description": "Search tokens and fetch metadata, real-time market data, and K-Line candlestick charts by keyword or contract address", "description_zh": "", "homepage": "https://officialskills.sh/binance/skills/query-token-info", "tags": ["TypeScript Skills"], "category": "TypeScript Skills", "ownerName": "", "sources": ["VoltAgent/awesome-agent-skills"], "score": 857, "downloads": 0, "stars": 0, "installs": 0, "version": "", "updated_at": 0}, {"slug": "binance-spot", "name": "binance/spot", "description": "Place and manage spot trading orders on Binance via API key authentication, supporting mainnet and testnet", "description_zh": "", "homepage": "https://officialskills.sh/binance/skills/spot", "tags": ["TypeScript Skills"], "category": "TypeScript Skills", "ownerName": "", "sources": ["VoltAgent/awesome-agent-skills"], "score": 856, "downloads": 0, "stars": 0, "installs": 0, "version": "", "updated_at": 0}, {"slug": "binance-trading-signal", "name": "binance/trading-signal", "description": "Monitor on-chain Smart Money buy/sell signals with price, max gain, and exit rate data on Solana and BSC", "description_zh": "", "homepage": "https://officialskills.sh/binance/skills/trading-signal", "tags": ["TypeScript Skills"], "category": "TypeScript Skills", "ownerName": "", "sources": ["VoltAgent/awesome-agent-skills"], "score": 855, "downloads": 0, "stars": 0, "installs": 0, "version": "", "updated_at": 0}, {"slug": "bitbucket-automation", "name": "Bitbucket Automation", "description": "Automate Bitbucket: repos, PRs, branches, issues, and workspaces.", "description_zh": "", "homepage": "./bitbucket-automation", "tags": ["App Automation via Composio"], "category": "App Automation via Composio", "ownerName": "", "sources": ["ComposioHQ/awesome-claude-skills"], "score": 854, "downloads": 0, "stars": 0, "installs": 0, "version": "", "updated_at": 0}, {"slug": "bitjaru-styleseed", "name": "bitjaru/styleseed", "description": "StyleSeed Toss UI and UX skill collection - setup wizard, page and pattern generation, design-token management, accessibility review, UX audits, feedback states, and microcopy guidance for professional mobile-first UI.", "description_zh": "", "homepage": "https://github.com/bitjaru/styleseed", "tags": ["Community Contributors"], "category": "Community Contributors", "ownerName": "bitjaru", "sources": ["sickn33/antigravity-awesome-skills"], "score": 853, "downloads": 0, "stars": 0, "installs": 0, "version": "", "updated_at": 0}, {"slug": "blader-humanizer", "name": "blader/humanizer", "description": "Remove signs of AI-generated writing from text, making it sound more natural and human", "description_zh": "", "homepage": "https://github.com/blader/humanizer", "tags": ["Community Skills"], "category": "Community Skills", "ownerName": "blader", "sources": ["VoltAgent/awesome-agent-skills"], "score": 852, "downloads": 0, "stars": 0, "installs": 0, "version": "", "updated_at": 0}, {"slug": "blog-post-about-its-development", "name": "Blog post about its development", "description": "Install from superpowers-marketplace plugin", "description_zh": "", "homepage": "https://blog.fsck.com/2025/10/23/naming-claude-plugins", "tags": ["Collections & Libraries"], "category": "Collections & Libraries", "ownerName": "", "sources": ["travisvn/awesome-claude-skills"], "score": 851, "downloads": 0, "stars": 0, "installs": 0, "version": "", "updated_at": 0}]}