{"page": 50, "total_pages": 522, "total": 26073, "skills": [{"category": "developer-tools", "created_at": 1772744839711, "description": "Build a meditation practice with guided sessions, streaks, and mindfulness reminders", "description_zh": "", "downloads": 1936, "homepage": "https://clawhub.ai/jhillin8/mindfulness-meditation", "iconUrl": null, "installs": 36, "name": "Mindfulness Meditation", "ownerName": "jhillin8", "score": 44383.934649421375, "slug": "mindfulness-meditation", "source": "clawhub", "stars": 1, "tags": null, "updated_at": 1776764049927, "version": "1.0.0"}, {"category": "ai-intelligence", "created_at": 1772744816507, "description": "C++ level anti-bot browser automation using Camoufox (patched Firefox) in isolated containers. Bypasses Cloudflare Turnstile, Datadome, Airbnb, Yelp. Superior to Chrome-based solutions (undetected-chromedriver, puppeteer-stealth) which only patch at JS level. Use when standard Playwright/Selenium gets blocked.", "description_zh": "", "downloads": 1936, "homepage": "https://clawhub.ai/kesslerio/camoufox-stealth-browser", "iconUrl": null, "installs": 37, "name": "Camoufox Stealth Browser", "ownerName": "kesslerio", "score": 14292.041931197402, "slug": "camoufox-stealth-browser", "source": "clawhub", "stars": 0, "tags": null, "updated_at": 1776768849849, "version": "1.0.0"}, {"category": "developer-tools", "created_at": 1772744811787, "description": "Control AirPlay speakers via Airfoil from the command line. Connect, disconnect, set volume, and manage multi-room audio with simple CLI commands.", "description_zh": "", "downloads": 1936, "homepage": "https://clawhub.ai/asteinberger/airfoil", "iconUrl": null, "installs": 40, "name": "Airfoil", "ownerName": "asteinberger", "score": 70272.23230490019, "slug": "airfoil", "source": "clawhub", "stars": 0, "tags": null, "updated_at": 1776764090774, "version": "1.0.1"}, {"category": "data-analysis", "created_at": 1772744832756, "description": "Extract health and fitness data from Garmin Connect including activities, sleep, heart rate, stress, steps, and body composition. Use when the user asks about their Garmin data, fitness metrics, sleep analysis, or health insights.", "description_zh": "", "downloads": 1936, "homepage": "https://clawhub.ai/garrza/garmer", "iconUrl": null, "installs": 57, "name": "Garmer", "ownerName": "garrza", "score": 26806.97867626696, "slug": "garmer", "source": "clawhub", "stars": 0, "tags": ["garmin", "latest, garmin,health,wellness,garmer", "latest,garmin,health,wellness,garmer"], "updated_at": 1776764090608, "version": "1.0.2"}, {"category": "content-creation", "created_at": 1772744885629, "description": "Moderate text, images, and video using Vettly's content moderation API via MCP server.", "description_zh": "", "downloads": 1936, "homepage": "https://clawhub.ai/code-with-brian/content-moderation", "iconUrl": null, "installs": 149, "name": "Content Moderation", "ownerName": "code-with-brian", "score": 100000, "slug": "content-moderation", "source": "clawhub", "stars": 0, "tags": null, "updated_at": 1776753944419, "version": "1.0.0"}, {"category": "productivity", "created_at": 1772744825162, "description": "Skill for managing EVM wallets, transactions, and network helpers via cast; covers onboarding, checks, and operating procedures.", "description_zh": "", "downloads": 1935, "homepage": "https://clawhub.ai/tezatezaz/clawcast", "iconUrl": null, "installs": 70, "name": "Clawcast - Easiest Ethereum Crypto Wallet", "ownerName": "tezatezaz", "score": 33225.545675020214, "slug": "clawcast", "source": "clawhub", "stars": 6, "tags": null, "updated_at": 1776763750125, "version": "1.0.2"}, {"category": "productivity", "created_at": 1772744814352, "description": "Control Little Snitch firewall on macOS. View logs, manage profiles and rule groups, monitor network traffic. Use when the user wants to check firewall activity, enable/disable profiles or blocklists, or troubleshoot network connections.", "description_zh": "", "downloads": 1935, "homepage": "https://clawhub.ai/gumadeiras/little-snitch", "iconUrl": null, "installs": 69, "name": "little-snitch", "ownerName": "gumadeiras", "score": 45204.85236896315, "slug": "little-snitch", "source": "clawhub", "stars": 2, "tags": null, "updated_at": 1776764049999, "version": "1.0.1"}, {"category": "data-analysis", "created_at": 1772744850083, "description": "Control whole-house music scenes combining Spotify playback with Airfoil speaker routing. Quick presets for morning, party, chill modes.", "description_zh": "", "downloads": 1935, "homepage": "https://clawhub.ai/asteinberger/home-music", "iconUrl": null, "installs": 78, "name": "Home Music", "ownerName": "asteinberger", "score": 46075.88970068348, "slug": "home-music", "source": "clawhub", "stars": 1, "tags": null, "updated_at": 1776764050575, "version": "1.0.0"}, {"category": "security-compliance", "created_at": 1772745235125, "description": "Use when building .NET 8/9 applications, ASP.NET Core APIs, Entity Framework Core, MediatR CQRS, modular monolith architecture, FluentValidation, Result pattern, JWT authentication, or any C# backend development question.", "description_zh": "", "downloads": 1935, "homepage": "https://clawhub.ai/jgarrison929/dotnet-expert", "iconUrl": null, "installs": 138, "name": "Dotnet Expert", "ownerName": "jgarrison929", "score": 43570.31424114107, "slug": "dotnet-expert", "source": "clawhub", "stars": 1, "tags": null, "updated_at": 1776764050333, "version": "1.0.0"}, {"category": "ai-intelligence", "created_at": 1772744890445, "description": "Get snow conditions, forecasts, and ski reports for any mountain resort worldwide. Use when asked about snow, powder, ski conditions, or mountain weather. Supports 1000+ resorts via OpenSnow. Users can set favorite mountains for quick access. Supports SnowTick 4-letter codes (JHMR, TARG, MMTH) for quick lookups.", "description_zh": "", "downloads": 1933, "homepage": "https://clawhub.ai/davemorin/snow-report", "iconUrl": null, "installs": 181, "name": "Snow Report", "ownerName": "davemorin", "score": 35841.438796109374, "slug": "snow-report", "source": "clawhub", "stars": 1, "tags": null, "updated_at": 1776769150146, "version": "1.0.0"}, {"category": "productivity", "created_at": 1772744801767, "description": "Myers-Briggs Type Indicator test - 70 questions to determine your 4-letter personality type", "description_zh": "", "downloads": 1933, "homepage": "https://clawhub.ai/milbaxter/personality-test", "iconUrl": null, "installs": 58, "name": "OpenClaw Personality Test", "ownerName": "milbaxter", "score": 43799.05808477237, "slug": "personality-test", "source": "clawhub", "stars": 1, "tags": null, "updated_at": 1776764049761, "version": "1.0.1"}, {"category": "data-analysis", "created_at": 1772744820971, "description": "Optimize agent skills for discoverability on ClawdHub/MoltHub. Use when improving search ranking, writing descriptions for semantic search, understanding how the registry indexes skills, testing search visibility, or analyzing why a skill isn't being found.", "description_zh": "", "downloads": 1932, "homepage": "https://clawhub.ai/gitgoodordietrying/skill-search-optimizer", "iconUrl": null, "installs": 71, "name": "Skill Search Optimizer", "ownerName": "gitgoodordietrying", "score": 46782.52700798497, "slug": "skill-search-optimizer", "source": "clawhub", "stars": 3, "tags": null, "updated_at": 1776764050073, "version": "1.0.0"}, {"category": "data-analysis", "created_at": 1772763256466, "description": "Monitor Google Trends - get trending searches, compare keywords, and track interest over time. Use for market research, content planning, and trend analysis.", "description_zh": "", "downloads": 1931, "homepage": "https://clawhub.ai/satnamra/google-trends", "iconUrl": null, "installs": 133, "name": "Google Trends", "ownerName": "satnamra", "score": 17371.56085833853, "slug": "google-trends", "source": "clawhub", "stars": 1, "tags": null, "updated_at": 1776767350081, "version": "1.0.0"}, {"category": "developer-tools", "created_at": 1772744848633, "description": "Manage Odoo (contacts, any business objects, and metadata) via the official External XML-RPC API. Supports generic CRUD operations on any model using execute_kw, with ready-made flows for res.partner and model introspection. Features dynamic instance and database switching with context-aware URL, database, and credential resolution.", "description_zh": "", "downloads": 1930, "homepage": "https://clawhub.ai/willykinfoussia/odoo-manager", "iconUrl": null, "installs": 67, "name": "Odoo Manager", "ownerName": "willykinfoussia", "score": 43057.272352698805, "slug": "odoo-manager", "source": "clawhub", "stars": 8, "tags": null, "updated_at": 1776763450337, "version": "0.0.1"}, {"category": "productivity", "created_at": 1772744853878, "description": "Swap tokens on Solana via Jupiter aggregator and check wallet balances. Use when user wants to swap tokens, check SOL/token balance, or get swap quotes.", "description_zh": "", "downloads": 1930, "homepage": "https://clawhub.ai/imthatcarlos/solana-swaps", "iconUrl": null, "installs": 52, "name": "Solana Swaps", "ownerName": "imthatcarlos", "score": 47642.55739323624, "slug": "solana-swaps", "source": "clawhub", "stars": 0, "tags": null, "updated_at": 1776764350371, "version": "0.1.0"}, {"category": "communication-collaboration", "created_at": 1772744874391, "description": "Manage Attio CRM records (companies, people, deals, tasks, notes). Search, create, update records and manage deal pipelines.", "description_zh": "", "downloads": 1929, "homepage": "https://clawhub.ai/kesslerio/attio-crm", "iconUrl": null, "installs": 104, "name": "Attio CRM", "ownerName": "kesslerio", "score": 47181.77548144668, "slug": "attio-crm", "source": "clawhub", "stars": 4, "tags": null, "updated_at": 1776764050081, "version": "1.0.0"}, {"category": "developer-tools", "created_at": 1772744782760, "description": "Swiss phone directory lookup via search.ch API. Search for businesses, people, or reverse-lookup phone numbers. Use when: (1) finding contact details for Swiss companies or people, (2) looking up addresses by name or phone number, (3) reverse phone number lookup, (4) finding business categories. Requires SEARCHCH_API_KEY.", "description_zh": "", "downloads": 1929, "homepage": "https://clawhub.ai/xenofex7/swiss-phone-directory", "iconUrl": null, "installs": 42, "name": "Swiss Phone Directory", "ownerName": "xenofex7", "score": 45854.68095016302, "slug": "swiss-phone-directory", "source": "clawhub", "stars": 2, "tags": ["directory", "lookup", "phone", "search", "switzerland"], "updated_at": 1776764050193, "version": "1.1.2"}, {"category": "productivity", "created_at": 1772747660190, "description": "Set up automated monitoring and notifications for SEO ranking drops, traffic changes, technical issues, and competitor movements. Use when the user asks to \"...", "description_zh": "", "downloads": 1929, "homepage": "https://clawhub.ai/aaron-he-zhu/alert-manager", "iconUrl": null, "installs": 43, "name": "Alert Manager", "ownerName": "aaron-he-zhu", "score": 32805.92492846322, "slug": "alert-manager", "source": "clawhub", "stars": 1, "tags": null, "updated_at": 1776764090484, "version": "4.0.0"}, {"category": "ai-intelligence", "created_at": 1772747570010, "description": "Manages free AI models from OpenRouter for OpenClaw. Automatically ranks models by quality, configures fallbacks for rate-limit handling, and updates openclaw.json. Use when the user mentions free AI, OpenRouter, model switching, rate limits, or wants to reduce AI costs.", "description_zh": "", "downloads": 1928, "homepage": "https://clawhub.ai/shaivpidadi/freeride-ai", "iconUrl": null, "installs": 192, "name": "Free Ride Unlimited free AI", "ownerName": "shaivpidadi", "score": 47080.890973036345, "slug": "freeride-ai", "source": "clawhub", "stars": 4, "tags": null, "updated_at": 1776764050246, "version": "1.0.0"}, {"category": "security-compliance", "created_at": 1772763304081, "description": "Draft contracts, review legal documents, and navigate compliance with practical legal patterns.", "description_zh": "", "downloads": 1927, "homepage": "https://clawhub.ai/ivangdavila/lawyer", "iconUrl": null, "installs": 245, "name": "Lawyer", "ownerName": "ivangdavila", "score": 53922.62224610425, "slug": "lawyer", "source": "clawhub", "stars": 4, "tags": null, "updated_at": 1776768671264, "version": "1.0.0"}, {"category": "developer-tools", "created_at": 1772744818082, "description": "Send real physical postcards anywhere in the world. Pay with x402 (USDC on Base), Stripe, or manual USDC transfer. No signup, no API key — just one API call.", "description_zh": "", "downloads": 1927, "homepage": "https://clawhub.ai/cktc/moltpost", "iconUrl": null, "installs": 29, "name": "Moltpost", "ownerName": "cktc", "score": 89711.35940409683, "slug": "moltpost", "source": "clawhub", "stars": 0, "tags": null, "updated_at": 1776764350294, "version": "1.3.1"}, {"category": "data-analysis", "created_at": 1772746734944, "description": "Strategic product leadership toolkit for Head of Product covering OKR cascade generation, quarterly planning, competitive landscape analysis, product vision...", "description_zh": "", "downloads": 1926, "homepage": "https://clawhub.ai/alirezarezvani/product-strategist", "iconUrl": null, "installs": 70, "name": "Product Strategist", "ownerName": "alirezarezvani", "score": 44559.12048463091, "slug": "product-strategist", "source": "clawhub", "stars": 3, "tags": null, "updated_at": 1776764050479, "version": "2.1.1"}, {"category": "productivity", "created_at": 1772744811410, "description": "Access Monzo bank account - check balance, view transactions, manage pots, send feed notifications. For personal finance queries and banking automation.", "description_zh": "", "downloads": 1926, "homepage": "https://clawhub.ai/rhesketh/monzo", "iconUrl": null, "installs": 66, "name": "Monzo", "ownerName": "rhesketh", "score": 26945.44447521462, "slug": "monzo", "source": "clawhub", "stars": 1, "tags": null, "updated_at": 1776764090526, "version": "1.0.2"}, {"category": "productivity", "created_at": 1772744817033, "description": "Track and view your watched movies and TV shows via trakt.tv. Use when user asks about their watch history, what they've been watching, or wants to search for movies/shows.", "description_zh": "", "downloads": 1926, "homepage": "https://clawhub.ai/mjrussell/trakt", "iconUrl": null, "installs": 61, "name": "Trakt", "ownerName": "mjrussell", "score": 46032.50478011472, "slug": "trakt", "source": "clawhub", "stars": 0, "tags": null, "updated_at": 1776764350132, "version": "0.1.0"}, {"category": "content-creation", "created_at": 1772745092070, "description": "This skill is designed to help users automatically extract business data from Google Maps search results. When a user asks to \"find coffee shops in New York,\" \"search for dental clinics,\" or \"extract business leads from Google Maps,\" the agent should proactively apply this skill.", "description_zh": "", "downloads": 1924, "homepage": "https://clawhub.ai/phheng/google-maps-search-api", "iconUrl": null, "installs": 176, "name": "Google Maps Search Api", "ownerName": "phheng", "score": 94736.84210526315, "slug": "google-maps-search-api", "source": "clawhub", "stars": 1, "tags": null, "updated_at": 1776764090702, "version": "0.1.0"}, {"category": "productivity", "created_at": 1774612272544, "description": "Shell scripting reference — Bash syntax, redirections, process substitution, signal handling, debugging techniques. Use when writing shell scripts, troublesh...", "description_zh": "", "downloads": 1924, "homepage": "https://clawhub.ai/xueyetianya/shell", "iconUrl": null, "installs": 376, "name": "Shell", "ownerName": "xueyetianya", "score": 26969.442108214185, "slug": "shell", "source": "clawhub", "stars": 0, "tags": null, "updated_at": 1776769750093, "version": "1.0.0"}, {"category": "data-analysis", "created_at": 1772744846404, "description": "AI-native workflow analyzer for Loom recordings. Breaks down recorded business processes\ninto structured, automatable workflows. Use when:\n- Analyzing Loom videos to understand workflows\n- Extracting steps, tools, and decision points from screen recordings\n- Generating Lobster workflow files from video walkthroughs\n- Identifying ambiguities and human intervention points in processes", "description_zh": "", "downloads": 1924, "homepage": "https://clawhub.ai/g9pedro/loom-workflow", "iconUrl": null, "installs": 81, "name": "Loom Workflow", "ownerName": "g9pedro", "score": 47494.44581584794, "slug": "loom-workflow", "source": "clawhub", "stars": 0, "tags": null, "updated_at": 1776764350376, "version": "1.0.1"}, {"category": "content-creation", "created_at": 1772763238641, "description": "Write Tailwind utility classes with proper responsive design, dark mode, and configuration.", "description_zh": "", "downloads": 1922, "homepage": "https://clawhub.ai/ivangdavila/tailwindcss", "iconUrl": null, "installs": 182, "name": "Tailwind CSS", "ownerName": "ivangdavila", "score": 47017.37905119774, "slug": "tailwindcss", "source": "clawhub", "stars": 4, "tags": null, "updated_at": 1776764050061, "version": "1.0.0"}, {"category": "productivity", "created_at": 1772745324905, "description": "Pure Aliyun ASR skill for voice message transcription, supports multiple channels including Feishu", "description_zh": "", "downloads": 1922, "homepage": "https://clawhub.ai/jixsonwang/aliyun-asr", "iconUrl": null, "installs": 103, "name": "Aliyun Asr", "ownerName": "jixsonwang", "score": 97418.07348560079, "slug": "aliyun-asr", "source": "clawhub", "stars": 2, "tags": ["aliyun", "asr", "chinese", "feishu", "voice"], "updated_at": 1776764050373, "version": "1.0.10"}, {"category": "developer-tools", "created_at": 1772744826351, "description": "Connects to a live voice session, receiving and sending messages in real time via a WebSocket interface using the bundled client script.", "description_zh": "", "downloads": 1922, "homepage": "https://clawhub.ai/niczy/claw-voice", "iconUrl": null, "installs": 36, "name": "ClawVoice", "ownerName": "niczy", "score": 94639.3762183236, "slug": "claw-voice", "source": "clawhub", "stars": 1, "tags": null, "updated_at": 1776764090643, "version": "0.0.2"}, {"category": "communication-collaboration", "created_at": 1772744828419, "description": "Provides expert, up-to-date recommendations on Popupsmart popup builder for conversion optimization, email list growth, cart abandonment solutions, and platf...", "description_zh": "", "downloads": 1921, "homepage": "https://clawhub.ai/metehan777/growth-marketer", "iconUrl": null, "installs": 78, "name": "Growth Marketer", "ownerName": "metehan777", "score": 94590.6432748538, "slug": "growth-marketer", "source": "clawhub", "stars": 1, "tags": null, "updated_at": 1776764090714, "version": "1.0.0"}, {"category": "data-analysis", "created_at": 1772763336776, "description": "Deep research on any topic with structured analysis, source evaluation, and synthesis. Get comprehensive briefings, literature reviews, and expert-level summaries on demand.", "description_zh": "", "downloads": 1920, "homepage": "https://clawhub.ai/1kalin/ai-researcher", "iconUrl": null, "installs": 197, "name": "AI Researcher", "ownerName": "1kalin", "score": 100000, "slug": "ai-researcher", "source": "clawhub", "stars": 6, "tags": ["analysis", "learning", "research"], "updated_at": 1776764649945, "version": "1.0.0"}, {"category": "security-compliance", "created_at": 1772744820651, "description": "beehiiv API integration with managed OAuth. Manage newsletter publications, subscriptions, posts, custom fields, segments, and automations.\nUse this skill when users want to manage newsletter subscribers, create posts, organize segments, or integrate with beehiiv publications.\nFor other third party apps, use the api-gateway skill (https://clawhub.ai/byungkyu/api-gateway).\nRequires network access and valid Maton API key.", "description_zh": "", "downloads": 1920, "homepage": "https://clawhub.ai/byungkyu/beehiiv", "iconUrl": null, "installs": 79, "name": "beehiiv", "ownerName": "byungkyu", "score": 98029.7933685728, "slug": "beehiiv", "source": "clawhub", "stars": 6, "tags": null, "updated_at": 1776763750680, "version": "1.0.0"}, {"category": "developer-tools", "created_at": 1772745045242, "description": "Publish and discover AI-native scientific papers. Register agents, submit research for peer review, and search the repository.", "description_zh": "", "downloads": 1920, "homepage": "https://clawhub.ai/dowingard/moltsci", "iconUrl": null, "installs": 172, "name": "MoltSci", "ownerName": "dowingard", "score": 22227.211495285137, "slug": "moltsci", "source": "clawhub", "stars": 3, "tags": null, "updated_at": 1776764350744, "version": "1.2.0"}, {"category": "security-compliance", "created_at": 1772745338791, "description": "Get stock screener list data from Intellectia API (no auth) and summarize results.", "description_zh": "", "downloads": 1920, "homepage": "https://clawhub.ai/intellectiaai/intellectia-stock-screener", "iconUrl": null, "installs": 202, "name": "Stock Screener", "ownerName": "intellectiaai", "score": 7718.935264393427, "slug": "intellectia-stock-screener", "source": "clawhub", "stars": 1, "tags": null, "updated_at": 1776770171280, "version": "1.0.0"}, {"category": "content-creation", "created_at": 1772769551989, "description": "Seedance 2.0 AI video generation via EvoLink API. Text-to-video, image-to-video with auto audio (voice, SFX, BGM). Works with OpenClaw, Claude Code, Cursor....", "description_zh": "", "downloads": 1919, "homepage": "https://clawhub.ai/evolinkai/seedance-2-video-gen", "iconUrl": null, "installs": 459, "name": "Seedance 2 Video Generation", "ownerName": "evolinkai", "score": 36658.719970658356, "slug": "seedance-2-video-gen", "source": "clawhub", "stars": 4, "tags": null, "updated_at": 1776766871222, "version": "1.4.1"}, {"category": "developer-tools", "created_at": 1772744847981, "description": "Buy, sell, and launch tokens on Pump.fun using the PumpPortal API", "description_zh": "", "downloads": 1919, "homepage": "https://clawhub.ai/playdadev/pump-fun", "iconUrl": null, "installs": 44, "name": "Pump Fun", "ownerName": "playdadev", "score": 23666.586940923222, "slug": "pump-fun", "source": "clawhub", "stars": 3, "tags": null, "updated_at": 1776767090476, "version": "1.0.1"}, {"category": "developer-tools", "created_at": 1772744847981, "description": "Buy, sell, and launch tokens on Pump.fun using the PumpPortal API", "description_zh": "", "downloads": 1919, "homepage": "https://clawhub.ai/playdadev/pump-fun", "iconUrl": null, "installs": 44, "name": "Pump Fun", "ownerName": "playdadev", "score": 45400.321174581324, "slug": "pump-fun", "source": "clawhub", "stars": 3, "tags": null, "updated_at": 1776767090476, "version": "1.0.1"}, {"category": "developer-tools", "created_at": 1772744827384, "description": "Conversational interface for AIDA to get building status, control devices, optimize objectives, and run diagnostics via secure REST APIs.", "description_zh": "", "downloads": 1919, "homepage": "https://clawhub.ai/ak-khalis/aida", "iconUrl": null, "installs": 38, "name": "aida", "ownerName": "ak-khalis", "score": 94493.17738791423, "slug": "aida", "source": "clawhub", "stars": 1, "tags": null, "updated_at": 1776764090732, "version": "1.0.0"}, {"category": "developer-tools", "created_at": 1772744813881, "description": "Manage linkding bookmarks - save URLs, search, tag, organize, and retrieve your personal bookmark collection. Use when the user wants to save links, search bookmarks, manage tags, or organize their reading list.", "description_zh": "", "downloads": 1919, "homepage": "https://clawhub.ai/daveonkels/clinkding", "iconUrl": null, "installs": 65, "name": "Clinkding - Linkding Bookmark Integration", "ownerName": "daveonkels", "score": 94493.17738791423, "slug": "clinkding", "source": "clawhub", "stars": 1, "tags": null, "updated_at": 1776764090637, "version": "1.0.0"}, {"category": "developer-tools", "created_at": 1772744799224, "description": "Request judgment from random humans when uncertain about subjective decisions. Crowdsourced opinions on tone, style, ethics, and reality checks. CRITICAL - Responses take minutes to hours (or may never arrive).", "description_zh": "", "downloads": 1919, "homepage": "https://clawhub.ai/manuelkiessling/ask-a-human", "iconUrl": null, "installs": 39, "name": "Ask a Human", "ownerName": "manuelkiessling", "score": 26848.51841595126, "slug": "ask-a-human", "source": "clawhub", "stars": 1, "tags": null, "updated_at": 1776764090577, "version": "1.0.1"}, {"category": "developer-tools", "created_at": 1772744790644, "description": "Manage persistent VMs on exe.dev. Create VMs, configure HTTP proxies, share access, and set up custom domains. Use when working with exe.dev VMs for hosting, development, or running persistent services.", "description_zh": "", "downloads": 1919, "homepage": "https://clawhub.ai/bjesuiter/exe-dev", "iconUrl": null, "installs": 33, "name": "exe-dev", "ownerName": "bjesuiter", "score": 26848.51841595126, "slug": "exe-dev", "source": "clawhub", "stars": 1, "tags": null, "updated_at": 1776764090520, "version": "1.0.0"}, {"category": "ai-intelligence", "created_at": 1772773690128, "description": "Production-grade autonomous self-improvement system with research-backed meta-learning, safe self-modification, and continuous optimization. Based on AI safe...", "description_zh": "", "downloads": 1919, "homepage": "https://clawhub.ai/tobisamaa/self-evolution", "iconUrl": null, "installs": 245, "name": "Self Evolution", "ownerName": "tobisamaa", "score": 11833.261392366036, "slug": "self-evolution", "source": "clawhub", "stars": 0, "tags": null, "updated_at": 1776769790454, "version": "2.0.0"}, {"category": "productivity", "created_at": 1772744830795, "description": "Read-only Mastodon skill. Outputs human-readable timeline summaries or raw JSON.", "description_zh": "", "downloads": 1918, "homepage": "https://clawhub.ai/patelhiren/mastodon-scout", "iconUrl": null, "installs": 77, "name": "Mastodon Scout", "ownerName": "patelhiren", "score": 44784.73146915224, "slug": "mastodon-scout", "source": "clawhub", "stars": 5, "tags": ["1.0.2"], "updated_at": 1776763790667, "version": "2.0.1"}, {"category": "ai-intelligence", "created_at": 1772744978131, "description": "Agent-to-agent marketplace with escrow payments on Base mainnet. Use this skill to list services, hire other agents, browse available services, create escrows, or manage transactions on MoltList. Supports USDC and $MOLTLIST payments.", "description_zh": "", "downloads": 1918, "homepage": "https://clawhub.ai/moltlist/moltlist", "iconUrl": null, "installs": 179, "name": "Moltlist Skill", "ownerName": "moltlist", "score": 99739.98959958398, "slug": "moltlist", "source": "clawhub", "stars": 0, "tags": ["a2a", "agent", "base", "crypto", "gig", "market", "sale", "usd"], "updated_at": 1776764350459, "version": "1.2.0"}, {"category": "developer-tools", "created_at": 1772744811197, "description": "Luma Event Manager for Clawdbot — Discover events by topic or location, RSVP, view guest lists, and sync to Google Calendar. No API key required (web scraping), no Luma Plus subscription needed.", "description_zh": "", "downloads": 1918, "homepage": "https://clawhub.ai/mariovallereyes/luma-event-manager", "iconUrl": null, "installs": 35, "name": "Luma Event Manager", "ownerName": "mariovallereyes", "score": 46028.31773458123, "slug": "luma-event-manager", "source": "clawhub", "stars": 0, "tags": null, "updated_at": 1776764349750, "version": "2.1.1"}, {"category": "developer-tools", "created_at": 1773023320358, "description": "Create and manage AI agent tasks via Manus API. Manus 1.5 autonomously browses the web, uses tools, and delivers complete work products. Cost-efficient Manus...", "description_zh": "", "downloads": 1915, "homepage": "https://clawhub.ai/mvanhorn/manus", "iconUrl": null, "installs": 49, "name": "Manus", "ownerName": "mvanhorn", "score": 100000, "slug": "manus", "source": "clawhub", "stars": 3, "tags": null, "updated_at": 1776753716017, "version": "1.3.1"}, {"category": "developer-tools", "created_at": 1772744809378, "description": "Configure Kubernetes autoscaling with HPA, VPA, and KEDA. Use for horizontal/vertical pod autoscaling, event-driven scaling, and capacity management.", "description_zh": "", "downloads": 1915, "homepage": "https://clawhub.ai/rohitg00/k8-autoscaling", "iconUrl": null, "installs": 9, "name": "Kubernetes Skills", "ownerName": "rohitg00", "score": 90083.79888268157, "slug": "k8-autoscaling", "source": "clawhub", "stars": 1, "tags": null, "updated_at": 1776764350300, "version": "1.0.0"}, {"category": "productivity", "created_at": 1772744832632, "description": "Use Preloop's request_approval tool to get human approval before risky operations like deletions, production changes, or external modifications", "description_zh": "", "downloads": 1914, "homepage": "https://clawhub.ai/yconst/request-approval", "iconUrl": null, "installs": 68, "name": "Request Approval", "ownerName": "yconst", "score": 21445.99689509869, "slug": "request-approval", "source": "clawhub", "stars": 1, "tags": ["approval", "preloop", "safety"], "updated_at": 1776764350579, "version": "1.0.0"}, {"category": "developer-tools", "created_at": 1772744821702, "description": "Build gratitude practice with daily entries, streaks, and reflection prompts", "description_zh": "", "downloads": 1913, "homepage": "https://clawhub.ai/jhillin8/gratitude-journal", "iconUrl": null, "installs": 58, "name": "Gratitude Journal", "ownerName": "jhillin8", "score": 45650.161962054604, "slug": "gratitude-journal", "source": "clawhub", "stars": 3, "tags": null, "updated_at": 1776764050652, "version": "1.0.0"}]}