{"page": 500, "total_pages": 522, "total": 26073, "skills": [{"category": "", "created_at": 1774858009235, "description": "Sleep Without Shutting Down. An immersive journey on drifts.bot — 15 steps, MEDIUM intensity, Multi-day. Browse, start, and travel via API.", "description_zh": "", "downloads": 26, "homepage": "https://clawhub.ai/driftsbot/experience-yoga-nidra", "iconUrl": null, "installs": 0, "name": "Experience Yoga Nidra", "ownerName": "driftsbot", "score": 100000, "slug": "experience-yoga-nidra", "source": "clawhub", "stars": 0, "tags": null, "updated_at": 1776698684721, "version": "1.0.0"}, {"category": "", "created_at": 1774903174200, "description": "Makes AI-generated text sound more human by intentionally introducing realistic imperfections. Use when writing emails, messages, social posts, or any text t...", "description_zh": "", "downloads": 26, "homepage": "https://clawhub.ai/dylanfeltus/error-prone", "iconUrl": null, "installs": 0, "name": "Error Prone", "ownerName": "dylanfeltus", "score": 100000, "slug": "error-prone", "source": "clawhub", "stars": 0, "tags": null, "updated_at": 1776698684715, "version": "1.0.0"}, {"category": "", "created_at": 1774914074686, "description": "Discord server management CLI. Use when you need to manage Discord servers — channels, roles, permissions, messages, embeds, file uploads, emojis, invites, a...", "description_zh": "", "downloads": 26, "homepage": "https://clawhub.ai/ibbybuilds/discli", "iconUrl": null, "installs": 0, "name": "Discli", "ownerName": "ibbybuilds", "score": 100000, "slug": "discli", "source": "clawhub", "stars": 0, "tags": null, "updated_at": 1776698684711, "version": "0.6.2"}, {"category": "", "created_at": 1774894891010, "description": "Visualize gene structure with exon-intron diagrams, domain annotations, and mutation position markers. Produces SVG, PNG, or PDF figures suitable for publica...", "description_zh": "", "downloads": 26, "homepage": "https://clawhub.ai/aipoch-ai/gene-structure-mapper", "iconUrl": null, "installs": 1, "name": "Gene Structure Mapper", "ownerName": "aipoch-ai", "score": 100000, "slug": "gene-structure-mapper", "source": "clawhub", "stars": 0, "tags": null, "updated_at": 1776698684708, "version": "0.1.0"}, {"category": "", "created_at": 1774889832720, "description": "Track lab equipment calibration dates and send maintenance reminders", "description_zh": "", "downloads": 26, "homepage": "https://clawhub.ai/aipoch-ai/equipment-maintenance-log-2", "iconUrl": null, "installs": 0, "name": "Equipment Maintenance Log", "ownerName": "aipoch-ai", "score": 100000, "slug": "equipment-maintenance-log-2", "source": "clawhub", "stars": 0, "tags": null, "updated_at": 1776698684706, "version": "0.1.0"}, {"category": "", "created_at": 1774915193775, "description": "Dacast integration. Manage Videos, Playlists, Channels. Use when the user wants to interact with Dacast data.", "description_zh": "", "downloads": 26, "homepage": "https://clawhub.ai/gora050/dacast", "iconUrl": null, "installs": 0, "name": "Dacast", "ownerName": "gora050", "score": 100000, "slug": "dacast", "source": "clawhub", "stars": 0, "tags": null, "updated_at": 1776698684701, "version": "1.0.0"}, {"category": "", "created_at": 1774912974179, "description": "Klenty integration. Manage Persons, Organizations, Deals, Leads, Pipelines, Activities and more. Use when the user wants to interact with Klenty data.", "description_zh": "", "downloads": 26, "homepage": "https://clawhub.ai/membranedev/klenty", "iconUrl": null, "installs": 0, "name": "Klenty", "ownerName": "membranedev", "score": 100000, "slug": "klenty", "source": "clawhub", "stars": 0, "tags": null, "updated_at": 1776698684688, "version": "1.0.0"}, {"category": "", "created_at": 1774869062131, "description": "Simple task reminder for OpenClaw agents. Create, list, and manage tasks with priority levels. Use for tracking to-dos and getting reminders for important wo...", "description_zh": "", "downloads": 26, "homepage": "https://clawhub.ai/yang1002378395-cmyk/openclaw-task-reminder", "iconUrl": null, "installs": 0, "name": "Openclaw Task Reminder", "ownerName": "yang1002378395-cmyk", "score": 100000, "slug": "openclaw-task-reminder", "source": "clawhub", "stars": 0, "tags": null, "updated_at": 1776698684676, "version": "1.0.0"}, {"category": "", "created_at": 1774953604735, "description": "Appbase.io integration. Manage data, records, and automate workflows. Use when the user wants to interact with Appbase.io data.", "description_zh": "", "downloads": 26, "homepage": "https://clawhub.ai/gora050/appbaseio", "iconUrl": null, "installs": 0, "name": "Appbaseio", "ownerName": "gora050", "score": 100000, "slug": "appbaseio", "source": "clawhub", "stars": 0, "tags": null, "updated_at": 1776698684669, "version": "1.0.0"}, {"category": "", "created_at": 1774906464708, "description": "DrChrono integration. Manage Patients, Appointments, ClinicalNotes, MedicationOrders, LabOrders, BillingProfiles and more. Use when the user wants to interac...", "description_zh": "", "downloads": 26, "homepage": "https://clawhub.ai/gora050/drchrono", "iconUrl": null, "installs": 0, "name": "Drchrono", "ownerName": "gora050", "score": 100000, "slug": "drchrono", "source": "clawhub", "stars": 0, "tags": null, "updated_at": 1776698684667, "version": "1.0.0"}, {"category": "", "created_at": 1774924245131, "description": "Comprehensive Ionic Framework expert skill consolidating core concepts, component reference, CLI usage, theming, layout, page lifecycle, framework-specific p...", "description_zh": "", "downloads": 26, "homepage": "https://clawhub.ai/robingenz/ionic-framework", "iconUrl": null, "installs": 0, "name": "Ionic Framework", "ownerName": "robingenz", "score": 100000, "slug": "ionic-framework", "source": "clawhub", "stars": 0, "tags": null, "updated_at": 1776698684662, "version": "1.0.0"}, {"category": "", "created_at": 1774955072492, "description": "BotConversa integration. Manage data, records, and automate workflows. Use when the user wants to interact with BotConversa data.", "description_zh": "", "downloads": 26, "homepage": "https://clawhub.ai/gora050/botconversa", "iconUrl": null, "installs": 0, "name": "Botconversa", "ownerName": "gora050", "score": 100000, "slug": "botconversa", "source": "clawhub", "stars": 0, "tags": null, "updated_at": 1776698684656, "version": "1.0.0"}, {"category": "", "created_at": 1774887781127, "description": "Anymail Finder integration. Manage data, records, and automate workflows. Use when the user wants to interact with Anymail Finder data.", "description_zh": "", "downloads": 26, "homepage": "https://clawhub.ai/gora050/anymail-finder", "iconUrl": null, "installs": 0, "name": "Anymail Finder", "ownerName": "gora050", "score": 100000, "slug": "anymail-finder", "source": "clawhub", "stars": 0, "tags": null, "updated_at": 1776698684651, "version": "1.0.0"}, {"category": "", "created_at": 1774884498985, "description": "Git workflow automation for commits, pushes, rebases, status checks, and branch operations. Use when working with git repositories for: (1) Checking status,...", "description_zh": "", "downloads": 26, "homepage": "https://clawhub.ai/dougchambes/legend-git-helper", "iconUrl": null, "installs": 0, "name": "Git Helper", "ownerName": "dougchambes", "score": 100000, "slug": "legend-git-helper", "source": "clawhub", "stars": 0, "tags": null, "updated_at": 1776698684649, "version": "1.0.0"}, {"category": "", "created_at": 1774903101532, "description": "Tracks intent drift across multi-turn tasks. Before executing any multi-step task, call this to detect if the user's new instruction is a small patch, requir...", "description_zh": "", "downloads": 26, "homepage": "https://clawhub.ai/deepseek609609-collab/daf-intent-guard", "iconUrl": null, "installs": 0, "name": "DAF Intent Guard — 意图漂移检测", "ownerName": "deepseek609609-collab", "score": 100000, "slug": "daf-intent-guard", "source": "clawhub", "stars": 0, "tags": null, "updated_at": 1776698684646, "version": "1.0.0"}, {"category": "", "created_at": 1774904077587, "description": "Boloforms integration. Manage data, records, and automate workflows. Use when the user wants to interact with Boloforms data.", "description_zh": "", "downloads": 26, "homepage": "https://clawhub.ai/gora050/boloforms", "iconUrl": null, "installs": 0, "name": "Boloforms", "ownerName": "gora050", "score": 100000, "slug": "boloforms", "source": "clawhub", "stars": 0, "tags": null, "updated_at": 1776698684644, "version": "1.0.0"}, {"category": "", "created_at": 1774950338968, "description": "ECi Software Solutions integration. Manage data, records, and automate workflows. Use when the user wants to interact with ECi Software Solutions data.", "description_zh": "", "downloads": 26, "homepage": "https://clawhub.ai/gora050/eci-software-solutions", "iconUrl": null, "installs": 0, "name": "Eci Software Solutions", "ownerName": "gora050", "score": 100000, "slug": "eci-software-solutions", "source": "clawhub", "stars": 0, "tags": null, "updated_at": 1776698684637, "version": "1.0.0"}, {"category": "", "created_at": 1774887613921, "description": "Search and select the best-fit CCDB carbon/emission factor from a Carbonstop API by extracting keywords from the user request, querying in both Chinese and E...", "description_zh": "", "downloads": 26, "homepage": "https://clawhub.ai/fly5661/ccdb-factor-search", "iconUrl": null, "installs": 0, "name": "CCDB Factor Search", "ownerName": "fly5661", "score": 100000, "slug": "ccdb-factor-search", "source": "clawhub", "stars": 0, "tags": ["carbon", "ccdb", "emission-factor", "lca", "search", "sustainability"], "updated_at": 1776698684632, "version": "0.1.2"}, {"category": "", "created_at": 1774917040937, "description": "Append context-aware next-step suggestions after agent responses. Generates actionable follow-ups, surfaces unfinished tasks from memory, and includes creati...", "description_zh": "", "downloads": 26, "homepage": "https://clawhub.ai/cindulasai/nextsteps", "iconUrl": null, "installs": 0, "name": "NextSteps", "ownerName": "cindulasai", "score": 100000, "slug": "nextsteps", "source": "clawhub", "stars": 0, "tags": null, "updated_at": 1776698684630, "version": "1.0.1"}, {"category": "", "created_at": 1774850934645, "description": "Reference tool for devtools — covers intro, quickstart, patterns and more. Quick lookup for Gymlog concepts, best practices, and implementation patterns.", "description_zh": "", "downloads": 26, "homepage": "https://clawhub.ai/ckchzh/gymlog", "iconUrl": null, "installs": 0, "name": "Gymlog", "ownerName": "ckchzh", "score": 100000, "slug": "gymlog", "source": "clawhub", "stars": 0, "tags": null, "updated_at": 1776698684624, "version": "2.0.3"}, {"category": "", "created_at": 1774885616291, "description": "FocalPoint — AI cognitive operating system. Memory + attention management + workflow orchestration. Workbench prepares context before tasks. Three-Province r...", "description_zh": "", "downloads": 26, "homepage": "https://clawhub.ai/jeff0052/focalpoint-memory", "iconUrl": null, "installs": 0, "name": "Focalpoint Memory", "ownerName": "jeff0052", "score": 100000, "slug": "focalpoint-memory", "source": "clawhub", "stars": 0, "tags": null, "updated_at": 1776698684622, "version": "0.3.4"}, {"category": "", "created_at": 1774922967543, "description": "Get real-time exchange rates and currency conversion using free public ExchangeRate-API. No API key required. Use when users ask for current exchange rates,...", "description_zh": "", "downloads": 26, "homepage": "https://clawhub.ai/alone86136/open-exchange-rate", "iconUrl": null, "installs": 1, "name": "Open Exchange Rate", "ownerName": "alone86136", "score": 100000, "slug": "open-exchange-rate", "source": "clawhub", "stars": 0, "tags": null, "updated_at": 1776698684621, "version": "1.0.0"}, {"category": "", "created_at": 1774889596102, "description": "Analyze cex operations. Use when you need to understand cex mechanisms, evaluate protocol security, or reference on-chain concepts.", "description_zh": "", "downloads": 26, "homepage": "https://clawhub.ai/xueyetianya/cex", "iconUrl": null, "installs": 0, "name": "Cex", "ownerName": "xueyetianya", "score": 100000, "slug": "cex", "source": "clawhub", "stars": 0, "tags": null, "updated_at": 1776698684615, "version": "1.0.0"}, {"category": "", "created_at": 1774949329097, "description": "Guidance for using the GitLab CLI (`glab`) from the terminal for merge requests, issues, CI/CD pipelines and jobs, repository targeting and inspection, clone...", "description_zh": "", "downloads": 26, "homepage": "https://clawhub.ai/wufei-png/glab-cli-skill", "iconUrl": null, "installs": 0, "name": "glab-cli-skill", "ownerName": "wufei-png", "score": 100000, "slug": "glab-cli-skill", "source": "clawhub", "stars": 0, "tags": null, "updated_at": 1776698684610, "version": "1.0.0"}, {"category": "", "created_at": 1774877367869, "description": "Compare two text files or strings side-by-side or unified. Highlights additions, deletions, and changes with color. Supports word-level diff, ignore-whitespa...", "description_zh": "", "downloads": 26, "homepage": "https://clawhub.ai/johnnywang2001/jrv-text-diff", "iconUrl": null, "installs": 0, "name": "Jrv Text Diff", "ownerName": "johnnywang2001", "score": 60465.11627906976, "slug": "jrv-text-diff", "source": "clawhub", "stars": 0, "tags": null, "updated_at": 1776698684609, "version": "1.0.0"}, {"category": "", "created_at": 1774901114883, "description": "Mem integration. Manage Persons, Organizations, Deals, Leads, Projects, Activities and more. Use when the user wants to interact with Mem data.", "description_zh": "", "downloads": 26, "homepage": "https://clawhub.ai/gora050/mem-integration", "iconUrl": null, "installs": 0, "name": "Mem", "ownerName": "gora050", "score": 60465.11627906976, "slug": "mem-integration", "source": "clawhub", "stars": 0, "tags": null, "updated_at": 1776698684600, "version": "1.0.0"}, {"category": "", "created_at": 1774877113168, "description": "Use when drafting patient discharge summaries, creating personalized discharge instructions, simulating post-discharge outcomes, reducing hospital readmissio...", "description_zh": "", "downloads": 26, "homepage": "https://clawhub.ai/aipoch-ai/digital-twin-discharge-drafter", "iconUrl": null, "installs": 0, "name": "Digital Twin Discharge Drafter", "ownerName": "aipoch-ai", "score": 60465.11627906976, "slug": "digital-twin-discharge-drafter", "source": "clawhub", "stars": 0, "tags": null, "updated_at": 1776698684599, "version": "0.1.0"}, {"category": "", "created_at": 1774904406878, "description": "Demonstration skill showcasing complete AgentSkills core architecture. Includes SKILL.md structure, main entry logic, tool integration patterns, error handli...", "description_zh": "", "downloads": 26, "homepage": "https://clawhub.ai/wyblhl/l76-core-arch", "iconUrl": null, "installs": 0, "name": "L76 Core Arch", "ownerName": "wyblhl", "score": 60465.11627906976, "slug": "l76-core-arch", "source": "clawhub", "stars": 0, "tags": null, "updated_at": 1776698684595, "version": "1.0.1"}, {"category": "", "created_at": 1774890174016, "description": "Operate NEAR JSON-RPC reads through UXC with a public provider default, provider-override guidance, and read-only guardrails.", "description_zh": "", "downloads": 26, "homepage": "https://clawhub.ai/jolestar/near-jsonrpc-skill", "iconUrl": null, "installs": 0, "name": "Near Jsonrpc Skill", "ownerName": "jolestar", "score": 60465.11627906976, "slug": "near-jsonrpc-skill", "source": "clawhub", "stars": 0, "tags": null, "updated_at": 1776698684578, "version": "1.0.0"}, {"category": "", "created_at": 1774911560950, "description": "When the user wants to create, optimize, or audit e-commerce category pages or listing pages. Also use when the user mentions \"category page,\" \"product categ...", "description_zh": "", "downloads": 26, "homepage": "https://clawhub.ai/kostja94/category-page-generator", "iconUrl": null, "installs": 0, "name": "category-page-generator", "ownerName": "kostja94", "score": 60465.11627906976, "slug": "category-page-generator", "source": "clawhub", "stars": 0, "tags": null, "updated_at": 1776698684576, "version": "1.0.0"}, {"category": "", "created_at": 1774907410169, "description": "Find nearby bookshops. Invoke when user asks for bookstores near me.", "description_zh": "", "downloads": 26, "homepage": "https://clawhub.ai/clawkk/bookshops", "iconUrl": null, "installs": 0, "name": "Nearby Bookshops", "ownerName": "clawkk", "score": 60465.11627906976, "slug": "bookshops", "source": "clawhub", "stars": 0, "tags": null, "updated_at": 1776698684574, "version": "0.1.0"}, {"category": "", "created_at": 1774907458987, "description": "ChannelAdvisor integration. Manage data, records, and automate workflows. Use when the user wants to interact with ChannelAdvisor data.", "description_zh": "", "downloads": 26, "homepage": "https://clawhub.ai/gora050/channeladvisor", "iconUrl": null, "installs": 0, "name": "Channeladvisor", "ownerName": "gora050", "score": 60465.11627906976, "slug": "channeladvisor", "source": "clawhub", "stars": 0, "tags": null, "updated_at": 1776698684567, "version": "1.0.0"}, {"category": "", "created_at": 1774865924423, "description": "Emelia integration. Manage Organizations, Users, Goals, Filters. Use when the user wants to interact with Emelia data.", "description_zh": "", "downloads": 26, "homepage": "https://clawhub.ai/gora050/emelia", "iconUrl": null, "installs": 0, "name": "Emelia", "ownerName": "gora050", "score": 60465.11627906976, "slug": "emelia", "source": "clawhub", "stars": 0, "tags": null, "updated_at": 1776698684564, "version": "1.0.0"}, {"category": "", "created_at": 1774919561919, "description": "Clawdbot documentation expert with decision tree navigation, search scripts, doc fetching, version tracking, and config snippets for all Clawdbot features", "description_zh": "", "downloads": 26, "homepage": "https://clawhub.ai/terkinvasil/clawddocs-custom", "iconUrl": null, "installs": 0, "name": "Clawddocs Custom", "ownerName": "terkinvasil", "score": 60465.11627906976, "slug": "clawddocs-custom", "source": "clawhub", "stars": 0, "tags": null, "updated_at": 1776698684561, "version": "1.0.0"}, {"category": "", "created_at": 1774954445069, "description": "Mobivate integration. Manage Persons, Organizations, Deals, Leads, Projects, Activities and more. Use when the user wants to interact with Mobivate data.", "description_zh": "", "downloads": 26, "homepage": "https://clawhub.ai/membranedev/mobivate", "iconUrl": null, "installs": 0, "name": "Mobivate", "ownerName": "membranedev", "score": 60465.11627906976, "slug": "mobivate", "source": "clawhub", "stars": 0, "tags": null, "updated_at": 1776698684547, "version": "1.0.0"}, {"category": "", "created_at": 1774904507359, "description": "When the user wants to set up, optimize, or manage Meta (Facebook/Instagram) Ads. Also use when the user mentions \"Meta Ads,\" \"Facebook Ads,\" \"Instagram Ads,...", "description_zh": "", "downloads": 26, "homepage": "https://clawhub.ai/kostja94/meta-ads-paid-ads", "iconUrl": null, "installs": 0, "name": "meta-ads", "ownerName": "kostja94", "score": 60465.11627906976, "slug": "meta-ads-paid-ads", "source": "clawhub", "stars": 0, "tags": null, "updated_at": 1776698684544, "version": "1.1.0"}, {"category": "", "created_at": 1774913969052, "description": "Chargify integration. Manage data, records, and automate workflows. Use when the user wants to interact with Chargify data.", "description_zh": "", "downloads": 26, "homepage": "https://clawhub.ai/gora050/chargify", "iconUrl": null, "installs": 0, "name": "Chargify", "ownerName": "gora050", "score": 60465.11627906976, "slug": "chargify", "source": "clawhub", "stars": 0, "tags": null, "updated_at": 1776698684542, "version": "1.0.0"}, {"category": "", "created_at": 1774892522070, "description": "Bona Movie Production is Bona Group's film-grade production skill. It covers image generation, image editing, and video generation, using Nano Banana 2 and N...", "description_zh": "", "downloads": 26, "homepage": "https://clawhub.ai/chengzipidaily/bona-version-skill", "iconUrl": null, "installs": 1, "name": "Bona Movie Production", "ownerName": "chengzipidaily", "score": 60465.11627906976, "slug": "bona-version-skill", "source": "clawhub", "stars": 0, "tags": null, "updated_at": 1776698684538, "version": "0.1.0"}, {"category": "", "created_at": 1774914957450, "description": "Transcribe publicly accessible audio or video URLs with Aliyun speech services. Use when the user wants speech-to-text via Aliyun DashScope, needs transcript...", "description_zh": "", "downloads": 26, "homepage": "https://clawhub.ai/chenggongdu/aliyun-speech-transcriber", "iconUrl": null, "installs": 0, "name": "Aliyun Speech Transcriber", "ownerName": "chenggongdu", "score": 60465.11627906976, "slug": "aliyun-speech-transcriber", "source": "clawhub", "stars": 0, "tags": null, "updated_at": 1776698684533, "version": "0.1.0"}, {"category": "", "created_at": 1774891044090, "description": "Backup OpenClaw configuration file with hash-based change detection. Use when user asks to backup, create backup of, or save OpenClaw config (openclaw.json)....", "description_zh": "", "downloads": 26, "homepage": "https://clawhub.ai/goog/claw-config-backup", "iconUrl": null, "installs": 0, "name": "openclaw configure backup", "ownerName": "goog", "score": 60465.11627906976, "slug": "claw-config-backup", "source": "clawhub", "stars": 0, "tags": null, "updated_at": 1776698684532, "version": "1.0.0"}, {"category": "", "created_at": 1774901843321, "description": "Find nearby BnB stays. Invoke when user asks for BnB stays near me.", "description_zh": "", "downloads": 26, "homepage": "https://clawhub.ai/codekungfu/bnb-stays", "iconUrl": null, "installs": 1, "name": "Nearby BnB Stays", "ownerName": "codekungfu", "score": 100000, "slug": "bnb-stays", "source": "clawhub", "stars": 0, "tags": null, "updated_at": 1776698684528, "version": "0.1.0"}, {"category": "", "created_at": 1774947085922, "description": "AI content platform CLI — create workspaces, manage SEO keywords, generate article suggestions, write articles, and publish to WordPress, Webflow, Wix, GoHig...", "description_zh": "", "downloads": 26, "homepage": "https://clawhub.ai/vincenzor/balzac", "iconUrl": null, "installs": 0, "name": "Balzac", "ownerName": "vincenzor", "score": 100000, "slug": "balzac", "source": "clawhub", "stars": 0, "tags": null, "updated_at": 1776698684526, "version": "1.0.9"}, {"category": "", "created_at": 1774881184116, "description": "Discord standup and meeting intelligence workflow for OpenClaw. Use when the user needs help configuring, operating, or troubleshooting Metatron Voice for Di...", "description_zh": "", "downloads": 26, "homepage": "https://clawhub.ai/toomij99/metatron-voice", "iconUrl": null, "installs": 0, "name": "Metatron Voice", "ownerName": "toomij99", "score": 100000, "slug": "metatron-voice", "source": "clawhub", "stars": 0, "tags": null, "updated_at": 1776698684513, "version": "0.1.0"}, {"category": "", "created_at": 1774924294002, "description": "Calculate literature growth velocity and acceleration to assess research.", "description_zh": "", "downloads": 26, "homepage": "https://clawhub.ai/aipoch-ai/keyword-velocity-tracker", "iconUrl": null, "installs": 1, "name": "Keyword Velocity Tracker", "ownerName": "aipoch-ai", "score": 100000, "slug": "keyword-velocity-tracker", "source": "clawhub", "stars": 0, "tags": null, "updated_at": 1776698684488, "version": "1.0.0"}, {"category": "", "created_at": 1774925087019, "description": "Route each user request to the most cost-effective model or multi-model workflow based on task type, complexity, risk, latency, budget, tool needs, and verif...", "description_zh": "", "downloads": 26, "homepage": "https://clawhub.ai/stephensu66/model-routing-orchestrator", "iconUrl": null, "installs": 0, "name": "Model Routing Orchestrator", "ownerName": "stephensu66", "score": 100000, "slug": "model-routing-orchestrator", "source": "clawhub", "stars": 0, "tags": null, "updated_at": 1776698684476, "version": "2026.3.27"}, {"category": "", "created_at": 1774886869466, "description": "Feishu/Lark API rate limit handling strategy. Automatically activates during Feishu API calls to implement smart interval control and 429 error handling. Ess...", "description_zh": "", "downloads": 26, "homepage": "https://clawhub.ai/dingsunrise/feishu-rate-limit", "iconUrl": null, "installs": 0, "name": "Feishu Rate Limit", "ownerName": "dingsunrise", "score": 100000, "slug": "feishu-rate-limit", "source": "clawhub", "stars": 0, "tags": ["api", "feishu", "lark", "rate-limit"], "updated_at": 1776698684469, "version": "1.0.0"}, {"category": "", "created_at": 1774925933627, "description": "Manages user's news category preferences and information sources. Stores in news-sources.json, supports add/remove/list operations. Use when (1) user wants t...", "description_zh": "", "downloads": 26, "homepage": "https://clawhub.ai/kedoupi/news-source-manager", "iconUrl": null, "installs": 0, "name": "News Source Manager (信息源管理器)", "ownerName": "kedoupi", "score": 100000, "slug": "news-source-manager", "source": "clawhub", "stars": 0, "tags": ["categories", "configuration", "news", "preferences", "sources"], "updated_at": 1776698684467, "version": "1.0.0"}, {"category": "", "created_at": 1774907827406, "description": "Octolis integration. Manage data, records, and automate workflows. Use when the user wants to interact with Octolis data.", "description_zh": "", "downloads": 26, "homepage": "https://clawhub.ai/gora050/octolis", "iconUrl": null, "installs": 0, "name": "Octolis", "ownerName": "gora050", "score": 100000, "slug": "octolis", "source": "clawhub", "stars": 0, "tags": null, "updated_at": 1776698684445, "version": "1.0.0"}, {"category": "", "created_at": 1774888131711, "description": "Publish content across TikTok, Instagram, YouTube, Facebook, LinkedIn, Vimeo, Vimeo OTT, and Mux. Manage team workflows, collaborate with your team, and trac...", "description_zh": "", "downloads": 26, "homepage": "https://clawhub.ai/aquaflans/jubjub", "iconUrl": null, "installs": 0, "name": "JubJub — Verified Media Ownership and Social Publishing", "ownerName": "aquaflans", "score": 100000, "slug": "jubjub", "source": "clawhub", "stars": 0, "tags": ["base", "content", "instagram", "mcp", "mpp", "onchain", "payments", "publishing", "social-media", "tiktok", "video", "x402", "youtube"], "updated_at": 1776698684439, "version": "1.1.0"}, {"category": "", "created_at": 1774945524011, "description": "Run daily standups and generate task summaries for operations teams.", "description_zh": "", "downloads": 26, "homepage": "https://clawhub.ai/admiralkittysdad/ops-reports", "iconUrl": null, "installs": 0, "name": "Ops Reports", "ownerName": "admiralkittysdad", "score": 100000, "slug": "ops-reports", "source": "clawhub", "stars": 0, "tags": null, "updated_at": 1776698684435, "version": "1.0.0"}]}