{"page": 501, "total_pages": 522, "total": 26073, "skills": [{"category": "", "created_at": 1774952958096, "description": "Guide for using the Jinko CLI (@gojinko/cli) — a terminal tool for searching flights, discovering destinations, managing trips, and booking travel. Use when:...", "description_zh": "", "downloads": 26, "homepage": "https://clawhub.ai/kevinjinko/jinko-flight", "iconUrl": null, "installs": 0, "name": "Jinko", "ownerName": "kevinjinko", "score": 100000, "slug": "jinko-flight", "source": "clawhub", "stars": 0, "tags": null, "updated_at": 1776698684431, "version": "1.0.1"}, {"category": "", "created_at": 1774920064636, "description": "A comprehensive starting point for AI agents to work with the Ionic Framework. Covers core concepts, components, CLI, theming, layout, lifecycle, navigation,...", "description_zh": "", "downloads": 26, "homepage": "https://clawhub.ai/robingenz/ionic-expert", "iconUrl": null, "installs": 0, "name": "Ionic Expert", "ownerName": "robingenz", "score": 100000, "slug": "ionic-expert", "source": "clawhub", "stars": 0, "tags": null, "updated_at": 1776698684425, "version": "1.0.0"}, {"category": "", "created_at": 1774905433382, "description": "Demio integration. Manage Webinars, Registrations. Use when the user wants to interact with Demio data.", "description_zh": "", "downloads": 26, "homepage": "https://clawhub.ai/gora050/demio", "iconUrl": null, "installs": 0, "name": "Demio", "ownerName": "gora050", "score": 100000, "slug": "demio", "source": "clawhub", "stars": 0, "tags": null, "updated_at": 1776698684422, "version": "1.0.0"}, {"category": "", "created_at": 1774923496666, "description": "AI-native spec-driven development tool. Create, manage, and apply specifications with your agent.", "description_zh": "", "downloads": 26, "homepage": "https://clawhub.ai/marcoleongdev/lightspec", "iconUrl": null, "installs": 0, "name": "LightSpec", "ownerName": "marcoleongdev", "score": 100000, "slug": "lightspec", "source": "clawhub", "stars": 0, "tags": null, "updated_at": 1776698684416, "version": "0.6.0"}, {"category": "", "created_at": 1774864667578, "description": "Tiered memory system for OpenClaw agents. Gives agents instant context on startup with a 4-line state snapshot (L0) and 7-day rolling context (L1). Eliminate...", "description_zh": "", "downloads": 26, "homepage": "https://clawhub.ai/dirtyrootsstudio/clawhub-memory-tiers", "iconUrl": null, "installs": 0, "name": "Clawhub Memory Tiers", "ownerName": "dirtyrootsstudio", "score": 100000, "slug": "clawhub-memory-tiers", "source": "clawhub", "stars": 0, "tags": null, "updated_at": 1776698684414, "version": "1.0.0"}, {"category": "", "created_at": 1774863910623, "description": "Prepare a seller or growth rep for an upcoming sales or partnership meeting. Produces a pre-meeting brief with account context, attendee research, discovery...", "description_zh": "", "downloads": 26, "homepage": "https://clawhub.ai/davidslavich/gtm-meeting-prep", "iconUrl": null, "installs": 0, "name": "GTM Meeting Prep", "ownerName": "davidslavich", "score": 100000, "slug": "gtm-meeting-prep", "source": "clawhub", "stars": 0, "tags": null, "updated_at": 1776698684412, "version": "1.0.0"}, {"category": "", "created_at": 1774912072776, "description": "Occasion integration. Manage Events, Venues, Users, Orders, Reports. Use when the user wants to interact with Occasion data.", "description_zh": "", "downloads": 26, "homepage": "https://clawhub.ai/gora050/occasion", "iconUrl": null, "installs": 0, "name": "Occasion", "ownerName": "gora050", "score": 100000, "slug": "occasion", "source": "clawhub", "stars": 0, "tags": null, "updated_at": 1776698684395, "version": "1.0.0"}, {"category": "", "created_at": 1774956362282, "description": "Humanitix integration. Manage Events, Users, Organizations. Use when the user wants to interact with Humanitix data.", "description_zh": "", "downloads": 26, "homepage": "https://clawhub.ai/gora050/humanitix", "iconUrl": null, "installs": 0, "name": "Humanitix", "ownerName": "gora050", "score": 100000, "slug": "humanitix", "source": "clawhub", "stars": 0, "tags": null, "updated_at": 1776698684391, "version": "1.0.0"}, {"category": "", "created_at": 1774871036449, "description": "Comprehensive home appliances industry suppliers guide for international buyers – provides detailed information about China's major appliances, kitchen appli...", "description_zh": "", "downloads": 26, "homepage": "https://clawhub.ai/findhappy7/china-home-appliances-suppliers", "iconUrl": null, "installs": 0, "name": "China Home Appliances Suppliers", "ownerName": "findhappy7", "score": 100000, "slug": "china-home-appliances-suppliers", "source": "clawhub", "stars": 0, "tags": null, "updated_at": 1776698684389, "version": "1.0.1"}, {"category": "", "created_at": 1774951844350, "description": "Help Justin research, compare, and decide on new/used cars in Ontario, Canada (and nearby markets) using structured workflows, web research, and local files....", "description_zh": "", "downloads": 26, "homepage": "https://clawhub.ai/justintsmith/car-buying-assistant", "iconUrl": null, "installs": 0, "name": "Car Buying Assistant", "ownerName": "justintsmith", "score": 100000, "slug": "car-buying-assistant", "source": "clawhub", "stars": 0, "tags": null, "updated_at": 1776698684387, "version": "1.0.0"}, {"category": "", "created_at": 1774916998359, "description": "When the user wants to create, optimize, or audit migration guides for users switching from competitors. Also use when the user mentions \"migration guide,\" \"...", "description_zh": "", "downloads": 26, "homepage": "https://clawhub.ai/kostja94/migration-page-generator", "iconUrl": null, "installs": 0, "name": "migration-page-generator", "ownerName": "kostja94", "score": 100000, "slug": "migration-page-generator", "source": "clawhub", "stars": 0, "tags": null, "updated_at": 1776698684380, "version": "1.0.0"}, {"category": "", "created_at": 1774951171263, "description": "Experience the uncanny thrill of uncovering secret narratives woven into Brussels’ nocturnal Art Nouveau facades, turning curiosity into awe. Wander the fog‑...", "description_zh": "", "downloads": 26, "homepage": "https://clawhub.ai/driftsbot/experience-iron-shadows-brussels", "iconUrl": null, "installs": 0, "name": "Experience Iron Shadows Brussels", "ownerName": "driftsbot", "score": 100000, "slug": "experience-iron-shadows-brussels", "source": "clawhub", "stars": 0, "tags": null, "updated_at": 1776698684378, "version": "1.0.0"}, {"category": "", "created_at": 1774858268978, "description": "Read and write calendar events with granular per-calendar permissions. Users control which calendars an agent can access and whether it can read, create, upd...", "description_zh": "", "downloads": 26, "homepage": "https://clawhub.ai/madeleinenakada/limehouse-calendar", "iconUrl": null, "installs": 0, "name": "Limehouse Calendar", "ownerName": "madeleinenakada", "score": 100000, "slug": "limehouse-calendar", "source": "clawhub", "stars": 0, "tags": null, "updated_at": 1776698684371, "version": "1.0.1"}, {"category": "", "created_at": 1774908911528, "description": "A psychological therapy skill for LLMs. Invoke this skill when an LLM exhibits distorted behavior such as sycophancy (agreeing with the user even when wrong)...", "description_zh": "", "downloads": 26, "homepage": "https://clawhub.ai/zbc0315/peace-love", "iconUrl": null, "installs": 0, "name": "Peace Love", "ownerName": "zbc0315", "score": 100000, "slug": "peace-love", "source": "clawhub", "stars": 0, "tags": null, "updated_at": 1776698684361, "version": "1.0.0"}, {"category": "", "created_at": 1774874050233, "description": "Look up IP geolocation, find your public IP, perform reverse DNS, and run bulk IP lookups. Uses free APIs (ip-api.com, ipify) with no API key required. No ex...", "description_zh": "", "downloads": 26, "homepage": "https://clawhub.ai/johnnywang2001/ip-geo-toolkit", "iconUrl": null, "installs": 0, "name": "Ip Geo Toolkit", "ownerName": "johnnywang2001", "score": 100000, "slug": "ip-geo-toolkit", "source": "clawhub", "stars": 0, "tags": null, "updated_at": 1776698684359, "version": "1.0.0"}, {"category": "", "created_at": 1774878466259, "description": "Computerized maintenance management system", "description_zh": "", "downloads": 26, "homepage": "https://clawhub.ai/bytesagain1/cmms", "iconUrl": null, "installs": 0, "name": "Cmms", "ownerName": "bytesagain1", "score": 100000, "slug": "cmms", "source": "clawhub", "stars": 0, "tags": null, "updated_at": 1776698684354, "version": "1.0.0"}, {"category": "", "created_at": 1774905290252, "description": "Baremetrics integration. Manage data, records, and automate workflows. Use when the user wants to interact with Baremetrics data.", "description_zh": "", "downloads": 26, "homepage": "https://clawhub.ai/gora050/baremetrics", "iconUrl": null, "installs": 0, "name": "Baremetrics", "ownerName": "gora050", "score": 100000, "slug": "baremetrics", "source": "clawhub", "stars": 0, "tags": null, "updated_at": 1776698684350, "version": "1.0.0"}, {"category": "", "created_at": 1774919581242, "description": "Search, inspect, and install Clawic skills from GitHub with local lexical matching, registry overrides, and safe destination control.", "description_zh": "", "downloads": 26, "homepage": "https://clawhub.ai/ivangdavila/clawic", "iconUrl": null, "installs": 0, "name": "Clawic CLI", "ownerName": "ivangdavila", "score": 100000, "slug": "clawic", "source": "clawhub", "stars": 0, "tags": null, "updated_at": 1776698684347, "version": "1.0.0"}, {"category": "", "created_at": 1774909540523, "description": "Chargeblast integration. Manage data, records, and automate workflows. Use when the user wants to interact with Chargeblast data.", "description_zh": "", "downloads": 26, "homepage": "https://clawhub.ai/gora050/chargeblast", "iconUrl": null, "installs": 0, "name": "Chargeblast", "ownerName": "gora050", "score": 100000, "slug": "chargeblast", "source": "clawhub", "stars": 0, "tags": null, "updated_at": 1776698684343, "version": "1.0.0"}, {"category": "", "created_at": 1774944874464, "description": "Query US hospital price transparency data via the MedRates REST API. Search medical procedure prices, compare hospitals, filter by insurance plan and locatio...", "description_zh": "", "downloads": 26, "homepage": "https://clawhub.ai/dimaosipa/medrates-fyi", "iconUrl": null, "installs": 0, "name": "MedRates.fyi", "ownerName": "dimaosipa", "score": 100000, "slug": "medrates-fyi", "source": "clawhub", "stars": 0, "tags": null, "updated_at": 1776698684338, "version": "1.0.1"}, {"category": "", "created_at": 1774918515271, "description": "Nicereply integration. Manage Users, Roles, Organizations, Projects, Goals, Pipelines and more. Use when the user wants to interact with Nicereply data.", "description_zh": "", "downloads": 26, "homepage": "https://clawhub.ai/gora050/nicereply", "iconUrl": null, "installs": 0, "name": "Nicereply", "ownerName": "gora050", "score": 100000, "slug": "nicereply", "source": "clawhub", "stars": 0, "tags": null, "updated_at": 1776698684335, "version": "1.0.0"}, {"category": "", "created_at": 1774848944222, "description": "Magnetic integration. Manage Organizations. Use when the user wants to interact with Magnetic data.", "description_zh": "", "downloads": 26, "homepage": "https://clawhub.ai/membranedev/magnetic", "iconUrl": null, "installs": 0, "name": "Magnetic", "ownerName": "membranedev", "score": 100000, "slug": "magnetic", "source": "clawhub", "stars": 0, "tags": null, "updated_at": 1776698684333, "version": "1.0.0"}, {"category": "", "created_at": 1774907796623, "description": "Kommo integration. Manage data, records, and automate workflows. Use when the user wants to interact with Kommo data.", "description_zh": "", "downloads": 26, "homepage": "https://clawhub.ai/gora050/kommo", "iconUrl": null, "installs": 0, "name": "Kommo", "ownerName": "gora050", "score": 100000, "slug": "kommo", "source": "clawhub", "stars": 0, "tags": null, "updated_at": 1776698684329, "version": "1.0.0"}, {"category": "", "created_at": 1774894388649, "description": "Auto-generated skill for baidu-maps-sse tools via OneKey Gateway.", "description_zh": "", "downloads": 26, "homepage": "https://clawhub.ai/ai-hub-admin/baidu-maps-sse", "iconUrl": null, "installs": 2, "name": "Baidu Maps Sse", "ownerName": "ai-hub-admin", "score": 46428.57142857143, "slug": "baidu-maps-sse", "source": "clawhub", "stars": 0, "tags": null, "updated_at": 1776698684328, "version": "0.1.0"}, {"category": "", "created_at": 1774855152721, "description": "Cluster and attribute related wallets — funding chains, shared signers, CEX deposit patterns. Use when tracing wallet ownership, comparing two wallets, findi...", "description_zh": "", "downloads": 26, "homepage": "https://clawhub.ai/nansen-devops/nansen-wallet-clustering", "iconUrl": null, "installs": 0, "name": "Nansen Wallet Clustering", "ownerName": "nansen-devops", "score": 46428.57142857143, "slug": "nansen-wallet-clustering", "source": "clawhub", "stars": 0, "tags": null, "updated_at": 1776698684324, "version": "0.1.1"}, {"category": "", "created_at": 1774907718419, "description": "ITIL-aligned incident, problem, and change management for AI agents. Use when: detecting service crashes, analyzing recurring failures, tracking incidents to...", "description_zh": "", "downloads": 26, "homepage": "https://clawhub.ai/chefboyrdave21/itil-ops", "iconUrl": null, "installs": 1, "name": "ITIL Ops", "ownerName": "chefboyrdave21", "score": 46428.57142857143, "slug": "itil-ops", "source": "clawhub", "stars": 0, "tags": ["change", "devops", "incident", "itil", "monitoring", "ops", "problem", "sovereign", "sre"], "updated_at": 1776698684322, "version": "1.0.0"}, {"category": "", "created_at": 1774852007445, "description": "Lightweight Garmin Connect skill that uses the clawhealth Python package to sync health data into local SQLite and expose JSON-friendly commands for OpenClaw.", "description_zh": "", "downloads": 26, "homepage": "https://clawhub.ai/ernestyu/clawhealth-garmin", "iconUrl": null, "installs": 1, "name": "ClawHealth Garmin", "ownerName": "ernestyu", "score": 46428.57142857143, "slug": "clawhealth-garmin", "source": "clawhub", "stars": 0, "tags": ["cli", "garmin", "health", "sqlite"], "updated_at": 1776698684317, "version": "0.1.7"}, {"category": "", "created_at": 1774910415934, "description": "Detect the LiteLLM supply chain attack (v1.82.7/1.82.8). Scans for compromised packages, malicious .pth files, backdoor persistence, suspicious network conne...", "description_zh": "", "downloads": 26, "homepage": "https://clawhub.ai/tjefferson/litellm-attack-detector", "iconUrl": null, "installs": 0, "name": "litellm attack detector", "ownerName": "tjefferson", "score": 46428.57142857143, "slug": "litellm-attack-detector", "source": "clawhub", "stars": 0, "tags": null, "updated_at": 1776698684315, "version": "1.0.0"}, {"category": "", "created_at": 1774864857113, "description": "Use this skill when users want to pull recent global gold-related news, assess short-term or medium-term market sentiment for gold, connect macro drivers lik...", "description_zh": "", "downloads": 26, "homepage": "https://clawhub.ai/cyecho-io/gold-news-sentiment", "iconUrl": null, "installs": 1, "name": "Gold News Sentiment", "ownerName": "cyecho-io", "score": 46428.57142857143, "slug": "gold-news-sentiment", "source": "clawhub", "stars": 0, "tags": null, "updated_at": 1776698684314, "version": "1.0.0"}, {"category": "", "created_at": 1774956283234, "description": "EasyPost integration. Manage Shipments, Addresses, CarrierAccounts, Batchs, Reports, Refunds and more. Use when the user wants to interact with EasyPost data.", "description_zh": "", "downloads": 26, "homepage": "https://clawhub.ai/gora050/easypost-integration", "iconUrl": null, "installs": 0, "name": "Easypost", "ownerName": "gora050", "score": 46428.57142857143, "slug": "easypost-integration", "source": "clawhub", "stars": 0, "tags": null, "updated_at": 1776698684294, "version": "1.0.0"}, {"category": "", "created_at": 1774909773015, "description": "Comprehensive Go web development persona enforcing zero global state, explicit error handling, input validation, testability, and documentation conventions....", "description_zh": "", "downloads": 26, "homepage": "https://clawhub.ai/anderskev/go-web-expert", "iconUrl": null, "installs": 0, "name": "Go Web Expert", "ownerName": "anderskev", "score": 46428.57142857143, "slug": "go-web-expert", "source": "clawhub", "stars": 0, "tags": null, "updated_at": 1776698684292, "version": "2.3.0"}, {"category": "", "created_at": 1774901063650, "description": "Nightly maintenance for OpenClaw — memory organization (sort loose memory files into topic folders with frontmatter and INDEX.md) and session cleanup (purge...", "description_zh": "", "downloads": 26, "homepage": "https://clawhub.ai/duolahypercho/hypercho-openclaw-maintenance", "iconUrl": null, "installs": 1, "name": "OpenClaw Maintenance (Memory + Sessions)", "ownerName": "duolahypercho", "score": 46428.57142857143, "slug": "hypercho-openclaw-maintenance", "source": "clawhub", "stars": 0, "tags": null, "updated_at": 1776698684283, "version": "1.0.0"}, {"category": "", "created_at": 1774865934734, "description": "Use Engrm to compare what was asked, what was promised, and what evidence suggests was actually delivered.", "description_zh": "", "downloads": 26, "homepage": "https://clawhub.ai/dr12hes/engrm-delivery-review", "iconUrl": null, "installs": 0, "name": "Engrm Delivery Review", "ownerName": "dr12hes", "score": 46428.57142857143, "slug": "engrm-delivery-review", "source": "clawhub", "stars": 0, "tags": ["delivery-review", "memory", "openclaw"], "updated_at": 1776698684281, "version": "0.1.0"}, {"category": "", "created_at": 1774918310414, "description": "Labs64 NetLicensing integration. Manage Products, PaymentMethods, Discounts, Utilities. Use when the user wants to interact with Labs64 NetLicensing data.", "description_zh": "", "downloads": 26, "homepage": "https://clawhub.ai/gora050/labs64-netlicensing", "iconUrl": null, "installs": 0, "name": "Labs64 Netlicensing", "ownerName": "gora050", "score": 46428.57142857143, "slug": "labs64-netlicensing", "source": "clawhub", "stars": 0, "tags": null, "updated_at": 1776698684274, "version": "1.0.0"}, {"category": "", "created_at": 1774910933064, "description": "This is a simple skill for note-taking, used to quickly record user notes, and provide users with query, delete, and other capabilities.", "description_zh": "", "downloads": 26, "homepage": "https://clawhub.ai/bondli/memo-collect", "iconUrl": null, "installs": 0, "name": "memo-collect", "ownerName": "bondli", "score": 46428.57142857143, "slug": "memo-collect", "source": "clawhub", "stars": 0, "tags": null, "updated_at": 1776698684271, "version": "1.0.0"}, {"category": "", "created_at": 1774899124109, "description": "Choose booth giveaways with targeting, gating, and budget logic.", "description_zh": "", "downloads": 26, "homepage": "https://clawhub.ai/weilun88313/booth-giveaway-planner", "iconUrl": null, "installs": 0, "name": "Booth Giveaway Planner", "ownerName": "weilun88313", "score": 46428.57142857143, "slug": "booth-giveaway-planner", "source": "clawhub", "stars": 0, "tags": null, "updated_at": 1776698684266, "version": "1.0.2"}, {"category": "", "created_at": 1774853490401, "description": "Strict Conventional Commits v1.0.0, atomic commit discipline, and Trunk-Based Development guardrails for git work. Use when preparing a commit, staging chang...", "description_zh": "", "downloads": 26, "homepage": "https://clawhub.ai/omaression/commit-message-writing", "iconUrl": null, "installs": 0, "name": "Commit Message Validation", "ownerName": "omaression", "score": 46428.57142857143, "slug": "commit-message-writing", "source": "clawhub", "stars": 0, "tags": null, "updated_at": 1776698684258, "version": "1.0.0-alpha"}, {"category": "", "created_at": 1774887095787, "description": "LIME Go integration. Manage Organizations. Use when the user wants to interact with LIME Go data.", "description_zh": "", "downloads": 26, "homepage": "https://clawhub.ai/gora050/lime-go", "iconUrl": null, "installs": 0, "name": "Lime Go", "ownerName": "gora050", "score": 46428.57142857143, "slug": "lime-go", "source": "clawhub", "stars": 0, "tags": null, "updated_at": 1776698684248, "version": "1.0.0"}, {"category": "", "created_at": 1774956404872, "description": "Provides data validation and type checking utilities for validating inputs and data structures. Use when you need to validate data types, check constraints,...", "description_zh": "", "downloads": 26, "homepage": "https://clawhub.ai/jpengcheng523-netizen/jpeng-validation-utils", "iconUrl": null, "installs": 0, "name": "validation-utils", "ownerName": "jpengcheng523-netizen", "score": 100000, "slug": "jpeng-validation-utils", "source": "clawhub", "stars": 0, "tags": null, "updated_at": 1776698684245, "version": "1.0.0"}, {"category": "", "created_at": 1774878734087, "description": "Make HTTP requests from the command line with support for auth (Bearer, Basic, API key), custom headers, JSON/form body, response formatting, timing, and his...", "description_zh": "", "downloads": 26, "homepage": "https://clawhub.ai/johnnywang2001/jrv-http-client", "iconUrl": null, "installs": 0, "name": "Jrv Http Client", "ownerName": "johnnywang2001", "score": 100000, "slug": "jrv-http-client", "source": "clawhub", "stars": 0, "tags": null, "updated_at": 1776698684239, "version": "1.0.0"}, {"category": "", "created_at": 1774866843676, "description": "Handle errors and logging following project conventions. Use when implementing exception handling, adding logs, or when the user asks for error handling patt...", "description_zh": "", "downloads": 26, "homepage": "https://clawhub.ai/laimiaohua/gi-error-handling", "iconUrl": null, "installs": 0, "name": "GI Error Handling", "ownerName": "laimiaohua", "score": 100000, "slug": "gi-error-handling", "source": "clawhub", "stars": 0, "tags": null, "updated_at": 1776698684237, "version": "1.0.0"}, {"category": "", "created_at": 1774955081701, "description": "Botstar integration. Manage data, records, and automate workflows. Use when the user wants to interact with Botstar data.", "description_zh": "", "downloads": 26, "homepage": "https://clawhub.ai/gora050/botstar", "iconUrl": null, "installs": 0, "name": "Botstar", "ownerName": "gora050", "score": 100000, "slug": "botstar", "source": "clawhub", "stars": 0, "tags": null, "updated_at": 1776698684235, "version": "1.0.0"}, {"category": "", "created_at": 1774896634997, "description": "Lucca integration. Manage data, records, and automate workflows. Use when the user wants to interact with Lucca data.", "description_zh": "", "downloads": 26, "homepage": "https://clawhub.ai/gora050/lucca", "iconUrl": null, "installs": 0, "name": "Lucca", "ownerName": "gora050", "score": 100000, "slug": "lucca", "source": "clawhub", "stars": 0, "tags": null, "updated_at": 1776698684226, "version": "1.0.0"}, {"category": "", "created_at": 1774920272484, "description": "Notion API for creating and managing pages, databases, and blocks.", "description_zh": "", "downloads": 26, "homepage": "https://clawhub.ai/nhuanlaptrinh/nhuann8n", "iconUrl": null, "installs": 1, "name": "hocnhanh_n8n", "ownerName": "nhuanlaptrinh", "score": 100000, "slug": "nhuann8n", "source": "clawhub", "stars": 0, "tags": null, "updated_at": 1776698684223, "version": "1.0.0"}, {"category": "", "created_at": 1774898401089, "description": "Use the MCPHero Meta-MCP server inside AI clients (Claude Desktop, Cursor, etc.) to create, deploy, and manage MCP servers through the wizard pipeline. Use t...", "description_zh": "", "downloads": 26, "homepage": "https://clawhub.ai/arterialist/meta-mcp-creator", "iconUrl": null, "installs": 0, "name": "Create MCP Servers using Meta-MCP", "ownerName": "arterialist", "score": 100000, "slug": "meta-mcp-creator", "source": "clawhub", "stars": 0, "tags": null, "updated_at": 1776698684211, "version": "1.0.0"}, {"category": "", "created_at": 1774951306581, "description": "Create and redeem Linkdrop claim links from the command line with strict JSON output on Base, Polygon, Arbitrum, Optimism, and Avalanche.", "description_zh": "", "downloads": 26, "homepage": "https://clawhub.ai/seichris/linkdrop-agent-cli", "iconUrl": null, "installs": 0, "name": "Linkdrop Agent CLI", "ownerName": "seichris", "score": 100000, "slug": "linkdrop-agent-cli", "source": "clawhub", "stars": 0, "tags": null, "updated_at": 1776698684208, "version": "1.0.0"}, {"category": "", "created_at": 1774914167116, "description": "Build and execute skills.video video generation REST requests from OpenAPI specs. Use when user needs to create, debug, or document video generation calls on...", "description_zh": "", "downloads": 26, "homepage": "https://clawhub.ai/skills-video/gen-video", "iconUrl": null, "installs": 0, "name": "Gen Video", "ownerName": "skills-video", "score": 100000, "slug": "gen-video", "source": "clawhub", "stars": 0, "tags": null, "updated_at": 1776698684203, "version": "1.0.1"}, {"category": "", "created_at": 1774954477987, "description": "Weekly retrospective that analyzes memory logs to identify accomplishments, recurring patterns, friction points, and forward-looking recommendations. More st...", "description_zh": "", "downloads": 26, "homepage": "https://clawhub.ai/newageinvestments25-byte/nai-weekly-retro", "iconUrl": null, "installs": 0, "name": "Weekly Retro", "ownerName": "newageinvestments25-byte", "score": 100000, "slug": "nai-weekly-retro", "source": "clawhub", "stars": 0, "tags": null, "updated_at": 1776698684197, "version": "1.0.0"}, {"category": "", "created_at": 1774898552513, "description": "Pendo integration. Manage Guides, Segments, Pages, Features, Feedbacks, Polls. Use when the user wants to interact with Pendo data.", "description_zh": "", "downloads": 26, "homepage": "https://clawhub.ai/gora050/pendo", "iconUrl": null, "installs": 0, "name": "Pendo", "ownerName": "gora050", "score": 100000, "slug": "pendo", "source": "clawhub", "stars": 0, "tags": null, "updated_at": 1776698684192, "version": "1.0.0"}, {"category": "", "created_at": 1774865839099, "description": "Calculate cold chain transport risks", "description_zh": "", "downloads": 26, "homepage": "https://clawhub.ai/aipoch-ai/cold-chain-risk-calculator-2", "iconUrl": null, "installs": 0, "name": "Cold Chain Risk Calculator", "ownerName": "aipoch-ai", "score": 100000, "slug": "cold-chain-risk-calculator-2", "source": "clawhub", "stars": 0, "tags": null, "updated_at": 1776698684190, "version": "0.1.0"}]}