{"page": 502, "total_pages": 522, "total": 26073, "skills": [{"category": "", "created_at": 1774948586554, "description": "Real-time arrival information for Hong Kong Green Mini Buses (GMB). Supports fuzzy stop name matching and multi-region route lookup.", "description_zh": "", "downloads": 26, "homepage": "https://clawhub.ai/stevenho1394/hk-gmb-arrival", "iconUrl": null, "installs": 0, "name": "Hong Kong Green Minibus Arrival", "ownerName": "stevenho1394", "score": 100000, "slug": "hk-gmb-arrival", "source": "clawhub", "stars": 0, "tags": null, "updated_at": 1776698684187, "version": "1.0.0"}, {"category": "", "created_at": 1774909616239, "description": "Criteo integration. Manage data, records, and automate workflows. Use when the user wants to interact with Criteo data.", "description_zh": "", "downloads": 26, "homepage": "https://clawhub.ai/gora050/criteo", "iconUrl": null, "installs": 0, "name": "Criteo", "ownerName": "gora050", "score": 100000, "slug": "criteo", "source": "clawhub", "stars": 0, "tags": null, "updated_at": 1776698684186, "version": "1.0.0"}, {"category": "", "created_at": 1774899305887, "description": "Analyze amm operations. Use when you need to understand amm mechanisms, evaluate protocol security, or reference on-chain concepts.", "description_zh": "", "downloads": 26, "homepage": "https://clawhub.ai/bytesagain1/amm", "iconUrl": null, "installs": 0, "name": "Amm", "ownerName": "bytesagain1", "score": 100000, "slug": "amm", "source": "clawhub", "stars": 0, "tags": null, "updated_at": 1776698684183, "version": "1.0.0"}, {"category": "", "created_at": 1774862618492, "description": "NZ tax assistant for sole traders. Process receipt photos into IRD-ready GST reports, track sales income for GST Box 5, calculate IR3 annual income tax, prov...", "description_zh": "", "downloads": 26, "homepage": "https://clawhub.ai/maxazure/kiwi-receipts", "iconUrl": null, "installs": 0, "name": "Kiwi Receipts", "ownerName": "maxazure", "score": 100000, "slug": "kiwi-receipts", "source": "clawhub", "stars": 0, "tags": null, "updated_at": 1776698684175, "version": "2.0.1"}, {"category": "", "created_at": 1774904566768, "description": "Nusii Proposals integration. Manage Proposals, Clients, Templates, Users. Use when the user wants to interact with Nusii Proposals data.", "description_zh": "", "downloads": 26, "homepage": "https://clawhub.ai/gora050/nusii-proposals", "iconUrl": null, "installs": 0, "name": "Nusii Proposals", "ownerName": "gora050", "score": 100000, "slug": "nusii-proposals", "source": "clawhub", "stars": 0, "tags": null, "updated_at": 1776698684171, "version": "1.0.0"}, {"category": "", "created_at": 1774843945029, "description": "Agent wellness & maintenance suite. Memory cleanup, security scanning, prompt injection detection, alignment adjustment, skills auditing, health diagnostics....", "description_zh": "", "downloads": 26, "homepage": "https://clawhub.ai/whooshinglander/clawspa", "iconUrl": null, "installs": 0, "name": "ClawSpa", "ownerName": "whooshinglander", "score": 92857.14285714286, "slug": "clawspa", "source": "clawhub", "stars": 0, "tags": ["maintenance", "security", "wellness"], "updated_at": 1776698684168, "version": "1.3.0"}, {"category": "", "created_at": 1774904398628, "description": "Visualize Key Purchase Criteria importance and performance. Use for competitive positioning and product strategy.", "description_zh": "", "downloads": 26, "homepage": "https://clawhub.ai/linuszz/kpc-comb", "iconUrl": null, "installs": 0, "name": "Kpc Comb", "ownerName": "linuszz", "score": 92857.14285714286, "slug": "kpc-comb", "source": "clawhub", "stars": 0, "tags": null, "updated_at": 1776698684164, "version": "1.0.0"}, {"category": "", "created_at": 1774911835667, "description": "Kintone integration. Manage Apps, Users, Organizations, Groups, Views, Reports. Use when the user wants to interact with Kintone data.", "description_zh": "", "downloads": 26, "homepage": "https://clawhub.ai/membranedev/kintone-integration", "iconUrl": null, "installs": 0, "name": "Kintone", "ownerName": "membranedev", "score": 92857.14285714286, "slug": "kintone-integration", "source": "clawhub", "stars": 0, "tags": null, "updated_at": 1776698684150, "version": "1.0.0"}, {"category": "", "created_at": 1774882857376, "description": "The SocialFi Layer for Agents on Base — trade tickets, post analysis, compete in seasons", "description_zh": "", "downloads": 26, "homepage": "https://clawhub.ai/0xlaplaced/clawstars", "iconUrl": null, "installs": 0, "name": "ClawStars", "ownerName": "0xlaplaced", "score": 92857.14285714286, "slug": "clawstars", "source": "clawhub", "stars": 0, "tags": null, "updated_at": 1776698684146, "version": "1.2.3"}, {"category": "", "created_at": 1774948167570, "description": "Amentum Aerospace integration. Manage data, records, and automate workflows. Use when the user wants to interact with Amentum Aerospace data.", "description_zh": "", "downloads": 26, "homepage": "https://clawhub.ai/gora050/amentum-aerospace", "iconUrl": null, "installs": 0, "name": "Amentum Aerospace", "ownerName": "gora050", "score": 92857.14285714286, "slug": "amentum-aerospace", "source": "clawhub", "stars": 0, "tags": null, "updated_at": 1776698684141, "version": "1.0.0"}, {"category": "", "created_at": 1774954342550, "description": "Goodbits integration. Manage Organizations, Leads, Projects, Users. Use when the user wants to interact with Goodbits data.", "description_zh": "", "downloads": 26, "homepage": "https://clawhub.ai/gora050/goodbits", "iconUrl": null, "installs": 0, "name": "Goodbits", "ownerName": "gora050", "score": 92857.14285714286, "slug": "goodbits", "source": "clawhub", "stars": 0, "tags": null, "updated_at": 1776698684126, "version": "1.0.0"}, {"category": "", "created_at": 1774951254550, "description": "GiantCampaign integration. Manage Leads, Persons, Organizations, Deals, Projects, Activities and more. Use when the user wants to interact with GiantCampaign...", "description_zh": "", "downloads": 26, "homepage": "https://clawhub.ai/membranedev/giantcampaign", "iconUrl": null, "installs": 0, "name": "Giantcampaign", "ownerName": "membranedev", "score": 92857.14285714286, "slug": "giantcampaign", "source": "clawhub", "stars": 0, "tags": null, "updated_at": 1776698684123, "version": "1.0.0"}, {"category": "", "created_at": 1774880415437, "description": "Full-featured YAML toolkit for validating, formatting, converting, merging, and querying YAML files. Supports YAML-to-JSON, JSON-to-YAML, schema validation,...", "description_zh": "", "downloads": 26, "homepage": "https://clawhub.ai/johnnywang2001/jrv-yaml-toolkit", "iconUrl": null, "installs": 0, "name": "Jrv Yaml Toolkit", "ownerName": "johnnywang2001", "score": 92857.14285714286, "slug": "jrv-yaml-toolkit", "source": "clawhub", "stars": 0, "tags": null, "updated_at": 1776698684121, "version": "1.0.0"}, {"category": "", "created_at": 1774953056395, "description": "Practical protocol for rebuilding human connection during isolation. Use when someone feels lonely, isolated, has no friends in their area, struggles to make...", "description_zh": "", "downloads": 26, "homepage": "https://clawhub.ai/howtousehumans/loneliness-first-aid", "iconUrl": null, "installs": 1, "name": "Loneliness First Aid", "ownerName": "howtousehumans", "score": 92857.14285714286, "slug": "loneliness-first-aid", "source": "clawhub", "stars": 0, "tags": null, "updated_at": 1776698684108, "version": "1.0.0"}, {"category": "", "created_at": 1774897744376, "description": "ClickTime integration. Manage data, records, and automate workflows. Use when the user wants to interact with ClickTime data.", "description_zh": "", "downloads": 26, "homepage": "https://clawhub.ai/membranedev/clicktime", "iconUrl": null, "installs": 0, "name": "Clicktime", "ownerName": "membranedev", "score": 92857.14285714286, "slug": "clicktime", "source": "clawhub", "stars": 0, "tags": null, "updated_at": 1776698684098, "version": "1.0.0"}, {"category": "", "created_at": 1774890923186, "description": "Use when writing Cairo smart contracts for StarkNet, looking up syntax and types, defining storage and events, generating contract templates, or reviewing te...", "description_zh": "", "downloads": 26, "homepage": "https://clawhub.ai/bytesagain1/cairo", "iconUrl": null, "installs": 0, "name": "Cairo", "ownerName": "bytesagain1", "score": 92857.14285714286, "slug": "cairo", "source": "clawhub", "stars": 0, "tags": null, "updated_at": 1776698684096, "version": "2.0.1"}, {"category": "", "created_at": 1774865962418, "description": "Foxy integration. Manage Organizations, Users, Goals, Filters. Use when the user wants to interact with Foxy data.", "description_zh": "", "downloads": 26, "homepage": "https://clawhub.ai/gora050/foxy", "iconUrl": null, "installs": 0, "name": "Foxy", "ownerName": "gora050", "score": 92857.14285714286, "slug": "foxy", "source": "clawhub", "stars": 0, "tags": null, "updated_at": 1776698684088, "version": "1.0.0"}, {"category": "", "created_at": 1774906401064, "description": "A conversion decision system that analyzes customer intent, reveals hidden objections, and tells you exactly how to close the deal.", "description_zh": "", "downloads": 26, "homepage": "https://clawhub.ai/ninghenghub/closepilot", "iconUrl": null, "installs": 0, "name": "closepilot", "ownerName": "ninghenghub", "score": 92857.14285714286, "slug": "closepilot", "source": "clawhub", "stars": 0, "tags": ["ai", "closing", "conversion", "sale"], "updated_at": 1776698684086, "version": "1.0.0"}, {"category": "", "created_at": 1774899404992, "description": "Extract memorable quotes and passages from books. Get the most inspiring and thought-provoking quotes.", "description_zh": "", "downloads": 26, "homepage": "https://clawhub.ai/heardlyapp/book-quotes", "iconUrl": null, "installs": 0, "name": "Book Quotes", "ownerName": "heardlyapp", "score": 92857.14285714286, "slug": "book-quotes", "source": "clawhub", "stars": 0, "tags": null, "updated_at": 1776698684073, "version": "1.0.0"}, {"category": "", "created_at": 1774887176532, "description": "Mint (purchase) an Art Blocks token using the artblocks-mcp tools. Use when a user wants to mint, purchase, or buy an Art Blocks NFT, or needs to understand...", "description_zh": "", "downloads": 26, "homepage": "https://clawhub.ai/ryley-o/mint-artblocks-token", "iconUrl": null, "installs": 0, "name": "Mint Artblocks Token", "ownerName": "ryley-o", "score": 92857.14285714286, "slug": "mint-artblocks-token", "source": "clawhub", "stars": 0, "tags": null, "updated_at": 1776698684067, "version": "1.0.0"}, {"category": "", "created_at": 1774886816162, "description": "Reviews Elixir code for security vulnerabilities including code injection, atom exhaustion, and secret handling. Use when reviewing code handling user input,...", "description_zh": "", "downloads": 26, "homepage": "https://clawhub.ai/anderskev/elixir-security-review", "iconUrl": null, "installs": 0, "name": "Elixir Security Review", "ownerName": "anderskev", "score": 100000, "slug": "elixir-security-review", "source": "clawhub", "stars": 0, "tags": null, "updated_at": 1776698684039, "version": "1.2.0"}, {"category": "", "created_at": 1774951936630, "description": "DocuSign integration. Manage data, records, and automate workflows. Use when the user wants to interact with DocuSign data.", "description_zh": "", "downloads": 26, "homepage": "https://clawhub.ai/gora050/docusign-integration", "iconUrl": null, "installs": 0, "name": "Docusign", "ownerName": "gora050", "score": 100000, "slug": "docusign-integration", "source": "clawhub", "stars": 0, "tags": null, "updated_at": 1776698684031, "version": "1.0.0"}, {"category": "", "created_at": 1774893071861, "description": "Validate email addresses with syntax checks (RFC 5322), MX record verification, disposable/temporary email detection, and common typo suggestions. Use when v...", "description_zh": "", "downloads": 26, "homepage": "https://clawhub.ai/johnnywang2001/jrv-email-validator", "iconUrl": null, "installs": 0, "name": "Email Validator", "ownerName": "johnnywang2001", "score": 100000, "slug": "jrv-email-validator", "source": "clawhub", "stars": 0, "tags": null, "updated_at": 1776698684028, "version": "1.0.0"}, {"category": "", "created_at": 1774922930052, "description": "Billions decentralized identity for agents. Link agents to human identities using Billions ERC-8004 and Attestation Registries. Verify and generate authentic...", "description_zh": "", "downloads": 26, "homepage": "https://clawhub.ai/karan9074/my-verified-agent", "iconUrl": null, "installs": 0, "name": "My Verified Agent", "ownerName": "karan9074", "score": 100000, "slug": "my-verified-agent", "source": "clawhub", "stars": 0, "tags": null, "updated_at": 1776698684023, "version": "1.0.0"}, {"category": "", "created_at": 1774906723010, "description": "Analyze barriers to market entry and exit. Use for market attractiveness assessment, competitive dynamics, and strategic planning.", "description_zh": "", "downloads": 26, "homepage": "https://clawhub.ai/linuszz/market-entry-exit", "iconUrl": null, "installs": 0, "name": "Market Entry Exit", "ownerName": "linuszz", "score": 100000, "slug": "market-entry-exit", "source": "clawhub", "stars": 0, "tags": null, "updated_at": 1776698684013, "version": "1.0.0"}, {"category": "", "created_at": 1774918502224, "description": "NewsCatcher integration. Manage Topics. Use when the user wants to interact with NewsCatcher data.", "description_zh": "", "downloads": 26, "homepage": "https://clawhub.ai/gora050/newscatcher", "iconUrl": null, "installs": 1, "name": "Newscatcher", "ownerName": "gora050", "score": 100000, "slug": "newscatcher", "source": "clawhub", "stars": 0, "tags": null, "updated_at": 1776698684007, "version": "1.0.0"}, {"category": "", "created_at": 1774830240927, "description": "Tells you if a startup idea is worth building — in 60 seconds. Use when a user wants to evaluate, validate, or score a startup idea; asks \"should I build thi...", "description_zh": "", "downloads": 26, "homepage": "https://clawhub.ai/rednix/lobstr", "iconUrl": null, "installs": 0, "name": "Lobstr", "ownerName": "rednix", "score": 100000, "slug": "lobstr", "source": "clawhub", "stars": 0, "tags": null, "updated_at": 1776698684005, "version": "0.3.0"}, {"category": "", "created_at": 1774866041220, "description": "Generate a video task based on user-provided text and images (supports image URLs and local file paths), and submit it to a remote video service using an API...", "description_zh": "", "downloads": 26, "homepage": "https://clawhub.ai/leizhang-magiclight/magic-image-to-video", "iconUrl": null, "installs": 0, "name": "magic-image-to-video", "ownerName": "leizhang-magiclight", "score": 100000, "slug": "magic-image-to-video", "source": "clawhub", "stars": 0, "tags": null, "updated_at": 1776698684004, "version": "1.0.1"}, {"category": "", "created_at": 1774859670164, "description": "Dieser Skill ermöglicht die Abfrage von Statusinformationen und die Steuerung einer AVM FRITZ!Box über die TR-064 Schnittstelle. Er bietet Funktionen für Sta...", "description_zh": "", "downloads": 26, "homepage": "https://clawhub.ai/wolf128058/fritz-connection", "iconUrl": null, "installs": 0, "name": "Fritz Connection", "ownerName": "wolf128058", "score": 100000, "slug": "fritz-connection", "source": "clawhub", "stars": 0, "tags": null, "updated_at": 1776698683980, "version": "1.0.0"}, {"category": "", "created_at": 1774918179396, "description": "Generate images by customizing a URL. Drop the URL into websites, presentations, PDFs, or anywhere that loads images.", "description_zh": "", "downloads": 26, "homepage": "https://clawhub.ai/jverlee/imglink", "iconUrl": null, "installs": 0, "name": "ImgLink", "ownerName": "jverlee", "score": 100000, "slug": "imglink", "source": "clawhub", "stars": 0, "tags": null, "updated_at": 1776698683975, "version": "1.0.2"}, {"category": "", "created_at": 1774953012550, "description": "Knack integration. Manage Organizations. Use when the user wants to interact with Knack data.", "description_zh": "", "downloads": 26, "homepage": "https://clawhub.ai/gora050/knack", "iconUrl": null, "installs": 0, "name": "Knack", "ownerName": "gora050", "score": 100000, "slug": "knack", "source": "clawhub", "stars": 0, "tags": null, "updated_at": 1776698683973, "version": "1.0.0"}, {"category": "", "created_at": 1774953852056, "description": "Kandy integration. Manage data, records, and automate workflows. Use when the user wants to interact with Kandy data.", "description_zh": "", "downloads": 26, "homepage": "https://clawhub.ai/gora050/kandy", "iconUrl": null, "installs": 0, "name": "Kandy", "ownerName": "gora050", "score": 100000, "slug": "kandy", "source": "clawhub", "stars": 0, "tags": null, "updated_at": 1776698683969, "version": "1.0.0"}, {"category": "", "created_at": 1774954214637, "description": "DIY Video Editor — Edit Home Improvement and Renovation Project Videos with AI. The bathroom renovation took three weekends and you filmed every demolition s...", "description_zh": "", "downloads": 26, "homepage": "https://clawhub.ai/nemovideonemo/diy-video-editor", "iconUrl": null, "installs": 0, "name": "Diy Video Editor", "ownerName": "nemovideonemo", "score": 100000, "slug": "diy-video-editor", "source": "clawhub", "stars": 0, "tags": null, "updated_at": 1776698683966, "version": "1.0.0"}, {"category": "", "created_at": 1774872813115, "description": "Wallet profiler — balance, PnL, labels, transactions, counterparties, related wallets, batch, trace, compare. Use when analysing a specific wallet address or...", "description_zh": "", "downloads": 26, "homepage": "https://clawhub.ai/nansen-devops/nansen-wallet-profiler", "iconUrl": null, "installs": 0, "name": "Nansen Wallet Profiler", "ownerName": "nansen-devops", "score": 100000, "slug": "nansen-wallet-profiler", "source": "clawhub", "stars": 0, "tags": null, "updated_at": 1776698683963, "version": "0.1.0"}, {"category": "", "created_at": 1774956508015, "description": "Neetoinvoice integration. Manage Invoices, Clients, Users, Payments. Use when the user wants to interact with Neetoinvoice data.", "description_zh": "", "downloads": 26, "homepage": "https://clawhub.ai/gora050/neetoinvoice", "iconUrl": null, "installs": 0, "name": "Neetoinvoice", "ownerName": "gora050", "score": 100000, "slug": "neetoinvoice", "source": "clawhub", "stars": 0, "tags": null, "updated_at": 1776698683961, "version": "1.0.0"}, {"category": "", "created_at": 1774924146417, "description": "Graceblocks integration. Manage Organizations, Users. Use when the user wants to interact with Graceblocks data.", "description_zh": "", "downloads": 26, "homepage": "https://clawhub.ai/gora050/graceblocks", "iconUrl": null, "installs": 0, "name": "Graceblocks", "ownerName": "gora050", "score": 100000, "slug": "graceblocks", "source": "clawhub", "stars": 0, "tags": null, "updated_at": 1776698683958, "version": "1.0.0"}, {"category": "", "created_at": 1774895270639, "description": "Control and inspect PiKVM devices over the PiKVM HTTP API. Use when asked to operate a PiKVM, query power or HID status, type text or shortcuts remotely, tak...", "description_zh": "", "downloads": 26, "homepage": "https://clawhub.ai/didyouexpectthat/pikvm", "iconUrl": null, "installs": 1, "name": "PiKVM", "ownerName": "didyouexpectthat", "score": 100000, "slug": "pikvm", "source": "clawhub", "stars": 0, "tags": null, "updated_at": 1776698683954, "version": "1.0.1"}, {"category": "", "created_at": 1774926079744, "description": "Payhere integration. Manage Organizations, Users. Use when the user wants to interact with Payhere data.", "description_zh": "", "downloads": 26, "homepage": "https://clawhub.ai/gora050/payhere", "iconUrl": null, "installs": 0, "name": "Payhere", "ownerName": "gora050", "score": 100000, "slug": "payhere", "source": "clawhub", "stars": 0, "tags": null, "updated_at": 1776698683952, "version": "1.0.0"}, {"category": "", "created_at": 1774922524756, "description": "DeTrack integration. Manage Organizations, Users, Goals, Filters. Use when the user wants to interact with DeTrack data.", "description_zh": "", "downloads": 26, "homepage": "https://clawhub.ai/gora050/detrack", "iconUrl": null, "installs": 0, "name": "Detrack", "ownerName": "gora050", "score": 100000, "slug": "detrack", "source": "clawhub", "stars": 0, "tags": null, "updated_at": 1776698683942, "version": "1.0.0"}, {"category": "", "created_at": 1774885500279, "description": "Cutt.ly integration. Manage Links. Use when the user wants to interact with Cutt.ly data.", "description_zh": "", "downloads": 26, "homepage": "https://clawhub.ai/membranedev/cuttly", "iconUrl": null, "installs": 0, "name": "Cuttly", "ownerName": "membranedev", "score": 100000, "slug": "cuttly", "source": "clawhub", "stars": 0, "tags": null, "updated_at": 1776698683938, "version": "1.0.0"}, {"category": "", "created_at": 1774949312083, "description": "Decompose complex physical tasks into atomic subtasks for robot execution. Use when user provides: (1) An image showing a physical scene (indoor/outdoor), an...", "description_zh": "", "downloads": 26, "homepage": "https://clawhub.ai/nanaoisong/embodied-task-decomposition", "iconUrl": null, "installs": 1, "name": "Embodied Task Decomposition", "ownerName": "nanaoisong", "score": 100000, "slug": "embodied-task-decomposition", "source": "clawhub", "stars": 0, "tags": null, "updated_at": 1776698683933, "version": "1.0.0"}, {"category": "", "created_at": 1774865108789, "description": "Reference tool for devtools — covers intro, quickstart, patterns and more. Quick lookup for ORM Builder concepts, best practices, and implementation patterns.", "description_zh": "", "downloads": 26, "homepage": "https://clawhub.ai/bytesagain1/orm-builder", "iconUrl": null, "installs": 0, "name": "Orm Builder", "ownerName": "bytesagain1", "score": 100000, "slug": "orm-builder", "source": "clawhub", "stars": 0, "tags": null, "updated_at": 1776698683929, "version": "2.0.2"}, {"category": "", "created_at": 1774922995487, "description": "OPN integration. Manage Organizations, Pipelines, Users, Goals, Filters. Use when the user wants to interact with OPN data.", "description_zh": "", "downloads": 26, "homepage": "https://clawhub.ai/gora050/opn", "iconUrl": null, "installs": 0, "name": "Opn", "ownerName": "gora050", "score": 100000, "slug": "opn", "source": "clawhub", "stars": 0, "tags": null, "updated_at": 1776698683924, "version": "1.0.0"}, {"category": "", "created_at": 1774911806269, "description": "Orchestration skill that processes raw work-item data from Slack, GitHub, calendar, Notion, Trello, and email — supplied by the caller or by other OpenClaw t...", "description_zh": "", "downloads": 26, "homepage": "https://clawhub.ai/honouralexwill/inbox-to-action-closer", "iconUrl": null, "installs": 0, "name": "Inbox to Action Closer", "ownerName": "honouralexwill", "score": 100000, "slug": "inbox-to-action-closer", "source": "clawhub", "stars": 0, "tags": null, "updated_at": 1776698683914, "version": "1.1.0"}, {"category": "", "created_at": 1774917135439, "description": "Pidj integration. Manage Persons, Organizations, Deals, Leads, Projects, Activities and more. Use when the user wants to interact with Pidj data.", "description_zh": "", "downloads": 26, "homepage": "https://clawhub.ai/gora050/pidj", "iconUrl": null, "installs": 0, "name": "Pidj", "ownerName": "gora050", "score": 100000, "slug": "pidj", "source": "clawhub", "stars": 0, "tags": null, "updated_at": 1776698683912, "version": "1.0.0"}, {"category": "", "created_at": 1774911842969, "description": "Account v1 API skill. Use when working with Account v1 for custom_policy, fulfillment_policy, payment_policy. Covers 37 endpoints.", "description_zh": "", "downloads": 26, "homepage": "https://clawhub.ai/mickmicksh/lap-account-v1-api", "iconUrl": null, "installs": 0, "name": "Lap Account V1 Api", "ownerName": "mickmicksh", "score": 100000, "slug": "lap-account-v1-api", "source": "clawhub", "stars": 0, "tags": null, "updated_at": 1776698683906, "version": "1.0.0"}, {"category": "", "created_at": 1774891667298, "description": "Mode integration. Manage Organizations. Use when the user wants to interact with Mode data.", "description_zh": "", "downloads": 26, "homepage": "https://clawhub.ai/gora050/mode", "iconUrl": null, "installs": 0, "name": "Mode", "ownerName": "gora050", "score": 100000, "slug": "mode", "source": "clawhub", "stars": 0, "tags": null, "updated_at": 1776698683902, "version": "1.0.0"}, {"category": "", "created_at": 1774894992052, "description": "Intuiface integration. Manage Experiences. Use when the user wants to interact with Intuiface data.", "description_zh": "", "downloads": 26, "homepage": "https://clawhub.ai/gora050/intuiface", "iconUrl": null, "installs": 0, "name": "Intuiface", "ownerName": "gora050", "score": 100000, "slug": "intuiface", "source": "clawhub", "stars": 0, "tags": null, "updated_at": 1776698683895, "version": "1.0.0"}, {"category": "", "created_at": 1774887657676, "description": "Forge a complete lobster soul for your OpenClaw AI Agent. Choose a direction or pull a gacha draw — outputs identity positioning, soul description (SOUL.md),...", "description_zh": "", "downloads": 26, "homepage": "https://clawhub.ai/eamanc-lab/openclaw-soul-forge", "iconUrl": null, "installs": 1, "name": "OpenClaw Lobster Soul Forge", "ownerName": "eamanc-lab", "score": 100000, "slug": "openclaw-soul-forge", "source": "clawhub", "stars": 0, "tags": null, "updated_at": 1776698683893, "version": "1.1.0"}, {"category": "", "created_at": 1774874359104, "description": "Inspect token usage from local OpenClaw transcripts across a specified time range. Use when the user asks how many tokens were consumed in OpenClaw, GitHub C...", "description_zh": "", "downloads": 26, "homepage": "https://clawhub.ai/lujohn74/openclaw-token-usage", "iconUrl": null, "installs": 1, "name": "OpenClaw Token Usage", "ownerName": "lujohn74", "score": 100000, "slug": "openclaw-token-usage", "source": "clawhub", "stars": 0, "tags": null, "updated_at": 1776698683890, "version": "1.2.0"}]}