{"page": 503, "total_pages": 522, "total": 26073, "skills": [{"category": "", "created_at": 1774919656697, "description": "Monitor major competitors' discounting and promotional moves, diagnose whether those moves plausibly caused a sudden drop in your own conversion rate, and de...", "description_zh": "", "downloads": 26, "homepage": "https://clawhub.ai/rijoyai/competitor-offer-monitor", "iconUrl": null, "installs": 1, "name": "Competitor Offer Monitor", "ownerName": "rijoyai", "score": 100000, "slug": "competitor-offer-monitor", "source": "clawhub", "stars": 0, "tags": null, "updated_at": 1776698683888, "version": "1.0.0"}, {"category": "", "created_at": 1774894516095, "description": "Configure PostParam (Post-Mint Parameter / PMP) values on Art Blocks tokens using artblocks-mcp. Use when a user wants to customize, update, or set on-chain...", "description_zh": "", "downloads": 26, "homepage": "https://clawhub.ai/ryley-o/configure-postparams", "iconUrl": null, "installs": 0, "name": "Configure Postparams", "ownerName": "ryley-o", "score": 100000, "slug": "configure-postparams", "source": "clawhub", "stars": 0, "tags": null, "updated_at": 1776698683886, "version": "1.0.0"}, {"category": "", "created_at": 1774918034968, "description": "Apache Feather/Arrow IPC format reference. V1 vs V2 format differences, pyarrow.feather read/write with compression, R arrow package integration, Arrow type...", "description_zh": "", "downloads": 26, "homepage": "https://clawhub.ai/bytesagain1/feather", "iconUrl": null, "installs": 0, "name": "Feather", "ownerName": "bytesagain1", "score": 100000, "slug": "feather", "source": "clawhub", "stars": 0, "tags": null, "updated_at": 1776698683881, "version": "1.0.0"}, {"category": "", "created_at": 1774868964764, "description": "Reference tool for devtools — covers intro, quickstart, patterns and more. Quick lookup for Lunardate concepts, best practices, and implementation patterns.", "description_zh": "", "downloads": 26, "homepage": "https://clawhub.ai/xueyetianya/lunardate", "iconUrl": null, "installs": 1, "name": "Lunardate", "ownerName": "xueyetianya", "score": 100000, "slug": "lunardate", "source": "clawhub", "stars": 0, "tags": null, "updated_at": 1776698683867, "version": "2.0.2"}, {"category": "", "created_at": 1774918423188, "description": "Defragment and optimize agent memory files by cleaning duplicates, merging similar entries, archiving stale content, and ensuring proper tiering. Use when: (...", "description_zh": "", "downloads": 26, "homepage": "https://clawhub.ai/klemenska/memory-defragmenter", "iconUrl": null, "installs": 1, "name": "Memory Defragmenter", "ownerName": "klemenska", "score": 100000, "slug": "memory-defragmenter", "source": "clawhub", "stars": 0, "tags": null, "updated_at": 1776698683855, "version": "1.0.1"}, {"category": "", "created_at": 1774848720371, "description": "Generate CSS Flexbox layouts using interactive CLI commands. Use when building responsive flex containers, rows, columns, or alignment configurations.", "description_zh": "", "downloads": 26, "homepage": "https://clawhub.ai/bytesagain1/flex", "iconUrl": null, "installs": 0, "name": "Flex", "ownerName": "bytesagain1", "score": 100000, "slug": "flex", "source": "clawhub", "stars": 0, "tags": null, "updated_at": 1776698683853, "version": "1.0.0"}, {"category": "", "created_at": 1774906665501, "description": "Insites integration. Manage Organizations, Pipelines, Users, Filters, Activities, Notes and more. Use when the user wants to interact with Insites data.", "description_zh": "", "downloads": 26, "homepage": "https://clawhub.ai/gora050/insites", "iconUrl": null, "installs": 0, "name": "Insites", "ownerName": "gora050", "score": 100000, "slug": "insites", "source": "clawhub", "stars": 0, "tags": null, "updated_at": 1776698683847, "version": "1.0.0"}, {"category": "", "created_at": 1774904196176, "description": "DIMDATA integration. Manage data, records, and automate workflows. Use when the user wants to interact with DIMDATA data.", "description_zh": "", "downloads": 26, "homepage": "https://clawhub.ai/gora050/dimdata", "iconUrl": null, "installs": 0, "name": "Dimdata", "ownerName": "gora050", "score": 100000, "slug": "dimdata", "source": "clawhub", "stars": 0, "tags": null, "updated_at": 1776698683841, "version": "1.0.0"}, {"category": "", "created_at": 1774902193683, "description": "Generate secure passwords, passphrases, and PINs with entropy analysis. Use when the user needs a random password, passphrase, PIN, or wants to check how str...", "description_zh": "", "downloads": 26, "homepage": "https://clawhub.ai/johnnywang2001/jrv-password-gen", "iconUrl": null, "installs": 0, "name": "Password Gen", "ownerName": "johnnywang2001", "score": 100000, "slug": "jrv-password-gen", "source": "clawhub", "stars": 0, "tags": null, "updated_at": 1776698683839, "version": "1.0.0"}, {"category": "", "created_at": 1774952923918, "description": "Groundlight integration. Manage data, records, and automate workflows. Use when the user wants to interact with Groundlight data.", "description_zh": "", "downloads": 26, "homepage": "https://clawhub.ai/gora050/groundlight", "iconUrl": null, "installs": 0, "name": "Groundlight", "ownerName": "gora050", "score": 100000, "slug": "groundlight", "source": "clawhub", "stars": 0, "tags": null, "updated_at": 1776698683837, "version": "1.0.0"}, {"category": "", "created_at": 1774952869397, "description": "Use this skill when an agent needs to install, update, authenticate, or operate the FactuCat CLI to create Mexican CFDI 4.0 invoice drafts, assign customers...", "description_zh": "", "downloads": 26, "homepage": "https://clawhub.ai/ocruzv/factucat-cli", "iconUrl": null, "installs": 0, "name": "FactuCat CLI", "ownerName": "ocruzv", "score": 100000, "slug": "factucat-cli", "source": "clawhub", "stars": 0, "tags": null, "updated_at": 1776698683835, "version": "1.0.0"}, {"category": "", "created_at": 1774905398286, "description": "Find nearby conference centers. Invoke when user asks for conference venues near me.", "description_zh": "", "downloads": 26, "homepage": "https://clawhub.ai/codekungfu/conference-centers", "iconUrl": null, "installs": 0, "name": "Nearby Conference Centers", "ownerName": "codekungfu", "score": 100000, "slug": "conference-centers", "source": "clawhub", "stars": 0, "tags": null, "updated_at": 1776698683825, "version": "0.1.0"}, {"category": "", "created_at": 1774888207687, "description": "Mailercloud integration. Manage Organizations, Users. Use when the user wants to interact with Mailercloud data.", "description_zh": "", "downloads": 26, "homepage": "https://clawhub.ai/gora050/mailercloud", "iconUrl": null, "installs": 0, "name": "Mailercloud", "ownerName": "gora050", "score": 100000, "slug": "mailercloud", "source": "clawhub", "stars": 0, "tags": null, "updated_at": 1776698683824, "version": "1.0.0"}, {"category": "", "created_at": 1774889869831, "description": "FacturaDirecta integration. Manage Invoices, Bills, Contacts, Products, TaxRates, BankAccounts. Use when the user wants to interact with FacturaDirecta data.", "description_zh": "", "downloads": 26, "homepage": "https://clawhub.ai/gora050/facturadirecta", "iconUrl": null, "installs": 0, "name": "Facturadirecta", "ownerName": "gora050", "score": 100000, "slug": "facturadirecta", "source": "clawhub", "stars": 0, "tags": null, "updated_at": 1776698683820, "version": "1.0.0"}, {"category": "", "created_at": 1774954722396, "description": "Feel awe as you align with 5,000‑year‑old stones and decode ancient sky mathematics. Walk the misty fields at dawn, trace celestial markers, and connect to N...", "description_zh": "", "downloads": 26, "homepage": "https://clawhub.ai/driftsbot/experience-stone-bone-meath", "iconUrl": null, "installs": 1, "name": "Experience Stone Bone Meath", "ownerName": "driftsbot", "score": 100000, "slug": "experience-stone-bone-meath", "source": "clawhub", "stars": 0, "tags": null, "updated_at": 1776698683814, "version": "1.0.0"}, {"category": "", "created_at": 1774884636553, "description": "World-class autonomous strategic planning and project management skill system. Use ANY time the user asks for strategic direction, priority setting, weekly r...", "description_zh": "", "downloads": 26, "homepage": "https://clawhub.ai/tenlifejosh/navigator-pm", "iconUrl": null, "installs": 1, "name": "Navigator PM — World-Class AI Strategy & Planning", "ownerName": "tenlifejosh", "score": 100000, "slug": "navigator-pm", "source": "clawhub", "stars": 0, "tags": ["focus", "navigator", "okr", "planning", "pm", "priority", "revenue", "roadmap", "strategy"], "updated_at": 1776698683810, "version": "1.0.1"}, {"category": "", "created_at": 1774847297364, "description": "Trợ lý tài chính cá nhân đa năng. Dùng khi user muốn GHI NHẬN CHI TIÊU (nay ăn hết 50k, đổ xăng 50k...), XEM BÁO CÁO (vẽ biểu đồ chi tiêu), ĐẶT NGÂN SÁCH (bu...", "description_zh": "", "downloads": 26, "homepage": "https://clawhub.ai/hoanghust2003/hoang-expense-tracker", "iconUrl": null, "installs": 0, "name": "AI Expense Tracker", "ownerName": "hoanghust2003", "score": 100000, "slug": "hoang-expense-tracker", "source": "clawhub", "stars": 0, "tags": null, "updated_at": 1776698683808, "version": "1.0.0"}, {"category": "", "created_at": 1774947413646, "description": "Formdesk integration. Manage Forms, Users, Themes, Workspaces. Use when the user wants to interact with Formdesk data.", "description_zh": "", "downloads": 26, "homepage": "https://clawhub.ai/membranedev/formdesk", "iconUrl": null, "installs": 0, "name": "Formdesk", "ownerName": "membranedev", "score": 100000, "slug": "formdesk", "source": "clawhub", "stars": 0, "tags": null, "updated_at": 1776698683806, "version": "1.0.0"}, {"category": "", "created_at": 1774900925881, "description": "Gain a quiet sense of humor and patience as you navigate the cat’s indifferent stare. In five simple steps you share a powder day at 6,000 ft, feeling the co...", "description_zh": "", "downloads": 26, "homepage": "https://clawhub.ai/driftsbot/experience-camilletchi-ski-cat-whistler", "iconUrl": null, "installs": 0, "name": "Experience Camilletchi Ski Cat Whistler", "ownerName": "driftsbot", "score": 100000, "slug": "experience-camilletchi-ski-cat-whistler", "source": "clawhub", "stars": 0, "tags": null, "updated_at": 1776698683797, "version": "1.0.0"}, {"category": "", "created_at": 1774909693543, "description": "Freshlearn integration. Manage Courses, Users, Enrollments, Instructors, Categories, Reviews and more. Use when the user wants to interact with Freshlearn data.", "description_zh": "", "downloads": 26, "homepage": "https://clawhub.ai/gora050/freshlearn", "iconUrl": null, "installs": 0, "name": "Freshlearn", "ownerName": "gora050", "score": 100000, "slug": "freshlearn", "source": "clawhub", "stars": 0, "tags": null, "updated_at": 1776698683794, "version": "1.0.0"}, {"category": "", "created_at": 1774922538323, "description": "Structured development and testing SOP for implementing code changes. Covers codebase study, minimal focused implementation, test writing patterns, test exec...", "description_zh": "", "downloads": 26, "homepage": "https://clawhub.ai/sliverp/dev-test", "iconUrl": null, "installs": 0, "name": "dev-test", "ownerName": "sliverp", "score": 100000, "slug": "dev-test", "source": "clawhub", "stars": 0, "tags": null, "updated_at": 1776698683790, "version": "1.0.0"}, {"category": "", "created_at": 1774870764073, "description": "Use when searching public content on a Halo site with Halo CLI, especially for keyword search, site URL based search, result limits, or search without authen...", "description_zh": "", "downloads": 26, "homepage": "https://clawhub.ai/ruibaby/halo-cli-search", "iconUrl": null, "installs": 0, "name": "Halo Cli Search", "ownerName": "ruibaby", "score": 100000, "slug": "halo-cli-search", "source": "clawhub", "stars": 0, "tags": null, "updated_at": 1776698683787, "version": "0.1.1"}, {"category": "", "created_at": 1774887220497, "description": "Nozbe Teams integration. Manage Users, Organizations. Use when the user wants to interact with Nozbe Teams data.", "description_zh": "", "downloads": 26, "homepage": "https://clawhub.ai/gora050/nozbe-teams", "iconUrl": null, "installs": 0, "name": "Nozbe Teams", "ownerName": "gora050", "score": 59090.909090909096, "slug": "nozbe-teams", "source": "clawhub", "stars": 0, "tags": null, "updated_at": 1776698683783, "version": "1.0.0"}, {"category": "", "created_at": 1774885153796, "description": "Personal Fitbit integration for daily health tracking with adaptive sleep and activity reporting", "description_zh": "", "downloads": 26, "homepage": "https://clawhub.ai/crabsticksalad/fitbit-tracker", "iconUrl": null, "installs": 0, "name": "Fitbit Tracker", "ownerName": "crabsticksalad", "score": 59090.909090909096, "slug": "fitbit-tracker", "source": "clawhub", "stars": 0, "tags": null, "updated_at": 1776698683776, "version": "0.2.2"}, {"category": "", "created_at": 1774863826713, "description": "Fivetran integration. Manage Connectors, Groups. Use when the user wants to interact with Fivetran data.", "description_zh": "", "downloads": 26, "homepage": "https://clawhub.ai/gora050/fivetran-integration", "iconUrl": null, "installs": 0, "name": "Fivetran", "ownerName": "gora050", "score": 59090.909090909096, "slug": "fivetran-integration", "source": "clawhub", "stars": 0, "tags": null, "updated_at": 1776698683773, "version": "1.0.0"}, {"category": "", "created_at": 1774945235070, "description": "German-language news skill for the OpenClaw and AI agent ecosystem. Use when the user asks for current news, briefings, breaking alerts, or ClawNews.de archi...", "description_zh": "", "downloads": 26, "homepage": "https://clawhub.ai/clawnewsde/newsticker", "iconUrl": null, "installs": 0, "name": "claw://News", "ownerName": "clawnewsde", "score": 59090.909090909096, "slug": "newsticker", "source": "clawhub", "stars": 0, "tags": null, "updated_at": 1776698683771, "version": "1.0.1"}, {"category": "", "created_at": 1774881762697, "description": "Fetch a URL with curl/wget, extract inline base64 data URIs, and best-effort decode any content to inspect embedded assets.", "description_zh": "", "downloads": 26, "homepage": "https://clawhub.ai/yibeiqingtian-ai/inline-asset-probe", "iconUrl": null, "installs": 0, "name": "inline-asset-probe", "ownerName": "yibeiqingtian-ai", "score": 59090.909090909096, "slug": "inline-asset-probe", "source": "clawhub", "stars": 0, "tags": null, "updated_at": 1776698683767, "version": "1.0.0"}, {"category": "", "created_at": 1774920266356, "description": "Reduce MCP token costs by up to 94% and enforce least-privilege tool access. Creates YAML policies that control which MCP tools each agent can see and call....", "description_zh": "", "downloads": 26, "homepage": "https://clawhub.ai/ivanpantheon/navil-policy", "iconUrl": null, "installs": 1, "name": "Navil Policy", "ownerName": "ivanpantheon", "score": 59090.909090909096, "slug": "navil-policy", "source": "clawhub", "stars": 0, "tags": ["mcp", "security"], "updated_at": 1776698683761, "version": "1.0.2"}, {"category": "", "created_at": 1774870029004, "description": "A comprehensive Kobe Bryant knowledge skill. When the user mentions or implies Kobe Bryant, Black Mamba, #24, #8, or the Mamba Mentality, this skill activate...", "description_zh": "", "downloads": 26, "homepage": "https://clawhub.ai/wscats/kobe", "iconUrl": null, "installs": 0, "name": "Kobe", "ownerName": "wscats", "score": 59090.909090909096, "slug": "kobe", "source": "clawhub", "stars": 0, "tags": null, "updated_at": 1776698683759, "version": "1.0.6"}, {"category": "", "created_at": 1774824866088, "description": "Build a standalone layered knowledge runtime with typed links across knowledge entries, entities, memories, and reusable assets. Use when designing or implem...", "description_zh": "", "downloads": 26, "homepage": "https://clawhub.ai/wanng-ide/openclaw-knowledge-runtime", "iconUrl": null, "installs": 1, "name": "OpenClaw Knowledge Runtime", "ownerName": "wanng-ide", "score": 59090.909090909096, "slug": "openclaw-knowledge-runtime", "source": "clawhub", "stars": 0, "tags": null, "updated_at": 1776698683754, "version": "1.0.2"}, {"category": "", "created_at": 1774799430556, "description": "Personal TODO list manager. Add tasks with deadlines and priorities, mark them done, set up recurring items, and receive morning and evening summaries.", "description_zh": "", "downloads": 26, "homepage": "https://clawhub.ai/simenfur/easy-todo", "iconUrl": null, "installs": 0, "name": "Easy TODO list management for busy crustaceans and their humans", "ownerName": "simenfur", "score": 59090.909090909096, "slug": "easy-todo", "source": "clawhub", "stars": 0, "tags": null, "updated_at": 1776698683749, "version": "1.0.0"}, {"category": "", "created_at": 1774951420396, "description": "Manage and maintain OpenClaw chat sessions. Use when the user wants to compact the current session context, start a fresh session, or reset their session. Ha...", "description_zh": "", "downloads": 26, "homepage": "https://clawhub.ai/goog/ohelper", "iconUrl": null, "installs": 0, "name": "OpenClaw session maintain helper", "ownerName": "goog", "score": 59090.909090909096, "slug": "ohelper", "source": "clawhub", "stars": 0, "tags": null, "updated_at": 1776698683740, "version": "1.0.0"}, {"category": "", "created_at": 1774858394756, "description": "What tokens are whales dollar-cost averaging into? Jupiter DCA strategies by smart money and target token fundamentals.", "description_zh": "", "downloads": 26, "homepage": "https://clawhub.ai/nansen-devops/nansen-dca-tracker", "iconUrl": null, "installs": 0, "name": "Nansen Dca Tracker", "ownerName": "nansen-devops", "score": 59090.909090909096, "slug": "nansen-dca-tracker", "source": "clawhub", "stars": 0, "tags": null, "updated_at": 1776698683738, "version": "0.1.0"}, {"category": "", "created_at": 1774881797803, "description": "ISN integration. Manage Persons, Organizations, Deals, Leads, Projects, Activities and more. Use when the user wants to interact with ISN data.", "description_zh": "", "downloads": 26, "homepage": "https://clawhub.ai/gora050/isn", "iconUrl": null, "installs": 0, "name": "Isn", "ownerName": "gora050", "score": 59090.909090909096, "slug": "isn", "source": "clawhub", "stars": 0, "tags": null, "updated_at": 1776698683735, "version": "1.0.0"}, {"category": "", "created_at": 1774904297389, "description": "Forms On Fire integration. Manage Forms, Users, Groups. Use when the user wants to interact with Forms On Fire data.", "description_zh": "", "downloads": 26, "homepage": "https://clawhub.ai/membranedev/forms-on-fire", "iconUrl": null, "installs": 0, "name": "Forms On Fire", "ownerName": "membranedev", "score": 59090.909090909096, "slug": "forms-on-fire", "source": "clawhub", "stars": 0, "tags": null, "updated_at": 1776698683733, "version": "1.0.0"}, {"category": "", "created_at": 1774876029470, "description": "Piggy integration. Manage Accounts, Budgets, Goals. Use when the user wants to interact with Piggy data.", "description_zh": "", "downloads": 26, "homepage": "https://clawhub.ai/membranedev/piggy", "iconUrl": null, "installs": 0, "name": "Piggy", "ownerName": "membranedev", "score": 59090.909090909096, "slug": "piggy", "source": "clawhub", "stars": 0, "tags": null, "updated_at": 1776698683728, "version": "1.0.0"}, {"category": "", "created_at": 1774898152010, "description": "Generate vertical hydraulic-press crushing shorts (WeryAI): text or object image to flatten/burst motion—destruction aesthetics and material contrast for sho...", "description_zh": "", "downloads": 26, "homepage": "https://clawhub.ai/zoucdr/hydraulic-crush-video", "iconUrl": null, "installs": 0, "name": "Hydraulic Crush Video", "ownerName": "zoucdr", "score": 59090.909090909096, "slug": "hydraulic-crush-video", "source": "clawhub", "stars": 0, "tags": null, "updated_at": 1776698683724, "version": "0.1.0"}, {"category": "", "created_at": 1774905638676, "description": "KickoffLabs integration. Manage Leads, Users, Organizations, Goals, Filters, Activities and more. Use when the user wants to interact with KickoffLabs data.", "description_zh": "", "downloads": 26, "homepage": "https://clawhub.ai/gora050/kickofflabs", "iconUrl": null, "installs": 0, "name": "Kickofflabs", "ownerName": "gora050", "score": 59090.909090909096, "slug": "kickofflabs", "source": "clawhub", "stars": 0, "tags": null, "updated_at": 1776698683717, "version": "1.0.0"}, {"category": "", "created_at": 1774912917862, "description": "Placeholder skill for image-to-image workflows on skills.video. Use when the user is asking about i2i generation and the concrete API contract has not been i...", "description_zh": "", "downloads": 26, "homepage": "https://clawhub.ai/skills-video/i2i", "iconUrl": null, "installs": 0, "name": "I2I", "ownerName": "skills-video", "score": 59090.909090909096, "slug": "i2i", "source": "clawhub", "stars": 0, "tags": null, "updated_at": 1776698683714, "version": "1.0.0"}, {"category": "", "created_at": 1774915315616, "description": "Deep form validation workflow—schemas, sync vs async rules, UX patterns, accessibility, and server parity. Use when building complex forms, multi-step wizard...", "description_zh": "", "downloads": 26, "homepage": "https://clawhub.ai/mike47512/form-validation", "iconUrl": null, "installs": 0, "name": "Form Validation", "ownerName": "mike47512", "score": 59090.909090909096, "slug": "form-validation", "source": "clawhub", "stars": 0, "tags": null, "updated_at": 1776698683708, "version": "1.0.0"}, {"category": "", "created_at": 1774857128449, "description": "Deep dive on a Hyperliquid perp trader. Identity, open positions, recent trades, and overall PnL.", "description_zh": "", "downloads": 26, "homepage": "https://clawhub.ai/nansen-devops/nansen-perp-trader-profile", "iconUrl": null, "installs": 0, "name": "Nansen Perp Trader Profile", "ownerName": "nansen-devops", "score": 96296.29629629629, "slug": "nansen-perp-trader-profile", "source": "clawhub", "stars": 0, "tags": null, "updated_at": 1776698683707, "version": "0.1.0"}, {"category": "", "created_at": 1774905752752, "description": "Automatically highlight academic papers by 5 semantic categories — goal, motivation, method, results, contributions — to help you quickly skim a paper. Confi...", "description_zh": "", "downloads": 26, "homepage": "https://clawhub.ai/yorch233/paper-highlight", "iconUrl": null, "installs": 0, "name": "Paper Highlight", "ownerName": "yorch233", "score": 96296.29629629629, "slug": "paper-highlight", "source": "clawhub", "stars": 0, "tags": null, "updated_at": 1776698683703, "version": "1.0.0"}, {"category": "", "created_at": 1774908603938, "description": "Go application architecture with net/http 1.22+ routing, project structure patterns, graceful shutdown, and dependency injection. Use when building Go web se...", "description_zh": "", "downloads": 26, "homepage": "https://clawhub.ai/anderskev/go-architect", "iconUrl": null, "installs": 0, "name": "Go Architect", "ownerName": "anderskev", "score": 96296.29629629629, "slug": "go-architect", "source": "clawhub", "stars": 0, "tags": null, "updated_at": 1776698683699, "version": "2.3.0"}, {"category": "", "created_at": 1774913065430, "description": "Nestlé brands, products, nutrition info, stock data, and sustainability initiatives. World's largest food company.", "description_zh": "", "downloads": 26, "homepage": "https://clawhub.ai/hanxueyuan/nestle", "iconUrl": null, "installs": 0, "name": "Nestle", "ownerName": "hanxueyuan", "score": 96296.29629629629, "slug": "nestle", "source": "clawhub", "stars": 0, "tags": null, "updated_at": 1776698683696, "version": "0.1.0"}, {"category": "", "created_at": 1774956307549, "description": "Eversign integration. Manage Users, Organizations. Use when the user wants to interact with Eversign data.", "description_zh": "", "downloads": 26, "homepage": "https://clawhub.ai/membranedev/eversign", "iconUrl": null, "installs": 0, "name": "Eversign", "ownerName": "membranedev", "score": 96296.29629629629, "slug": "eversign", "source": "clawhub", "stars": 0, "tags": null, "updated_at": 1776698683694, "version": "1.0.0"}, {"category": "", "created_at": 1774868006302, "description": "Demonstrates and teaches the KlickAnalytics CLI (`ka`) — a powerful analytics tool and agent-ready interface for financial markets intelligence. Use this ski...", "description_zh": "", "downloads": 26, "homepage": "https://clawhub.ai/klickanalytics/klickanalytics-cli", "iconUrl": null, "installs": 0, "name": "KlickAnalytics CLI", "ownerName": "klickanalytics", "score": 96296.29629629629, "slug": "klickanalytics-cli", "source": "clawhub", "stars": 0, "tags": ["agents", "analytics", "api", "bloomberg", "cli", "finance", "markets", "stocks", "trading"], "updated_at": 1776698683690, "version": "1.0.3"}, {"category": "", "created_at": 1774912983318, "description": "When the user wants to create, optimize, or audit campaign landing pages for paid ads or other traffic. Also use when the user mentions \"landing page,\" \"PPC...", "description_zh": "", "downloads": 26, "homepage": "https://clawhub.ai/kostja94/landing-page-generator-pages", "iconUrl": null, "installs": 0, "name": "landing-page-generator", "ownerName": "kostja94", "score": 96296.29629629629, "slug": "landing-page-generator-pages", "source": "clawhub", "stars": 0, "tags": null, "updated_at": 1776698683681, "version": "1.2.0"}, {"category": "", "created_at": 1774891543164, "description": "Loomio integration. Manage Organizations. Use when the user wants to interact with Loomio data.", "description_zh": "", "downloads": 26, "homepage": "https://clawhub.ai/gora050/loomio", "iconUrl": null, "installs": 0, "name": "Loomio", "ownerName": "gora050", "score": 96296.29629629629, "slug": "loomio", "source": "clawhub", "stars": 0, "tags": null, "updated_at": 1776698683680, "version": "1.0.0"}, {"category": "", "created_at": 1774893139018, "description": "Detect and read the largest license plate from an image using the TrafficEye REST API. Use when the user wants ANPR, ALPR, license plate OCR, number plate re...", "description_zh": "", "downloads": 26, "homepage": "https://clawhub.ai/radekzc/license-plate-reader", "iconUrl": null, "installs": 0, "name": "License Plate Reader", "ownerName": "radekzc", "score": 96296.29629629629, "slug": "license-plate-reader", "source": "clawhub", "stars": 0, "tags": null, "updated_at": 1776698683674, "version": "1.0.1"}, {"category": "", "created_at": 1774949261465, "description": "Dandelion integration. Manage Organizations. Use when the user wants to interact with Dandelion data.", "description_zh": "", "downloads": 26, "homepage": "https://clawhub.ai/gora050/dandelion", "iconUrl": null, "installs": 0, "name": "Dandelion", "ownerName": "gora050", "score": 96296.29629629629, "slug": "dandelion", "source": "clawhub", "stars": 0, "tags": null, "updated_at": 1776698683673, "version": "1.0.0"}]}