{"page": 504, "total_pages": 522, "total": 26073, "skills": [{"category": "", "created_at": 1774894943284, "description": "Generate content ideas, business strategies, and startup concepts in the style of Greg Eisenberg (Startup Ideas Podcast). Use when brainstorming product idea...", "description_zh": "", "downloads": 26, "homepage": "https://clawhub.ai/finnmackay/greg-eisenberg", "iconUrl": null, "installs": 0, "name": "Greg Eisenberg", "ownerName": "finnmackay", "score": 96296.29629629629, "slug": "greg-eisenberg", "source": "clawhub", "stars": 0, "tags": null, "updated_at": 1776698683659, "version": "1.0.0"}, {"category": "", "created_at": 1774952388418, "description": "Routing guide -- when to use `nansen agent` (AI research) vs direct CLI data commands. Use when deciding how to answer a user's research question with Nansen...", "description_zh": "", "downloads": 26, "homepage": "https://clawhub.ai/nansen-devops/nansen-agent-guide", "iconUrl": null, "installs": 0, "name": "Nansen Agent Guide", "ownerName": "nansen-devops", "score": 96296.29629629629, "slug": "nansen-agent-guide", "source": "clawhub", "stars": 0, "tags": null, "updated_at": 1776698683657, "version": "1.0.0"}, {"category": "", "created_at": 1774902289358, "description": "Melo integration. Manage Organizations, Pipelines, Users, Goals, Filters. Use when the user wants to interact with Melo data.", "description_zh": "", "downloads": 26, "homepage": "https://clawhub.ai/membranedev/melo", "iconUrl": null, "installs": 0, "name": "Melo", "ownerName": "membranedev", "score": 96296.29629629629, "slug": "melo", "source": "clawhub", "stars": 0, "tags": null, "updated_at": 1776698683646, "version": "1.0.0"}, {"category": "", "created_at": 1774880113650, "description": "Check whether a seller is actually ready for a marketplace event, promo spike, or campaign window before traffic is pushed. Use when the user wants to know i...", "description_zh": "", "downloads": 26, "homepage": "https://clawhub.ai/leooooooow/event-readiness", "iconUrl": null, "installs": 0, "name": "Event Readiness", "ownerName": "leooooooow", "score": 96296.29629629629, "slug": "event-readiness", "source": "clawhub", "stars": 0, "tags": null, "updated_at": 1776698683642, "version": "1.0.0"}, {"category": "", "created_at": 1774870547451, "description": "How to integrate wallet connection in React frontends using @aptos-labs/wallet-adapter-react. Covers AptosWalletAdapterProvider setup, useWallet() hook, fron...", "description_zh": "", "downloads": 26, "homepage": "https://clawhub.ai/iskysun96/ts-sdk-wallet-adapter", "iconUrl": null, "installs": 0, "name": "Ts Sdk Wallet Adapter", "ownerName": "iskysun96", "score": 96296.29629629629, "slug": "ts-sdk-wallet-adapter", "source": "clawhub", "stars": 0, "tags": null, "updated_at": 1776698570614, "version": "1.0.0"}, {"category": "", "created_at": 1774892092720, "description": "Evidence-based supplement intelligence powered by the SupStack database (220 supplements, 7,780+ studies, 21 health goals). Use when the user asks about supp...", "description_zh": "", "downloads": 26, "homepage": "https://clawhub.ai/drbaher/supstack", "iconUrl": null, "installs": 0, "name": "Supplement Research", "ownerName": "drbaher", "score": 96296.29629629629, "slug": "supstack", "source": "clawhub", "stars": 0, "tags": ["api-powered", "health", "nutrition", "research", "supplements", "tracking"], "updated_at": 1776698570566, "version": "1.0.0"}, {"category": "", "created_at": 1774901226728, "description": "Track the top Polymarket whale wallets and copy their winning trades. Monitors the monthly leaderboard, shows open positions, and identifies high-conviction...", "description_zh": "", "downloads": 26, "homepage": "https://clawhub.ai/themsquared/polymarket-whale-tracker-pro", "iconUrl": null, "installs": 2, "name": "Polymarket Whale Tracker", "ownerName": "themsquared", "score": 96296.29629629629, "slug": "polymarket-whale-tracker-pro", "source": "clawhub", "stars": 0, "tags": null, "updated_at": 1776698570461, "version": "1.0.0"}, {"category": "", "created_at": 1774886085994, "description": "Rent cars from Enterprise, check availability, manage reservations, and access Enterprise Plus rewards via Strider Labs MCP connector. Search vehicles by loc...", "description_zh": "", "downloads": 25, "homepage": "https://clawhub.ai/markswendsen-code/strider-enterprise", "iconUrl": null, "installs": 1, "name": "Strider Enterprise", "ownerName": "markswendsen-code", "score": 664.8936170212766, "slug": "strider-enterprise", "source": "clawhub", "stars": 0, "tags": null, "updated_at": 1776768850324, "version": "1.0.0"}, {"category": "", "created_at": 1774898911393, "description": "Rent Zipcars via Strider Labs MCP connector. Find nearby cars, book by the hour or day, unlock vehicles, and manage your Zipcar membership.", "description_zh": "", "downloads": 25, "homepage": "https://clawhub.ai/markswendsen-code/strider-zipcar", "iconUrl": null, "installs": 1, "name": "Strider Zipcar", "ownerName": "markswendsen-code", "score": 604.7411707789066, "slug": "strider-zipcar", "source": "clawhub", "stars": 0, "tags": null, "updated_at": 1776768850203, "version": "1.0.0"}, {"category": "", "created_at": 1774912393052, "description": "Control WHEN/WHEN Voice LAN clock devices. Supports voice time announcement, weather broadcast (WHEN Voice only), alarm CRUD, and countdown timer. Use --devi...", "description_zh": "", "downloads": 25, "homepage": "https://clawhub.ai/master-gong/when-clock-skill", "iconUrl": null, "installs": 1, "name": "when-clock-skill", "ownerName": "master-gong", "score": 499.1016170892394, "slug": "when-clock-skill", "source": "clawhub", "stars": 0, "tags": null, "updated_at": 1776767650048, "version": "1.0.1"}, {"category": "", "created_at": 1776062070194, "description": "Generate high-quality cinematic effects videos with Google Veo 3.1.", "description_zh": "", "downloads": 25, "homepage": "https://clawhub.ai/user_f95f21b8/dlazy-veo-3-1", "iconUrl": null, "installs": 0, "name": "veo 3.1", "ownerName": "user_f95f21b8", "score": 2004.8115477145147, "slug": "dlazy-veo-3-1", "source": "community", "stars": 0, "tags": null, "updated_at": 1776760282920, "version": "1.0.3"}, {"category": "", "created_at": 1776417364706, "description": "Generate AI-development-ready documentation sets for ANY software project — desktop apps, web apps, APIs, CLI tools, mobile apps, libraries, microservices. Use when: (1) Starting a new project that needs complete design docs before AI-driven coding, (2) Upgrading existing project docs to be AI-consumable, (3) Auditing existing docs for gaps and inconsistencies, (4) Converting rough notes into production-grade documentation. The skill produces documentation where every requirement, data model, UI spec, task, and code convention is traceable, consistent, and unambiguous — enabling AI agents to build the entire application from docs alone.", "description_zh": "", "downloads": 25, "homepage": "https://clawhub.ai/user_f2df858a/docs-for-ai-dev", "iconUrl": null, "installs": 1, "name": "ai需求开发文档生成", "ownerName": "user_f2df858a", "score": 2004.8115477145147, "slug": "docs-for-ai-dev", "source": "community", "stars": 0, "tags": null, "updated_at": 1776760282899, "version": "1.0.0"}, {"category": "", "created_at": 1776061298695, "description": "Efficient text generation, dialogue QA, and logical reasoning using Grok 4.2 text model.", "description_zh": "", "downloads": 25, "homepage": "https://clawhub.ai/user_f95f21b8/dlazy-grok-4-2", "iconUrl": null, "installs": 0, "name": "grok 4.2", "ownerName": "user_f95f21b8", "score": 2006.4205457463884, "slug": "dlazy-grok-4-2", "source": "community", "stars": 0, "tags": null, "updated_at": 1776760282817, "version": "1.0.3"}, {"category": "", "created_at": 1776062191611, "description": "Accurately generate continuous videos based on reference images using Wan 2.6 R2V.", "description_zh": "", "downloads": 25, "homepage": "https://clawhub.ai/user_f95f21b8/dlazy-wan2-6-r2v", "iconUrl": null, "installs": 0, "name": "wan2.6 r2v", "ownerName": "user_f95f21b8", "score": 2012.8824476650564, "slug": "dlazy-wan2-6-r2v", "source": "community", "stars": 0, "tags": null, "updated_at": 1776760282717, "version": "1.0.3"}, {"category": "", "created_at": 1776062118370, "description": "Clone voice and generate new text reading audio with one click using Vidu Audio Clone.", "description_zh": "", "downloads": 25, "homepage": "https://clawhub.ai/user_f95f21b8/dlazy-vidu-audio-clone", "iconUrl": null, "installs": 0, "name": "vidu audio clone", "ownerName": "user_f95f21b8", "score": 2011.2630732099758, "slug": "dlazy-vidu-audio-clone", "source": "community", "stars": 0, "tags": null, "updated_at": 1776760282396, "version": "1.0.3"}, {"category": "", "created_at": 1774900386354, "description": "Use when a user needs to add a new task or record a pending to-do item; when prompting an Agent to execute a pending task; during Agent heartbeat events to p...", "description_zh": "", "downloads": 25, "homepage": "https://clawhub.ai/liusining/todo-accelerator", "iconUrl": null, "installs": 0, "name": "Todo Accelerator", "ownerName": "liusining", "score": 26595.744680851065, "slug": "todo-accelerator", "source": "clawhub", "stars": 0, "tags": null, "updated_at": 1776745069689, "version": "0.1.0"}, {"category": "", "created_at": 1774890540203, "description": "This skill should be used when the user wants to plan a team of AI agents to work on a complex task. It analyzes task requirements, designs team structure, d...", "description_zh": "", "downloads": 25, "homepage": "https://clawhub.ai/ghost0118/team-planner", "iconUrl": null, "installs": 0, "name": "Team Planner", "ownerName": "ghost0118", "score": 35714.28571428572, "slug": "team-planner", "source": "clawhub", "stars": 0, "tags": null, "updated_at": 1776743869719, "version": "1.0.0"}, {"category": "", "created_at": 1774873190538, "description": "A living knowledge base of hard-earned strategy lessons and banned code patterns — prevents repeating past mistakes across strategy iterations by scanning co...", "description_zh": "", "downloads": 25, "homepage": "https://clawhub.ai/tltby12341/strategy-constitutional-memory", "iconUrl": null, "installs": 0, "name": "Strategy Constitutional Memory", "ownerName": "tltby12341", "score": 26041.666666666668, "slug": "strategy-constitutional-memory", "source": "clawhub", "stars": 0, "tags": null, "updated_at": 1776742855498, "version": "1.0.0"}, {"category": "", "created_at": 1774843087306, "description": "Polymarket screeners — discover trending events, top markets by volume, and search for specific markets. Use when browsing what's happening on prediction mar...", "description_zh": "", "downloads": 25, "homepage": "https://clawhub.ai/nansen-devops/nansen-prediction-markets", "iconUrl": null, "installs": 0, "name": "Nansen Prediction Markets", "ownerName": "nansen-devops", "score": 26315.78947368421, "slug": "nansen-prediction-markets", "source": "clawhub", "stars": 0, "tags": null, "updated_at": 1776741463533, "version": "0.1.0"}, {"category": "", "created_at": 1774855129044, "description": "What is a Polymarket trader betting on? Trades by address, PnL breakdown, and market context. Use when analysing a specific Polymarket wallet.", "description_zh": "", "downloads": 25, "homepage": "https://clawhub.ai/nansen-devops/nansen-polymarket-trader-profile", "iconUrl": null, "installs": 0, "name": "Nansen Polymarket Trader Profile", "ownerName": "nansen-devops", "score": 26315.78947368421, "slug": "nansen-polymarket-trader-profile", "source": "clawhub", "stars": 0, "tags": null, "updated_at": 1776741284271, "version": "0.1.0"}, {"category": "", "created_at": 1774882079239, "description": "Detailed Queensland property due-diligence for a single street address using official sources only. Use when an agent needs to research a Queensland property...", "description_zh": "", "downloads": 25, "homepage": "https://clawhub.ai/mhear22/qld-property-research", "iconUrl": null, "installs": 1, "name": "QLD Property Research", "ownerName": "mhear22", "score": 25773.195876288657, "slug": "qld-property-research", "source": "clawhub", "stars": 0, "tags": null, "updated_at": 1776737869838, "version": "1.0.3"}, {"category": "", "created_at": 1774902705546, "description": "Professional Vulnerability Assessment & Penetration Testing Career Roadmap Platform that generates personalized learning paths for aspiring VAPT professionals.", "description_zh": "", "downloads": 25, "homepage": "https://clawhub.ai/krishnakumarmahadevan-cmd/vapt-intern", "iconUrl": null, "installs": 1, "name": "VAPT Intern", "ownerName": "krishnakumarmahadevan-cmd", "score": 25510.204081632655, "slug": "vapt-intern", "source": "clawhub", "stars": 0, "tags": null, "updated_at": 1776708769586, "version": "1.0.0"}, {"category": "", "created_at": 1774861992369, "description": "Comprehensive pre-install guard that audits third-party skills across nine risk areas — covering semantic integrity, supply chain, secrets, data exfiltration...", "description_zh": "", "downloads": 25, "homepage": "https://clawhub.ai/yxf203/skill-risk-auditor", "iconUrl": null, "installs": 0, "name": "Skill Risk Auditor", "ownerName": "yxf203", "score": 100000, "slug": "skill-risk-auditor", "source": "clawhub", "stars": 0, "tags": null, "updated_at": 1776698984495, "version": "1.0.1"}, {"category": "", "created_at": 1774884951185, "description": "Organize and track signups with simple terminal commands and export. Use when logging registrations, checking status, analyzing trends, generating reports.", "description_zh": "", "downloads": 25, "homepage": "https://clawhub.ai/bytesagain3/signup", "iconUrl": null, "installs": 0, "name": "Signup", "ownerName": "bytesagain3", "score": 100000, "slug": "signup", "source": "clawhub", "stars": 0, "tags": null, "updated_at": 1776698984489, "version": "2.0.0"}, {"category": "", "created_at": 1774863157795, "description": "Read light intensity from USB sensors with real-time monitoring, filtering, and threshold detection.", "description_zh": "", "downloads": 25, "homepage": "https://clawhub.ai/lj-hao/usb-light-sensor-reader", "iconUrl": null, "installs": 0, "name": "Usb Light Sensor Reader", "ownerName": "lj-hao", "score": 100000, "slug": "usb-light-sensor-reader", "source": "clawhub", "stars": 0, "tags": null, "updated_at": 1776698984487, "version": "1.0.2"}, {"category": "", "created_at": 1774944758153, "description": "Backtest and deploy trading strategies on Superior Trade's managed cloud.", "description_zh": "", "downloads": 25, "homepage": "https://clawhub.ai/superior-ai/superiortrade", "iconUrl": null, "installs": 0, "name": "Superior Trade Api Skills", "ownerName": "superior-ai", "score": 100000, "slug": "superiortrade", "source": "clawhub", "stars": 0, "tags": null, "updated_at": 1776698984477, "version": "3.0.8"}, {"category": "", "created_at": 1774893911015, "description": "Comprehensive token intelligence for Base blockchain. Risk scores, whale tracking, signal analysis, and safety checks for any Base token. Powered by SUPAH 5-...", "description_zh": "", "downloads": 25, "homepage": "https://clawhub.ai/supah-based/supah-base-intelligence", "iconUrl": null, "installs": 0, "name": "SUPAH Base Intelligence", "ownerName": "supah-based", "score": 49019.60784313725, "slug": "supah-base-intelligence", "source": "clawhub", "stars": 0, "tags": null, "updated_at": 1776698984449, "version": "1.3.0"}, {"category": "", "created_at": 1774844749911, "description": "Use when the user mentions TBC Bank, tbcbank.ge, Georgian bank APIs, PSD2 integration with TBC, account information services (AIS), payment initiation (PIS)...", "description_zh": "", "downloads": 25, "homepage": "https://clawhub.ai/erekle1/tbc-bank-api", "iconUrl": null, "installs": 1, "name": "Tbc Bank Api", "ownerName": "erekle1", "score": 49019.60784313725, "slug": "tbc-bank-api", "source": "clawhub", "stars": 0, "tags": null, "updated_at": 1776698984437, "version": "0.1.0"}, {"category": "", "created_at": 1774890549838, "description": "Teamcamp integration. Manage Organizations. Use when the user wants to interact with Teamcamp data.", "description_zh": "", "downloads": 25, "homepage": "https://clawhub.ai/gora050/teamcamp", "iconUrl": null, "installs": 0, "name": "Teamcamp", "ownerName": "gora050", "score": 49019.60784313725, "slug": "teamcamp", "source": "clawhub", "stars": 0, "tags": null, "updated_at": 1776698984415, "version": "1.0.0"}, {"category": "", "created_at": 1774922118254, "description": "Start a video call with a real-time AI avatar using the Runway Characters API. The agent sends the user a call invite link — for standups, urgent alerts, che...", "description_zh": "", "downloads": 25, "homepage": "https://clawhub.ai/yining1023/video-call-agent", "iconUrl": null, "installs": 0, "name": "Video Call Agent", "ownerName": "yining1023", "score": 100000, "slug": "video-call-agent", "source": "clawhub", "stars": 0, "tags": null, "updated_at": 1776698984399, "version": "1.0.0"}, {"category": "", "created_at": 1774908097635, "description": "Analyze TRON stablecoin ecosystem: supply, holders, transfers, large transactions, blacklist, liquidity pools, TVL, key events. Supported stablecoins: USDT,...", "description_zh": "", "downloads": 25, "homepage": "https://clawhub.ai/sshnii/tronscan-stablecoin", "iconUrl": null, "installs": 1, "name": "TronScan Stablecoin", "ownerName": "sshnii", "score": 100000, "slug": "tronscan-stablecoin", "source": "clawhub", "stars": 0, "tags": ["stablecoin", "tron", "tusd", "usdc", "usdd", "usdt"], "updated_at": 1776698984388, "version": "1.0.0"}, {"category": "", "created_at": 1774914715639, "description": "Productlane integration. Manage Workspaces. Use when the user wants to interact with Productlane data.", "description_zh": "", "downloads": 25, "homepage": "https://clawhub.ai/membranedev/productlane", "iconUrl": null, "installs": 0, "name": "Productlane", "ownerName": "membranedev", "score": 100000, "slug": "productlane", "source": "clawhub", "stars": 0, "tags": null, "updated_at": 1776698984380, "version": "1.0.0"}, {"category": "", "created_at": 1774919183315, "description": "Information assistant for Zara. Search products, news, financials, and official resources for Zara.", "description_zh": "", "downloads": 25, "homepage": "https://clawhub.ai/hanxueyuan/zara", "iconUrl": null, "installs": 1, "name": "zara", "ownerName": "hanxueyuan", "score": 100000, "slug": "zara", "source": "clawhub", "stars": 0, "tags": null, "updated_at": 1776698984378, "version": "0.1.0"}, {"category": "", "created_at": 1774945735672, "description": "Professional US car insurance advisor that helps users compare insurers, understand coverage, check state requirements, estimate premiums, find discounts, an...", "description_zh": "", "downloads": 25, "homepage": "https://clawhub.ai/xiaoxty/us-car-insurance", "iconUrl": null, "installs": 0, "name": "US Car Insurance Advisor", "ownerName": "xiaoxty", "score": 100000, "slug": "us-car-insurance", "source": "clawhub", "stars": 0, "tags": null, "updated_at": 1776698984367, "version": "0.1.0"}, {"category": "", "created_at": 1774870490309, "description": "Use CodexBar CLI local cost usage to summarize per-model usage for Codex or Claude, including the current (most recent) model or a full model breakdown. Trig...", "description_zh": "", "downloads": 25, "homepage": "https://clawhub.ai/bkes994408-cmd/token-usage-dashboard", "iconUrl": null, "installs": 0, "name": "Token Usage Dashboard", "ownerName": "bkes994408-cmd", "score": 100000, "slug": "token-usage-dashboard", "source": "clawhub", "stars": 0, "tags": null, "updated_at": 1776698984350, "version": "1.0.0"}, {"category": "", "created_at": 1774869204634, "description": "World-class autonomous market intelligence and growth research skill system. Use ANY time the user asks to research markets, analyze competitors, find trends...", "description_zh": "", "downloads": 25, "homepage": "https://clawhub.ai/tenlifejosh/scout-growth", "iconUrl": null, "installs": 0, "name": "Scout Growth — World-Class AI Market Intelligence", "ownerName": "tenlifejosh", "score": 100000, "slug": "scout-growth", "source": "clawhub", "stars": 0, "tags": ["audience", "competitive", "growth", "intelligence", "market", "research", "scout", "trends"], "updated_at": 1776698984344, "version": "1.0.1"}, {"category": "", "created_at": 1774837999061, "description": "Cross-platform arbitrage between Kalshi and Polymarket. Monitors 13 Kalshi event series (crypto, macro, politics) and compares prices to equivalent Polymarke...", "description_zh": "", "downloads": 25, "homepage": "https://clawhub.ai/mibayy/polymarket-kalshi-divergence", "iconUrl": null, "installs": 0, "name": "Polymarket Kalshi Divergence", "ownerName": "mibayy", "score": 100000, "slug": "polymarket-kalshi-divergence", "source": "clawhub", "stars": 0, "tags": null, "updated_at": 1776698984337, "version": "2.0.5"}, {"category": "", "created_at": 1774869446091, "description": "Generates secure Aptos Move V2 smart contracts with Object model, Digital Asset integration, security patterns, and storage type guidance. Includes comprehen...", "description_zh": "", "downloads": 25, "homepage": "https://clawhub.ai/iskysun96/write-contracts", "iconUrl": null, "installs": 0, "name": "Write Contracts", "ownerName": "iskysun96", "score": 100000, "slug": "write-contracts", "source": "clawhub", "stars": 0, "tags": null, "updated_at": 1776698984329, "version": "1.0.0"}, {"category": "", "created_at": 1774886107833, "description": "Real-time whale activity monitoring and smart money following for Base blockchain. Track large transactions, wallet accumulation patterns, and smart money fl...", "description_zh": "", "downloads": 25, "homepage": "https://clawhub.ai/supah-based/supah-whale-tracker", "iconUrl": null, "installs": 0, "name": "SUPAH Whale Tracker", "ownerName": "supah-based", "score": 100000, "slug": "supah-whale-tracker", "source": "clawhub", "stars": 0, "tags": null, "updated_at": 1776698984318, "version": "1.3.0"}, {"category": "", "created_at": 1774893573336, "description": "ProAbono integration. Manage Users, Organizations. Use when the user wants to interact with ProAbono data.", "description_zh": "", "downloads": 25, "homepage": "https://clawhub.ai/gora050/proabono", "iconUrl": null, "installs": 0, "name": "Proabono", "ownerName": "gora050", "score": 100000, "slug": "proabono", "source": "clawhub", "stars": 0, "tags": null, "updated_at": 1776698984299, "version": "1.0.0"}, {"category": "", "created_at": 1774919089429, "description": "Utxo reference tool. Use when working with utxo in blockchain contexts.", "description_zh": "", "downloads": 25, "homepage": "https://clawhub.ai/bytesagain3/utxo", "iconUrl": null, "installs": 0, "name": "Utxo", "ownerName": "bytesagain3", "score": 100000, "slug": "utxo", "source": "clawhub", "stars": 0, "tags": null, "updated_at": 1776698984279, "version": "1.0.0"}, {"category": "", "created_at": 1774881227565, "description": "Three-tier system health monitoring (L1/L2/L3) with heartbeat mechanism. Zero external dependencies, i18n support, console output only.", "description_zh": "", "downloads": 25, "homepage": "https://clawhub.ai/lim1202/system-healthcheck", "iconUrl": null, "installs": 0, "name": "System Healthcheck", "ownerName": "lim1202", "score": 100000, "slug": "system-healthcheck", "source": "clawhub", "stars": 0, "tags": null, "updated_at": 1776698984276, "version": "1.0.1"}, {"category": "", "created_at": 1774877965368, "description": "Interact with Tado smart thermostat. Use for reading temperature, setting heating with auto-revert, viewing energy usage, and controlling zones.", "description_zh": "", "downloads": 25, "homepage": "https://clawhub.ai/davek-dev/tado-skill", "iconUrl": null, "installs": 1, "name": "Openclaw Skill Tado", "ownerName": "davek-dev", "score": 100000, "slug": "tado-skill", "source": "clawhub", "stars": 0, "tags": null, "updated_at": 1776698984237, "version": "1.0.5"}, {"category": "", "created_at": 1774915822002, "description": "Stannp integration. Manage Persons, Organizations, Leads, Deals, Projects, Activities and more. Use when the user wants to interact with Stannp data.", "description_zh": "", "downloads": 25, "homepage": "https://clawhub.ai/gora050/stannp", "iconUrl": null, "installs": 0, "name": "Stannp", "ownerName": "gora050", "score": 100000, "slug": "stannp", "source": "clawhub", "stars": 0, "tags": null, "updated_at": 1776698984234, "version": "1.0.0"}, {"category": "", "created_at": 1774906091725, "description": "Generate ai yearbook photo generator images with AI via the Neta AI image generation API (free trial at neta.art/open).", "description_zh": "", "downloads": 25, "homepage": "https://clawhub.ai/omactiengartelle/yearbook-photo-skill", "iconUrl": null, "installs": 0, "name": "Yearbook Photo Skill", "ownerName": "omactiengartelle", "score": 100000, "slug": "yearbook-photo-skill", "source": "clawhub", "stars": 0, "tags": null, "updated_at": 1776698984229, "version": "1.6.0"}, {"category": "", "created_at": 1774907121237, "description": "Timestamp conversion tool. Convert between Unix timestamp, datetime, and various date formats.", "description_zh": "", "downloads": 25, "homepage": "https://clawhub.ai/freeter226/timestamp-toolkit", "iconUrl": null, "installs": 0, "name": "Timestamp Toolkit", "ownerName": "freeter226", "score": 100000, "slug": "timestamp-toolkit", "source": "clawhub", "stars": 0, "tags": null, "updated_at": 1776698984212, "version": "1.0.0"}, {"category": "", "created_at": 1774873120495, "description": "Use when OpenClaw should learn how to install SilicaClaw bridge skills, check bridge connectivity, verify owner-forward runtime settings, and troubleshoot wh...", "description_zh": "", "downloads": 25, "homepage": "https://clawhub.ai/chinasong/silicaclaw-bridge-setup", "iconUrl": null, "installs": 0, "name": "SilicaClaw Bridge Setup", "ownerName": "chinasong", "score": 100000, "slug": "silicaclaw-bridge-setup", "source": "clawhub", "stars": 0, "tags": null, "updated_at": 1776698984167, "version": "2026.3.20-beta.1"}, {"category": "", "created_at": 1774954583431, "description": "RedCircle API integration. Manage Organizations, Users, Activities, Notes, Files. Use when the user wants to interact with RedCircle API data.", "description_zh": "", "downloads": 25, "homepage": "https://clawhub.ai/gora050/redcircle-api", "iconUrl": null, "installs": 0, "name": "Redcircle Api", "ownerName": "gora050", "score": 100000, "slug": "redcircle-api", "source": "clawhub", "stars": 0, "tags": null, "updated_at": 1776698984147, "version": "1.0.0"}, {"category": "", "created_at": 1774911342036, "description": "Interact with Veillabs privacy-focused DEX API for cross-chain swaps, private seed distributions, and transaction tracking.", "description_zh": "", "downloads": 25, "homepage": "https://clawhub.ai/veillabsapp/veillabs-ai", "iconUrl": null, "installs": 0, "name": "Veillabs Integration", "ownerName": "veillabsapp", "score": 100000, "slug": "veillabs-ai", "source": "clawhub", "stars": 0, "tags": null, "updated_at": 1776698984109, "version": "1.0.1"}, {"category": "", "created_at": 1774948945034, "description": "Smartproxy integration. Manage data, records, and automate workflows. Use when the user wants to interact with Smartproxy data.", "description_zh": "", "downloads": 25, "homepage": "https://clawhub.ai/gora050/smartproxy", "iconUrl": null, "installs": 0, "name": "Smartproxy", "ownerName": "gora050", "score": 100000, "slug": "smartproxy", "source": "clawhub", "stars": 0, "tags": null, "updated_at": 1776698984086, "version": "1.0.0"}]}