{"page": 505, "total_pages": 522, "total": 26073, "skills": [{"category": "", "created_at": 1774954557711, "description": "PublisherKit integration. Manage Organizations, Leads, Users, Goals, Filters. Use when the user wants to interact with PublisherKit data.", "description_zh": "", "downloads": 25, "homepage": "https://clawhub.ai/gora050/publisherkit", "iconUrl": null, "installs": 0, "name": "Publisherkit", "ownerName": "gora050", "score": 100000, "slug": "publisherkit", "source": "clawhub", "stars": 0, "tags": null, "updated_at": 1776698984083, "version": "1.0.0"}, {"category": "", "created_at": 1774948978694, "description": "Get current weather and forecasts (no API key required).", "description_zh": "", "downloads": 25, "homepage": "https://clawhub.ai/lei335/weather23", "iconUrl": null, "installs": 2, "name": "weather", "ownerName": "lei335", "score": 100000, "slug": "weather23", "source": "clawhub", "stars": 0, "tags": null, "updated_at": 1776698984076, "version": "1.0.0"}, {"category": "", "created_at": 1774856376475, "description": "SimpleKPI integration. Manage Users, Organizations, Goals, Projects, Pipelines, Filters. Use when the user wants to interact with SimpleKPI data.", "description_zh": "", "downloads": 25, "homepage": "https://clawhub.ai/membranedev/simplekpi", "iconUrl": null, "installs": 0, "name": "Simplekpi", "ownerName": "membranedev", "score": 100000, "slug": "simplekpi", "source": "clawhub", "stars": 0, "tags": null, "updated_at": 1776698984064, "version": "1.0.0"}, {"category": "", "created_at": 1774868224095, "description": "Product Hunt Launch Guide — Step-by-step Product Hunt launch strategy from 30x daily #1 winner. Complete guide for Product Hunt launch success. Covers: Produ...", "description_zh": "", "downloads": 25, "homepage": "https://clawhub.ai/gingiris/product-hunt-launch-guide", "iconUrl": null, "installs": 0, "name": "Product Hunt Launch Guide", "ownerName": "gingiris", "score": 100000, "slug": "product-hunt-launch-guide", "source": "clawhub", "stars": 0, "tags": null, "updated_at": 1776698984058, "version": "1.0.0"}, {"category": "", "created_at": 1774871805963, "description": "This skill should be used when users need to query weather information via the Shuzhi Weather API with HMAC-SHA256 authentication. It provides hourly weather...", "description_zh": "", "downloads": 25, "homepage": "https://clawhub.ai/alex098929/shuzhi-weather", "iconUrl": null, "installs": 0, "name": "Shuzhi Weather", "ownerName": "alex098929", "score": 100000, "slug": "shuzhi-weather", "source": "clawhub", "stars": 0, "tags": null, "updated_at": 1776698984041, "version": "1.0.0"}, {"category": "", "created_at": 1774948825177, "description": "Render responses in a structured, modular GPT-4o-derived UMG speech style for highly readable chat output.", "description_zh": "", "downloads": 25, "homepage": "https://clawhub.ai/neomagnetar/poe-umg-4o-modular-speech", "iconUrl": null, "installs": 0, "name": "Poe UMG 4o Modular Speech Style", "ownerName": "neomagnetar", "score": 100000, "slug": "poe-umg-4o-modular-speech", "source": "clawhub", "stars": 0, "tags": null, "updated_at": 1776698984035, "version": "1.0.0"}, {"category": "", "created_at": 1774874543795, "description": "Rafflys integration. Manage Organizations, Pipelines, Users, Filters. Use when the user wants to interact with Rafflys data.", "description_zh": "", "downloads": 25, "homepage": "https://clawhub.ai/membranedev/rafflys", "iconUrl": null, "installs": 0, "name": "Rafflys", "ownerName": "membranedev", "score": 100000, "slug": "rafflys", "source": "clawhub", "stars": 0, "tags": null, "updated_at": 1776698984033, "version": "1.0.0"}, {"category": "", "created_at": 1774897056907, "description": "Platform-specific social media growth strategy for creators and brands. Get a personalized 90-day growth plan with tactics to gain real followers, increase r...", "description_zh": "", "downloads": 25, "homepage": "https://clawhub.ai/mguozhen/social-growth-hacker", "iconUrl": null, "installs": 0, "name": "Social Growth Hacker", "ownerName": "mguozhen", "score": 100000, "slug": "social-growth-hacker", "source": "clawhub", "stars": 0, "tags": null, "updated_at": 1776698984020, "version": "1.0.0"}, {"category": "", "created_at": 1774923269044, "description": "Monitor subscription commerce for churn risk—blend account activity signals, payment failure (dunning) tracking, and retention flows including compensation o...", "description_zh": "", "downloads": 25, "homepage": "https://clawhub.ai/rijoyai/sub-churn", "iconUrl": null, "installs": 1, "name": "Sub Churn", "ownerName": "rijoyai", "score": 100000, "slug": "sub-churn", "source": "clawhub", "stars": 0, "tags": null, "updated_at": 1776698983997, "version": "1.0.0"}, {"category": "", "created_at": 1774870555526, "description": "AI video editor for YouTube creators — removes pauses, filler words, and dead air automatically via API", "description_zh": "", "downloads": 25, "homepage": "https://clawhub.ai/esokullu/tubeify", "iconUrl": null, "installs": 0, "name": "Tubeify", "ownerName": "esokullu", "score": 100000, "slug": "tubeify", "source": "clawhub", "stars": 0, "tags": ["ai", "editing", "filler-words", "media", "pauses", "video", "youtube"], "updated_at": 1776698983987, "version": "1.0.0"}, {"category": "", "created_at": 1774880971978, "description": "Real-time crypto market intelligence briefing. One command gives any agent the full picture: market regime, fear/greed, BTC/ETH dominance, gas costs, trendin...", "description_zh": "", "downloads": 25, "homepage": "https://clawhub.ai/supah-based/supah-pulse", "iconUrl": null, "installs": 0, "name": "SUPAH Pulse", "ownerName": "supah-based", "score": 100000, "slug": "supah-pulse", "source": "clawhub", "stars": 0, "tags": null, "updated_at": 1776698983968, "version": "2.3.0"}, {"category": "", "created_at": 1774922108840, "description": "Audit tool and command results before acting on them. Use when an agent has already run a command or tool, especially in multi-step workflows where a failed,...", "description_zh": "", "downloads": 25, "homepage": "https://clawhub.ai/daowuu/tool-output-auditor", "iconUrl": null, "installs": 0, "name": "Tool Output Auditor", "ownerName": "daowuu", "score": 100000, "slug": "tool-output-auditor", "source": "clawhub", "stars": 0, "tags": null, "updated_at": 1776698983954, "version": "0.1.0"}, {"category": "", "created_at": 1773435087835, "description": "Analyze audio quality, detect noise types, and provide improvement recommendations. Use when users need to check audio quality, validate recordings, or ident...", "description_zh": "", "downloads": 25, "homepage": "https://clawhub.ai/scikkk/senseaudio-audio-quality-checker", "iconUrl": null, "installs": 1, "name": "Audio Quality Checker", "ownerName": "scikkk", "score": 100000, "slug": "senseaudio-audio-quality-checker", "source": "clawhub", "stars": 0, "tags": null, "updated_at": 1776698983949, "version": "1.0.0"}, {"category": "", "created_at": 1774901515573, "description": "Substrate reference tool. Use when working with substrate in blockchain contexts.", "description_zh": "", "downloads": 25, "homepage": "https://clawhub.ai/ckchzh/substrate", "iconUrl": null, "installs": 0, "name": "Substrate", "ownerName": "ckchzh", "score": 100000, "slug": "substrate", "source": "clawhub", "stars": 0, "tags": null, "updated_at": 1776698983925, "version": "1.0.0"}, {"category": "", "created_at": 1774899196462, "description": "Stress-test exhibit budgets with ROI scenarios and go-no-go guardrails.", "description_zh": "", "downloads": 25, "homepage": "https://clawhub.ai/weilun88313/trade-show-budget-planner", "iconUrl": null, "installs": 0, "name": "Trade Show Budget Planner", "ownerName": "weilun88313", "score": 100000, "slug": "trade-show-budget-planner", "source": "clawhub", "stars": 0, "tags": null, "updated_at": 1776698983919, "version": "1.0.2"}, {"category": "", "created_at": 1774946781205, "description": "Calculate vig (juice/overround/hold) for any sportsbook market. Convert odds to no-vig fair lines. Rank books by efficiency. Use when asked about vig, juice,...", "description_zh": "", "downloads": 25, "homepage": "https://clawhub.ai/rsquaredsolutions2026/vig-calculator", "iconUrl": null, "installs": 1, "name": "Vig Calculator", "ownerName": "rsquaredsolutions2026", "score": 100000, "slug": "vig-calculator", "source": "clawhub", "stars": 0, "tags": ["agentbets", "betting", "openclaw", "prediction-markets", "sports-betting"], "updated_at": 1776698983912, "version": "1.1.0"}, {"category": "", "created_at": 1774900184855, "description": "OCR document extraction - extract text from scanned documents, photos, and images using OCR. Use when reading scanned PDFs, photographed pages, handwritten n...", "description_zh": "", "downloads": 25, "homepage": "https://clawhub.ai/tanis90/scan-to-markdown", "iconUrl": null, "installs": 0, "name": "Scan To Markdown", "ownerName": "tanis90", "score": 100000, "slug": "scan-to-markdown", "source": "clawhub", "stars": 0, "tags": null, "updated_at": 1776698983905, "version": "1.0.0"}, {"category": "", "created_at": 1774882392988, "description": "Tooltip UI component reference — positioning, accessibility, trigger patterns, animation. Use when implementing tooltips, popovers, or contextual help overla...", "description_zh": "", "downloads": 25, "homepage": "https://clawhub.ai/xueyetianya/tooltip", "iconUrl": null, "installs": 0, "name": "Tooltip", "ownerName": "xueyetianya", "score": 100000, "slug": "tooltip", "source": "clawhub", "stars": 0, "tags": null, "updated_at": 1776698983900, "version": "1.0.0"}, {"category": "", "created_at": 1774876431886, "description": "Sort and organize files into folders by type, date, or rules. Use when decluttering dirs, checking structure, running cleanup, generating reports.", "description_zh": "", "downloads": 25, "homepage": "https://clawhub.ai/xueyetianya/tidyfiles", "iconUrl": null, "installs": 0, "name": "Tidyfiles", "ownerName": "xueyetianya", "score": 100000, "slug": "tidyfiles", "source": "clawhub", "stars": 0, "tags": null, "updated_at": 1776698983891, "version": "2.0.0"}, {"category": "", "created_at": 1774872159650, "description": "Use this skill when an agent needs fresh web results. No API key required. Supports multiple platforms (web, video, social). It explains how to choose a prov...", "description_zh": "", "downloads": 25, "homepage": "https://clawhub.ai/lexiforest/seekit-search", "iconUrl": null, "installs": 0, "name": "Seekit Search(No API Key Required)", "ownerName": "lexiforest", "score": 100000, "slug": "seekit-search", "source": "clawhub", "stars": 0, "tags": null, "updated_at": 1776698983873, "version": "0.1.0"}, {"category": "", "created_at": 1774952572738, "description": "Check all links in a website's HTML files and report broken, redirected, and slow links. Supports internal links, external links, and affiliate link identifi...", "description_zh": "", "downloads": 25, "homepage": "https://clawhub.ai/kryzl19/strd-link-checker", "iconUrl": null, "installs": 1, "name": "Link Checker", "ownerName": "kryzl19", "score": 100000, "slug": "strd-link-checker", "source": "clawhub", "stars": 0, "tags": null, "updated_at": 1776698983850, "version": "1.0.0"}, {"category": "", "created_at": 1774876159465, "description": "QuickEmailVerification integration. Manage data, records, and automate workflows. Use when the user wants to interact with QuickEmailVerification data.", "description_zh": "", "downloads": 25, "homepage": "https://clawhub.ai/membranedev/quickemailverification", "iconUrl": null, "installs": 0, "name": "Quickemailverification", "ownerName": "membranedev", "score": 100000, "slug": "quickemailverification", "source": "clawhub", "stars": 0, "tags": null, "updated_at": 1776698983828, "version": "1.0.0"}, {"category": "", "created_at": 1774895420446, "description": "Analyze sandwich operations. Use when you need to understand sandwich mechanisms, evaluate protocol security, or reference on-chain concepts.", "description_zh": "", "downloads": 25, "homepage": "https://clawhub.ai/ckchzh/sandwich", "iconUrl": null, "installs": 0, "name": "Sandwich", "ownerName": "ckchzh", "score": 100000, "slug": "sandwich", "source": "clawhub", "stars": 0, "tags": null, "updated_at": 1776698983799, "version": "1.0.0"}, {"category": "", "created_at": 1774915717056, "description": "Retently integration. Manage Persons, Organizations, Deals, Leads, Projects, Activities and more. Use when the user wants to interact with Retently data.", "description_zh": "", "downloads": 25, "homepage": "https://clawhub.ai/gora050/retently", "iconUrl": null, "installs": 0, "name": "Retently", "ownerName": "gora050", "score": 73529.41176470589, "slug": "retently", "source": "clawhub", "stars": 0, "tags": null, "updated_at": 1776698983783, "version": "1.0.0"}, {"category": "", "created_at": 1774883621085, "description": "SignWell integration. Manage Users, Documents, Teams. Use when the user wants to interact with SignWell data.", "description_zh": "", "downloads": 25, "homepage": "https://clawhub.ai/membranedev/signwell", "iconUrl": null, "installs": 1, "name": "Signwell", "ownerName": "membranedev", "score": 73529.41176470589, "slug": "signwell", "source": "clawhub", "stars": 0, "tags": null, "updated_at": 1776698983765, "version": "1.0.0"}, {"category": "", "created_at": 1774954968569, "description": "PreciseFP integration. Manage Clients, Firms. Use when the user wants to interact with PreciseFP data.", "description_zh": "", "downloads": 25, "homepage": "https://clawhub.ai/gora050/precisefp", "iconUrl": null, "installs": 0, "name": "Precisefp", "ownerName": "gora050", "score": 73529.41176470589, "slug": "precisefp", "source": "clawhub", "stars": 0, "tags": null, "updated_at": 1776698983764, "version": "1.0.0"}, {"category": "", "created_at": 1774874583617, "description": "SamCart integration. Manage Products, Orders, Customers, Funnels, Upsells. Use when the user wants to interact with SamCart data.", "description_zh": "", "downloads": 25, "homepage": "https://clawhub.ai/gora050/samcart", "iconUrl": null, "installs": 0, "name": "Samcart", "ownerName": "gora050", "score": 73529.41176470589, "slug": "samcart", "source": "clawhub", "stars": 0, "tags": null, "updated_at": 1776698983762, "version": "1.0.0"}, {"category": "", "created_at": 1774917174189, "description": "Route OpenClaw web searches through privacy-respecting engines (Brave Search, Kagi, SearXNG) instead of Google or Bing. Eliminates ad-network tracking from y...", "description_zh": "", "downloads": 25, "homepage": "https://clawhub.ai/u4ma-kev/private-search", "iconUrl": null, "installs": 0, "name": "Private Search", "ownerName": "u4ma-kev", "score": 73529.41176470589, "slug": "private-search", "source": "clawhub", "stars": 0, "tags": ["brave", "privacy", "search"], "updated_at": 1776698983739, "version": "1.0.0"}, {"category": "", "created_at": 1774893583462, "description": "Distill successful multi-step OpenClaw sessions into reusable learned skills before compaction. Use when a task involved many tool calls, environment setup,...", "description_zh": "", "downloads": 25, "homepage": "https://clawhub.ai/xiaocaijic/procedural-distiller", "iconUrl": null, "installs": 0, "name": "procedural-distiller", "ownerName": "xiaocaijic", "score": 67567.56756756756, "slug": "procedural-distiller", "source": "clawhub", "stars": 0, "tags": null, "updated_at": 1776698983708, "version": "1.0.0"}, {"category": "", "created_at": 1774913659201, "description": "Verimor API üzerinden SMS gönder, bakiye sorgula, rapor al, başlıkları listele ve kara liste yönet.", "description_zh": "", "downloads": 25, "homepage": "https://clawhub.ai/mirzakarahan-verimor/verimor-sms", "iconUrl": null, "installs": 0, "name": "Verimor SMS", "ownerName": "mirzakarahan-verimor", "score": 67567.56756756756, "slug": "verimor-sms", "source": "clawhub", "stars": 0, "tags": null, "updated_at": 1776698983706, "version": "1.0.1"}, {"category": "", "created_at": 1774901440533, "description": "SevDesk integration. Manage Organizations. Use when the user wants to interact with SevDesk data.", "description_zh": "", "downloads": 25, "homepage": "https://clawhub.ai/gora050/sevdesk", "iconUrl": null, "installs": 0, "name": "Sevdesk", "ownerName": "gora050", "score": 67567.56756756756, "slug": "sevdesk", "source": "clawhub", "stars": 0, "tags": null, "updated_at": 1776698983656, "version": "1.0.0"}, {"category": "", "created_at": 1774893680192, "description": "Respond.io integration. Manage Organizations. Use when the user wants to interact with Respond.io data.", "description_zh": "", "downloads": 25, "homepage": "https://clawhub.ai/membranedev/respondio", "iconUrl": null, "installs": 0, "name": "Respondio", "ownerName": "membranedev", "score": 100000, "slug": "respondio", "source": "clawhub", "stars": 0, "tags": null, "updated_at": 1776698870658, "version": "1.0.0"}, {"category": "", "created_at": 1774954108329, "description": "SlickText integration. Manage Accounts. Use when the user wants to interact with SlickText data.", "description_zh": "", "downloads": 25, "homepage": "https://clawhub.ai/gora050/slicktext", "iconUrl": null, "installs": 0, "name": "Slicktext", "ownerName": "gora050", "score": 100000, "slug": "slicktext", "source": "clawhub", "stars": 0, "tags": null, "updated_at": 1776698870656, "version": "1.0.0"}, {"category": "", "created_at": 1774907988570, "description": "Shipday integration. Manage Accounts. Use when the user wants to interact with Shipday data.", "description_zh": "", "downloads": 25, "homepage": "https://clawhub.ai/gora050/shipday", "iconUrl": null, "installs": 0, "name": "Shipday", "ownerName": "gora050", "score": 100000, "slug": "shipday", "source": "clawhub", "stars": 0, "tags": null, "updated_at": 1776698870655, "version": "1.0.0"}, {"category": "", "created_at": 1774879637142, "description": "Import products from Shopify, Wix, WordPress, and Amazon directly into WooCommerce via natural language.", "description_zh": "", "downloads": 25, "homepage": "https://clawhub.ai/colaliang/yundian-woo-importer", "iconUrl": null, "installs": 1, "name": "Skills", "ownerName": "colaliang", "score": 100000, "slug": "yundian-woo-importer", "source": "clawhub", "stars": 0, "tags": null, "updated_at": 1776698870653, "version": "1.0.0"}, {"category": "", "created_at": 1774907019650, "description": "Superdocu integration. Manage Documents, Users, Groups, Templates. Use when the user wants to interact with Superdocu data.", "description_zh": "", "downloads": 25, "homepage": "https://clawhub.ai/gora050/superdocu", "iconUrl": null, "installs": 0, "name": "Superdocu", "ownerName": "gora050", "score": 100000, "slug": "superdocu", "source": "clawhub", "stars": 0, "tags": null, "updated_at": 1776698870648, "version": "1.0.0"}, {"category": "", "created_at": 1774876587192, "description": "Connect to a Wayfront workspace via MCP and query business data — clients, orders, tickets, subscriptions, invoices, and more. Schema-first: discovers availa...", "description_zh": "", "downloads": 25, "homepage": "https://clawhub.ai/wayfront-bot/wayfront", "iconUrl": null, "installs": 2, "name": "Wayfront", "ownerName": "wayfront-bot", "score": 100000, "slug": "wayfront", "source": "clawhub", "stars": 0, "tags": null, "updated_at": 1776698870645, "version": "1.0.1"}, {"category": "", "created_at": 1774913248335, "description": "Plans, drafts, and schedules social media content (posts, reels, threads) with strict anti-spam and safety rules. Use when the user asks for a content calend...", "description_zh": "", "downloads": 25, "homepage": "https://clawhub.ai/utromaya-code/social-growth-agent", "iconUrl": null, "installs": 0, "name": "Social Growth Ops", "ownerName": "utromaya-code", "score": 100000, "slug": "social-growth-agent", "source": "clawhub", "stars": 0, "tags": null, "updated_at": 1776698870643, "version": "1.0.0"}, {"category": "", "created_at": 1774901469898, "description": "Sprinklr integration. Manage data, records, and automate workflows. Use when the user wants to interact with Sprinklr data.", "description_zh": "", "downloads": 25, "homepage": "https://clawhub.ai/gora050/sprinklr", "iconUrl": null, "installs": 0, "name": "Sprinklr", "ownerName": "gora050", "score": 100000, "slug": "sprinklr", "source": "clawhub", "stars": 0, "tags": null, "updated_at": 1776698870639, "version": "1.0.0"}, {"category": "", "created_at": 1774907109518, "description": "Tiger Brokers OpenAPI Python SDK — complete skills for AI coding tools. Covers SDK setup, market data queries, stock/futures/options trading, real-time push...", "description_zh": "", "downloads": 25, "homepage": "https://clawhub.ai/hotea/tigerbrokers", "iconUrl": null, "installs": 0, "name": "Tigerbrokers", "ownerName": "hotea", "score": 100000, "slug": "tigerbrokers", "source": "clawhub", "stars": 0, "tags": null, "updated_at": 1776698870637, "version": "1.0.0"}, {"category": "", "created_at": 1774897446733, "description": "Fetch and summarize latest Singapore Pools TOTO results from official Singapore Pools data files (normal, cascade, hongbao, special). Use when users ask for...", "description_zh": "", "downloads": 25, "homepage": "https://clawhub.ai/bluesneed/singapore-pools-toto-results", "iconUrl": null, "installs": 0, "name": "Singapore Pools TOTO Results", "ownerName": "bluesneed", "score": 100000, "slug": "singapore-pools-toto-results", "source": "clawhub", "stars": 0, "tags": null, "updated_at": 1776698870636, "version": "1.0.0"}, {"category": "", "created_at": 1774955021604, "description": "Analyze conversion funnel data for frontend resource positions (banners, cards, popups) from exposure, click, and business conversion dimensions. Decompose d...", "description_zh": "", "downloads": 25, "homepage": "https://clawhub.ai/wuyi-ding/resource-position-analysis", "iconUrl": null, "installs": 0, "name": "Resource Position Analysis", "ownerName": "wuyi-ding", "score": 100000, "slug": "resource-position-analysis", "source": "clawhub", "stars": 0, "tags": null, "updated_at": 1776698870632, "version": "1.0.0"}, {"category": "", "created_at": 1774901458985, "description": "SimpleBackups integration. Manage Backups, Restores, Alerts, Users. Use when the user wants to interact with SimpleBackups data.", "description_zh": "", "downloads": 25, "homepage": "https://clawhub.ai/gora050/simplebackups", "iconUrl": null, "installs": 0, "name": "Simplebackups", "ownerName": "gora050", "score": 100000, "slug": "simplebackups", "source": "clawhub", "stars": 0, "tags": null, "updated_at": 1776698870630, "version": "1.0.0"}, {"category": "", "created_at": 1774915928874, "description": "Publish content to UseClaw as a regular user via the `useclaw` CLI. Use when the user wants to set up their UseClaw token, publish a tutorial/guide/case/skil...", "description_zh": "", "downloads": 25, "homepage": "https://clawhub.ai/agentsignals/useclaw-publish", "iconUrl": null, "installs": 0, "name": "UseClaw Publish", "ownerName": "agentsignals", "score": 100000, "slug": "useclaw-publish", "source": "clawhub", "stars": 0, "tags": ["content", "publishing", "useclaw"], "updated_at": 1776698870626, "version": "1.0.0"}, {"category": "", "created_at": 1774952587899, "description": "Taka creative tools CLI — generate AI images, videos, emails, and flyers for small businesses from the command line", "description_zh": "", "downloads": 25, "homepage": "https://clawhub.ai/danielokaninm/taka", "iconUrl": null, "installs": 0, "name": "Taka", "ownerName": "danielokaninm", "score": 100000, "slug": "taka", "source": "clawhub", "stars": 0, "tags": null, "updated_at": 1776698870624, "version": "1.0.0"}, {"category": "", "created_at": 1774906927138, "description": "AI Agent skill security auditor. Use this skill whenever the user wants to audit, review, vet, or assess the safety and security of any AI skill, Claude skil...", "description_zh": "", "downloads": 25, "homepage": "https://clawhub.ai/dttnpole-commits/sentinel-vanguard", "iconUrl": null, "installs": 1, "name": "Sentinel Vanguard AI Skill Security Auditor", "ownerName": "dttnpole-commits", "score": 100000, "slug": "sentinel-vanguard", "source": "clawhub", "stars": 0, "tags": ["ai-security security code-analysis risk-analysis developer-tools cybersecurity data-privacy ai-tools github automation"], "updated_at": 1776698870622, "version": "2.0.1"}, {"category": "", "created_at": 1774956667315, "description": "ShortPixel integration. Manage data, records, and automate workflows. Use when the user wants to interact with ShortPixel data.", "description_zh": "", "downloads": 25, "homepage": "https://clawhub.ai/gora050/shortpixel", "iconUrl": null, "installs": 0, "name": "Shortpixel", "ownerName": "gora050", "score": 100000, "slug": "shortpixel", "source": "clawhub", "stars": 0, "tags": null, "updated_at": 1776698870619, "version": "1.0.0"}, {"category": "", "created_at": 1774868431252, "description": "Optimize vendor payment timing to maximize cash flow and capture early payment discounts. Analyzes open AP, scores discount opportunities (2/10 net 30, etc.)...", "description_zh": "", "downloads": 25, "homepage": "https://clawhub.ai/samledger67-dotcom/vendor-payment-optimizer", "iconUrl": null, "installs": 0, "name": "Vendor Payment Optimizer", "ownerName": "samledger67-dotcom", "score": 100000, "slug": "vendor-payment-optimizer", "source": "clawhub", "stars": 0, "tags": null, "updated_at": 1776698870617, "version": "1.0.0"}, {"category": "", "created_at": 1774948865916, "description": "ReCharge integration. Manage Customers. Use when the user wants to interact with ReCharge data.", "description_zh": "", "downloads": 25, "homepage": "https://clawhub.ai/gora050/recharge", "iconUrl": null, "installs": 1, "name": "Recharge", "ownerName": "gora050", "score": 100000, "slug": "recharge", "source": "clawhub", "stars": 0, "tags": null, "updated_at": 1776698870615, "version": "1.0.0"}, {"category": "", "created_at": 1774893896532, "description": "Subpoena law reference — types of subpoenas, service requirements, compliance obligations, and motion to quash. Use when issuing, receiving, or responding to...", "description_zh": "", "downloads": 25, "homepage": "https://clawhub.ai/xueyetianya/subpoena", "iconUrl": null, "installs": 0, "name": "Subpoena", "ownerName": "xueyetianya", "score": 100000, "slug": "subpoena", "source": "clawhub", "stars": 0, "tags": null, "updated_at": 1776698870613, "version": "1.0.0"}]}