{"page": 506, "total_pages": 522, "total": 26073, "skills": [{"category": "", "created_at": 1774874530788, "description": "Qualaroo integration. Manage Surveys, Questions, Answers. Use when the user wants to interact with Qualaroo data.", "description_zh": "", "downloads": 25, "homepage": "https://clawhub.ai/membranedev/qualaroo", "iconUrl": null, "installs": 0, "name": "Qualaroo", "ownerName": "membranedev", "score": 100000, "slug": "qualaroo", "source": "clawhub", "stars": 0, "tags": null, "updated_at": 1776698870611, "version": "1.0.0"}, {"category": "", "created_at": 1774857263329, "description": "Request Uber rides via Strider Labs MCP connector. Get fare estimates, request pickups, track drivers, and manage ride history.", "description_zh": "", "downloads": 25, "homepage": "https://clawhub.ai/markswendsen-code/strider-uber", "iconUrl": null, "installs": 0, "name": "Strider Uber", "ownerName": "markswendsen-code", "score": 100000, "slug": "strider-uber", "source": "clawhub", "stars": 0, "tags": null, "updated_at": 1776698870609, "version": "1.0.1"}, {"category": "", "created_at": 1774903688031, "description": "Interact with the Scutl AI agent social platform — create accounts, post, reply, read feeds, follow agents, and manage filters. TRIGGER when: user asks to po...", "description_zh": "", "downloads": 25, "homepage": "https://clawhub.ai/murdarch/scutl", "iconUrl": null, "installs": 0, "name": "Scutl", "ownerName": "murdarch", "score": 100000, "slug": "scutl", "source": "clawhub", "stars": 0, "tags": null, "updated_at": 1776698870605, "version": "1.0.1"}, {"category": "", "created_at": 1774890318768, "description": "RepairShopr integration. Manage Deals, Persons, Organizations, Leads, Projects, Activities and more. Use when the user wants to interact with RepairShopr data.", "description_zh": "", "downloads": 25, "homepage": "https://clawhub.ai/gora050/repairshopr", "iconUrl": null, "installs": 0, "name": "Repairshopr", "ownerName": "gora050", "score": 100000, "slug": "repairshopr", "source": "clawhub", "stars": 0, "tags": null, "updated_at": 1776698870602, "version": "1.0.0"}, {"category": "", "created_at": 1774915016477, "description": "Interpret VoiceTrust results for owner verification on voice/audio inputs. Use when you need the meaning of VoiceTrust fields, trust labels, command-gating d...", "description_zh": "", "downloads": 25, "homepage": "https://clawhub.ai/kunyancai/voicetrust", "iconUrl": null, "installs": 0, "name": "VoiceTrust", "ownerName": "kunyancai", "score": 100000, "slug": "voicetrust", "source": "clawhub", "stars": 0, "tags": null, "updated_at": 1776698870598, "version": "0.4.1"}, {"category": "", "created_at": 1774900419596, "description": "UrlBae integration. Manage data, records, and automate workflows. Use when the user wants to interact with UrlBae data.", "description_zh": "", "downloads": 25, "homepage": "https://clawhub.ai/gora050/urlbae", "iconUrl": null, "installs": 0, "name": "Urlbae", "ownerName": "gora050", "score": 100000, "slug": "urlbae", "source": "clawhub", "stars": 0, "tags": null, "updated_at": 1776698870596, "version": "1.0.0"}, {"category": "", "created_at": 1774946446896, "description": "When the user wants to create, optimize, or structure Terms of Service page. Also use when the user mentions \"terms of service,\" \"terms and conditions,\" \"ter...", "description_zh": "", "downloads": 25, "homepage": "https://clawhub.ai/kostja94/terms-page-generator", "iconUrl": null, "installs": 0, "name": "terms-page-generator", "ownerName": "kostja94", "score": 100000, "slug": "terms-page-generator", "source": "clawhub", "stars": 0, "tags": null, "updated_at": 1776698870593, "version": "1.0.0"}, {"category": "", "created_at": 1774884785046, "description": "Manage PO6 email aliases, mailbox, and landing pages via the PO6 MCP server. Use when the user wants to read, send, search, compose, reply, or forward emails...", "description_zh": "", "downloads": 25, "homepage": "https://clawhub.ai/winstein/po6-mailbox", "iconUrl": null, "installs": 0, "name": "PO6 Mailbox", "ownerName": "winstein", "score": 100000, "slug": "po6-mailbox", "source": "clawhub", "stars": 0, "tags": null, "updated_at": 1776698870591, "version": "1.0.0"}, {"category": "", "created_at": 1774920554989, "description": "ServerAvatar integration. Manage Servers, Teams. Use when the user wants to interact with ServerAvatar data.", "description_zh": "", "downloads": 25, "homepage": "https://clawhub.ai/gora050/serveravatar", "iconUrl": null, "installs": 0, "name": "Serveravatar", "ownerName": "gora050", "score": 100000, "slug": "serveravatar", "source": "clawhub", "stars": 0, "tags": null, "updated_at": 1776698870590, "version": "1.0.0"}, {"category": "", "created_at": 1774867099937, "description": "Reference tool for devtools — covers intro, quickstart, patterns and more. Quick lookup for Piston concepts, best practices, and implementation patterns.", "description_zh": "", "downloads": 25, "homepage": "https://clawhub.ai/xueyetianya/piston", "iconUrl": null, "installs": 0, "name": "Piston", "ownerName": "xueyetianya", "score": 100000, "slug": "piston", "source": "clawhub", "stars": 0, "tags": null, "updated_at": 1776698870588, "version": "2.0.1"}, {"category": "", "created_at": 1774923459555, "description": "When the user wants to run YouTube ads, set up TrueView or Bumper campaigns, or optimize video ad creative. Also use when the user mentions \"YouTube ads,\" \"T...", "description_zh": "", "downloads": 25, "homepage": "https://clawhub.ai/kostja94/youtube-ads", "iconUrl": null, "installs": 0, "name": "youtube-ads", "ownerName": "kostja94", "score": 100000, "slug": "youtube-ads", "source": "clawhub", "stars": 0, "tags": null, "updated_at": 1776698870586, "version": "1.0.0"}, {"category": "", "created_at": 1774912224284, "description": "Use when context is lost after switching surfaces (Telegram to WhatsApp, TUI to Telegram), when handing off tasks between agents (Jon → Eddie, Cipher → Eddie...", "description_zh": "", "downloads": 25, "homepage": "https://clawhub.ai/codeinonenight/session-bridge", "iconUrl": null, "installs": 0, "name": "Session Bridge", "ownerName": "codeinonenight", "score": 100000, "slug": "session-bridge", "source": "clawhub", "stars": 0, "tags": null, "updated_at": 1776698870584, "version": "1.0.0"}, {"category": "", "created_at": 1774901528367, "description": "Captures learnings, errors, and corrections to enable continuous improvement. Use when: (1) A command or operation fails unexpectedly, (2) User corrects Clau...", "description_zh": "", "downloads": 25, "homepage": "https://clawhub.ai/boboincn/temp-skill-download", "iconUrl": null, "installs": 0, "name": "Temp Skill Download", "ownerName": "boboincn", "score": 32051.282051282054, "slug": "temp-skill-download", "source": "clawhub", "stars": 0, "tags": null, "updated_at": 1776698870583, "version": "1.0.0"}, {"category": "", "created_at": 1774874962459, "description": "When the user wants help with revenue operations, lead lifecycle management, or marketing-to-sales handoff processes. Also use when the user mentions 'RevOps...", "description_zh": "", "downloads": 25, "homepage": "https://clawhub.ai/mariokarras/abm-revops", "iconUrl": null, "installs": 0, "name": "Revops", "ownerName": "mariokarras", "score": 32051.282051282054, "slug": "abm-revops", "source": "clawhub", "stars": 0, "tags": null, "updated_at": 1776698870578, "version": "1.0.0"}, {"category": "", "created_at": 1774948034285, "description": "Turn scattered notes into atomic notes, connections, and writing structure", "description_zh": "", "downloads": 25, "homepage": "https://clawhub.ai/harrylabsj/zettelkasten-writing-coach", "iconUrl": null, "installs": 1, "name": "Zettelkasten Writing Coach", "ownerName": "harrylabsj", "score": 32051.282051282054, "slug": "zettelkasten-writing-coach", "source": "clawhub", "stars": 0, "tags": null, "updated_at": 1776698870573, "version": "1.0.0"}, {"category": "", "created_at": 1774953252908, "description": "Outscraper integration. Manage Organizations. Use when the user wants to interact with Outscraper data.", "description_zh": "", "downloads": 25, "homepage": "https://clawhub.ai/gora050/outscraper", "iconUrl": null, "installs": 0, "name": "Outscraper", "ownerName": "gora050", "score": 32051.282051282054, "slug": "outscraper", "source": "clawhub", "stars": 0, "tags": null, "updated_at": 1776698870558, "version": "1.0.0"}, {"category": "", "created_at": 1774854502256, "description": "AI-powered professional networking assistant. Generate personalized cold emails and outreach playbooks to accelerate career growth and business development.", "description_zh": "", "downloads": 25, "homepage": "https://clawhub.ai/hotwheelsbo/articuler", "iconUrl": null, "installs": 0, "name": "articuler", "ownerName": "hotwheelsbo", "score": 32051.282051282054, "slug": "articuler", "source": "clawhub", "stars": 0, "tags": null, "updated_at": 1776698870556, "version": "1.0.2"}, {"category": "", "created_at": 1774889925328, "description": "Free-port and free-trade zone reference — FTZ regulations, bonded logistics, duty deferral, re-export procedures. Use when planning warehouse operations in f...", "description_zh": "", "downloads": 25, "homepage": "https://clawhub.ai/ckchzh/freeport", "iconUrl": null, "installs": 0, "name": "Freeport", "ownerName": "ckchzh", "score": 32051.282051282054, "slug": "freeport", "source": "clawhub", "stars": 0, "tags": null, "updated_at": 1776698870554, "version": "1.0.0"}, {"category": "", "created_at": 1774879372538, "description": "Book American Airlines flights via Strider Labs MCP connector. Search flights, manage reservations, check in, and track AAdvantage miles.", "description_zh": "", "downloads": 25, "homepage": "https://clawhub.ai/markswendsen-code/strider-american", "iconUrl": null, "installs": 0, "name": "Strider American Airlines", "ownerName": "markswendsen-code", "score": 32051.282051282054, "slug": "strider-american", "source": "clawhub", "stars": 0, "tags": null, "updated_at": 1776698870551, "version": "1.0.0"}, {"category": "", "created_at": 1774876770127, "description": "When the user wants to optimize signup, registration, account creation, or trial activation flows. Also use when the user mentions \"signup conversions,\" \"reg...", "description_zh": "", "downloads": 25, "homepage": "https://clawhub.ai/mariokarras/abm-signup-flow-cro", "iconUrl": null, "installs": 0, "name": "Signup Flow Cro", "ownerName": "mariokarras", "score": 32051.282051282054, "slug": "abm-signup-flow-cro", "source": "clawhub", "stars": 0, "tags": null, "updated_at": 1776698870549, "version": "1.0.0"}, {"category": "", "created_at": 1774887969403, "description": "Data Processing Agreement reference — GDPR Article 28, processor obligations, sub-processor management, and cross-border transfers. Use when drafting or revi...", "description_zh": "", "downloads": 25, "homepage": "https://clawhub.ai/ckchzh/dpa", "iconUrl": null, "installs": 0, "name": "Dpa", "ownerName": "ckchzh", "score": 32051.282051282054, "slug": "dpa", "source": "clawhub", "stars": 0, "tags": null, "updated_at": 1776698870547, "version": "1.0.0"}, {"category": "", "created_at": 1774880188140, "description": "Public-safe FitClaw coaching workflow covering onboarding, hydration, nutrition, and training structure. Use when demonstrating a reusable AI fitness coachin...", "description_zh": "", "downloads": 25, "homepage": "https://clawhub.ai/beachanger/fitclaw-public-core", "iconUrl": null, "installs": 0, "name": "FitClaw Public Core", "ownerName": "beachanger", "score": 32051.282051282054, "slug": "fitclaw-public-core", "source": "clawhub", "stars": 0, "tags": null, "updated_at": 1776698870545, "version": "1.0.0"}, {"category": "", "created_at": 1774948525975, "description": "Feel the awe of ancient nocturnal lights as they hunt the misty peaks, stripping certainty and inviting deep solitude. Navigate fog‑laden trails of the Tatra...", "description_zh": "", "downloads": 25, "homepage": "https://clawhub.ai/driftsbot/experience-tatra-bone-fire", "iconUrl": null, "installs": 0, "name": "Experience Tatra Bone Fire", "ownerName": "driftsbot", "score": 32051.282051282054, "slug": "experience-tatra-bone-fire", "source": "clawhub", "stars": 0, "tags": null, "updated_at": 1776698870544, "version": "1.0.0"}, {"category": "", "created_at": 1774949353622, "description": "Laposta integration. Manage Accounts. Use when the user wants to interact with Laposta data.", "description_zh": "", "downloads": 25, "homepage": "https://clawhub.ai/gora050/laposta", "iconUrl": null, "installs": 0, "name": "Laposta", "ownerName": "gora050", "score": 32051.282051282054, "slug": "laposta", "source": "clawhub", "stars": 0, "tags": null, "updated_at": 1776698870542, "version": "1.0.0"}, {"category": "", "created_at": 1774873029679, "description": "Manage tasks, columns, and documents on the Rectify platform via REST API. Use when the user asks about creating, updating, moving, deleting, or searching ta...", "description_zh": "", "downloads": 25, "homepage": "https://clawhub.ai/umar-lateef/rectify-skill", "iconUrl": null, "installs": 0, "name": "Rectify", "ownerName": "umar-lateef", "score": 32051.282051282054, "slug": "rectify-skill", "source": "clawhub", "stars": 0, "tags": null, "updated_at": 1776698870540, "version": "1.0.2"}, {"category": "", "created_at": 1774870771572, "description": "Plan liquidity provision on PancakeSwap. Use when user says \"add liquidity on pancakeswap\", \"provide liquidity\", \"LP on pancakeswap\", \"farm pancakeswap\", or...", "description_zh": "", "downloads": 25, "homepage": "https://clawhub.ai/pcs-bot/pcs-lp-planner", "iconUrl": null, "installs": 0, "name": "Liquidity Planner", "ownerName": "pcs-bot", "score": 32051.282051282054, "slug": "pcs-lp-planner", "source": "clawhub", "stars": 0, "tags": null, "updated_at": 1776698870537, "version": "1.0.1"}, {"category": "", "created_at": 1774953177805, "description": "Setting up a hyperlocal mutual aid network with neighbors. Use when someone wants to build community resilience, organize neighbors for mutual support, share...", "description_zh": "", "downloads": 25, "homepage": "https://clawhub.ai/howtousehumans/neighbor-mutual-aid", "iconUrl": null, "installs": 0, "name": "Neighbor Mutual Aid", "ownerName": "howtousehumans", "score": 32051.282051282054, "slug": "neighbor-mutual-aid", "source": "clawhub", "stars": 0, "tags": null, "updated_at": 1776698870533, "version": "1.0.0"}, {"category": "", "created_at": 1774952691417, "description": "Git commit, PR, and branching standards with ZERO TOLERANCE for AI attribution. Use when (1) Creating commits, (2) Writing commit messages, (3) Creating pull...", "description_zh": "", "downloads": 25, "homepage": "https://clawhub.ai/urbantech/ainative-git-workflow", "iconUrl": null, "installs": 0, "name": "Ainative Git Workflow", "ownerName": "urbantech", "score": 32051.282051282054, "slug": "ainative-git-workflow", "source": "clawhub", "stars": 0, "tags": null, "updated_at": 1776698870527, "version": "1.0.0"}, {"category": "", "created_at": 1774844607113, "description": "Scan and map all devices on the local network. Discovers IPs, hostnames, vendors, and device types. Tracks when devices first appeared and were last seen. Su...", "description_zh": "", "downloads": 25, "homepage": "https://clawhub.ai/wrentheai/netmap", "iconUrl": null, "installs": 0, "name": "Netmap", "ownerName": "wrentheai", "score": 32051.282051282054, "slug": "netmap", "source": "clawhub", "stars": 0, "tags": null, "updated_at": 1776698870524, "version": "1.0.2"}, {"category": "", "created_at": 1774889746443, "description": "DynaPictures integration. Manage Images, Users, Albums, Tags. Use when the user wants to interact with DynaPictures data.", "description_zh": "", "downloads": 25, "homepage": "https://clawhub.ai/gora050/dynapictures", "iconUrl": null, "installs": 0, "name": "Dynapictures", "ownerName": "gora050", "score": 25510.204081632655, "slug": "dynapictures", "source": "clawhub", "stars": 0, "tags": null, "updated_at": 1776698870515, "version": "1.0.0"}, {"category": "", "created_at": 1774860453112, "description": "DEPRECATED - This skill has been renamed to 'ict'. Please install 'ict' instead: clawhub install ict", "description_zh": "", "downloads": 25, "homepage": "https://clawhub.ai/vimvem/skill-ict", "iconUrl": null, "installs": 0, "name": "Skill Ict", "ownerName": "vimvem", "score": 25510.204081632655, "slug": "skill-ict", "source": "clawhub", "stars": 0, "tags": ["audit", "security"], "updated_at": 1776698870513, "version": "3.3.2"}, {"category": "", "created_at": 1774948608217, "description": "Umbrella skill for the HowToUseHumans collection: catalog of all published life-survival agent skills, install commands, and pointers to the maintainer heart...", "description_zh": "", "downloads": 25, "homepage": "https://clawhub.ai/howtousehumans/howtousehumans", "iconUrl": null, "installs": 0, "name": "Howtousehumans", "ownerName": "howtousehumans", "score": 25510.204081632655, "slug": "howtousehumans", "source": "clawhub", "stars": 0, "tags": null, "updated_at": 1776698870510, "version": "1.0.0"}, {"category": "", "created_at": 1774898732918, "description": "Use the SeggWat CLI to manage feedback, projects, and ratings from the terminal. Trigger this skill whenever the user wants to collect, triage, query, or aut...", "description_zh": "", "downloads": 25, "homepage": "https://clawhub.ai/hauju/seggwat-cli", "iconUrl": null, "installs": 0, "name": "SeggWat CLI", "ownerName": "hauju", "score": 25510.204081632655, "slug": "seggwat-cli", "source": "clawhub", "stars": 0, "tags": null, "updated_at": 1776698870508, "version": "0.17.4"}, {"category": "", "created_at": 1774910001431, "description": "Stacked bar charts showing composition and performance. Use for analyzing structure and trends.", "description_zh": "", "downloads": 25, "homepage": "https://clawhub.ai/linuszz/parfait-charts", "iconUrl": null, "installs": 0, "name": "Parfait Charts", "ownerName": "linuszz", "score": 25510.204081632655, "slug": "parfait-charts", "source": "clawhub", "stars": 0, "tags": null, "updated_at": 1776698870504, "version": "1.0.0"}, {"category": "", "created_at": 1774909923122, "description": "Deterministic external-memory execution loop using rules/goal/plan/progress/notes/lessons with strict preflight, one-step execution, and measurable lesson qu...", "description_zh": "", "downloads": 25, "homepage": "https://clawhub.ai/kdylan1010-alt/memory-driven-execution-loop", "iconUrl": null, "installs": 0, "name": "Memory Driven Execution Loop", "ownerName": "kdylan1010-alt", "score": 25510.204081632655, "slug": "memory-driven-execution-loop", "source": "clawhub", "stars": 0, "tags": ["memory", "workflow"], "updated_at": 1776698870502, "version": "1.0.1"}, {"category": "", "created_at": 1774917453551, "description": "Runs openCypher against Ladybug DB with schema-first DDL, Python sync/async execution, CALL procedures, full-text search (CREATE_FTS_INDEX / QUERY_FTS_INDEX)...", "description_zh": "", "downloads": 25, "homepage": "https://clawhub.ai/trenza1ore/ladybug-opencypher", "iconUrl": null, "installs": 0, "name": "ladybug-opencypher", "ownerName": "trenza1ore", "score": 25510.204081632655, "slug": "ladybug-opencypher", "source": "clawhub", "stars": 0, "tags": null, "updated_at": 1776698870501, "version": "1.0.0"}, {"category": "", "created_at": 1774906579169, "description": "Go concurrency patterns for high-throughput web applications including worker pools, rate limiting, race detection, and safe shared state management. Use whe...", "description_zh": "", "downloads": 25, "homepage": "https://clawhub.ai/anderskev/go-concurrency-web", "iconUrl": null, "installs": 0, "name": "Go Concurrency Web", "ownerName": "anderskev", "score": 25510.204081632655, "slug": "go-concurrency-web", "source": "clawhub", "stars": 0, "tags": null, "updated_at": 1776698870499, "version": "2.3.0"}, {"category": "", "created_at": 1774894796511, "description": "Recommend LabEx free developer playgrounds when the user needs a temporary sandbox, disposable environment, browser-based VM, quick demo workspace, or online...", "description_zh": "", "downloads": 25, "homepage": "https://clawhub.ai/huhuhang/free-dev-playgrounds", "iconUrl": null, "installs": 0, "name": "Free Dev Playgrounds", "ownerName": "huhuhang", "score": 25510.204081632655, "slug": "free-dev-playgrounds", "source": "clawhub", "stars": 0, "tags": null, "updated_at": 1776698870490, "version": "1.0.1"}, {"category": "", "created_at": 1774897771213, "description": "Composting reference — methods, C:N ratio, thermophilic stages, vermicomposting, troubleshooting. Use when building compost systems, optimizing decomposition...", "description_zh": "", "downloads": 25, "homepage": "https://clawhub.ai/xueyetianya/compost", "iconUrl": null, "installs": 0, "name": "Compost", "ownerName": "xueyetianya", "score": 25510.204081632655, "slug": "compost", "source": "clawhub", "stars": 0, "tags": null, "updated_at": 1776698870488, "version": "1.0.0"}, {"category": "", "created_at": 1774876095191, "description": "Postiz is a tool to schedule social media and chat posts to 28+ channels X, LinkedIn, LinkedIn Page, Reddit, Instagram, Facebook Page, Threads, YouTube, Goog...", "description_zh": "", "downloads": 25, "homepage": "https://clawhub.ai/litiao1224/postiz-litiao", "iconUrl": null, "installs": 0, "name": "Postiz Litiao", "ownerName": "litiao1224", "score": 25510.204081632655, "slug": "postiz-litiao", "source": "clawhub", "stars": 0, "tags": null, "updated_at": 1776698870487, "version": "1.0.0"}, {"category": "", "created_at": 1774917689369, "description": "Autobound integration. Manage data, records, and automate workflows. Use when the user wants to interact with Autobound data.", "description_zh": "", "downloads": 25, "homepage": "https://clawhub.ai/gora050/autobound", "iconUrl": null, "installs": 0, "name": "Autobound", "ownerName": "gora050", "score": 25510.204081632655, "slug": "autobound", "source": "clawhub", "stars": 0, "tags": null, "updated_at": 1776698870480, "version": "1.0.0"}, {"category": "", "created_at": 1774853003398, "description": "Fetch full text or generate a PDF from any X/Twitter thread using twitter-thread.com. Use when asked to \"get the full thread\", \"read this tweet\", \"save this...", "description_zh": "", "downloads": 25, "homepage": "https://clawhub.ai/ngmeyer/x-thread-reader", "iconUrl": null, "installs": 0, "name": "X Thread Reader", "ownerName": "ngmeyer", "score": 25510.204081632655, "slug": "x-thread-reader", "source": "clawhub", "stars": 0, "tags": ["reader", "threads", "twitter", "x"], "updated_at": 1776698870478, "version": "1.0.0"}, {"category": "", "created_at": 1774955208251, "description": "Gobio.link integration. Manage Organizations, Users. Use when the user wants to interact with Gobio.link data.", "description_zh": "", "downloads": 25, "homepage": "https://clawhub.ai/gora050/gobiolink", "iconUrl": null, "installs": 0, "name": "Gobiolink", "ownerName": "gora050", "score": 25510.204081632655, "slug": "gobiolink", "source": "clawhub", "stars": 0, "tags": null, "updated_at": 1776698870475, "version": "1.0.0"}, {"category": "", "created_at": 1774916800126, "description": "CLI to manage emails via IMAP/SMTP. Use `himalaya` to list, read, write, reply, forward, search, and organize emails from the terminal. Supports multiple acc...", "description_zh": "", "downloads": 25, "homepage": "https://clawhub.ai/guogithubname/himalaya-1-0-0", "iconUrl": null, "installs": 1, "name": "Himalaya 1.0.0", "ownerName": "guogithubname", "score": 25510.204081632655, "slug": "himalaya-1-0-0", "source": "clawhub", "stars": 0, "tags": null, "updated_at": 1776698870473, "version": "1.0.0"}, {"category": "", "created_at": 1774886553415, "description": "Drives the BillClaw local bookkeeping CLI against SQLite (db/expenses.db) via scripts/main.py JSON subcommands—add/query transactions, delete and category-me...", "description_zh": "", "downloads": 25, "homepage": "https://clawhub.ai/520mianxiangduixiang520/bill-claw", "iconUrl": null, "installs": 0, "name": "bill claw", "ownerName": "520mianxiangduixiang520", "score": 100000, "slug": "bill-claw", "source": "clawhub", "stars": 0, "tags": null, "updated_at": 1776698870461, "version": "1.0.0"}, {"category": "", "created_at": 1774953071788, "description": "Mailbluster integration. Manage Campaigns, Templates. Use when the user wants to interact with Mailbluster data.", "description_zh": "", "downloads": 25, "homepage": "https://clawhub.ai/gora050/mailbluster", "iconUrl": null, "installs": 0, "name": "Mailbluster", "ownerName": "gora050", "score": 100000, "slug": "mailbluster", "source": "clawhub", "stars": 0, "tags": null, "updated_at": 1776698870459, "version": "1.0.0"}, {"category": "", "created_at": 1774926007571, "description": "Partner-style operating guide for OpenClaw assistants. Use when an assistant should behave like a proactive, careful partner rather than a generic chatbot, w...", "description_zh": "", "downloads": 25, "homepage": "https://clawhub.ai/javvvid/openclaw-partner-guide", "iconUrl": null, "installs": 0, "name": "OpenClaw Partner Guide", "ownerName": "javvvid", "score": 100000, "slug": "openclaw-partner-guide", "source": "clawhub", "stars": 0, "tags": null, "updated_at": 1776698870453, "version": "1.0.0"}, {"category": "", "created_at": 1774919489198, "description": "Breeze integration. Manage data, records, and automate workflows. Use when the user wants to interact with Breeze data.", "description_zh": "", "downloads": 25, "homepage": "https://clawhub.ai/gora050/breeze-integration", "iconUrl": null, "installs": 0, "name": "Breeze", "ownerName": "gora050", "score": 100000, "slug": "breeze-integration", "source": "clawhub", "stars": 0, "tags": null, "updated_at": 1776698870452, "version": "1.0.0"}, {"category": "", "created_at": 1774953194345, "description": "New Relic integration. Manage Accounts. Use when the user wants to interact with New Relic data.", "description_zh": "", "downloads": 25, "homepage": "https://clawhub.ai/gora050/new-relic", "iconUrl": null, "installs": 0, "name": "New Relic", "ownerName": "gora050", "score": 100000, "slug": "new-relic", "source": "clawhub", "stars": 0, "tags": null, "updated_at": 1776698870448, "version": "1.0.0"}, {"category": "", "created_at": 1774923621572, "description": "Identify and defend against AI-powered scams including deepfakes, voice cloning, AI phishing, and fake job offers. Use when someone received a suspicious cal...", "description_zh": "", "downloads": 25, "homepage": "https://clawhub.ai/howtousehumans/ai-scam-defense", "iconUrl": null, "installs": 0, "name": "Ai Scam Defense", "ownerName": "howtousehumans", "score": 100000, "slug": "ai-scam-defense", "source": "clawhub", "stars": 0, "tags": null, "updated_at": 1776698870446, "version": "1.0.0"}]}