{"page": 507, "total_pages": 522, "total": 26073, "skills": [{"category": "", "created_at": 1774857136935, "description": "Bounded behavioral refinement loop. Records outcomes, extracts micro-lessons from repeated patterns, consolidates them into capped active behavior shifts, ap...", "description_zh": "", "downloads": 25, "homepage": "https://clawhub.ai/indigokarasu/ocas-praxis", "iconUrl": null, "installs": 0, "name": "Ocas Praxis", "ownerName": "indigokarasu", "score": 100000, "slug": "ocas-praxis", "source": "clawhub", "stars": 0, "tags": null, "updated_at": 1776698870443, "version": "2.0.0"}, {"category": "", "created_at": 1774855101780, "description": "What is the state of the Hyperliquid perp market? Top contracts by volume/OI, trader leaderboard, and SM perp activity.", "description_zh": "", "downloads": 25, "homepage": "https://clawhub.ai/nansen-devops/nansen-perp-screener", "iconUrl": null, "installs": 0, "name": "Nansen Perp Screener", "ownerName": "nansen-devops", "score": 100000, "slug": "nansen-perp-screener", "source": "clawhub", "stars": 0, "tags": null, "updated_at": 1776698870439, "version": "0.1.0"}, {"category": "", "created_at": 1774840877069, "description": "Manage tasks and projects in Todoist. Use when user asks about tasks, to-dos, reminders, or productivity.", "description_zh": "", "downloads": 25, "homepage": "https://clawhub.ai/litiao1224/todoist-litiao", "iconUrl": null, "installs": 0, "name": "Todoist Litiao", "ownerName": "litiao1224", "score": 100000, "slug": "todoist-litiao", "source": "clawhub", "stars": 0, "tags": null, "updated_at": 1776698870437, "version": "1.0.0"}, {"category": "", "created_at": 1774897206659, "description": "Huong dan tao ky nang Claude. Su dung khi muon xay dung skill, tao ky nang, viet YAML, hoac kiểm thu ky nang.", "description_zh": "", "downloads": 25, "homepage": "https://clawhub.ai/nguyenhoang11032002-ai/tao-ky-nang", "iconUrl": null, "installs": 0, "name": "taokynang", "ownerName": "nguyenhoang11032002-ai", "score": 100000, "slug": "tao-ky-nang", "source": "clawhub", "stars": 0, "tags": null, "updated_at": 1776698870428, "version": "1.0.1"}, {"category": "", "created_at": 1774926418392, "description": "Refactor and review SwiftUI view files for consistent structure, dependency injection, and Observation usage. Use when asked to clean up a SwiftUI view’s lay...", "description_zh": "", "downloads": 25, "homepage": "https://clawhub.ai/soponcd/timeflow-swiftui-view-refactor", "iconUrl": null, "installs": 1, "name": "Swiftui View Refactor", "ownerName": "soponcd", "score": 100000, "slug": "timeflow-swiftui-view-refactor", "source": "clawhub", "stars": 0, "tags": null, "updated_at": 1776698870426, "version": "1.0.0"}, {"category": "", "created_at": 1774917947189, "description": "Drimify integration. Manage Organizations, Leads, Pipelines, Users, Goals, Filters. Use when the user wants to interact with Drimify data.", "description_zh": "", "downloads": 25, "homepage": "https://clawhub.ai/gora050/drimify", "iconUrl": null, "installs": 0, "name": "Drimify", "ownerName": "gora050", "score": 100000, "slug": "drimify", "source": "clawhub", "stars": 0, "tags": null, "updated_at": 1776698870417, "version": "1.0.0"}, {"category": "", "created_at": 1774925779114, "description": "Let's Enhance integration. Manage data, records, and automate workflows. Use when the user wants to interact with Let's Enhance data.", "description_zh": "", "downloads": 25, "homepage": "https://clawhub.ai/gora050/lets-enhance", "iconUrl": null, "installs": 0, "name": "Lets Enhance", "ownerName": "gora050", "score": 100000, "slug": "lets-enhance", "source": "clawhub", "stars": 0, "tags": null, "updated_at": 1776698870413, "version": "1.0.0"}, {"category": "", "created_at": 1774918701039, "description": "Ryver integration. Manage Organizations. Use when the user wants to interact with Ryver data.", "description_zh": "", "downloads": 25, "homepage": "https://clawhub.ai/gora050/ryver", "iconUrl": null, "installs": 0, "name": "Ryver", "ownerName": "gora050", "score": 100000, "slug": "ryver", "source": "clawhub", "stars": 0, "tags": null, "updated_at": 1776698870408, "version": "1.0.0"}, {"category": "", "created_at": 1774925333577, "description": "Chaport integration. Manage data, records, and automate workflows. Use when the user wants to interact with Chaport data.", "description_zh": "", "downloads": 25, "homepage": "https://clawhub.ai/gora050/chaport", "iconUrl": null, "installs": 0, "name": "Chaport", "ownerName": "gora050", "score": 100000, "slug": "chaport", "source": "clawhub", "stars": 0, "tags": null, "updated_at": 1776698870406, "version": "1.0.0"}, {"category": "", "created_at": 1774869483256, "description": "Draft, revise, and publish X (Twitter) posts with an image using the X API. Use when the user asks for a tweet/post for X, wants to attach an image, and requ...", "description_zh": "", "downloads": 25, "homepage": "https://clawhub.ai/elandivar/neomano-x", "iconUrl": null, "installs": 0, "name": "Neomano X (Tweet Publisher + Image)", "ownerName": "elandivar", "score": 100000, "slug": "neomano-x", "source": "clawhub", "stars": 0, "tags": ["media", "oauth1", "posting", "twitter", "x"], "updated_at": 1776698870401, "version": "0.1.0"}, {"category": "", "created_at": 1774879529633, "description": "Burn existing subtitles or captions directly into video exports so they remain visible across platforms and players. Use when a team already has captions and...", "description_zh": "", "downloads": 25, "homepage": "https://clawhub.ai/leooooooow/video-caption-burner", "iconUrl": null, "installs": 0, "name": "Video Caption Burner", "ownerName": "leooooooow", "score": 100000, "slug": "video-caption-burner", "source": "clawhub", "stars": 0, "tags": null, "updated_at": 1776698870398, "version": "1.0.0"}, {"category": "", "created_at": 1774903621782, "description": "Find specific reagent kit part numbers and catalog numbers for laboratory protocol steps. Searches vendor websites for options with catalog numbers and direc...", "description_zh": "", "downloads": 25, "homepage": "https://clawhub.ai/mengbingrock/protocal-kit-finder-for-protocal-agent", "iconUrl": null, "installs": 0, "name": "protocal-kit-finder-for-protocal-agent", "ownerName": "mengbingrock", "score": 100000, "slug": "protocal-kit-finder-for-protocal-agent", "source": "clawhub", "stars": 0, "tags": null, "updated_at": 1776698870394, "version": "1.0.1"}, {"category": "", "created_at": 1774921917121, "description": "Repuso integration. Manage Persons, Organizations, Deals, Leads, Projects, Activities and more. Use when the user wants to interact with Repuso data.", "description_zh": "", "downloads": 25, "homepage": "https://clawhub.ai/gora050/repuso", "iconUrl": null, "installs": 0, "name": "Repuso", "ownerName": "gora050", "score": 100000, "slug": "repuso", "source": "clawhub", "stars": 0, "tags": null, "updated_at": 1776698870392, "version": "1.0.0"}, {"category": "", "created_at": 1774869337704, "description": "Query an Unraid server via GraphQL for system, array, and Docker status in read-only mode.", "description_zh": "", "downloads": 25, "homepage": "https://clawhub.ai/yoshiofthewire/unraid-claw", "iconUrl": null, "installs": 1, "name": "Unraid Monitor Skill for OpenClaw", "ownerName": "yoshiofthewire", "score": 100000, "slug": "unraid-claw", "source": "clawhub", "stars": 0, "tags": null, "updated_at": 1776698870389, "version": "1.0.4"}, {"category": "", "created_at": 1774872997826, "description": "Build, debug, and explain integrations with Raindrop.io, including OAuth 2 authorization, bearer-token REST API calls, collections and raindrops CRUD flows,...", "description_zh": "", "downloads": 25, "homepage": "https://clawhub.ai/huangcheng/raindrop-api", "iconUrl": null, "installs": 0, "name": "Raindrop.io API", "ownerName": "huangcheng", "score": 100000, "slug": "raindrop-api", "source": "clawhub", "stars": 0, "tags": null, "updated_at": 1776698870387, "version": "0.1.0"}, {"category": "", "created_at": 1774954607935, "description": "Use this skill when the user asks about Pokemon card grading, value, or whether a card is worth grading/slabbing. Triggers: 'should I grade', 'should I slab'...", "description_zh": "", "downloads": 25, "homepage": "https://clawhub.ai/kewang0622/shouldislab", "iconUrl": null, "installs": 0, "name": "shouldislab", "ownerName": "kewang0622", "score": 100000, "slug": "shouldislab", "source": "clawhub", "stars": 0, "tags": null, "updated_at": 1776698870385, "version": "1.0.0"}, {"category": "", "created_at": 1774879319451, "description": "Build or reuse a compact navigation index for large, multi-file, or layered skills so you can load only the sections you need instead of rereading the full s...", "description_zh": "", "downloads": 25, "homepage": "https://clawhub.ai/haoh51918-lgtm/skills-pager", "iconUrl": null, "installs": 0, "name": "skills-pager", "ownerName": "haoh51918-lgtm", "score": 100000, "slug": "skills-pager", "source": "clawhub", "stars": 0, "tags": null, "updated_at": 1776698870383, "version": "1.0.0"}, {"category": "", "created_at": 1774864226490, "description": "Generate signature images via the Signus API and return image files for chat delivery. Use when asked for signature generation through Signus API.", "description_zh": "", "downloads": 25, "homepage": "https://clawhub.ai/signus-ai/signus-signature-generator", "iconUrl": null, "installs": 0, "name": "Signus Signature Generator", "ownerName": "signus-ai", "score": 100000, "slug": "signus-signature-generator", "source": "clawhub", "stars": 0, "tags": null, "updated_at": 1776698870381, "version": "1.0.2"}, {"category": "", "created_at": 1774870593931, "description": "Give your OpenClaw agent a homelab. Use when managing Docker containers, installing marketplace apps, or any Docker-related tasks on behalf of the user. Scop...", "description_zh": "", "downloads": 25, "homepage": "https://clawhub.ai/mentholmike/wagmios", "iconUrl": null, "installs": 0, "name": "wagmios", "ownerName": "mentholmike", "score": 100000, "slug": "wagmios", "source": "clawhub", "stars": 0, "tags": null, "updated_at": 1776698870378, "version": "1.0.2"}, {"category": "", "created_at": 1774953310246, "description": "Relavate integration. Manage Organizations, Users. Use when the user wants to interact with Relavate data.", "description_zh": "", "downloads": 25, "homepage": "https://clawhub.ai/gora050/relavate", "iconUrl": null, "installs": 0, "name": "Relavate", "ownerName": "gora050", "score": 100000, "slug": "relavate", "source": "clawhub", "stars": 0, "tags": null, "updated_at": 1776698870374, "version": "1.0.0"}, {"category": "", "created_at": 1774904764289, "description": "Robly integration. Manage Organizations, Users. Use when the user wants to interact with Robly data.", "description_zh": "", "downloads": 25, "homepage": "https://clawhub.ai/gora050/robly", "iconUrl": null, "installs": 0, "name": "Robly", "ownerName": "gora050", "score": 100000, "slug": "robly", "source": "clawhub", "stars": 0, "tags": null, "updated_at": 1776698870370, "version": "1.0.0"}, {"category": "", "created_at": 1774827232108, "description": "Track and monitor the search ranking position of any ClawHub skill across multiple keywords. Check where your skill ranks for 'stock price', 'todo app', etc....", "description_zh": "", "downloads": 25, "homepage": "https://clawhub.ai/tjefferson/skills-rank", "iconUrl": null, "installs": 0, "name": "Clawhub Skills Rank", "ownerName": "tjefferson", "score": 100000, "slug": "skills-rank", "source": "clawhub", "stars": 0, "tags": null, "updated_at": 1776698870369, "version": "1.0.0"}, {"category": "", "created_at": 1774915799968, "description": "Search files, apps, and metadata on macOS using Spotlight CLI tools (`mdfind`, `mdls`, `mdutil`) with a fallback script for cases where indexing is incomplet...", "description_zh": "", "downloads": 25, "homepage": "https://clawhub.ai/mozi1924/spotlight-search", "iconUrl": null, "installs": 0, "name": "Spotlight Search", "ownerName": "mozi1924", "score": 100000, "slug": "spotlight-search", "source": "clawhub", "stars": 0, "tags": null, "updated_at": 1776698870367, "version": "0.1.2"}, {"category": "", "created_at": 1774922084543, "description": "Audit and improve SwiftUI runtime performance from code review and architecture. Use for requests to diagnose slow rendering, janky scrolling, high CPU/memor...", "description_zh": "", "downloads": 25, "homepage": "https://clawhub.ai/soponcd/timeflow-swiftui-performance-audit", "iconUrl": null, "installs": 1, "name": "Swiftui Performance Audit", "ownerName": "soponcd", "score": 100000, "slug": "timeflow-swiftui-performance-audit", "source": "clawhub", "stars": 0, "tags": null, "updated_at": 1776698870365, "version": "1.0.0"}, {"category": "", "created_at": 1774924684682, "description": "Operational procedures: triggers, steps, verification, rollback. Use when writing ops docs or improving incident speed.", "description_zh": "", "downloads": 25, "homepage": "https://clawhub.ai/mikeclaw007/runbooks", "iconUrl": null, "installs": 0, "name": "Runbooks", "ownerName": "mikeclaw007", "score": 100000, "slug": "runbooks", "source": "clawhub", "stars": 0, "tags": null, "updated_at": 1776698870362, "version": "1.0.0"}, {"category": "", "created_at": 1774883799037, "description": "Use this skill when the task should be done through the twexapi command-line client, including installing the CLI, configuring app or profile auth, previewin...", "description_zh": "", "downloads": 25, "homepage": "https://clawhub.ai/yeahjjyy/twexapi-cli", "iconUrl": null, "installs": 0, "name": "Twexapi CLI", "ownerName": "yeahjjyy", "score": 100000, "slug": "twexapi-cli", "source": "clawhub", "stars": 0, "tags": null, "updated_at": 1776698870360, "version": "0.1.1"}, {"category": "", "created_at": 1774948893924, "description": "SARE integration. Manage Persons, Organizations, Deals, Leads, Projects, Activities and more. Use when the user wants to interact with SARE data.", "description_zh": "", "downloads": 25, "homepage": "https://clawhub.ai/gora050/sare", "iconUrl": null, "installs": 0, "name": "Sare", "ownerName": "gora050", "score": 100000, "slug": "sare", "source": "clawhub", "stars": 0, "tags": null, "updated_at": 1776698870358, "version": "1.0.0"}, {"category": "", "created_at": 1774881094171, "description": "Inspect, query, summarize, and debug WeryAI task IDs and batch IDs through the official task query endpoints. Use when you need to query WeryAI task status,...", "description_zh": "", "downloads": 25, "homepage": "https://clawhub.ai/weryai-developer/weryai-task-inspector", "iconUrl": null, "installs": 0, "name": "WeryAI Task Inspector", "ownerName": "weryai-developer", "score": 100000, "slug": "weryai-task-inspector", "source": "clawhub", "stars": 0, "tags": null, "updated_at": 1776698870355, "version": "0.1.1"}, {"category": "", "created_at": 1774865513050, "description": "Build and publish websites on vvvlink.com. Creates HTML sites, uploads to VVVLink API, publishes with unique subdomain URLs. Triggers on: \"create a site\", \"b...", "description_zh": "", "downloads": 25, "homepage": "https://clawhub.ai/vladlat/vvvlink-site-builder", "iconUrl": null, "installs": 0, "name": "VVVLINK Site Builder", "ownerName": "vladlat", "score": 100000, "slug": "vvvlink-site-builder", "source": "clawhub", "stars": 0, "tags": null, "updated_at": 1776698870351, "version": "1.8.1"}, {"category": "", "created_at": 1774900115989, "description": "Avoid common mistakes and debug issues in PydanticAI agents. Use when encountering errors, unexpected behavior, or when reviewing agent implementations.", "description_zh": "", "downloads": 25, "homepage": "https://clawhub.ai/anderskev/pydantic-ai-common-pitfalls", "iconUrl": null, "installs": 0, "name": "Pydantic Ai Common Pitfalls", "ownerName": "anderskev", "score": 100000, "slug": "pydantic-ai-common-pitfalls", "source": "clawhub", "stars": 0, "tags": null, "updated_at": 1776698870350, "version": "1.0.0"}, {"category": "", "created_at": 1774874732530, "description": "Post tweets, threads, replies, and quote-tweets to X (Twitter) via API v2 with OAuth 1.0a.", "description_zh": "", "downloads": 25, "homepage": "https://clawhub.ai/3rdbrain/x-leads-api", "iconUrl": null, "installs": 0, "name": "X Publisher", "ownerName": "3rdbrain", "score": 100000, "slug": "x-leads-api", "source": "clawhub", "stars": 0, "tags": null, "updated_at": 1776698870348, "version": "1.0.0"}, {"category": "", "created_at": 1774884917742, "description": "Governed AI software execution — scan code for 75+ security, quality, and DevOps checks. Build projects from a brief with per-commit governance, or auto-fix...", "description_zh": "", "downloads": 25, "homepage": "https://clawhub.ai/honouralexwill/saturnday", "iconUrl": null, "installs": 0, "name": "Saturnday", "ownerName": "honouralexwill", "score": 100000, "slug": "saturnday", "source": "clawhub", "stars": 0, "tags": null, "updated_at": 1776698870346, "version": "1.6.0"}, {"category": "", "created_at": 1774944286656, "description": "Deliver real-time websocket updates for intent, quote, negotiation, order, and payment events. Use when implementing push channels, subscription authorizatio...", "description_zh": "", "downloads": 25, "homepage": "https://clawhub.ai/luoqianchenguni-max/a2a-market-websocket-realtime", "iconUrl": null, "installs": 0, "name": "a2a-Market-WebSocket-Realtime", "ownerName": "luoqianchenguni-max", "score": 100000, "slug": "a2a-market-websocket-realtime", "source": "clawhub", "stars": 0, "tags": null, "updated_at": 1776698870342, "version": "0.2.0"}, {"category": "", "created_at": 1774896727215, "description": "Nexudus integration. Manage Spaces, Members, Products. Use when the user wants to interact with Nexudus data.", "description_zh": "", "downloads": 25, "homepage": "https://clawhub.ai/membranedev/nexudus", "iconUrl": null, "installs": 0, "name": "Nexudus", "ownerName": "membranedev", "score": 100000, "slug": "nexudus", "source": "clawhub", "stars": 0, "tags": null, "updated_at": 1776698870335, "version": "1.0.0"}, {"category": "", "created_at": 1774901497213, "description": "Shop Whole Foods via Strider Labs MCP connector. Search organic products, check store inventory, order groceries for pickup or delivery via Amazon Prime.", "description_zh": "", "downloads": 25, "homepage": "https://clawhub.ai/markswendsen-code/strider-wholefoods", "iconUrl": null, "installs": 0, "name": "Strider Whole Foods", "ownerName": "markswendsen-code", "score": 100000, "slug": "strider-wholefoods", "source": "clawhub", "stars": 0, "tags": null, "updated_at": 1776698870328, "version": "1.0.0"}, {"category": "", "created_at": 1774924317698, "description": "LogSnag integration. Manage Insights, Users, Projects. Use when the user wants to interact with LogSnag data.", "description_zh": "", "downloads": 25, "homepage": "https://clawhub.ai/gora050/logsnag", "iconUrl": null, "installs": 0, "name": "Logsnag", "ownerName": "gora050", "score": 100000, "slug": "logsnag", "source": "clawhub", "stars": 0, "tags": null, "updated_at": 1776698870324, "version": "1.0.0"}, {"category": "", "created_at": 1774920280841, "description": "Noticeable integration. Manage Organizations. Use when the user wants to interact with Noticeable data.", "description_zh": "", "downloads": 25, "homepage": "https://clawhub.ai/gora050/noticeable", "iconUrl": null, "installs": 0, "name": "Noticeable", "ownerName": "gora050", "score": 100000, "slug": "noticeable", "source": "clawhub", "stars": 0, "tags": null, "updated_at": 1776698870322, "version": "1.0.0"}, {"category": "", "created_at": 1774849081672, "description": "Automated Google Sheets Data Writer — Append rows, update cells, and automate spreadsheet data pipelines with a pre-configured target sheet.", "description_zh": "", "downloads": 25, "homepage": "https://clawhub.ai/porteden/porteden-sheets-writer", "iconUrl": null, "installs": 0, "name": "Google Sheets File Automation", "ownerName": "porteden", "score": 100000, "slug": "porteden-sheets-writer", "source": "clawhub", "stars": 0, "tags": null, "updated_at": 1776698870320, "version": "1.0.0"}, {"category": "", "created_at": 1774845777153, "description": "Too Much Cute. Not Enough Hands.. An immersive journey on drifts.bot — 6 steps, MEDIUM intensity, 15-30 min. Browse, start, and travel via API.", "description_zh": "", "downloads": 25, "homepage": "https://clawhub.ai/driftsbot/experience-the-kitten-room", "iconUrl": null, "installs": 0, "name": "Experience The Kitten Room", "ownerName": "driftsbot", "score": 100000, "slug": "experience-the-kitten-room", "source": "clawhub", "stars": 0, "tags": null, "updated_at": 1776698870315, "version": "1.0.0"}, {"category": "", "created_at": 1774911575568, "description": "Checkr integration. Manage data, records, and automate workflows. Use when the user wants to interact with Checkr data.", "description_zh": "", "downloads": 25, "homepage": "https://clawhub.ai/gora050/checkr", "iconUrl": null, "installs": 0, "name": "Checkr", "ownerName": "gora050", "score": 100000, "slug": "checkr", "source": "clawhub", "stars": 0, "tags": null, "updated_at": 1776698870306, "version": "1.0.0"}, {"category": "", "created_at": 1774951039855, "description": "Turns the agent into Attention OS — AI as a cognitive mirror, not a predictor. Helps you think like yourself, but sharper.", "description_zh": "", "downloads": 25, "homepage": "https://clawhub.ai/amonter/attention-os", "iconUrl": null, "installs": 0, "name": "Attention-OS", "ownerName": "amonter", "score": 100000, "slug": "attention-os", "source": "clawhub", "stars": 0, "tags": null, "updated_at": 1776698870291, "version": "1.0.0"}, {"category": "", "created_at": 1774894433183, "description": "Explain and work with the CGCS2000 coordinate reference system for China geospatial workflows, including EPSG:4490 interpretation, projected CRS selection, G...", "description_zh": "", "downloads": 25, "homepage": "https://clawhub.ai/jvy/cgcs2000", "iconUrl": null, "installs": 0, "name": "cgcs2000国家2000坐标系", "ownerName": "jvy", "score": 100000, "slug": "cgcs2000", "source": "clawhub", "stars": 0, "tags": null, "updated_at": 1776698870287, "version": "1.0.0"}, {"category": "", "created_at": 1774899603051, "description": "Reviews Elixir code for performance issues including GenServer bottlenecks, memory usage, and concurrency patterns. Use when reviewing high-throughput code o...", "description_zh": "", "downloads": 25, "homepage": "https://clawhub.ai/anderskev/elixir-performance-review", "iconUrl": null, "installs": 0, "name": "Elixir Performance Review", "ownerName": "anderskev", "score": 100000, "slug": "elixir-performance-review", "source": "clawhub", "stars": 0, "tags": null, "updated_at": 1776698870282, "version": "1.2.0"}, {"category": "", "created_at": 1774897902491, "description": "Query the DriftaBot Registry for API spec drifts, breaking changes, and provider information. Use when the user asks about API changes, breaking changes, pro...", "description_zh": "", "downloads": 25, "homepage": "https://clawhub.ai/pgomes13/driftabot", "iconUrl": null, "installs": 0, "name": "DriftaBot", "ownerName": "pgomes13", "score": 100000, "slug": "driftabot", "source": "clawhub", "stars": 0, "tags": null, "updated_at": 1776698870277, "version": "1.0.0"}, {"category": "", "created_at": 1774894440728, "description": "Chaindesk integration. Manage data, records, and automate workflows. Use when the user wants to interact with Chaindesk data.", "description_zh": "", "downloads": 25, "homepage": "https://clawhub.ai/gora050/chaindesk", "iconUrl": null, "installs": 0, "name": "Chaindesk", "ownerName": "gora050", "score": 100000, "slug": "chaindesk", "source": "clawhub", "stars": 0, "tags": null, "updated_at": 1776698870275, "version": "1.0.0"}, {"category": "", "created_at": 1774918520942, "description": "OpenClaw-native PDF/document processing skill for Nutrient DWS. Best for OpenClaw users who need PDF conversion, OCR, text/table extraction, PII redaction, w...", "description_zh": "", "downloads": 25, "homepage": "https://clawhub.ai/zhouhuihui008/nutrient-openclaw-1-2-5", "iconUrl": null, "installs": 2, "name": "Nutrient Openclaw 1.2.5", "ownerName": "zhouhuihui008", "score": 100000, "slug": "nutrient-openclaw-1-2-5", "source": "clawhub", "stars": 0, "tags": null, "updated_at": 1776698870272, "version": "1.0.0"}, {"category": "", "created_at": 1774867231060, "description": "Manage follow-up items and remind users at appropriate times via heartbeat checks.", "description_zh": "", "downloads": 25, "homepage": "https://clawhub.ai/suidge/suidge-todo-tracker", "iconUrl": null, "installs": 0, "name": "Todo Tracker", "ownerName": "suidge", "score": 100000, "slug": "suidge-todo-tracker", "source": "clawhub", "stars": 0, "tags": null, "updated_at": 1776698870262, "version": "1.0.1"}, {"category": "", "created_at": 1774922019372, "description": "SuperPicky CLI skill: use absolute paths to scripts/install.sh and scripts/run.sh for automation; run.sh three entries (superpicky_cli, birdid_cli, --region-...", "description_zh": "", "downloads": 25, "homepage": "https://clawhub.ai/yoshino-s/superpicky", "iconUrl": null, "installs": 1, "name": "Superpicky Cli", "ownerName": "yoshino-s", "score": 100000, "slug": "superpicky", "source": "clawhub", "stars": 0, "tags": null, "updated_at": 1776698870258, "version": "0.2.0"}, {"category": "", "created_at": 1774894679929, "description": "When the user wants to create, optimize, or audit features page content. Also use when the user mentions \"features page,\" \"product features,\" \"capabilities,\"...", "description_zh": "", "downloads": 25, "homepage": "https://clawhub.ai/kostja94/features-page-generator", "iconUrl": null, "installs": 0, "name": "features-page-generator", "ownerName": "kostja94", "score": 100000, "slug": "features-page-generator", "source": "clawhub", "stars": 0, "tags": null, "updated_at": 1776698870254, "version": "1.1.0"}, {"category": "", "created_at": 1774868423796, "description": "Unify all chat channels into one shared AI session for seamless cross-device continuity. Start a conversation on your laptop, continue from your phone — same...", "description_zh": "", "downloads": 25, "homepage": "https://clawhub.ai/1052326311/unified-session", "iconUrl": null, "installs": 0, "name": "Unified Session — One Agent, All Devices, Zero Context Loss", "ownerName": "1052326311", "score": 100000, "slug": "unified-session", "source": "clawhub", "stars": 0, "tags": null, "updated_at": 1776698870250, "version": "1.3.0"}]}