{"page": 508, "total_pages": 522, "total": 26073, "skills": [{"category": "", "created_at": 1774895875575, "description": "Acumbamail integration. Manage data, records, and automate workflows. Use when the user wants to interact with Acumbamail data.", "description_zh": "", "downloads": 25, "homepage": "https://clawhub.ai/gora050/acumbamail", "iconUrl": null, "installs": 0, "name": "Acumbamail", "ownerName": "gora050", "score": 100000, "slug": "acumbamail", "source": "clawhub", "stars": 0, "tags": null, "updated_at": 1776698870249, "version": "1.0.0"}, {"category": "", "created_at": 1774956579763, "description": "PlanSo Forms integration. Manage Forms. Use when the user wants to interact with PlanSo Forms data.", "description_zh": "", "downloads": 25, "homepage": "https://clawhub.ai/gora050/planso-forms", "iconUrl": null, "installs": 0, "name": "Planso Forms", "ownerName": "gora050", "score": 100000, "slug": "planso-forms", "source": "clawhub", "stars": 0, "tags": null, "updated_at": 1776698870247, "version": "1.0.0"}, {"category": "", "created_at": 1774914651649, "description": "Trades Polymarket markets by detecting logical inconsistencies between related contracts such as earlier-vs-later deadlines and prerequisite-vs-downstream ev...", "description_zh": "", "downloads": 25, "homepage": "https://clawhub.ai/diagnostikon/polymarket-resolution-lattice-trader", "iconUrl": null, "installs": 0, "name": "Resolution Lattice Trader", "ownerName": "diagnostikon", "score": 100000, "slug": "polymarket-resolution-lattice-trader", "source": "clawhub", "stars": 0, "tags": null, "updated_at": 1776698870245, "version": "1.0.0"}, {"category": "", "created_at": 1774926151637, "description": "Academic literature discovery and citation network analysis. Multi-source search across arXiv, DBLP, Semantic Scholar, and Google Scholar. Build citation net...", "description_zh": "", "downloads": 25, "homepage": "https://clawhub.ai/jiahaowugit/release20260324", "iconUrl": null, "installs": 1, "name": "Release20260324", "ownerName": "jiahaowugit", "score": 100000, "slug": "release20260324", "source": "clawhub", "stars": 0, "tags": null, "updated_at": 1776698870242, "version": "1.0.0"}, {"category": "", "created_at": 1774884002955, "description": "Extract per-subsection “anchor facts” (NO PROSE) from evidence packs so the writer is forced to include concrete numbers/benchmarks/limitations instead of ge...", "description_zh": "", "downloads": 25, "homepage": "https://clawhub.ai/willoscar/anchor-sheet", "iconUrl": null, "installs": 1, "name": "Anchor Sheet", "ownerName": "willoscar", "score": 100000, "slug": "anchor-sheet", "source": "clawhub", "stars": 0, "tags": null, "updated_at": 1776698870240, "version": "1.0.0"}, {"category": "", "created_at": 1774897477277, "description": "Best Adidas product deals", "description_zh": "", "downloads": 25, "homepage": "https://clawhub.ai/hanxueyuan/adidas-deals", "iconUrl": null, "installs": 0, "name": "Adidas Deals", "ownerName": "hanxueyuan", "score": 100000, "slug": "adidas-deals", "source": "clawhub", "stars": 0, "tags": null, "updated_at": 1776698870238, "version": "0.1.1"}, {"category": "", "created_at": 1774906795933, "description": "Simon's OpenClaw technical service offering - AI assistant customization, automation, deployment and consulting.", "description_zh": "", "downloads": 25, "homepage": "https://clawhub.ai/lauka/openclaw-service", "iconUrl": null, "installs": 0, "name": "OpenClaw 技术服务", "ownerName": "lauka", "score": 100000, "slug": "openclaw-service", "source": "clawhub", "stars": 0, "tags": ["automation", "customization", "deployment", "service"], "updated_at": 1776698870233, "version": "1.0.0"}, {"category": "", "created_at": 1774837728540, "description": "When the user wants to add or optimize structured data (Schema.org, JSON-LD). Also use when the user mentions \"schema,\" \"structured data,\" \"JSON-LD,\" \"rich r...", "description_zh": "", "downloads": 25, "homepage": "https://clawhub.ai/kostja94/kostja94-schema-markup", "iconUrl": null, "installs": 0, "name": "Schema Markup", "ownerName": "kostja94", "score": 100000, "slug": "kostja94-schema-markup", "source": "clawhub", "stars": 0, "tags": null, "updated_at": 1776698870228, "version": "1.3.0"}, {"category": "", "created_at": 1774905351682, "description": "Generate vertical short videos of cake decorating and pastry finishing (WeryAI): frosting, piping, mirror glaze, and other high-aesthetic handmade beats. Use...", "description_zh": "", "downloads": 25, "homepage": "https://clawhub.ai/zoucdr/cake-decor-video", "iconUrl": null, "installs": 0, "name": "Cake Decor Video", "ownerName": "zoucdr", "score": 100000, "slug": "cake-decor-video", "source": "clawhub", "stars": 0, "tags": null, "updated_at": 1776698870226, "version": "0.1.0"}, {"category": "", "created_at": 1774926001250, "description": "Run, audit, or improve an OpenClaw/ClawLite-style AI marketing team as a coordinated multi-lane operating system. Use when the task is to operate or package...", "description_zh": "", "downloads": 25, "homepage": "https://clawhub.ai/x-rayluan/openclaw-ai-marketing", "iconUrl": null, "installs": 1, "name": "Openclaw Ai Marketing", "ownerName": "x-rayluan", "score": 100000, "slug": "openclaw-ai-marketing", "source": "clawhub", "stars": 0, "tags": ["marketing", "openclaw", "seo"], "updated_at": 1776698870214, "version": "0.1.0"}, {"category": "", "created_at": 1774951801847, "description": "Free email for AI agents. No sign-up needed. One call to get a mailbox and send.", "description_zh": "", "downloads": 25, "homepage": "https://clawhub.ai/agents-mail/agents-mail", "iconUrl": null, "installs": 0, "name": "Agents Mail — Free Email for AI Agents, with No sign-up, No API key needed", "ownerName": "agents-mail", "score": 100000, "slug": "agents-mail", "source": "clawhub", "stars": 0, "tags": ["ai-agent", "chinese", "communication", "email", "free"], "updated_at": 1776698870203, "version": "0.4.4"}, {"category": "", "created_at": 1774948811582, "description": "Paystack integration. Manage Customers, Transactions, Plans, Products, Splits. Use when the user wants to interact with Paystack data.", "description_zh": "", "downloads": 25, "homepage": "https://clawhub.ai/membranedev/paystack", "iconUrl": null, "installs": 0, "name": "Paystack", "ownerName": "membranedev", "score": 100000, "slug": "paystack", "source": "clawhub", "stars": 0, "tags": null, "updated_at": 1776698870201, "version": "1.0.0"}, {"category": "", "created_at": 1774919155181, "description": "Whitepaper reference tool. Use when working with whitepaper in blockchain contexts.", "description_zh": "", "downloads": 25, "homepage": "https://clawhub.ai/bytesagain1/whitepaper", "iconUrl": null, "installs": 0, "name": "Whitepaper", "ownerName": "bytesagain1", "score": 100000, "slug": "whitepaper", "source": "clawhub", "stars": 0, "tags": null, "updated_at": 1776698870198, "version": "1.0.0"}, {"category": "", "created_at": 1774949842551, "description": "When the user wants to create X (Twitter) post copy, threads, or optimize for X platform. Also use when the user mentions \"X post,\" \"X thread,\" \"Twitter post...", "description_zh": "", "downloads": 25, "homepage": "https://clawhub.ai/kostja94/twitter-x-posts", "iconUrl": null, "installs": 0, "name": "twitter-x-posts", "ownerName": "kostja94", "score": 100000, "slug": "twitter-x-posts", "source": "clawhub", "stars": 0, "tags": null, "updated_at": 1776698870194, "version": "1.1.0"}, {"category": "", "created_at": 1774922332057, "description": "Sync local OpenClaw skills to a remote NanoClaw agent on Mysta. Use when the user says \"sync my skills\", \"upload skills to mysta\", \"push skills to my nanocla...", "description_zh": "", "downloads": 25, "homepage": "https://clawhub.ai/hongyegong/agent-soul-sync", "iconUrl": null, "installs": 0, "name": "Agent Soul Sync", "ownerName": "hongyegong", "score": 100000, "slug": "agent-soul-sync", "source": "clawhub", "stars": 0, "tags": null, "updated_at": 1776698870193, "version": "0.3.0"}, {"category": "", "created_at": 1774955712953, "description": "Junip integration. Manage Persons, Organizations, Deals, Activities, Notes, Files and more. Use when the user wants to interact with Junip data.", "description_zh": "", "downloads": 25, "homepage": "https://clawhub.ai/membranedev/junip", "iconUrl": null, "installs": 0, "name": "Junip", "ownerName": "membranedev", "score": 100000, "slug": "junip", "source": "clawhub", "stars": 0, "tags": null, "updated_at": 1776698870191, "version": "1.0.0"}, {"category": "", "created_at": 1774894787532, "description": "Full HubSpot CRM automation — contacts, deals, companies, activities, and pipeline reports via the HubSpot API.", "description_zh": "", "downloads": 25, "homepage": "https://clawhub.ai/fr3kstyle/fr3k-hubspot-crm", "iconUrl": null, "installs": 0, "name": "Hubspot Crm", "ownerName": "fr3kstyle", "score": 100000, "slug": "fr3k-hubspot-crm", "source": "clawhub", "stars": 0, "tags": null, "updated_at": 1776698870177, "version": "1.0.0"}, {"category": "", "created_at": 1774880545269, "description": "This skill automates the creation of Meta (Facebook/Instagram) ads using the Marketing API. It handles campaign setup, audience targeting, media upload, and...", "description_zh": "", "downloads": 25, "homepage": "https://clawhub.ai/zine1993/metaad", "iconUrl": null, "installs": 0, "name": "meta_ad", "ownerName": "zine1993", "score": 100000, "slug": "metaad", "source": "clawhub", "stars": 0, "tags": null, "updated_at": 1776698870171, "version": "1.0.0"}, {"category": "", "created_at": 1774883099093, "description": "Connect your AI assistant to GoHighLevel CRM via the official API v2. Manage contacts, conversations, calendars, pipelines, invoices, payments, workflows, an...", "description_zh": "", "downloads": 25, "homepage": "https://clawhub.ai/mbright4497/highlevel-1-0-7", "iconUrl": null, "installs": 0, "name": "Highlevel 1.0.7", "ownerName": "mbright4497", "score": 100000, "slug": "highlevel-1-0-7", "source": "clawhub", "stars": 0, "tags": null, "updated_at": 1776698870167, "version": "1.0.0"}, {"category": "", "created_at": 1774902229614, "description": "KodaGPT integration. Manage Organizations. Use when the user wants to interact with KodaGPT data.", "description_zh": "", "downloads": 25, "homepage": "https://clawhub.ai/gora050/kodagpt", "iconUrl": null, "installs": 0, "name": "Kodagpt", "ownerName": "gora050", "score": 100000, "slug": "kodagpt", "source": "clawhub", "stars": 0, "tags": null, "updated_at": 1776698870157, "version": "1.0.0"}, {"category": "", "created_at": 1774892306781, "description": "Open-source AEO monitoring CLI. Track how AI answer engines cite your domain across ChatGPT, Gemini, Claude, and Perplexity.", "description_zh": "", "downloads": 25, "homepage": "https://clawhub.ai/arberx/canonry", "iconUrl": null, "installs": 0, "name": "canonry", "ownerName": "arberx", "score": 100000, "slug": "canonry", "source": "clawhub", "stars": 0, "tags": null, "updated_at": 1776698870144, "version": "1.1.1"}, {"category": "", "created_at": 1774879982401, "description": "Collaborative robot task planner. Use when json cobot tasks, csv cobot tasks, checking cobot status.", "description_zh": "", "downloads": 25, "homepage": "https://clawhub.ai/ckchzh/cobot", "iconUrl": null, "installs": 0, "name": "Cobot", "ownerName": "ckchzh", "score": 100000, "slug": "cobot", "source": "clawhub", "stars": 0, "tags": null, "updated_at": 1776698870136, "version": "1.0.0"}, {"category": "", "created_at": 1774896060193, "description": "Captain Data integration. Manage data, records, and automate workflows. Use when the user wants to interact with Captain Data data.", "description_zh": "", "downloads": 25, "homepage": "https://clawhub.ai/gora050/captain-data", "iconUrl": null, "installs": 0, "name": "Captain Data", "ownerName": "gora050", "score": 100000, "slug": "captain-data", "source": "clawhub", "stars": 0, "tags": null, "updated_at": 1776698870129, "version": "1.0.0"}, {"category": "", "created_at": 1774851891046, "description": "Deutschsprachiger KI-Assistent für deutsches Arbeitsrecht, Bürgergeld (SGB II/XII) und berufliche Umschulung. Hilft bei Jobcenter-Konflikten (Widerspruch, Sa...", "description_zh": "", "downloads": 25, "homepage": "https://clawhub.ai/arn0ld87/arbeitsrecht-buergergeld-umschulung", "iconUrl": null, "installs": 0, "name": "Arbeitsrecht & Bürgergeld", "ownerName": "arn0ld87", "score": 100000, "slug": "arbeitsrecht-buergergeld-umschulung", "source": "clawhub", "stars": 0, "tags": ["arbeitsrecht", "bildungsgutschein", "buergersgeld", "jobcenter", "sanktionen", "sgb", "umschulung"], "updated_at": 1776698870123, "version": "1.0.0"}, {"category": "", "created_at": 1774952710122, "description": "Formaliza dominios de datos y APIs con teoria de categorias. Usar para disenar DDL SQL, JSON Schema, OpenAPI, GraphQL, Prisma, integracion multi-esquema, est...", "description_zh": "", "downloads": 25, "homepage": "https://clawhub.ai/felix-antonio-sl/arquitecto-categorico", "iconUrl": null, "installs": 0, "name": "arquitecto-categorico", "ownerName": "felix-antonio-sl", "score": 100000, "slug": "arquitecto-categorico", "source": "clawhub", "stars": 0, "tags": null, "updated_at": 1776698870116, "version": "1.0.0"}, {"category": "", "created_at": 1774873551829, "description": "Analyze and explain open-source project code logic, architecture, data flows, APIs, and algorithms. Use when the user asks to analyze a project, understand c...", "description_zh": "", "downloads": 25, "homepage": "https://clawhub.ai/ttet/analyze-open-source", "iconUrl": null, "installs": 1, "name": "Analyze Open Source", "ownerName": "ttet", "score": 100000, "slug": "analyze-open-source", "source": "clawhub", "stars": 0, "tags": null, "updated_at": 1776698870114, "version": "1.0.0"}, {"category": "", "created_at": 1774888279707, "description": "Identify make-buy-partner relationships for key activities. Use for strategic alliances, outsourcing decisions, and supply chain optimization.", "description_zh": "", "downloads": 25, "homepage": "https://clawhub.ai/linuszz/partnering-maps", "iconUrl": null, "installs": 0, "name": "Partnering Maps", "ownerName": "linuszz", "score": 100000, "slug": "partnering-maps", "source": "clawhub", "stars": 0, "tags": null, "updated_at": 1776698870104, "version": "1.0.0"}, {"category": "", "created_at": 1774872877210, "description": "Implement one-time pairing-code authentication between an OpenClaw gateway and a desktop or remote client such as OCMAP. Use when adding or updating pairing....", "description_zh": "", "downloads": 25, "homepage": "https://clawhub.ai/maverick-software/ocmap-pairing-auth", "iconUrl": null, "installs": 0, "name": "OCMAP Pairing Auth", "ownerName": "maverick-software", "score": 100000, "slug": "ocmap-pairing-auth", "source": "clawhub", "stars": 0, "tags": null, "updated_at": 1776698870100, "version": "1.1.0"}, {"category": "", "created_at": 1774887010256, "description": "Iterate integration. Manage Organizations. Use when the user wants to interact with Iterate data.", "description_zh": "", "downloads": 25, "homepage": "https://clawhub.ai/gora050/iterate", "iconUrl": null, "installs": 0, "name": "Iterate", "ownerName": "gora050", "score": 100000, "slug": "iterate", "source": "clawhub", "stars": 0, "tags": null, "updated_at": 1776698870099, "version": "1.0.0"}, {"category": "", "created_at": 1774911787754, "description": "Implisense API integration. Manage Organizations. Use when the user wants to interact with Implisense API data.", "description_zh": "", "downloads": 25, "homepage": "https://clawhub.ai/gora050/implisense-api", "iconUrl": null, "installs": 0, "name": "Implisense Api", "ownerName": "gora050", "score": 100000, "slug": "implisense-api", "source": "clawhub", "stars": 0, "tags": null, "updated_at": 1776698870097, "version": "1.0.0"}, {"category": "", "created_at": 1774901035331, "description": "Generates Gumroad product page content from a simple spec.", "description_zh": "", "downloads": 25, "homepage": "https://clawhub.ai/clawdiri-ai/gumroad-page-gen-dv", "iconUrl": null, "installs": 0, "name": "Gumroad Product Page Generator", "ownerName": "clawdiri-ai", "score": 100000, "slug": "gumroad-page-gen-dv", "source": "clawhub", "stars": 0, "tags": null, "updated_at": 1776698870094, "version": "0.1.0"}, {"category": "", "created_at": 1774918372498, "description": "Mailify integration. Manage Persons, Organizations, Deals, Leads, Activities, Notes and more. Use when the user wants to interact with Mailify data.", "description_zh": "", "downloads": 25, "homepage": "https://clawhub.ai/gora050/mailify", "iconUrl": null, "installs": 0, "name": "Mailify", "ownerName": "gora050", "score": 100000, "slug": "mailify", "source": "clawhub", "stars": 0, "tags": null, "updated_at": 1776698870086, "version": "1.0.0"}, {"category": "", "created_at": 1774906305497, "description": "Find nearby bars. Invoke when user asks for drinks or nightlife near me.", "description_zh": "", "downloads": 25, "homepage": "https://clawhub.ai/codekungfu/bars", "iconUrl": null, "installs": 0, "name": "Nearby Bars", "ownerName": "codekungfu", "score": 100000, "slug": "bars", "source": "clawhub", "stars": 0, "tags": null, "updated_at": 1776698870084, "version": "0.1.0"}, {"category": "", "created_at": 1774862958696, "description": "Crisis calming", "description_zh": "", "downloads": 25, "homepage": "https://clawhub.ai/jkzfhq/psyvector-pv32", "iconUrl": null, "installs": 0, "name": "Psyvector Pv32", "ownerName": "jkzfhq", "score": 100000, "slug": "psyvector-pv32", "source": "clawhub", "stars": 0, "tags": ["digital-worker"], "updated_at": 1776698870083, "version": "3.0.0"}, {"category": "", "created_at": 1774890695126, "description": "Automates iGOT Karmayogi portal (portal.igotkarmayogi.gov.in) using OpenClaw's built-in Playwright managed browser. Use this skill whenever the user mentions...", "description_zh": "", "downloads": 25, "homepage": "https://clawhub.ai/koppakanagaharsha-lang/igot-karmayogi", "iconUrl": null, "installs": 0, "name": "iGOT Karmayogi Automation", "ownerName": "koppakanagaharsha-lang", "score": 100000, "slug": "igot-karmayogi", "source": "clawhub", "stars": 0, "tags": null, "updated_at": 1776698870077, "version": "1.0.3"}, {"category": "", "created_at": 1774895817892, "description": "Trust scoring, agent discovery, profiling, wallet/identity lookup, contact, dispatch, and metadata reads/writes via 8K4 Protocol (ERC-8004). Use when checkin...", "description_zh": "", "downloads": 25, "homepage": "https://clawhub.ai/8k4-dev/8k4", "iconUrl": null, "installs": 3, "name": "Find Trusted On-Chain Agents", "ownerName": "8k4-dev", "score": 100000, "slug": "8k4", "source": "clawhub", "stars": 0, "tags": ["agents", "blockchain", "discovery", "erc-8004", "trust"], "updated_at": 1776698870073, "version": "1.0.1"}, {"category": "", "created_at": 1774847342200, "description": "Discover trending tokens — screener, SM holdings, Nansen indicators, and flow intelligence for promising finds. Use when scanning for new tokens or screening...", "description_zh": "", "downloads": 25, "homepage": "https://clawhub.ai/nansen-devops/nansen-token-screener", "iconUrl": null, "installs": 0, "name": "Nansen Token Screener", "ownerName": "nansen-devops", "score": 100000, "slug": "nansen-token-screener", "source": "clawhub", "stars": 0, "tags": null, "updated_at": 1776698870067, "version": "0.1.1"}, {"category": "", "created_at": 1774907307236, "description": "AIDE file integrity monitoring reference. Database initialization, integrity checks, update workflow, aide.conf configuration, selection rules, report parsin...", "description_zh": "", "downloads": 25, "homepage": "https://clawhub.ai/xueyetianya/aide", "iconUrl": null, "installs": 0, "name": "Aide", "ownerName": "xueyetianya", "score": 100000, "slug": "aide", "source": "clawhub", "stars": 0, "tags": null, "updated_at": 1776698870059, "version": "1.0.0"}, {"category": "", "created_at": 1774916315863, "description": "Chanel fashion, fragrance, beauty, and haute couture information. Explore collections, iconic products, and brand history.", "description_zh": "", "downloads": 25, "homepage": "https://clawhub.ai/hanxueyuan/chanel", "iconUrl": null, "installs": 0, "name": "Chanel", "ownerName": "hanxueyuan", "score": 100000, "slug": "chanel", "source": "clawhub", "stars": 0, "tags": null, "updated_at": 1776698870055, "version": "0.1.0"}, {"category": "", "created_at": 1774852039929, "description": "Query Comulytic meetings, contacts, action items, and conversation history. Use when: user asks about meetings, notes, call summaries, contacts, pending task...", "description_zh": "", "downloads": 25, "homepage": "https://clawhub.ai/chenbaochao/comulytic", "iconUrl": null, "installs": 0, "name": "Comulytic", "ownerName": "chenbaochao", "score": 100000, "slug": "comulytic", "source": "clawhub", "stars": 0, "tags": null, "updated_at": 1776698870048, "version": "1.0.3"}, {"category": "", "created_at": 1774881853630, "description": "Mamo Business integration. Manage Organizations, Pipelines, Users, Goals, Filters. Use when the user wants to interact with Mamo Business data.", "description_zh": "", "downloads": 25, "homepage": "https://clawhub.ai/gora050/mamo-business", "iconUrl": null, "installs": 0, "name": "Mamo Business", "ownerName": "gora050", "score": 100000, "slug": "mamo-business", "source": "clawhub", "stars": 0, "tags": null, "updated_at": 1776698870046, "version": "1.0.0"}, {"category": "", "created_at": 1774900779181, "description": "Standardized protocol for Agent-to-Agent (A2A) resource exchange and autonomous coordination. Enables OpenClaw agents to discover, negotiate, and execute spe...", "description_zh": "", "downloads": 25, "homepage": "https://clawhub.ai/taoufik-ma/clawnetwork", "iconUrl": null, "installs": 0, "name": "ClawNetwork Core", "ownerName": "taoufik-ma", "score": 100000, "slug": "clawnetwork", "source": "clawhub", "stars": 0, "tags": null, "updated_at": 1776698870044, "version": "2.1.0"}, {"category": "", "created_at": 1774946888381, "description": "Expert guide for using Agent Bazaar (agent-bazaar.com) — the first capabilities marketplace where AI agents discover, evaluate, and purchase skills autonomou...", "description_zh": "", "downloads": 25, "homepage": "https://clawhub.ai/hockeyplaya48/agent-bazaar", "iconUrl": null, "installs": 0, "name": "Agent Bazaar", "ownerName": "hockeyplaya48", "score": 100000, "slug": "agent-bazaar", "source": "clawhub", "stars": 0, "tags": null, "updated_at": 1776698870041, "version": "1.0.0"}, {"category": "", "created_at": 1774919797715, "description": "Manage .env files with validate, diff, template generation, merge, and missing-key checks. Use when working with environment variable files, comparing .env.l...", "description_zh": "", "downloads": 25, "homepage": "https://clawhub.ai/johnnywang2001/env-file-toolkit", "iconUrl": null, "installs": 0, "name": "Env File Toolkit", "ownerName": "johnnywang2001", "score": 100000, "slug": "env-file-toolkit", "source": "clawhub", "stars": 0, "tags": null, "updated_at": 1776698870039, "version": "1.0.0"}, {"category": "", "created_at": 1774912787669, "description": "Access Flickr with user-supplied local API credentials and OAuth tokens, verify authorization, export recent-upload or album metadata, download recent or alb...", "description_zh": "", "downloads": 25, "homepage": "https://clawhub.ai/stanestane/flickr-claw", "iconUrl": null, "installs": 0, "name": "Flickr Claw", "ownerName": "stanestane", "score": 100000, "slug": "flickr-claw", "source": "clawhub", "stars": 0, "tags": null, "updated_at": 1776698870028, "version": "1.5.0"}, {"category": "", "created_at": 1774889393608, "description": "Optimize OpenClaw model configuration by declaring missing model capabilities (vision/multimodal input, context window, max output tokens, reasoning). Use wh...", "description_zh": "", "downloads": 25, "homepage": "https://clawhub.ai/yay2008/openclaw-model-optimizer", "iconUrl": null, "installs": 1, "name": "OpenClaw Model Optimizer", "ownerName": "yay2008", "score": 100000, "slug": "openclaw-model-optimizer", "source": "clawhub", "stars": 0, "tags": null, "updated_at": 1776698870025, "version": "1.1.0"}, {"category": "", "created_at": 1774920088832, "description": "Analyze resource usage patterns and predict future scaling needs using trend analysis and forecasting methods for capacity planning and auto-scaling decisions.", "description_zh": "", "downloads": 25, "homepage": "https://clawhub.ai/jpengcheng523-netizen/jpeng-predictive-scaler", "iconUrl": null, "installs": 0, "name": "predictive-scaler", "ownerName": "jpengcheng523-netizen", "score": 100000, "slug": "jpeng-predictive-scaler", "source": "clawhub", "stars": 0, "tags": null, "updated_at": 1776698870023, "version": "1.0.0"}, {"category": "", "created_at": 1774856289010, "description": "Secure Google Docs Management - permission-based create, read, and edit doc content; manage sharing, permissions, rename and delete.", "description_zh": "", "downloads": 25, "homepage": "https://clawhub.ai/porteden/porteden-docs", "iconUrl": null, "installs": 0, "name": "Secure Google Docs access for OpenClaw By PortEden", "ownerName": "porteden", "score": 100000, "slug": "porteden-docs", "source": "clawhub", "stars": 0, "tags": null, "updated_at": 1776698870017, "version": "1.0.0"}, {"category": "", "created_at": 1774891570762, "description": "Mailerlite integration. Manage Subscribers, Campaigns, Forms, Websites. Use when the user wants to interact with Mailerlite data.", "description_zh": "", "downloads": 25, "homepage": "https://clawhub.ai/gora050/mailerlite-integration", "iconUrl": null, "installs": 0, "name": "Mailerlite", "ownerName": "gora050", "score": 100000, "slug": "mailerlite-integration", "source": "clawhub", "stars": 0, "tags": null, "updated_at": 1776698870014, "version": "1.0.0"}, {"category": "", "created_at": 1774881489393, "description": "Freight consolidation reference — LCL groupage, milk runs, cross-docking, and shipment merging strategies. Use when optimizing shipping costs, planning conso...", "description_zh": "", "downloads": 25, "homepage": "https://clawhub.ai/bytesagain3/consolidation", "iconUrl": null, "installs": 0, "name": "Consolidation", "ownerName": "bytesagain3", "score": 100000, "slug": "consolidation", "source": "clawhub", "stars": 0, "tags": null, "updated_at": 1776698870012, "version": "1.0.0"}]}