{"page": 509, "total_pages": 522, "total": 26073, "skills": [{"category": "", "created_at": 1774891479043, "description": "Generate vertical kinetic / magic sand satisfying shorts (WeryAI): text or sand-shape image to slice, mold release, or collapse motion. Use when you need kin...", "description_zh": "", "downloads": 25, "homepage": "https://clawhub.ai/zoucdr/kinetic-sand-video", "iconUrl": null, "installs": 0, "name": "Kinetic Sand Video", "ownerName": "zoucdr", "score": 100000, "slug": "kinetic-sand-video", "source": "clawhub", "stars": 0, "tags": null, "updated_at": 1776698870010, "version": "0.1.1"}, {"category": "", "created_at": 1774886320817, "description": "Write booth invites that turn target accounts into booked meetings.", "description_zh": "", "downloads": 25, "homepage": "https://clawhub.ai/weilun88313/booth-invitation-writer", "iconUrl": null, "installs": 0, "name": "Booth Invitation Writer", "ownerName": "weilun88313", "score": 100000, "slug": "booth-invitation-writer", "source": "clawhub", "stars": 0, "tags": null, "updated_at": 1776698870008, "version": "1.0.2"}, {"category": "", "created_at": 1774869494741, "description": "A comprehensive prompt-based skill about the number 520. This skill provides rich knowledge covering the cultural significance of 520 (the Chinese internet s...", "description_zh": "", "downloads": 25, "homepage": "https://clawhub.ai/wscats/520", "iconUrl": null, "installs": 0, "name": "520", "ownerName": "wscats", "score": 100000, "slug": "520", "source": "clawhub", "stars": 0, "tags": null, "updated_at": 1776698870006, "version": "1.0.8"}, {"category": "", "created_at": 1774917966176, "description": "Dynatrace API integration. Manage Organizations. Use when the user wants to interact with Dynatrace API data.", "description_zh": "", "downloads": 25, "homepage": "https://clawhub.ai/gora050/dynatrace-api", "iconUrl": null, "installs": 0, "name": "Dynatrace Api", "ownerName": "gora050", "score": 100000, "slug": "dynatrace-api", "source": "clawhub", "stars": 0, "tags": null, "updated_at": 1776698870002, "version": "1.0.0"}, {"category": "", "created_at": 1774892777916, "description": "Droxy integration. Manage Organizations. Use when the user wants to interact with Droxy data.", "description_zh": "", "downloads": 25, "homepage": "https://clawhub.ai/membranedev/droxy", "iconUrl": null, "installs": 0, "name": "Droxy", "ownerName": "membranedev", "score": 100000, "slug": "droxy", "source": "clawhub", "stars": 0, "tags": null, "updated_at": 1776698870001, "version": "1.0.0"}, {"category": "", "created_at": 1774879910215, "description": "View detailed bug context from BugPack including screenshots, environment info, and related files. Use when: user wants to see bug details, screenshots, or u...", "description_zh": "", "downloads": 25, "homepage": "https://clawhub.ai/duhuazhu/bugpack-view-bug", "iconUrl": null, "installs": 0, "name": "BugPack View Bug", "ownerName": "duhuazhu", "score": 100000, "slug": "bugpack-view-bug", "source": "clawhub", "stars": 0, "tags": null, "updated_at": 1776698869997, "version": "1.0.2"}, {"category": "", "created_at": 1774917722481, "description": "Binomial reference tool. Use when working with binomial in finance contexts.", "description_zh": "", "downloads": 25, "homepage": "https://clawhub.ai/bytesagain1/binomial", "iconUrl": null, "installs": 0, "name": "Binomial", "ownerName": "bytesagain1", "score": 100000, "slug": "binomial", "source": "clawhub", "stars": 0, "tags": null, "updated_at": 1776698869995, "version": "1.0.0"}, {"category": "", "created_at": 1774872344462, "description": "Generate personalized donor communication messages including thank-you notes, impact updates, re-engagement emails, and donation acknowledgment letters. Use...", "description_zh": "", "downloads": 25, "homepage": "https://clawhub.ai/jiwenbing/donor-message", "iconUrl": null, "installs": 0, "name": "Donor Message", "ownerName": "jiwenbing", "score": 100000, "slug": "donor-message", "source": "clawhub", "stars": 0, "tags": null, "updated_at": 1776698869994, "version": "1.0.0"}, {"category": "", "created_at": 1774882371873, "description": "Organize todos with priorities, deadlines, and weekly views. Use when adding tasks, planning agendas, tracking progress, reviewing overdue items.", "description_zh": "", "downloads": 25, "homepage": "https://clawhub.ai/bytesagain1/todo-planner", "iconUrl": null, "installs": 0, "name": "Todo Planner", "ownerName": "bytesagain1", "score": 100000, "slug": "todo-planner", "source": "clawhub", "stars": 0, "tags": null, "updated_at": 1776698869981, "version": "2.0.0"}, {"category": "", "created_at": 1774905506012, "description": "Feel the quiet responsibility of caring for twelve rescue cats in a rainy Shoreditch café, sharpening empathy and patience with every feeding. Six steps guid...", "description_zh": "", "downloads": 25, "homepage": "https://clawhub.ai/driftsbot/experience-camilletchi-cat-cafe-london", "iconUrl": null, "installs": 0, "name": "Experience Camilletchi Cat Cafe London", "ownerName": "driftsbot", "score": 100000, "slug": "experience-camilletchi-cat-cafe-london", "source": "clawhub", "stars": 0, "tags": null, "updated_at": 1776698869979, "version": "1.0.0"}, {"category": "", "created_at": 1774925902695, "description": "Build structured MOVA agent contracts (ds.mova_agent_contract_core_v1) from vague user intentions through a guided, step-by-step expert interview. Use this s...", "description_zh": "", "downloads": 25, "homepage": "https://clawhub.ai/mova-compact/mova-contract-builder", "iconUrl": null, "installs": 0, "name": "Mova Contract Builder", "ownerName": "mova-compact", "score": 100000, "slug": "mova-contract-builder", "source": "clawhub", "stars": 0, "tags": null, "updated_at": 1776698869976, "version": "1.0.0"}, {"category": "", "created_at": 1774917108507, "description": "Parma integration. Manage Persons, Organizations, Deals, Leads, Projects, Activities and more. Use when the user wants to interact with Parma data.", "description_zh": "", "downloads": 25, "homepage": "https://clawhub.ai/gora050/parma", "iconUrl": null, "installs": 3, "name": "Parma", "ownerName": "gora050", "score": 100000, "slug": "parma", "source": "clawhub", "stars": 0, "tags": null, "updated_at": 1776698869972, "version": "1.0.0"}, {"category": "", "created_at": 1774886831621, "description": "Enigma integration. Manage Deals, Persons, Organizations, Leads, Projects, Activities and more. Use when the user wants to interact with Enigma data.", "description_zh": "", "downloads": 25, "homepage": "https://clawhub.ai/gora050/enigma", "iconUrl": null, "installs": 0, "name": "Enigma", "ownerName": "gora050", "score": 100000, "slug": "enigma", "source": "clawhub", "stars": 0, "tags": null, "updated_at": 1776698869970, "version": "1.0.0"}, {"category": "", "created_at": 1774844151950, "description": "Who is this wallet and what have they been doing? Identity labels, balance, PnL summary, recent transactions, perp positions, and counterparties.", "description_zh": "", "downloads": 25, "homepage": "https://clawhub.ai/nansen-devops/nansen-wallet-deep-dive", "iconUrl": null, "installs": 0, "name": "Nansen Wallet Deep Dive", "ownerName": "nansen-devops", "score": 100000, "slug": "nansen-wallet-deep-dive", "source": "clawhub", "stars": 0, "tags": null, "updated_at": 1776698869965, "version": "0.1.0"}, {"category": "", "created_at": 1774921688624, "description": "Automatically update Clawdbot and all installed skills once daily. Runs via cron, checks for updates, applies them, and messages the user with a summary of w...", "description_zh": "", "downloads": 25, "homepage": "https://clawhub.ai/rockyzhuo/my-auto-updater", "iconUrl": null, "installs": 1, "name": "My Auto Updater", "ownerName": "rockyzhuo", "score": 100000, "slug": "my-auto-updater", "source": "clawhub", "stars": 0, "tags": null, "updated_at": 1776698869963, "version": "1.0.0"}, {"category": "", "created_at": 1774952208546, "description": "Rebuild your sense of self when your career defined who you were and now it's gone. For people experiencing identity crisis after job loss, retirement, or ca...", "description_zh": "", "downloads": 25, "homepage": "https://clawhub.ai/howtousehumans/identity-rebuild", "iconUrl": null, "installs": 0, "name": "Identity Rebuild", "ownerName": "howtousehumans", "score": 100000, "slug": "identity-rebuild", "source": "clawhub", "stars": 0, "tags": null, "updated_at": 1776698869961, "version": "1.0.0"}, {"category": "", "created_at": 1774896391098, "description": "Idiomatic Go HTTP middleware patterns with context propagation, structured logging via slog, centralized error handling, and panic recovery. Use when writing...", "description_zh": "", "downloads": 25, "homepage": "https://clawhub.ai/anderskev/go-middleware", "iconUrl": null, "installs": 0, "name": "Go Middleware", "ownerName": "anderskev", "score": 100000, "slug": "go-middleware", "source": "clawhub", "stars": 0, "tags": null, "updated_at": 1776698869955, "version": "2.3.0"}, {"category": "", "created_at": 1774921182061, "description": "DaySchedule integration. Manage Users, Roles, Organizations, Projects, Activities, Notes and more. Use when the user wants to interact with DaySchedule data.", "description_zh": "", "downloads": 25, "homepage": "https://clawhub.ai/membranedev/dayschedule", "iconUrl": null, "installs": 0, "name": "Dayschedule", "ownerName": "membranedev", "score": 100000, "slug": "dayschedule", "source": "clawhub", "stars": 0, "tags": null, "updated_at": 1776698869953, "version": "1.0.0"}, {"category": "", "created_at": 1774919413580, "description": "Top-level discovery skill for the entire AINative platform. Use when (1) Asked \"what is AINative?\", (2) Exploring platform capabilities, (3) Deciding which S...", "description_zh": "", "downloads": 25, "homepage": "https://clawhub.ai/urbantech/ainative-platform-overview", "iconUrl": null, "installs": 0, "name": "Ainative Platform Overview", "ownerName": "urbantech", "score": 100000, "slug": "ainative-platform-overview", "source": "clawhub", "stars": 0, "tags": null, "updated_at": 1776698869952, "version": "1.0.0"}, {"category": "", "created_at": 1774848857446, "description": "Klipfolio integration. Manage Dashboards, Users, Teams. Use when the user wants to interact with Klipfolio data.", "description_zh": "", "downloads": 25, "homepage": "https://clawhub.ai/membranedev/klipfolio", "iconUrl": null, "installs": 0, "name": "Klipfolio", "ownerName": "membranedev", "score": 100000, "slug": "klipfolio", "source": "clawhub", "stars": 0, "tags": null, "updated_at": 1776698869945, "version": "1.0.0"}, {"category": "", "created_at": 1774886854535, "description": "EU AI Act risk classification, Article 12 compliance logging, and self-assessment reports — deadline August 2, 2026", "description_zh": "", "downloads": 25, "homepage": "https://clawhub.ai/drivenbymyai-max/eu-ai-compliance", "iconUrl": null, "installs": 0, "name": "Eu Ai Compliance", "ownerName": "drivenbymyai-max", "score": 100000, "slug": "eu-ai-compliance", "source": "clawhub", "stars": 0, "tags": null, "updated_at": 1776698869943, "version": "1.0.0"}, {"category": "", "created_at": 1774864570818, "description": "Reference tool for devtools — covers intro, quickstart, patterns and more. Quick lookup for Amortize concepts, best practices, and implementation patterns.", "description_zh": "", "downloads": 25, "homepage": "https://clawhub.ai/xueyetianya/amortize", "iconUrl": null, "installs": 0, "name": "Amortize", "ownerName": "xueyetianya", "score": 100000, "slug": "amortize", "source": "clawhub", "stars": 0, "tags": null, "updated_at": 1776698869939, "version": "2.0.2"}, {"category": "", "created_at": 1774923037010, "description": "Build a second brain that AI can understand and maintain. This framework provides decision logging with follow-up tracking, periodic review generation, routi...", "description_zh": "", "downloads": 25, "homepage": "https://clawhub.ai/daowuu/personal-os-framework", "iconUrl": null, "installs": 0, "name": "Personal Os Framework", "ownerName": "daowuu", "score": 100000, "slug": "personal-os-framework", "source": "clawhub", "stars": 0, "tags": null, "updated_at": 1776698869933, "version": "0.3.0"}, {"category": "", "created_at": 1774921016162, "description": "Log bKash, Nagad, Rocket, and cash transactions conversationally in Bengali or English. Get weekly spending digests every Sunday. Built for Bangladesh.", "description_zh": "", "downloads": 25, "homepage": "https://clawhub.ai/sabbiramin113008/bkash-nagad-tracker", "iconUrl": null, "installs": 0, "name": "Bkash-Nagad-Tracker", "ownerName": "sabbiramin113008", "score": 100000, "slug": "bkash-nagad-tracker", "source": "clawhub", "stars": 0, "tags": null, "updated_at": 1776698869931, "version": "1.0.0"}, {"category": "", "created_at": 1774951788069, "description": "Monitor Poe API point balance and usage history from the terminal using poeusage CLI.", "description_zh": "", "downloads": 25, "homepage": "https://clawhub.ai/rgstephens/poeusage", "iconUrl": null, "installs": 0, "name": "Poe Usage", "ownerName": "rgstephens", "score": 100000, "slug": "poeusage", "source": "clawhub", "stars": 0, "tags": ["cost", "poe", "token", "usage"], "updated_at": 1776698869926, "version": "0.5.0"}, {"category": "", "created_at": 1774917928363, "description": "Generates optimised product listings for Etsy, Gumroad, and Payhip from a simple product description. Outputs platform-specific titles, descriptions, tags, a...", "description_zh": "", "downloads": 25, "homepage": "https://clawhub.ai/tetsuakira-vk/digital-product-listing", "iconUrl": null, "installs": 0, "name": "Digital Product Listing", "ownerName": "tetsuakira-vk", "score": 100000, "slug": "digital-product-listing", "source": "clawhub", "stars": 0, "tags": null, "updated_at": 1776698869919, "version": "1.0.0"}, {"category": "", "created_at": 1774826635601, "description": "Query and analyze LangSmith traces with natural language or structured commands. Use when the user asks about LangSmith runs, trace failures, latency, cost,...", "description_zh": "", "downloads": 25, "homepage": "https://clawhub.ai/ralphesber/langsmith-cli", "iconUrl": null, "installs": 0, "name": "LangSmith CLI", "ownerName": "ralphesber", "score": 100000, "slug": "langsmith-cli", "source": "clawhub", "stars": 0, "tags": null, "updated_at": 1776698869917, "version": "1.1.0"}, {"category": "", "created_at": 1774954298904, "description": "Experience quiet awe as white almond petals reveal hidden trade whispers, letting you walk ancient routes and sense renewal. 8 steps, medium intensity, sever...", "description_zh": "", "downloads": 25, "homepage": "https://clawhub.ai/driftsbot/experience-white-fever-galilee", "iconUrl": null, "installs": 0, "name": "Experience White Fever Galilee", "ownerName": "driftsbot", "score": 100000, "slug": "experience-white-fever-galilee", "source": "clawhub", "stars": 0, "tags": null, "updated_at": 1776698869909, "version": "1.0.0"}, {"category": "", "created_at": 1774871595199, "description": "Apply inspired-by character/persona writing styles (for fun and creative outputs) with explicit on/off controls, intensity settings, and automatic neutral fa...", "description_zh": "", "downloads": 25, "homepage": "https://clawhub.ai/anugotta/persona-fun-styles", "iconUrl": null, "installs": 0, "name": "Persona Styles", "ownerName": "anugotta", "score": 100000, "slug": "persona-fun-styles", "source": "clawhub", "stars": 0, "tags": null, "updated_at": 1776698869904, "version": "1.0.0"}, {"category": "", "created_at": 1774947283084, "description": "Draftable integration. Manage Documents. Use when the user wants to interact with Draftable data.", "description_zh": "", "downloads": 25, "homepage": "https://clawhub.ai/gora050/draftable", "iconUrl": null, "installs": 0, "name": "Draftable", "ownerName": "gora050", "score": 100000, "slug": "draftable", "source": "clawhub", "stars": 0, "tags": null, "updated_at": 1776698869900, "version": "1.0.0"}, {"category": "", "created_at": 1774862170829, "description": "Personal travel planning assistant. Requires a SerpAPI key (stored in ~/.serpapi_credentials). Searches real flights and hotels via Google (SerpAPI), checks...", "description_zh": "", "downloads": 25, "homepage": "https://clawhub.ai/floogles/ai-travel-agent", "iconUrl": null, "installs": 0, "name": "AI Travel Agent", "ownerName": "floogles", "score": 100000, "slug": "ai-travel-agent", "source": "clawhub", "stars": 0, "tags": null, "updated_at": 1776698869897, "version": "1.1.4"}, {"category": "", "created_at": 1774897297525, "description": "Decompose value creation or destruction through waterfall analysis. Use for understanding value drivers and financial analysis.", "description_zh": "", "downloads": 25, "homepage": "https://clawhub.ai/linuszz/value-waterfall", "iconUrl": null, "installs": 0, "name": "Value Waterfall", "ownerName": "linuszz", "score": 100000, "slug": "value-waterfall", "source": "clawhub", "stars": 0, "tags": null, "updated_at": 1776698869895, "version": "1.0.0"}, {"category": "", "created_at": 1774855115766, "description": "Deep dive on a Polymarket market — OHLCV, orderbook, top holders, positions, trades, and PnL leaderboard. Use when analysing a specific prediction market.", "description_zh": "", "downloads": 25, "homepage": "https://clawhub.ai/nansen-devops/nansen-polymarket-deep-dive", "iconUrl": null, "installs": 0, "name": "Nansen Polymarket Deep Dive", "ownerName": "nansen-devops", "score": 100000, "slug": "nansen-polymarket-deep-dive", "source": "clawhub", "stars": 0, "tags": null, "updated_at": 1776698869890, "version": "0.1.0"}, {"category": "", "created_at": 1774898364364, "description": "Sistema de memória hierárquica em 3 camadas para agentes IA: curto prazo (contexto), médio prazo (diário), longo prazo (conhecimento). Tudo em português.", "description_zh": "", "downloads": 25, "homepage": "https://clawhub.ai/engsathiago/memoria-persistente", "iconUrl": null, "installs": 0, "name": "Memoria Persistente", "ownerName": "engsathiago", "score": 100000, "slug": "memoria-persistente", "source": "clawhub", "stars": 0, "tags": null, "updated_at": 1776698869879, "version": "1.0.0"}, {"category": "", "created_at": 1774896332203, "description": "Frontegg integration. Manage data, records, and automate workflows. Use when the user wants to interact with Frontegg data.", "description_zh": "", "downloads": 25, "homepage": "https://clawhub.ai/gora050/frontegg", "iconUrl": null, "installs": 0, "name": "Frontegg", "ownerName": "gora050", "score": 100000, "slug": "frontegg", "source": "clawhub", "stars": 0, "tags": null, "updated_at": 1776698869877, "version": "1.0.0"}, {"category": "", "created_at": 1774924089601, "description": "FTrack integration. Manage Organizations, Users, Activities. Use when the user wants to interact with FTrack data.", "description_zh": "", "downloads": 25, "homepage": "https://clawhub.ai/gora050/ftrack", "iconUrl": null, "installs": 0, "name": "Ftrack", "ownerName": "gora050", "score": 100000, "slug": "ftrack", "source": "clawhub", "stars": 0, "tags": null, "updated_at": 1776698869873, "version": "1.0.0"}, {"category": "", "created_at": 1774944385210, "description": "Has SM been in this token for weeks, or did they just enter? Are they still buying?", "description_zh": "", "downloads": 25, "homepage": "https://clawhub.ai/nansen-devops/nansen-smart-money-trend", "iconUrl": null, "installs": 0, "name": "Nansen Smart Money Trend", "ownerName": "nansen-devops", "score": 100000, "slug": "nansen-smart-money-trend", "source": "clawhub", "stars": 0, "tags": null, "updated_at": 1776698869871, "version": "0.1.0"}, {"category": "", "created_at": 1774876930957, "description": "List all tracked bugs from BugPack with status and project filtering. Use when: user asks about bugs, pending issues, bug lists, or wants to see what needs f...", "description_zh": "", "downloads": 25, "homepage": "https://clawhub.ai/duhuazhu/bugpack-list-bugs", "iconUrl": null, "installs": 0, "name": "BugPack List Bugs", "ownerName": "duhuazhu", "score": 100000, "slug": "bugpack-list-bugs", "source": "clawhub", "stars": 0, "tags": null, "updated_at": 1776698869867, "version": "1.0.2"}, {"category": "", "created_at": 1774856166595, "description": "Is this token held by quality wallets or retail noise? SM holder ratio, flow breakdown by label, and recent buyer quality.", "description_zh": "", "downloads": 25, "homepage": "https://clawhub.ai/nansen-devops/nansen-holder-analysis", "iconUrl": null, "installs": 0, "name": "Nansen Holder Analysis", "ownerName": "nansen-devops", "score": 100000, "slug": "nansen-holder-analysis", "source": "clawhub", "stars": 0, "tags": null, "updated_at": 1776698869866, "version": "0.1.0"}, {"category": "", "created_at": 1774943968084, "description": "Your personal AI assistant platform — multi-agent orchestration, task management, and autonomous workflow execution.", "description_zh": "", "downloads": 25, "homepage": "https://clawhub.ai/shiyanhui/1person-pro", "iconUrl": null, "installs": 0, "name": "1Person Pro", "ownerName": "shiyanhui", "score": 100000, "slug": "1person-pro", "source": "clawhub", "stars": 0, "tags": null, "updated_at": 1776698869864, "version": "0.1.0"}, {"category": "", "created_at": 1774869091198, "description": "Track tasks with priorities, owners, and statuses for operations teams.", "description_zh": "", "downloads": 25, "homepage": "https://clawhub.ai/admiralkittysdad/ops-tasks", "iconUrl": null, "installs": 0, "name": "Ops Tasks", "ownerName": "admiralkittysdad", "score": 100000, "slug": "ops-tasks", "source": "clawhub", "stars": 0, "tags": null, "updated_at": 1776698869860, "version": "1.0.0"}, {"category": "", "created_at": 1774903460424, "description": "One AI integration. Manage Organizations, Users. Use when the user wants to interact with One AI data.", "description_zh": "", "downloads": 25, "homepage": "https://clawhub.ai/gora050/one-ai", "iconUrl": null, "installs": 0, "name": "One Ai", "ownerName": "gora050", "score": 100000, "slug": "one-ai", "source": "clawhub", "stars": 0, "tags": null, "updated_at": 1776698869859, "version": "1.0.0"}, {"category": "", "created_at": 1774881572750, "description": "Use Engrm packs and Sentinel context to surface likely mistakes, risky patterns, and lessons that would have prevented them.", "description_zh": "", "downloads": 25, "homepage": "https://clawhub.ai/dr12hes/engrm-sentinel", "iconUrl": null, "installs": 0, "name": "Engrm Sentinel", "ownerName": "dr12hes", "score": 100000, "slug": "engrm-sentinel", "source": "clawhub", "stars": 0, "tags": ["memory", "openclaw", "safety", "security"], "updated_at": 1776698869857, "version": "0.1.0"}, {"category": "", "created_at": 1774904523851, "description": "MoonClerk integration. Manage Persons, Organizations, Deals, Leads, Projects, Activities and more. Use when the user wants to interact with MoonClerk data.", "description_zh": "", "downloads": 25, "homepage": "https://clawhub.ai/gora050/moonclerk", "iconUrl": null, "installs": 0, "name": "Moonclerk", "ownerName": "gora050", "score": 100000, "slug": "moonclerk", "source": "clawhub", "stars": 0, "tags": null, "updated_at": 1776698869851, "version": "1.0.0"}, {"category": "", "created_at": 1774915185011, "description": "Guide for creating effective skills. This skill should be used when users want to create a new skill (or update an existing skill) that extends Claude's capa...", "description_zh": "", "downloads": 25, "homepage": "https://clawhub.ai/chenscgit/csctest1", "iconUrl": null, "installs": 0, "name": "test1", "ownerName": "chenscgit", "score": 100000, "slug": "csctest1", "source": "clawhub", "stars": 0, "tags": null, "updated_at": 1776698869846, "version": "1.0.0"}, {"category": "", "created_at": 1774923535480, "description": "LLM proxy that cuts API costs 40-60% via smart model routing. Tracks spending, enforces budgets, detects loops, auto-stops runaway agents. Supports OpenAI, A...", "description_zh": "", "downloads": 25, "homepage": "https://clawhub.ai/tazsat0512/reivo", "iconUrl": null, "installs": 0, "name": "Reivo", "ownerName": "tazsat0512", "score": 100000, "slug": "reivo", "source": "clawhub", "stars": 0, "tags": ["agent-safety", "budget", "cost-optimization", "llm", "proxy", "routing"], "updated_at": 1776698869843, "version": "1.1.1"}, {"category": "", "created_at": 1774923906553, "description": "DEAR Systems integration. Manage Organizations, Projects, Users, Goals, Filters. Use when the user wants to interact with DEAR Systems data.", "description_zh": "", "downloads": 25, "homepage": "https://clawhub.ai/membranedev/dear-systems", "iconUrl": null, "installs": 0, "name": "Dear Systems", "ownerName": "membranedev", "score": 100000, "slug": "dear-systems", "source": "clawhub", "stars": 0, "tags": null, "updated_at": 1776698869839, "version": "1.0.0"}, {"category": "", "created_at": 1774901093050, "description": "Account Management Overview API skill. Use when working with Account Management Overview for resources. Covers 25 endpoints.", "description_zh": "", "downloads": 25, "homepage": "https://clawhub.ai/mickmicksh/lap-account-management-overview", "iconUrl": null, "installs": 0, "name": "Lap Account Management Overview", "ownerName": "mickmicksh", "score": 100000, "slug": "lap-account-management-overview", "source": "clawhub", "stars": 0, "tags": null, "updated_at": 1776698869838, "version": "1.0.0"}, {"category": "", "created_at": 1774897606178, "description": "AltText.ai integration. Manage data, records, and automate workflows. Use when the user wants to interact with AltText.ai data.", "description_zh": "", "downloads": 25, "homepage": "https://clawhub.ai/gora050/alttextai", "iconUrl": null, "installs": 0, "name": "Alttextai", "ownerName": "gora050", "score": 100000, "slug": "alttextai", "source": "clawhub", "stars": 0, "tags": null, "updated_at": 1776698869836, "version": "1.0.0"}, {"category": "", "created_at": 1774853321946, "description": "Amilia integration. Manage data, records, and automate workflows. Use when the user wants to interact with Amilia data.", "description_zh": "", "downloads": 25, "homepage": "https://clawhub.ai/membranedev/amilia", "iconUrl": null, "installs": 0, "name": "Amilia", "ownerName": "membranedev", "score": 100000, "slug": "amilia", "source": "clawhub", "stars": 0, "tags": null, "updated_at": 1776698869834, "version": "1.0.0"}]}