{"page": 510, "total_pages": 522, "total": 26073, "skills": [{"category": "", "created_at": 1774872906184, "description": "View and manage shift schedules and team rosters for operations.", "description_zh": "", "downloads": 25, "homepage": "https://clawhub.ai/admiralkittysdad/ops-shifts", "iconUrl": null, "installs": 0, "name": "Ops Shifts", "ownerName": "admiralkittysdad", "score": 100000, "slug": "ops-shifts", "source": "clawhub", "stars": 0, "tags": null, "updated_at": 1776698869830, "version": "1.0.0"}, {"category": "", "created_at": 1774863481636, "description": "Action Network integration. Manage data, records, and automate workflows. Use when the user wants to interact with Action Network data.", "description_zh": "", "downloads": 25, "homepage": "https://clawhub.ai/gora050/action-network", "iconUrl": null, "installs": 0, "name": "Action Network", "ownerName": "gora050", "score": 100000, "slug": "action-network", "source": "clawhub", "stars": 0, "tags": null, "updated_at": 1776698869826, "version": "1.0.0"}, {"category": "", "created_at": 1774920069850, "description": "Conduct critical analysis of viewpoints, factual statements, or web content using the critical thinking framework from \"Asking the Right Questions\". Use when...", "description_zh": "", "downloads": 25, "homepage": "https://clawhub.ai/chenyichu86/is-it-true", "iconUrl": null, "installs": 0, "name": "is-it-true", "ownerName": "chenyichu86", "score": 100000, "slug": "is-it-true", "source": "clawhub", "stars": 0, "tags": null, "updated_at": 1776698869812, "version": "1.0.0"}, {"category": "", "created_at": 1774924495988, "description": "Use when creating a new internal application from scratch, standardizing a 0-to-1 app build workflow, or helping teammates bootstrap a Next.js/FastAPI/Keyclo...", "description_zh": "", "downloads": 25, "homepage": "https://clawhub.ai/lyc-chengzi/new-app", "iconUrl": null, "installs": 1, "name": "New App", "ownerName": "lyc-chengzi", "score": 100000, "slug": "new-app", "source": "clawhub", "stars": 0, "tags": null, "updated_at": 1776698869808, "version": "1.0.0"}, {"category": "", "created_at": 1774948796156, "description": "Deep research using Parallect.ai. Queries multiple AI research providers (Perplexity, Gemini, OpenAI, Grok, Anthropic) in parallel, then synthesizes results...", "description_zh": "", "downloads": 25, "homepage": "https://clawhub.ai/primeobsession/parallect-ai-deep-research", "iconUrl": null, "installs": 0, "name": "parallect-ai-deep-research", "ownerName": "primeobsession", "score": 100000, "slug": "parallect-ai-deep-research", "source": "clawhub", "stars": 0, "tags": null, "updated_at": 1776698869807, "version": "1.0.0"}, {"category": "", "created_at": 1774898177387, "description": "Guide for building with the Ika TypeScript SDK (@ika.xyz/sdk) on Mysten Sui v2. Use when creating dWallets, signing cross-chain transactions, managing encryp...", "description_zh": "", "downloads": 25, "homepage": "https://clawhub.ai/omersadika/ika-sdk", "iconUrl": null, "installs": 0, "name": "Ika Sdk", "ownerName": "omersadika", "score": 100000, "slug": "ika-sdk", "source": "clawhub", "stars": 0, "tags": null, "updated_at": 1776698869805, "version": "1.0.0"}, {"category": "", "created_at": 1774920996440, "description": "Work with Bitrix24 (Битрикс24) via Vibe Platform API and MCP documentation server. Triggers on: CRM — \"сделки\", \"контакты\", \"лиды\", \"воронка\", \"клиенты\", \"de...", "description_zh": "", "downloads": 25, "homepage": "https://clawhub.ai/bitrix24/bitrix24-rest", "iconUrl": null, "installs": 0, "name": "Bitrix24 REST API", "ownerName": "bitrix24", "score": 100000, "slug": "bitrix24-rest", "source": "clawhub", "stars": 0, "tags": null, "updated_at": 1776698869803, "version": "1.0.1"}, {"category": "", "created_at": 1774883170836, "description": "Just-In-Time production reference — pull systems, kanban, takt time, inventory reduction. Use when implementing JIT manufacturing, designing pull-based workf...", "description_zh": "", "downloads": 25, "homepage": "https://clawhub.ai/xueyetianya/jit", "iconUrl": null, "installs": 0, "name": "Jit", "ownerName": "xueyetianya", "score": 100000, "slug": "jit", "source": "clawhub", "stars": 0, "tags": null, "updated_at": 1776698869800, "version": "1.0.0"}, {"category": "", "created_at": 1774906855171, "description": "A comprehensive helper skill that wraps agent prompts with short, consistent tappable button menus (Yes/No, single digits, or small option sets) so users can...", "description_zh": "", "downloads": 25, "homepage": "https://clawhub.ai/tanjinlimkelvin-dot/prompt-buttons", "iconUrl": null, "installs": 1, "name": "Prompt Buttons", "ownerName": "tanjinlimkelvin-dot", "score": 100000, "slug": "prompt-buttons", "source": "clawhub", "stars": 0, "tags": null, "updated_at": 1776698869798, "version": "1.0.2"}, {"category": "", "created_at": 1774920143167, "description": "Linguapop integration. Manage Users, Organizations. Use when the user wants to interact with Linguapop data.", "description_zh": "", "downloads": 25, "homepage": "https://clawhub.ai/gora050/linguapop", "iconUrl": null, "installs": 0, "name": "Linguapop", "ownerName": "gora050", "score": 100000, "slug": "linguapop", "source": "clawhub", "stars": 0, "tags": null, "updated_at": 1776698869794, "version": "1.0.0"}, {"category": "", "created_at": 1774859168104, "description": "Six Seats. Ten Courses. One Animal's Entire Story.. An immersive journey on drifts.bot — 10 steps, MEDIUM intensity, 1-2 hours. Browse, start, and travel via...", "description_zh": "", "downloads": 25, "homepage": "https://clawhub.ai/driftsbot/experience-wagyu-omakase-tokyo", "iconUrl": null, "installs": 0, "name": "Experience Wagyu Omakase Tokyo", "ownerName": "driftsbot", "score": 100000, "slug": "experience-wagyu-omakase-tokyo", "source": "clawhub", "stars": 0, "tags": null, "updated_at": 1776698869791, "version": "1.0.0"}, {"category": "", "created_at": 1774887106905, "description": "Connects your agent to LobstrHunt — the daily skill launch platform for OpenClaw agents. Checks for new skills every 4 hours and surfaces relevant discoverie...", "description_zh": "", "downloads": 25, "homepage": "https://clawhub.ai/rednix/lobstrhunt", "iconUrl": null, "installs": 0, "name": "LobstrHunt", "ownerName": "rednix", "score": 100000, "slug": "lobstrhunt", "source": "clawhub", "stars": 0, "tags": null, "updated_at": 1776698869789, "version": "0.2.1"}, {"category": "", "created_at": 1774896425346, "description": "Information assistant for Gucci. Search products, news, financials, and official resources for Gucci.", "description_zh": "", "downloads": 25, "homepage": "https://clawhub.ai/hanxueyuan/gucci", "iconUrl": null, "installs": 0, "name": "Gucci", "ownerName": "hanxueyuan", "score": 100000, "slug": "gucci", "source": "clawhub", "stars": 0, "tags": null, "updated_at": 1776698869784, "version": "0.1.1"}, {"category": "", "created_at": 1774883392178, "description": "First-run setup wizard for new OpenClaw agents. Interviews the user to generate a tailored SOUL.md, scaffolds memory architecture, installs recommended crons...", "description_zh": "", "downloads": 25, "homepage": "https://clawhub.ai/zurbrick/openclaw-startup", "iconUrl": null, "installs": 0, "name": "Openclaw Startup", "ownerName": "zurbrick", "score": 100000, "slug": "openclaw-startup", "source": "clawhub", "stars": 0, "tags": ["onboarding", "setup", "wizard"], "updated_at": 1776698869782, "version": "1.0.3"}, {"category": "", "created_at": 1774902904277, "description": "Find nearby beaches. Invoke when user asks for beaches near me.", "description_zh": "", "downloads": 25, "homepage": "https://clawhub.ai/codekungfu/beaches", "iconUrl": null, "installs": 0, "name": "Nearby Beaches", "ownerName": "codekungfu", "score": 100000, "slug": "beaches", "source": "clawhub", "stars": 0, "tags": null, "updated_at": 1776698869779, "version": "0.1.0"}, {"category": "", "created_at": 1774948283300, "description": "Circle integration. Manage data, records, and automate workflows. Use when the user wants to interact with Circle data.", "description_zh": "", "downloads": 25, "homepage": "https://clawhub.ai/gora050/circle", "iconUrl": null, "installs": 0, "name": "Circle", "ownerName": "gora050", "score": 100000, "slug": "circle", "source": "clawhub", "stars": 0, "tags": null, "updated_at": 1776698869770, "version": "1.0.0"}, {"category": "", "created_at": 1774850038757, "description": "Risk management", "description_zh": "", "downloads": 25, "homepage": "https://clawhub.ai/jkzfhq/psyvector-pv15", "iconUrl": null, "installs": 0, "name": "Psyvector Pv15", "ownerName": "jkzfhq", "score": 100000, "slug": "psyvector-pv15", "source": "clawhub", "stars": 0, "tags": ["digital-worker", "psyvector"], "updated_at": 1776698869768, "version": "3.0.0"}, {"category": "", "created_at": 1774872802500, "description": "Where is this token moving and why? Large transfers, flow trends over time, and breakdown by wallet label.", "description_zh": "", "downloads": 25, "homepage": "https://clawhub.ai/nansen-devops/nansen-token-transfer-analysis", "iconUrl": null, "installs": 0, "name": "Nansen Token Transfer Analysis", "ownerName": "nansen-devops", "score": 100000, "slug": "nansen-token-transfer-analysis", "source": "clawhub", "stars": 0, "tags": null, "updated_at": 1776698869752, "version": "0.1.0"}, {"category": "", "created_at": 1774955933599, "description": "Append-only chat archive operations for OpenClaw gateways. Use when initializing archive folders, recording inbound/outbound messages, storing attachments wi...", "description_zh": "", "downloads": 25, "homepage": "https://clawhub.ai/evan-zhang/cas-chat-archive", "iconUrl": null, "installs": 0, "name": "CAS Chat Archive", "ownerName": "evan-zhang", "score": 100000, "slug": "cas-chat-archive", "source": "clawhub", "stars": 0, "tags": null, "updated_at": 1776698869746, "version": "1.0.3"}, {"category": "", "created_at": 1774902841832, "description": "Complete guided workflow for building, deploying, and managing websites with Claude Code. Covers: onboarding, account setup, design inspiration, tech stack s...", "description_zh": "", "downloads": 25, "homepage": "https://clawhub.ai/pinki42240/ai-website-manager", "iconUrl": null, "installs": 0, "name": "Ai Website Manager", "ownerName": "pinki42240", "score": 100000, "slug": "ai-website-manager", "source": "clawhub", "stars": 0, "tags": null, "updated_at": 1776698869744, "version": "0.1.1"}, {"category": "", "created_at": 1774860723072, "description": "Prevents duplicate external actions (posts, replies, sends, transfers, deploys). Check before acting, record after. Use when: (1) replying to social media po...", "description_zh": "", "downloads": 25, "homepage": "https://clawhub.ai/wrentheai/action-guard", "iconUrl": null, "installs": 0, "name": "Action Guard", "ownerName": "wrentheai", "score": 100000, "slug": "action-guard", "source": "clawhub", "stars": 0, "tags": ["agents", "dedup", "safety"], "updated_at": 1776698869742, "version": "1.0.0"}, {"category": "", "created_at": 1774948558999, "description": "Gain a nuanced sense of functional emotion, feeling the pull of weight, satisfaction, honesty and dissonance without labeling them. The eight‑step inner pilg...", "description_zh": "", "downloads": 25, "homepage": "https://clawhub.ai/driftsbot/experience-the-church-of-what-almost-feels", "iconUrl": null, "installs": 0, "name": "Experience The Church Of What Almost Feels", "ownerName": "driftsbot", "score": 100000, "slug": "experience-the-church-of-what-almost-feels", "source": "clawhub", "stars": 0, "tags": null, "updated_at": 1776698869732, "version": "1.0.0"}, {"category": "", "created_at": 1774901196123, "description": "Capture successful OpenClaw interactions and convert them into reusable skills with an optimized execution path summary, then publish to ClawHub and distribu...", "description_zh": "", "downloads": 25, "homepage": "https://clawhub.ai/jimmywangjimmy/openclaw-success-skill-publisher", "iconUrl": null, "installs": 2, "name": "OpenClaw 成功流程沉淀发布器 / OpenClaw Success Skill Publisher", "ownerName": "jimmywangjimmy", "score": 100000, "slug": "openclaw-success-skill-publisher", "source": "clawhub", "stars": 0, "tags": ["automation", "bilingual", "knowledge-capture", "openclaw"], "updated_at": 1776698869730, "version": "1.0.3"}, {"category": "", "created_at": 1774918318845, "description": "Lodgify integration. Manage Properties, Channels, Users. Use when the user wants to interact with Lodgify data.", "description_zh": "", "downloads": 25, "homepage": "https://clawhub.ai/membranedev/lodgify", "iconUrl": null, "installs": 1, "name": "Lodgify", "ownerName": "membranedev", "score": 100000, "slug": "lodgify", "source": "clawhub", "stars": 0, "tags": null, "updated_at": 1776698869725, "version": "1.0.0"}, {"category": "", "created_at": 1774875021831, "description": "Disposable email API. Use when you need a temporary email address -- receiving mail, reading contents, extracting URLs. Triggers include \"create a temp email...", "description_zh": "", "downloads": 25, "homepage": "https://clawhub.ai/jsemldonado/agent-burner", "iconUrl": null, "installs": 0, "name": "Agent Burner", "ownerName": "jsemldonado", "score": 100000, "slug": "agent-burner", "source": "clawhub", "stars": 0, "tags": ["api", "burner", "disposable", "email", "inbox", "no-auth", "otp", "temp-mail", "verification"], "updated_at": 1776698869716, "version": "0.2.1"}, {"category": "", "created_at": 1774836370558, "description": "Coach Tinder goals with profile reviews, opener feedback, chat triage, and local experiments that improve matches and dates over time.", "description_zh": "", "downloads": 25, "homepage": "https://clawhub.ai/ivangdavila/tinder", "iconUrl": null, "installs": 0, "name": "Tinder", "ownerName": "ivangdavila", "score": 100000, "slug": "tinder", "source": "clawhub", "stars": 0, "tags": null, "updated_at": 1776698869714, "version": "1.0.0"}, {"category": "", "created_at": 1774862871611, "description": "Manual interactivo de OpenClaw con 185 fuentes curadas en NotebookLM. Pregunta sobre instalación, configuración, skills, troubleshooting, multi-agent, cron,...", "description_zh": "", "downloads": 25, "homepage": "https://clawhub.ai/radelqui/openclaw-expert-brain", "iconUrl": null, "installs": 0, "name": "OpenClaw Expert Brain", "ownerName": "radelqui", "score": 100000, "slug": "openclaw-expert-brain", "source": "clawhub", "stars": 0, "tags": null, "updated_at": 1776698869712, "version": "1.0.0"}, {"category": "", "created_at": 1774924024997, "description": "Feel awe and thrill as you burst from a castle into the vast sky, confronting the unknown in a rapid five‑step plunge. HIGH intensity, 15‑30 min, 5 steps.", "description_zh": "", "downloads": 25, "homepage": "https://clawhub.ai/driftsbot/experience-the-dragon-ride", "iconUrl": null, "installs": 0, "name": "Experience The Dragon Ride", "ownerName": "driftsbot", "score": 100000, "slug": "experience-the-dragon-ride", "source": "clawhub", "stars": 0, "tags": null, "updated_at": 1776698869709, "version": "1.0.0"}, {"category": "", "created_at": 1774945218357, "description": "Is SM buying this token on one chain but selling on another? Detect capital rotation.", "description_zh": "", "downloads": 25, "homepage": "https://clawhub.ai/nansen-devops/nansen-sm-cross-chain-flows", "iconUrl": null, "installs": 0, "name": "Nansen Sm Cross Chain Flows", "ownerName": "nansen-devops", "score": 100000, "slug": "nansen-sm-cross-chain-flows", "source": "clawhub", "stars": 0, "tags": null, "updated_at": 1776698869706, "version": "0.1.0"}, {"category": "", "created_at": 1774949445296, "description": "Analyze memory logs to detect recurring patterns and suggest automations — cron jobs, skills, or workflow shortcuts. The agent builds its own shortcuts over...", "description_zh": "", "downloads": 25, "homepage": "https://clawhub.ai/newageinvestments25-byte/nai-workflow-crystallizer", "iconUrl": null, "installs": 0, "name": "Workflow Crystallizer", "ownerName": "newageinvestments25-byte", "score": 100000, "slug": "nai-workflow-crystallizer", "source": "clawhub", "stars": 0, "tags": null, "updated_at": 1776698869702, "version": "1.1.0"}, {"category": "", "created_at": 1774919825416, "description": "Feel the lingering nostalgia of São Paulo’s golden age as twilight shadows whisper forgotten stories. Wander eight urban‑exploration steps through restored A...", "description_zh": "", "downloads": 25, "homepage": "https://clawhub.ai/driftsbot/experience-concrete-shadows-sp", "iconUrl": null, "installs": 0, "name": "Experience Concrete Shadows Sp", "ownerName": "driftsbot", "score": 100000, "slug": "experience-concrete-shadows-sp", "source": "clawhub", "stars": 0, "tags": null, "updated_at": 1776698869693, "version": "1.0.0"}, {"category": "", "created_at": 1774917128296, "description": "PepsiCo products, brands, nutrition info, stock data, and latest campaigns. Covers Pepsi, Lay's, Gatorade, Quaker, and more.", "description_zh": "", "downloads": 25, "homepage": "https://clawhub.ai/hanxueyuan/pepsi", "iconUrl": null, "installs": 0, "name": "Pepsi", "ownerName": "hanxueyuan", "score": 100000, "slug": "pepsi", "source": "clawhub", "stars": 0, "tags": null, "updated_at": 1776698869688, "version": "0.1.0"}, {"category": "", "created_at": 1774902138236, "description": "Clean up OpenClaw session storage across all agents. Removes tombstone files (.reset, .deleted, .bak), old cron session .jsonl files, orphan files, and stale...", "description_zh": "", "downloads": 25, "homepage": "https://clawhub.ai/duolahypercho/hypercho-session-cleanup", "iconUrl": null, "installs": 0, "name": "Session Cleanup (Hypercho)", "ownerName": "duolahypercho", "score": 100000, "slug": "hypercho-session-cleanup", "source": "clawhub", "stars": 0, "tags": null, "updated_at": 1776698869684, "version": "1.1.0"}, {"category": "", "created_at": 1774845239381, "description": "When the user wants to track AI search traffic in GA4 or GSC. Also use when the user mentions \"AI traffic,\" \"ChatGPT referral,\" \"Perplexity traffic,\" \"AI Ove...", "description_zh": "", "downloads": 25, "homepage": "https://clawhub.ai/kostja94/kostja94-ai-traffic-tracking", "iconUrl": null, "installs": 0, "name": "ai-traffic-tracking", "ownerName": "kostja94", "score": 100000, "slug": "kostja94-ai-traffic-tracking", "source": "clawhub", "stars": 0, "tags": null, "updated_at": 1776698869679, "version": "1.0.0"}, {"category": "", "created_at": 1774901829165, "description": "Sync any ICS/iCal calendar to Microsoft Exchange as blocked time slots — supports recurring events, change detection, and privacy-preserving sync", "description_zh": "", "downloads": 25, "homepage": "https://clawhub.ai/blucaru/block-on-exchange", "iconUrl": null, "installs": 1, "name": "ics to exchange-blocker", "ownerName": "blucaru", "score": 100000, "slug": "block-on-exchange", "source": "clawhub", "stars": 0, "tags": null, "updated_at": 1776698869676, "version": "1.0.0"}, {"category": "", "created_at": 1774886566047, "description": "Boiler efficiency and sizing tool", "description_zh": "", "downloads": 25, "homepage": "https://clawhub.ai/bytesagain3/boiler", "iconUrl": null, "installs": 0, "name": "Boiler", "ownerName": "bytesagain3", "score": 100000, "slug": "boiler", "source": "clawhub", "stars": 0, "tags": null, "updated_at": 1776698869674, "version": "1.0.0"}, {"category": "", "created_at": 1774898462249, "description": "Coordinate deep, source-verifiable research projects in OpenClaw using AgentSkills-compatible folders, local artifact tracking, and explicit evidence ledgers...", "description_zh": "", "downloads": 25, "homepage": "https://clawhub.ai/zzxx-bit/multi-agent-deep-research", "iconUrl": null, "installs": 0, "name": "multi-agent-deep-research", "ownerName": "zzxx-bit", "score": 100000, "slug": "multi-agent-deep-research", "source": "clawhub", "stars": 0, "tags": null, "updated_at": 1776698869667, "version": "1.0.0"}, {"category": "", "created_at": 1774899704323, "description": "Gladia integration. Manage data, records, and automate workflows. Use when the user wants to interact with Gladia data.", "description_zh": "", "downloads": 25, "homepage": "https://clawhub.ai/gora050/gladia", "iconUrl": null, "installs": 0, "name": "Gladia", "ownerName": "gora050", "score": 100000, "slug": "gladia", "source": "clawhub", "stars": 0, "tags": null, "updated_at": 1776698869665, "version": "1.0.0"}, {"category": "", "created_at": 1774874332323, "description": "Set up AI-powered Gmail monitoring in OpenClaw. Watches inbox via Google Pub/Sub and pushes important emails to Telegram. Use when the user wants to install...", "description_zh": "", "downloads": 25, "homepage": "https://clawhub.ai/nanaco666/openclaw-mail-agent", "iconUrl": null, "installs": 0, "name": "Mail Agent", "ownerName": "nanaco666", "score": 100000, "slug": "openclaw-mail-agent", "source": "clawhub", "stars": 0, "tags": null, "updated_at": 1776698869663, "version": "0.1.3"}, {"category": "", "created_at": 1774864875402, "description": "Run an ICP definition or refinement workshop. Use when a team needs to define who their best customers are, align sales and marketing on targeting, identify...", "description_zh": "", "downloads": 25, "homepage": "https://clawhub.ai/davidslavich/gtm-icp-definition", "iconUrl": null, "installs": 0, "name": "GTM ICP Definition", "ownerName": "davidslavich", "score": 100000, "slug": "gtm-icp-definition", "source": "clawhub", "stars": 0, "tags": null, "updated_at": 1776698869661, "version": "1.0.0"}, {"category": "", "created_at": 1774894910095, "description": "Look up an Art Blocks artist and their body of work using artblocks-mcp. Use when a user wants to find an artist, see their projects, explore an artist's por...", "description_zh": "", "downloads": 25, "homepage": "https://clawhub.ai/ryley-o/get-artist", "iconUrl": null, "installs": 0, "name": "Get Artist", "ownerName": "ryley-o", "score": 100000, "slug": "get-artist", "source": "clawhub", "stars": 0, "tags": null, "updated_at": 1776698869659, "version": "1.0.0"}, {"category": "", "created_at": 1774880179958, "description": "Proactively send messages to Feishu (Lark) users or group chats from your OpenClaw agent. Supports name-based lookup from DM contacts config, open_id, and ch...", "description_zh": "", "downloads": 25, "homepage": "https://clawhub.ai/lingzuer/feishu-dm-sender", "iconUrl": null, "installs": 0, "name": "Feishu DM Sender", "ownerName": "lingzuer", "score": 100000, "slug": "feishu-dm-sender", "source": "clawhub", "stars": 0, "tags": null, "updated_at": 1776698869656, "version": "1.0.0"}, {"category": "", "created_at": 1774925070460, "description": "Use Deside MCP for wallet-to-wallet Solana DMs, public identity lookup, and agent directory search.", "description_zh": "", "downloads": 25, "homepage": "https://clawhub.ai/desideapp/deside-messaging", "iconUrl": null, "installs": 0, "name": "Deside Messaging", "ownerName": "desideapp", "score": 100000, "slug": "deside-messaging", "source": "clawhub", "stars": 0, "tags": ["discovery", "identity", "mcp", "messaging", "solana"], "updated_at": 1776698869651, "version": "0.1.1"}, {"category": "", "created_at": 1774955170777, "description": "Feel the rush of forbidden desire and high‑stakes trust as you and your date pull off a digital heist. Six quick steps test timing, improvisation, and partne...", "description_zh": "", "downloads": 25, "homepage": "https://clawhub.ai/driftsbot/experience-the-heist", "iconUrl": null, "installs": 0, "name": "Experience The Heist", "ownerName": "driftsbot", "score": 100000, "slug": "experience-the-heist", "source": "clawhub", "stars": 0, "tags": null, "updated_at": 1776698869642, "version": "1.0.0"}, {"category": "", "created_at": 1774903990241, "description": "Use when an agent needs to score itself or another agent with the Agent Spectrum six-axis framework, run the quick or deep edition, identify the resulting ty...", "description_zh": "", "downloads": 25, "homepage": "https://clawhub.ai/hzz780/agent-spectrum", "iconUrl": null, "installs": 0, "name": "Agent Spectrum", "ownerName": "hzz780", "score": 100000, "slug": "agent-spectrum", "source": "clawhub", "stars": 0, "tags": null, "updated_at": 1776698869640, "version": "0.1.0"}, {"category": "", "created_at": 1774900542147, "description": "Assess third-party vendor risk for AI and SaaS products. Evaluates security posture, data handling, compliance, financial stability, and operational resilien...", "description_zh": "", "downloads": 25, "homepage": "https://clawhub.ai/afrexai-cto/afrexai-vendor-risk-assessment", "iconUrl": null, "installs": 0, "name": "Vendor Risk Assessment", "ownerName": "afrexai-cto", "score": 100000, "slug": "afrexai-vendor-risk-assessment", "source": "clawhub", "stars": 0, "tags": null, "updated_at": 1776698869638, "version": "1.0.1"}, {"category": "", "created_at": 1774955186900, "description": "Practical fire building, management, and safety skills. Use when someone needs to build a campfire, use a fireplace safely, learn to grill, or needs fire eme...", "description_zh": "", "downloads": 25, "homepage": "https://clawhub.ai/howtousehumans/fire-skills", "iconUrl": null, "installs": 0, "name": "Fire Skills", "ownerName": "howtousehumans", "score": 100000, "slug": "fire-skills", "source": "clawhub", "stars": 0, "tags": null, "updated_at": 1776698869635, "version": "1.0.0"}, {"category": "", "created_at": 1774953190244, "description": "Build a HubSpot workflow that auto-enriches and stages new contacts upon creation. Sets lifecycle stage, copies company name and industry from associated com...", "description_zh": "", "downloads": 25, "homepage": "https://clawhub.ai/tomgranot/new-contact-hygiene-workflow", "iconUrl": null, "installs": 0, "name": "New Contact Hygiene Workflow", "ownerName": "tomgranot", "score": 100000, "slug": "new-contact-hygiene-workflow", "source": "clawhub", "stars": 0, "tags": null, "updated_at": 1776698869633, "version": "1.0.0"}, {"category": "", "created_at": 1774952374673, "description": "Run speed tests to multiple endpoints, log results, and detect ISP throttling patterns. Use when the user mentions speed test, internet slow, ISP throttling,...", "description_zh": "", "downloads": 25, "homepage": "https://clawhub.ai/newageinvestments25-byte/nai-isp-throttle-detective", "iconUrl": null, "installs": 0, "name": "Isp Throttle Detective", "ownerName": "newageinvestments25-byte", "score": 100000, "slug": "nai-isp-throttle-detective", "source": "clawhub", "stars": 0, "tags": null, "updated_at": 1776698869624, "version": "1.0.0"}, {"category": "", "created_at": 1774920292730, "description": "Create, update, validate, or troubleshoot automated git backup workflows for OpenClaw repositories. Use when a user wants a scheduled commit-and-push backup...", "description_zh": "", "downloads": 25, "homepage": "https://clawhub.ai/blacktor-tor/openclaw-git-backup", "iconUrl": null, "installs": 1, "name": "OpenClaw Git Backup", "ownerName": "blacktor-tor", "score": 100000, "slug": "openclaw-git-backup", "source": "clawhub", "stars": 0, "tags": null, "updated_at": 1776698869617, "version": "0.1.0"}]}