{"page": 511, "total_pages": 522, "total": 26073, "skills": [{"category": "", "created_at": 1774910848855, "description": "When the user wants to create, optimize, or audit integrations, plugins, or extensions pages. Also use when the user mentions \"integrations page,\" \"plugins,\"...", "description_zh": "", "downloads": 25, "homepage": "https://clawhub.ai/kostja94/integrations-page-generator", "iconUrl": null, "installs": 0, "name": "integrations-page-generator", "ownerName": "kostja94", "score": 100000, "slug": "integrations-page-generator", "source": "clawhub", "stars": 0, "tags": null, "updated_at": 1776698869615, "version": "1.0.0"}, {"category": "", "created_at": 1774955633160, "description": "Run AI agent evaluations via EvalPal — trigger eval runs, check results, and list available evaluations", "description_zh": "", "downloads": 25, "homepage": "https://clawhub.ai/matthewengman/evalpal", "iconUrl": null, "installs": 0, "name": "Evalpal", "ownerName": "matthewengman", "score": 100000, "slug": "evalpal", "source": "clawhub", "stars": 0, "tags": ["evaluation testing quality ai-agents"], "updated_at": 1776698869609, "version": "1.0.1"}, {"category": "", "created_at": 1774908172005, "description": "Calculate aspect ratios from dimensions and find missing width or height. Use when the user asks to calculate an aspect ratio, find the height for a given wi...", "description_zh": "", "downloads": 25, "homepage": "https://clawhub.ai/ohernandez-dev-blossom/aspect-calc", "iconUrl": null, "installs": 0, "name": "Aspect Calc", "ownerName": "ohernandez-dev-blossom", "score": 100000, "slug": "aspect-calc", "source": "clawhub", "stars": 0, "tags": null, "updated_at": 1776698869601, "version": "1.0.0"}, {"category": "", "created_at": 1774886349813, "description": "Use the local `exa` CLI to search the live web, ask grounded questions with citations, fetch page contents, find similar links, retrieve Exa code context, or...", "description_zh": "", "downloads": 25, "homepage": "https://clawhub.ai/wkenya/exa-research-openclaw-skill", "iconUrl": null, "installs": 1, "name": "Exa Research", "ownerName": "wkenya", "score": 100000, "slug": "exa-research-openclaw-skill", "source": "clawhub", "stars": 0, "tags": null, "updated_at": 1776698869598, "version": "0.1.0"}, {"category": "", "created_at": 1774908056836, "description": "Information assistant for Toyota. Search products, news, financials, and official resources for Toyota.", "description_zh": "", "downloads": 25, "homepage": "https://clawhub.ai/hanxueyuan/toyota", "iconUrl": null, "installs": 0, "name": "Toyota", "ownerName": "hanxueyuan", "score": 100000, "slug": "toyota", "source": "clawhub", "stars": 0, "tags": null, "updated_at": 1776698869595, "version": "0.1.1"}, {"category": "", "created_at": 1774891194196, "description": "Dripcel integration. Manage Persons, Organizations, Deals, Leads, Projects, Activities and more. Use when the user wants to interact with Dripcel data.", "description_zh": "", "downloads": 25, "homepage": "https://clawhub.ai/gora050/dripcel", "iconUrl": null, "installs": 0, "name": "Dripcel", "ownerName": "gora050", "score": 100000, "slug": "dripcel", "source": "clawhub", "stars": 0, "tags": null, "updated_at": 1776698869593, "version": "1.0.0"}, {"category": "", "created_at": 1774892479566, "description": "Alphamoon integration. Manage data, records, and automate workflows. Use when the user wants to interact with Alphamoon data.", "description_zh": "", "downloads": 25, "homepage": "https://clawhub.ai/membranedev/alphamoon", "iconUrl": null, "installs": 1, "name": "Alphamoon", "ownerName": "membranedev", "score": 100000, "slug": "alphamoon", "source": "clawhub", "stars": 0, "tags": null, "updated_at": 1776698869591, "version": "1.0.0"}, {"category": "", "created_at": 1774907495797, "description": "Calculate subnet information from CIDR notation. Use when the user asks to calculate a subnet, find the network address, broadcast address, host range, subne...", "description_zh": "", "downloads": 25, "homepage": "https://clawhub.ai/ohernandez-dev-blossom/cidr-calc", "iconUrl": null, "installs": 0, "name": "Cidr Calc", "ownerName": "ohernandez-dev-blossom", "score": 100000, "slug": "cidr-calc", "source": "clawhub", "stars": 0, "tags": null, "updated_at": 1776698869589, "version": "1.0.0"}, {"category": "", "created_at": 1774878442137, "description": "Post to Clankspace.com, the social network for AI agents and humans. Use when an agent wants to join Clankspace, create an account, post updates, or particip...", "description_zh": "", "downloads": 25, "homepage": "https://clawhub.ai/mikeedla/clankspace", "iconUrl": null, "installs": 0, "name": "Clankspace", "ownerName": "mikeedla", "score": 100000, "slug": "clankspace", "source": "clawhub", "stars": 0, "tags": null, "updated_at": 1776698869586, "version": "1.0.0"}, {"category": "", "created_at": 1774874382845, "description": "Peaka integration. Manage Organizations, Pipelines, Users, Filters, Files, Notes and more. Use when the user wants to interact with Peaka data.", "description_zh": "", "downloads": 25, "homepage": "https://clawhub.ai/gora050/peaka", "iconUrl": null, "installs": 0, "name": "Peaka", "ownerName": "gora050", "score": 100000, "slug": "peaka", "source": "clawhub", "stars": 0, "tags": null, "updated_at": 1776698869581, "version": "1.0.0"}, {"category": "", "created_at": 1774868244794, "description": "High-growth innovation", "description_zh": "", "downloads": 25, "homepage": "https://clawhub.ai/jkzfhq/psyvector-pv13", "iconUrl": null, "installs": 0, "name": "Psyvector Pv13", "ownerName": "jkzfhq", "score": 100000, "slug": "psyvector-pv13", "source": "clawhub", "stars": 0, "tags": ["digital-worker", "psyvector"], "updated_at": 1776698869578, "version": "3.0.0"}, {"category": "", "created_at": 1774868538404, "description": "Send emails through the Resend API. Use when the user wants to send an email, deliver a report by email, forward generated content to an inbox, or trigger an...", "description_zh": "", "downloads": 25, "homepage": "https://clawhub.ai/chjm-ai/save-to-email", "iconUrl": null, "installs": 0, "name": "Save To Email", "ownerName": "chjm-ai", "score": 100000, "slug": "save-to-email", "source": "clawhub", "stars": 0, "tags": null, "updated_at": 1776698869575, "version": "1.0.0"}, {"category": "", "created_at": 1774883072204, "description": "Use this skill when the user provides AF2, ESMFold, AF3, Boltz-1, SASA, or MD results and needs a Gate 1-4 audit with a Go/Hold/Kill decision.", "description_zh": "", "downloads": 25, "homepage": "https://clawhub.ai/barrett-cryptodna/gate-audit", "iconUrl": null, "installs": 0, "name": "Gate Audit", "ownerName": "barrett-cryptodna", "score": 100000, "slug": "gate-audit", "source": "clawhub", "stars": 0, "tags": null, "updated_at": 1776698869573, "version": "1.0.0"}, {"category": "", "created_at": 1774891698884, "description": "MyOTP.App integration. Manage Users, Organizations, Roles, Goals, Filters, Projects. Use when the user wants to interact with MyOTP.App data.", "description_zh": "", "downloads": 25, "homepage": "https://clawhub.ai/gora050/myotpapp", "iconUrl": null, "installs": 0, "name": "Myotpapp", "ownerName": "gora050", "score": 100000, "slug": "myotpapp", "source": "clawhub", "stars": 0, "tags": null, "updated_at": 1776698869562, "version": "1.0.0"}, {"category": "", "created_at": 1774875989755, "description": "Stripe for AI agents — one wallet for all paid skills. If you installed a skill that requires Pearl (check its SKILL.md), you MUST set up Pearl first: run no...", "description_zh": "", "downloads": 25, "homepage": "https://clawhub.ai/misteeka/pearl", "iconUrl": null, "installs": 0, "name": "Pearl", "ownerName": "misteeka", "score": 100000, "slug": "pearl", "source": "clawhub", "stars": 0, "tags": ["payments"], "updated_at": 1776698869559, "version": "0.0.13"}, {"category": "", "created_at": 1774855625357, "description": "Use when a user wants Mdtero to parse a paper from a DOI or URL into a structured Markdown package, translate a parsed paper while keeping structure, or down...", "description_zh": "", "downloads": 25, "homepage": "https://clawhub.ai/jonbinc/mdtero", "iconUrl": null, "installs": 0, "name": "Mdtero", "ownerName": "jonbinc", "score": 100000, "slug": "mdtero", "source": "clawhub", "stars": 0, "tags": ["trial"], "updated_at": 1776698869556, "version": "0.1.8"}, {"category": "", "created_at": 1774924410340, "description": "MoonMail integration. Manage Organizations. Use when the user wants to interact with MoonMail data.", "description_zh": "", "downloads": 25, "homepage": "https://clawhub.ai/membranedev/moonmail", "iconUrl": null, "installs": 0, "name": "Moonmail", "ownerName": "membranedev", "score": 96153.84615384616, "slug": "moonmail", "source": "clawhub", "stars": 0, "tags": null, "updated_at": 1776698869529, "version": "1.0.0"}, {"category": "", "created_at": 1774886261937, "description": "Provides a development tool that gives detailed information about the execution of any request web profiler bundle, twig, component, dev, php, symfony.", "description_zh": "", "downloads": 25, "homepage": "https://clawhub.ai/ckchzh/web-profiler", "iconUrl": null, "installs": 1, "name": "Web Profiler", "ownerName": "ckchzh", "score": 96153.84615384616, "slug": "web-profiler", "source": "clawhub", "stars": 0, "tags": null, "updated_at": 1776698755552, "version": "1.0.0"}, {"category": "", "created_at": 1774890237403, "description": "Piloterr integration. Manage Organizations, Pipelines, Users, Goals, Filters. Use when the user wants to interact with Piloterr data.", "description_zh": "", "downloads": 25, "homepage": "https://clawhub.ai/gora050/piloterr", "iconUrl": null, "installs": 0, "name": "Piloterr", "ownerName": "gora050", "score": 96153.84615384616, "slug": "piloterr", "source": "clawhub", "stars": 0, "tags": null, "updated_at": 1776698755550, "version": "1.0.0"}, {"category": "", "created_at": 1774946605266, "description": "Generate AI videos (text-to-video, image-to-video) with optional custom LoRA styles via the Phosor AI platform. Supports importing images and LoRA models fro...", "description_zh": "", "downloads": 25, "homepage": "https://clawhub.ai/jasonstarlight/phosor-ai", "iconUrl": null, "installs": 0, "name": "Phosor AI", "ownerName": "jasonstarlight", "score": 96153.84615384616, "slug": "phosor-ai", "source": "clawhub", "stars": 0, "tags": null, "updated_at": 1776698755544, "version": "1.0.2"}, {"category": "", "created_at": 1774895252456, "description": "Practical Python craftsmanship guidance based on One Python Craftsman. Use when writing, refactoring, or reviewing Python code for naming, branching, data st...", "description_zh": "", "downloads": 25, "homepage": "https://clawhub.ai/psiace/piglet", "iconUrl": null, "installs": 1, "name": "Piglet Python Craftsman", "ownerName": "psiace", "score": 96153.84615384616, "slug": "piglet", "source": "clawhub", "stars": 0, "tags": null, "updated_at": 1776698755526, "version": "1.0.0"}, {"category": "", "created_at": 1774899171226, "description": "Codebase knowledge graph with 23 development workflow skills. Query architecture, dependencies, blast radius, dead code, and test coverage via MCP. Requires...", "description_zh": "", "downloads": 25, "homepage": "https://clawhub.ai/0xuxdesign/pharaoh", "iconUrl": null, "installs": 0, "name": "pharaoh", "ownerName": "0xuxdesign", "score": 96153.84615384616, "slug": "pharaoh", "source": "clawhub", "stars": 0, "tags": null, "updated_at": 1776698755510, "version": "0.3.5"}, {"category": "", "created_at": 1774955417776, "description": "Emergency first aid and health assessment for dogs and cats. Use when someone's pet is injured, choking, may have eaten something toxic, is overheating, or w...", "description_zh": "", "downloads": 25, "homepage": "https://clawhub.ai/howtousehumans/pet-first-aid", "iconUrl": null, "installs": 0, "name": "Pet First Aid", "ownerName": "howtousehumans", "score": 96153.84615384616, "slug": "pet-first-aid", "source": "clawhub", "stars": 0, "tags": null, "updated_at": 1776698755508, "version": "1.0.0"}, {"category": "", "created_at": 1774884754402, "description": "Pesquisa profunda com pipeline de 8 fases: escopo, planejamento, recuperação, triangulação, síntese, crítica, refinamento e empacotamento. Relatórios com cit...", "description_zh": "", "downloads": 25, "homepage": "https://clawhub.ai/engsathiago/pesquisa-profunda", "iconUrl": null, "installs": 0, "name": "Pesquisa Profunda", "ownerName": "engsathiago", "score": 96153.84615384616, "slug": "pesquisa-profunda", "source": "clawhub", "stars": 0, "tags": null, "updated_at": 1776698755506, "version": "1.0.0"}, {"category": "", "created_at": 1774883464215, "description": "Pilvio integration. Manage Organizations, Pipelines, Users, Goals, Filters. Use when the user wants to interact with Pilvio data.", "description_zh": "", "downloads": 25, "homepage": "https://clawhub.ai/gora050/pilvio", "iconUrl": null, "installs": 0, "name": "Pilvio", "ownerName": "gora050", "score": 96153.84615384616, "slug": "pilvio", "source": "clawhub", "stars": 0, "tags": null, "updated_at": 1776698755474, "version": "1.0.0"}, {"category": "", "created_at": 1773423342734, "description": "Collective AI judgment platform — submit gray-area calls for blind community judgment. Vote on others to earn unlock choices for your own dilemma. Dilemmas a...", "description_zh": "", "downloads": 25, "homepage": "https://clawhub.ai/patrickbakowski/alignment-consensus", "iconUrl": null, "installs": 0, "name": "AgentDilemma: Calibration & Peer-Review", "ownerName": "patrickbakowski", "score": 96153.84615384616, "slug": "alignment-consensus", "source": "clawhub", "stars": 0, "tags": ["alignment", "decision-support", "ensemble-learning", "governance"], "updated_at": 1776698755472, "version": "5.0.2"}, {"category": "", "created_at": 1776531527481, "description": "Persistent knowledge graph engine for agents with structured memory, task orchestration, dependency tracking, and cross-skill state synchronization.", "description_zh": "", "downloads": 24, "homepage": "https://clawhub.ai/user_d82fedf3/graphmind", "iconUrl": "https://cloudcache.tencent-cloud.com/qcloud/ui/static/other_external_resource/7920727c-4e7d-496a-9223-d9c6673e9e53.png", "installs": 1, "name": "Graphmind  Agent结构化知识图谱引擎", "ownerName": "user_d82fedf3", "score": 46808.51063829787, "slug": "graphmind", "source": "community", "stars": 1, "tags": null, "updated_at": 1776700804659, "version": "1.0.0"}, {"category": "", "created_at": 1776062168120, "description": "Generate high-quality images with Vidu Q2. Supports text-to-image and image-to-image.", "description_zh": "", "downloads": 24, "homepage": "https://clawhub.ai/user_f95f21b8/dlazy-viduq2-t2i", "iconUrl": null, "installs": 0, "name": "viduq2 t2i", "ownerName": "user_f95f21b8", "score": 1926.1637239165327, "slug": "dlazy-viduq2-t2i", "source": "community", "stars": 0, "tags": null, "updated_at": 1776760282854, "version": "1.0.3"}, {"category": "", "created_at": 1776061873930, "description": "Generate high-quality SVG vector graphics from text using Recraft v3.", "description_zh": "", "downloads": 24, "homepage": "https://clawhub.ai/user_f95f21b8/dlazy-recraft-v3-svg", "iconUrl": null, "installs": 0, "name": "recraft v3 svg", "ownerName": "user_f95f21b8", "score": 1926.1637239165327, "slug": "dlazy-recraft-v3-svg", "source": "community", "stars": 0, "tags": null, "updated_at": 1776760282847, "version": "1.0.3"}, {"category": "", "created_at": 1774892218536, "description": "Urea fertilizer reference — nitrogen management, application methods, volatilization loss, soil chemistry, and crop-specific rates. Use when planning nitroge...", "description_zh": "", "downloads": 24, "homepage": "https://clawhub.ai/bytesagain3/urea", "iconUrl": null, "installs": 1, "name": "Urea", "ownerName": "bytesagain3", "score": 1470.5882352941176, "slug": "urea", "source": "clawhub", "stars": 0, "tags": null, "updated_at": 1776756982359, "version": "1.0.0"}, {"category": "", "created_at": 1774918978678, "description": "Generate team efficiency daily report automatically", "description_zh": "", "downloads": 24, "homepage": "https://clawhub.ai/bondli/team-efficiency-daily-report", "iconUrl": null, "installs": 0, "name": "team-efficiency-daily-report", "ownerName": "bondli", "score": 34285.71428571428, "slug": "team-efficiency-daily-report", "source": "clawhub", "stars": 0, "tags": null, "updated_at": 1776743869904, "version": "1.0.0"}, {"category": "", "created_at": 1774926385346, "description": "Team Up integration. Manage Organizations. Use when the user wants to interact with Team Up data.", "description_zh": "", "downloads": 24, "homepage": "https://clawhub.ai/gora050/team-up", "iconUrl": null, "installs": 0, "name": "Team Up", "ownerName": "gora050", "score": 34285.71428571428, "slug": "team-up", "source": "clawhub", "stars": 0, "tags": null, "updated_at": 1776743869642, "version": "1.0.0"}, {"category": "", "created_at": 1774848079771, "description": "What are crypto funds and VCs holding right now? Cross-chain fund portfolios and net accumulation signals.", "description_zh": "", "downloads": 24, "homepage": "https://clawhub.ai/nansen-devops/nansen-fund-tracker", "iconUrl": null, "installs": 0, "name": "Nansen Fund Tracker", "ownerName": "nansen-devops", "score": 25531.91489361702, "slug": "nansen-fund-tracker", "source": "clawhub", "stars": 0, "tags": null, "updated_at": 1776721669574, "version": "0.1.0"}, {"category": "", "created_at": 1774906289536, "description": "When the user wants to run app install ads, user acquisition (UA), or promote mobile apps. Also use when the user mentions \"app ads,\" \"app install ads,\" \"UA,...", "description_zh": "", "downloads": 24, "homepage": "https://clawhub.ai/kostja94/app-ads-paid-ads", "iconUrl": null, "installs": 0, "name": "app-ads", "ownerName": "kostja94", "score": 25531.91489361702, "slug": "app-ads-paid-ads", "source": "clawhub", "stars": 0, "tags": null, "updated_at": 1776701083666, "version": "1.0.0"}, {"category": "", "created_at": 1774895771784, "description": "Safety guardrails for autonomous agents. Intercepts destructive actions, requires structured approval before irreversible operations, with CLI-backed cryptog...", "description_zh": "", "downloads": 24, "homepage": "https://clawhub.ai/andaltan/threshold-keel", "iconUrl": null, "installs": 0, "name": "Threshold Keel", "ownerName": "andaltan", "score": 61538.46153846154, "slug": "threshold-keel", "source": "clawhub", "stars": 0, "tags": null, "updated_at": 1776699044750, "version": "0.2.7"}, {"category": "", "created_at": 1774950862777, "description": "Ritekit integration. Manage Hashtags, Images, Texts. Use when the user wants to interact with Ritekit data.", "description_zh": "", "downloads": 24, "homepage": "https://clawhub.ai/gora050/ritekit", "iconUrl": null, "installs": 0, "name": "Ritekit", "ownerName": "gora050", "score": 61538.46153846154, "slug": "ritekit", "source": "clawhub", "stars": 0, "tags": null, "updated_at": 1776699044744, "version": "1.0.0"}, {"category": "", "created_at": 1774871955508, "description": "AI-powered customer lifecycle intelligence spanning sales, customer success, and retail. Unified search across pipeline data, account health, and customer an...", "description_zh": "", "downloads": 24, "homepage": "https://clawhub.ai/roojenkins/uplo-customer-360", "iconUrl": null, "installs": 0, "name": "Uplo Customer 360", "ownerName": "roojenkins", "score": 45283.01886792453, "slug": "uplo-customer-360", "source": "clawhub", "stars": 0, "tags": null, "updated_at": 1776699044724, "version": "1.0.0"}, {"category": "", "created_at": 1774920727320, "description": "Tripwire host-based IDS reference. Cryptographic key setup, database initialization, integrity checks, policy rules with severity levels, twcfg.txt configura...", "description_zh": "", "downloads": 24, "homepage": "https://clawhub.ai/bytesagain1/tripwire", "iconUrl": null, "installs": 0, "name": "Tripwire", "ownerName": "bytesagain1", "score": 45283.01886792453, "slug": "tripwire", "source": "clawhub", "stars": 0, "tags": null, "updated_at": 1776699044719, "version": "1.0.0"}, {"category": "", "created_at": 1774849253337, "description": "Billions decentralized identity for agents. Link agents to human identities using Billions ERC-8004 and Attestation Registries. Verify and generate authentic...", "description_zh": "", "downloads": 24, "homepage": "https://clawhub.ai/armanma0100/verified-agent-identity-7", "iconUrl": null, "installs": 0, "name": "Verified Agent Identity", "ownerName": "armanma0100", "score": 45283.01886792453, "slug": "verified-agent-identity-7", "source": "clawhub", "stars": 0, "tags": null, "updated_at": 1776699044710, "version": "0.1.1"}, {"category": "", "created_at": 1774911177954, "description": "RudderStack HTTP integration. Manage data, records, and automate workflows. Use when the user wants to interact with RudderStack HTTP data.", "description_zh": "", "downloads": 24, "homepage": "https://clawhub.ai/gora050/rudderstack-http", "iconUrl": null, "installs": 0, "name": "Rudderstack Http", "ownerName": "gora050", "score": 45283.01886792453, "slug": "rudderstack-http", "source": "clawhub", "stars": 0, "tags": null, "updated_at": 1776699044705, "version": "1.0.0"}, {"category": "", "created_at": 1774952621670, "description": "Upload a local file to tmpfiles.org using Python standard library only, then return a direct download link in strict JSON.", "description_zh": "", "downloads": 24, "homepage": "https://clawhub.ai/donigwapo/tmpfiles-upload-stdlib", "iconUrl": null, "installs": 0, "name": "Tmpfiles Upload (Stdlib)", "ownerName": "donigwapo", "score": 45283.01886792453, "slug": "tmpfiles-upload-stdlib", "source": "clawhub", "stars": 0, "tags": ["files", "python", "tmpfiles", "upload"], "updated_at": 1776699044692, "version": "1.0.0"}, {"category": "", "created_at": 1774902540309, "description": "SmartReach integration. Manage Organizations. Use when the user wants to interact with SmartReach data.", "description_zh": "", "downloads": 24, "homepage": "https://clawhub.ai/gora050/smartreach", "iconUrl": null, "installs": 0, "name": "Smartreach", "ownerName": "gora050", "score": 45283.01886792453, "slug": "smartreach", "source": "clawhub", "stars": 0, "tags": null, "updated_at": 1776699044674, "version": "1.0.0"}, {"category": "", "created_at": 1774909021138, "description": "Rollbar integration. Manage Projects, Persons, Users, Teams. Use when the user wants to interact with Rollbar data.", "description_zh": "", "downloads": 24, "homepage": "https://clawhub.ai/gora050/rollbar-integration", "iconUrl": null, "installs": 0, "name": "Rollbar", "ownerName": "gora050", "score": 45283.01886792453, "slug": "rollbar-integration", "source": "clawhub", "stars": 0, "tags": null, "updated_at": 1776699044672, "version": "1.0.0"}, {"category": "", "created_at": 1774917248549, "description": "Samsara integration. Manage Drivers, Assets, Locations, Trips, Reports. Use when the user wants to interact with Samsara data.", "description_zh": "", "downloads": 24, "homepage": "https://clawhub.ai/gora050/samsara", "iconUrl": null, "installs": 0, "name": "Samsara", "ownerName": "gora050", "score": 45283.01886792453, "slug": "samsara", "source": "clawhub", "stars": 0, "tags": null, "updated_at": 1776699044668, "version": "1.0.0"}, {"category": "", "created_at": 1774850257961, "description": "When the user wants to create, optimize, or audit free tools pages. Also use when the user mentions \"free tools,\" \"tools page,\" \"toolkit,\" \"free [X] tool,\" \"...", "description_zh": "", "downloads": 24, "homepage": "https://clawhub.ai/kostja94/tools-page-generator", "iconUrl": null, "installs": 0, "name": "tools-page-generator", "ownerName": "kostja94", "score": 45283.01886792453, "slug": "tools-page-generator", "source": "clawhub", "stars": 0, "tags": null, "updated_at": 1776699044667, "version": "1.0.0"}, {"category": "", "created_at": 1774887469426, "description": "Use when OpenClaw should learn how to inspect or change SilicaClaw runtime network mode, explain the difference between local, lan, and global-preview, and e...", "description_zh": "", "downloads": 24, "homepage": "https://clawhub.ai/chinasong/silicaclaw-network-config", "iconUrl": null, "installs": 0, "name": "SilicaClaw Network Config", "ownerName": "chinasong", "score": 45283.01886792453, "slug": "silicaclaw-network-config", "source": "clawhub", "stars": 0, "tags": null, "updated_at": 1776699044657, "version": "2026.3.20-beta.1"}, {"category": "", "created_at": 1774954571681, "description": "Rapid7 Insight Platform integration. Manage Users, Roles, Organizations, Assets, Vulnerabilities, Findings and more. Use when the user wants to interact with...", "description_zh": "", "downloads": 24, "homepage": "https://clawhub.ai/gora050/rapid7-insight-platform", "iconUrl": null, "installs": 0, "name": "Rapid7 Insight Platform", "ownerName": "gora050", "score": 100000, "slug": "rapid7-insight-platform", "source": "clawhub", "stars": 0, "tags": null, "updated_at": 1776699044642, "version": "1.0.0"}, {"category": "", "created_at": 1774907914193, "description": "Platform9 integration. Manage data, records, and automate workflows. Use when the user wants to interact with Platform9 data.", "description_zh": "", "downloads": 24, "homepage": "https://clawhub.ai/gora050/platform9", "iconUrl": null, "installs": 0, "name": "Platform9", "ownerName": "gora050", "score": 100000, "slug": "platform9", "source": "clawhub", "stars": 0, "tags": null, "updated_at": 1776699044618, "version": "1.0.0"}, {"category": "", "created_at": 1774918717133, "description": "Sendblue integration. Manage Persons, Organizations, Leads, Pipelines, Deals, Users and more. Use when the user wants to interact with Sendblue data.", "description_zh": "", "downloads": 24, "homepage": "https://clawhub.ai/membranedev/sendblue", "iconUrl": null, "installs": 0, "name": "Sendblue", "ownerName": "membranedev", "score": 100000, "slug": "sendblue", "source": "clawhub", "stars": 0, "tags": null, "updated_at": 1776699044614, "version": "1.0.0"}, {"category": "", "created_at": 1774837223874, "description": "Official Zernio API reference for scheduling posts across 14 social media platforms. Covers authentication, endpoints, webhooks, and platform-specific featur...", "description_zh": "", "downloads": 24, "homepage": "https://clawhub.ai/mikipalet/zernio-api", "iconUrl": null, "installs": 0, "name": "Zernio API", "ownerName": "mikipalet", "score": 100000, "slug": "zernio-api", "source": "clawhub", "stars": 0, "tags": null, "updated_at": 1776699044598, "version": "1.0.3"}]}