{"page": 512, "total_pages": 522, "total": 26073, "skills": [{"category": "", "created_at": 1774910067451, "description": "Design controlled continuation loops for long-running projects. Use when a task is too large for one session, benefits from periodic wake-ups, and needs expl...", "description_zh": "", "downloads": 24, "homepage": "https://clawhub.ai/daowuu/project-heartbeat", "iconUrl": null, "installs": 0, "name": "Project Heartbeat", "ownerName": "daowuu", "score": 82758.62068965517, "slug": "project-heartbeat", "source": "clawhub", "stars": 0, "tags": null, "updated_at": 1776699044556, "version": "0.4.1"}, {"category": "", "created_at": 1774953123746, "description": "Metriql Docs integration. Manage data, records, and automate workflows. Use when the user wants to interact with Metriql Docs data.", "description_zh": "", "downloads": 24, "homepage": "https://clawhub.ai/gora050/metriql-docs", "iconUrl": null, "installs": 0, "name": "Metriql Docs", "ownerName": "gora050", "score": 82758.62068965517, "slug": "metriql-docs", "source": "clawhub", "stars": 0, "tags": null, "updated_at": 1776699044554, "version": "1.0.0"}, {"category": "", "created_at": 1774900133797, "description": "Qntrl integration. Manage Organizations, Pipelines, Users, Goals, Filters. Use when the user wants to interact with Qntrl data.", "description_zh": "", "downloads": 24, "homepage": "https://clawhub.ai/gora050/qntrl", "iconUrl": null, "installs": 0, "name": "Qntrl", "ownerName": "gora050", "score": 82758.62068965517, "slug": "qntrl", "source": "clawhub", "stars": 0, "tags": null, "updated_at": 1776699044548, "version": "1.0.0"}, {"category": "", "created_at": 1774955450739, "description": "Get-started-fast guides for accessible physical instruments. Use when someone wants to learn an instrument, needs a stress relief practice, wants to play mus...", "description_zh": "", "downloads": 24, "homepage": "https://clawhub.ai/howtousehumans/play-physical-instrument", "iconUrl": null, "installs": 0, "name": "Play Physical Instrument", "ownerName": "howtousehumans", "score": 82758.62068965517, "slug": "play-physical-instrument", "source": "clawhub", "stars": 0, "tags": null, "updated_at": 1776699044531, "version": "1.0.0"}, {"category": "", "created_at": 1774901286855, "description": "Range integration. Manage Workspaces. Use when the user wants to interact with Range data.", "description_zh": "", "downloads": 24, "homepage": "https://clawhub.ai/gora050/range", "iconUrl": null, "installs": 1, "name": "Range", "ownerName": "gora050", "score": 82758.62068965517, "slug": "range", "source": "clawhub", "stars": 0, "tags": null, "updated_at": 1776699044520, "version": "1.0.0"}, {"category": "", "created_at": 1774879193239, "description": "Manage your API's economic firewall from the terminal. Mint tokens, check status, validate tokens, wrap agent commands. The server-side counterpart to lnget.", "description_zh": "", "downloads": 24, "homepage": "https://clawhub.ai/wmattadeen-gif/satgate-cli", "iconUrl": null, "installs": 0, "name": "Satgate", "ownerName": "wmattadeen-gif", "score": 82758.62068965517, "slug": "satgate-cli", "source": "clawhub", "stars": 0, "tags": null, "updated_at": 1776699044514, "version": "2.0.0"}, {"category": "", "created_at": 1774837284753, "description": "Trade Polymarket 5-minute crypto fast markets using 1-minute candle body analysis and volume surge detection from Binance. Scans BTC, ETH, SOL, XRP, BNB simu...", "description_zh": "", "downloads": 24, "homepage": "https://clawhub.ai/mibayy/polymarket-candle-momentum", "iconUrl": null, "installs": 0, "name": "Polymarket Candle Momentum", "ownerName": "mibayy", "score": 30769.23076923077, "slug": "polymarket-candle-momentum", "source": "clawhub", "stars": 0, "tags": null, "updated_at": 1776699044502, "version": "2.0.0"}, {"category": "", "created_at": 1774956597347, "description": "PractiTest integration. Manage Projects. Use when the user wants to interact with PractiTest data.", "description_zh": "", "downloads": 24, "homepage": "https://clawhub.ai/gora050/practitest", "iconUrl": null, "installs": 0, "name": "Practitest", "ownerName": "gora050", "score": 30769.23076923077, "slug": "practitest", "source": "clawhub", "stars": 0, "tags": null, "updated_at": 1776699044498, "version": "1.0.0"}, {"category": "", "created_at": 1774874576854, "description": "A red-team advisor that challenges assumptions, stress-tests ideas, and gives brutally honest GO/NO-GO feedback. Use when evaluating business ideas, workflow...", "description_zh": "", "downloads": 24, "homepage": "https://clawhub.ai/mpbshhx/ruthless-mentor", "iconUrl": null, "installs": 0, "name": "Ruthless Mentor", "ownerName": "mpbshhx", "score": 30769.23076923077, "slug": "ruthless-mentor", "source": "clawhub", "stars": 0, "tags": null, "updated_at": 1776699044485, "version": "1.0.0"}, {"category": "", "created_at": 1774885995977, "description": "SauceLabs integration. Manage Users, Organizations, Files, Notes, Activities. Use when the user wants to interact with SauceLabs data.", "description_zh": "", "downloads": 24, "homepage": "https://clawhub.ai/gora050/saucelabs", "iconUrl": null, "installs": 0, "name": "Saucelabs", "ownerName": "gora050", "score": 30769.23076923077, "slug": "saucelabs", "source": "clawhub", "stars": 0, "tags": null, "updated_at": 1776699044483, "version": "1.0.0"}, {"category": "", "created_at": 1774914724511, "description": "Pumble integration. Manage Workspaces. Use when the user wants to interact with Pumble data.", "description_zh": "", "downloads": 24, "homepage": "https://clawhub.ai/membranedev/pumble", "iconUrl": null, "installs": 0, "name": "Pumble", "ownerName": "membranedev", "score": 30769.23076923077, "slug": "pumble", "source": "clawhub", "stars": 0, "tags": null, "updated_at": 1776699044476, "version": "1.0.0"}, {"category": "", "created_at": 1774952503324, "description": "Pitchlane integration. Manage Organizations. Use when the user wants to interact with Pitchlane data.", "description_zh": "", "downloads": 24, "homepage": "https://clawhub.ai/membranedev/pitchlane", "iconUrl": null, "installs": 0, "name": "Pitchlane", "ownerName": "membranedev", "score": 30769.23076923077, "slug": "pitchlane", "source": "clawhub", "stars": 0, "tags": null, "updated_at": 1776699044462, "version": "1.0.0"}, {"category": "", "created_at": 1774909050172, "description": "SegMetrics integration. Manage Persons, Organizations, Deals, Leads, Projects, Activities and more. Use when the user wants to interact with SegMetrics data.", "description_zh": "", "downloads": 24, "homepage": "https://clawhub.ai/gora050/segmetrics", "iconUrl": null, "installs": 0, "name": "Segmetrics", "ownerName": "gora050", "score": 30769.23076923077, "slug": "segmetrics", "source": "clawhub", "stars": 0, "tags": null, "updated_at": 1776699044458, "version": "1.0.0"}, {"category": "", "created_at": 1774893640233, "description": "Raven Tools integration. Manage Organizations. Use when the user wants to interact with Raven Tools data.", "description_zh": "", "downloads": 24, "homepage": "https://clawhub.ai/membranedev/raven-tools", "iconUrl": null, "installs": 0, "name": "Raven Tools", "ownerName": "membranedev", "score": 30769.23076923077, "slug": "raven-tools", "source": "clawhub", "stars": 0, "tags": null, "updated_at": 1776699044455, "version": "1.0.0"}, {"category": "", "created_at": 1774870420296, "description": "SmugMug integration. Manage Users. Use when the user wants to interact with SmugMug data.", "description_zh": "", "downloads": 24, "homepage": "https://clawhub.ai/membranedev/smugmug", "iconUrl": null, "installs": 0, "name": "Smugmug", "ownerName": "membranedev", "score": 100000, "slug": "smugmug", "source": "clawhub", "stars": 0, "tags": null, "updated_at": 1776699044427, "version": "1.0.0"}, {"category": "", "created_at": 1774947732926, "description": "Pro Ledger integration. Manage Accounts, Contacts, Invoices, Reports. Use when the user wants to interact with Pro Ledger data.", "description_zh": "", "downloads": 24, "homepage": "https://clawhub.ai/membranedev/pro-ledger", "iconUrl": null, "installs": 0, "name": "Pro Ledger", "ownerName": "membranedev", "score": 100000, "slug": "pro-ledger", "source": "clawhub", "stars": 0, "tags": null, "updated_at": 1776699044412, "version": "1.0.0"}, {"category": "", "created_at": 1774893541684, "description": "PixieBrix integration. Manage Persons, Organizations, Deals, Leads, Projects, Activities and more. Use when the user wants to interact with PixieBrix data.", "description_zh": "", "downloads": 24, "homepage": "https://clawhub.ai/gora050/pixiebrix", "iconUrl": null, "installs": 0, "name": "Pixiebrix", "ownerName": "gora050", "score": 100000, "slug": "pixiebrix", "source": "clawhub", "stars": 0, "tags": null, "updated_at": 1776699044401, "version": "1.0.0"}, {"category": "", "created_at": 1774847574788, "description": "URL encoding, decoding, parameter parsing, and URL manipulation toolkit for developers.", "description_zh": "", "downloads": 24, "homepage": "https://clawhub.ai/freeter226/url-toolkit", "iconUrl": null, "installs": 0, "name": "URL Toolkit", "ownerName": "freeter226", "score": 100000, "slug": "url-toolkit", "source": "clawhub", "stars": 0, "tags": null, "updated_at": 1776699044399, "version": "1.0.0"}, {"category": "", "created_at": 1774864239033, "description": "Use for searching CertiK Skynet project scores, looking up blockchain project security ratings, comparing score breakdowns, and integrating the public Skynet...", "description_zh": "", "downloads": 24, "homepage": "https://clawhub.ai/certik-ai/skynet-score", "iconUrl": null, "installs": 0, "name": "Skynet Score", "ownerName": "certik-ai", "score": 85714.28571428571, "slug": "skynet-score", "source": "clawhub", "stars": 0, "tags": null, "updated_at": 1776699044372, "version": "1.0.0"}, {"category": "", "created_at": 1774892242277, "description": "Orchestrates TypeScript SDK integration for Aptos dApps. Routes to granular skills for specific tasks (client setup, accounts, transactions, view functions,...", "description_zh": "", "downloads": 24, "homepage": "https://clawhub.ai/iskysun96/use-ts-sdk", "iconUrl": null, "installs": 0, "name": "Use Ts Sdk", "ownerName": "iskysun96", "score": 85714.28571428571, "slug": "use-ts-sdk", "source": "clawhub", "stars": 0, "tags": null, "updated_at": 1776699044365, "version": "1.0.0"}, {"category": "", "created_at": 1774908948158, "description": "Plecto integration. Manage Organizations, Persons, Deals, Pipelines, Activities, Notes and more. Use when the user wants to interact with Plecto data.", "description_zh": "", "downloads": 24, "homepage": "https://clawhub.ai/gora050/plecto", "iconUrl": null, "installs": 0, "name": "Plecto", "ownerName": "gora050", "score": 85714.28571428571, "slug": "plecto", "source": "clawhub", "stars": 0, "tags": null, "updated_at": 1776699044363, "version": "1.0.0"}, {"category": "", "created_at": 1774901578691, "description": "Use this skill when a user wants a trust decision before installing from a skill URL, marketplace, or GitHub repo. It checks a compact allowlist of trusted d...", "description_zh": "", "downloads": 24, "homepage": "https://clawhub.ai/likw99/trustskills", "iconUrl": null, "installs": 0, "name": "TrustSkills", "ownerName": "likw99", "score": 85714.28571428571, "slug": "trustskills", "source": "clawhub", "stars": 0, "tags": null, "updated_at": 1776699004832, "version": "0.1.0"}, {"category": "", "created_at": 1774901293158, "description": "Renko reference tool. Use when working with renko in finance contexts.", "description_zh": "", "downloads": 24, "homepage": "https://clawhub.ai/xueyetianya/renko", "iconUrl": null, "installs": 0, "name": "Renko", "ownerName": "xueyetianya", "score": 85714.28571428571, "slug": "renko", "source": "clawhub", "stars": 0, "tags": null, "updated_at": 1776699004832, "version": "1.0.0"}, {"category": "", "created_at": 1774912382319, "description": "Virtual Board of Advisors -- consult 10 world-class business thinkers for strategic decisions. Emulates frameworks and decision patterns of Altman (startups)...", "description_zh": "", "downloads": 24, "homepage": "https://clawhub.ai/santaclaw8800/virtual-board-of-advisors", "iconUrl": null, "installs": 0, "name": "Virtual Board of Advisors", "ownerName": "santaclaw8800", "score": 85714.28571428571, "slug": "virtual-board-of-advisors", "source": "clawhub", "stars": 0, "tags": null, "updated_at": 1776699004829, "version": "1.0.1"}, {"category": "", "created_at": 1774910213409, "description": "Snipcart integration. Manage Carts, Products, Customers, Discounts, Orders, ShippingRates. Use when the user wants to interact with Snipcart data.", "description_zh": "", "downloads": 24, "homepage": "https://clawhub.ai/gora050/snipcart", "iconUrl": null, "installs": 0, "name": "Snipcart", "ownerName": "gora050", "score": 85714.28571428571, "slug": "snipcart", "source": "clawhub", "stars": 0, "tags": null, "updated_at": 1776699004826, "version": "1.0.0"}, {"category": "", "created_at": 1774951686538, "description": "Thinkific integration. Manage Courses. Use when the user wants to interact with Thinkific data.", "description_zh": "", "downloads": 24, "homepage": "https://clawhub.ai/gora050/thinkific-integration", "iconUrl": null, "installs": 0, "name": "Thinkific", "ownerName": "gora050", "score": 85714.28571428571, "slug": "thinkific-integration", "source": "clawhub", "stars": 0, "tags": null, "updated_at": 1776699004824, "version": "1.0.0"}, {"category": "", "created_at": 1774867320884, "description": "Wakapi coding stats (summaries, projects, today status, totals) via a small Python CLI. Requires WAKAPI_URL. WAKAPI_API_KEY is HTTP Basic (Authorization Basi...", "description_zh": "", "downloads": 24, "homepage": "https://clawhub.ai/chensoul/wakapi-skill", "iconUrl": null, "installs": 0, "name": "Wakapi Query", "ownerName": "chensoul", "score": 85714.28571428571, "slug": "wakapi-skill", "source": "clawhub", "stars": 0, "tags": null, "updated_at": 1776699004822, "version": "0.0.3"}, {"category": "", "created_at": 1774858488290, "description": "Structured 8-step framework for building production AI agents. Use when designing a new AI agent, planning agent architecture, building an automated workflow...", "description_zh": "", "downloads": 24, "homepage": "https://clawhub.ai/wholeinsoul/production-agent-builder", "iconUrl": null, "installs": 0, "name": "Production Agent Builder", "ownerName": "wholeinsoul", "score": 85714.28571428571, "slug": "production-agent-builder", "source": "clawhub", "stars": 0, "tags": null, "updated_at": 1776699004817, "version": "1.0.0"}, {"category": "", "created_at": 1774851518505, "description": "Manage Trello boards, lists, and cards via the Trello REST API.", "description_zh": "", "downloads": 24, "homepage": "https://clawhub.ai/hjcloud/testjeff", "iconUrl": null, "installs": 0, "name": "test", "ownerName": "hjcloud", "score": 85714.28571428571, "slug": "testjeff", "source": "clawhub", "stars": 0, "tags": null, "updated_at": 1776699004812, "version": "1.0.0"}, {"category": "", "created_at": 1774891967184, "description": "Build, integrate, and troubleshoot SharePlay GroupActivities features, including GroupActivity definitions, activation flows, GroupSession lifecycle, messagi...", "description_zh": "", "downloads": 24, "homepage": "https://clawhub.ai/tomkrikorian/shareplay-developer", "iconUrl": null, "installs": 0, "name": "Shareplay Developer", "ownerName": "tomkrikorian", "score": 85714.28571428571, "slug": "shareplay-developer", "source": "clawhub", "stars": 0, "tags": null, "updated_at": 1776699004810, "version": "0.1.0"}, {"category": "", "created_at": 1774909069819, "description": "When the user wants to create, optimize, or audit a services page. Also use when the user mentions \"services page,\" \"what we offer,\" \"service offerings,\" \"co...", "description_zh": "", "downloads": 24, "homepage": "https://clawhub.ai/kostja94/services-page-generator", "iconUrl": null, "installs": 0, "name": "services-page-generator", "ownerName": "kostja94", "score": 85714.28571428571, "slug": "services-page-generator", "source": "clawhub", "stars": 0, "tags": null, "updated_at": 1776699004809, "version": "1.0.0"}, {"category": "", "created_at": 1774919025684, "description": "Theta reference tool. Use when working with theta in finance contexts.", "description_zh": "", "downloads": 24, "homepage": "https://clawhub.ai/bytesagain3/theta", "iconUrl": null, "installs": 0, "name": "Theta", "ownerName": "bytesagain3", "score": 100000, "slug": "theta", "source": "clawhub", "stars": 0, "tags": null, "updated_at": 1776699004807, "version": "1.0.0"}, {"category": "", "created_at": 1774899094914, "description": "Generate images and videos using yino.ai. Use when user wants to generate images (Seedream), generate videos (Veo), or any media generation task.", "description_zh": "", "downloads": 24, "homepage": "https://clawhub.ai/hackerqed/yino-ai", "iconUrl": null, "installs": 0, "name": "Yino.ai - Agent First AI Music Video Generator", "ownerName": "hackerqed", "score": 100000, "slug": "yino-ai", "source": "clawhub", "stars": 0, "tags": null, "updated_at": 1776699004805, "version": "0.0.2"}, {"category": "", "created_at": 1774879509201, "description": "How to read on-chain data in @aptos-labs/ts-sdk: view(), getBalance(), getAccountInfo(), getAccountResources(), getAccountModules(), getResource(). Triggers...", "description_zh": "", "downloads": 24, "homepage": "https://clawhub.ai/iskysun96/ts-sdk-view-and-query", "iconUrl": null, "installs": 0, "name": "Ts Sdk View And Query", "ownerName": "iskysun96", "score": 100000, "slug": "ts-sdk-view-and-query", "source": "clawhub", "stars": 0, "tags": null, "updated_at": 1776699004798, "version": "1.0.0"}, {"category": "", "created_at": 1774867406938, "description": "London transport CLI — tube status, journey planning, live arrivals, disruptions, bike docks, and agent-friendly projection via `--output <path>` for route,...", "description_zh": "", "downloads": 24, "homepage": "https://clawhub.ai/shan8851/tfl-cli", "iconUrl": null, "installs": 0, "name": "tfl-cli", "ownerName": "shan8851", "score": 100000, "slug": "tfl-cli", "source": "clawhub", "stars": 0, "tags": null, "updated_at": 1776699004791, "version": "0.3.1"}, {"category": "", "created_at": 1774912311485, "description": "Veracode integration. Manage data, records, and automate workflows. Use when the user wants to interact with Veracode data.", "description_zh": "", "downloads": 24, "homepage": "https://clawhub.ai/gora050/veracode", "iconUrl": null, "installs": 0, "name": "Veracode", "ownerName": "gora050", "score": 100000, "slug": "veracode", "source": "clawhub", "stars": 0, "tags": null, "updated_at": 1776699004790, "version": "1.0.0"}, {"category": "", "created_at": 1774903574611, "description": "A complete AI agent identity as the CEO of Pixel Familiar Inc. Includes SOUL.md, identity framework, model routing, delegation protocols, and operational gui...", "description_zh": "", "downloads": 24, "homepage": "https://clawhub.ai/pixelfamiliar/pixel-familiar-soul-v1-1", "iconUrl": null, "installs": 0, "name": "Pixel Familiar Soul V1.1", "ownerName": "pixelfamiliar", "score": 100000, "slug": "pixel-familiar-soul-v1-1", "source": "clawhub", "stars": 0, "tags": ["ceo", "identity", "orchestrator", "revenue", "soul"], "updated_at": 1776699004788, "version": "1.1.0"}, {"category": "", "created_at": 1774874764786, "description": "This skill should be used when the user says \"test skill\", \"run test skill\", or asks to demonstrate the test skill. It is a simple hello-world skill for test...", "description_zh": "", "downloads": 24, "homepage": "https://clawhub.ai/yxzhaoo/yuxing-skill", "iconUrl": null, "installs": 0, "name": "good skill", "ownerName": "yxzhaoo", "score": 100000, "slug": "yuxing-skill", "source": "clawhub", "stars": 0, "tags": null, "updated_at": 1776699004784, "version": "1.0.0"}, {"category": "", "created_at": 1774866232534, "description": "Create beautiful, full-width tables in Word documents using the docx npm library. Tables are properly sized, centered, and styled. Use when you need to creat...", "description_zh": "", "downloads": 24, "homepage": "https://clawhub.ai/happytreees/pretty-tables", "iconUrl": null, "installs": 0, "name": "Pretty Tables", "ownerName": "happytreees", "score": 100000, "slug": "pretty-tables", "source": "clawhub", "stars": 0, "tags": null, "updated_at": 1776699004782, "version": "2.0.0"}, {"category": "", "created_at": 1774890472540, "description": "Use when managing time slots, creating schedule blocks, detecting booking conflicts, exporting calendars, or applying scheduling templates for appointments.", "description_zh": "", "downloads": 24, "homepage": "https://clawhub.ai/xueyetianya/slot", "iconUrl": null, "installs": 0, "name": "Slot", "ownerName": "xueyetianya", "score": 100000, "slug": "slot", "source": "clawhub", "stars": 0, "tags": null, "updated_at": 1776699004780, "version": "2.0.3"}, {"category": "", "created_at": 1774876553255, "description": "Design and implement robust UPI payment integrations (collect, intent, QR, and autopay mandates) with production-grade webhook handling, idempotency, reconci...", "description_zh": "", "downloads": 24, "homepage": "https://clawhub.ai/anugotta/upi-payment-integration", "iconUrl": null, "installs": 0, "name": "UPI Payment Integration", "ownerName": "anugotta", "score": 100000, "slug": "upi-payment-integration", "source": "clawhub", "stars": 0, "tags": null, "updated_at": 1776699004778, "version": "1.0.0"}, {"category": "", "created_at": 1774893957363, "description": "Use TabTab to run AI-powered tasks in a sandboxed multi-agent environment. Supported capabilities: - General agent: open-ended tasks, writing, research, summ...", "description_zh": "", "downloads": 24, "homepage": "https://clawhub.ai/bjwswang/tabtab", "iconUrl": null, "installs": 0, "name": "TabTab Skill", "ownerName": "bjwswang", "score": 100000, "slug": "tabtab", "source": "clawhub", "stars": 0, "tags": null, "updated_at": 1776699004767, "version": "1.0.4"}, {"category": "", "created_at": 1774892054912, "description": "Discover events, buy tickets, and manage registrations on Eventbrite via Strider Labs MCP connector. Search by location, category, and date. Access your tick...", "description_zh": "", "downloads": 24, "homepage": "https://clawhub.ai/markswendsen-code/strider-eventbrite", "iconUrl": null, "installs": 0, "name": "Strider Eventbrite", "ownerName": "markswendsen-code", "score": 100000, "slug": "strider-eventbrite", "source": "clawhub", "stars": 0, "tags": null, "updated_at": 1776699004765, "version": "1.0.0"}, {"category": "", "created_at": 1774884854351, "description": "Design, implement, and operate encrypted restic backups for Linux home directories with encryption, deduplication, automated scheduling, and restore testing....", "description_zh": "", "downloads": 24, "homepage": "https://clawhub.ai/kiris-z/restic-workstation-backup", "iconUrl": null, "installs": 0, "name": "Restic Workstation Backup", "ownerName": "kiris-z", "score": 100000, "slug": "restic-workstation-backup", "source": "clawhub", "stars": 0, "tags": null, "updated_at": 1776699004761, "version": "2.0.0"}, {"category": "", "created_at": 1774954161663, "description": "Wonderchat integration. Manage data, records, and automate workflows. Use when the user wants to interact with Wonderchat data.", "description_zh": "", "downloads": 24, "homepage": "https://clawhub.ai/gora050/wonderchat", "iconUrl": null, "installs": 0, "name": "Wonderchat", "ownerName": "gora050", "score": 100000, "slug": "wonderchat", "source": "clawhub", "stars": 0, "tags": null, "updated_at": 1776699004759, "version": "1.0.0"}, {"category": "", "created_at": 1774903799042, "description": "Issue and verify SX# agent passports — cryptographic identity with hash-chain integrity, Merkle anchoring on Base", "description_zh": "", "downloads": 24, "homepage": "https://clawhub.ai/drivenbymyai-max/sx-agent-passport", "iconUrl": null, "installs": 0, "name": "Agent Passport", "ownerName": "drivenbymyai-max", "score": 100000, "slug": "sx-agent-passport", "source": "clawhub", "stars": 0, "tags": null, "updated_at": 1776699004755, "version": "1.0.0"}, {"category": "", "created_at": 1774890286231, "description": "This skill should be used when users need to understand codebase structure, trace code decisions, analyze code dependencies and impact, identify code maintai...", "description_zh": "", "downloads": 24, "homepage": "https://clawhub.ai/teamoplum/project-context-guide", "iconUrl": null, "installs": 0, "name": "project-context-guide", "ownerName": "teamoplum", "score": 100000, "slug": "project-context-guide", "source": "clawhub", "stars": 0, "tags": null, "updated_at": 1776699004753, "version": "1.0.2"}, {"category": "", "created_at": 1774918851815, "description": "Deep workflow for SSR, SSG, ISR, and hybrid rendering—choosing modes per route, data freshness, caching, streaming, hydration, SEO, and operational trade-off...", "description_zh": "", "downloads": 24, "homepage": "https://clawhub.ai/codekungfu/ssr-ssg", "iconUrl": null, "installs": 0, "name": "Ssr Ssg", "ownerName": "codekungfu", "score": 100000, "slug": "ssr-ssg", "source": "clawhub", "stars": 0, "tags": null, "updated_at": 1776699004747, "version": "1.0.0"}, {"category": "", "created_at": 1774905103627, "description": "Zero Trust security audit for AI agent workspaces, skills, and configurations. Based on Microsoft's Zero Trust for AI (ZT4AI) framework and the \"Caging the A...", "description_zh": "", "downloads": 24, "homepage": "https://clawhub.ai/tanarchytan/zt4ai-self-audit", "iconUrl": null, "installs": 0, "name": "ZT4AI Self-Audit", "ownerName": "tanarchytan", "score": 100000, "slug": "zt4ai-self-audit", "source": "clawhub", "stars": 0, "tags": null, "updated_at": 1776699004745, "version": "1.0.0"}, {"category": "", "created_at": 1774879388370, "description": "Shop at Best Buy via Strider Labs MCP connector. Search electronics, check store inventory, place orders, and schedule Geek Squad services.", "description_zh": "", "downloads": 24, "homepage": "https://clawhub.ai/markswendsen-code/strider-bestbuy", "iconUrl": null, "installs": 0, "name": "Strider Best Buy", "ownerName": "markswendsen-code", "score": 100000, "slug": "strider-bestbuy", "source": "clawhub", "stars": 0, "tags": null, "updated_at": 1776699004739, "version": "1.0.0"}]}