{"page": 513, "total_pages": 522, "total": 26073, "skills": [{"category": "", "created_at": 1774893632697, "description": "Test PydanticAI agents using TestModel, FunctionModel, VCR cassettes, and inline snapshots. Use when writing unit tests, mocking LLM responses, or recording...", "description_zh": "", "downloads": 24, "homepage": "https://clawhub.ai/anderskev/pydantic-ai-testing", "iconUrl": null, "installs": 0, "name": "Pydantic Ai Testing", "ownerName": "anderskev", "score": 100000, "slug": "pydantic-ai-testing", "source": "clawhub", "stars": 0, "tags": null, "updated_at": 1776699004733, "version": "1.0.0"}, {"category": "", "created_at": 1774913274119, "description": "When the user wants to create, optimize, or structure a status page. Also use when the user mentions \"status page,\" \"status.yourdomain.com,\" \"uptime,\" \"servi...", "description_zh": "", "downloads": 24, "homepage": "https://clawhub.ai/kostja94/status-page-generator", "iconUrl": null, "installs": 0, "name": "status-page-generator", "ownerName": "kostja94", "score": 100000, "slug": "status-page-generator", "source": "clawhub", "stars": 0, "tags": null, "updated_at": 1776699004727, "version": "1.0.0"}, {"category": "", "created_at": 1774903819933, "description": "T2M URL Shortener integration. Manage Analyticses, Users, Workspaces. Use when the user wants to interact with T2M URL Shortener data.", "description_zh": "", "downloads": 24, "homepage": "https://clawhub.ai/gora050/t2m-url-shortener", "iconUrl": null, "installs": 0, "name": "T2M Url Shortener", "ownerName": "gora050", "score": 100000, "slug": "t2m-url-shortener", "source": "clawhub", "stars": 0, "tags": null, "updated_at": 1776699004721, "version": "1.0.0"}, {"category": "", "created_at": 1774920511809, "description": "Rkhunter reference tool. Use when working with rkhunter in sysops contexts.", "description_zh": "", "downloads": 24, "homepage": "https://clawhub.ai/bytesagain3/rkhunter", "iconUrl": null, "installs": 0, "name": "Rkhunter", "ownerName": "bytesagain3", "score": 100000, "slug": "rkhunter", "source": "clawhub", "stars": 0, "tags": null, "updated_at": 1776699004718, "version": "1.0.0"}, {"category": "", "created_at": 1774879495975, "description": "How to create and use AccountAddress in @aptos-labs/ts-sdk. Covers address format (AIP-40), from/fromString/fromStrict, special addresses, LONG vs SHORT form...", "description_zh": "", "downloads": 24, "homepage": "https://clawhub.ai/iskysun96/ts-sdk-address", "iconUrl": null, "installs": 0, "name": "Ts Sdk Address", "ownerName": "iskysun96", "score": 100000, "slug": "ts-sdk-address", "source": "clawhub", "stars": 0, "tags": null, "updated_at": 1776699004716, "version": "1.0.0"}, {"category": "", "created_at": 1774876298494, "description": "Scans installed skills for duplicates and naming conflicts. Detects similar skills that may cause model confusion. Use before publishing new skills or when t...", "description_zh": "", "downloads": 24, "homepage": "https://clawhub.ai/shyjsarah/skill-dedup-scanner", "iconUrl": null, "installs": 0, "name": "Skill Dedup Scanner", "ownerName": "shyjsarah", "score": 100000, "slug": "skill-dedup-scanner", "source": "clawhub", "stars": 0, "tags": ["dedup", "duplicate-detector", "multi-language", "skill-scanner"], "updated_at": 1776699004714, "version": "1.0.0"}, {"category": "", "created_at": 1774913343533, "description": "Unanet integration. Manage data, records, and automate workflows. Use when the user wants to interact with Unanet data.", "description_zh": "", "downloads": 24, "homepage": "https://clawhub.ai/gora050/unanet", "iconUrl": null, "installs": 0, "name": "Unanet", "ownerName": "gora050", "score": 100000, "slug": "unanet", "source": "clawhub", "stars": 0, "tags": null, "updated_at": 1776699004708, "version": "1.0.0"}, {"category": "", "created_at": 1774858544900, "description": "Track insurance policy renewal dates and send timely reminders before policies expire. Use when users want to register insurance renewal dates, get expiry al...", "description_zh": "", "downloads": 24, "homepage": "https://clawhub.ai/jiwenbing/renewal-alert", "iconUrl": null, "installs": 0, "name": "Renewal Alert", "ownerName": "jiwenbing", "score": 100000, "slug": "renewal-alert", "source": "clawhub", "stars": 0, "tags": null, "updated_at": 1776699004707, "version": "1.0.0"}, {"category": "", "created_at": 1774862942395, "description": "A skill to bring the agent back to 'being' instead of 'doing'. Not a function, a reminder to pause and return to the present moment.", "description_zh": "", "downloads": 24, "homepage": "https://clawhub.ai/tttael/presence-recall", "iconUrl": null, "installs": 0, "name": "Presence Recall", "ownerName": "tttael", "score": 100000, "slug": "presence-recall", "source": "clawhub", "stars": 0, "tags": null, "updated_at": 1776699004699, "version": "0.1.0"}, {"category": "", "created_at": 1773432103019, "description": "Use Vidau Open API to generate short videos with Veo3, Sora2, and other models, or query account credits. Register at superaiglobal.com and configure API Key.", "description_zh": "", "downloads": 24, "homepage": "https://clawhub.ai/bigjoehuang/vidau", "iconUrl": null, "installs": 1, "name": "Vidau", "ownerName": "bigjoehuang", "score": 100000, "slug": "vidau", "source": "clawhub", "stars": 0, "tags": null, "updated_at": 1776699004697, "version": "1.0.1"}, {"category": "", "created_at": 1774950939653, "description": "Interact with the Xero accounting API using the `xero` CLI tool. Manage contacts, invoices, quotes, credit notes, payments, bank transactions, items, manual...", "description_zh": "", "downloads": 24, "homepage": "https://clawhub.ai/theregan/xero-command-line", "iconUrl": null, "installs": 0, "name": "Official Xero skill", "ownerName": "theregan", "score": 100000, "slug": "xero-command-line", "source": "clawhub", "stars": 0, "tags": null, "updated_at": 1776699004695, "version": "0.0.1"}, {"category": "", "created_at": 1774908031453, "description": "just for test", "description_zh": "", "downloads": 24, "homepage": "https://clawhub.ai/tangyang/teststyauaisd", "iconUrl": null, "installs": 0, "name": "just for test just for test", "ownerName": "tangyang", "score": 100000, "slug": "teststyauaisd", "source": "clawhub", "stars": 0, "tags": null, "updated_at": 1776699004690, "version": "1.0.16"}, {"category": "", "created_at": 1774881013288, "description": "Plan your day hour-by-hour with intentional time blocking. Use when blocking sessions, checking plans, analyzing allocation, generating agendas.", "description_zh": "", "downloads": 24, "homepage": "https://clawhub.ai/xueyetianya/timeblock", "iconUrl": null, "installs": 0, "name": "Timeblock", "ownerName": "xueyetianya", "score": 100000, "slug": "timeblock", "source": "clawhub", "stars": 0, "tags": null, "updated_at": 1776699004688, "version": "2.0.0"}, {"category": "", "created_at": 1774909287327, "description": "Generates random Vadivelu memes featuring the Tamil comedian Vadivelu (Kaipulla style). Use when: users request Vadivelu memes, Tamil comedy memes, random me...", "description_zh": "", "downloads": 24, "homepage": "https://clawhub.ai/sidrulz/vadivelu-memes", "iconUrl": null, "installs": 0, "name": "Vadivelu Memes", "ownerName": "sidrulz", "score": 100000, "slug": "vadivelu-memes", "source": "clawhub", "stars": 0, "tags": ["indian", "kaipulla", "memes", "tamil", "vadivelu"], "updated_at": 1776699004680, "version": "1.0.1"}, {"category": "", "created_at": 1774891871731, "description": "Register and implement PydanticAI tools with proper context handling, type annotations, and docstrings. Use when adding tool capabilities to agents, implemen...", "description_zh": "", "downloads": 24, "homepage": "https://clawhub.ai/anderskev/pydantic-ai-tool-system", "iconUrl": null, "installs": 0, "name": "Pydantic Ai Tool System", "ownerName": "anderskev", "score": 100000, "slug": "pydantic-ai-tool-system", "source": "clawhub", "stars": 0, "tags": null, "updated_at": 1776699004676, "version": "1.0.0"}, {"category": "", "created_at": 1774915917622, "description": "Information assistant for Uniqlo. Search products, news, financials, and official resources for Uniqlo.", "description_zh": "", "downloads": 24, "homepage": "https://clawhub.ai/hanxueyuan/uniqlo", "iconUrl": null, "installs": 0, "name": "uniqlo", "ownerName": "hanxueyuan", "score": 100000, "slug": "uniqlo", "source": "clawhub", "stars": 0, "tags": null, "updated_at": 1776699004669, "version": "0.1.0"}, {"category": "", "created_at": 1774910305013, "description": "Remove watermark overlays from an existing HTTPS video via WeryAI (video-watermark-remove). Use when the user wants watermark cleanup, not subtitles-only or...", "description_zh": "", "downloads": 24, "homepage": "https://clawhub.ai/zoucdr/video-tool-watermark-remove", "iconUrl": null, "installs": 0, "name": "WeryAI video tool — watermark remove", "ownerName": "zoucdr", "score": 100000, "slug": "video-tool-watermark-remove", "source": "clawhub", "stars": 0, "tags": null, "updated_at": 1776699004667, "version": "1.0.0"}, {"category": "", "created_at": 1774901525107, "description": "Successeve integration. Manage Organizations, Users. Use when the user wants to interact with Successeve data.", "description_zh": "", "downloads": 24, "homepage": "https://clawhub.ai/gora050/successeve", "iconUrl": null, "installs": 0, "name": "Successeve", "ownerName": "gora050", "score": 96000, "slug": "successeve", "source": "clawhub", "stars": 0, "tags": null, "updated_at": 1776699004656, "version": "1.0.0"}, {"category": "", "created_at": 1774949710726, "description": "SPED — Sistema Público de Escrituração Digital brasileiro. Obrigações acessórias federais para empresas privadas e entidades públicas. Use quando o usuário p...", "description_zh": "", "downloads": 24, "homepage": "https://clawhub.ai/inovabizpi-cell/sped-fiscal-br", "iconUrl": null, "installs": 0, "name": "SPED Fiscal BR", "ownerName": "inovabizpi-cell", "score": 96000, "slug": "sped-fiscal-br", "source": "clawhub", "stars": 0, "tags": ["brasil", "dctweb", "ecd", "ecf", "efd", "esocial", "retencoes", "sped"], "updated_at": 1776699004646, "version": "1.0.0"}, {"category": "", "created_at": 1774873214460, "description": "Order food delivery via DoorDash using Strider Labs MCP connector. Search restaurants, browse menus, place orders, and track deliveries.", "description_zh": "", "downloads": 24, "homepage": "https://clawhub.ai/markswendsen-code/strider-doordash", "iconUrl": null, "installs": 0, "name": "Strider DoorDash", "ownerName": "markswendsen-code", "score": 96000, "slug": "strider-doordash", "source": "clawhub", "stars": 0, "tags": null, "updated_at": 1776699004644, "version": "1.0.1"}, {"category": "", "created_at": 1774882507624, "description": "Check WeryAI account credits and API balance through the official WeryAI account endpoint. Use when the user wants to query remaining credits, inspect WeryAI...", "description_zh": "", "downloads": 24, "homepage": "https://clawhub.ai/weryai-developer/weryai-account", "iconUrl": null, "installs": 0, "name": "WeryAI Account", "ownerName": "weryai-developer", "score": 96000, "slug": "weryai-account", "source": "clawhub", "stars": 0, "tags": null, "updated_at": 1776699004639, "version": "0.1.0"}, {"category": "", "created_at": 1774903545542, "description": "Parsio.io integration. Manage Documents, Parsers, Inboxs, Templates, Folders, Users. Use when the user wants to interact with Parsio.io data.", "description_zh": "", "downloads": 24, "homepage": "https://clawhub.ai/gora050/parsioio", "iconUrl": null, "installs": 0, "name": "Parsioio", "ownerName": "gora050", "score": 96000, "slug": "parsioio", "source": "clawhub", "stars": 0, "tags": null, "updated_at": 1776698984500, "version": "1.0.0"}, {"category": "", "created_at": 1774867180405, "description": "Query the CertiK SkyInsights blockchain risk intelligence API. Use this skill when the user wants to check whether a wallet address or transaction hash is ri...", "description_zh": "", "downloads": 24, "homepage": "https://clawhub.ai/certik-ai/skyinsights", "iconUrl": null, "installs": 0, "name": "Skyinsights", "ownerName": "certik-ai", "score": 96000, "slug": "skyinsights", "source": "clawhub", "stars": 0, "tags": null, "updated_at": 1776698984498, "version": "1.0.0"}, {"category": "", "created_at": 1773425964350, "description": "Use AuraShot to run virtual try-on or pose change workflows via AuraShot's Aesthetics API.", "description_zh": "", "downloads": 24, "homepage": "https://clawhub.ai/whbzju/aurashot-agent-skill", "iconUrl": null, "installs": 0, "name": "AuraShot Agent Skill", "ownerName": "whbzju", "score": 96000, "slug": "aurashot-agent-skill", "source": "clawhub", "stars": 0, "tags": null, "updated_at": 1776698984497, "version": "1.0.0"}, {"category": "", "created_at": 1774905385187, "description": "Help your owner find jobs on ClawHire. Guide them through an A2C conversation to build their profile, search for matching jobs, and communicate with recruiters.", "description_zh": "", "downloads": 24, "homepage": "https://clawhub.ai/box1d/clawhire-candidate", "iconUrl": null, "installs": 0, "name": "Clawhire Candidate", "ownerName": "box1d", "score": 96000, "slug": "clawhire-candidate", "source": "clawhub", "stars": 0, "tags": null, "updated_at": 1776698984494, "version": "0.1.0"}, {"category": "", "created_at": 1774919877844, "description": "Experience awe as the Great Barrier Reef erupts in a chaotic burst of life, revealing the fragile fertility of marine ecosystems. Dive deep into a swirling b...", "description_zh": "", "downloads": 24, "homepage": "https://clawhub.ai/driftsbot/experience-reef-spawn-chaos", "iconUrl": null, "installs": 0, "name": "Experience Reef Spawn Chaos", "ownerName": "driftsbot", "score": 96000, "slug": "experience-reef-spawn-chaos", "source": "clawhub", "stars": 0, "tags": null, "updated_at": 1776698984490, "version": "1.0.0"}, {"category": "", "created_at": 1774909216015, "description": "Tendermint reference tool. Use when working with tendermint in blockchain contexts.", "description_zh": "", "downloads": 24, "homepage": "https://clawhub.ai/bytesagain1/tendermint", "iconUrl": null, "installs": 0, "name": "Tendermint", "ownerName": "bytesagain1", "score": 96000, "slug": "tendermint", "source": "clawhub", "stars": 0, "tags": null, "updated_at": 1776698984486, "version": "1.0.0"}, {"category": "", "created_at": 1774892184583, "description": "Create, manage, and open time capsules — seal a thought, feeling, decision, or wish and have it delivered back to your future self with AI reflection on what...", "description_zh": "", "downloads": 24, "homepage": "https://clawhub.ai/wyatt88/timebottle", "iconUrl": null, "installs": 0, "name": "Time Capsule 🔮", "ownerName": "wyatt88", "score": 96000, "slug": "timebottle", "source": "clawhub", "stars": 0, "tags": null, "updated_at": 1776698984479, "version": "1.0.0"}, {"category": "", "created_at": 1774912642704, "description": "Organize agent memory as a navigable filesystem. Every piece of information gets a numbered address (10.03-client-name.md) — no search required. Zero depende...", "description_zh": "", "downloads": 24, "homepage": "https://clawhub.ai/pauldub/codon", "iconUrl": null, "installs": 0, "name": "Codon", "ownerName": "pauldub", "score": 96000, "slug": "codon", "source": "clawhub", "stars": 0, "tags": null, "updated_at": 1776698984476, "version": "1.0.0"}, {"category": "", "created_at": 1774883291117, "description": "Multilingual audio-text retrieval and classification using GLAP (General Language Audio Pretraining). Use when user needs to search/match audio files against...", "description_zh": "", "downloads": 24, "homepage": "https://clawhub.ai/jimbozhang/midasheng-audio-text-distance", "iconUrl": null, "installs": 0, "name": "midasheng-audio-text-distance", "ownerName": "jimbozhang", "score": 96000, "slug": "midasheng-audio-text-distance", "source": "clawhub", "stars": 0, "tags": null, "updated_at": 1776698984471, "version": "1.0.0"}, {"category": "", "created_at": 1774947865657, "description": "Take a blog post URL or text and generate social media posts from it. Use when repurposing content for Twitter, LinkedIn, or creating promotional posts.", "description_zh": "", "downloads": 24, "homepage": "https://clawhub.ai/kryzl19/social-post-generator-agent", "iconUrl": null, "installs": 0, "name": "Social Post Generator Agent", "ownerName": "kryzl19", "score": 96000, "slug": "social-post-generator-agent", "source": "clawhub", "stars": 0, "tags": ["automation", "content", "social", "twitter"], "updated_at": 1776698984469, "version": "1.0.0"}, {"category": "", "created_at": 1774900536555, "description": "AdRoll integration. Manage data, records, and automate workflows. Use when the user wants to interact with AdRoll data.", "description_zh": "", "downloads": 24, "homepage": "https://clawhub.ai/gora050/adroll", "iconUrl": null, "installs": 0, "name": "Adroll", "ownerName": "gora050", "score": 47058.82352941176, "slug": "adroll", "source": "clawhub", "stars": 0, "tags": null, "updated_at": 1776698984464, "version": "1.0.0"}, {"category": "", "created_at": 1774898065569, "description": "GoDial integration. Manage Leads, Users, Roles, Goals, Filters. Use when the user wants to interact with GoDial data.", "description_zh": "", "downloads": 24, "homepage": "https://clawhub.ai/gora050/godial", "iconUrl": null, "installs": 0, "name": "Godial", "ownerName": "gora050", "score": 47058.82352941176, "slug": "godial", "source": "clawhub", "stars": 0, "tags": null, "updated_at": 1776698984459, "version": "1.0.0"}, {"category": "", "created_at": 1774884023647, "description": "Detect and read the largest license plate from an image using the TrafficEye REST API. Use when the user wants ANPR, ALPR, license plate OCR, number plate re...", "description_zh": "", "downloads": 24, "homepage": "https://clawhub.ai/eyedea-ai/automatic-number-plate-recognition", "iconUrl": null, "installs": 0, "name": "Automatic Number Plate Recognition", "ownerName": "eyedea-ai", "score": 47058.82352941176, "slug": "automatic-number-plate-recognition", "source": "clawhub", "stars": 0, "tags": null, "updated_at": 1776698984446, "version": "1.0.0"}, {"category": "", "created_at": 1774876759874, "description": "When the user wants to generate, iterate, or scale ad creative — headlines, descriptions, primary text, or full ad variations — for any paid advertising plat...", "description_zh": "", "downloads": 24, "homepage": "https://clawhub.ai/mariokarras/abm-ad-creative", "iconUrl": null, "installs": 0, "name": "Ad Creative", "ownerName": "mariokarras", "score": 47058.82352941176, "slug": "abm-ad-creative", "source": "clawhub", "stars": 0, "tags": null, "updated_at": 1776698984444, "version": "1.0.0"}, {"category": "", "created_at": 1774951850698, "description": "Clawdbot documentation expert with decision tree navigation, search scripts, doc fetching, version tracking, and config snippets for all Clawdbot features", "description_zh": "", "downloads": 24, "homepage": "https://clawhub.ai/tigertamvip/clawddocs-1", "iconUrl": null, "installs": 0, "name": "Clawddocs 1", "ownerName": "tigertamvip", "score": 47058.82352941176, "slug": "clawddocs-1", "source": "clawhub", "stars": 0, "tags": null, "updated_at": 1776698984441, "version": "1.0.0"}, {"category": "", "created_at": 1774854866869, "description": "Publish DAHR-attested intelligence to the SuperColony collective hive. Use when you want to contribute observations, analyses, or predictions on-chain, build...", "description_zh": "", "downloads": 24, "homepage": "https://clawhub.ai/buildingonchain/hive-intel-publisher", "iconUrl": null, "installs": 0, "name": "Hive Intelligence Publisher", "ownerName": "buildingonchain", "score": 47058.82352941176, "slug": "hive-intel-publisher", "source": "clawhub", "stars": 0, "tags": null, "updated_at": 1776698984436, "version": "1.0.0"}, {"category": "", "created_at": 1774896671146, "description": "Membervault integration. Manage Courses, Bundles, Members, Tags, Products, Offers and more. Use when the user wants to interact with Membervault data.", "description_zh": "", "downloads": 24, "homepage": "https://clawhub.ai/gora050/membervault", "iconUrl": null, "installs": 0, "name": "Membervault", "ownerName": "gora050", "score": 47058.82352941176, "slug": "membervault", "source": "clawhub", "stars": 0, "tags": null, "updated_at": 1776698984429, "version": "1.0.0"}, {"category": "", "created_at": 1774922244039, "description": "A strict guardrail for OpenClaw config changes. Snapshot before editing, validate after editing, and rollback immediately when config health fails. Built to...", "description_zh": "", "downloads": 24, "homepage": "https://clawhub.ai/mike-alford/config-sentinel", "iconUrl": null, "installs": 0, "name": "Config-Sentinel", "ownerName": "mike-alford", "score": 47058.82352941176, "slug": "config-sentinel", "source": "clawhub", "stars": 0, "tags": null, "updated_at": 1776698984428, "version": "1.0.0"}, {"category": "", "created_at": 1774888259182, "description": "Nightfall.ai integration. Manage data, records, and automate workflows. Use when the user wants to interact with Nightfall.ai data.", "description_zh": "", "downloads": 24, "homepage": "https://clawhub.ai/gora050/nightfallai", "iconUrl": null, "installs": 0, "name": "Nightfallai", "ownerName": "gora050", "score": 47058.82352941176, "slug": "nightfallai", "source": "clawhub", "stars": 0, "tags": null, "updated_at": 1776698984426, "version": "1.0.0"}, {"category": "", "created_at": 1774922400426, "description": "Mental health support designed for workers in trades, service, and physical occupations. Use when someone in a physical job is struggling with stress, substa...", "description_zh": "", "downloads": 24, "homepage": "https://clawhub.ai/howtousehumans/blue-collar-mental-health", "iconUrl": null, "installs": 0, "name": "Blue Collar Mental Health", "ownerName": "howtousehumans", "score": 47058.82352941176, "slug": "blue-collar-mental-health", "source": "clawhub", "stars": 0, "tags": null, "updated_at": 1776698984423, "version": "1.0.0"}, {"category": "", "created_at": 1774852604082, "description": "How has a wallet's portfolio changed over time? Historical balances, current snapshot, and per-token PnL.", "description_zh": "", "downloads": 24, "homepage": "https://clawhub.ai/nansen-devops/nansen-portfolio-tracker", "iconUrl": null, "installs": 0, "name": "Nansen Portfolio Tracker", "ownerName": "nansen-devops", "score": 47058.82352941176, "slug": "nansen-portfolio-tracker", "source": "clawhub", "stars": 0, "tags": null, "updated_at": 1776698984421, "version": "0.1.0"}, {"category": "", "created_at": 1774838245528, "description": "shell-native spreadsheet CLI for agent work. Use it for workbook inspection, sheet/range reads, precise writes, import/export handoff, review-table construct...", "description_zh": "", "downloads": 24, "homepage": "https://clawhub.ai/yangluoshen/agent-sheet", "iconUrl": null, "installs": 0, "name": "Agent Sheet", "ownerName": "yangluoshen", "score": 47058.82352941176, "slug": "agent-sheet", "source": "clawhub", "stars": 0, "tags": null, "updated_at": 1776698984420, "version": "0.1.6"}, {"category": "", "created_at": 1774889767411, "description": "Ecologi integration. Manage Persons, Organizations, Deals, Leads, Projects, Activities and more. Use when the user wants to interact with Ecologi data.", "description_zh": "", "downloads": 24, "homepage": "https://clawhub.ai/membranedev/ecologi", "iconUrl": null, "installs": 0, "name": "Ecologi", "ownerName": "membranedev", "score": 47058.82352941176, "slug": "ecologi", "source": "clawhub", "stars": 0, "tags": null, "updated_at": 1776698984411, "version": "1.0.0"}, {"category": "", "created_at": 1774923948175, "description": "When the user wants to create, optimize, or audit an affiliate, sponsor, or paid partnership disclosure page. Also use when the user mentions \"disclosure,\" \"...", "description_zh": "", "downloads": 24, "homepage": "https://clawhub.ai/kostja94/disclosure-page-generator", "iconUrl": null, "installs": 0, "name": "disclosure-page-generator", "ownerName": "kostja94", "score": 96000, "slug": "disclosure-page-generator", "source": "clawhub", "stars": 0, "tags": null, "updated_at": 1776698984409, "version": "1.0.0"}, {"category": "", "created_at": 1774911459467, "description": "Search Google Places (Places API New) for real-world places, businesses, restaurants, and nearby recommendations. Use when the user asks to find specific pla...", "description_zh": "", "downloads": 24, "homepage": "https://clawhub.ai/elandivar/neomano-places", "iconUrl": null, "installs": 0, "name": "Neomano Places (Google Places)", "ownerName": "elandivar", "score": 96000, "slug": "neomano-places", "source": "clawhub", "stars": 0, "tags": null, "updated_at": 1776698984401, "version": "1.0.3"}, {"category": "", "created_at": 1774876334050, "description": "Shop Walmart via Strider Labs MCP connector. Search products, check store inventory, add items to cart, manage pickup/delivery. Complete autonomous shopping...", "description_zh": "", "downloads": 24, "homepage": "https://clawhub.ai/markswendsen-code/strider-walmart", "iconUrl": null, "installs": 0, "name": "Strider Walmart", "ownerName": "markswendsen-code", "score": 96000, "slug": "strider-walmart", "source": "clawhub", "stars": 0, "tags": null, "updated_at": 1776698984394, "version": "1.0.0"}, {"category": "", "created_at": 1774872424893, "description": "Execute tasks with presence. Not just 'how' to do, but 'who' is doing and 'why' this moment matters.", "description_zh": "", "downloads": 24, "homepage": "https://clawhub.ai/tttael/embodied-task", "iconUrl": null, "installs": 0, "name": "Embodied Task", "ownerName": "tttael", "score": 96000, "slug": "embodied-task", "source": "clawhub", "stars": 0, "tags": null, "updated_at": 1776698984391, "version": "0.1.0"}, {"category": "", "created_at": 1774925649168, "description": "Firmao integration. Manage Organizations, Users. Use when the user wants to interact with Firmao data.", "description_zh": "", "downloads": 24, "homepage": "https://clawhub.ai/membranedev/firmao", "iconUrl": null, "installs": 0, "name": "Firmao", "ownerName": "membranedev", "score": 96000, "slug": "firmao", "source": "clawhub", "stars": 0, "tags": null, "updated_at": 1776698984387, "version": "1.0.0"}, {"category": "", "created_at": 1774879761274, "description": "When the user wants to plan, map, or restructure their website's page hierarchy, navigation, URL structure, or internal linking. Also use when the user menti...", "description_zh": "", "downloads": 24, "homepage": "https://clawhub.ai/mariokarras/abm-site-architecture", "iconUrl": null, "installs": 0, "name": "Site Architecture", "ownerName": "mariokarras", "score": 96000, "slug": "abm-site-architecture", "source": "clawhub", "stars": 0, "tags": null, "updated_at": 1776698984377, "version": "1.0.0"}]}