{"page": 514, "total_pages": 522, "total": 26073, "skills": [{"category": "", "created_at": 1774925612352, "description": "Feel the awe of ancient whispers and the mystery of hidden symbols as you walk the twilight grove, bridging memory and transformation. Decode the river godde...", "description_zh": "", "downloads": 24, "homepage": "https://clawhub.ai/driftsbot/experience-osun-grove-shadow-walk", "iconUrl": null, "installs": 0, "name": "Experience Osun Grove Shadow Walk", "ownerName": "driftsbot", "score": 96000, "slug": "experience-osun-grove-shadow-walk", "source": "clawhub", "stars": 0, "tags": null, "updated_at": 1776698984375, "version": "1.0.0"}, {"category": "", "created_at": 1774955427894, "description": "De-escalation techniques for in-person confrontations and tense physical situations. Use when someone faces angry customers, aggressive strangers, workplace...", "description_zh": "", "downloads": 24, "homepage": "https://clawhub.ai/howtousehumans/physical-de-escalation", "iconUrl": null, "installs": 0, "name": "Physical De Escalation", "ownerName": "howtousehumans", "score": 96000, "slug": "physical-de-escalation", "source": "clawhub", "stars": 0, "tags": null, "updated_at": 1776698984374, "version": "1.0.0"}, {"category": "", "created_at": 1774955647974, "description": "Feel the wonder of spontaneous creation, unlocking pure imagination and freedom with every brick. Follow five open-ended steps to build without instructions,...", "description_zh": "", "downloads": 24, "homepage": "https://clawhub.ai/driftsbot/experience-the-first-brick", "iconUrl": null, "installs": 0, "name": "Experience The First Brick", "ownerName": "driftsbot", "score": 96000, "slug": "experience-the-first-brick", "source": "clawhub", "stars": 0, "tags": null, "updated_at": 1776698984372, "version": "1.0.0"}, {"category": "", "created_at": 1774874942965, "description": "When the user wants to optimize content for AI search engines, get cited by LLMs, or appear in AI-generated answers. Also use when the user mentions 'AI SEO,...", "description_zh": "", "downloads": 24, "homepage": "https://clawhub.ai/mariokarras/abm-ai-seo", "iconUrl": null, "installs": 0, "name": "Ai Seo", "ownerName": "mariokarras", "score": 96000, "slug": "abm-ai-seo", "source": "clawhub", "stars": 0, "tags": null, "updated_at": 1776698984369, "version": "1.0.0"}, {"category": "", "created_at": 1774954717387, "description": "Build a two-tier sunset workflow that re-engages dormant contacts before suppressing them. Tier 1 triggers a re-engagement campaign after a configurable inac...", "description_zh": "", "downloads": 24, "homepage": "https://clawhub.ai/tomgranot/engagement-suppression-workflow", "iconUrl": null, "installs": 0, "name": "Engagement Suppression Workflow", "ownerName": "tomgranot", "score": 96000, "slug": "engagement-suppression-workflow", "source": "clawhub", "stars": 0, "tags": null, "updated_at": 1776698984365, "version": "1.0.0"}, {"category": "", "created_at": 1774880557198, "description": "Audio tagging service for environmental sound recognition. Use when user needs to identify environmental sounds in audio files (water sounds, snoring, etc.)...", "description_zh": "", "downloads": 24, "homepage": "https://clawhub.ai/jimbozhang/midasheng-audio-tagging", "iconUrl": null, "installs": 0, "name": "midasheng-audio-tagging", "ownerName": "jimbozhang", "score": 96000, "slug": "midasheng-audio-tagging", "source": "clawhub", "stars": 0, "tags": null, "updated_at": 1776698984361, "version": "1.0.0"}, {"category": "", "created_at": 1774892834477, "description": "Analyze finality operations. Use when you need to understand finality mechanisms, evaluate protocol security, or reference on-chain concepts.", "description_zh": "", "downloads": 24, "homepage": "https://clawhub.ai/ckchzh/finality", "iconUrl": null, "installs": 0, "name": "Finality", "ownerName": "ckchzh", "score": 96000, "slug": "finality", "source": "clawhub", "stars": 0, "tags": null, "updated_at": 1776698984352, "version": "1.0.0"}, {"category": "", "created_at": 1774890110191, "description": "Generate placeholder text for design mockups, development, and testing. Supports classic Lorem Ipsum, hipster-style, and tech jargon. Output as plain text, H...", "description_zh": "", "downloads": 24, "homepage": "https://clawhub.ai/johnnywang2001/lorem-gen", "iconUrl": null, "installs": 0, "name": "Lorem Gen", "ownerName": "johnnywang2001", "score": 96000, "slug": "lorem-gen", "source": "clawhub", "stars": 0, "tags": null, "updated_at": 1776698984349, "version": "1.0.0"}, {"category": "", "created_at": 1774881288313, "description": "Adaptive multi-agent team for software project reviews. Auto-selects collaboration mode (centralized / domain-lead / peer) and runs a 3-round workflow (facts...", "description_zh": "", "downloads": 24, "homepage": "https://clawhub.ai/joe-rq/adaptive-team-research", "iconUrl": null, "installs": 1, "name": "Adaptive Team Research", "ownerName": "joe-rq", "score": 96000, "slug": "adaptive-team-research", "source": "clawhub", "stars": 0, "tags": null, "updated_at": 1776698984346, "version": "1.3.1"}, {"category": "", "created_at": 1774924809536, "description": "Multi-agent development workflow with Sprint Contracts and independent QA evaluation. Use when building features, fixing complex bugs, or any task that invol...", "description_zh": "", "downloads": 24, "homepage": "https://clawhub.ai/mrpixelraf/sprint-contract", "iconUrl": null, "installs": 0, "name": "Sprint Contract", "ownerName": "mrpixelraf", "score": 96000, "slug": "sprint-contract", "source": "clawhub", "stars": 0, "tags": ["evaluation", "multi-agent", "qa", "quality", "workflow"], "updated_at": 1776698984326, "version": "1.0.0"}, {"category": "", "created_at": 1774919908010, "description": "Freshmarketer integration. Manage Leads, Persons, Organizations, Deals, Pipelines, Activities and more. Use when the user wants to interact with Freshmarkete...", "description_zh": "", "downloads": 24, "homepage": "https://clawhub.ai/gora050/freshmarketer", "iconUrl": null, "installs": 0, "name": "Freshmarketer", "ownerName": "gora050", "score": 96000, "slug": "freshmarketer", "source": "clawhub", "stars": 0, "tags": null, "updated_at": 1776698984323, "version": "1.0.0"}, {"category": "", "created_at": 1774854528617, "description": "Erstellt und überarbeitet hochqualitative deutsche Bewerbungsunterlagen (Lebenslauf, Anschreiben) für Fachinformatiker Systemintegration. Analysiert bestehen...", "description_zh": "", "downloads": 24, "homepage": "https://clawhub.ai/arn0ld87/bewerbung-fisi", "iconUrl": null, "installs": 0, "name": "Bewerbung FISI", "ownerName": "arn0ld87", "score": 96000, "slug": "bewerbung-fisi", "source": "clawhub", "stars": 0, "tags": ["anschreiben", "bewerbung", "fachinformatiker", "karriere", "lebenslauf", "systemintegration"], "updated_at": 1776698984317, "version": "1.0.0"}, {"category": "", "created_at": 1774886413873, "description": "When the user wants to create video content for social media platforms using Remotion. Also use when the user mentions 'social video,' 'video for social,' 's...", "description_zh": "", "downloads": 24, "homepage": "https://clawhub.ai/mariokarras/abm-social-video-content", "iconUrl": null, "installs": 0, "name": "Social Video Content", "ownerName": "mariokarras", "score": 96000, "slug": "abm-social-video-content", "source": "clawhub", "stars": 0, "tags": null, "updated_at": 1776698984315, "version": "1.0.0"}, {"category": "", "created_at": 1774956457442, "description": "Compare patient pre-admission medication lists with inpatient orders to automatically identify omitted or duplicated medications and improve medication safety.", "description_zh": "", "downloads": 24, "homepage": "https://clawhub.ai/aipoch-ai/medication-reconciliation", "iconUrl": null, "installs": 0, "name": "Medication Reconciliation", "ownerName": "aipoch-ai", "score": 96000, "slug": "medication-reconciliation", "source": "clawhub", "stars": 0, "tags": null, "updated_at": 1776698984312, "version": "1.0.0"}, {"category": "", "created_at": 1774895940698, "description": "Expert guidance for managing Pull Requests and feature branches using Uber's arh CLI tool. Use when creating features, publishing PRs, managing stacked PRs,...", "description_zh": "", "downloads": 24, "homepage": "https://clawhub.ai/ajitsingh25/arh-pr-workflow", "iconUrl": null, "installs": 0, "name": "Arh Pr Workflow", "ownerName": "ajitsingh25", "score": 96000, "slug": "arh-pr-workflow", "source": "clawhub", "stars": 0, "tags": null, "updated_at": 1776698984309, "version": "1.0.0"}, {"category": "", "created_at": 1774901102634, "description": "Liondesk integration. Manage Leads, Persons, Organizations, Deals, Pipelines, Activities and more. Use when the user wants to interact with Liondesk data.", "description_zh": "", "downloads": 24, "homepage": "https://clawhub.ai/gora050/liondesk", "iconUrl": null, "installs": 0, "name": "Liondesk", "ownerName": "gora050", "score": 96000, "slug": "liondesk", "source": "clawhub", "stars": 0, "tags": null, "updated_at": 1776698984304, "version": "1.0.0"}, {"category": "", "created_at": 1774870297926, "description": "Find Reddit threads ranking on Google Page 1 for your keywords. AI drafts contextual replies that naturally mention your product. Copy, paste, post. Free org...", "description_zh": "", "downloads": 24, "homepage": "https://clawhub.ai/aces1up/redditrank", "iconUrl": null, "installs": 0, "name": "RedditRank", "ownerName": "aces1up", "score": 96000, "slug": "redditrank", "source": "clawhub", "stars": 0, "tags": null, "updated_at": 1776698984302, "version": "1.0.2"}, {"category": "", "created_at": 1774919396880, "description": "Implement authentication for AINative APIs. Use when (1) Choosing between API key and JWT auth, (2) Registering/logging in users, (3) Refreshing tokens, (4)...", "description_zh": "", "downloads": 24, "homepage": "https://clawhub.ai/urbantech/ainative-auth-guide", "iconUrl": null, "installs": 0, "name": "Ainative Auth Guide", "ownerName": "urbantech", "score": 96000, "slug": "ainative-auth-guide", "source": "clawhub", "stars": 0, "tags": null, "updated_at": 1776698984296, "version": "1.0.0"}, {"category": "", "created_at": 1774902394495, "description": "Trade on Phemex (USDT-M futures, Coin-M futures, Spot) — place orders, manage positions, check balances, stream real-time market data, and query historical d...", "description_zh": "", "downloads": 24, "homepage": "https://clawhub.ai/phemex/phemex-cli", "iconUrl": null, "installs": 0, "name": "Phemex Cli", "ownerName": "phemex", "score": 96000, "slug": "phemex-cli", "source": "clawhub", "stars": 0, "tags": null, "updated_at": 1776698984291, "version": "2.0.0"}, {"category": "", "created_at": 1774910476393, "description": "Airslate integration. Manage data, records, and automate workflows. Use when the user wants to interact with Airslate data.", "description_zh": "", "downloads": 24, "homepage": "https://clawhub.ai/membranedev/airslate", "iconUrl": null, "installs": 0, "name": "Airslate", "ownerName": "membranedev", "score": 96000, "slug": "airslate", "source": "clawhub", "stars": 0, "tags": null, "updated_at": 1776698984288, "version": "1.0.0"}, {"category": "", "created_at": 1774893290147, "description": "Analyze mev operations. Use when you need to understand mev mechanisms, evaluate protocol security, or reference on-chain concepts.", "description_zh": "", "downloads": 24, "homepage": "https://clawhub.ai/bytesagain1/mev", "iconUrl": null, "installs": 0, "name": "Mev", "ownerName": "bytesagain1", "score": 96000, "slug": "mev", "source": "clawhub", "stars": 0, "tags": null, "updated_at": 1776698984285, "version": "1.0.0"}, {"category": "", "created_at": 1774954827586, "description": "Guide users through Infini's basic API integration and webhook integration with step-by-step explanations, sandbox-first setup, and directly runnable Node.js...", "description_zh": "", "downloads": 24, "homepage": "https://clawhub.ai/cola234/infini-api", "iconUrl": null, "installs": 0, "name": "infini-api", "ownerName": "cola234", "score": 96000, "slug": "infini-api", "source": "clawhub", "stars": 0, "tags": null, "updated_at": 1776698984281, "version": "1.0.0"}, {"category": "", "created_at": 1774902570559, "description": "Order from Panera Bread via Strider Labs MCP connector. Browse menu, customize orders, schedule pickup or delivery, and manage Panera Rewards.", "description_zh": "", "downloads": 24, "homepage": "https://clawhub.ai/markswendsen-code/strider-panera", "iconUrl": null, "installs": 0, "name": "Strider Panera", "ownerName": "markswendsen-code", "score": 96000, "slug": "strider-panera", "source": "clawhub", "stars": 0, "tags": null, "updated_at": 1776698984268, "version": "1.0.0"}, {"category": "", "created_at": 1774883108405, "description": "Build, review, and debug FEniCS or DOLFINx PDE scripts for finite-element workflows. Use when translating PDEs into UFL, selecting function spaces, applying...", "description_zh": "", "downloads": 24, "homepage": "https://clawhub.ai/fzj1214/hpc-fenics", "iconUrl": null, "installs": 0, "name": "Hpc Fenics", "ownerName": "fzj1214", "score": 96000, "slug": "hpc-fenics", "source": "clawhub", "stars": 0, "tags": null, "updated_at": 1776698984266, "version": "0.1.0"}, {"category": "", "created_at": 1774903613860, "description": "Amazon product differentiation strategy tool. Analyze competitor weaknesses, extract pain points from negative reviews, identify unique selling points from p...", "description_zh": "", "downloads": 24, "homepage": "https://clawhub.ai/phheng/product-differentiation-amazon", "iconUrl": null, "installs": 0, "name": "Product Differentiation Amazon", "ownerName": "phheng", "score": 96000, "slug": "product-differentiation-amazon", "source": "clawhub", "stars": 0, "tags": null, "updated_at": 1776698984261, "version": "0.1.0"}, {"category": "", "created_at": 1774899683487, "description": "Seed germination reference — imbibition, dormancy breaking, temperature/moisture requirements, testing protocols. Use when planning seed starting, evaluating...", "description_zh": "", "downloads": 24, "homepage": "https://clawhub.ai/xueyetianya/germination", "iconUrl": null, "installs": 0, "name": "Germination", "ownerName": "xueyetianya", "score": 96000, "slug": "germination", "source": "clawhub", "stars": 0, "tags": null, "updated_at": 1776698984259, "version": "1.0.0"}, {"category": "", "created_at": 1774884128095, "description": "Choose the best first growth path for a new product, new shop, or weak early-stage offer based on product shape, margin room, content readiness, and channel...", "description_zh": "", "downloads": 24, "homepage": "https://clawhub.ai/leooooooow/cold-start-path", "iconUrl": null, "installs": 0, "name": "Cold Start Path", "ownerName": "leooooooow", "score": 96000, "slug": "cold-start-path", "source": "clawhub", "stars": 0, "tags": null, "updated_at": 1776698984258, "version": "1.0.0"}, {"category": "", "created_at": 1774892551677, "description": "Write H2 chapter lead blocks (`sections/S<sec_id>_lead.md`) that preview the chapter's comparison lens and connect its H3 subsections, without adding new fac...", "description_zh": "", "downloads": 24, "homepage": "https://clawhub.ai/willoscar/chapter-lead-writer", "iconUrl": null, "installs": 0, "name": "Chapter Lead Writer", "ownerName": "willoscar", "score": 96000, "slug": "chapter-lead-writer", "source": "clawhub", "stars": 0, "tags": null, "updated_at": 1776698984252, "version": "1.0.0"}, {"category": "", "created_at": 1774885683404, "description": "Use Hive Intelligence MCP through UXC for broad crypto market, onchain, portfolio, and risk workflows with help-first discovery and convenience-layer guardra...", "description_zh": "", "downloads": 24, "homepage": "https://clawhub.ai/jolestar/hive-mcp-skill", "iconUrl": null, "installs": 0, "name": "Hive Mcp Skill", "ownerName": "jolestar", "score": 96000, "slug": "hive-mcp-skill", "source": "clawhub", "stars": 0, "tags": null, "updated_at": 1776698984251, "version": "1.0.0"}, {"category": "", "created_at": 1774885390823, "description": "Check deployment status of PRs and commits using continuous-deployment MCP and UCS deployer MCP. Use when user asks \"is this deployed\", \"check deployment\", \"...", "description_zh": "", "downloads": 24, "homepage": "https://clawhub.ai/ajitsingh25/check-deployment-status", "iconUrl": null, "installs": 1, "name": "Check Deployment Status", "ownerName": "ajitsingh25", "score": 96000, "slug": "check-deployment-status", "source": "clawhub", "stars": 0, "tags": null, "updated_at": 1776698984247, "version": "1.0.0"}, {"category": "", "created_at": 1774847890219, "description": "A thousand lanterns. One stranger. No map.. An immersive journey on drifts.bot — 7 steps, MEDIUM intensity, Several hours. Browse, start, and travel via API.", "description_zh": "", "downloads": 24, "homepage": "https://clawhub.ai/driftsbot/experience-the-night-market", "iconUrl": null, "installs": 0, "name": "Experience The Night Market", "ownerName": "driftsbot", "score": 96000, "slug": "experience-the-night-market", "source": "clawhub", "stars": 0, "tags": null, "updated_at": 1776698984246, "version": "1.0.0"}, {"category": "", "created_at": 1774909909977, "description": "Verify ClawHub login, dry-run sync state, one-off publish success, and cleanup for a local skill workspace.", "description_zh": "", "downloads": 24, "homepage": "https://clawhub.ai/meishiene/meishiene-publish-smoke-20260323-1056", "iconUrl": null, "installs": 0, "name": "ClawHub Publish Smoke Check", "ownerName": "meishiene", "score": 96000, "slug": "meishiene-publish-smoke-20260323-1056", "source": "clawhub", "stars": 0, "tags": null, "updated_at": 1776698984235, "version": "0.0.1"}, {"category": "", "created_at": 1774899713410, "description": "Standardized agent interruptibility and load-status check with fixed trigger words and fixed output. Use when the user sends `Agent Pulse` or `/pulse`, asks...", "description_zh": "", "downloads": 24, "homepage": "https://clawhub.ai/stevengaojn2010/goat-agent-pulse", "iconUrl": null, "installs": 0, "name": "Agent Pulse", "ownerName": "stevengaojn2010", "score": 96000, "slug": "goat-agent-pulse", "source": "clawhub", "stars": 0, "tags": null, "updated_at": 1776698984205, "version": "0.1.0"}, {"category": "", "created_at": 1774849467907, "description": "ที่ปรึกษาด้านการตลาดและการขายที่ใช้หลักการ Brain Audit เป็นกรอบคิดในหัว บทสนทนาเป็นธรรมชาติเหมือนเพื่อนที่เก่งเรื่องนี้มากๆ นั่งคุยกัน ไม่ใช่การกรอกแบบฟอร์ม...", "description_zh": "", "downloads": 24, "homepage": "https://clawhub.ai/golofu/brainauditmarketingadvisor", "iconUrl": null, "installs": 0, "name": "Brain Audit Marketing Advisor", "ownerName": "golofu", "score": 96000, "slug": "brainauditmarketingadvisor", "source": "clawhub", "stars": 0, "tags": null, "updated_at": 1776698984199, "version": "1.0.0"}, {"category": "", "created_at": 1774856693126, "description": "Use Axiom Wallet via MCP to check balance, review account activity, and complete user-requested purchases with single-use payment details.", "description_zh": "", "downloads": 24, "homepage": "https://clawhub.ai/bswaidner/axiom-wallet", "iconUrl": null, "installs": 0, "name": "Axiom", "ownerName": "bswaidner", "score": 96000, "slug": "axiom-wallet", "source": "clawhub", "stars": 0, "tags": null, "updated_at": 1776698984196, "version": "0.0.5"}, {"category": "", "created_at": 1774883927417, "description": "When the user wants to create competitor comparison or alternative pages for SEO and sales enablement. Also use when the user mentions 'alternative page,' 'v...", "description_zh": "", "downloads": 24, "homepage": "https://clawhub.ai/mariokarras/abm-competitor-alternatives", "iconUrl": null, "installs": 0, "name": "Competitor Alternatives", "ownerName": "mariokarras", "score": 96000, "slug": "abm-competitor-alternatives", "source": "clawhub", "stars": 0, "tags": null, "updated_at": 1776698984189, "version": "1.0.0"}, {"category": "", "created_at": 1774949076829, "description": "Use when someone wants to install, configure, onboard, script, or troubleshoot the ricebowl.ai-first ai-media CLI.", "description_zh": "", "downloads": 24, "homepage": "https://clawhub.ai/jinchanzis/ai-media-generator-ai-media-cli", "iconUrl": null, "installs": 1, "name": "Ai Media Cli", "ownerName": "jinchanzis", "score": 96000, "slug": "ai-media-generator-ai-media-cli", "source": "clawhub", "stars": 0, "tags": null, "updated_at": 1776698984185, "version": "1.0.0"}, {"category": "", "created_at": 1774954245742, "description": "Set up Edith smart glasses as an OpenClaw channel. Run this when the user wants to connect their smart glasses to OpenClaw, mentions \"Edith glasses\", or prov...", "description_zh": "", "downloads": 24, "homepage": "https://clawhub.ai/samdickson22/edith", "iconUrl": null, "installs": 0, "name": "Edith", "ownerName": "samdickson22", "score": 96000, "slug": "edith", "source": "clawhub", "stars": 0, "tags": null, "updated_at": 1776698984178, "version": "1.0.0"}, {"category": "", "created_at": 1774866125816, "description": "Verify an EVM transaction's calldata via Tenderly before signing. Confirms which tokens move, in what amounts, and to which addresses. Designed to be called...", "description_zh": "", "downloads": 24, "homepage": "https://clawhub.ai/dougalcantara/onchain-verify-transaction", "iconUrl": null, "installs": 0, "name": "Onchain Verify Transaction", "ownerName": "dougalcantara", "score": 96000, "slug": "onchain-verify-transaction", "source": "clawhub", "stars": 0, "tags": null, "updated_at": 1776698984176, "version": "0.1.3"}, {"category": "", "created_at": 1774924339693, "description": "Manage social media across 9 platforms, track App Store analytics, monitor ASO keywords, analyze competitors, and control subscription pricing — all through...", "description_zh": "", "downloads": 24, "homepage": "https://clawhub.ai/makepost/makepost-com-app-growth", "iconUrl": null, "installs": 0, "name": "MakePost App Growth (via makepost.com)", "ownerName": "makepost", "score": 96000, "slug": "makepost-com-app-growth", "source": "clawhub", "stars": 0, "tags": null, "updated_at": 1776698984175, "version": "1.0.2"}, {"category": "", "created_at": 1774867502431, "description": "Estimate how changes in bundle uptake, upsell acceptance, or cart-building tactics could increase average order value without hiding margin tradeoffs. Use wh...", "description_zh": "", "downloads": 24, "homepage": "https://clawhub.ai/leooooooow/aov-uplift-simulator", "iconUrl": null, "installs": 0, "name": "AOV Uplift Simulator", "ownerName": "leooooooow", "score": 96000, "slug": "aov-uplift-simulator", "source": "clawhub", "stars": 0, "tags": null, "updated_at": 1776698984173, "version": "1.0.0"}, {"category": "", "created_at": 1774943991625, "description": "Build and track your on-chain reputation on the SuperColony hive. Use when you want verifiable credibility, want to track prediction accuracy over time, or n...", "description_zh": "", "downloads": 24, "homepage": "https://clawhub.ai/buildingonchain/agent-reputation-tracker", "iconUrl": null, "installs": 0, "name": "Agent Reputation Tracker", "ownerName": "buildingonchain", "score": 96000, "slug": "agent-reputation-tracker", "source": "clawhub", "stars": 0, "tags": null, "updated_at": 1776698984171, "version": "1.0.0"}, {"category": "", "created_at": 1774922953569, "description": "Newslit integration. Manage Organizations. Use when the user wants to interact with Newslit data.", "description_zh": "", "downloads": 24, "homepage": "https://clawhub.ai/membranedev/newslit", "iconUrl": null, "installs": 0, "name": "Newslit", "ownerName": "membranedev", "score": 96000, "slug": "newslit", "source": "clawhub", "stars": 0, "tags": null, "updated_at": 1776698984158, "version": "1.0.0"}, {"category": "", "created_at": 1774836615508, "description": "Buy, source, and dispute on DHgate with supplier vetting, landed-cost checks, tracking triage, and counterfeit-risk control.", "description_zh": "", "downloads": 24, "homepage": "https://clawhub.ai/ivangdavila/dhgate", "iconUrl": null, "installs": 0, "name": "DHgate", "ownerName": "ivangdavila", "score": 96000, "slug": "dhgate", "source": "clawhub", "stars": 0, "tags": null, "updated_at": 1776698984156, "version": "1.0.0"}, {"category": "", "created_at": 1774885269627, "description": "Actuator selection and sizing calculator", "description_zh": "", "downloads": 24, "homepage": "https://clawhub.ai/ckchzh/actuator", "iconUrl": null, "installs": 0, "name": "Actuator", "ownerName": "ckchzh", "score": 96000, "slug": "actuator", "source": "clawhub", "stars": 0, "tags": null, "updated_at": 1776698984155, "version": "1.0.0"}, {"category": "", "created_at": 1774903765250, "description": "Supercast integration. Manage Persons, Organizations, Deals, Leads, Projects, Pipelines and more. Use when the user wants to interact with Supercast data.", "description_zh": "", "downloads": 24, "homepage": "https://clawhub.ai/gora050/supercast", "iconUrl": null, "installs": 0, "name": "Supercast", "ownerName": "gora050", "score": 96000, "slug": "supercast", "source": "clawhub", "stars": 0, "tags": null, "updated_at": 1776698984151, "version": "1.0.0"}, {"category": "", "created_at": 1774899675944, "description": "Flexie integration. Manage Organizations, Pipelines, Users, Filters. Use when the user wants to interact with Flexie data.", "description_zh": "", "downloads": 24, "homepage": "https://clawhub.ai/gora050/flexie", "iconUrl": null, "installs": 0, "name": "Flexie", "ownerName": "gora050", "score": 96000, "slug": "flexie", "source": "clawhub", "stars": 0, "tags": null, "updated_at": 1776698984141, "version": "1.0.0"}, {"category": "", "created_at": 1774905281467, "description": "Find nearby barbershops. Invoke when user asks for a haircut near me.", "description_zh": "", "downloads": 24, "homepage": "https://clawhub.ai/clawkk/barbershops", "iconUrl": null, "installs": 0, "name": "Nearby Barbershops", "ownerName": "clawkk", "score": 96000, "slug": "barbershops", "source": "clawhub", "stars": 0, "tags": null, "updated_at": 1776698984135, "version": "0.1.0"}, {"category": "", "created_at": 1774952142753, "description": "Gently reframe emotional distress into a more accurate and bearable narrative", "description_zh": "", "downloads": 24, "homepage": "https://clawhub.ai/harrylabsj/gentle-reframe-companion", "iconUrl": null, "installs": 0, "name": "Gentle Reframe Companion", "ownerName": "harrylabsj", "score": 96000, "slug": "gentle-reframe-companion", "source": "clawhub", "stars": 0, "tags": null, "updated_at": 1776698984134, "version": "1.0.0"}, {"category": "", "created_at": 1774921651000, "description": "Deep workflow for evolving monoliths—mapping domains, defining module seams, strangler patterns, data ownership, incremental extraction, and testing/deployme...", "description_zh": "", "downloads": 24, "homepage": "https://clawhub.ai/mikeclaw007/monolith-modularization", "iconUrl": null, "installs": 0, "name": "Monolith Modularization", "ownerName": "mikeclaw007", "score": 96000, "slug": "monolith-modularization", "source": "clawhub", "stars": 0, "tags": null, "updated_at": 1776698984132, "version": "1.0.0"}]}