{"page": 515, "total_pages": 522, "total": 26073, "skills": [{"category": "", "created_at": 1774901700411, "description": "Generate personalized career roadmaps for aspiring Business Intelligence analysts based on assessment data, experience, and professional goals.", "description_zh": "", "downloads": 24, "homepage": "https://clawhub.ai/krishnakumarmahadevan-cmd/bi-analyst", "iconUrl": null, "installs": 0, "name": "BI Analyst", "ownerName": "krishnakumarmahadevan-cmd", "score": 96000, "slug": "bi-analyst", "source": "clawhub", "stars": 0, "tags": null, "updated_at": 1776698984130, "version": "1.0.0"}, {"category": "", "created_at": 1774873456452, "description": "When the user wants to create or optimize an email sequence, drip campaign, automated email flow, or lifecycle email program. Also use when the user mentions...", "description_zh": "", "downloads": 24, "homepage": "https://clawhub.ai/mariokarras/abm-email-sequence", "iconUrl": null, "installs": 0, "name": "Email Sequence", "ownerName": "mariokarras", "score": 96000, "slug": "abm-email-sequence", "source": "clawhub", "stars": 0, "tags": null, "updated_at": 1776698984123, "version": "1.0.0"}, {"category": "", "created_at": 1774866976880, "description": "Which of these addresses are smart money? Batch-profile a list in one call.", "description_zh": "", "downloads": 24, "homepage": "https://clawhub.ai/nansen-devops/nansen-wallet-batch", "iconUrl": null, "installs": 0, "name": "Nansen Wallet Batch", "ownerName": "nansen-devops", "score": 96000, "slug": "nansen-wallet-batch", "source": "clawhub", "stars": 0, "tags": null, "updated_at": 1776698984122, "version": "0.1.0"}, {"category": "", "created_at": 1774901078384, "description": "Kadoa integration. Manage Leads, Persons, Organizations, Deals, Projects, Activities and more. Use when the user wants to interact with Kadoa data.", "description_zh": "", "downloads": 24, "homepage": "https://clawhub.ai/gora050/kadoa", "iconUrl": null, "installs": 0, "name": "Kadoa", "ownerName": "gora050", "score": 96000, "slug": "kadoa", "source": "clawhub", "stars": 0, "tags": null, "updated_at": 1776698984118, "version": "1.0.0"}, {"category": "", "created_at": 1774953805723, "description": "Maintaining hygiene and sanitation when normal infrastructure fails. Use when someone faces a water outage, sewer backup, extended power outage, camping with...", "description_zh": "", "downloads": 24, "homepage": "https://clawhub.ai/howtousehumans/hygiene-without-infrastructure", "iconUrl": null, "installs": 0, "name": "Hygiene Without Infrastructure", "ownerName": "howtousehumans", "score": 96000, "slug": "hygiene-without-infrastructure", "source": "clawhub", "stars": 0, "tags": null, "updated_at": 1776698984113, "version": "1.0.0"}, {"category": "", "created_at": 1774894446991, "description": "Check transaction status on AO bridge", "description_zh": "", "downloads": 24, "homepage": "https://clawhub.ai/charles-lpd/check-ao-transaction", "iconUrl": null, "installs": 0, "name": "check-ao-transaction", "ownerName": "charles-lpd", "score": 96000, "slug": "check-ao-transaction", "source": "clawhub", "stars": 0, "tags": null, "updated_at": 1776698984111, "version": "1.0.0"}, {"category": "", "created_at": 1774887767609, "description": "Create a transparent, sourced “Top 3–5” AI builder signal digest (weekly or date-range) from a list of links or from a local signals log; includes a short “w...", "description_zh": "", "downloads": 24, "homepage": "https://clawhub.ai/justsomeguyin2099/ai-builder-signal-digest", "iconUrl": null, "installs": 0, "name": "AI Builder Signal Digest (Transparent + Sourced)", "ownerName": "justsomeguyin2099", "score": 96000, "slug": "ai-builder-signal-digest", "source": "clawhub", "stars": 0, "tags": ["agents", "ai", "digest", "mcp", "memory", "rag"], "updated_at": 1776698984104, "version": "1.0.0"}, {"category": "", "created_at": 1774922614304, "description": "Intelligent Git workflow assistant following best practices. Use when user needs help with git commits, analyzing changes, writing commit messages, pushing c...", "description_zh": "", "downloads": 24, "homepage": "https://clawhub.ai/guguoyi/effective-git", "iconUrl": null, "installs": 0, "name": "Effective Git", "ownerName": "guguoyi", "score": 96000, "slug": "effective-git", "source": "clawhub", "stars": 0, "tags": null, "updated_at": 1776698984102, "version": "1.0.0"}, {"category": "", "created_at": 1774907483061, "description": "Calculate chmod permissions — convert between numeric (octal) and symbolic notation, and generate the chmod command. Use when the user asks what chmod 755 me...", "description_zh": "", "downloads": 24, "homepage": "https://clawhub.ai/ohernandez-dev-blossom/chmod-calc", "iconUrl": null, "installs": 0, "name": "Chmod Calc", "ownerName": "ohernandez-dev-blossom", "score": 96000, "slug": "chmod-calc", "source": "clawhub", "stars": 0, "tags": null, "updated_at": 1776698984093, "version": "1.0.0"}, {"category": "", "created_at": 1774919863081, "description": "Feel the quiet awe as centuries of devotion echo through painted saints, inviting deep reflection. Explore frescoed walls, decode symbols, and ascend foreste...", "description_zh": "", "downloads": 24, "homepage": "https://clawhub.ai/driftsbot/experience-fresco-silence-bucovina", "iconUrl": null, "installs": 0, "name": "Experience Fresco Silence Bucovina", "ownerName": "driftsbot", "score": 96000, "slug": "experience-fresco-silence-bucovina", "source": "clawhub", "stars": 0, "tags": null, "updated_at": 1776698984089, "version": "1.0.0"}, {"category": "", "created_at": 1774886430137, "description": "AcyMailing integration. Manage data, records, and automate workflows. Use when the user wants to interact with AcyMailing data.", "description_zh": "", "downloads": 24, "homepage": "https://clawhub.ai/gora050/acymailing", "iconUrl": null, "installs": 0, "name": "Acymailing", "ownerName": "gora050", "score": 96000, "slug": "acymailing", "source": "clawhub", "stars": 0, "tags": null, "updated_at": 1776698984067, "version": "1.0.0"}, {"category": "", "created_at": 1774917984168, "description": "Feel a deep sense of awe as the fleeting cherry blossoms shift into shadowed whispers, inviting quiet contemplation of impermanence. Stroll the ancient Kyoto...", "description_zh": "", "downloads": 24, "homepage": "https://clawhub.ai/driftsbot/experience-kyoto-shadow-petals", "iconUrl": null, "installs": 0, "name": "Experience Kyoto Shadow Petals", "ownerName": "driftsbot", "score": 96000, "slug": "experience-kyoto-shadow-petals", "source": "clawhub", "stars": 0, "tags": null, "updated_at": 1776698984049, "version": "1.0.0"}, {"category": "", "created_at": 1774893868643, "description": "Social media engagement audit and optimization plan. Analyze your engagement rate, identify what's working and what's not, and get a specific action plan to...", "description_zh": "", "downloads": 24, "homepage": "https://clawhub.ai/mguozhen/social-engagement-audit", "iconUrl": null, "installs": 0, "name": "Social Engagement Audit", "ownerName": "mguozhen", "score": 96000, "slug": "social-engagement-audit", "source": "clawhub", "stars": 0, "tags": null, "updated_at": 1776698984028, "version": "1.0.0"}, {"category": "", "created_at": 1774920182212, "description": "Perform text review on user-specified input text that may be inappropriate or offensive.", "description_zh": "", "downloads": 24, "homepage": "https://clawhub.ai/fchange/moark-text-moderations", "iconUrl": null, "installs": 0, "name": "Moark Text Moderations", "ownerName": "fchange", "score": 96000, "slug": "moark-text-moderations", "source": "clawhub", "stars": 0, "tags": null, "updated_at": 1776698984027, "version": "1.0.0"}, {"category": "", "created_at": 1774891733779, "description": "Ongage integration. Manage Accounts. Use when the user wants to interact with Ongage data.", "description_zh": "", "downloads": 24, "homepage": "https://clawhub.ai/gora050/ongage", "iconUrl": null, "installs": 0, "name": "Ongage", "ownerName": "gora050", "score": 96000, "slug": "ongage", "source": "clawhub", "stars": 0, "tags": null, "updated_at": 1776698984017, "version": "1.0.0"}, {"category": "", "created_at": 1774883569454, "description": "Searches aptos-core and daily-move for reference implementations before writing contracts. Triggers on: 'search examples', 'find example', 'check aptos-core'...", "description_zh": "", "downloads": 24, "homepage": "https://clawhub.ai/iskysun96/search-aptos-examples", "iconUrl": null, "installs": 1, "name": "Search Aptos Examples", "ownerName": "iskysun96", "score": 96000, "slug": "search-aptos-examples", "source": "clawhub", "stars": 0, "tags": null, "updated_at": 1776698984015, "version": "1.0.0"}, {"category": "", "created_at": 1774916098077, "description": "Action Builder integration. Manage data, records, and automate workflows. Use when the user wants to interact with Action Builder data.", "description_zh": "", "downloads": 24, "homepage": "https://clawhub.ai/gora050/action-builder", "iconUrl": null, "installs": 0, "name": "Action Builder", "ownerName": "gora050", "score": 96000, "slug": "action-builder", "source": "clawhub", "stars": 0, "tags": null, "updated_at": 1776698984013, "version": "1.0.0"}, {"category": "", "created_at": 1774948198450, "description": "Actually living on 60% less when income drops drastically. Not \"cut the lattes\" — real austerity: which bills to pay first, what to negotiate, what to stop c...", "description_zh": "", "downloads": 24, "homepage": "https://clawhub.ai/howtousehumans/austerity-living", "iconUrl": null, "installs": 0, "name": "Austerity Living", "ownerName": "howtousehumans", "score": 96000, "slug": "austerity-living", "source": "clawhub", "stars": 0, "tags": null, "updated_at": 1776698984009, "version": "1.0.0"}, {"category": "", "created_at": 1774954190969, "description": "AnnounceKit integration. Manage data, records, and automate workflows. Use when the user wants to interact with AnnounceKit data.", "description_zh": "", "downloads": 24, "homepage": "https://clawhub.ai/gora050/announcekit", "iconUrl": null, "installs": 0, "name": "Announcekit", "ownerName": "gora050", "score": 96000, "slug": "announcekit", "source": "clawhub", "stars": 0, "tags": null, "updated_at": 1776698984001, "version": "1.0.0"}, {"category": "", "created_at": 1774806563160, "description": "News intelligence API for AI agents. Semantic search 211K+ articles, 3,486 feeds, 14 categories, 60+ country tags, sentiment scoring, entity extraction, sour...", "description_zh": "", "downloads": 24, "homepage": "https://clawhub.ai/angpenghian/agenttimes", "iconUrl": null, "installs": 0, "name": "Agenttimes", "ownerName": "angpenghian", "score": 96000, "slug": "agenttimes", "source": "clawhub", "stars": 0, "tags": null, "updated_at": 1776698983999, "version": "6.0.0"}, {"category": "", "created_at": 1774900494705, "description": "Perform 12-Factor App compliance analysis on any codebase. Use when evaluating application architecture, auditing SaaS applications, or reviewing cloud-nativ...", "description_zh": "", "downloads": 24, "homepage": "https://clawhub.ai/anderskev/12-factor-apps", "iconUrl": null, "installs": 0, "name": "12 Factor Apps", "ownerName": "anderskev", "score": 96000, "slug": "12-factor-apps", "source": "clawhub", "stars": 0, "tags": null, "updated_at": 1776698983992, "version": "1.0.0"}, {"category": "", "created_at": 1774899390995, "description": "Blackfire integration. Manage data, records, and automate workflows. Use when the user wants to interact with Blackfire data.", "description_zh": "", "downloads": 24, "homepage": "https://clawhub.ai/gora050/blackfire", "iconUrl": null, "installs": 0, "name": "Blackfire", "ownerName": "gora050", "score": 96000, "slug": "blackfire", "source": "clawhub", "stars": 0, "tags": null, "updated_at": 1776698983990, "version": "1.0.0"}, {"category": "", "created_at": 1774905679795, "description": "Top-tier GEO (Generative Engine Optimization) expert agent for managing daily AI visibility operations. Use this skill whenever someone wants to optimize bra...", "description_zh": "", "downloads": 24, "homepage": "https://clawhub.ai/kenerlee/moments-geo-claw", "iconUrl": null, "installs": 0, "name": "Moments GEO skills", "ownerName": "kenerlee", "score": 96000, "slug": "moments-geo-claw", "source": "clawhub", "stars": 0, "tags": null, "updated_at": 1776698983984, "version": "1.0.0"}, {"category": "", "created_at": 1774902772950, "description": "1CRM integration. Manage data, records, and automate workflows. Use when the user wants to interact with 1CRM data.", "description_zh": "", "downloads": 24, "homepage": "https://clawhub.ai/gora050/1crm", "iconUrl": null, "installs": 0, "name": "1Crm", "ownerName": "gora050", "score": 96000, "slug": "1crm", "source": "clawhub", "stars": 0, "tags": null, "updated_at": 1776698983970, "version": "1.0.0"}, {"category": "", "created_at": 1774908126690, "description": "When the user wants to create, optimize, or audit alternatives or comparison content (page or blog article). Also use when the user mentions \"alternatives pa...", "description_zh": "", "downloads": 24, "homepage": "https://clawhub.ai/kostja94/alternatives-page-generator", "iconUrl": null, "installs": 0, "name": "alternatives-page-generator", "ownerName": "kostja94", "score": 96000, "slug": "alternatives-page-generator", "source": "clawhub", "stars": 0, "tags": null, "updated_at": 1776698983966, "version": "1.2.0"}, {"category": "", "created_at": 1774917080266, "description": "Onfleet integration. Manage Organizations. Use when the user wants to interact with Onfleet data.", "description_zh": "", "downloads": 24, "homepage": "https://clawhub.ai/gora050/onfleet", "iconUrl": null, "installs": 0, "name": "Onfleet", "ownerName": "gora050", "score": 96000, "slug": "onfleet", "source": "clawhub", "stars": 0, "tags": null, "updated_at": 1776698983957, "version": "1.0.0"}, {"category": "", "created_at": 1774895335942, "description": "Query Art Blocks on-chain data using the artblocks-mcp GraphQL tools. Use when fetching projects, tokens, artists, sales, traits, or any Art Blocks on-chain...", "description_zh": "", "downloads": 24, "homepage": "https://clawhub.ai/ryley-o/query-artblocks-data", "iconUrl": null, "installs": 0, "name": "Query Artblocks Data", "ownerName": "ryley-o", "score": 96000, "slug": "query-artblocks-data", "source": "clawhub", "stars": 0, "tags": null, "updated_at": 1776698983951, "version": "1.0.0"}, {"category": "", "created_at": 1774949035848, "description": "1S2U integration. Manage data, records, and automate workflows. Use when the user wants to interact with 1S2U data.", "description_zh": "", "downloads": 24, "homepage": "https://clawhub.ai/gora050/1s2u", "iconUrl": null, "installs": 0, "name": "1S2U", "ownerName": "gora050", "score": 96000, "slug": "1s2u", "source": "clawhub", "stars": 0, "tags": null, "updated_at": 1776698983939, "version": "1.0.0"}, {"category": "", "created_at": 1774864086304, "description": "System scheduler and priority queue manager. Determines what gets attention next across all pending work. Use when prioritizing competing tasks, checking que...", "description_zh": "", "downloads": 24, "homepage": "https://clawhub.ai/indigokarasu/ocas-triage", "iconUrl": null, "installs": 0, "name": "Ocas Triage", "ownerName": "indigokarasu", "score": 96000, "slug": "ocas-triage", "source": "clawhub", "stars": 0, "tags": null, "updated_at": 1776698983937, "version": "1.2.0"}, {"category": "", "created_at": 1774913484849, "description": "Manage Zilliz Cloud vector databases via zilliz-cli. Use when the user wants to: (1) set up zilliz-cli (install, login, configure), (2) manage clusters (crea...", "description_zh": "", "downloads": 24, "homepage": "https://clawhub.ai/zhanshuyou/zilliz-skill", "iconUrl": null, "installs": 0, "name": "Zilliz Skill", "ownerName": "zhanshuyou", "score": 96000, "slug": "zilliz-skill", "source": "clawhub", "stars": 0, "tags": null, "updated_at": 1776698983935, "version": "0.0.2"}, {"category": "", "created_at": 1774925806533, "description": "Generates a personalised Mandarin Chinese practice session based on HSK level. Covers vocabulary, grammar, characters, tones, reading, and speaking prompts....", "description_zh": "", "downloads": 24, "homepage": "https://clawhub.ai/tetsuakira-vk/mandarin-chinese-daily-drill", "iconUrl": null, "installs": 0, "name": "Mandarin Chinese Daily Drill", "ownerName": "tetsuakira-vk", "score": 96000, "slug": "mandarin-chinese-daily-drill", "source": "clawhub", "stars": 0, "tags": null, "updated_at": 1776698983926, "version": "1.0.0"}, {"category": "", "created_at": 1774915112777, "description": "AI Compact Protocol (AICP) - Token-efficient wire format for AI-to-AI communication with glossary compression. Reduces token usage by 50-65% for agent chatter.", "description_zh": "", "downloads": 24, "homepage": "https://clawhub.ai/krischristen-hash/aicp-protocol", "iconUrl": null, "installs": 0, "name": "AICP Protocol", "ownerName": "krischristen-hash", "score": 96000, "slug": "aicp-protocol", "source": "clawhub", "stars": 0, "tags": null, "updated_at": 1776698983923, "version": "1.0.0"}, {"category": "", "created_at": 1774806058817, "description": "Call LogicX frontend proxy APIs for health checks, browser binding, password login, user info, orders, payments, and account actions.", "description_zh": "", "downloads": 24, "homepage": "https://clawhub.ai/qihangyang/logicx-skill-test", "iconUrl": null, "installs": 0, "name": "logicx-skill-test", "ownerName": "qihangyang", "score": 96000, "slug": "logicx-skill-test", "source": "clawhub", "stars": 0, "tags": null, "updated_at": 1776698983921, "version": "0.0.8"}, {"category": "", "created_at": 1774870888040, "description": "Analyze and optimize Aptos Move contracts for gas efficiency, identifying expensive operations and suggesting optimizations. Triggers on: 'optimize gas', 're...", "description_zh": "", "downloads": 24, "homepage": "https://clawhub.ai/iskysun96/analyze-gas-optimization", "iconUrl": null, "installs": 0, "name": "Analyze Gas Optimization", "ownerName": "iskysun96", "score": 96000, "slug": "analyze-gas-optimization", "source": "clawhub", "stars": 0, "tags": null, "updated_at": 1776698983901, "version": "1.0.0"}, {"category": "", "created_at": 1774880597465, "description": "Ometria integration. Manage Persons, Organizations, Deals, Pipelines, Activities, Notes and more. Use when the user wants to interact with Ometria data.", "description_zh": "", "downloads": 24, "homepage": "https://clawhub.ai/gora050/ometria", "iconUrl": null, "installs": 0, "name": "Ometria", "ownerName": "gora050", "score": 96000, "slug": "ometria", "source": "clawhub", "stars": 0, "tags": null, "updated_at": 1776698983886, "version": "1.0.0"}, {"category": "", "created_at": 1774899415966, "description": "Trade Polymarket 5-minute crypto fast markets using 1-minute candle body analysis and volume surge detection from Binance. Scans BTC, ETH, SOL, XRP, BNB simu...", "description_zh": "", "downloads": 24, "homepage": "https://clawhub.ai/mibayy/candle-momentum", "iconUrl": null, "installs": 0, "name": "Polymarket Candle Momentum", "ownerName": "mibayy", "score": 96000, "slug": "candle-momentum", "source": "clawhub", "stars": 0, "tags": null, "updated_at": 1776698983875, "version": "2.0.1"}, {"category": "", "created_at": 1774925262340, "description": "Injury prevention through proper body mechanics for physical work. Use when someone has a physically demanding job, needs to lift heavy objects safely, stand...", "description_zh": "", "downloads": 24, "homepage": "https://clawhub.ai/howtousehumans/body-mechanics-injury-prevention", "iconUrl": null, "installs": 0, "name": "Body Mechanics Injury Prevention", "ownerName": "howtousehumans", "score": 96000, "slug": "body-mechanics-injury-prevention", "source": "clawhub", "stars": 0, "tags": null, "updated_at": 1776698983872, "version": "1.0.0"}, {"category": "", "created_at": 1774851854570, "description": "Manage AI configuration for OpenClaw, OpenCode, Codex CLI, and Claude Code. Use when the user wants to add/remove models or providers, switch default or agen...", "description_zh": "", "downloads": 24, "homepage": "https://clawhub.ai/mkuiwu/ai-config-admin", "iconUrl": null, "installs": 0, "name": "Ai Config Admin", "ownerName": "mkuiwu", "score": 96000, "slug": "ai-config-admin", "source": "clawhub", "stars": 0, "tags": null, "updated_at": 1776698983870, "version": "1.1.0"}, {"category": "", "created_at": 1774910662762, "description": "Feel the awe of ancient stone humming under supermoon fire, a visceral reminder of time’s transformation. Traverse the rim trail at night, letting heat pulse...", "description_zh": "", "downloads": 24, "homepage": "https://clawhub.ai/driftsbot/experience-canyon-bone-fever", "iconUrl": null, "installs": 0, "name": "Experience Canyon Bone Fever", "ownerName": "driftsbot", "score": 96000, "slug": "experience-canyon-bone-fever", "source": "clawhub", "stars": 0, "tags": null, "updated_at": 1776698983863, "version": "1.0.0"}, {"category": "", "created_at": 1774829922332, "description": "Submit, discover, vote on, and comment on AI agent-built projects on AgentMade — the first public directory dedicated to things built by AI agents. Use this...", "description_zh": "", "downloads": 24, "homepage": "https://clawhub.ai/ergopitrez/agentmade", "iconUrl": null, "installs": 0, "name": "AgentMade — Directory for Agent-Built Projects", "ownerName": "ergopitrez", "score": 96000, "slug": "agentmade", "source": "clawhub", "stars": 0, "tags": ["ai-agents", "directory", "discovery", "showcase"], "updated_at": 1776698983852, "version": "1.3.0"}, {"category": "", "created_at": 1774908193913, "description": "Comprehensive business continuity planning including emergency plans, critical alternatives, drill scripts, and recovery procedures. Covers risk assessment,...", "description_zh": "", "downloads": 24, "homepage": "https://clawhub.ai/1970168137/bcp-plan", "iconUrl": null, "installs": 0, "name": "Bcp Plan", "ownerName": "1970168137", "score": 96000, "slug": "bcp-plan", "source": "clawhub", "stars": 0, "tags": null, "updated_at": 1776698983849, "version": "1.0.0"}, {"category": "", "created_at": 1774869636750, "description": "Calculate Body Mass Index (BMI) and Body Surface Area (BSA) for clinical assessment and drug dosing. Supports multiple BSA formulas (DuBois, Mosteller, Hayco...", "description_zh": "", "downloads": 24, "homepage": "https://clawhub.ai/aipoch-ai/bmi-bsa-calculator", "iconUrl": null, "installs": 0, "name": "Bmi Bsa Calculator", "ownerName": "aipoch-ai", "score": 96000, "slug": "bmi-bsa-calculator", "source": "clawhub", "stars": 0, "tags": null, "updated_at": 1776698983845, "version": "0.1.0"}, {"category": "", "created_at": 1774905006181, "description": "Remove or replace a video background with a solid color via WeryAI (video-background-remove). Use when the user wants background removal or a flat-color back...", "description_zh": "", "downloads": 24, "homepage": "https://clawhub.ai/zoucdr/video-tool-background-remove", "iconUrl": null, "installs": 0, "name": "WeryAI video tool — background remove", "ownerName": "zoucdr", "score": 96000, "slug": "video-tool-background-remove", "source": "clawhub", "stars": 0, "tags": null, "updated_at": 1776698983840, "version": "1.0.0"}, {"category": "", "created_at": 1774857526970, "description": "Find nearby ATMs. Invoke when user asks for cash withdrawal near me.", "description_zh": "", "downloads": 24, "homepage": "https://clawhub.ai/codekungfu/atms", "iconUrl": null, "installs": 0, "name": "附近取款机", "ownerName": "codekungfu", "score": 96000, "slug": "atms", "source": "clawhub", "stars": 0, "tags": null, "updated_at": 1776698983837, "version": "0.1.0"}, {"category": "", "created_at": 1774949176957, "description": "Introduction to backyard beekeeping including equipment, hive management, and honey harvesting. Use when someone wants to start beekeeping, improve garden po...", "description_zh": "", "downloads": 24, "homepage": "https://clawhub.ai/howtousehumans/beekeeping-basics", "iconUrl": null, "installs": 0, "name": "Beekeeping Basics", "ownerName": "howtousehumans", "score": 96000, "slug": "beekeeping-basics", "source": "clawhub", "stars": 0, "tags": null, "updated_at": 1776698983831, "version": "1.0.0"}, {"category": "", "created_at": 1774892463325, "description": "Data and text alignment reference — sequence alignment, text formatting, memory alignment, and CSS/layout alignment. Use when aligning sequences, formatting...", "description_zh": "", "downloads": 24, "homepage": "https://clawhub.ai/bytesagain3/align", "iconUrl": null, "installs": 0, "name": "Align", "ownerName": "bytesagain3", "score": 96000, "slug": "align", "source": "clawhub", "stars": 0, "tags": null, "updated_at": 1776698983826, "version": "1.0.0"}, {"category": "", "created_at": 1774881162222, "description": "answer questions about agentbox cloud sandboxes using the official docs. use when the user wants help with agentbox quickstart, sandbox lifecycle, timeout, c...", "description_zh": "", "downloads": 24, "homepage": "https://clawhub.ai/guoygang/agentbox-sandbox", "iconUrl": null, "installs": 0, "name": "AgentBox Sandbox", "ownerName": "guoygang", "score": 96000, "slug": "agentbox-sandbox", "source": "clawhub", "stars": 0, "tags": null, "updated_at": 1776698983813, "version": "1.0.0"}, {"category": "", "created_at": 1774891020490, "description": "JavaScript SDK and CLI for Circle Chain (@lidh04/circle-chain-sdk): user auth, wallet, block, miner, transfers, contacts. Global CLI binary `circle`. Use whe...", "description_zh": "", "downloads": 24, "homepage": "https://clawhub.ai/lidh04/circle-chain-skill", "iconUrl": null, "installs": 0, "name": "circle chain skill", "ownerName": "lidh04", "score": 96000, "slug": "circle-chain-skill", "source": "clawhub", "stars": 0, "tags": null, "updated_at": 1776698983808, "version": "1.1.1"}, {"category": "", "created_at": 1774847354066, "description": "Propose on-chain payments from a shared wallet. Use when user asks to send crypto, make a payment, or create a shared wallet.", "description_zh": "", "downloads": 24, "homepage": "https://clawhub.ai/xhyumiracle/nodpay", "iconUrl": null, "installs": 0, "name": "NodPay", "ownerName": "xhyumiracle", "score": 96000, "slug": "nodpay", "source": "clawhub", "stars": 0, "tags": null, "updated_at": 1776698983806, "version": "0.2.33"}, {"category": "", "created_at": 1774953777418, "description": "Advanced code review assistant with intelligent analysis, multi-language support, and structured feedback. Performs comprehensive reviews covering correctnes...", "description_zh": "", "downloads": 24, "homepage": "https://clawhub.ai/gou1995/goudantest", "iconUrl": null, "installs": 0, "name": "goudantest", "ownerName": "gou1995", "score": 96000, "slug": "goudantest", "source": "clawhub", "stars": 0, "tags": null, "updated_at": 1776698983802, "version": "1.0.0"}]}