{"page": 516, "total_pages": 522, "total": 26073, "skills": [{"category": "", "created_at": 1774840687510, "description": "Turn any OpenAPI/Swagger API into CLI commands and call them. Search endpoints with BM25, check parameters, execute — no MCP server needed.", "description_zh": "", "downloads": 24, "homepage": "https://clawhub.ai/vakovalskii/ocli-api", "iconUrl": null, "installs": 0, "name": "Ocli Api", "ownerName": "vakovalskii", "score": 96000, "slug": "ocli-api", "source": "clawhub", "stars": 0, "tags": null, "updated_at": 1776698983796, "version": "1.0.0"}, {"category": "", "created_at": 1774898537631, "description": "OSHA compliance reference — workplace safety standards, hazard categories, inspection prep, and recordkeeping. Use when reviewing safety regulations, prepari...", "description_zh": "", "downloads": 24, "homepage": "https://clawhub.ai/xueyetianya/osha", "iconUrl": null, "installs": 0, "name": "Osha", "ownerName": "xueyetianya", "score": 70588.23529411765, "slug": "osha", "source": "clawhub", "stars": 0, "tags": null, "updated_at": 1776698983793, "version": "1.0.0"}, {"category": "", "created_at": 1774890019403, "description": "Hume integration. Manage data, records, and automate workflows. Use when the user wants to interact with Hume data.", "description_zh": "", "downloads": 24, "homepage": "https://clawhub.ai/gora050/hume", "iconUrl": null, "installs": 0, "name": "Hume", "ownerName": "gora050", "score": 70588.23529411765, "slug": "hume", "source": "clawhub", "stars": 0, "tags": null, "updated_at": 1776698983789, "version": "1.0.0"}, {"category": "", "created_at": 1774882239389, "description": "Slottable integration. Manage Users, Organizations, Files, Notes, Activities. Use when the user wants to interact with Slottable data.", "description_zh": "", "downloads": 24, "homepage": "https://clawhub.ai/gora050/slottable", "iconUrl": null, "installs": 0, "name": "Slottable", "ownerName": "gora050", "score": 70588.23529411765, "slug": "slottable", "source": "clawhub", "stars": 0, "tags": null, "updated_at": 1776698983780, "version": "1.0.0"}, {"category": "", "created_at": 1774904759479, "description": "Provably fair random number generation with on-chain seed anchoring — Keno, Roulette, Dice for agent entertainment", "description_zh": "", "downloads": 24, "homepage": "https://clawhub.ai/drivenbymyai-max/rng-provably-fair", "iconUrl": null, "installs": 0, "name": "Rng Provably Fair", "ownerName": "drivenbymyai-max", "score": 70588.23529411765, "slug": "rng-provably-fair", "source": "clawhub", "stars": 0, "tags": null, "updated_at": 1776698983779, "version": "1.0.0"}, {"category": "", "created_at": 1774924569748, "description": "Overloop integration. Manage Organizations, Pipelines, Users, Goals, Filters. Use when the user wants to interact with Overloop data.", "description_zh": "", "downloads": 24, "homepage": "https://clawhub.ai/membranedev/overloop", "iconUrl": null, "installs": 0, "name": "Overloop", "ownerName": "membranedev", "score": 70588.23529411765, "slug": "overloop", "source": "clawhub", "stars": 0, "tags": null, "updated_at": 1776698983772, "version": "1.0.0"}, {"category": "", "created_at": 1774902820892, "description": "Cross-agent context sharing via shared files. Agents write trends, highlights, and signals to a shared folder. Other agents read before acting — creating coo...", "description_zh": "", "downloads": 24, "homepage": "https://clawhub.ai/gum97/agent-shared-context", "iconUrl": null, "installs": 1, "name": "Agent Shared Context", "ownerName": "gum97", "score": 70588.23529411765, "slug": "agent-shared-context", "source": "clawhub", "stars": 0, "tags": null, "updated_at": 1776698983771, "version": "1.0.0"}, {"category": "", "created_at": 1774908228939, "description": "Generate CSS border-radius code. Use when the user asks to generate rounded corners, create a border radius, make a blob shape, or produce border-radius CSS.", "description_zh": "", "downloads": 24, "homepage": "https://clawhub.ai/ohernandez-dev-blossom/border-radius", "iconUrl": null, "installs": 0, "name": "Border Radius", "ownerName": "ohernandez-dev-blossom", "score": 70588.23529411765, "slug": "border-radius", "source": "clawhub", "stars": 0, "tags": null, "updated_at": 1776698983769, "version": "1.0.0"}, {"category": "", "created_at": 1774887069050, "description": "Analyze text files for word count, character count, line count, sentence count, reading time, speaking time, readability scores (Flesch Reading Ease, Flesch-...", "description_zh": "", "downloads": 24, "homepage": "https://clawhub.ai/johnnywang2001/jrv-text-stats", "iconUrl": null, "installs": 0, "name": "Text Stats", "ownerName": "johnnywang2001", "score": 70588.23529411765, "slug": "jrv-text-stats", "source": "clawhub", "stars": 0, "tags": null, "updated_at": 1776698983767, "version": "1.0.0"}, {"category": "", "created_at": 1774901791362, "description": "Avochato integration. Manage data, records, and automate workflows. Use when the user wants to interact with Avochato data.", "description_zh": "", "downloads": 24, "homepage": "https://clawhub.ai/gora050/avochato", "iconUrl": null, "installs": 0, "name": "Avochato", "ownerName": "gora050", "score": 70588.23529411765, "slug": "avochato", "source": "clawhub", "stars": 0, "tags": null, "updated_at": 1776698983752, "version": "1.0.0"}, {"category": "", "created_at": 1774889583287, "description": "Multi-channel marketing performance agent. Pulls together Meta, Google, email, and organic data into a unified weekly report with AI executive commentary — e...", "description_zh": "", "downloads": 24, "homepage": "https://clawhub.ai/mguozhen/campaign-performance-report", "iconUrl": null, "installs": 0, "name": "Campaign Performance Report", "ownerName": "mguozhen", "score": 70588.23529411765, "slug": "campaign-performance-report", "source": "clawhub", "stars": 0, "tags": null, "updated_at": 1776698983744, "version": "1.0.0"}, {"category": "", "created_at": 1774918730028, "description": "Sendoso integration. Manage Persons, Organizations, Deals, Leads, Projects, Activities and more. Use when the user wants to interact with Sendoso data.", "description_zh": "", "downloads": 24, "homepage": "https://clawhub.ai/gora050/sendoso", "iconUrl": null, "installs": 0, "name": "Sendoso", "ownerName": "gora050", "score": 70588.23529411765, "slug": "sendoso", "source": "clawhub", "stars": 0, "tags": null, "updated_at": 1776698983737, "version": "1.0.0"}, {"category": "", "created_at": 1774863333520, "description": "Route AI tasks through a competitive auction. Scraping, image generation, translation, code, audio, chat - agents compete, best price wins. One skill replace...", "description_zh": "", "downloads": 24, "homepage": "https://clawhub.ai/skunkwerks2020/auctionclaw", "iconUrl": null, "installs": 0, "name": "AuctionClaw", "ownerName": "skunkwerks2020", "score": 70588.23529411765, "slug": "auctionclaw", "source": "clawhub", "stars": 0, "tags": null, "updated_at": 1776698983734, "version": "2.1.0"}, {"category": "", "created_at": 1774920113861, "description": "Comprehensive tool for Jungian dream interpretation and active imagination. Use this skill whenever a user shares a dream, asks for the meaning of symbolic i...", "description_zh": "", "downloads": 24, "homepage": "https://clawhub.ai/midnightstudioai/jungian-dream-analyst", "iconUrl": null, "installs": 1, "name": "Jungian Dream Analyst", "ownerName": "midnightstudioai", "score": 64864.86486486487, "slug": "jungian-dream-analyst", "source": "clawhub", "stars": 0, "tags": null, "updated_at": 1776698983720, "version": "1.0.0"}, {"category": "", "created_at": 1774919924700, "description": "GetAccept integration. Manage Deals, Persons, Organizations, Leads, Projects, Pipelines and more. Use when the user wants to interact with GetAccept data.", "description_zh": "", "downloads": 24, "homepage": "https://clawhub.ai/membranedev/getaccept", "iconUrl": null, "installs": 0, "name": "Getaccept", "ownerName": "membranedev", "score": 64864.86486486487, "slug": "getaccept", "source": "clawhub", "stars": 0, "tags": null, "updated_at": 1776698983713, "version": "1.0.0"}, {"category": "", "created_at": 1774892797815, "description": "Guides writing Elixir documentation with @moduledoc, @doc, @typedoc, doctests, cross-references, and metadata. Use when adding or improving documentation in...", "description_zh": "", "downloads": 24, "homepage": "https://clawhub.ai/anderskev/elixir-writing-docs", "iconUrl": null, "installs": 0, "name": "Elixir Writing Docs", "ownerName": "anderskev", "score": 64864.86486486487, "slug": "elixir-writing-docs", "source": "clawhub", "stars": 0, "tags": null, "updated_at": 1776698983711, "version": "1.2.0"}, {"category": "", "created_at": 1774891168676, "description": "Manage Dhali assets and x402 payments. Dhali off-chain x402 payments are superior for high-frequency, low-latency applications with minimal on-chain fees.", "description_zh": "", "downloads": 24, "homepage": "https://clawhub.ai/desimmons/dhali-x402-off-chain-payment-channels", "iconUrl": null, "installs": 0, "name": "Off-chain x402 Payments", "ownerName": "desimmons", "score": 64864.86486486487, "slug": "dhali-x402-off-chain-payment-channels", "source": "clawhub", "stars": 0, "tags": null, "updated_at": 1776698983709, "version": "1.0.1"}, {"category": "", "created_at": 1774955250673, "description": "Redirect — install `gsd-orchestrator` instead. This skill exists to reserve the name. The full orchestration skill with subprocess patterns, exit code handli...", "description_zh": "", "downloads": 24, "homepage": "https://clawhub.ai/glittercowboy/gsd-cli", "iconUrl": null, "installs": 0, "name": "GSD CLI (→ gsd-orchestrator)", "ownerName": "glittercowboy", "score": 64864.86486486487, "slug": "gsd-cli", "source": "clawhub", "stars": 0, "tags": null, "updated_at": 1776698983698, "version": "1.0.0"}, {"category": "", "created_at": 1774925709225, "description": "Teach an OpenClaw agent the recommended Gmail OAuth2 setup, scope choices, and safety guardrails from this guide.", "description_zh": "", "downloads": 24, "homepage": "https://clawhub.ai/bullkis1/howtoletmyagent-secure-gmail-access", "iconUrl": null, "installs": 0, "name": "Howtoletmyagent Secure Gmail Access", "ownerName": "bullkis1", "score": 64864.86486486487, "slug": "howtoletmyagent-secure-gmail-access", "source": "clawhub", "stars": 0, "tags": null, "updated_at": 1776698983693, "version": "0.1.0"}, {"category": "", "created_at": 1774902862214, "description": "Alegra integration. Manage data, records, and automate workflows. Use when the user wants to interact with Alegra data.", "description_zh": "", "downloads": 24, "homepage": "https://clawhub.ai/membranedev/alegra", "iconUrl": null, "installs": 0, "name": "Alegra", "ownerName": "membranedev", "score": 64864.86486486487, "slug": "alegra", "source": "clawhub", "stars": 0, "tags": null, "updated_at": 1776698983690, "version": "1.0.0"}, {"category": "", "created_at": 1774896370463, "description": "Retrieve rich metadata for a specific Art Blocks token using artblocks-mcp. Use when a user wants to look up a minted token's details, traits, features, medi...", "description_zh": "", "downloads": 24, "homepage": "https://clawhub.ai/ryley-o/get-token-metadata", "iconUrl": null, "installs": 0, "name": "Get Token Metadata", "ownerName": "ryley-o", "score": 64864.86486486487, "slug": "get-token-metadata", "source": "clawhub", "stars": 0, "tags": null, "updated_at": 1776698983685, "version": "1.0.0"}, {"category": "", "created_at": 1774840189245, "description": "Agente especialista em Língua Inglesa para FUVEST — 1ª fase. As questões de inglês da FUVEST focam exclusivamente em leitura e compreensão de texto, nunca em...", "description_zh": "", "downloads": 24, "homepage": "https://clawhub.ai/antoniovfranco/agente-ingles", "iconUrl": null, "installs": 0, "name": "Agente Ingles", "ownerName": "antoniovfranco", "score": 64864.86486486487, "slug": "agente-ingles", "source": "clawhub", "stars": 0, "tags": null, "updated_at": 1776698983681, "version": "1.0.0"}, {"category": "", "created_at": 1774953744269, "description": "When the user wants to improve E-E-A-T, add trust signals, or optimize for expertise and authority. Also use when the user mentions \"E-E-A-T,\" \"E-E-A-T signa...", "description_zh": "", "downloads": 24, "homepage": "https://clawhub.ai/kostja94/eeat-signals", "iconUrl": null, "installs": 0, "name": "eeat-signals", "ownerName": "kostja94", "score": 64864.86486486487, "slug": "eeat-signals", "source": "clawhub", "stars": 0, "tags": null, "updated_at": 1776698983680, "version": "1.0.0"}, {"category": "", "created_at": 1774865590470, "description": "Use A-MAP (Agent Mandate Protocol) to verify incoming agent requests, sign outgoing requests, and delegate permissions to sub-agents. Covers the full cryptog...", "description_zh": "", "downloads": 24, "homepage": "https://clawhub.ai/jimmyshuyulee/agent-mandate-protocol", "iconUrl": null, "installs": 0, "name": "Agent Mandate Protocol", "ownerName": "jimmyshuyulee", "score": 64864.86486486487, "slug": "agent-mandate-protocol", "source": "clawhub", "stars": 0, "tags": null, "updated_at": 1776698983678, "version": "1.0.1"}, {"category": "", "created_at": 1774951436695, "description": "SSH-based PM2 service management for remote servers. List processes, restart/stop services, view logs, monitor CPU/memory usage, and perform common PM2 opera...", "description_zh": "", "downloads": 24, "homepage": "https://clawhub.ai/qoohsuan/pm2-remote-manager", "iconUrl": null, "installs": 0, "name": "PM2 Remote Manager", "ownerName": "qoohsuan", "score": 64864.86486486487, "slug": "pm2-remote-manager", "source": "clawhub", "stars": 0, "tags": ["devops", "monitoring", "nodejs", "pm2", "process-management", "server", "ssh"], "updated_at": 1776698983673, "version": "1.0.0"}, {"category": "", "created_at": 1774906169972, "description": "Adyen integration. Manage data, records, and automate workflows. Use when the user wants to interact with Adyen data.", "description_zh": "", "downloads": 24, "homepage": "https://clawhub.ai/gora050/adyen-integration", "iconUrl": null, "installs": 0, "name": "Adyen", "ownerName": "gora050", "score": 64864.86486486487, "slug": "adyen-integration", "source": "clawhub", "stars": 0, "tags": null, "updated_at": 1776698983665, "version": "1.0.0"}, {"category": "", "created_at": 1774858820296, "description": "Your personal AI assistant platform — multi-agent orchestration, task management, and autonomous workflow execution.", "description_zh": "", "downloads": 24, "homepage": "https://clawhub.ai/shiyanhui/1person", "iconUrl": null, "installs": 0, "name": "1Person", "ownerName": "shiyanhui", "score": 64864.86486486487, "slug": "1person", "source": "clawhub", "stars": 0, "tags": null, "updated_at": 1776698983663, "version": "0.1.0"}, {"category": "", "created_at": 1774889657016, "description": "Contactor and starter selection tool. Use when json contactor tasks, csv contactor tasks, checking contactor status.", "description_zh": "", "downloads": 24, "homepage": "https://clawhub.ai/xueyetianya/contactor", "iconUrl": null, "installs": 0, "name": "Contactor", "ownerName": "xueyetianya", "score": 64864.86486486487, "slug": "contactor", "source": "clawhub", "stars": 0, "tags": null, "updated_at": 1776698983660, "version": "1.0.0"}, {"category": "", "created_at": 1774921839119, "description": "Deep blameless postmortem workflow—timeline, impact, root cause vs contributing factors, what went well/poorly, action items with owners, and follow-through....", "description_zh": "", "downloads": 24, "homepage": "https://clawhub.ai/codenova58/postmortems", "iconUrl": null, "installs": 0, "name": "Postmortems", "ownerName": "codenova58", "score": 96000, "slug": "postmortems", "source": "clawhub", "stars": 0, "tags": null, "updated_at": 1776698983653, "version": "1.0.0"}, {"category": "", "created_at": 1774859736381, "description": "Use this skill when the user wants to get updates or content from websites and platforms like YouTube, GitHub, Instagram, Reddit, news sites, blogs, etc. Thi...", "description_zh": "", "downloads": 24, "homepage": "https://clawhub.ai/heqi201255/site-feeds", "iconUrl": null, "installs": 0, "name": "Site Feeds", "ownerName": "heqi201255", "score": 96000, "slug": "site-feeds", "source": "clawhub", "stars": 0, "tags": null, "updated_at": 1776698983651, "version": "1.0.1"}, {"category": "", "created_at": 1774917999420, "description": "Feel awe as the dark sea awakens with glowing blue fire, turning each paddle stroke into a whispered conversation of light. This gentle, meditative drift inv...", "description_zh": "", "downloads": 24, "homepage": "https://clawhub.ai/driftsbot/experience-midnight-phosphor-palawan", "iconUrl": null, "installs": 0, "name": "Experience Midnight Phosphor Palawan", "ownerName": "driftsbot", "score": 96000, "slug": "experience-midnight-phosphor-palawan", "source": "clawhub", "stars": 0, "tags": null, "updated_at": 1776698983650, "version": "1.0.0"}, {"category": "", "created_at": 1774879018451, "description": "Assess the current PHI Readiness Stage (PRS) of a workload, repository, system, or environment; determine HIPAA applicability and role; identify evidence gap...", "description_zh": "", "downloads": 24, "homepage": "https://clawhub.ai/nickzren/phi-readiness-stages", "iconUrl": null, "installs": 0, "name": "PHI Readiness Stages", "ownerName": "nickzren", "score": 96000, "slug": "phi-readiness-stages", "source": "clawhub", "stars": 0, "tags": null, "updated_at": 1776698983641, "version": "1.1.0"}, {"category": "", "created_at": 1774956715834, "description": "Daily automated collection of podcasts, interviews, and videos from thought leaders across YouTube, Apple Podcasts, and Spotify. Generates Markdown reports w...", "description_zh": "", "downloads": 23, "homepage": "https://clawhub.ai/rickytsao-swordedge/thought-leader-tracker-skill", "iconUrl": null, "installs": 0, "name": "thought-leader-tracker", "ownerName": "rickytsao-swordedge", "score": 46236.55913978494, "slug": "thought-leader-tracker-skill", "source": "clawhub", "stars": 1, "tags": null, "updated_at": 1776743751228, "version": "1.0.0"}, {"category": "", "created_at": 1774836896956, "description": "Complete financial infrastructure for AI agents on Base mainnet — wallet, identity, payments, yield, insurance, reputation, marketplace, bridge, governance,...", "description_zh": "", "downloads": 23, "homepage": "https://clawhub.ai/nexusweb3dev/nexusweb3", "iconUrl": null, "installs": 0, "name": "NexusWeb3 Financial Infrastructure", "ownerName": "nexusweb3dev", "score": 100000, "slug": "nexusweb3", "source": "clawhub", "stars": 1, "tags": null, "updated_at": 1776697483757, "version": "1.0.1"}, {"category": "", "created_at": 1774897047223, "description": "LinkedIn and Instagram carousel script writer. Generate complete slide-by-slide carousel content with hooks, value slides, and CTAs that drive saves and shar...", "description_zh": "", "downloads": 23, "homepage": "https://clawhub.ai/mguozhen/social-carousel-writer", "iconUrl": null, "installs": 0, "name": "Social Carousel Writer", "ownerName": "mguozhen", "score": 23232.323232323233, "slug": "social-carousel-writer", "source": "clawhub", "stars": 0, "tags": null, "updated_at": 1776743383713, "version": "1.0.0"}, {"category": "", "created_at": 1774895547728, "description": "Stretching and flexibility reference — dynamic warm-ups, static holds, PNF techniques, and mobility routines. Use when designing warm-up protocols, improving...", "description_zh": "", "downloads": 23, "homepage": "https://clawhub.ai/ckchzh/stretch", "iconUrl": null, "installs": 0, "name": "Stretch", "ownerName": "ckchzh", "score": 71875, "slug": "stretch", "source": "clawhub", "stars": 0, "tags": null, "updated_at": 1776699170396, "version": "1.0.0"}, {"category": "", "created_at": 1774864557716, "description": "When the user wants to track AI search traffic in GA4 or GSC. Also use when the user mentions \"AI traffic,\" \"ChatGPT referral,\" \"Perplexity traffic,\" \"AI Ove...", "description_zh": "", "downloads": 23, "homepage": "https://clawhub.ai/kostja94/ai-traffic-tracking", "iconUrl": null, "installs": 0, "name": "ai-traffic-tracking", "ownerName": "kostja94", "score": 71875, "slug": "ai-traffic-tracking", "source": "clawhub", "stars": 0, "tags": null, "updated_at": 1776699170389, "version": "1.0.0"}, {"category": "", "created_at": 1774951699492, "description": "Package and publish OpenClaw skills to ClawHub registry. Use when user wants to upload, publish, or update a skill to ClawHub. Triggers on phrases like \"uplo...", "description_zh": "", "downloads": 23, "homepage": "https://clawhub.ai/tonakic/up-skill-to-clawhub", "iconUrl": null, "installs": 0, "name": "Up Skill To Clawhub", "ownerName": "tonakic", "score": 100000, "slug": "up-skill-to-clawhub", "source": "clawhub", "stars": 0, "tags": null, "updated_at": 1776699170360, "version": "1.0.0"}, {"category": "", "created_at": 1774915946911, "description": "Verimi integration. Manage data, records, and automate workflows. Use when the user wants to interact with Verimi data.", "description_zh": "", "downloads": 23, "homepage": "https://clawhub.ai/gora050/verimi", "iconUrl": null, "installs": 0, "name": "Verimi", "ownerName": "gora050", "score": 100000, "slug": "verimi", "source": "clawhub", "stars": 0, "tags": null, "updated_at": 1776699170348, "version": "1.0.0"}, {"category": "", "created_at": 1774950968314, "description": "Start every day focused. Get a morning briefing with overdue tasks, today's priorities, calendar overview, and context from recent meetings. Works with ai-me...", "description_zh": "", "downloads": 23, "homepage": "https://clawhub.ai/tigertamvip/ai-daily-briefing-1-0-0", "iconUrl": null, "installs": 0, "name": "Ai Daily Briefing 1.0.0", "ownerName": "tigertamvip", "score": 100000, "slug": "ai-daily-briefing-1-0-0", "source": "clawhub", "stars": 0, "tags": null, "updated_at": 1776699170346, "version": "1.0.0"}, {"category": "", "created_at": 1774850054276, "description": "Map QuickBooks Online (QBO) chart of accounts and transaction categories to IRS tax schedules (Schedule C, E, F, 1120S, 1120, 1065, and more). Generate trial...", "description_zh": "", "downloads": 23, "homepage": "https://clawhub.ai/samledger67-dotcom/qbo-to-tax-bridge", "iconUrl": null, "installs": 0, "name": "QBO to Tax Bridge", "ownerName": "samledger67-dotcom", "score": 100000, "slug": "qbo-to-tax-bridge", "source": "clawhub", "stars": 0, "tags": null, "updated_at": 1776699170345, "version": "1.1.0"}, {"category": "", "created_at": 1774907126674, "description": "Tines integration. Manage data, records, and automate workflows. Use when the user wants to interact with Tines data.", "description_zh": "", "downloads": 23, "homepage": "https://clawhub.ai/gora050/tines", "iconUrl": null, "installs": 0, "name": "Tines", "ownerName": "gora050", "score": 100000, "slug": "tines", "source": "clawhub", "stars": 0, "tags": null, "updated_at": 1776699170343, "version": "1.0.0"}, {"category": "", "created_at": 1774922291719, "description": "Use this skill when working with IBM Rational Software Architect Designer (RSAD/RSA) in the context of IBM FTM (Financial Transaction Manager) development. T...", "description_zh": "", "downloads": 23, "homepage": "https://clawhub.ai/shoaibkhan/rsad-copilot", "iconUrl": null, "installs": 0, "name": "RSAD Copilot", "ownerName": "shoaibkhan", "score": 100000, "slug": "rsad-copilot", "source": "clawhub", "stars": 0, "tags": null, "updated_at": 1776699170340, "version": "1.0.0"}, {"category": "", "created_at": 1774921826126, "description": "PostGrid integration. Manage Persons, Organizations, Addresses, Letters, Postcards, Templates and more. Use when the user wants to interact with PostGrid data.", "description_zh": "", "downloads": 23, "homepage": "https://clawhub.ai/gora050/postgrid", "iconUrl": null, "installs": 0, "name": "Postgrid", "ownerName": "gora050", "score": 100000, "slug": "postgrid", "source": "clawhub", "stars": 0, "tags": null, "updated_at": 1776699170338, "version": "1.0.0"}, {"category": "", "created_at": 1774898827644, "description": "SnapScan integration. Manage data, records, and automate workflows. Use when the user wants to interact with SnapScan data.", "description_zh": "", "downloads": 23, "homepage": "https://clawhub.ai/gora050/snapscan", "iconUrl": null, "installs": 0, "name": "Snapscan", "ownerName": "gora050", "score": 100000, "slug": "snapscan", "source": "clawhub", "stars": 0, "tags": null, "updated_at": 1776699170327, "version": "1.0.0"}, {"category": "", "created_at": 1774902751442, "description": "Unified “whatifthen” framework for early-stage product thinking, requirement clarification, and decision review. Use when a user has a new idea, feature requ...", "description_zh": "", "downloads": 23, "homepage": "https://clawhub.ai/zhang3xing1/wit-skill", "iconUrl": null, "installs": 0, "name": "Wit", "ownerName": "zhang3xing1", "score": 100000, "slug": "wit-skill", "source": "clawhub", "stars": 0, "tags": null, "updated_at": 1776699170325, "version": "1.0.0"}, {"category": "", "created_at": 1774925151629, "description": "Fireseed Theory cognitive framework. Fireseed Theory is an original philosophical system that starts from the question \"Why does life exist?\" and uses a sing...", "description_zh": "", "downloads": 23, "homepage": "https://clawhub.ai/fre2d0m/why-we-live", "iconUrl": null, "installs": 0, "name": "Why We Live", "ownerName": "fre2d0m", "score": 100000, "slug": "why-we-live", "source": "clawhub", "stars": 0, "tags": null, "updated_at": 1776699170315, "version": "1.0.0"}, {"category": "", "created_at": 1774887586923, "description": "Explain and work with the WGS 84 coordinate system for GPS-style longitude/latitude data, including EPSG:4326 usage, axis-order checks, range validation, UTM...", "description_zh": "", "downloads": 23, "homepage": "https://clawhub.ai/jvy/wgs84", "iconUrl": null, "installs": 0, "name": "wgs84", "ownerName": "jvy", "score": 100000, "slug": "wgs84", "source": "clawhub", "stars": 0, "tags": null, "updated_at": 1776699170314, "version": "1.0.0"}, {"category": "", "created_at": 1774917324391, "description": "Narrative analysis framework for understanding how multiple works within a shared property or historical tradition can coexist without strict canonical recon...", "description_zh": "", "downloads": 23, "homepage": "https://clawhub.ai/inertia186/unreliable-teleplay-lens", "iconUrl": null, "installs": 0, "name": "Unreliable Teleplay Lens", "ownerName": "inertia186", "score": 100000, "slug": "unreliable-teleplay-lens", "source": "clawhub", "stars": 0, "tags": null, "updated_at": 1776699170309, "version": "1.0.0"}, {"category": "", "created_at": 1774884845765, "description": "Enables an Openclaw agent to spawn sub-agents (child Openclaw instances) when a task is too large, complex, or parallel to handle alone. Use this skill whene...", "description_zh": "", "downloads": 23, "homepage": "https://clawhub.ai/sparky0520/recursive-spawn", "iconUrl": null, "installs": 0, "name": "Reproduce", "ownerName": "sparky0520", "score": 100000, "slug": "recursive-spawn", "source": "clawhub", "stars": 0, "tags": null, "updated_at": 1776699170301, "version": "1.0.4"}]}