{"page": 517, "total_pages": 522, "total": 26073, "skills": [{"category": "", "created_at": 1774887719667, "description": "Build high-performing OpenClaw agents end-to-end. Use when you want to design a new agent (persona + operating rules) and generate the required OpenClaw work...", "description_zh": "", "downloads": 23, "homepage": "https://clawhub.ai/ryan-wuxl/agent-creator-suite", "iconUrl": null, "installs": 0, "name": "Agent Builder", "ownerName": "ryan-wuxl", "score": 100000, "slug": "agent-creator-suite", "source": "clawhub", "stars": 0, "tags": null, "updated_at": 1776699170297, "version": "1.0.0"}, {"category": "", "created_at": 1774874550790, "description": "Generate competitor analysis with SWOT and market positioning. Use when comparing features, checking market share, analyzing differentiation strategies.", "description_zh": "", "downloads": 23, "homepage": "https://clawhub.ai/bytesagain3/rivalwatch", "iconUrl": null, "installs": 0, "name": "Rivalwatch", "ownerName": "bytesagain3", "score": 100000, "slug": "rivalwatch", "source": "clawhub", "stars": 0, "tags": null, "updated_at": 1776699170292, "version": "2.0.0"}, {"category": "", "created_at": 1774956093012, "description": "Accredible integration. Manage data, records, and automate workflows. Use when the user wants to interact with Accredible data.", "description_zh": "", "downloads": 23, "homepage": "https://clawhub.ai/gora050/accredible", "iconUrl": null, "installs": 0, "name": "Accredible", "ownerName": "gora050", "score": 100000, "slug": "accredible", "source": "clawhub", "stars": 0, "tags": null, "updated_at": 1776699170284, "version": "1.0.0"}, {"category": "", "created_at": 1774953527590, "description": "AudienceLab ad copywriting system. Complete framework for creating high-converting ad scripts, headlines, and hooks. Use when writing ad copy for YourAgency...", "description_zh": "", "downloads": 23, "homepage": "https://clawhub.ai/boris148/ad-copy-system", "iconUrl": null, "installs": 0, "name": "Ad Copy System", "ownerName": "boris148", "score": 100000, "slug": "ad-copy-system", "source": "clawhub", "stars": 0, "tags": null, "updated_at": 1776699170276, "version": "1.0.0"}, {"category": "", "created_at": 1774900346791, "description": "Order from Taco Bell via Strider Labs MCP connector. Browse menu, customize items, use rewards, and schedule pickup or delivery for tacos, burritos, and more.", "description_zh": "", "downloads": 23, "homepage": "https://clawhub.ai/markswendsen-code/strider-tacobell", "iconUrl": null, "installs": 0, "name": "Strider Taco Bell", "ownerName": "markswendsen-code", "score": 100000, "slug": "strider-tacobell", "source": "clawhub", "stars": 0, "tags": null, "updated_at": 1776699170275, "version": "1.0.0"}, {"category": "", "created_at": 1774878200374, "description": "Typed knowledge graph for structured agent memory and composable skills. Use when creating/querying entities (Person, Project, Task, Event, Document), linkin...", "description_zh": "", "downloads": 23, "homepage": "https://clawhub.ai/ywqsimmon/zqtest", "iconUrl": null, "installs": 0, "name": "zqtest", "ownerName": "ywqsimmon", "score": 100000, "slug": "zqtest", "source": "clawhub", "stars": 0, "tags": null, "updated_at": 1776699170268, "version": "1.0.0"}, {"category": "", "created_at": 1774920587803, "description": "SimpleTexting integration. Manage Contacts, Campaigns, Keywords. Use when the user wants to interact with SimpleTexting data.", "description_zh": "", "downloads": 23, "homepage": "https://clawhub.ai/gora050/simpletexting", "iconUrl": null, "installs": 0, "name": "Simpletexting", "ownerName": "gora050", "score": 100000, "slug": "simpletexting", "source": "clawhub", "stars": 0, "tags": null, "updated_at": 1776699170257, "version": "1.0.0"}, {"category": "", "created_at": 1774883720748, "description": "Manage Google Calendar via Strider Labs MCP connector. Create, update, and delete events. Search availability, set reminders, and handle recurring meetings....", "description_zh": "", "downloads": 23, "homepage": "https://clawhub.ai/markswendsen-code/strider-gcal", "iconUrl": null, "installs": 0, "name": "Strider Google Calendar", "ownerName": "markswendsen-code", "score": 100000, "slug": "strider-gcal", "source": "clawhub", "stars": 0, "tags": null, "updated_at": 1776699170231, "version": "1.0.0"}, {"category": "", "created_at": 1774900507769, "description": "Abyssale integration. Manage data, records, and automate workflows. Use when the user wants to interact with Abyssale data.", "description_zh": "", "downloads": 23, "homepage": "https://clawhub.ai/membranedev/abyssale", "iconUrl": null, "installs": 0, "name": "Abyssale", "ownerName": "membranedev", "score": 100000, "slug": "abyssale", "source": "clawhub", "stars": 0, "tags": null, "updated_at": 1776699170229, "version": "1.0.0"}, {"category": "", "created_at": 1774894144907, "description": "Compare composition across segments using 100% stacked bars. Use for competitive analysis, cost structure comparison, and portfolio composition.", "description_zh": "", "downloads": 23, "homepage": "https://clawhub.ai/linuszz/100-percent-bars", "iconUrl": null, "installs": 0, "name": "100 Percent Bars", "ownerName": "linuszz", "score": 100000, "slug": "100-percent-bars", "source": "clawhub", "stars": 0, "tags": null, "updated_at": 1776699170224, "version": "1.0.0"}, {"category": "", "created_at": 1774893671106, "description": "RepliQ integration. Manage Leads, Persons, Organizations, Deals, Projects, Activities and more. Use when the user wants to interact with RepliQ data.", "description_zh": "", "downloads": 23, "homepage": "https://clawhub.ai/gora050/repliq", "iconUrl": null, "installs": 0, "name": "Repliq", "ownerName": "gora050", "score": 100000, "slug": "repliq", "source": "clawhub", "stars": 0, "tags": null, "updated_at": 1776699170219, "version": "1.0.0"}, {"category": "", "created_at": 1774890487277, "description": "Smoove integration. Manage Organizations, Pipelines, Users, Goals, Filters. Use when the user wants to interact with Smoove data.", "description_zh": "", "downloads": 23, "homepage": "https://clawhub.ai/membranedev/smoove", "iconUrl": null, "installs": 0, "name": "Smoove", "ownerName": "membranedev", "score": 100000, "slug": "smoove", "source": "clawhub", "stars": 0, "tags": null, "updated_at": 1776699170196, "version": "1.0.0"}, {"category": "", "created_at": 1774918607924, "description": "Prada luxury fashion, leather goods, and ready-to-wear information. Collections, pricing, stores, and brand news.", "description_zh": "", "downloads": 23, "homepage": "https://clawhub.ai/hanxueyuan/prada", "iconUrl": null, "installs": 0, "name": "Prada", "ownerName": "hanxueyuan", "score": 100000, "slug": "prada", "source": "clawhub", "stars": 0, "tags": null, "updated_at": 1776699170192, "version": "0.1.0"}, {"category": "", "created_at": 1774900273901, "description": "Serpdog integration. Manage Keywords, Websites, Competitors, Users, Projects. Use when the user wants to interact with Serpdog data.", "description_zh": "", "downloads": 23, "homepage": "https://clawhub.ai/gora050/serpdog", "iconUrl": null, "installs": 0, "name": "Serpdog", "ownerName": "gora050", "score": 100000, "slug": "serpdog", "source": "clawhub", "stars": 0, "tags": null, "updated_at": 1776699170190, "version": "1.0.0"}, {"category": "", "created_at": 1774821108154, "description": "Secure Google Drive Mnagement - list, search, upload, create folders, rename, move, share, and permissions (porteden secure alternative).", "description_zh": "", "downloads": 23, "homepage": "https://clawhub.ai/porteden/porteden-drive", "iconUrl": null, "installs": 0, "name": "Secure Google Drive Access for OpenClaw by PortEden", "ownerName": "porteden", "score": 100000, "slug": "porteden-drive", "source": "clawhub", "stars": 0, "tags": null, "updated_at": 1776699170184, "version": "1.0.0"}, {"category": "", "created_at": 1774826963903, "description": "Secure Google Sheets Management - permission-based create, read, write, and append spreadsheet data, plus file management (share, permissions, rename, delete).", "description_zh": "", "downloads": 23, "homepage": "https://clawhub.ai/porteden/porteden-sheets", "iconUrl": null, "installs": 0, "name": "Secure Google Sheets Access for OpenClaw by PortEden", "ownerName": "porteden", "score": 100000, "slug": "porteden-sheets", "source": "clawhub", "stars": 0, "tags": null, "updated_at": 1776699170181, "version": "1.0.0"}, {"category": "", "created_at": 1774887577286, "description": "Chat, ask, compare, and inspect WeryAI chat models through the official OpenAI-compatible chat completions API. Use when you need general assistant chat, mul...", "description_zh": "", "downloads": 23, "homepage": "https://clawhub.ai/weryai-developer/weryai-chat", "iconUrl": null, "installs": 0, "name": "WeryAI Chat", "ownerName": "weryai-developer", "score": 100000, "slug": "weryai-chat", "source": "clawhub", "stars": 0, "tags": null, "updated_at": 1776699170174, "version": "0.1.0"}, {"category": "", "created_at": 1774911081330, "description": "Track pageviews and custom events via the Plausible Events API, and query stats (top pages, top sources, countries, realtime visitors). Use when you need to...", "description_zh": "", "downloads": 23, "homepage": "https://clawhub.ai/kryzl19/plausible-analytics-agent", "iconUrl": null, "installs": 0, "name": "Plausible Analytics Agent", "ownerName": "kryzl19", "score": 100000, "slug": "plausible-analytics-agent", "source": "clawhub", "stars": 0, "tags": ["analytics", "plausible", "privacy", "tracking"], "updated_at": 1776699170145, "version": "1.0.0"}, {"category": "", "created_at": 1774891913065, "description": "When the user wants to create or optimize a refund or return policy page. Also use when the user mentions \"refund policy,\" \"return policy,\" \"money-back guara...", "description_zh": "", "downloads": 23, "homepage": "https://clawhub.ai/kostja94/refund-page-generator", "iconUrl": null, "installs": 0, "name": "refund-page-generator", "ownerName": "kostja94", "score": 100000, "slug": "refund-page-generator", "source": "clawhub", "stars": 0, "tags": null, "updated_at": 1776699170136, "version": "1.0.0"}, {"category": "", "created_at": 1774924959557, "description": "Search flights and stays, then create card or crypto payments via TravAI. Use when the user asks about flights, travel planning, booking trips, finding accom...", "description_zh": "", "downloads": 23, "homepage": "https://clawhub.ai/kirikov/travai-search-book-pay-flights-stays", "iconUrl": null, "installs": 0, "name": "travai", "ownerName": "kirikov", "score": 100000, "slug": "travai-search-book-pay-flights-stays", "source": "clawhub", "stars": 0, "tags": null, "updated_at": 1776699170118, "version": "1.0.0"}, {"category": "", "created_at": 1774873283120, "description": "Refactor React code away from direct useEffect usage. Use when Codex needs to review, rewrite, or prevent useEffect in React components, custom hooks, or fro...", "description_zh": "", "downloads": 23, "homepage": "https://clawhub.ai/liyown/use-effect", "iconUrl": null, "installs": 0, "name": "Use Effect", "ownerName": "liyown", "score": 100000, "slug": "use-effect", "source": "clawhub", "stars": 0, "tags": ["frontend", "react"], "updated_at": 1776699170112, "version": "1.0.0"}, {"category": "", "created_at": 1774876764951, "description": "When the user wants to optimize any form that is NOT signup/registration — including lead capture forms, contact forms, demo request forms, application forms...", "description_zh": "", "downloads": 23, "homepage": "https://clawhub.ai/mariokarras/abm-form-cro", "iconUrl": null, "installs": 0, "name": "Form Cro", "ownerName": "mariokarras", "score": 100000, "slug": "abm-form-cro", "source": "clawhub", "stars": 0, "tags": null, "updated_at": 1776699170107, "version": "1.0.0"}, {"category": "", "created_at": 1774899029028, "description": "Unified application security skill for Coding Agent systems like OpenCode. Use when reviewing or writing code that touches authentication, authorization, use...", "description_zh": "", "downloads": 23, "homepage": "https://clawhub.ai/selimerunkut/unified-security-auditor", "iconUrl": null, "installs": 0, "name": "unified security auditor", "ownerName": "selimerunkut", "score": 100000, "slug": "unified-security-auditor", "source": "clawhub", "stars": 0, "tags": null, "updated_at": 1776699170106, "version": "1.0.0"}, {"category": "", "created_at": 1774918742301, "description": "SERPhouse integration. Manage Organizations, Users. Use when the user wants to interact with SERPhouse data.", "description_zh": "", "downloads": 23, "homepage": "https://clawhub.ai/membranedev/serphouse", "iconUrl": null, "installs": 0, "name": "Serphouse", "ownerName": "membranedev", "score": 100000, "slug": "serphouse", "source": "clawhub", "stars": 0, "tags": null, "updated_at": 1776699170100, "version": "1.0.0"}, {"category": "", "created_at": 1774912152785, "description": "When the user wants to create a press coverage page, \"As Seen In\" section, or media mentions aggregation. Also use when the user mentions \"press coverage,\" \"...", "description_zh": "", "downloads": 23, "homepage": "https://clawhub.ai/kostja94/press-coverage-page-generator", "iconUrl": null, "installs": 0, "name": "press-coverage-page-generator", "ownerName": "kostja94", "score": 100000, "slug": "press-coverage-page-generator", "source": "clawhub", "stars": 0, "tags": null, "updated_at": 1776699170099, "version": "1.0.0"}, {"category": "", "created_at": 1774898839310, "description": "Deploy TheHive 5 + Cortex 3 incident response platform on any Docker-ready Linux host. Automates account creation, API key generation, Cortex CSRF handling,...", "description_zh": "", "downloads": 23, "homepage": "https://clawhub.ai/solomonneas/soc-deploy-thehive", "iconUrl": null, "installs": 0, "name": "Soc Deploy Thehive", "ownerName": "solomonneas", "score": 100000, "slug": "soc-deploy-thehive", "source": "clawhub", "stars": 0, "tags": null, "updated_at": 1776699170087, "version": "1.0.0"}, {"category": "", "created_at": 1774886072213, "description": "Legal statutes reference — statutory interpretation, legislative process, types of statutes, and citation formats. Use when researching laws, understanding s...", "description_zh": "", "downloads": 23, "homepage": "https://clawhub.ai/ckchzh/statute", "iconUrl": null, "installs": 0, "name": "Statute", "ownerName": "ckchzh", "score": 100000, "slug": "statute", "source": "clawhub", "stars": 0, "tags": null, "updated_at": 1776699170073, "version": "1.0.0"}, {"category": "", "created_at": 1774943962356, "description": "Generate upsell and cross-sell ideas for ecommerce funnels based on product fit, timing, and margin logic. Use when teams want more relevant order expansion...", "description_zh": "", "downloads": 23, "homepage": "https://clawhub.ai/leooooooow/upsell-cross-sell-generator", "iconUrl": null, "installs": 0, "name": "Upsell Cross Sell Generator", "ownerName": "leooooooow", "score": 100000, "slug": "upsell-cross-sell-generator", "source": "clawhub", "stars": 0, "tags": null, "updated_at": 1776699170047, "version": "1.0.0"}, {"category": "", "created_at": 1774891991709, "description": "Generate simple, easy-to-understand, and concise responses. Use when the user asks for brief, clear, to-the-point answers without unnecessary elaboration. Tr...", "description_zh": "", "downloads": 23, "homepage": "https://clawhub.ai/sunba666/simple-concise-responder", "iconUrl": null, "installs": 0, "name": "Simple Concise Responder", "ownerName": "sunba666", "score": 100000, "slug": "simple-concise-responder", "source": "clawhub", "stars": 0, "tags": null, "updated_at": 1776699170033, "version": "1.0.0"}, {"category": "", "created_at": 1774894270710, "description": "Auto-generated skill for amap-maps-streamableHTTP tools via OneKey Gateway.", "description_zh": "", "downloads": 23, "homepage": "https://clawhub.ai/ai-hub-admin/amap-maps-streamablehttp", "iconUrl": null, "installs": 0, "name": "Amap Maps StreamableHTTP", "ownerName": "ai-hub-admin", "score": 100000, "slug": "amap-maps-streamablehttp", "source": "clawhub", "stars": 0, "tags": null, "updated_at": 1776699170031, "version": "0.1.1"}, {"category": "", "created_at": 1774898884615, "description": "Search travel via KAYAK using Strider Labs MCP connector. Compare flights, hotels, cars across providers. Find best prices with price alerts. Complete autono...", "description_zh": "", "downloads": 23, "homepage": "https://clawhub.ai/markswendsen-code/strider-kayak", "iconUrl": null, "installs": 0, "name": "Strider Kayak", "ownerName": "markswendsen-code", "score": 100000, "slug": "strider-kayak", "source": "clawhub", "stars": 0, "tags": null, "updated_at": 1776699170026, "version": "1.0.0"}, {"category": "", "created_at": 1774900153533, "description": "Reward system design reference — behavioral reinforcement, loyalty programs, gamification, incentive structures. Use when designing reward programs, loyalty...", "description_zh": "", "downloads": 23, "homepage": "https://clawhub.ai/bytesagain3/reward", "iconUrl": null, "installs": 0, "name": "Reward", "ownerName": "bytesagain3", "score": 100000, "slug": "reward", "source": "clawhub", "stars": 0, "tags": null, "updated_at": 1776699170019, "version": "1.0.0"}, {"category": "", "created_at": 1774890463090, "description": "Signable integration. Manage Documents, Templates, Users, Teams. Use when the user wants to interact with Signable data.", "description_zh": "", "downloads": 23, "homepage": "https://clawhub.ai/gora050/signable", "iconUrl": null, "installs": 0, "name": "Signable", "ownerName": "gora050", "score": 100000, "slug": "signable", "source": "clawhub", "stars": 0, "tags": null, "updated_at": 1776699170004, "version": "1.0.0"}, {"category": "", "created_at": 1774946945980, "description": "Complete UX Research & Design system — user discovery, persona building, journey mapping, usability testing, research synthesis, and design validation. Zero...", "description_zh": "", "downloads": 23, "homepage": "https://clawhub.ai/lambert-min/afrexai-ux-research-engine-bak", "iconUrl": null, "installs": 0, "name": "Afrexai Ux Research Engine.Bak", "ownerName": "lambert-min", "score": 100000, "slug": "afrexai-ux-research-engine-bak", "source": "clawhub", "stars": 0, "tags": null, "updated_at": 1776699170003, "version": "1.0.0"}, {"category": "", "created_at": 1774866243036, "description": "When the user wants to launch on Product Hunt, prepare a Product Hunt submission, or plan a Product Hunt launch. Also use when the user mentions \"Product Hun...", "description_zh": "", "downloads": 23, "homepage": "https://clawhub.ai/kostja94/product-hunt-launch-channels", "iconUrl": null, "installs": 0, "name": "product-hunt-launch", "ownerName": "kostja94", "score": 100000, "slug": "product-hunt-launch-channels", "source": "clawhub", "stars": 0, "tags": null, "updated_at": 1776699170001, "version": "1.0.0"}, {"category": "", "created_at": 1774888394297, "description": "Decompose Return on Net Assets into component ratios. Use for asset efficiency analysis, capital structure review, and business model comparison.", "description_zh": "", "downloads": 23, "homepage": "https://clawhub.ai/linuszz/rona-chart", "iconUrl": null, "installs": 0, "name": "Rona Chart", "ownerName": "linuszz", "score": 100000, "slug": "rona-chart", "source": "clawhub", "stars": 0, "tags": null, "updated_at": 1776699169972, "version": "1.0.0"}, {"category": "", "created_at": 1774950812297, "description": "Best practices for automating long-running, asynchronous tasks via cron-style polling. Use when the user wants to monitor a background CLI command or API cal...", "description_zh": "", "downloads": 23, "homepage": "https://clawhub.ai/skywalker-lili/polling-best-practices", "iconUrl": null, "installs": 0, "name": "Polling Best Practices", "ownerName": "skywalker-lili", "score": 100000, "slug": "polling-best-practices", "source": "clawhub", "stars": 0, "tags": null, "updated_at": 1776699169963, "version": "1.0.1"}, {"category": "", "created_at": 1774883671892, "description": "query store order information from database", "description_zh": "", "downloads": 23, "homepage": "https://clawhub.ai/bondli/store-order-query", "iconUrl": null, "installs": 0, "name": "store-order-query", "ownerName": "bondli", "score": 100000, "slug": "store-order-query", "source": "clawhub", "stars": 0, "tags": null, "updated_at": 1776699169938, "version": "1.0.0"}, {"category": "", "created_at": 1774888551843, "description": "Query SPX Express shipment tracking by tracking number. Call this skill when the user mentions a tracking number matching the SPX format (CNMY..., SPXMY...),...", "description_zh": "", "downloads": 23, "homepage": "https://clawhub.ai/wiziscool/spx-tracking", "iconUrl": null, "installs": 0, "name": "Spx Tracking", "ownerName": "wiziscool", "score": 100000, "slug": "spx-tracking", "source": "clawhub", "stars": 0, "tags": ["delivery", "logistics", "spex", "spx", "tracking"], "updated_at": 1776699169933, "version": "1.0.1"}, {"category": "", "created_at": 1774895378478, "description": "When the user wants to create, optimize, or audit resources page or content hub. Also use when the user mentions \"resources page,\" \"resource center,\" \"conten...", "description_zh": "", "downloads": 23, "homepage": "https://clawhub.ai/kostja94/resources-page-generator", "iconUrl": null, "installs": 0, "name": "resources-page-generator", "ownerName": "kostja94", "score": 100000, "slug": "resources-page-generator", "source": "clawhub", "stars": 0, "tags": null, "updated_at": 1776699169930, "version": "1.0.0"}, {"category": "", "created_at": 1774900321915, "description": "Publish an OpenClaw skill to ClawHub with release checks, version metadata, and command generation. Use when you need to prepare a skill for first publicatio...", "description_zh": "", "downloads": 23, "homepage": "https://clawhub.ai/fwwdn/skills-publish", "iconUrl": null, "installs": 0, "name": "Skill Publish", "ownerName": "fwwdn", "score": 100000, "slug": "skills-publish", "source": "clawhub", "stars": 0, "tags": null, "updated_at": 1776699169926, "version": "0.1.0"}, {"category": "", "created_at": 1774909011061, "description": "Deep REST workflow—resource modeling, HTTP methods and safety, status codes, errors, pagination, caching, versioning, and idempotency. Use when designing HTT...", "description_zh": "", "downloads": 23, "homepage": "https://clawhub.ai/mike47512/rest-best-practices", "iconUrl": null, "installs": 0, "name": "Rest Best Practices", "ownerName": "mike47512", "score": 100000, "slug": "rest-best-practices", "source": "clawhub", "stars": 0, "tags": null, "updated_at": 1776699169915, "version": "1.0.0"}, {"category": "", "created_at": 1774894195648, "description": "Create or refresh AEO-optimized content that gets cited by AI assistants (Gemini, ChatGPT, Perplexity) using only free tools. Two modes: CREATE new content t...", "description_zh": "", "downloads": 23, "homepage": "https://clawhub.ai/mmyg11/aeo-content-free-temp", "iconUrl": null, "installs": 0, "name": "Aeo Content Free Temp", "ownerName": "mmyg11", "score": 100000, "slug": "aeo-content-free-temp", "source": "clawhub", "stars": 0, "tags": null, "updated_at": 1776699169910, "version": "1.0.0"}, {"category": "", "created_at": 1774911125489, "description": "Information assistant for Puma. Search products, news, financials, and official resources for Puma.", "description_zh": "", "downloads": 23, "homepage": "https://clawhub.ai/hanxueyuan/puma", "iconUrl": null, "installs": 0, "name": "Puma", "ownerName": "hanxueyuan", "score": 100000, "slug": "puma", "source": "clawhub", "stars": 0, "tags": null, "updated_at": 1776699169908, "version": "0.1.0"}, {"category": "", "created_at": 1774918707616, "description": "ElevenLabs text-to-speech with mac-style say UX.", "description_zh": "", "downloads": 23, "homepage": "https://clawhub.ai/andy27725/sag-andy27725", "iconUrl": null, "installs": 0, "name": "Sag Andy27725", "ownerName": "andy27725", "score": 100000, "slug": "sag-andy27725", "source": "clawhub", "stars": 0, "tags": null, "updated_at": 1776699169907, "version": "1.0.0"}, {"category": "", "created_at": 1774884796235, "description": "Mistake-proofing technique manager. Use when json poka yoke tasks, csv poka yoke tasks, checking poka yoke status.", "description_zh": "", "downloads": 23, "homepage": "https://clawhub.ai/ckchzh/poka-yoke", "iconUrl": null, "installs": 0, "name": "Poka Yoke", "ownerName": "ckchzh", "score": 100000, "slug": "poka-yoke", "source": "clawhub", "stars": 0, "tags": null, "updated_at": 1776699169905, "version": "1.0.0"}, {"category": "", "created_at": 1774951558595, "description": "Search code and docs by meaning, not keywords. Powered by ColGREP/NextPlaid,", "description_zh": "", "downloads": 23, "homepage": "https://clawhub.ai/brettmhammond/smart-code-search", "iconUrl": null, "installs": 0, "name": "Smart Code Search", "ownerName": "brettmhammond", "score": 100000, "slug": "smart-code-search", "source": "clawhub", "stars": 0, "tags": null, "updated_at": 1776699169899, "version": "1.0.2"}, {"category": "", "created_at": 1774897189073, "description": "Tab UI component reference — design patterns, accessibility, state management, responsive tabs. Use when implementing tabbed interfaces, designing tab naviga...", "description_zh": "", "downloads": 23, "homepage": "https://clawhub.ai/ckchzh/tab", "iconUrl": null, "installs": 0, "name": "Tab", "ownerName": "ckchzh", "score": 100000, "slug": "tab", "source": "clawhub", "stars": 0, "tags": null, "updated_at": 1776699169876, "version": "1.0.0"}, {"category": "", "created_at": 1774886216746, "description": "Skill de reconexión personal para semanas agobiantes de trabajo. Úsala cuando el usuario mencione que está estresado, agotado, quemado, necesita descansar, q...", "description_zh": "", "downloads": 23, "homepage": "https://clawhub.ai/alannetwork/touch-the-grass", "iconUrl": null, "installs": 0, "name": "Touch The Grass", "ownerName": "alannetwork", "score": 100000, "slug": "touch-the-grass", "source": "clawhub", "stars": 0, "tags": null, "updated_at": 1776699169866, "version": "1.0.1"}, {"category": "", "created_at": 1774919061502, "description": "Search, brief, and monitor Korean used-market listings across 당근마켓, 번개장터, and 중고나라. Use when the user wants 중고 매물 찾아줘, 당근/번장/중고나라 동시 검색, 아이폰/맥북 같은 물건의 신규 매물...", "description_zh": "", "downloads": 23, "homepage": "https://clawhub.ai/twbeatles/used-market-watch", "iconUrl": null, "installs": 1, "name": "Used Market Watch", "ownerName": "twbeatles", "score": 100000, "slug": "used-market-watch", "source": "clawhub", "stars": 0, "tags": null, "updated_at": 1776699169865, "version": "0.4.0"}]}