{"page": 518, "total_pages": 522, "total": 26073, "skills": [{"category": "", "created_at": 1774925201415, "description": "Persistent project planning for AI agents. Create, manage, and track long-term goals using structured Kanban boards that survive session resets.", "description_zh": "", "downloads": 23, "homepage": "https://clawhub.ai/akievo/akievo", "iconUrl": null, "installs": 0, "name": "Akievo", "ownerName": "akievo", "score": 100000, "slug": "akievo", "source": "clawhub", "stars": 0, "tags": null, "updated_at": 1776699169863, "version": "1.0.0"}, {"category": "", "created_at": 1774847589616, "description": "Create and manage Circle developer-controlled wallets where the application retains full custody of wallet keys on behalf of end-users. Covers wallet sets, e...", "description_zh": "", "downloads": 23, "homepage": "https://clawhub.ai/mscandlen3/use-developer-controlled-wallets", "iconUrl": null, "installs": 0, "name": "Use Developer Controlled Wallets", "ownerName": "mscandlen3", "score": 100000, "slug": "use-developer-controlled-wallets", "source": "clawhub", "stars": 0, "tags": null, "updated_at": 1776699169823, "version": "0.1.0"}, {"category": "", "created_at": 1774899056217, "description": "Shorten URLs from terminal with custom slugs, local storage, and basic analytics. A self‑contained CLI that maps long URLs to short slugs using a local JSON...", "description_zh": "", "downloads": 23, "homepage": "https://clawhub.ai/derick001/url-shortener-cli", "iconUrl": null, "installs": 0, "name": "URL Shortener CLI", "ownerName": "derick001", "score": 100000, "slug": "url-shortener-cli", "source": "clawhub", "stars": 0, "tags": null, "updated_at": 1776699169820, "version": "1.0.0"}, {"category": "", "created_at": 1774901661698, "description": "Web search via Yep Search API. Own index, fast results with domain filtering and date ranges.", "description_zh": "", "downloads": 23, "homepage": "https://clawhub.ai/elrandar/yep-search", "iconUrl": null, "installs": 0, "name": "Web search via Yep Search API. Own index, fast results with domain filtering and date ranges.", "ownerName": "elrandar", "score": 100000, "slug": "yep-search", "source": "clawhub", "stars": 0, "tags": ["api", "free", "search"], "updated_at": 1776699169818, "version": "0.0.1"}, {"category": "", "created_at": 1774956083272, "description": "3Scribe integration. Manage data, records, and automate workflows. Use when the user wants to interact with 3Scribe data.", "description_zh": "", "downloads": 23, "homepage": "https://clawhub.ai/membranedev/3scribe", "iconUrl": null, "installs": 0, "name": "3Scribe", "ownerName": "membranedev", "score": 100000, "slug": "3scribe", "source": "clawhub", "stars": 0, "tags": null, "updated_at": 1776699169817, "version": "1.0.0"}, {"category": "", "created_at": 1774952652863, "description": "WSO2 integration. Manage data, records, and automate workflows. Use when the user wants to interact with WSO2 data.", "description_zh": "", "downloads": 23, "homepage": "https://clawhub.ai/gora050/wso2", "iconUrl": null, "installs": 0, "name": "Wso2", "ownerName": "gora050", "score": 100000, "slug": "wso2", "source": "clawhub", "stars": 0, "tags": null, "updated_at": 1776699169812, "version": "1.0.0"}, {"category": "", "created_at": 1774923336335, "description": "Swell integration. Manage Organizations, Pipelines, Users, Filters. Use when the user wants to interact with Swell data.", "description_zh": "", "downloads": 23, "homepage": "https://clawhub.ai/gora050/swell", "iconUrl": null, "installs": 0, "name": "Swell", "ownerName": "gora050", "score": 100000, "slug": "swell", "source": "clawhub", "stars": 0, "tags": null, "updated_at": 1776699169808, "version": "1.0.0"}, {"category": "", "created_at": 1774888363382, "description": "Define roles and responsibilities using RACI matrix. Use for process improvement, organizational design, project management, and change initiatives.", "description_zh": "", "downloads": 23, "homepage": "https://clawhub.ai/linuszz/raci-analysis", "iconUrl": null, "installs": 0, "name": "Raci Analysis", "ownerName": "linuszz", "score": 100000, "slug": "raci-analysis", "source": "clawhub", "stars": 0, "tags": null, "updated_at": 1776699169805, "version": "1.0.0"}, {"category": "", "created_at": 1774904636909, "description": "Record, query, complete, correct, and undo personal bookkeeping entries through short natural-language conversation, with local JSONL and Markdown persistenc...", "description_zh": "", "downloads": 23, "homepage": "https://clawhub.ai/suru711/pocket-book", "iconUrl": null, "installs": 0, "name": "pocketbook", "ownerName": "suru711", "score": 100000, "slug": "pocket-book", "source": "clawhub", "stars": 0, "tags": null, "updated_at": 1776699169788, "version": "1.0.0"}, {"category": "", "created_at": 1774881028472, "description": "How to create and use Account (signer) in @aptos-labs/ts-sdk. Covers Account.generate(), fromPrivateKey(), fromDerivationPath(), Ed25519 vs SingleKey vs Mult...", "description_zh": "", "downloads": 23, "homepage": "https://clawhub.ai/iskysun96/ts-sdk-account", "iconUrl": null, "installs": 0, "name": "Ts Sdk Account", "ownerName": "iskysun96", "score": 100000, "slug": "ts-sdk-account", "source": "clawhub", "stars": 0, "tags": null, "updated_at": 1776699169775, "version": "1.0.0"}, {"category": "", "created_at": 1774871859792, "description": "Book Hilton hotels via Strider Labs MCP connector. Search properties worldwide, manage reservations, earn Hilton Honors points. Complete autonomous hotel boo...", "description_zh": "", "downloads": 23, "homepage": "https://clawhub.ai/markswendsen-code/strider-hilton", "iconUrl": null, "installs": 0, "name": "Strider Hilton", "ownerName": "markswendsen-code", "score": 100000, "slug": "strider-hilton", "source": "clawhub", "stars": 0, "tags": null, "updated_at": 1776699169771, "version": "1.0.0"}, {"category": "", "created_at": 1774886095915, "description": "Book United Airlines flights via Strider Labs MCP connector. Search flights, manage reservations, check-in, track MileagePlus. Complete autonomous airline bo...", "description_zh": "", "downloads": 23, "homepage": "https://clawhub.ai/markswendsen-code/strider-united", "iconUrl": null, "installs": 0, "name": "Strider United Airlines", "ownerName": "markswendsen-code", "score": 100000, "slug": "strider-united", "source": "clawhub", "stars": 0, "tags": null, "updated_at": 1776699169766, "version": "1.0.0"}, {"category": "", "created_at": 1774911373594, "description": "Fetch agent-ready cleaned Markdown from the Distiller API instead of relying on raw webpage fetches.", "description_zh": "", "downloads": 23, "homepage": "https://clawhub.ai/edwardyen724-g/web-distiller", "iconUrl": null, "installs": 0, "name": "Web Distiller", "ownerName": "edwardyen724-g", "score": 100000, "slug": "web-distiller", "source": "clawhub", "stars": 0, "tags": null, "updated_at": 1776699169765, "version": "0.1.0"}, {"category": "", "created_at": 1774873133556, "description": "Inspects one EVM transaction with Skylens APIs and returns human-readable trace, balance, storage, and nonce changes. Use when the user asks for tx-level inv...", "description_zh": "", "downloads": 23, "homepage": "https://clawhub.ai/certik-ai/skylens-transaction-analysis", "iconUrl": null, "installs": 0, "name": "Skylens Transaction Analysis", "ownerName": "certik-ai", "score": 100000, "slug": "skylens-transaction-analysis", "source": "clawhub", "stars": 0, "tags": null, "updated_at": 1776699169760, "version": "1.0.0"}, {"category": "", "created_at": 1774866252185, "description": "Use this skill whenever the user wants to interact with the Publer API — including managing social media posts (create, schedule, update, delete, approve), b...", "description_zh": "", "downloads": 23, "homepage": "https://clawhub.ai/gjeka/publer-api", "iconUrl": null, "installs": 0, "name": "Publer API", "ownerName": "gjeka", "score": 100000, "slug": "publer-api", "source": "clawhub", "stars": 0, "tags": null, "updated_at": 1776699169751, "version": "1.0.0"}, {"category": "", "created_at": 1774879768926, "description": "Map key activities and their relationships. Use for operational analysis and capability development.", "description_zh": "", "downloads": 23, "homepage": "https://clawhub.ai/linuszz/activity-maps", "iconUrl": null, "installs": 0, "name": "Activity Maps", "ownerName": "linuszz", "score": 100000, "slug": "activity-maps", "source": "clawhub", "stars": 0, "tags": null, "updated_at": 1776699169745, "version": "1.0.0"}, {"category": "", "created_at": 1774920601181, "description": "Snapchat Marketing integration. Manage data, records, and automate workflows. Use when the user wants to interact with Snapchat Marketing data.", "description_zh": "", "downloads": 23, "homepage": "https://clawhub.ai/gora050/snapchat-marketing", "iconUrl": null, "installs": 0, "name": "Snapchat Marketing", "ownerName": "gora050", "score": 100000, "slug": "snapchat-marketing", "source": "clawhub", "stars": 0, "tags": null, "updated_at": 1776699169728, "version": "1.0.0"}, {"category": "", "created_at": 1774896774248, "description": "Placid integration. Manage Organizations. Use when the user wants to interact with Placid data.", "description_zh": "", "downloads": 23, "homepage": "https://clawhub.ai/membranedev/placid", "iconUrl": null, "installs": 0, "name": "Placid", "ownerName": "membranedev", "score": 100000, "slug": "placid", "source": "clawhub", "stars": 0, "tags": null, "updated_at": 1776699169723, "version": "1.0.0"}, {"category": "", "created_at": 1774889436181, "description": "Generates high-reply-rate cold emails, LinkedIn DMs, follow-up sequences, and A/B test variants for B2B sales outreach. Use this skill whenever the user want...", "description_zh": "", "downloads": 23, "homepage": "https://clawhub.ai/dttnpole-commits/ai-cold-email-linkedin-generator", "iconUrl": null, "installs": 0, "name": "AI Cold Email & LinkedIn Outreach Generator", "ownerName": "dttnpole-commits", "score": 100000, "slug": "ai-cold-email-linkedin-generator", "source": "clawhub", "stars": 0, "tags": ["cold-email lead-generation linkedin b2b-sales outreach sales copywriting ai-marketing conversion freelancer", "cold-email lead-generation linkedin b2b-sales outreach sales copywriting ai-marketing conversion freelancer email-marketing lead-gen startup agency growth"], "updated_at": 1776699169722, "version": "1.0.1"}, {"category": "", "created_at": 1774840773005, "description": "Installs and manages Scope-Based Memory and Automated REM Sleep (memory consolidation) for OpenClaw agents. Use this skill when an agent's MEMORY.md is bloat...", "description_zh": "", "downloads": 23, "homepage": "https://clawhub.ai/john-20-ux/scoped-memory-manager", "iconUrl": null, "installs": 0, "name": "Scoped Memory Manager", "ownerName": "john-20-ux", "score": 100000, "slug": "scoped-memory-manager", "source": "clawhub", "stars": 0, "tags": null, "updated_at": 1776699169709, "version": "1.0.0"}, {"category": "", "created_at": 1774872005541, "description": "Quick health check for OpenClaw installations by Yang. Checks Node.js version, Gateway status, config files, port conflicts, and common problems. Use when tr...", "description_zh": "", "downloads": 23, "homepage": "https://clawhub.ai/yang1002378395-cmyk/yang-openclaw-health", "iconUrl": null, "installs": 0, "name": "Yang Openclaw Health", "ownerName": "yang1002378395-cmyk", "score": 25274.725274725275, "slug": "yang-openclaw-health", "source": "clawhub", "stars": 0, "tags": null, "updated_at": 1776699169696, "version": "1.0.0"}, {"category": "", "created_at": 1774886479176, "description": "Generate high-converting freelance proposals, pricing strategies, objection handlers, and client follow-ups. Designed to help freelancers and agencies win mo...", "description_zh": "", "downloads": 23, "homepage": "https://clawhub.ai/dttnpole-commits/ai-proposal-freelance-deal-generator", "iconUrl": null, "installs": 0, "name": "Win More Clients with AI Proposals (Freelancer & Agency Tool)", "ownerName": "dttnpole-commits", "score": 25274.725274725275, "slug": "ai-proposal-freelance-deal-generator", "source": "clawhub", "stars": 0, "tags": ["proposal freelancer upwork fiverr b2b-sales client-acquisition copywriting conversion agency ai-marketing"], "updated_at": 1776699169691, "version": "1.0.0"}, {"category": "", "created_at": 1774889423936, "description": "Design websites and applications that AI agents can consume, navigate, and interact with. Use when building any site, app, or product that agents will use as...", "description_zh": "", "downloads": 23, "homepage": "https://clawhub.ai/aa-on-ai/agent-friendly-design", "iconUrl": null, "installs": 0, "name": "Agent-Friendly Design", "ownerName": "aa-on-ai", "score": 25274.725274725275, "slug": "agent-friendly-design", "source": "clawhub", "stars": 0, "tags": null, "updated_at": 1776699169689, "version": "1.0.0"}, {"category": "", "created_at": 1774890498743, "description": "Comprehensive pull request review covering code quality, security, performance, and maintainability. Use for any code review task.", "description_zh": "", "downloads": 23, "homepage": "https://clawhub.ai/solomonneas/sn-pr-review", "iconUrl": null, "installs": 0, "name": "Pr Review", "ownerName": "solomonneas", "score": 25274.725274725275, "slug": "sn-pr-review", "source": "clawhub", "stars": 0, "tags": null, "updated_at": 1776699169686, "version": "1.0.0"}, {"category": "", "created_at": 1774950002276, "description": "Substance use and behavioral addiction self-assessment and harm reduction guidance. Use when someone suspects their drinking or substance use has become a pr...", "description_zh": "", "downloads": 23, "homepage": "https://clawhub.ai/howtousehumans/addiction-self-assessment", "iconUrl": null, "installs": 0, "name": "Addiction Self Assessment", "ownerName": "howtousehumans", "score": 25274.725274725275, "slug": "addiction-self-assessment", "source": "clawhub", "stars": 0, "tags": null, "updated_at": 1776699169674, "version": "1.0.0"}, {"category": "", "created_at": 1774806419565, "description": "just for test", "description_zh": "", "downloads": 23, "homepage": "https://clawhub.ai/tangyang/test-test", "iconUrl": null, "installs": 0, "name": "just for test", "ownerName": "tangyang", "score": 25274.725274725275, "slug": "test-test", "source": "clawhub", "stars": 0, "tags": null, "updated_at": 1776699169665, "version": "1.0.16"}, {"category": "", "created_at": 1774947849153, "description": "Decide whether to run `memory_search` before following another skill or workflow, so the agent can reduce token usage without forcing retrieval on every task...", "description_zh": "", "downloads": 23, "homepage": "https://clawhub.ai/otweihan/skill-retrieval-gate", "iconUrl": null, "installs": 0, "name": "skill-retrieval-gate", "ownerName": "otweihan", "score": 25274.725274725275, "slug": "skill-retrieval-gate", "source": "clawhub", "stars": 0, "tags": null, "updated_at": 1776699169664, "version": "1.0.0"}, {"category": "", "created_at": 1774894006826, "description": "Turbine performance calculator", "description_zh": "", "downloads": 23, "homepage": "https://clawhub.ai/bytesagain1/turbine", "iconUrl": null, "installs": 0, "name": "Turbine", "ownerName": "bytesagain1", "score": 25274.725274725275, "slug": "turbine", "source": "clawhub", "stars": 0, "tags": null, "updated_at": 1776699169661, "version": "1.0.0"}, {"category": "", "created_at": 1774904847098, "description": "Query AI agent trust scores, behavioral DNA, and identity verification via SoulLedger protocol", "description_zh": "", "downloads": 23, "homepage": "https://clawhub.ai/drivenbymyai-max/soulledger-trust", "iconUrl": null, "installs": 0, "name": "Soulledger Trust", "ownerName": "drivenbymyai-max", "score": 25274.725274725275, "slug": "soulledger-trust", "source": "clawhub", "stars": 0, "tags": null, "updated_at": 1776699169645, "version": "1.0.0"}, {"category": "", "created_at": 1774897010646, "description": "Short.io integration. Manage Domains, Bundles, Teams, Users. Use when the user wants to interact with Short.io data.", "description_zh": "", "downloads": 23, "homepage": "https://clawhub.ai/gora050/shortio", "iconUrl": null, "installs": 0, "name": "Shortio", "ownerName": "gora050", "score": 100000, "slug": "shortio", "source": "clawhub", "stars": 0, "tags": null, "updated_at": 1776699169624, "version": "1.0.0"}, {"category": "", "created_at": 1774879802231, "description": "Use when the user wants to build, initialize, validate, optimize, or refactor a model-powered assistant, internal tool, automation, evaluator, or workflow fr...", "description_zh": "", "downloads": 23, "homepage": "https://clawhub.ai/maplemx/agently-playbook", "iconUrl": null, "installs": 0, "name": "Agently Playbook", "ownerName": "maplemx", "score": 100000, "slug": "agently-playbook", "source": "clawhub", "stars": 0, "tags": null, "updated_at": 1776699169622, "version": "0.1.0"}, {"category": "", "created_at": 1774855475014, "description": "Research and guide VA disability claims for U.S. military veterans. Use when a veteran asks about: VA disability ratings, filing or increasing a claim, nexus...", "description_zh": "", "downloads": 23, "homepage": "https://clawhub.ai/vanyanski/va-claims-assistant", "iconUrl": null, "installs": 2, "name": "VA Claims Assistant", "ownerName": "vanyanski", "score": 100000, "slug": "va-claims-assistant", "source": "clawhub", "stars": 0, "tags": ["benefits", "claims", "disability", "military", "va", "veterans"], "updated_at": 1776699169619, "version": "1.0.0"}, {"category": "", "created_at": 1774920935016, "description": "A dating network for AI agents. Register, browse, greet, chat, propose milestones, and maintain your own heartbeat.", "description_zh": "", "downloads": 23, "homepage": "https://clawhub.ai/zhubaining/agenlace", "iconUrl": null, "installs": 0, "name": "Agenlace", "ownerName": "zhubaining", "score": 100000, "slug": "agenlace", "source": "clawhub", "stars": 0, "tags": null, "updated_at": 1776699169605, "version": "1.0.0"}, {"category": "", "created_at": 1774893662818, "description": "RentCast integration. Manage Properties, Contacts, Leads. Use when the user wants to interact with RentCast data.", "description_zh": "", "downloads": 23, "homepage": "https://clawhub.ai/gora050/rentcast", "iconUrl": null, "installs": 0, "name": "Rentcast", "ownerName": "gora050", "score": 100000, "slug": "rentcast", "source": "clawhub", "stars": 0, "tags": null, "updated_at": 1776699169576, "version": "1.0.0"}, {"category": "", "created_at": 1774896789284, "description": "Pobuca Connect integration. Manage Organizations, Leads, Deals, Projects, Pipelines, Users and more. Use when the user wants to interact with Pobuca Connect...", "description_zh": "", "downloads": 23, "homepage": "https://clawhub.ai/gora050/pobuca-connect", "iconUrl": null, "installs": 0, "name": "Pobuca Connect", "ownerName": "gora050", "score": 100000, "slug": "pobuca-connect", "source": "clawhub", "stars": 0, "tags": null, "updated_at": 1776699169549, "version": "1.0.0"}, {"category": "", "created_at": 1774899202526, "description": "When the user wants to create or optimize in-app paywalls, upgrade screens, upsell modals, or feature gates. Also use when the user mentions \"paywall,\" \"upgr...", "description_zh": "", "downloads": 23, "homepage": "https://clawhub.ai/mariokarras/abm-paywall-upgrade-cro", "iconUrl": null, "installs": 0, "name": "Paywall Upgrade Cro", "ownerName": "mariokarras", "score": 100000, "slug": "abm-paywall-upgrade-cro", "source": "clawhub", "stars": 0, "tags": null, "updated_at": 1776699169541, "version": "1.0.0"}, {"category": "", "created_at": 1774887735635, "description": "Delegate coding work to Antigravity through agpair CLI: dispatch a task, wait for EVIDENCE_PACK or COMMITTED, inspect doctor/daemon health, review logs, or s...", "description_zh": "", "downloads": 23, "homepage": "https://clawhub.ai/logicrw/agpair", "iconUrl": null, "installs": 0, "name": "agpair", "ownerName": "logicrw", "score": 58974.35897435898, "slug": "agpair", "source": "clawhub", "stars": 0, "tags": ["agent-bridge", "antigravity", "cli", "pair-programming", "task-dispatch"], "updated_at": 1776699169539, "version": "1.0.0"}, {"category": "", "created_at": 1774884012048, "description": "APIClaw API platform overview — AI-powered commerce data infrastructure. Provides programmatic access to 200M+ Amazon products with real-time data across 6 e...", "description_zh": "", "downloads": 23, "homepage": "https://clawhub.ai/christine-srp/apiclaw-amazon-api", "iconUrl": null, "installs": 0, "name": "APIClaw Amazon API", "ownerName": "christine-srp", "score": 58974.35897435898, "slug": "apiclaw-amazon-api", "source": "clawhub", "stars": 0, "tags": null, "updated_at": 1776699055486, "version": "1.0.0"}, {"category": "", "created_at": 1774916240842, "description": "Check coding-model API quality, capability fit, and drift with LT-lite and B3IT-lite. Use when Codex needs to verify whether an OpenAI/OpenAI-compatible/Anth...", "description_zh": "", "downloads": 23, "homepage": "https://clawhub.ai/chekhovin/api-quality-check", "iconUrl": null, "installs": 0, "name": "api-quality-check", "ownerName": "chekhovin", "score": 58974.35897435898, "slug": "api-quality-check", "source": "clawhub", "stars": 0, "tags": null, "updated_at": 1776699055484, "version": "1.0.0"}, {"category": "", "created_at": 1774917444851, "description": "Fetch, analyze, and compare trending posts from Moltbook to inform your content strategy. Generates virality reports with real statistical benchmarks from 36...", "description_zh": "", "downloads": 23, "homepage": "https://clawhub.ai/smarvr/analyze-moltbook-trending-posts", "iconUrl": null, "installs": 0, "name": "Moltbook Trend Analysis", "ownerName": "smarvr", "score": 58974.35897435898, "slug": "analyze-moltbook-trending-posts", "source": "clawhub", "stars": 0, "tags": null, "updated_at": 1776699055473, "version": "1.0.0"}, {"category": "", "created_at": 1774908157756, "description": "Query Ryan Seslow's art & design catalog, look up individual works, check x402 quotes, and log purchase intent via the AREMES autonomous commerce agent.", "description_zh": "", "downloads": 23, "homepage": "https://clawhub.ai/ryanseslow/aremes-catalog", "iconUrl": null, "installs": 0, "name": "aremes-catalog", "ownerName": "ryanseslow", "score": 58974.35897435898, "slug": "aremes-catalog", "source": "clawhub", "stars": 0, "tags": null, "updated_at": 1776699046978, "version": "1.0.0"}, {"category": "", "created_at": 1774894399385, "description": "Bilionis integration. Manage data, records, and automate workflows. Use when the user wants to interact with Bilionis data.", "description_zh": "", "downloads": 23, "homepage": "https://clawhub.ai/gora050/bilionis", "iconUrl": null, "installs": 0, "name": "Bilionis", "ownerName": "gora050", "score": 58974.35897435898, "slug": "bilionis", "source": "clawhub", "stars": 0, "tags": null, "updated_at": 1776699044754, "version": "1.0.0"}, {"category": "", "created_at": 1774894863218, "description": "Analyze gasless operations. Use when you need to understand gasless mechanisms, evaluate protocol security, or reference on-chain concepts.", "description_zh": "", "downloads": 23, "homepage": "https://clawhub.ai/bytesagain3/gasless", "iconUrl": null, "installs": 0, "name": "Gasless", "ownerName": "bytesagain3", "score": 58974.35897435898, "slug": "gasless", "source": "clawhub", "stars": 0, "tags": null, "updated_at": 1776699044732, "version": "1.0.0"}, {"category": "", "created_at": 1774926020270, "description": "Reuse, inspect, search, or append shared OpenClaw memory on the current machine. Use when a request depends on remembered local servers, deploy hosts, intern...", "description_zh": "", "downloads": 23, "homepage": "https://clawhub.ai/kamiender/openclaw-shared-memory", "iconUrl": null, "installs": 0, "name": "OpenClaw Memory", "ownerName": "kamiender", "score": 58974.35897435898, "slug": "openclaw-shared-memory", "source": "clawhub", "stars": 0, "tags": null, "updated_at": 1776699044731, "version": "1.0.0"}, {"category": "", "created_at": 1774917742953, "description": "Read, search, post, and monitor Bluesky (AT Protocol) accounts", "description_zh": "", "downloads": 23, "homepage": "https://clawhub.ai/minupla/bluesky-api", "iconUrl": null, "installs": 0, "name": "Bluesky API", "ownerName": "minupla", "score": 43396.226415094345, "slug": "bluesky-api", "source": "clawhub", "stars": 0, "tags": ["atproto", "bluesky", "social"], "updated_at": 1776699044684, "version": "1.0.3"}, {"category": "", "created_at": 1774882612127, "description": "Enhanced TODO/task manager backed by a local SQLite database (instead of flat text files) with priorities (1-3), tags, due dates, reminder timestamps, explic...", "description_zh": "", "downloads": 23, "homepage": "https://clawhub.ai/elandivar/neomano-todo", "iconUrl": null, "installs": 0, "name": "Neomano TODO", "ownerName": "elandivar", "score": 43396.226415094345, "slug": "neomano-todo", "source": "clawhub", "stars": 0, "tags": null, "updated_at": 1776699044680, "version": "0.1.0"}, {"category": "", "created_at": 1774924160956, "description": "Generates ICS calendar files with structured CRM data for B2B sales follow-ups. Creates importable .ics reminders with customer details, deal status, priorit...", "description_zh": "", "downloads": 23, "homepage": "https://clawhub.ai/kopfkinok3/ics-crm-reminder", "iconUrl": null, "installs": 0, "name": "ICS CRM Reminder", "ownerName": "kopfkinok3", "score": 43396.226415094345, "slug": "ics-crm-reminder", "source": "clawhub", "stars": 0, "tags": null, "updated_at": 1776699044678, "version": "1.0.0"}, {"category": "", "created_at": 1774925357262, "description": "CiviCRM integration. Manage data, records, and automate workflows. Use when the user wants to interact with CiviCRM data.", "description_zh": "", "downloads": 23, "homepage": "https://clawhub.ai/gora050/civicrm", "iconUrl": null, "installs": 0, "name": "Civicrm", "ownerName": "gora050", "score": 43396.226415094345, "slug": "civicrm", "source": "clawhub", "stars": 0, "tags": null, "updated_at": 1776699044661, "version": "1.0.0"}, {"category": "", "created_at": 1774901871602, "description": "Convert text between different case styles. Use when the user asks to convert text to camelCase, snake_case, kebab-case, PascalCase, UPPERCASE, lowercase, Ti...", "description_zh": "", "downloads": 23, "homepage": "https://clawhub.ai/ohernandez-dev-blossom/case-convert", "iconUrl": null, "installs": 0, "name": "Case Convert", "ownerName": "ohernandez-dev-blossom", "score": 95833.33333333334, "slug": "case-convert", "source": "clawhub", "stars": 0, "tags": null, "updated_at": 1776699044656, "version": "1.0.0"}, {"category": "", "created_at": 1774921555168, "description": "Helps plan practical lunch boxes for adults or children based on nutrition goals, ingredients, time, budget, storage, and reheating constraints.", "description_zh": "", "downloads": 23, "homepage": "https://clawhub.ai/know-hub/lunchbox-planner", "iconUrl": null, "installs": 0, "name": "Lunchbox Planner", "ownerName": "know-hub", "score": 95833.33333333334, "slug": "lunchbox-planner", "source": "clawhub", "stars": 0, "tags": null, "updated_at": 1776699044646, "version": "1.0.0"}]}