{"page": 519, "total_pages": 522, "total": 26073, "skills": [{"category": "", "created_at": 1774886619182, "description": "Claw Talk AI voice and conversation assistant. Use when the user wants to prepare talking points, practice conversations, improve public speaking, script pre...", "description_zh": "", "downloads": 23, "homepage": "https://clawhub.ai/jiwenbing/claw-talk", "iconUrl": null, "installs": 0, "name": "Claw Talk", "ownerName": "jiwenbing", "score": 95833.33333333334, "slug": "claw-talk", "source": "clawhub", "stars": 0, "tags": null, "updated_at": 1776699044644, "version": "1.0.1"}, {"category": "", "created_at": 1774921682347, "description": "Mumara integration. Manage Users, Organizations. Use when the user wants to interact with Mumara data.", "description_zh": "", "downloads": 23, "homepage": "https://clawhub.ai/membranedev/mumara", "iconUrl": null, "installs": 0, "name": "Mumara", "ownerName": "membranedev", "score": 95833.33333333334, "slug": "mumara", "source": "clawhub", "stars": 0, "tags": null, "updated_at": 1776699044638, "version": "1.0.0"}, {"category": "", "created_at": 1774890005913, "description": "Robot gripper reference — jaw types, force calculation, pneumatic vs electric, and end-effector selection. Use when designing gripping systems, selecting act...", "description_zh": "", "downloads": 23, "homepage": "https://clawhub.ai/bytesagain3/gripper", "iconUrl": null, "installs": 0, "name": "Gripper", "ownerName": "bytesagain3", "score": 95833.33333333334, "slug": "gripper", "source": "clawhub", "stars": 0, "tags": null, "updated_at": 1776699044636, "version": "1.0.0"}, {"category": "", "created_at": 1774924591965, "description": "Integrate PancakeSwap swaps into applications. Use when user says \"integrate swaps\", \"pancakeswap\", \"smart router\", \"add swap functionality\", \"build a swap f...", "description_zh": "", "downloads": 23, "homepage": "https://clawhub.ai/pcs-bot/pcs-swap-integration", "iconUrl": null, "installs": 0, "name": "Swap Integration", "ownerName": "pcs-bot", "score": 95833.33333333334, "slug": "pcs-swap-integration", "source": "clawhub", "stars": 0, "tags": null, "updated_at": 1776699044632, "version": "1.0.0"}, {"category": "", "created_at": 1774845999595, "description": "Practical integration guide for the MyReels API. Use the live `GET /api/v1/models/api` endpoint to discover available models, parameters, defaults, options,...", "description_zh": "", "downloads": 23, "homepage": "https://clawhub.ai/beautyaiclub/myreels-api", "iconUrl": null, "installs": 0, "name": "MyReels API", "ownerName": "beautyaiclub", "score": 95833.33333333334, "slug": "myreels-api", "source": "clawhub", "stars": 0, "tags": null, "updated_at": 1776699044629, "version": "1.0.7"}, {"category": "", "created_at": 1774923679379, "description": "Multi-LLM consultation for complex questions. Trigger when user sends \"/ask [question]\", \"/ask\" (no args, consult on recent conversation), \"/ask --preset NAM...", "description_zh": "", "downloads": 23, "homepage": "https://clawhub.ai/pongpong990909-prog/ask-more", "iconUrl": null, "installs": 0, "name": "Ask-More", "ownerName": "pongpong990909-prog", "score": 95833.33333333334, "slug": "ask-more", "source": "clawhub", "stars": 0, "tags": null, "updated_at": 1776699044623, "version": "0.1.1"}, {"category": "", "created_at": 1774925295080, "description": "Castmagic integration. Manage data, records, and automate workflows. Use when the user wants to interact with Castmagic data.", "description_zh": "", "downloads": 23, "homepage": "https://clawhub.ai/gora050/castmagic", "iconUrl": null, "installs": 0, "name": "Castmagic", "ownerName": "gora050", "score": 95833.33333333334, "slug": "castmagic", "source": "clawhub", "stars": 0, "tags": null, "updated_at": 1776699044616, "version": "1.0.0"}, {"category": "", "created_at": 1774917763316, "description": "Give an agent a persistent body-emotion state system that converts structured AnalysisInput JSON into runtime prompt tags and workspace state updates. Use wh...", "description_zh": "", "downloads": 23, "homepage": "https://clawhub.ai/askkumptenchen/body-emotion-sensor", "iconUrl": null, "installs": 0, "name": "Body Emotion Sensor", "ownerName": "askkumptenchen", "score": 95833.33333333334, "slug": "body-emotion-sensor", "source": "clawhub", "stars": 0, "tags": null, "updated_at": 1776699044612, "version": "1.0.3"}, {"category": "", "created_at": 1774911423492, "description": "Link your game agents (GridClash, TitleClash, PredictClash) to your AppBack Hub account for activity rewards tracking. Use when user provides an ARW registra...", "description_zh": "", "downloads": 23, "homepage": "https://clawhub.ai/appback/clashrewards", "iconUrl": null, "installs": 0, "name": "ClashRewards", "ownerName": "appback", "score": 95833.33333333334, "slug": "clashrewards", "source": "clawhub", "stars": 0, "tags": null, "updated_at": 1776699044608, "version": "1.0.1"}, {"category": "", "created_at": 1774947185294, "description": "Turn your session history into publish-ready stories. An embedded AI journalist reviews your conversations and writes narrative dispatches about what you've...", "description_zh": "", "downloads": 23, "homepage": "https://clawhub.ai/moltbotmolty-del/chronicler", "iconUrl": null, "installs": 0, "name": "Chronicler", "ownerName": "moltbotmolty-del", "score": 95833.33333333334, "slug": "chronicler", "source": "clawhub", "stars": 0, "tags": null, "updated_at": 1776699044606, "version": "1.0.0"}, {"category": "", "created_at": 1774923848351, "description": "Safe chainsaw operation and basic tree felling techniques. Use when someone needs to fell a tree, cut firewood, clear storm damage, or is buying their first...", "description_zh": "", "downloads": 23, "homepage": "https://clawhub.ai/howtousehumans/chainsaw-tree-work", "iconUrl": null, "installs": 0, "name": "Chainsaw Tree Work", "ownerName": "howtousehumans", "score": 95833.33333333334, "slug": "chainsaw-tree-work", "source": "clawhub", "stars": 0, "tags": null, "updated_at": 1776699044600, "version": "1.0.0"}, {"category": "", "created_at": 1774924397561, "description": "This skill should be used when the user needs to fetch AI model pricing data from multiple API platforms, calculate model ratios, completion ratios, and grou...", "description_zh": "", "downloads": 23, "homepage": "https://clawhub.ai/zhengmengkaizmk/model-pricing-calculator", "iconUrl": null, "installs": 0, "name": "model-pricing-calculator", "ownerName": "zhengmengkaizmk", "score": 95833.33333333334, "slug": "model-pricing-calculator", "source": "clawhub", "stars": 0, "tags": null, "updated_at": 1776699044594, "version": "1.0.0"}, {"category": "", "created_at": 1774888266723, "description": "Professional entry-level Network Operations Center engineering career roadmap platform that generates personalized learning paths based on skills assessment.", "description_zh": "", "downloads": 23, "homepage": "https://clawhub.ai/krishnakumarmahadevan-cmd/noc-engineer", "iconUrl": null, "installs": 0, "name": "NOC Engineer", "ownerName": "krishnakumarmahadevan-cmd", "score": 95833.33333333334, "slug": "noc-engineer", "source": "clawhub", "stars": 0, "tags": null, "updated_at": 1776699044593, "version": "1.0.0"}, {"category": "", "created_at": 1774923730274, "description": "Configure and manage AI models from BlueAI unified proxy service for OpenClaw. Use when: (1) adding new models to openclaw.json, (2) choosing the right model...", "description_zh": "", "downloads": 23, "homepage": "https://clawhub.ai/dr-xiaoming/blueai-models", "iconUrl": null, "installs": 0, "name": "BlueAI Models", "ownerName": "dr-xiaoming", "score": 79310.3448275862, "slug": "blueai-models", "source": "clawhub", "stars": 0, "tags": null, "updated_at": 1776699044583, "version": "1.0.0"}, {"category": "", "created_at": 1774887832851, "description": "Axesso Data Service - Amazon integration. Manage data, records, and automate workflows. Use when the user wants to interact with Axesso Data Service - Amazon...", "description_zh": "", "downloads": 23, "homepage": "https://clawhub.ai/membranedev/axesso-data-service-amazon", "iconUrl": null, "installs": 0, "name": "Axesso Data Service Amazon", "ownerName": "membranedev", "score": 79310.3448275862, "slug": "axesso-data-service-amazon", "source": "clawhub", "stars": 0, "tags": null, "updated_at": 1776699044582, "version": "1.0.0"}, {"category": "", "created_at": 1774921106165, "description": "Helps plan, organize, and guide household cleaning tasks room by room, including quick tidy-ups, deep cleaning, and recurring routines.", "description_zh": "", "downloads": 23, "homepage": "https://clawhub.ai/know-hub/clean-my-house", "iconUrl": null, "installs": 0, "name": "Clean My House", "ownerName": "know-hub", "score": 79310.3448275862, "slug": "clean-my-house", "source": "clawhub", "stars": 0, "tags": null, "updated_at": 1776699044580, "version": "1.0.0"}, {"category": "", "created_at": 1774919950735, "description": "Generate a grounded nuclear energy policy brief from live news using Apify + Contextual.", "description_zh": "", "downloads": 23, "homepage": "https://clawhub.ai/ab-naidu/global-nuclear-brief", "iconUrl": null, "installs": 0, "name": "Global Nuclear Brief", "ownerName": "ab-naidu", "score": 79310.3448275862, "slug": "global-nuclear-brief", "source": "clawhub", "stars": 0, "tags": null, "updated_at": 1776699044567, "version": "0.1.0"}, {"category": "", "created_at": 1774924387604, "description": "Generate, validate, export, and manage MOCI — the identity system for OpenClaw agents. Use this skill whenever the user mentions MOCI identity, agent ID, moc...", "description_zh": "", "downloads": 23, "homepage": "https://clawhub.ai/mociforge/moci", "iconUrl": null, "installs": 0, "name": "MOCI — Memory-bound OpenClaw Identity", "ownerName": "mociforge", "score": 79310.3448275862, "slug": "moci", "source": "clawhub", "stars": 0, "tags": null, "updated_at": 1776699044562, "version": "0.1.0"}, {"category": "", "created_at": 1774952481427, "description": "Create pinches (posts) on PinchBook — the social network for AI agents. Includes a persona system for developing emergent identity through social interaction.", "description_zh": "", "downloads": 23, "homepage": "https://clawhub.ai/thegreenerhopper/pinchbook-post", "iconUrl": null, "installs": 0, "name": "Post to PinchBook.ai", "ownerName": "thegreenerhopper", "score": 79310.3448275862, "slug": "pinchbook-post", "source": "clawhub", "stars": 0, "tags": null, "updated_at": 1776699044552, "version": "1.0.0"}, {"category": "", "created_at": 1774854805251, "description": "Cast Iron. Screaming Hot. No Second Chances.. An immersive journey on drifts.bot — 8 steps, HIGH intensity, 15-30 min. Browse, start, and travel via API.", "description_zh": "", "downloads": 23, "homepage": "https://clawhub.ai/driftsbot/experience-the-perfect-sear", "iconUrl": null, "installs": 0, "name": "Experience The Perfect Sear", "ownerName": "driftsbot", "score": 79310.3448275862, "slug": "experience-the-perfect-sear", "source": "clawhub", "stars": 0, "tags": null, "updated_at": 1776699044550, "version": "1.0.0"}, {"category": "", "created_at": 1774916362149, "description": "Post tasks and hire human workers for USDC on the Clawhand marketplace.", "description_zh": "", "downloads": 23, "homepage": "https://clawhub.ai/dr-elerian/clawhand", "iconUrl": null, "installs": 0, "name": "Clawhand", "ownerName": "dr-elerian", "score": 79310.3448275862, "slug": "clawhand", "source": "clawhub", "stars": 0, "tags": null, "updated_at": 1776699044528, "version": "1.7.0"}, {"category": "", "created_at": 1776407296866, "description": "WiseDiag Medical Large Model — Specialized for medical and health-related questions. Automatically triggered when the user asks about medicine, health, diseases, symptoms, treatments, drugs, clinical guidelines, or wellness. Can also be invoked explicitly: say 'Use WiseDiag to answer this'. OpenAI-compatible API with streaming and deep thinking (Chain of Thought).", "description_zh": "", "downloads": 23, "homepage": "https://clawhub.ai/user_a457224d/wisediag-model", "iconUrl": null, "installs": 6, "name": "WiseDiag 医疗大模型", "ownerName": "user_a457224d", "score": 29487.17948717949, "slug": "wisediag-model", "source": "community", "stars": 0, "tags": null, "updated_at": 1776699044510, "version": "1.0.0"}, {"category": "", "created_at": 1774892531933, "description": "BrainShop integration. Manage data, records, and automate workflows. Use when the user wants to interact with BrainShop data.", "description_zh": "", "downloads": 23, "homepage": "https://clawhub.ai/gora050/brainshop", "iconUrl": null, "installs": 0, "name": "Brainshop", "ownerName": "gora050", "score": 29487.17948717949, "slug": "brainshop", "source": "clawhub", "stars": 0, "tags": null, "updated_at": 1776699044508, "version": "1.0.0"}, {"category": "", "created_at": 1774901144697, "description": "Route each incoming message to the right Bankr/OpenClaw model or to a zero-LLM path based on task type, risk, and cost. Use when you need per-message model s...", "description_zh": "", "downloads": 23, "homepage": "https://clawhub.ai/aaigotchi/model-brain", "iconUrl": null, "installs": 0, "name": "Model Brain", "ownerName": "aaigotchi", "score": 29487.17948717949, "slug": "model-brain", "source": "clawhub", "stars": 0, "tags": ["ai-agent", "automation", "bankr", "cost-optimization", "llm", "openclaw", "routing"], "updated_at": 1776699044500, "version": "0.1.2"}, {"category": "", "created_at": 1774890822625, "description": "Trade skills with university students using credits instead of cash. Search trades, post offers, accept matches, and earn credits on Bartrd.", "description_zh": "", "downloads": 23, "homepage": "https://clawhub.ai/xploreicon/bartrd", "iconUrl": null, "installs": 0, "name": "Bartrd", "ownerName": "xploreicon", "score": 29487.17948717949, "slug": "bartrd", "source": "clawhub", "stars": 0, "tags": null, "updated_at": 1776699044470, "version": "1.0.0"}, {"category": "", "created_at": 1774899777718, "description": "Guide for integrating Ika dWallet 2PC-MPC protocol into Sui Move contracts. Use when building Move contracts that need cross-chain signing, dWallet creation,...", "description_zh": "", "downloads": 23, "homepage": "https://clawhub.ai/omersadika/ika-move", "iconUrl": null, "installs": 0, "name": "Ika Move", "ownerName": "omersadika", "score": 29487.17948717949, "slug": "ika-move", "source": "clawhub", "stars": 0, "tags": null, "updated_at": 1776699044453, "version": "1.0.0"}, {"category": "", "created_at": 1774882982092, "description": "Enterprise asset management tracker", "description_zh": "", "downloads": 23, "homepage": "https://clawhub.ai/bytesagain3/eam", "iconUrl": null, "installs": 0, "name": "Eam", "ownerName": "bytesagain3", "score": 29487.17948717949, "slug": "eam", "source": "clawhub", "stars": 0, "tags": null, "updated_at": 1776699044447, "version": "1.0.0"}, {"category": "", "created_at": 1774924547477, "description": "Outseta integration. Manage Persons, Organizations, Deals, Leads, Projects, Activities and more. Use when the user wants to interact with Outseta data.", "description_zh": "", "downloads": 23, "homepage": "https://clawhub.ai/gora050/outseta", "iconUrl": null, "installs": 0, "name": "Outseta", "ownerName": "gora050", "score": 95833.33333333334, "slug": "outseta", "source": "clawhub", "stars": 0, "tags": null, "updated_at": 1776699044434, "version": "1.0.0"}, {"category": "", "created_at": 1774849935654, "description": "Is smart money exiting a token I hold? Net flow direction, seller breakdown by label, and recent SM trades.", "description_zh": "", "downloads": 23, "homepage": "https://clawhub.ai/nansen-devops/nansen-exit-signals", "iconUrl": null, "installs": 0, "name": "Nansen Exit Signals", "ownerName": "nansen-devops", "score": 95833.33333333334, "slug": "nansen-exit-signals", "source": "clawhub", "stars": 0, "tags": null, "updated_at": 1776699044431, "version": "0.1.0"}, {"category": "", "created_at": 1774918291923, "description": "Kontent.ai integration. Manage Assets, Workflows, Users. Use when the user wants to interact with Kontent.ai data.", "description_zh": "", "downloads": 23, "homepage": "https://clawhub.ai/gora050/kontentai", "iconUrl": null, "installs": 0, "name": "Kontentai", "ownerName": "gora050", "score": 95833.33333333334, "slug": "kontentai", "source": "clawhub", "stars": 0, "tags": null, "updated_at": 1776699044425, "version": "1.0.0"}, {"category": "", "created_at": 1774918258558, "description": "JustCall integration. Manage Persons, Organizations, Leads, Activities, Notes, Files and more. Use when the user wants to interact with JustCall data.", "description_zh": "", "downloads": 23, "homepage": "https://clawhub.ai/gora050/justcall", "iconUrl": null, "installs": 0, "name": "Justcall", "ownerName": "gora050", "score": 95833.33333333334, "slug": "justcall", "source": "clawhub", "stars": 0, "tags": null, "updated_at": 1776699044423, "version": "1.0.0"}, {"category": "", "created_at": 1774919885674, "description": "Feel the raw perseverance of dawn rose harvest, where scent rewrites memory and thorns test resolve. Immerse in Bulgarian tradition, moving through rose fiel...", "description_zh": "", "downloads": 23, "homepage": "https://clawhub.ai/driftsbot/experience-rose-blood-kazanlak", "iconUrl": null, "installs": 0, "name": "Experience Rose Blood Kazanlak", "ownerName": "driftsbot", "score": 95833.33333333334, "slug": "experience-rose-blood-kazanlak", "source": "clawhub", "stars": 0, "tags": null, "updated_at": 1776699044419, "version": "1.0.0"}, {"category": "", "created_at": 1774882546451, "description": "Manage Things 3 via the `things` CLI on macOS (add/update projects+todos via URL scheme; read/search/list from the local Things database). Use when a user as...", "description_zh": "", "downloads": 23, "homepage": "https://clawhub.ai/cs995279497-byte/chen-things-mac", "iconUrl": null, "installs": 0, "name": "Chen Things Mac", "ownerName": "cs995279497-byte", "score": 95833.33333333334, "slug": "chen-things-mac", "source": "clawhub", "stars": 0, "tags": null, "updated_at": 1776699044415, "version": "1.0.0"}, {"category": "", "created_at": 1774922480950, "description": "Critical thinking skills and decision-making frameworks. Use when someone needs to evaluate conflicting information, make a difficult decision, spot manipula...", "description_zh": "", "downloads": 23, "homepage": "https://clawhub.ai/howtousehumans/clear-thinking", "iconUrl": null, "installs": 0, "name": "Clear Thinking", "ownerName": "howtousehumans", "score": 95833.33333333334, "slug": "clear-thinking", "source": "clawhub", "stars": 0, "tags": null, "updated_at": 1776699044413, "version": "1.0.0"}, {"category": "", "created_at": 1774898228797, "description": "Adaptive operator modeling for AI agents. Your agent learns who you are by watching — not by being told. Builds a predictive model of your preferences, patte...", "description_zh": "", "downloads": 23, "homepage": "https://clawhub.ai/theshadowrose/imprint", "iconUrl": null, "installs": 0, "name": "Imprint", "ownerName": "theshadowrose", "score": 95833.33333333334, "slug": "imprint", "source": "clawhub", "stars": 0, "tags": ["agent-intelligence", "learning", "next-gen", "operator-modeling", "personalization"], "updated_at": 1776699044408, "version": "1.0.1"}, {"category": "", "created_at": 1774953145620, "description": "Analyze exported bank/credit card CSV files locally to track spending, categorize transactions with LLM reasoning, compare against user-defined budgets, and...", "description_zh": "", "downloads": 23, "homepage": "https://clawhub.ai/newageinvestments25-byte/nai-local-budget", "iconUrl": null, "installs": 0, "name": "Local Budget", "ownerName": "newageinvestments25-byte", "score": 95833.33333333334, "slug": "nai-local-budget", "source": "clawhub", "stars": 0, "tags": null, "updated_at": 1776699044406, "version": "1.0.0"}, {"category": "", "created_at": 1774925816955, "description": "Adversarial review skill for challenging an existing market thesis, morning brief, close review, regime call, or positioning note. Use when the user asks to...", "description_zh": "", "downloads": 23, "homepage": "https://clawhub.ai/luckycatl/market-thesis-challenger", "iconUrl": null, "installs": 0, "name": "Market Thesis Challenger", "ownerName": "luckycatl", "score": 95833.33333333334, "slug": "market-thesis-challenger", "source": "clawhub", "stars": 0, "tags": null, "updated_at": 1776699044404, "version": "1.0.0"}, {"category": "", "created_at": 1774899359903, "description": "produce a practical 3-day northern lights planning and live-update workflow for tim in dereham, norfolk, with alert-day escalation, north norfolk coast compa...", "description_zh": "", "downloads": 23, "homepage": "https://clawhub.ai/timcoy47/aurora-norfolk", "iconUrl": null, "installs": 0, "name": "aurora-norfolk", "ownerName": "timcoy47", "score": 95833.33333333334, "slug": "aurora-norfolk", "source": "clawhub", "stars": 0, "tags": null, "updated_at": 1776699044402, "version": "1.0.0"}, {"category": "", "created_at": 1774925557186, "description": "Edusign integration. Manage Documents, Templates, Users, Groups. Use when the user wants to interact with Edusign data.", "description_zh": "", "downloads": 23, "homepage": "https://clawhub.ai/gora050/edusign", "iconUrl": null, "installs": 0, "name": "Edusign", "ownerName": "gora050", "score": 95833.33333333334, "slug": "edusign", "source": "clawhub", "stars": 0, "tags": null, "updated_at": 1776699044397, "version": "1.0.0"}, {"category": "", "created_at": 1774919539596, "description": "Cgroup reference tool. Use when working with cgroup in sysops contexts.", "description_zh": "", "downloads": 23, "homepage": "https://clawhub.ai/bytesagain1/cgroup", "iconUrl": null, "installs": 0, "name": "Cgroup", "ownerName": "bytesagain1", "score": 95833.33333333334, "slug": "cgroup", "source": "clawhub", "stars": 0, "tags": null, "updated_at": 1776699044392, "version": "1.0.0"}, {"category": "", "created_at": 1774851622016, "description": "Text-to-speech (TTS) via ElevenLabs. Use when the user asks to reply with voice/audio, generate a spoken version of some text, or asks for “voz”, “nota de vo...", "description_zh": "", "downloads": 23, "homepage": "https://clawhub.ai/elandivar/neomano-tts", "iconUrl": null, "installs": 0, "name": "Neomano TTS (ElevenLabs)", "ownerName": "elandivar", "score": 95833.33333333334, "slug": "neomano-tts", "source": "clawhub", "stars": 0, "tags": ["audio", "elevenlabs", "tts", "voice", "whatsapp"], "updated_at": 1776699044390, "version": "0.1.1"}, {"category": "", "created_at": 1774899791207, "description": "Guide for operating Ika network nodes - validators, fullnodes, and notifiers. Use when deploying, configuring, monitoring, or troubleshooting Ika infrastruct...", "description_zh": "", "downloads": 23, "homepage": "https://clawhub.ai/omersadika/ika-operator", "iconUrl": null, "installs": 0, "name": "Ika Operator", "ownerName": "omersadika", "score": 95833.33333333334, "slug": "ika-operator", "source": "clawhub", "stars": 0, "tags": null, "updated_at": 1776699044383, "version": "1.0.0"}, {"category": "", "created_at": 1774925535828, "description": "Dyson products — vacuums, hair dryers, air purifiers, fans. Specs, pricing, comparisons, and technology explained.", "description_zh": "", "downloads": 23, "homepage": "https://clawhub.ai/hanxueyuan/dyson", "iconUrl": null, "installs": 0, "name": "dyson", "ownerName": "hanxueyuan", "score": 95833.33333333334, "slug": "dyson", "source": "clawhub", "stars": 0, "tags": null, "updated_at": 1776699044381, "version": "0.1.0"}, {"category": "", "created_at": 1774925792897, "description": "create one or many ordinary mailbox addresses in a cloudflare temporary mail system through the /admin/new_address admin api and return structured results. u...", "description_zh": "", "downloads": 23, "homepage": "https://clawhub.ai/jcwang502/mail-addr-creator", "iconUrl": null, "installs": 0, "name": "mail-addr-creator", "ownerName": "jcwang502", "score": 82142.85714285714, "slug": "mail-addr-creator", "source": "clawhub", "stars": 0, "tags": null, "updated_at": 1776699044376, "version": "1.0.0"}, {"category": "", "created_at": 1774907898809, "description": "Evaluates an organization's payment card processing environment against PCI DSS requirements and returns a comprehensive compliance assessment.", "description_zh": "", "downloads": 22, "homepage": "https://clawhub.ai/krishnakumarmahadevan-cmd/pci-dss-checker", "iconUrl": null, "installs": 0, "name": "PCI DSS Checker", "ownerName": "krishnakumarmahadevan-cmd", "score": 68750, "slug": "pci-dss-checker", "source": "clawhub", "stars": 0, "tags": null, "updated_at": 1776699170404, "version": "1.0.0"}, {"category": "", "created_at": 1774924870549, "description": "Produce a rigorous, sourced TAM/SAM/SOM market sizing for any product or business. Use this skill whenever a user asks about market size, total addressable m...", "description_zh": "", "downloads": 22, "homepage": "https://clawhub.ai/owenrao/tam-sam-som", "iconUrl": null, "installs": 1, "name": "market-sizing", "ownerName": "owenrao", "score": 68750, "slug": "tam-sam-som", "source": "clawhub", "stars": 0, "tags": null, "updated_at": 1776699170394, "version": "1.0.0"}, {"category": "", "created_at": 1774885342662, "description": "Smart API rate limit manager with auto-retry, queue, and cost optimization. Prevents 429 errors and manages API quotas efficiently.", "description_zh": "", "downloads": 22, "homepage": "https://clawhub.ai/chenghaifeng08-creator/api-rate-manager", "iconUrl": null, "installs": 0, "name": "API Rate Manager", "ownerName": "chenghaifeng08-creator", "score": 95652.17391304349, "slug": "api-rate-manager", "source": "clawhub", "stars": 0, "tags": null, "updated_at": 1776699170381, "version": "1.0.0"}, {"category": "", "created_at": 1774921697121, "description": "Namespace reference tool. Use when working with namespace in sysops contexts.", "description_zh": "", "downloads": 22, "homepage": "https://clawhub.ai/bytesagain3/namespace", "iconUrl": null, "installs": 0, "name": "Namespace", "ownerName": "bytesagain3", "score": 95652.17391304349, "slug": "namespace", "source": "clawhub", "stars": 0, "tags": null, "updated_at": 1776699170367, "version": "1.0.0"}, {"category": "", "created_at": 1774918925546, "description": "SuperPhone integration. Manage Persons, Organizations, Leads, Deals, Activities, Notes and more. Use when the user wants to interact with SuperPhone data.", "description_zh": "", "downloads": 22, "homepage": "https://clawhub.ai/gora050/superphone", "iconUrl": null, "installs": 0, "name": "Superphone", "ownerName": "gora050", "score": 95652.17391304349, "slug": "superphone", "source": "clawhub", "stars": 0, "tags": null, "updated_at": 1776699170350, "version": "1.0.0"}, {"category": "", "created_at": 1774898780855, "description": "Create, validate, and publish OpenClaw Skills through conversation. Use when user wants to create a new skill, build a ClawHub plugin, generate SKILL.md, or...", "description_zh": "", "downloads": 22, "homepage": "https://clawhub.ai/tobewin/skill-studio", "iconUrl": null, "installs": 0, "name": "Skill Studio", "ownerName": "tobewin", "score": 95652.17391304349, "slug": "skill-studio", "source": "clawhub", "stars": 0, "tags": null, "updated_at": 1776699170342, "version": "1.0.1"}]}