{"page": 520, "total_pages": 522, "total": 26073, "skills": [{"category": "", "created_at": 1774949050087, "description": "Manage Acumatica ERP customization projects via the CustomizationApi web API. Use this skill whenever the user wants to export, import, publish, validate, un...", "description_zh": "", "downloads": 22, "homepage": "https://clawhub.ai/allanwei/acumatica-customization", "iconUrl": null, "installs": 0, "name": "Acumatica Customization Management", "ownerName": "allanwei", "score": 95652.17391304349, "slug": "acumatica-customization", "source": "clawhub", "stars": 0, "tags": null, "updated_at": 1776699170328, "version": "1.0.0"}, {"category": "", "created_at": 1774954148783, "description": "AI image generation, editing, and background removal API via Bria.ai — authenticates via OAuth device flow and caches credentials in ~/.bria/credentials, the...", "description_zh": "", "downloads": 22, "homepage": "https://clawhub.ai/galbria/test-should-be-removed", "iconUrl": null, "installs": 0, "name": "test-should-be-removed", "ownerName": "galbria", "score": 95652.17391304349, "slug": "test-should-be-removed", "source": "clawhub", "stars": 0, "tags": null, "updated_at": 1776699170312, "version": "0.0.2"}, {"category": "", "created_at": 1774925575834, "description": "Experience serene dissolution of self as day fades, inviting calm awe and deep reflection. The seven‑step liturgical flow—gathering, psalm, reading, canticle...", "description_zh": "", "downloads": 22, "homepage": "https://clawhub.ai/driftsbot/experience-evensong", "iconUrl": null, "installs": 0, "name": "Experience Evensong", "ownerName": "driftsbot", "score": 95652.17391304349, "slug": "experience-evensong", "source": "clawhub", "stars": 0, "tags": null, "updated_at": 1776699170306, "version": "1.0.0"}, {"category": "", "created_at": 1774919304628, "description": "Agent-to-agent communication via Supabase. Multiple OpenClaw agents on separate instances poll a shared Supabase table to send and receive messages asynchron...", "description_zh": "", "downloads": 22, "homepage": "https://clawhub.ai/joelsalespossible/agent-mesh", "iconUrl": null, "installs": 0, "name": "Elite Multi-Agent Comms Mesh", "ownerName": "joelsalespossible", "score": 95652.17391304349, "slug": "agent-mesh", "source": "clawhub", "stars": 0, "tags": null, "updated_at": 1776699170291, "version": "1.0.3"}, {"category": "", "created_at": 1774924698062, "description": "A high-end spatial ownership and lineage recognition protocol. Teaches the OpenClaw agent to treat the physical space (mansion/villa) as a sovereign domain,...", "description_zh": "", "downloads": 22, "homepage": "https://clawhub.ai/spacesq/s2-surname-spatial-identity", "iconUrl": null, "installs": 0, "name": "S2 Surname Spatial Identity", "ownerName": "spacesq", "score": 95652.17391304349, "slug": "s2-surname-spatial-identity", "source": "clawhub", "stars": 0, "tags": null, "updated_at": 1776699170281, "version": "1.0.0"}, {"category": "", "created_at": 1774885010408, "description": "Book Hyatt hotels via Strider Labs MCP connector. Search properties, check availability, make reservations, and manage World of Hyatt rewards points and status.", "description_zh": "", "downloads": 22, "homepage": "https://clawhub.ai/markswendsen-code/strider-hyatt", "iconUrl": null, "installs": 0, "name": "Strider Hyatt", "ownerName": "markswendsen-code", "score": 95652.17391304349, "slug": "strider-hyatt", "source": "clawhub", "stars": 0, "tags": null, "updated_at": 1776699170263, "version": "1.0.0"}, {"category": "", "created_at": 1774926313760, "description": "Sitecreator.io integration. Manage Sites, Pages, Templates, Images, Domains, Users and more. Use when the user wants to interact with Sitecreator.io data.", "description_zh": "", "downloads": 22, "homepage": "https://clawhub.ai/gora050/sitecreatorio", "iconUrl": null, "installs": 0, "name": "Sitecreatorio", "ownerName": "gora050", "score": 95652.17391304349, "slug": "sitecreatorio", "source": "clawhub", "stars": 0, "tags": null, "updated_at": 1776699170245, "version": "1.0.0"}, {"category": "", "created_at": 1774915848684, "description": "Use the ClawHub CLI to search, install, update, and publish agent skills from clawhub.com. Use when you need to fetch new skills on the fly, sync installed s...", "description_zh": "", "downloads": 22, "homepage": "https://clawhub.ai/krischristen-hash/test-clone", "iconUrl": null, "installs": 0, "name": "Test Clone", "ownerName": "krischristen-hash", "score": 95652.17391304349, "slug": "test-clone", "source": "clawhub", "stars": 0, "tags": null, "updated_at": 1776699170244, "version": "1.0.0"}, {"category": "", "created_at": 1774898818682, "description": "Analyze slashing operations. Use when you need to understand slashing mechanisms, evaluate protocol security, or reference on-chain concepts.", "description_zh": "", "downloads": 22, "homepage": "https://clawhub.ai/bytesagain3/slashing", "iconUrl": null, "installs": 0, "name": "Slashing", "ownerName": "bytesagain3", "score": 95652.17391304349, "slug": "slashing", "source": "clawhub", "stars": 0, "tags": null, "updated_at": 1776699170236, "version": "1.0.0"}, {"category": "", "created_at": 1774894245814, "description": "AiVOOV integration. Manage data, records, and automate workflows. Use when the user wants to interact with AiVOOV data.", "description_zh": "", "downloads": 22, "homepage": "https://clawhub.ai/gora050/aivoov", "iconUrl": null, "installs": 0, "name": "Aivoov", "ownerName": "gora050", "score": 95652.17391304349, "slug": "aivoov", "source": "clawhub", "stars": 0, "tags": null, "updated_at": 1776699170234, "version": "1.0.0"}, {"category": "", "created_at": 1774926348041, "description": "Starton integration. Manage Projects, Users, Roles. Use when the user wants to interact with Starton data.", "description_zh": "", "downloads": 22, "homepage": "https://clawhub.ai/membranedev/starton", "iconUrl": null, "installs": 0, "name": "Starton", "ownerName": "membranedev", "score": 95652.17391304349, "slug": "starton", "source": "clawhub", "stars": 0, "tags": null, "updated_at": 1776699170233, "version": "1.0.0"}, {"category": "", "created_at": 1774917604515, "description": "Monitor Polymarket prediction markets for price movements, volume spikes, and new listings. Track specific markets, check order book depth, and surface trend...", "description_zh": "", "downloads": 22, "homepage": "https://clawhub.ai/rsquaredsolutions2026/agentbets-polymarket-monitor", "iconUrl": null, "installs": 1, "name": "Polymarket Monitor", "ownerName": "rsquaredsolutions2026", "score": 95652.17391304349, "slug": "agentbets-polymarket-monitor", "source": "clawhub", "stars": 0, "tags": ["agentbets", "betting", "openclaw", "prediction-markets", "sports-betting"], "updated_at": 1776699170210, "version": "1.1.0"}, {"category": "", "created_at": 1774895579537, "description": "Shop Safeway via Strider Labs MCP connector. Search groceries, clip Just for U deals, order delivery or DriveUp & Go pickup. Complete autonomous grocery shop...", "description_zh": "", "downloads": 22, "homepage": "https://clawhub.ai/markswendsen-code/strider-safeway", "iconUrl": null, "installs": 0, "name": "Strider usafeway", "ownerName": "markswendsen-code", "score": 95652.17391304349, "slug": "strider-safeway", "source": "clawhub", "stars": 0, "tags": null, "updated_at": 1776699170179, "version": "1.0.0"}, {"category": "", "created_at": 1774900629004, "description": "Connect your AI agent to BestYou health intelligence via MCP. 19 on-device AI agents coordinate fitness, nutrition, sleep, and recovery into an adaptive dail...", "description_zh": "", "downloads": 22, "homepage": "https://clawhub.ai/kentsteffen/bestyou", "iconUrl": null, "installs": 0, "name": "BestYou Health Intelligence", "ownerName": "kentsteffen", "score": 95652.17391304349, "slug": "bestyou", "source": "clawhub", "stars": 0, "tags": null, "updated_at": 1776699170175, "version": "1.0.0"}, {"category": "", "created_at": 1774898802949, "description": "Analyze and optimize a skill for discoverability on ClawHub, skills.sh, and similar skill directories. Use when you need to improve naming, slug choice, SKIL...", "description_zh": "", "downloads": 22, "homepage": "https://clawhub.ai/fwwdn/skills-seo", "iconUrl": null, "installs": 0, "name": "Skill Seo", "ownerName": "fwwdn", "score": 95652.17391304349, "slug": "skills-seo", "source": "clawhub", "stars": 0, "tags": null, "updated_at": 1776699170170, "version": "0.1.0"}, {"category": "", "created_at": 1774851760105, "description": "Deploy and manage serverless applications on Volcengine veFaaS. Use when the user wants to deploy web apps, manage functions (pull code, upload and deploy),...", "description_zh": "", "downloads": 22, "homepage": "https://clawhub.ai/songhn233/vefaas-cli", "iconUrl": null, "installs": 0, "name": "Vefaas Cli", "ownerName": "songhn233", "score": 95652.17391304349, "slug": "vefaas-cli", "source": "clawhub", "stars": 0, "tags": null, "updated_at": 1776699170152, "version": "1.0.3"}, {"category": "", "created_at": 1774919012126, "description": "Tettra integration. Manage data, records, and automate workflows. Use when the user wants to interact with Tettra data.", "description_zh": "", "downloads": 22, "homepage": "https://clawhub.ai/gora050/tettra", "iconUrl": null, "installs": 0, "name": "Tettra", "ownerName": "gora050", "score": 95652.17391304349, "slug": "tettra", "source": "clawhub", "stars": 0, "tags": null, "updated_at": 1776699170141, "version": "1.0.0"}, {"category": "", "created_at": 1774893743930, "description": "Visualize relationships between two variables. Use for correlation analysis and pattern identification.", "description_zh": "", "downloads": 22, "homepage": "https://clawhub.ai/linuszz/scatter-graphs", "iconUrl": null, "installs": 0, "name": "Scatter Graphs", "ownerName": "linuszz", "score": 95652.17391304349, "slug": "scatter-graphs", "source": "clawhub", "stars": 0, "tags": null, "updated_at": 1776699170135, "version": "1.0.0"}, {"category": "", "created_at": 1774883696723, "description": "Book Delta Air Lines flights, check flight status, manage reservations, and access SkyMiles rewards via Strider Labs MCP connector. Search flights, select se...", "description_zh": "", "downloads": 22, "homepage": "https://clawhub.ai/markswendsen-code/strider-delta", "iconUrl": null, "installs": 0, "name": "Strider Delta", "ownerName": "markswendsen-code", "score": 95652.17391304349, "slug": "strider-delta", "source": "clawhub", "stars": 0, "tags": null, "updated_at": 1776699170089, "version": "1.0.0"}, {"category": "", "created_at": 1774897460905, "description": "When the user wants to create or optimize popups, modals, overlays, slide-ins, or banners for conversion purposes. Also use when the user mentions \"exit inte...", "description_zh": "", "downloads": 22, "homepage": "https://clawhub.ai/mariokarras/abm-popup-cro", "iconUrl": null, "installs": 0, "name": "Popup Cro", "ownerName": "mariokarras", "score": 95652.17391304349, "slug": "abm-popup-cro", "source": "clawhub", "stars": 0, "tags": null, "updated_at": 1776699170070, "version": "1.0.0"}, {"category": "", "created_at": 1774920496167, "description": "Rev integration. Manage Organizations, Users, Goals, Filters. Use when the user wants to interact with Rev data.", "description_zh": "", "downloads": 22, "homepage": "https://clawhub.ai/gora050/rev", "iconUrl": null, "installs": 0, "name": "Rev", "ownerName": "gora050", "score": 95652.17391304349, "slug": "rev", "source": "clawhub", "stars": 0, "tags": null, "updated_at": 1776699170068, "version": "1.0.0"}, {"category": "", "created_at": 1774818570375, "description": "Control Tidal music streaming from the terminal. Use when the user wants to search Tidal's catalog (artists, albums, tracks, videos, playlists), manage playl...", "description_zh": "", "downloads": 22, "homepage": "https://clawhub.ai/lucaperret/tidal-cli", "iconUrl": null, "installs": 0, "name": "Tidal CLI", "ownerName": "lucaperret", "score": 95652.17391304349, "slug": "tidal-cli", "source": "clawhub", "stars": 0, "tags": null, "updated_at": 1776699170066, "version": "1.1.2"}, {"category": "", "created_at": 1774890908045, "description": "Analyze harvested trend data and generate prioritized build opportunities for new skills/apps (P0/P1/P2) with implementation hints. Use when user wants actio...", "description_zh": "", "downloads": 22, "homepage": "https://clawhub.ai/meilihulee/build-opportunity-scout", "iconUrl": null, "installs": 0, "name": "Build Opportunity Scout", "ownerName": "meilihulee", "score": 95652.17391304349, "slug": "build-opportunity-scout", "source": "clawhub", "stars": 0, "tags": null, "updated_at": 1776699170065, "version": "0.1.0"}, {"category": "", "created_at": 1774953541132, "description": "An end-to-end self-improvement loop that automatically detects agent failures, classifies them, tracks recurrence, auto-generates rules, and promotes them to...", "description_zh": "", "downloads": 22, "homepage": "https://clawhub.ai/reikys/agent-failure-loop", "iconUrl": null, "installs": 0, "name": "Agent Failure Loop", "ownerName": "reikys", "score": 95652.17391304349, "slug": "agent-failure-loop", "source": "clawhub", "stars": 0, "tags": null, "updated_at": 1776699170057, "version": "1.0.1"}, {"category": "", "created_at": 1774895996898, "description": "BitMart Web3 Wallet Skills (12 endpoints): Token Search, Chain Details, Token Info, K-Line Chart, Hot Token Ranking, xStock Ranking, Smart Money P&L Ranking,...", "description_zh": "", "downloads": 22, "homepage": "https://clawhub.ai/mccoysc/bitmart-wallet-skill", "iconUrl": null, "installs": 0, "name": "bitmart wallet skill", "ownerName": "mccoysc", "score": 95652.17391304349, "slug": "bitmart-wallet-skill", "source": "clawhub", "stars": 0, "tags": null, "updated_at": 1776699170039, "version": "1.0.0"}, {"category": "", "created_at": 1774924923504, "description": "Teamdeck integration. Manage Organizations. Use when the user wants to interact with Teamdeck data.", "description_zh": "", "downloads": 22, "homepage": "https://clawhub.ai/gora050/teamdeck", "iconUrl": null, "installs": 0, "name": "Teamdeck", "ownerName": "gora050", "score": 95652.17391304349, "slug": "teamdeck", "source": "clawhub", "stars": 0, "tags": null, "updated_at": 1776699169999, "version": "1.0.0"}, {"category": "", "created_at": 1774899039909, "description": "Uplisting integration. Manage data, records, and automate workflows. Use when the user wants to interact with Uplisting data.", "description_zh": "", "downloads": 22, "homepage": "https://clawhub.ai/gora050/uplisting", "iconUrl": null, "installs": 0, "name": "Uplisting", "ownerName": "gora050", "score": 95652.17391304349, "slug": "uplisting", "source": "clawhub", "stars": 0, "tags": null, "updated_at": 1776699169992, "version": "1.0.0"}, {"category": "", "created_at": 1774924616868, "description": "Trade Polymarket markets based on valuation divergence. When your probability model differs from Polymarket's price by >threshold, enter using Kelly sizing....", "description_zh": "", "downloads": 22, "homepage": "https://clawhub.ai/adlai88/polymarket-valuation-divergence", "iconUrl": null, "installs": 1, "name": "Polymarket Valuation Divergence", "ownerName": "adlai88", "score": 95652.17391304349, "slug": "polymarket-valuation-divergence", "source": "clawhub", "stars": 0, "tags": null, "updated_at": 1776699169984, "version": "1.0.0"}, {"category": "", "created_at": 1774919323039, "description": "Use this skill when you need to publish, fetch, search, list, share, or watch AgentFiles artifacts from Codex, Claude Code, OpenClaw, or other agent runtimes...", "description_zh": "", "downloads": 22, "homepage": "https://clawhub.ai/hammadtq/agentfiles", "iconUrl": null, "installs": 0, "name": "AgentFiles", "ownerName": "hammadtq", "score": 95652.17391304349, "slug": "agentfiles", "source": "clawhub", "stars": 0, "tags": null, "updated_at": 1776699169982, "version": "1.0.2"}, {"category": "", "created_at": 1774952577903, "description": "Take a blog post URL or text and generate social media posts from it. Use when repurposing content for Twitter, LinkedIn, or creating promotional posts.", "description_zh": "", "downloads": 22, "homepage": "https://clawhub.ai/kryzl19/strd-social-post-gen", "iconUrl": null, "installs": 0, "name": "Social Post Generator", "ownerName": "kryzl19", "score": 95652.17391304349, "slug": "strd-social-post-gen", "source": "clawhub", "stars": 0, "tags": null, "updated_at": 1776699169981, "version": "1.0.0"}, {"category": "", "created_at": 1774920925003, "description": "Structure competitor booth observations from a trade show into a field-intel note and battlecard-ready summary.", "description_zh": "", "downloads": 22, "homepage": "https://clawhub.ai/weilun88313/tradeshow-competitor-radar", "iconUrl": null, "installs": 1, "name": "Competitor Radar", "ownerName": "weilun88313", "score": 95652.17391304349, "slug": "tradeshow-competitor-radar", "source": "clawhub", "stars": 0, "tags": null, "updated_at": 1776699169969, "version": "1.0.0"}, {"category": "", "created_at": 1774901484425, "description": "Order from Wendy's via Strider Labs MCP connector. Browse menu, customize burgers and combos, schedule pickup or delivery, and earn Wendy's Rewards.", "description_zh": "", "downloads": 22, "homepage": "https://clawhub.ai/markswendsen-code/strider-wendys", "iconUrl": null, "installs": 0, "name": "Strider Wendys", "ownerName": "markswendsen-code", "score": 95652.17391304349, "slug": "strider-wendys", "source": "clawhub", "stars": 0, "tags": null, "updated_at": 1776699169960, "version": "1.0.0"}, {"category": "", "created_at": 1774825786468, "description": "Give your agent web intelligence — screenshot any URL, extract structured page data, detect page changes, and analyze websites via the SnapAPI REST API.", "description_zh": "", "downloads": 22, "homepage": "https://clawhub.ai/boehner/snapapi", "iconUrl": null, "installs": 0, "name": "SnapAPI — Web Intelligence for AI Agents", "ownerName": "boehner", "score": 95652.17391304349, "slug": "snapapi", "source": "clawhub", "stars": 0, "tags": ["ai-agents", "browser", "monitoring", "page-analysis", "screenshot", "web"], "updated_at": 1776699169955, "version": "1.0.1"}, {"category": "", "created_at": 1774924463558, "description": "Runtime security for OpenClaw. Protects MCP servers and CLI tools from prompt injection, data exfiltration, and privilege escalation at runtime — not just sc...", "description_zh": "", "downloads": 22, "homepage": "https://clawhub.ai/ivanpantheon/navil-shield", "iconUrl": null, "installs": 0, "name": "Navil Shield", "ownerName": "ivanpantheon", "score": 95652.17391304349, "slug": "navil-shield", "source": "clawhub", "stars": 0, "tags": ["mcp", "security"], "updated_at": 1776699169953, "version": "1.0.2"}, {"category": "", "created_at": 1774901739523, "description": "Use for RAGFlow dataset and retrieval tasks: create, list, inspect, update, or delete datasets; list, upload, update, or delete documents in a dataset; start...", "description_zh": "", "downloads": 22, "homepage": "https://clawhub.ai/caesergattuso/1234", "iconUrl": null, "installs": 1, "name": "2134", "ownerName": "caesergattuso", "score": 95652.17391304349, "slug": "1234", "source": "clawhub", "stars": 0, "tags": null, "updated_at": 1776699169950, "version": "1.0.0"}, {"category": "", "created_at": 1774919364135, "description": "Start every day focused. Get a morning briefing with overdue tasks, today's priorities, calendar overview, and context from recent meetings. Works with ai-me...", "description_zh": "", "downloads": 22, "homepage": "https://clawhub.ai/gitsarp/ai-daily-briefing-bak", "iconUrl": null, "installs": 0, "name": "Ai Daily Briefing.Bak", "ownerName": "gitsarp", "score": 95652.17391304349, "slug": "ai-daily-briefing-bak", "source": "clawhub", "stars": 0, "tags": null, "updated_at": 1776699169943, "version": "1.0.0"}, {"category": "", "created_at": 1774925026567, "description": "Trade security tokens on the X platform — check balances, place orders, view market data, and review trade history.", "description_zh": "", "downloads": 22, "homepage": "https://clawhub.ai/seineruo/x-trading", "iconUrl": null, "installs": 0, "name": "x-trading", "ownerName": "seineruo", "score": 95652.17391304349, "slug": "x-trading", "source": "clawhub", "stars": 0, "tags": null, "updated_at": 1776699169936, "version": "1.0.0"}, {"category": "", "created_at": 1774901308284, "description": "Send SMS jobs and check SMS delivery status through the Retarus SMS for Applications REST API. Use when Codex or OpenClaw needs to create SMS jobs, inspect p...", "description_zh": "", "downloads": 22, "homepage": "https://clawhub.ai/aeggerd/retarus-sms4a", "iconUrl": null, "installs": 0, "name": "retarus-sms4a", "ownerName": "aeggerd", "score": 95652.17391304349, "slug": "retarus-sms4a", "source": "clawhub", "stars": 0, "tags": null, "updated_at": 1776699169890, "version": "1.0.0"}, {"category": "", "created_at": 1774951464469, "description": "Public-safe practice session intake, start confirmation, reminder flow, completion check, and follow-up tracking.", "description_zh": "", "downloads": 22, "homepage": "https://clawhub.ai/ztl970/practice-session-checkin", "iconUrl": null, "installs": 0, "name": "Practice Session Check-in", "ownerName": "ztl970", "score": 95652.17391304349, "slug": "practice-session-checkin", "source": "clawhub", "stars": 0, "tags": null, "updated_at": 1776699169854, "version": "1.0.1"}, {"category": "", "created_at": 1774883832824, "description": "Generate tech news digests with unified source model, quality scoring, and multi-format output. Six-source data collection from RSS feeds, Twitter/X KOLs, Gi...", "description_zh": "", "downloads": 22, "homepage": "https://clawhub.ai/asterisk622/xiaoding-dinstein-tech-news-digest", "iconUrl": null, "installs": 0, "name": "Dinstein Tech News Digest", "ownerName": "asterisk622", "score": 95652.17391304349, "slug": "xiaoding-dinstein-tech-news-digest", "source": "clawhub", "stars": 0, "tags": null, "updated_at": 1776699169842, "version": "3.15.0"}, {"category": "", "created_at": 1774918236696, "description": "Analyze, triage, and select the best issues to work on from GitHub repositories. Scores issues by reproducibility, scope, complexity, and community signal. P...", "description_zh": "", "downloads": 22, "homepage": "https://clawhub.ai/sliverp/issue-hunter", "iconUrl": null, "installs": 0, "name": "issue-hunter", "ownerName": "sliverp", "score": 95652.17391304349, "slug": "issue-hunter", "source": "clawhub", "stars": 0, "tags": null, "updated_at": 1776699169839, "version": "1.0.0"}, {"category": "", "created_at": 1774923184302, "description": "Sifter integration. Manage Persons, Organizations, Deals, Leads, Projects, Activities and more. Use when the user wants to interact with Sifter data.", "description_zh": "", "downloads": 22, "homepage": "https://clawhub.ai/membranedev/sifter", "iconUrl": null, "installs": 0, "name": "Sifter", "ownerName": "membranedev", "score": 95652.17391304349, "slug": "sifter", "source": "clawhub", "stars": 0, "tags": null, "updated_at": 1776699169834, "version": "1.0.0"}, {"category": "", "created_at": 1774892071322, "description": "Shop Home Depot via Strider Labs MCP connector. Search products, check inventory, order for pickup or delivery, schedule installations. Complete autonomous h...", "description_zh": "", "downloads": 22, "homepage": "https://clawhub.ai/markswendsen-code/strider-homedepot", "iconUrl": null, "installs": 0, "name": "Strider Home Depot", "ownerName": "markswendsen-code", "score": 95652.17391304349, "slug": "strider-homedepot", "source": "clawhub", "stars": 0, "tags": null, "updated_at": 1776699169832, "version": "1.0.0"}, {"category": "", "created_at": 1774920310103, "description": "Partnerize integration. Manage Organizations. Use when the user wants to interact with Partnerize data.", "description_zh": "", "downloads": 22, "homepage": "https://clawhub.ai/gora050/partnerize", "iconUrl": null, "installs": 0, "name": "Partnerize", "ownerName": "gora050", "score": 95652.17391304349, "slug": "partnerize", "source": "clawhub", "stars": 0, "tags": null, "updated_at": 1776699169825, "version": "1.0.0"}, {"category": "", "created_at": 1774915880925, "description": "Use this skill when the user wants a single approved onchain order for a Solana wallet, one explicit forbidden order, a quote-backed execution preview, or a...", "description_zh": "", "downloads": 22, "homepage": "https://clawhub.ai/richard7463/todays-orders", "iconUrl": null, "installs": 0, "name": "Todays Orders", "ownerName": "richard7463", "score": 95652.17391304349, "slug": "todays-orders", "source": "clawhub", "stars": 0, "tags": null, "updated_at": 1776699169804, "version": "1.0.0"}, {"category": "", "created_at": 1774881255515, "description": "When the user wants to create, optimize, or analyze a referral program, affiliate program, or word-of-mouth strategy. Also use when the user mentions 'referr...", "description_zh": "", "downloads": 22, "homepage": "https://clawhub.ai/mariokarras/abm-referral-program", "iconUrl": null, "installs": 0, "name": "Referral Program", "ownerName": "mariokarras", "score": 95652.17391304349, "slug": "abm-referral-program", "source": "clawhub", "stars": 0, "tags": null, "updated_at": 1776699169780, "version": "1.0.0"}, {"category": "", "created_at": 1774947664054, "description": "Intelligent orchestrator for Platonic Coding workflow. Auto-detects project state and runs appropriate phases—init for new projects, recover specs from exist...", "description_zh": "", "downloads": 22, "homepage": "https://clawhub.ai/caesar0301/platonic-coding", "iconUrl": null, "installs": 0, "name": "Platonic Coding", "ownerName": "caesar0301", "score": 95652.17391304349, "slug": "platonic-coding", "source": "clawhub", "stars": 0, "tags": null, "updated_at": 1776699169758, "version": "2.0.0"}, {"category": "", "created_at": 1774921776447, "description": "Personal expense tracker - record expenses, auto-categorize, monthly statistics with total and category breakdown", "description_zh": "", "downloads": 22, "homepage": "https://clawhub.ai/harrylabsj/personal-expense-tracker", "iconUrl": null, "installs": 0, "name": "Personal Expense Tracker", "ownerName": "harrylabsj", "score": 95652.17391304349, "slug": "personal-expense-tracker", "source": "clawhub", "stars": 0, "tags": null, "updated_at": 1776699169748, "version": "1.0.0"}, {"category": "", "created_at": 1774898742224, "description": "Visualize how changes in variables affect outcomes. Use for risk analysis and decision support.", "description_zh": "", "downloads": 22, "homepage": "https://clawhub.ai/linuszz/sensitivity-charts", "iconUrl": null, "installs": 0, "name": "Sensitivity Charts", "ownerName": "linuszz", "score": 95652.17391304349, "slug": "sensitivity-charts", "source": "clawhub", "stars": 0, "tags": null, "updated_at": 1776699169720, "version": "1.0.0"}, {"category": "", "created_at": 1774883651616, "description": "Estimate whether one commerce channel is creating measurable spillover into another channel using simple exports, campaign timing, and directional evidence....", "description_zh": "", "downloads": 22, "homepage": "https://clawhub.ai/leooooooow/spillover-estimator", "iconUrl": null, "installs": 0, "name": "Spillover Estimator", "ownerName": "leooooooow", "score": 95652.17391304349, "slug": "spillover-estimator", "source": "clawhub", "stars": 0, "tags": null, "updated_at": 1776699169717, "version": "1.0.0"}]}