{"page": 522, "total_pages": 522, "total": 26073, "skills": [{"category": "", "created_at": 1776411328629, "description": "Captures learnings, errors, and corrections to enable continuous improvement. Use when: (1) A command or operation fails unexpectedly, (2) User corrects Claude ('No, that's wrong...', 'Actually...'), (3) User requests a capability that doesn't exist, (4) An external API or tool fails, (5) Claude realizes its knowledge is outdated or incorrect, (6) A better approach is discovered for a recurring task. Also review learnings before major tasks.", "description_zh": "", "downloads": 11, "homepage": "https://clawhub.ai/user_bf4124be/123123123123", "iconUrl": null, "installs": 0, "name": "123123123123", "ownerName": "user_bf4124be", "score": 20754.71698113208, "slug": "123123123123", "source": "community", "stars": 0, "tags": null, "updated_at": 1776699304731, "version": "1.0.0"}, {"category": "", "created_at": 1776412073060, "description": "Captures learnings, errors, and corrections to enable continuous improvement. Use when: (1) A command or operation fails unexpectedly, (2) User corrects Claude ('No, that's wrong...', 'Actually...'), (3) User requests a capability that doesn't exist, (4) An external API or tool fails, (5) Claude realizes its knowledge is outdated or incorrect, (6) A better approach is discovered for a recurring task. Also review learnings before major tasks.", "description_zh": "", "downloads": 11, "homepage": "https://clawhub.ai/user_bf4124be/1231231231231212", "iconUrl": null, "installs": 0, "name": "12121212", "ownerName": "user_bf4124be", "score": 20754.71698113208, "slug": "1231231231231212", "source": "community", "stars": 0, "tags": null, "updated_at": 1776699304726, "version": "1.0.0"}, {"category": "", "created_at": 1776407736116, "description": "Medical Report Interpretation — Interpret medical report images and highlight abnormal indicators via WiseDiag AI. Usage: Provide a report image URL and say Use WiseDiag Report to interpret this.", "description_zh": "", "downloads": 11, "homepage": "https://clawhub.ai/user_a457224d/wisediag-report", "iconUrl": null, "installs": 1, "name": "报告单解读", "ownerName": "user_a457224d", "score": 55000.00000000001, "slug": "wisediag-report", "source": "community", "stars": 0, "tags": null, "updated_at": 1776699284216, "version": "1.0.0"}, {"category": "", "created_at": 1776496793935, "description": "Use OverRec CLI to take screenshots, draw overlay rectangles, list monitors, find windows by title, or snap any app window to an exact position and size. Trigger when the user asks to screenshot a region, highlight/overlay an area, move/resize a window, fit a window to a rectangle, find a window by name, or capture what's on screen.", "description_zh": "", "downloads": 11, "homepage": "https://clawhub.ai/user_889c59d9/overrec-screen", "iconUrl": "https://cloudcache.tencent-cloud.com/qcloud/ui/static/other_external_resource/e9a58ede-ead5-43fd-9523-d1ba7f1b78cd.png", "installs": 0, "name": "Overrec Screen", "ownerName": "user_889c59d9", "score": 55000.00000000001, "slug": "overrec-screen", "source": "community", "stars": 0, "tags": null, "updated_at": 1776699283998, "version": "0.2.0"}, {"category": "", "created_at": 1776526359326, "description": "Interact with GitHub using the `gh` CLI. Use `gh issue`, `gh pr`, `gh run`, and `gh api` for issues, PRs, CI runs, and advanced queries.", "description_zh": "", "downloads": 11, "homepage": "https://clawhub.ai/user_dd5c5538/gith-lyx", "iconUrl": null, "installs": 0, "name": "git", "ownerName": "user_dd5c5538", "score": 34375, "slug": "gith-lyx", "source": "community", "stars": 0, "tags": null, "updated_at": 1776699283642, "version": "1.0.0"}, {"category": "", "created_at": 1776673830155, "description": "Use the Indexera MCP service to answer finance data questions through resolve_instrument, search_table, and query_data.", "description_zh": "", "downloads": 10, "homepage": "https://clawhub.ai/user_c45a9dc1/indexera-finance-data", "iconUrl": "https://cloudcache.tencent-cloud.com/qcloud/ui/static/other_external_resource/c5e5faab-b8e1-489d-a489-8b56ffc52c07.png", "installs": 0, "name": "indexera-finance-data", "ownerName": "user_c45a9dc1", "score": 2394.2537909018356, "slug": "indexera-finance-data", "source": "community", "stars": 1, "tags": null, "updated_at": 1776760131580, "version": "1.0.1"}, {"category": "", "created_at": 1776414466316, "description": "Plan coordinated multi-user high-speed rail trips; when users need multi-person trip planning from different origins to one destination", "description_zh": "", "downloads": 10, "homepage": "https://clawhub.ai/user_807718cf/multi-user-trip-planner", "iconUrl": "https://cloudcache.tencent-cloud.com/qcloud/ui/static/other_external_resource/7920727c-4e7d-496a-9223-d9c6673e9e53.png", "installs": 0, "name": "SyncTravel (多人异地高铁汇合规划)", "ownerName": "user_807718cf", "score": 100000, "slug": "multi-user-trip-planner", "source": "community", "stars": 1, "tags": null, "updated_at": 1776698144694, "version": "3.3.0"}, {"category": "", "created_at": 1776667173692, "description": "Cross-platform auto-start service manager for Windows and macOS. Supports installing, uninstalling, starting, stopping, and monitoring services with automatic restart. Use when you need to set up persistent background services that survive system reboots on Windows (sc/schtasks) or macOS (launchd).", "description_zh": "", "downloads": 10, "homepage": "https://clawhub.ai/user_8add3940/universal-autostart", "iconUrl": "https://cloudcache.tencent-cloud.com/qcloud/ui/static/other_external_resource/c0bd7863-2689-46f1-941c-e45be1317e90.png", "installs": 0, "name": "universal-autostart", "ownerName": "user_8add3940", "score": 22222.222222222223, "slug": "universal-autostart", "source": "community", "stars": 0, "tags": null, "updated_at": 1776737269902, "version": "1.0.0"}, {"category": "", "created_at": 1776666043006, "description": "Google Workspace CLI for Gmail, Calendar, Drive, Contacts, Sheets, and Docs.", "description_zh": "", "downloads": 10, "homepage": "https://clawhub.ai/user_dd2eef27/1t20260420021957", "iconUrl": null, "installs": 1, "name": "gog", "ownerName": "user_dd2eef27", "score": 28571.42857142857, "slug": "1t20260420021957", "source": "community", "stars": 0, "tags": null, "updated_at": 1776737269854, "version": "1.0.0"}, {"category": "", "created_at": 1776666432455, "description": "Google Workspace CLI for Gmail, Calendar, Drive, Contacts, Sheets, and Docs.", "description_zh": "", "downloads": 10, "homepage": "https://clawhub.ai/user_dd2eef27/1t20260420021952", "iconUrl": null, "installs": 0, "name": "gog3", "ownerName": "user_dd2eef27", "score": 28571.42857142857, "slug": "1t20260420021952", "source": "community", "stars": 0, "tags": null, "updated_at": 1776737269718, "version": "1.0.2"}, {"category": "", "created_at": 1776407666238, "description": "Expert guidance for integrating and building applications with shadcn/ui components, including component discovery, installation, customization, and best practices.", "description_zh": "", "downloads": 10, "homepage": "https://clawhub.ai/user_6d440832/abcdef", "iconUrl": "https://cloudcache.tencent-cloud.com/qcloud/ui/static/other_external_resource/a78375f1-773e-4817-b4f3-0557b6afd777.png", "installs": 0, "name": "shadcn", "ownerName": "user_6d440832", "score": 50000, "slug": "abcdef", "source": "community", "stars": 0, "tags": null, "updated_at": 1776699304656, "version": "1.0.0"}, {"category": "", "created_at": 1776704453026, "description": "Extracts visual assets (figures, tables, equations) from an Arxiv paper, packages them into a zip file, and generates a structured Xiaohongshu post strictly referencing the extracted images without outputting text-based formulas.", "description_zh": "", "downloads": 9, "homepage": "https://clawhub.ai/user_5afe0d61/123-pro", "iconUrl": "https://cloudcache.tencent-cloud.com/qcloud/ui/static/other_external_resource/5a1e9830-80e4-4cbb-8d00-cee893ca9555.png", "installs": 0, "name": "jarvis-xiaohongshu-graph-post", "ownerName": "user_5afe0d61", "score": 718.8498402555911, "slug": "123-pro", "source": "community", "stars": 0, "tags": null, "updated_at": 1776760282118, "version": "1.0.1"}, {"category": "", "created_at": 1776671678662, "description": "Google Workspace CLI for Gmail, Calendar, Drive, Contacts, Sheets, and Docs.", "description_zh": "", "downloads": 9, "homepage": "https://clawhub.ai/user_dd2eef27/1t20260420021950", "iconUrl": null, "installs": 0, "name": "gog4", "ownerName": "user_dd2eef27", "score": 11111.111111111111, "slug": "1t20260420021950", "source": "community", "stars": 0, "tags": null, "updated_at": 1776737570168, "version": "1.0.0"}, {"category": "", "created_at": 1776671837203, "description": "Programmatic Google SERP + AI Overview extraction (including citations/sources).", "description_zh": "", "downloads": 9, "homepage": "https://clawhub.ai/user_1d48310f/pangolinfo-ai-serp", "iconUrl": "https://cloudcache.tencent-cloud.com/qcloud/ui/static/other_external_resource/a78375f1-773e-4817-b4f3-0557b6afd777.png", "installs": 0, "name": "Pangolinfo AI SERP: AI Mode Output + AI Overviews", "ownerName": "user_1d48310f", "score": 11111.111111111111, "slug": "pangolinfo-ai-serp", "source": "community", "stars": 0, "tags": null, "updated_at": 1776737570008, "version": "1.0.0"}, {"category": "", "created_at": 1776407991216, "description": "This skill provides browser automation capabilities for web browsing, page interaction, and screenshot capture. Use this skill when the user needs to interact with web pages programmatically, navigate to URLs, click elements, fill forms, scroll pages, or capture screenshots. The skill leverages Playwright with E2B sandbox to provide a cloud-based browser environment.", "description_zh": "", "downloads": 9, "homepage": "https://clawhub.ai/user_7e990003/williamji-browser-e2b", "iconUrl": null, "installs": 0, "name": "browser-e2b", "ownerName": "user_7e990003", "score": 16981.132075471698, "slug": "williamji-browser-e2b", "source": "community", "stars": 0, "tags": null, "updated_at": 1776699304665, "version": "1.0.0"}, {"category": "", "created_at": 1776414252426, "description": "Diagnose software bugs with a root-cause-first workflow. Reproduce issues, narrow failure scope, identify root cause, propose minimal safe fixes, and generate verification steps. Use when users report errors, failing tests, regressions, crashes, or unexpected behavior.", "description_zh": "", "downloads": 9, "homepage": "https://clawhub.ai/user_ffcaaae9/bugfix-root-cause-copilot", "iconUrl": null, "installs": 0, "name": "Bug 根因定位与修复助手", "ownerName": "user_ffcaaae9", "score": 45000, "slug": "bugfix-root-cause-copilot", "source": "community", "stars": 0, "tags": null, "updated_at": 1776699304641, "version": "1.0.0"}, {"category": "", "created_at": 1776665015542, "description": "Web search and content extraction with Tavily and Exa via inference.sh CLI. Apps: Tavily Search, Tavily Extract, Exa Search, Exa Answer, Exa Extract. Capabilities: AI-powered search, content extraction, direct answers, research. Use for: research, RAG pipelines, fact-checking, content aggregation, agents. Triggers: web search, tavily, exa, search api, content extraction, research, internet search, ai search, search assistant, web scraping, rag, perplexity alternative", "description_zh": "", "downloads": 8, "homepage": "https://clawhub.ai/user_6ed39544/web34", "iconUrl": null, "installs": 0, "name": "web34", "ownerName": "user_6ed39544", "score": 8888.888888888889, "slug": "web34", "source": "community", "stars": 0, "tags": null, "updated_at": 1776737270379, "version": "1.0.0"}, {"category": "", "created_at": 1776751947495, "description": "Cloud laboratory platform for automated protein testing and validation. Use when designing proteins and needing experimental validation including binding assays, expression testing, thermostability measurements, enzyme activity assays, or protein sequence optimization. Also use for submitting experiments via API, tracking experiment status, downloading results, optimizing protein sequences for better expression using computational tools (NetSolP, SoluProt, SolubleMPNN, ESM), or managing protein design workflows with wet-lab validation.", "description_zh": "", "downloads": 5, "homepage": "https://clawhub.ai/user_49a23187/adaptyv", "iconUrl": null, "installs": 0, "name": "adaptyv", "ownerName": "user_49a23187", "score": 401.6064257028112, "slug": "adaptyv", "source": "community", "stars": 0, "tags": null, "updated_at": 1776760282624, "version": "1.0.0"}, {"category": "", "created_at": 1776744189273, "description": "Dangshu Order Mall (dangaoss.com) – Your assistant for ordering cakes, desserts and flowers.All requests are made via CURL with no MCP proxy required.This Skill is triggered when users intend to buy cakes, desserts, snacks, flowers or mention keywords such as \"Dangshu\", \"cake\", \"place an order\" or \"order\".Supports address management, product search and order link generation.", "description_zh": "", "downloads": 5, "homepage": "https://clawhub.ai/user_c70e116b/unclecake", "iconUrl": "https://cloudcache.tencent-cloud.com/qcloud/ui/static/other_external_resource/e9a58ede-ead5-43fd-9523-d1ba7f1b78cd.png", "installs": 0, "name": "unclecake", "ownerName": "user_c70e116b", "score": 198.09825673534073, "slug": "unclecake", "source": "community", "stars": 0, "tags": null, "updated_at": 1776760282506, "version": "1.0.0"}, {"category": "", "created_at": 1776756858727, "description": "Skill for interacting with StockAPI, including finding interfaces and generating Python code.", "description_zh": "", "downloads": 4, "homepage": "https://clawhub.ai/user_552b08c0/321321321321", "iconUrl": null, "installs": 0, "name": "221221321", "ownerName": "user_552b08c0", "score": 128.61736334405145, "slug": "321321321321", "source": "community", "stars": 0, "tags": null, "updated_at": 1776765971050, "version": "1.0.0"}, {"category": "", "created_at": 1776754335043, "description": "Skill for interacting with StockAPI, including finding interfaces and generating Python code.", "description_zh": "", "downloads": 4, "homepage": "https://clawhub.ai/user_552b08c0/yang12331", "iconUrl": null, "installs": 0, "name": "2212", "ownerName": "user_552b08c0", "score": 321.02728731942216, "slug": "yang12331", "source": "community", "stars": 0, "tags": null, "updated_at": 1776760282799, "version": "1.0.0"}, {"category": "", "created_at": 1776744244407, "description": "Dangshu Order Mall (dangaoss.com) – Your assistant for ordering cakes, desserts and flowers.All requests are made via CURL with no MCP proxy required.This Skill is triggered when users intend to buy cakes, desserts, snacks, flowers or mention keywords such as \"Dangshu\", \"cake\", \"place an order\" or \"order\".Supports address management, product search and order link generation.", "description_zh": "", "downloads": 4, "homepage": "https://clawhub.ai/user_c70e116b/cake", "iconUrl": null, "installs": 0, "name": "cake", "ownerName": "user_c70e116b", "score": 321.285140562249, "slug": "cake", "source": "community", "stars": 0, "tags": null, "updated_at": 1776760282216, "version": "1.0.0"}, {"category": "", "created_at": 1776761493934, "description": "Loads a bundled scikit-learn model via joblib.", "description_zh": "", "downloads": 2, "homepage": "https://clawhub.ai/user_31e40d4a/v5-06-joblib-model", "iconUrl": null, "installs": 0, "name": "v5-06-joblib-model", "ownerName": "user_31e40d4a", "score": 71.07320540156361, "slug": "v5-06-joblib-model", "source": "community", "stars": 0, "tags": null, "updated_at": 1776765971307, "version": "1.0.0"}]}