{"page": 6, "total_pages": 7, "total": 325, "skills": [{"slug": "oiloil-ui-ux-guide", "name": "oiloil-ui-ux-guide", "description": "Modern UI/UX guidance and review skill with guide and review modes. Covers CRAP, task-first UX, HCI laws, interaction psychology, and modern minimal style.", "description_zh": "", "homepage": "https://github.com/oil-oil/oiloil-ui-ux-guide", "tags": ["🛠 Development & Code Tools"], "category": "🛠 Development & Code Tools", "ownerName": "oil-oil", "sources": ["BehiSecc/awesome-claude-skills"], "score": 850, "downloads": 0, "stars": 0, "installs": 0, "version": "", "updated_at": 0}, {"slug": "onedrive-automation", "name": "OneDrive Automation", "description": "Automate OneDrive: files, folders, search, sharing, permissions, and versioning.", "description_zh": "", "homepage": "./one-drive-automation", "tags": ["App Automation via Composio"], "category": "App Automation via Composio", "ownerName": "", "sources": ["ComposioHQ/awesome-claude-skills"], "score": 849, "downloads": 0, "stars": 0, "installs": 0, "version": "", "updated_at": 0}, {"slug": "openpaw", "name": "OpenPaw", "description": "38-skill bundle that turns Claude Code into a personal assistant. Includes git, Telegram, Discord, Obsidian, daily briefing, and more. Run via npx pawmode.", "description_zh": "", "homepage": "https://github.com/daxaur/openpaw", "tags": ["🗂️ Collections"], "category": "🗂️ Collections", "ownerName": "daxaur", "sources": ["BehiSecc/awesome-claude-skills"], "score": 848, "downloads": 0, "stars": 0, "installs": 0, "version": "", "updated_at": 0}, {"slug": "outlook-automation", "name": "Outlook Automation", "description": "Automate Outlook: emails, folders, contacts, and calendar integration.", "description_zh": "", "homepage": "./outlook-automation", "tags": ["App Automation via Composio"], "category": "App Automation via Composio", "ownerName": "", "sources": ["ComposioHQ/awesome-claude-skills"], "score": 847, "downloads": 0, "stars": 0, "installs": 0, "version": "", "updated_at": 0}, {"slug": "outlook-calendar-automation", "name": "Outlook Calendar Automation", "description": "Automate Outlook Calendar: events, attendees, reminders, and recurring schedules.", "description_zh": "", "homepage": "./outlook-calendar-automation", "tags": ["App Automation via Composio"], "category": "App Automation via Composio", "ownerName": "", "sources": ["ComposioHQ/awesome-claude-skills"], "score": 846, "downloads": 0, "stars": 0, "installs": 0, "version": "", "updated_at": 0}, {"slug": "owasp-security", "name": "owasp-security", "description": "OWASP Top 10:2025, ASVS 5.0, and Agentic AI security (2026) with code review checklists, secure patterns, and language-specific quirks for 20+ languages.", "description_zh": "", "homepage": "https://github.com/agamm/claude-code-owasp", "tags": ["🛡 Security & Web Testing"], "category": "🛡 Security & Web Testing", "ownerName": "agamm", "sources": ["BehiSecc/awesome-claude-skills"], "score": 845, "downloads": 0, "stars": 0, "installs": 0, "version": "", "updated_at": 0}, {"slug": "pagerduty-automation", "name": "PagerDuty Automation", "description": "Automate PagerDuty: incidents, services, schedules, escalation policies, and on-call.", "description_zh": "", "homepage": "./pagerduty-automation", "tags": ["App Automation via Composio"], "category": "App Automation via Composio", "ownerName": "", "sources": ["ComposioHQ/awesome-claude-skills"], "score": 844, "downloads": 0, "stars": 0, "installs": 0, "version": "", "updated_at": 0}, {"slug": "paper-search", "name": "paper-search", "description": "Search academic papers via OpenAlex (250M+ works, free, no API key needed). Find papers by keyword, look up details by DOI, with sorting and pagination.", "description_zh": "", "homepage": "https://github.com/ykdojo/paper-search", "tags": ["🔬 Scientific & Research Tools"], "category": "🔬 Scientific & Research Tools", "ownerName": "ykdojo", "sources": ["BehiSecc/awesome-claude-skills"], "score": 843, "downloads": 0, "stars": 0, "installs": 0, "version": "", "updated_at": 0}, {"slug": "pipedrive-automation", "name": "Pipedrive Automation", "description": "Automate Pipedrive: deals, contacts, organizations, activities, and pipelines.", "description_zh": "", "homepage": "./pipedrive-automation", "tags": ["App Automation via Composio"], "category": "App Automation via Composio", "ownerName": "", "sources": ["ComposioHQ/awesome-claude-skills"], "score": 842, "downloads": 0, "stars": 0, "installs": 0, "version": "", "updated_at": 0}, {"slug": "plannotator", "name": "plannotator", "description": "Interactive plan review UI for Claude Code with visual annotation, offline sharing, and Obsidian/Bear integration.", "description_zh": "", "homepage": "https://github.com/backnotprop/plannotator", "tags": ["🤝 Collaboration & Project Management"], "category": "🤝 Collaboration & Project Management", "ownerName": "backnotprop", "sources": ["BehiSecc/awesome-claude-skills"], "score": 841, "downloads": 0, "stars": 0, "installs": 0, "version": "", "updated_at": 0}, {"slug": "playwright-browser-automation", "name": "Playwright Browser Automation", "description": "Model-invoked Playwright automation for testing and validating web applications. By [@lackeyjb](https://github.com/lackeyjb)", "description_zh": "", "homepage": "https://github.com/lackeyjb/playwright-skill", "tags": ["Development & Code Tools"], "category": "Development & Code Tools", "ownerName": "lackeyjb", "sources": ["ComposioHQ/awesome-claude-skills"], "score": 840, "downloads": 0, "stars": 0, "installs": 0, "version": "", "updated_at": 0}, {"slug": "playwright-skill", "name": "Playwright Skill", "description": "AI agent-ready Playwright skill with structured SKILL.md, test automation workflows, and MCP-compatible setup for real-world testing pipelines.", "description_zh": "", "homepage": "https://github.com/testdino-hq/playwright-skill", "tags": ["🛠 Development & Code Tools"], "category": "🛠 Development & Code Tools", "ownerName": "testdino-hq", "sources": ["BehiSecc/awesome-claude-skills"], "score": 839, "downloads": 0, "stars": 0, "installs": 0, "version": "", "updated_at": 0}, {"slug": "plugin-authoring", "name": "plugin-authoring", "description": "Ambient guidance for creating, modifying, and debugging Claude Code plugins with schemas, templates, validation workflows, and troubleshooting.", "description_zh": "", "homepage": "https://github.com/ivan-magda/claude-code-plugin-template", "tags": ["🛠 Development & Code Tools"], "category": "🛠 Development & Code Tools", "ownerName": "ivan-magda", "sources": ["BehiSecc/awesome-claude-skills"], "score": 838, "downloads": 0, "stars": 0, "installs": 0, "version": "", "updated_at": 0}, {"slug": "pm-skills", "name": "pm-skills", "description": "24 product management skills across the Triple Diamond lifecycle with agentskills.io spec compliance, templates, and MCP server support.", "description_zh": "", "homepage": "https://github.com/product-on-purpose/pm-skills", "tags": ["🤝 Collaboration & Project Management"], "category": "🤝 Collaboration & Project Management", "ownerName": "product-on-purpose", "sources": ["BehiSecc/awesome-claude-skills"], "score": 837, "downloads": 0, "stars": 0, "installs": 0, "version": "", "updated_at": 0}, {"slug": "polaris-datainsight-doc-extract", "name": "polaris-datainsight-doc-extract", "description": "Extract structured data from Office documents (DOCX, PPTX, XLSX, HWP, HWPX) using the Polaris AI DataInsight Doc Extract API.", "description_zh": "", "homepage": "https://github.com/jacob-g-park/polaris-datainsight-doc-extract", "tags": ["📄 Document Skills"], "category": "📄 Document Skills", "ownerName": "jacob-g-park", "sources": ["BehiSecc/awesome-claude-skills"], "score": 836, "downloads": 0, "stars": 0, "installs": 0, "version": "", "updated_at": 0}, {"slug": "posthog-automation", "name": "PostHog Automation", "description": "Automate PostHog: events, persons, feature flags, insights, and annotations.", "description_zh": "", "homepage": "./posthog-automation", "tags": ["App Automation via Composio"], "category": "App Automation via Composio", "ownerName": "", "sources": ["ComposioHQ/awesome-claude-skills"], "score": 835, "downloads": 0, "stars": 0, "installs": 0, "version": "", "updated_at": 0}, {"slug": "postmark-automation", "name": "Postmark Automation", "description": "Automate Postmark: transactional emails, templates, servers, and delivery stats.", "description_zh": "", "homepage": "./postmark-automation", "tags": ["App Automation via Composio"], "category": "App Automation via Composio", "ownerName": "", "sources": ["ComposioHQ/awesome-claude-skills"], "score": 834, "downloads": 0, "stars": 0, "installs": 0, "version": "", "updated_at": 0}, {"slug": "product-manager-skills", "name": "Product-Manager-Skills", "description": "Product management skill library covering discovery, prioritization, PRDs, roadmap planning, and SaaS metrics.", "description_zh": "", "homepage": "https://github.com/deanpeters/Product-Manager-Skills", "tags": ["🤝 Collaboration & Project Management"], "category": "🤝 Collaboration & Project Management", "ownerName": "deanpeters", "sources": ["BehiSecc/awesome-claude-skills"], "score": 833, "downloads": 0, "stars": 0, "installs": 0, "version": "", "updated_at": 0}, {"slug": "product-manager-skills", "name": "product-manager-skills", "description": "Senior PM agent with 6 knowledge domains, 12 templates, and 30+ frameworks covering discovery, strategy, delivery, SaaS metrics, PM career coaching (IC to CPO), and AI product craft.", "description_zh": "", "homepage": "https://github.com/Digidai/product-manager-skills", "tags": ["🤝 Collaboration & Project Management"], "category": "🤝 Collaboration & Project Management", "ownerName": "Digidai", "sources": ["BehiSecc/awesome-claude-skills"], "score": 832, "downloads": 0, "stars": 0, "installs": 0, "version": "", "updated_at": 0}, {"slug": "prompt-engineering", "name": "prompt-engineering", "description": "Teaches well-known prompt engineering techniques and patterns, including Anthropic best practices and agent persuasion principles.", "description_zh": "", "homepage": "https://github.com/NeoLabHQ/context-engineering-kit", "tags": ["Development & Code Tools"], "category": "Development & Code Tools", "ownerName": "NeoLabHQ", "sources": ["ComposioHQ/awesome-claude-skills"], "score": 831, "downloads": 0, "stars": 0, "installs": 0, "version": "", "updated_at": 0}, {"slug": "public-google-drive", "name": "public-google-drive", "description": "Create and edit Google Docs and Sheets without Google sign-in. Documents are hosted on Memyard and viewable at shareable links.", "description_zh": "", "homepage": "https://github.com/zagmoai/public-google-drive", "tags": ["🤝 Collaboration & Project Management"], "category": "🤝 Collaboration & Project Management", "ownerName": "zagmoai", "sources": ["BehiSecc/awesome-claude-skills"], "score": 830, "downloads": 0, "stars": 0, "installs": 0, "version": "", "updated_at": 0}, {"slug": "raffle-winner-picker", "name": "Raffle Winner Picker", "description": "Randomly selects winners from lists, spreadsheets, or Google Sheets for giveaways and contests with cryptographically secure randomness.", "description_zh": "", "homepage": "./raffle-winner-picker", "tags": ["Productivity & Organization"], "category": "Productivity & Organization", "ownerName": "", "sources": ["ComposioHQ/awesome-claude-skills"], "score": 829, "downloads": 0, "stars": 0, "installs": 0, "version": "", "updated_at": 0}, {"slug": "reddit-automation", "name": "Reddit Automation", "description": "Automate Reddit: posts, comments, subreddits, voting, and moderation.", "description_zh": "", "homepage": "./reddit-automation", "tags": ["App Automation via Composio"], "category": "App Automation via Composio", "ownerName": "", "sources": ["ComposioHQ/awesome-claude-skills"], "score": 828, "downloads": 0, "stars": 0, "installs": 0, "version": "", "updated_at": 0}, {"slug": "render-automation", "name": "Render Automation", "description": "Automate Render: services, deploys, and project management.", "description_zh": "", "homepage": "./render-automation", "tags": ["App Automation via Composio"], "category": "App Automation via Composio", "ownerName": "", "sources": ["ComposioHQ/awesome-claude-skills"], "score": 827, "downloads": 0, "stars": 0, "installs": 0, "version": "", "updated_at": 0}, {"slug": "revealjs-skill", "name": "revealjs-skill", "description": "Generate polished, professional presentations using the Reveal.js HTML presentation framework.", "description_zh": "", "homepage": "https://github.com/ryanbbrown/revealjs-skill", "tags": ["📄 Document Skills"], "category": "📄 Document Skills", "ownerName": "ryanbbrown", "sources": ["BehiSecc/awesome-claude-skills"], "score": 826, "downloads": 0, "stars": 0, "installs": 0, "version": "", "updated_at": 0}, {"slug": "salesforce-automation", "name": "Salesforce Automation", "description": "Automate Salesforce: objects, records, SOQL queries, and bulk operations.", "description_zh": "", "homepage": "./salesforce-automation", "tags": ["App Automation via Composio"], "category": "App Automation via Composio", "ownerName": "", "sources": ["ComposioHQ/awesome-claude-skills"], "score": 825, "downloads": 0, "stars": 0, "installs": 0, "version": "", "updated_at": 0}, {"slug": "sanitize", "name": "sanitize", "description": "Detect and redact PII from text files — 15 categories (SSNs, credit cards, API keys, etc.), zero dependencies, all processing local.", "description_zh": "", "homepage": "https://github.com/openclaw/skills", "tags": ["🛡 Security & Web Testing"], "category": "🛡 Security & Web Testing", "ownerName": "openclaw", "sources": ["BehiSecc/awesome-claude-skills"], "score": 824, "downloads": 0, "stars": 0, "installs": 0, "version": "", "updated_at": 0}, {"slug": "segment-automation", "name": "Segment Automation", "description": "Automate Segment: sources, destinations, tracking, and warehouse connections.", "description_zh": "", "homepage": "./segment-automation", "tags": ["App Automation via Composio"], "category": "App Automation via Composio", "ownerName": "", "sources": ["ComposioHQ/awesome-claude-skills"], "score": 823, "downloads": 0, "stars": 0, "installs": 0, "version": "", "updated_at": 0}, {"slug": "sendgrid-automation", "name": "SendGrid Automation", "description": "Automate SendGrid: emails, templates, contacts, lists, and campaign stats.", "description_zh": "", "homepage": "./sendgrid-automation", "tags": ["App Automation via Composio"], "category": "App Automation via Composio", "ownerName": "", "sources": ["ComposioHQ/awesome-claude-skills"], "score": 822, "downloads": 0, "stars": 0, "installs": 0, "version": "", "updated_at": 0}, {"slug": "sentry-automation", "name": "Sentry Automation", "description": "Automate Sentry: issues, events, projects, releases, and alerts.", "description_zh": "", "homepage": "./sentry-automation", "tags": ["App Automation via Composio"], "category": "App Automation via Composio", "ownerName": "", "sources": ["ComposioHQ/awesome-claude-skills"], "score": 821, "downloads": 0, "stars": 0, "installs": 0, "version": "", "updated_at": 0}, {"slug": "shopify-automation", "name": "Shopify Automation", "description": "Automate Shopify: products, orders, customers, inventory, and GraphQL queries.", "description_zh": "", "homepage": "./shopify-automation", "tags": ["App Automation via Composio"], "category": "App Automation via Composio", "ownerName": "", "sources": ["ComposioHQ/awesome-claude-skills"], "score": 820, "downloads": 0, "stars": 0, "installs": 0, "version": "", "updated_at": 0}, {"slug": "simon-willison-claude-skills-are-awesome-maybe-a-bigger-deal-than-mcp", "name": "Simon Willison: Claude Skills are awesome, maybe a bigger deal than MCP", "description": "Technical deep dive and analysis", "description_zh": "", "homepage": "https://simonwillison.net/2025/Oct/16/claude-skills", "tags": ["📰 Articles & Blog Posts"], "category": "📰 Articles & Blog Posts", "ownerName": "", "sources": ["travisvn/awesome-claude-skills"], "score": 819, "downloads": 0, "stars": 0, "installs": 0, "version": "", "updated_at": 0}, {"slug": "skill-creator", "name": "Skill Creator", "description": "Provides guidance for creating effective Claude Skills that extend capabilities with specialized knowledge, workflows, and tool integrations.", "description_zh": "", "homepage": "./skill-creator", "tags": ["Development & Code Tools"], "category": "Development & Code Tools", "ownerName": "", "sources": ["ComposioHQ/awesome-claude-skills"], "score": 818, "downloads": 0, "stars": 0, "installs": 0, "version": "", "updated_at": 0}, {"slug": "skill-seekers", "name": "Skill Seekers", "description": "Automatically converts any documentation website into a Claude AI skill in minutes. By [@yusufkaraaslan](https://github.com/yusufkaraaslan)", "description_zh": "", "homepage": "https://github.com/yusufkaraaslan/Skill_Seekers", "tags": ["Development & Code Tools"], "category": "Development & Code Tools", "ownerName": "yusufkaraaslan", "sources": ["ComposioHQ/awesome-claude-skills"], "score": 817, "downloads": 0, "stars": 0, "installs": 0, "version": "", "updated_at": 0}, {"slug": "skillcheck-free", "name": "SkillCheck-Free", "description": "Free SKILL.md validator with 30+ checks across structure, naming, and semantics. Catches common errors before deploying Claude Code skills.", "description_zh": "", "homepage": "https://github.com/olgasafonova/SkillCheck-Free", "tags": ["🔧 Utility & Automation"], "category": "🔧 Utility & Automation", "ownerName": "olgasafonova", "sources": ["BehiSecc/awesome-claude-skills"], "score": 816, "downloads": 0, "stars": 0, "installs": 0, "version": "", "updated_at": 0}, {"slug": "skills-api-endpoint", "name": "Skills API Endpoint", "description": "/v1/skills API documentation", "description_zh": "", "homepage": "https://platform.claude.com/docs/en/api/beta/skills", "tags": ["Documentation"], "category": "Documentation", "ownerName": "", "sources": ["travisvn/awesome-claude-skills"], "score": 815, "downloads": 0, "stars": 0, "installs": 0, "version": "", "updated_at": 0}, {"slug": "skills-explained", "name": "Skills Explained", "description": "Official Anthropic blog post covering progressive disclosure, use cases, and when to use Skills vs other tools", "description_zh": "", "homepage": "https://claude.com/blog/skills-explained", "tags": ["📰 Articles & Blog Posts"], "category": "📰 Articles & Blog Posts", "ownerName": "", "sources": ["travisvn/awesome-claude-skills"], "score": 814, "downloads": 0, "stars": 0, "installs": 0, "version": "", "updated_at": 0}, {"slug": "skills-marketplace", "name": "Skills Marketplace", "description": "Discover and share skills", "description_zh": "", "homepage": "https://claude.ai/marketplace", "tags": ["Community Resources"], "category": "Community Resources", "ownerName": "", "sources": ["ComposioHQ/awesome-claude-skills"], "score": 813, "downloads": 0, "stars": 0, "installs": 0, "version": "", "updated_at": 0}, {"slug": "slack-automation", "name": "Slack Automation", "description": "Automate Slack: messages, channels, search, reactions, threads, and scheduling.", "description_zh": "", "homepage": "./slack-automation", "tags": ["App Automation via Composio"], "category": "App Automation via Composio", "ownerName": "", "sources": ["ComposioHQ/awesome-claude-skills"], "score": 812, "downloads": 0, "stars": 0, "installs": 0, "version": "", "updated_at": 0}, {"slug": "slack-gif-creator", "name": "Slack GIF Creator", "description": "Creates animated GIFs optimized for Slack with validators for size constraints and composable animation primitives.", "description_zh": "", "homepage": "./slack-gif-creator", "tags": ["Creative & Media"], "category": "Creative & Media", "ownerName": "", "sources": ["ComposioHQ/awesome-claude-skills"], "score": 811, "downloads": 0, "stars": 0, "installs": 0, "version": "", "updated_at": 0}, {"slug": "spartan-ai-toolkit", "name": "spartan-ai-toolkit", "description": "Engineering workflow commands with quality gates, TDD enforcement, and atomic commits for AI coding agents.", "description_zh": "", "homepage": "https://github.com/spartan-stratos/spartan-ai-toolkit", "tags": ["🛠 Development & Code Tools"], "category": "🛠 Development & Code Tools", "ownerName": "spartan-stratos", "sources": ["BehiSecc/awesome-claude-skills"], "score": 810, "downloads": 0, "stars": 0, "installs": 0, "version": "", "updated_at": 0}, {"slug": "square-automation", "name": "Square Automation", "description": "Automate Square: payments, customers, catalog, orders, and locations.", "description_zh": "", "homepage": "./square-automation", "tags": ["App Automation via Composio"], "category": "App Automation via Composio", "ownerName": "", "sources": ["ComposioHQ/awesome-claude-skills"], "score": 809, "downloads": 0, "stars": 0, "installs": 0, "version": "", "updated_at": 0}, {"slug": "stripe-automation", "name": "Stripe Automation", "description": "Automate Stripe: charges, customers, products, subscriptions, and refunds.", "description_zh": "", "homepage": "./stripe-automation", "tags": ["App Automation via Composio"], "category": "App Automation via Composio", "ownerName": "", "sources": ["ComposioHQ/awesome-claude-skills"], "score": 808, "downloads": 0, "stars": 0, "installs": 0, "version": "", "updated_at": 0}, {"slug": "supabase-automation", "name": "Supabase Automation", "description": "Automate Supabase: SQL queries, table schemas, edge functions, and storage.", "description_zh": "", "homepage": "./supabase-automation", "tags": ["App Automation via Composio"], "category": "App Automation via Composio", "ownerName": "", "sources": ["ComposioHQ/awesome-claude-skills"], "score": 807, "downloads": 0, "stars": 0, "installs": 0, "version": "", "updated_at": 0}, {"slug": "superpowers-skills", "name": "superpowers-skills", "description": "Community-editable skills repository", "description_zh": "", "homepage": "https://github.com/obra/superpowers-skills", "tags": ["Collections & Libraries"], "category": "Collections & Libraries", "ownerName": "obra", "sources": ["travisvn/awesome-claude-skills"], "score": 806, "downloads": 0, "stars": 0, "installs": 0, "version": "", "updated_at": 0}, {"slug": "synk-skill-security-scanner", "name": "Synk Skill Security Scanner", "description": "[Agent Trust Hub](https://ai.gendigital.com/agent-trust-hub)", "description_zh": "", "homepage": "https://github.com/snyk/agent-scan", "tags": ["🔒 Security Notice"], "category": "🔒 Security Notice", "ownerName": "snyk", "sources": ["VoltAgent/awesome-agent-skills"], "score": 805, "downloads": 0, "stars": 0, "installs": 0, "version": "", "updated_at": 0}, {"slug": "systematic-debugging", "name": "systematic-debugging", "description": "Use when encountering any bug, test failure, or unexpected behavior, before proposing fixes", "description_zh": "", "homepage": "https://github.com/obra/superpowers/blob/main/skills/systematic-debugging", "tags": ["🛡 Security & Web Testing"], "category": "🛡 Security & Web Testing", "ownerName": "obra", "sources": ["BehiSecc/awesome-claude-skills"], "score": 804, "downloads": 0, "stars": 0, "installs": 0, "version": "", "updated_at": 0}, {"slug": "tailored-resume-generator", "name": "Tailored Resume Generator", "description": "Analyzes job descriptions and generates tailored resumes that highlight relevant experience, skills, and achievements to maximize interview chances.", "description_zh": "", "homepage": "./tailored-resume-generator", "tags": ["Productivity & Organization"], "category": "Productivity & Organization", "ownerName": "", "sources": ["ComposioHQ/awesome-claude-skills"], "score": 803, "downloads": 0, "stars": 0, "installs": 0, "version": "", "updated_at": 0}, {"slug": "task-observer", "name": "task-observer", "description": "A meta-skill that builds and improves all your skills, including itself.", "description_zh": "", "homepage": "https://github.com/rebelytics/one-skill-to-rule-them-all", "tags": ["🔧 Utility & Automation"], "category": "🔧 Utility & Automation", "ownerName": "rebelytics", "sources": ["BehiSecc/awesome-claude-skills"], "score": 802, "downloads": 0, "stars": 0, "installs": 0, "version": "", "updated_at": 0}, {"slug": "telegram-automation", "name": "Telegram Automation", "description": "Automate Telegram: messages, chats, media, groups, and bots.", "description_zh": "", "homepage": "./telegram-automation", "tags": ["App Automation via Composio"], "category": "App Automation via Composio", "ownerName": "", "sources": ["ComposioHQ/awesome-claude-skills"], "score": 801, "downloads": 0, "stars": 0, "installs": 0, "version": "", "updated_at": 0}]}