{"page": 7, "total_pages": 22, "total": 1089, "skills": [{"slug": "clickhouse-clickhouse-best-practices", "name": "clickhouse/clickhouse-best-practices", "description": "Best practices for working with ClickHouse", "description_zh": "", "homepage": "https://officialskills.sh/clickhouse/skills/clickhouse-best-practices", "tags": ["Skills by ClickHouse"], "category": "Skills by ClickHouse", "ownerName": "", "sources": ["VoltAgent/awesome-agent-skills"], "score": 800, "downloads": 0, "stars": 0, "installs": 0, "version": "", "updated_at": 0}, {"slug": "clickhouse-clickhousectl-cloud-deploy", "name": "clickhouse/clickhousectl-cloud-deploy", "description": "Deploy to ClickHouse Cloud and migrate from local setups with clickhousectl", "description_zh": "", "homepage": "https://officialskills.sh/clickhouse/skills/clickhousectl-cloud-deploy", "tags": ["Skills by ClickHouse"], "category": "Skills by ClickHouse", "ownerName": "", "sources": ["VoltAgent/awesome-agent-skills"], "score": 799, "downloads": 0, "stars": 0, "installs": 0, "version": "", "updated_at": 0}, {"slug": "clickhouse-clickhousectl-local-dev", "name": "clickhouse/clickhousectl-local-dev", "description": "Spin up a local ClickHouse development environment from zero with clickhousectl", "description_zh": "", "homepage": "https://officialskills.sh/clickhouse/skills/clickhousectl-local-dev", "tags": ["Skills by ClickHouse"], "category": "Skills by ClickHouse", "ownerName": "", "sources": ["VoltAgent/awesome-agent-skills"], "score": 798, "downloads": 0, "stars": 0, "installs": 0, "version": "", "updated_at": 0}, {"slug": "clickup-automation", "name": "ClickUp Automation", "description": "Automate ClickUp: tasks, lists, spaces, goals, and time tracking.", "description_zh": "", "homepage": "./clickup-automation", "tags": ["App Automation via Composio"], "category": "App Automation via Composio", "ownerName": "", "sources": ["ComposioHQ/awesome-claude-skills"], "score": 797, "downloads": 0, "stars": 0, "installs": 0, "version": "", "updated_at": 0}, {"slug": "close-automation", "name": "Close Automation", "description": "Automate Close CRM: leads, contacts, opportunities, activities, and pipelines.", "description_zh": "", "homepage": "./close-automation", "tags": ["App Automation via Composio"], "category": "App Automation via Composio", "ownerName": "", "sources": ["ComposioHQ/awesome-claude-skills"], "score": 796, "downloads": 0, "stars": 0, "installs": 0, "version": "", "updated_at": 0}, {"slug": "cloudflare-agents-sdk", "name": "cloudflare/agents-sdk", "description": "Build stateful AI agents with scheduling, RPC, and MCP servers", "description_zh": "", "homepage": "https://officialskills.sh/cloudflare/skills/agents-sdk", "tags": ["Skills by Typefully"], "category": "Skills by Typefully", "ownerName": "", "sources": ["VoltAgent/awesome-agent-skills"], "score": 795, "downloads": 0, "stars": 0, "installs": 0, "version": "", "updated_at": 0}, {"slug": "cloudflare-cloudflare", "name": "cloudflare/cloudflare", "description": "Comprehensive Cloudflare platform skill covering Workers, Pages, storage, AI, networking, security, and IaC", "description_zh": "", "homepage": "https://officialskills.sh/cloudflare/skills/cloudflare", "tags": ["Skills by Typefully"], "category": "Skills by Typefully", "ownerName": "", "sources": ["VoltAgent/awesome-agent-skills"], "score": 794, "downloads": 0, "stars": 0, "installs": 0, "version": "", "updated_at": 0}, {"slug": "cloudflare-cloudflare-email-service", "name": "cloudflare/cloudflare-email-service", "description": "Send transactional email and route inbound mail with Cloudflare Email Sending and Email Routing", "description_zh": "", "homepage": "https://officialskills.sh/cloudflare/skills/cloudflare-email-service", "tags": ["Skills by Typefully"], "category": "Skills by Typefully", "ownerName": "", "sources": ["VoltAgent/awesome-agent-skills"], "score": 793, "downloads": 0, "stars": 0, "installs": 0, "version": "", "updated_at": 0}, {"slug": "cloudflare-durable-objects", "name": "cloudflare/durable-objects", "description": "Stateful coordination with RPC, SQLite, and WebSockets", "description_zh": "", "homepage": "https://officialskills.sh/cloudflare/skills/durable-objects", "tags": ["Skills by Typefully"], "category": "Skills by Typefully", "ownerName": "", "sources": ["VoltAgent/awesome-agent-skills"], "score": 792, "downloads": 0, "stars": 0, "installs": 0, "version": "", "updated_at": 0}, {"slug": "cloudflare-sandbox-sdk", "name": "cloudflare/sandbox-sdk", "description": "Build sandboxed applications for secure, isolated code execution on Workers", "description_zh": "", "homepage": "https://officialskills.sh/cloudflare/skills/sandbox-sdk", "tags": ["Skills by Typefully"], "category": "Skills by Typefully", "ownerName": "", "sources": ["VoltAgent/awesome-agent-skills"], "score": 791, "downloads": 0, "stars": 0, "installs": 0, "version": "", "updated_at": 0}, {"slug": "cloudflare-web-perf", "name": "cloudflare/web-perf", "description": "Audit Core Web Vitals and render-blocking resources", "description_zh": "", "homepage": "https://officialskills.sh/cloudflare/skills/web-perf", "tags": ["Skills by Typefully"], "category": "Skills by Typefully", "ownerName": "", "sources": ["VoltAgent/awesome-agent-skills"], "score": 790, "downloads": 0, "stars": 0, "installs": 0, "version": "", "updated_at": 0}, {"slug": "cloudflare-workers-best-practices", "name": "cloudflare/workers-best-practices", "description": "Review and author Workers code against production best practices and wrangler.jsonc conventions", "description_zh": "", "homepage": "https://officialskills.sh/cloudflare/skills/workers-best-practices", "tags": ["Skills by Typefully"], "category": "Skills by Typefully", "ownerName": "", "sources": ["VoltAgent/awesome-agent-skills"], "score": 789, "downloads": 0, "stars": 0, "installs": 0, "version": "", "updated_at": 0}, {"slug": "cloudflare-wrangler", "name": "cloudflare/wrangler", "description": "Deploy and manage Workers, KV, R2, D1, Vectorize, Queues, Workflows", "description_zh": "", "homepage": "https://officialskills.sh/cloudflare/skills/wrangler", "tags": ["Skills by Typefully"], "category": "Skills by Typefully", "ownerName": "", "sources": ["VoltAgent/awesome-agent-skills"], "score": 788, "downloads": 0, "stars": 0, "installs": 0, "version": "", "updated_at": 0}, {"slug": "coda-automation", "name": "Coda Automation", "description": "Automate Coda: docs, tables, rows, formulas, and automations.", "description_zh": "", "homepage": "./coda-automation", "tags": ["App Automation via Composio"], "category": "App Automation via Composio", "ownerName": "", "sources": ["ComposioHQ/awesome-claude-skills"], "score": 787, "downloads": 0, "stars": 0, "installs": 0, "version": "", "updated_at": 0}, {"slug": "coderabbitai-autofix", "name": "coderabbitai/autofix", "description": "Fetch unresolved CodeRabbit review comments from GitHub PRs and apply fixes", "description_zh": "", "homepage": "https://officialskills.sh/coderabbitai/skills/autofix", "tags": ["TypeScript Skills"], "category": "TypeScript Skills", "ownerName": "", "sources": ["VoltAgent/awesome-agent-skills"], "score": 786, "downloads": 0, "stars": 0, "installs": 0, "version": "", "updated_at": 0}, {"slug": "coderabbitai-code-review", "name": "coderabbitai/code-review", "description": "Run AI-powered code reviews through the CodeRabbit CLI", "description_zh": "", "homepage": "https://officialskills.sh/coderabbitai/skills/code-review", "tags": ["TypeScript Skills"], "category": "TypeScript Skills", "ownerName": "", "sources": ["VoltAgent/awesome-agent-skills"], "score": 785, "downloads": 0, "stars": 0, "installs": 0, "version": "", "updated_at": 0}, {"slug": "coderabbitai-skills", "name": "coderabbitai/skills", "description": "Code review and PR autofix workflows for coding agents", "description_zh": "", "homepage": "https://github.com/coderabbitai/skills", "tags": ["Community Skills"], "category": "Community Skills", "ownerName": "coderabbitai", "sources": ["VoltAgent/awesome-agent-skills"], "score": 784, "downloads": 0, "stars": 0, "installs": 0, "version": "", "updated_at": 0}, {"slug": "codex-cli-skills", "name": "Codex CLI skills", "description": "[Gemini CLI skills](docs/users/gemini-cli-skills.md)", "description_zh": "", "homepage": "docs/users/codex-cli-skills.md", "tags": ["Choose Your Tool"], "category": "Choose Your Tool", "ownerName": "", "sources": ["sickn33/antigravity-awesome-skills"], "score": 783, "downloads": 0, "stars": 0, "installs": 0, "version": "", "updated_at": 0}, {"slug": "coinbase-authenticate-wallet", "name": "coinbase/authenticate-wallet", "description": "Handle sign-in for the Coinbase payments wallet via email OTP", "description_zh": "", "homepage": "https://officialskills.sh/coinbase/skills/authenticate-wallet", "tags": ["TypeScript Skills"], "category": "TypeScript Skills", "ownerName": "", "sources": ["VoltAgent/awesome-agent-skills"], "score": 782, "downloads": 0, "stars": 0, "installs": 0, "version": "", "updated_at": 0}, {"slug": "coinbase-fund", "name": "coinbase/fund", "description": "Add USDC to a Coinbase-powered wallet through Coinbase Onramp", "description_zh": "", "homepage": "https://officialskills.sh/coinbase/skills/fund", "tags": ["TypeScript Skills"], "category": "TypeScript Skills", "ownerName": "", "sources": ["VoltAgent/awesome-agent-skills"], "score": 781, "downloads": 0, "stars": 0, "installs": 0, "version": "", "updated_at": 0}, {"slug": "coinbase-monetize-service", "name": "coinbase/monetize-service", "description": "Scaffold an Express server that charges USDC per request using x402", "description_zh": "", "homepage": "https://officialskills.sh/coinbase/skills/monetize-service", "tags": ["TypeScript Skills"], "category": "TypeScript Skills", "ownerName": "", "sources": ["VoltAgent/awesome-agent-skills"], "score": 780, "downloads": 0, "stars": 0, "installs": 0, "version": "", "updated_at": 0}, {"slug": "coinbase-pay-for-service", "name": "coinbase/pay-for-service", "description": "Call paid API endpoints that use the x402 protocol with automatic USDC", "description_zh": "", "homepage": "https://officialskills.sh/coinbase/skills/pay-for-service", "tags": ["TypeScript Skills"], "category": "TypeScript Skills", "ownerName": "", "sources": ["VoltAgent/awesome-agent-skills"], "score": 779, "downloads": 0, "stars": 0, "installs": 0, "version": "", "updated_at": 0}, {"slug": "coinbase-query-onchain-data", "name": "coinbase/query-onchain-data", "description": "Query decoded onchain data (events, tx, blocks) on Base", "description_zh": "", "homepage": "https://officialskills.sh/coinbase/skills/query-onchain-data", "tags": ["TypeScript Skills"], "category": "TypeScript Skills", "ownerName": "", "sources": ["VoltAgent/awesome-agent-skills"], "score": 778, "downloads": 0, "stars": 0, "installs": 0, "version": "", "updated_at": 0}, {"slug": "coinbase-search-for-service", "name": "coinbase/search-for-service", "description": "Search and browse the x402 bazaar marketplace", "description_zh": "", "homepage": "https://officialskills.sh/coinbase/skills/search-for-service", "tags": ["TypeScript Skills"], "category": "TypeScript Skills", "ownerName": "", "sources": ["VoltAgent/awesome-agent-skills"], "score": 777, "downloads": 0, "stars": 0, "installs": 0, "version": "", "updated_at": 0}, {"slug": "coinbase-send-usdc", "name": "coinbase/send-usdc", "description": "Send USDC to any Ethereum address or ENS name on Base", "description_zh": "", "homepage": "https://officialskills.sh/coinbase/skills/send-usdc", "tags": ["TypeScript Skills"], "category": "TypeScript Skills", "ownerName": "", "sources": ["VoltAgent/awesome-agent-skills"], "score": 776, "downloads": 0, "stars": 0, "installs": 0, "version": "", "updated_at": 0}, {"slug": "coinbase-trade", "name": "coinbase/trade", "description": "Swap and trade tokens on Base using the CDP Swap API", "description_zh": "", "homepage": "https://officialskills.sh/coinbase/skills/trade", "tags": ["TypeScript Skills"], "category": "TypeScript Skills", "ownerName": "", "sources": ["VoltAgent/awesome-agent-skills"], "score": 775, "downloads": 0, "stars": 0, "installs": 0, "version": "", "updated_at": 0}, {"slug": "coinbase-x402", "name": "coinbase/x402", "description": "Discover and call paid API endpoints using the x402 payment protocol", "description_zh": "", "homepage": "https://officialskills.sh/coinbase/skills/x402", "tags": ["TypeScript Skills"], "category": "TypeScript Skills", "ownerName": "", "sources": ["VoltAgent/awesome-agent-skills"], "score": 774, "downloads": 0, "stars": 0, "installs": 0, "version": "", "updated_at": 0}, {"slug": "coinpaprika-api", "name": "coinpaprika-api", "description": "Crypto market data for 12K+ coins, 350+ exchanges, tickers, OHLCV, historical prices. Free, no API key.", "description_zh": "", "homepage": "https://github.com/coinpaprika/skills", "tags": ["📊 Data & Analysis"], "category": "📊 Data & Analysis", "ownerName": "coinpaprika", "sources": ["BehiSecc/awesome-claude-skills"], "score": 773, "downloads": 0, "stars": 0, "installs": 0, "version": "", "updated_at": 0}, {"slug": "community-discussions", "name": "Community Discussions", "description": "", "description_zh": "", "homepage": "https://github.com/anthropics/skills/discussions", "tags": ["Getting Help"], "category": "Getting Help", "ownerName": "anthropics", "sources": ["travisvn/awesome-claude-skills"], "score": 772, "downloads": 0, "stars": 0, "installs": 0, "version": "", "updated_at": 0}, {"slug": "competitive-ads-extractor", "name": "Competitive Ads Extractor", "description": "Extracts and analyzes competitors' ads from ad libraries to understand messaging and creative approaches that resonate.", "description_zh": "", "homepage": "./competitive-ads-extractor", "tags": ["Business & Marketing"], "category": "Business & Marketing", "ownerName": "", "sources": ["ComposioHQ/awesome-claude-skills"], "score": 771, "downloads": 0, "stars": 0, "installs": 0, "version": "", "updated_at": 0}, {"slug": "composiohq-composio", "name": "composiohq/composio", "description": "Connect AI agents to 1000+ external apps with managed authentication", "description_zh": "", "homepage": "https://officialskills.sh/composiohq/skills/composio", "tags": ["Skills by Composio Team"], "category": "Skills by Composio Team", "ownerName": "", "sources": ["VoltAgent/awesome-agent-skills"], "score": 770, "downloads": 0, "stars": 0, "installs": 0, "version": "", "updated_at": 0}, {"slug": "confluence-automation", "name": "Confluence Automation", "description": "Automate Confluence: pages, spaces, search, CQL, labels, and versions.", "description_zh": "", "homepage": "./confluence-automation", "tags": ["App Automation via Composio"], "category": "App Automation via Composio", "ownerName": "", "sources": ["ComposioHQ/awesome-claude-skills"], "score": 769, "downloads": 0, "stars": 0, "installs": 0, "version": "", "updated_at": 0}, {"slug": "connect", "name": "Connect", "description": "Connect Claude to any app. Send emails, create issues, post messages, update databases - take real actions across Gmail, Slack, GitHub, Notion, and 1000+ services.", "description_zh": "", "homepage": "./connect", "tags": ["Development & Code Tools"], "category": "Development & Code Tools", "ownerName": "", "sources": ["ComposioHQ/awesome-claude-skills"], "score": 768, "downloads": 0, "stars": 0, "installs": 0, "version": "", "updated_at": 0}, {"slug": "connerlambden-helium-mcp", "name": "connerlambden/helium-mcp", "description": "Source for the helium-mcp skill — MCP server for news intelligence, media bias analysis, market data, options pricing, and semantic meme search.", "description_zh": "", "homepage": "https://github.com/connerlambden/helium-mcp", "tags": ["Community Contributors"], "category": "Community Contributors", "ownerName": "connerlambden", "sources": ["sickn33/antigravity-awesome-skills"], "score": 767, "downloads": 0, "stars": 0, "installs": 0, "version": "", "updated_at": 0}, {"slug": "content-research-writer", "name": "Content Research Writer", "description": "Assists in writing high-quality content by conducting research, adding citations, improving hooks, and providing section-by-section feedback.", "description_zh": "", "homepage": "./content-research-writer", "tags": ["Communication & Writing"], "category": "Communication & Writing", "ownerName": "", "sources": ["ComposioHQ/awesome-claude-skills"], "score": 766, "downloads": 0, "stars": 0, "installs": 0, "version": "", "updated_at": 0}, {"slug": "content-research-writer", "name": "content-research-writer", "description": "Assists in writing high-quality content by conducting research, adding citations, improving hooks, iterating on outlines, and providing real-time feedback on each section", "description_zh": "", "homepage": "https://github.com/ComposioHQ/awesome-claude-skills", "tags": ["✍️ Writing & Research"], "category": "✍️ Writing & Research", "ownerName": "ComposioHQ", "sources": ["BehiSecc/awesome-claude-skills"], "score": 765, "downloads": 0, "stars": 0, "installs": 0, "version": "", "updated_at": 0}, {"slug": "convertkit-automation", "name": "ConvertKit Automation", "description": "Automate ConvertKit (Kit): subscribers, tags, sequences, broadcasts, and forms.", "description_zh": "", "homepage": "./convertkit-automation", "tags": ["App Automation via Composio"], "category": "App Automation via Composio", "ownerName": "", "sources": ["ComposioHQ/awesome-claude-skills"], "score": 764, "downloads": 0, "stars": 0, "installs": 0, "version": "", "updated_at": 0}, {"slug": "cosmoblk-email-marketing-bible", "name": "CosmoBlk/email-marketing-bible", "description": "55K-word email marketing guide as an AI skill", "description_zh": "", "homepage": "https://github.com/CosmoBlk/email-marketing-bible", "tags": ["Community Skills"], "category": "Community Skills", "ownerName": "CosmoBlk", "sources": ["VoltAgent/awesome-agent-skills"], "score": 763, "downloads": 0, "stars": 0, "installs": 0, "version": "", "updated_at": 0}, {"slug": "crowdcast", "name": "crowdcast", "description": "Multi-agent social simulation as a Claude Code skill. Spawns dozens of AI agents that argue, post, and react on a simulated platform, then writes a prediction report. Zero dependencies.", "description_zh": "", "homepage": "https://github.com/TheQmaks/crowdcast", "tags": ["📊 Data & Analysis"], "category": "📊 Data & Analysis", "ownerName": "TheQmaks", "sources": ["BehiSecc/awesome-claude-skills"], "score": 762, "downloads": 0, "stars": 0, "installs": 0, "version": "", "updated_at": 0}, {"slug": "cup", "name": "cup", "description": "ClickUp CLI for AI agents and humans. 40+ commands for tasks, sprints, time tracking. Ships as a Claude Code plugin.", "description_zh": "", "homepage": "https://github.com/krodak/clickup-cli", "tags": ["🤝 Collaboration & Project Management"], "category": "🤝 Collaboration & Project Management", "ownerName": "krodak", "sources": ["BehiSecc/awesome-claude-skills"], "score": 761, "downloads": 0, "stars": 0, "installs": 0, "version": "", "updated_at": 0}, {"slug": "cursor-skills", "name": "Cursor skills", "description": "best starter skills for .cursor/skills/, UI-heavy work, and pair-programming flows.", "description_zh": "", "homepage": "docs/users/cursor-skills.md", "tags": ["Best Skills By Tool"], "category": "Best Skills By Tool", "ownerName": "", "sources": ["sickn33/antigravity-awesome-skills"], "score": 760, "downloads": 0, "stars": 0, "installs": 0, "version": "", "updated_at": 0}, {"slug": "d3-js-visualization", "name": "D3.js Visualization", "description": "Teaches Claude to produce D3 charts and interactive data visualizations. By [@chrisvoncsefalvay](https://github.com/chrisvoncsefalvay)", "description_zh": "", "homepage": "https://github.com/chrisvoncsefalvay/claude-d3js-skill", "tags": ["Development & Code Tools"], "category": "Development & Code Tools", "ownerName": "chrisvoncsefalvay", "sources": ["ComposioHQ/awesome-claude-skills"], "score": 759, "downloads": 0, "stars": 0, "installs": 0, "version": "", "updated_at": 0}, {"slug": "datadog-automation", "name": "Datadog Automation", "description": "Automate Datadog: monitors, dashboards, metrics, incidents, and alerts.", "description_zh": "", "homepage": "./datadog-automation", "tags": ["App Automation via Composio"], "category": "App Automation via Composio", "ownerName": "", "sources": ["ComposioHQ/awesome-claude-skills"], "score": 758, "downloads": 0, "stars": 0, "installs": 0, "version": "", "updated_at": 0}, {"slug": "datadog-labs-dd-apm", "name": "datadog-labs/dd-apm", "description": "Query Datadog APM data directly from your editor", "description_zh": "", "homepage": "https://officialskills.sh/datadog-labs/skills/dd-apm", "tags": ["TypeScript Skills"], "category": "TypeScript Skills", "ownerName": "", "sources": ["VoltAgent/awesome-agent-skills"], "score": 757, "downloads": 0, "stars": 0, "installs": 0, "version": "", "updated_at": 0}, {"slug": "datadog-labs-dd-docs", "name": "datadog-labs/dd-docs", "description": "Look up Datadog documentation via the LLM-optimized docs index", "description_zh": "", "homepage": "https://officialskills.sh/datadog-labs/skills/dd-docs", "tags": ["TypeScript Skills"], "category": "TypeScript Skills", "ownerName": "", "sources": ["VoltAgent/awesome-agent-skills"], "score": 756, "downloads": 0, "stars": 0, "installs": 0, "version": "", "updated_at": 0}, {"slug": "datadog-labs-dd-llmo-eval-bootstrap", "name": "datadog-labs/dd-llmo-eval-bootstrap", "description": "Analyze production LLM traces and generate evaluators", "description_zh": "", "homepage": "https://officialskills.sh/datadog-labs/skills/dd-llmo-eval-bootstrap", "tags": ["TypeScript Skills"], "category": "TypeScript Skills", "ownerName": "", "sources": ["VoltAgent/awesome-agent-skills"], "score": 755, "downloads": 0, "stars": 0, "installs": 0, "version": "", "updated_at": 0}, {"slug": "datadog-labs-dd-llmo-eval-trace-rca", "name": "datadog-labs/dd-llmo-eval-trace-rca", "description": "Root-cause LLM app failures using eval traces", "description_zh": "", "homepage": "https://officialskills.sh/datadog-labs/skills/dd-llmo-eval-trace-rca", "tags": ["TypeScript Skills"], "category": "TypeScript Skills", "ownerName": "", "sources": ["VoltAgent/awesome-agent-skills"], "score": 754, "downloads": 0, "stars": 0, "installs": 0, "version": "", "updated_at": 0}, {"slug": "datadog-labs-dd-llmo-experiment-analyzer", "name": "datadog-labs/dd-llmo-experiment-analyzer", "description": "Analyze single or comparative LLM experiment results", "description_zh": "", "homepage": "https://officialskills.sh/datadog-labs/skills/dd-llmo-experiment-analyzer", "tags": ["TypeScript Skills"], "category": "TypeScript Skills", "ownerName": "", "sources": ["VoltAgent/awesome-agent-skills"], "score": 753, "downloads": 0, "stars": 0, "installs": 0, "version": "", "updated_at": 0}, {"slug": "datadog-labs-dd-logs", "name": "datadog-labs/dd-logs", "description": "Search, filter, and archive Datadog logs through pup CLI", "description_zh": "", "homepage": "https://officialskills.sh/datadog-labs/skills/dd-logs", "tags": ["TypeScript Skills"], "category": "TypeScript Skills", "ownerName": "", "sources": ["VoltAgent/awesome-agent-skills"], "score": 752, "downloads": 0, "stars": 0, "installs": 0, "version": "", "updated_at": 0}, {"slug": "datadog-labs-dd-monitors", "name": "datadog-labs/dd-monitors", "description": "Manage Datadog monitors through the pup CLI", "description_zh": "", "homepage": "https://officialskills.sh/datadog-labs/skills/dd-monitors", "tags": ["TypeScript Skills"], "category": "TypeScript Skills", "ownerName": "", "sources": ["VoltAgent/awesome-agent-skills"], "score": 751, "downloads": 0, "stars": 0, "installs": 0, "version": "", "updated_at": 0}]}