{"page": 8, "total_pages": 22, "total": 1089, "skills": [{"slug": "datadog-labs-dd-pup", "name": "datadog-labs/dd-pup", "description": "Rust-based CLI (pup) for talking to the Datadog API", "description_zh": "", "homepage": "https://officialskills.sh/datadog-labs/skills/dd-pup", "tags": ["TypeScript Skills"], "category": "TypeScript Skills", "ownerName": "", "sources": ["VoltAgent/awesome-agent-skills"], "score": 750, "downloads": 0, "stars": 0, "installs": 0, "version": "", "updated_at": 0}, {"slug": "deapi-ai-claude-code-skills", "name": "deapi-ai/claude-code-skills", "description": "AI media toolkit: generate images (Flux), text-to-speech, transcribe YouTube/audio, OCR, video generation, upscale, and remove backgrounds via deAPI. Works with Cursor, Windsurf & Continue.dev.", "description_zh": "", "homepage": "https://github.com/deapi-ai/claude-code-skills", "tags": ["🎬 Media & Content"], "category": "🎬 Media & Content", "ownerName": "deapi-ai", "sources": ["BehiSecc/awesome-claude-skills"], "score": 749, "downloads": 0, "stars": 0, "installs": 0, "version": "", "updated_at": 0}, {"slug": "defense-in-depth", "name": "defense-in-depth", "description": "Implement multi-layered testing and security best practices.", "description_zh": "", "homepage": "https://github.com/obra/superpowers/blob/main/skills/defense-in-depth", "tags": ["🛡 Security & Web Testing"], "category": "🛡 Security & Web Testing", "ownerName": "obra", "sources": ["BehiSecc/awesome-claude-skills"], "score": 748, "downloads": 0, "stars": 0, "installs": 0, "version": "", "updated_at": 0}, {"slug": "degausai-wonda", "name": "degausai/wonda", "description": "AI content creation: images, video, music, audio, editing, publishing", "description_zh": "", "homepage": "https://github.com/degausai/wonda", "tags": ["Community Skills"], "category": "Community Skills", "ownerName": "degausai", "sources": ["VoltAgent/awesome-agent-skills"], "score": 747, "downloads": 0, "stars": 0, "installs": 0, "version": "", "updated_at": 0}, {"slug": "design-auditor", "name": "Design Auditor", "description": "Audits designs against 17 professional rules: typography, WCAG, spacing, iconography, navigation, tokens + more. Scores out of 100. Supports English & Korean.", "description_zh": "", "homepage": "https://github.com/Ashutos1997/claude-design-auditor-skill", "tags": ["🛠 Development & Code Tools"], "category": "🛠 Development & Code Tools", "ownerName": "Ashutos1997", "sources": ["BehiSecc/awesome-claude-skills"], "score": 746, "downloads": 0, "stars": 0, "installs": 0, "version": "", "updated_at": 0}, {"slug": "deusyu-translate-book", "name": "deusyu/translate-book", "description": "Translate books (PDF/DOCX/EPUB) via parallel sub-agents with resume", "description_zh": "", "homepage": "https://github.com/deusyu/translate-book", "tags": ["Community Skills"], "category": "Community Skills", "ownerName": "deusyu", "sources": ["VoltAgent/awesome-agent-skills"], "score": 745, "downloads": 0, "stars": 0, "installs": 0, "version": "", "updated_at": 0}, {"slug": "diet103-claude-code-infrastructure-showcase", "name": "diet103/claude-code-infrastructure-showcase", "description": "Infrastructure and Backend/Frontend Guidelines.", "description_zh": "", "homepage": "https://github.com/diet103/claude-code-infrastructure-showcase", "tags": ["Community Contributors"], "category": "Community Contributors", "ownerName": "diet103", "sources": ["sickn33/antigravity-awesome-skills"], "score": 744, "downloads": 0, "stars": 0, "installs": 0, "version": "", "updated_at": 0}, {"slug": "dimillian-skills", "name": "Dimillian/Skills", "description": "Curated Codex skills focused on Apple platforms, GitHub workflows, refactoring, and performance (MIT).", "description_zh": "", "homepage": "https://github.com/Dimillian/Skills", "tags": ["Community Contributors"], "category": "Community Contributors", "ownerName": "Dimillian", "sources": ["sickn33/antigravity-awesome-skills"], "score": 743, "downloads": 0, "stars": 0, "installs": 0, "version": "", "updated_at": 0}, {"slug": "discord-automation", "name": "Discord Automation", "description": "Automate Discord: messages, channels, servers, roles, and reactions.", "description_zh": "", "homepage": "./discord-automation", "tags": ["App Automation via Composio"], "category": "App Automation via Composio", "ownerName": "", "sources": ["ComposioHQ/awesome-claude-skills"], "score": 742, "downloads": 0, "stars": 0, "installs": 0, "version": "", "updated_at": 0}, {"slug": "docusign-automation", "name": "DocuSign Automation", "description": "Automate DocuSign: envelopes, templates, signing, and document management.", "description_zh": "", "homepage": "./docusign-automation", "tags": ["App Automation via Composio"], "category": "App Automation via Composio", "ownerName": "", "sources": ["ComposioHQ/awesome-claude-skills"], "score": 741, "downloads": 0, "stars": 0, "installs": 0, "version": "", "updated_at": 0}, {"slug": "domain-name-brainstormer", "name": "Domain Name Brainstormer", "description": "Generates creative domain name ideas and checks availability across multiple TLDs including .com, .io, .dev, and .ai extensions.", "description_zh": "", "homepage": "./domain-name-brainstormer", "tags": ["Business & Marketing"], "category": "Business & Marketing", "ownerName": "", "sources": ["ComposioHQ/awesome-claude-skills"], "score": 740, "downloads": 0, "stars": 0, "installs": 0, "version": "", "updated_at": 0}, {"slug": "dropbox-automation", "name": "Dropbox Automation", "description": "Automate Dropbox: files, folders, search, sharing, and batch operations.", "description_zh": "", "homepage": "./dropbox-automation", "tags": ["App Automation via Composio"], "category": "App Automation via Composio", "ownerName": "", "sources": ["ComposioHQ/awesome-claude-skills"], "score": 739, "downloads": 0, "stars": 0, "installs": 0, "version": "", "updated_at": 0}, {"slug": "duckdb-attach-db", "name": "duckdb/attach-db", "description": "Attach a DuckDB database file for interactive querying with automatic schema exploration", "description_zh": "", "homepage": "https://officialskills.sh/duckdb/skills/attach-db", "tags": ["TypeScript Skills"], "category": "TypeScript Skills", "ownerName": "", "sources": ["VoltAgent/awesome-agent-skills"], "score": 738, "downloads": 0, "stars": 0, "installs": 0, "version": "", "updated_at": 0}, {"slug": "duckdb-duckdb-docs", "name": "duckdb/duckdb-docs", "description": "Search DuckDB and DuckLake documentation using full-text search over HTTPS", "description_zh": "", "homepage": "https://officialskills.sh/duckdb/skills/duckdb-docs", "tags": ["TypeScript Skills"], "category": "TypeScript Skills", "ownerName": "", "sources": ["VoltAgent/awesome-agent-skills"], "score": 737, "downloads": 0, "stars": 0, "installs": 0, "version": "", "updated_at": 0}, {"slug": "duckdb-install-duckdb", "name": "duckdb/install-duckdb", "description": "Install or update DuckDB CLI and extensions with version management", "description_zh": "", "homepage": "https://officialskills.sh/duckdb/skills/install-duckdb", "tags": ["TypeScript Skills"], "category": "TypeScript Skills", "ownerName": "", "sources": ["VoltAgent/awesome-agent-skills"], "score": 736, "downloads": 0, "stars": 0, "installs": 0, "version": "", "updated_at": 0}, {"slug": "duckdb-query", "name": "duckdb/query", "description": "Run SQL queries against attached databases or ad-hoc against files using Friendly SQL dialect", "description_zh": "", "homepage": "https://officialskills.sh/duckdb/skills/query", "tags": ["TypeScript Skills"], "category": "TypeScript Skills", "ownerName": "", "sources": ["VoltAgent/awesome-agent-skills"], "score": 735, "downloads": 0, "stars": 0, "installs": 0, "version": "", "updated_at": 0}, {"slug": "duckdb-read-file", "name": "duckdb/read-file", "description": "Read any data file (CSV, JSON, Parquet, Avro, Excel, spatial) locally or from remote storage", "description_zh": "", "homepage": "https://officialskills.sh/duckdb/skills/read-file", "tags": ["TypeScript Skills"], "category": "TypeScript Skills", "ownerName": "", "sources": ["VoltAgent/awesome-agent-skills"], "score": 734, "downloads": 0, "stars": 0, "installs": 0, "version": "", "updated_at": 0}, {"slug": "duckdb-read-memories", "name": "duckdb/read-memories", "description": "Search past Claude Code session logs to recover context from previous conversations", "description_zh": "", "homepage": "https://officialskills.sh/duckdb/skills/read-memories", "tags": ["TypeScript Skills"], "category": "TypeScript Skills", "ownerName": "", "sources": ["VoltAgent/awesome-agent-skills"], "score": 733, "downloads": 0, "stars": 0, "installs": 0, "version": "", "updated_at": 0}, {"slug": "efremidze-swift-patterns-skill", "name": "efremidze/swift-patterns-skill", "description": "Modern Swift/SwiftUI best practices", "description_zh": "", "homepage": "https://github.com/efremidze/swift-patterns-skill", "tags": ["Community Skills"], "category": "Community Skills", "ownerName": "efremidze", "sources": ["VoltAgent/awesome-agent-skills"], "score": 732, "downloads": 0, "stars": 0, "installs": 0, "version": "", "updated_at": 0}, {"slug": "ehmo-platform-design-skills", "name": "ehmo/platform-design-skills", "description": "300+ design rules from Apple HIG, Material Design 3, and WCAG 2.2 for cross-platform apps", "description_zh": "", "homepage": "https://github.com/ehmo/platform-design-skills", "tags": ["Community Skills"], "category": "Community Skills", "ownerName": "ehmo", "sources": ["VoltAgent/awesome-agent-skills"], "score": 731, "downloads": 0, "stars": 0, "installs": 0, "version": "", "updated_at": 0}, {"slug": "elicitation", "name": "elicitation", "description": "Psychological profiling through natural conversation using narrative identity and Motivational Interviewing techniques.", "description_zh": "", "homepage": "https://github.com/tasteray/skills", "tags": ["📊 Data & Analysis"], "category": "📊 Data & Analysis", "ownerName": "tasteray", "sources": ["BehiSecc/awesome-claude-skills"], "score": 730, "downloads": 0, "stars": 0, "installs": 0, "version": "", "updated_at": 0}, {"slug": "elkidogz-technical-change-skill", "name": "Elkidogz/technical-change-skill", "description": "Source for the Technical Change Tracker skill - structured JSON change records, session handoff, and accessible HTML dashboards for coding continuity.", "description_zh": "", "homepage": "https://github.com/Elkidogz/technical-change-skill", "tags": ["Community Contributors"], "category": "Community Contributors", "ownerName": "Elkidogz", "sources": ["sickn33/antigravity-awesome-skills"], "score": 729, "downloads": 0, "stars": 0, "installs": 0, "version": "", "updated_at": 0}, {"slug": "email-html-mjml", "name": "email-html-mjml", "description": "Generate responsive HTML email templates using MJML 4.x — cross-client compatible HTML with compilation, validation, width math, and component architecture.", "description_zh": "", "homepage": "https://github.com/framix-team/skill-email-html-mjml", "tags": ["🛠 Development & Code Tools"], "category": "🛠 Development & Code Tools", "ownerName": "framix-team", "sources": ["BehiSecc/awesome-claude-skills"], "score": 728, "downloads": 0, "stars": 0, "installs": 0, "version": "", "updated_at": 0}, {"slug": "emblem-ai-agent-wallet", "name": "Emblem AI Agent Wallet", "description": "Multi-chain crypto wallet management across 7 blockchains (Solana, Ethereum, Base, BSC, Polygon, Hedera, Bitcoin), swaps and transfers.", "description_zh": "", "homepage": "https://github.com/EmblemCompany/Agent-skills", "tags": ["🛠 Development & Code Tools"], "category": "🛠 Development & Code Tools", "ownerName": "EmblemCompany", "sources": ["BehiSecc/awesome-claude-skills"], "score": 727, "downloads": 0, "stars": 0, "installs": 0, "version": "", "updated_at": 0}, {"slug": "equipping-agents-with-skills", "name": "Equipping Agents with Skills", "description": "Engineering deep dive on Agent Skills", "description_zh": "", "homepage": "https://www.anthropic.com/engineering/equipping-agents-for-the-real-world-with-agent-skills", "tags": ["Documentation"], "category": "Documentation", "ownerName": "", "sources": ["travisvn/awesome-claude-skills"], "score": 726, "downloads": 0, "stars": 0, "installs": 0, "version": "", "updated_at": 0}, {"slug": "eronred-aso-skills", "name": "Eronred/aso-skills", "description": "30+ App Store Optimization skills for keyword research, metadata optimization, competitor analysis, creative optimization, and mobile growth strategies via Appeeky API", "description_zh": "", "homepage": "https://github.com/Eronred/aso-skills", "tags": ["Community Skills"], "category": "Community Skills", "ownerName": "Eronred", "sources": ["VoltAgent/awesome-agent-skills"], "score": 725, "downloads": 0, "stars": 0, "installs": 0, "version": "", "updated_at": 0}, {"slug": "ethos-link-rails-conventions", "name": "ethos-link/rails-conventions", "description": "Rails 8 conventions for consistent production code changes", "description_zh": "", "homepage": "https://github.com/ethos-link/rails-conventions", "tags": ["Community Skills"], "category": "Community Skills", "ownerName": "ethos-link", "sources": ["VoltAgent/awesome-agent-skills"], "score": 724, "downloads": 0, "stars": 0, "installs": 0, "version": "", "updated_at": 0}, {"slug": "everyinc-charlie-cfo-skill", "name": "EveryInc/charlie-cfo-skill", "description": "Bootstrapped CFO financial management inspired by Charlie Munger", "description_zh": "", "homepage": "https://github.com/EveryInc/charlie-cfo-skill", "tags": ["Community Skills"], "category": "Community Skills", "ownerName": "EveryInc", "sources": ["VoltAgent/awesome-agent-skills"], "score": 723, "downloads": 0, "stars": 0, "installs": 0, "version": "", "updated_at": 0}, {"slug": "expo-building-native-ui", "name": "expo/building-native-ui", "description": "Build apps with Expo Router, styling, components, navigation, and animations", "description_zh": "", "homepage": "https://officialskills.sh/expo/skills/building-native-ui", "tags": ["Skills by Typefully"], "category": "Skills by Typefully", "ownerName": "", "sources": ["VoltAgent/awesome-agent-skills"], "score": 722, "downloads": 0, "stars": 0, "installs": 0, "version": "", "updated_at": 0}, {"slug": "expo-expo-api-routes", "name": "expo/expo-api-routes", "description": "Create API routes in Expo Router with EAS Hosting", "description_zh": "", "homepage": "https://officialskills.sh/expo/skills/expo-api-routes", "tags": ["Skills by Typefully"], "category": "Skills by Typefully", "ownerName": "", "sources": ["VoltAgent/awesome-agent-skills"], "score": 721, "downloads": 0, "stars": 0, "installs": 0, "version": "", "updated_at": 0}, {"slug": "expo-expo-cicd-workflows", "name": "expo/expo-cicd-workflows", "description": "CI/CD workflows for Expo projects", "description_zh": "", "homepage": "https://officialskills.sh/expo/skills/expo-cicd-workflows", "tags": ["Skills by Typefully"], "category": "Skills by Typefully", "ownerName": "", "sources": ["VoltAgent/awesome-agent-skills"], "score": 720, "downloads": 0, "stars": 0, "installs": 0, "version": "", "updated_at": 0}, {"slug": "expo-expo-deployment", "name": "expo/expo-deployment", "description": "Deploy Expo apps to production", "description_zh": "", "homepage": "https://officialskills.sh/expo/skills/expo-deployment", "tags": ["Skills by Typefully"], "category": "Skills by Typefully", "ownerName": "", "sources": ["VoltAgent/awesome-agent-skills"], "score": 719, "downloads": 0, "stars": 0, "installs": 0, "version": "", "updated_at": 0}, {"slug": "expo-expo-dev-client", "name": "expo/expo-dev-client", "description": "Build and distribute Expo dev clients locally or via TestFlight", "description_zh": "", "homepage": "https://officialskills.sh/expo/skills/expo-dev-client", "tags": ["Skills by Typefully"], "category": "Skills by Typefully", "ownerName": "", "sources": ["VoltAgent/awesome-agent-skills"], "score": 718, "downloads": 0, "stars": 0, "installs": 0, "version": "", "updated_at": 0}, {"slug": "expo-expo-tailwind-setup", "name": "expo/expo-tailwind-setup", "description": "Set up Tailwind CSS v4 in Expo with NativeWind v5", "description_zh": "", "homepage": "https://officialskills.sh/expo/skills/expo-tailwind-setup", "tags": ["Skills by Typefully"], "category": "Skills by Typefully", "ownerName": "", "sources": ["VoltAgent/awesome-agent-skills"], "score": 717, "downloads": 0, "stars": 0, "installs": 0, "version": "", "updated_at": 0}, {"slug": "expo-expo-ui-jetpack-compose", "name": "expo/expo-ui-jetpack-compose", "description": "Jetpack Compose UI components for Expo", "description_zh": "", "homepage": "https://officialskills.sh/expo/skills/expo-ui-jetpack-compose", "tags": ["Skills by Typefully"], "category": "Skills by Typefully", "ownerName": "", "sources": ["VoltAgent/awesome-agent-skills"], "score": 716, "downloads": 0, "stars": 0, "installs": 0, "version": "", "updated_at": 0}, {"slug": "expo-expo-ui-swift-ui", "name": "expo/expo-ui-swift-ui", "description": "SwiftUI components for Expo", "description_zh": "", "homepage": "https://officialskills.sh/expo/skills/expo-ui-swift-ui", "tags": ["Skills by Typefully"], "category": "Skills by Typefully", "ownerName": "", "sources": ["VoltAgent/awesome-agent-skills"], "score": 715, "downloads": 0, "stars": 0, "installs": 0, "version": "", "updated_at": 0}, {"slug": "expo-native-data-fetching", "name": "expo/native-data-fetching", "description": "Network requests, API calls, caching, and offline support", "description_zh": "", "homepage": "https://officialskills.sh/expo/skills/native-data-fetching", "tags": ["Skills by Typefully"], "category": "Skills by Typefully", "ownerName": "", "sources": ["VoltAgent/awesome-agent-skills"], "score": 714, "downloads": 0, "stars": 0, "installs": 0, "version": "", "updated_at": 0}, {"slug": "expo-skills", "name": "expo/skills", "description": "Official Expo skills - Expo project workflows and Expo Application Services guidance.", "description_zh": "", "homepage": "https://github.com/expo/skills", "tags": ["Official Sources"], "category": "Official Sources", "ownerName": "expo", "sources": ["sickn33/antigravity-awesome-skills"], "score": 713, "downloads": 0, "stars": 0, "installs": 0, "version": "", "updated_at": 0}, {"slug": "expo-upgrading-expo", "name": "expo/upgrading-expo", "description": "Upgrade Expo SDK versions", "description_zh": "", "homepage": "https://officialskills.sh/expo/skills/upgrading-expo", "tags": ["Skills by Typefully"], "category": "Skills by Typefully", "ownerName": "", "sources": ["VoltAgent/awesome-agent-skills"], "score": 712, "downloads": 0, "stars": 0, "installs": 0, "version": "", "updated_at": 0}, {"slug": "expo-use-dom", "name": "expo/use-dom", "description": "Run web code in a webview on native using DOM components", "description_zh": "", "homepage": "https://officialskills.sh/expo/skills/use-dom", "tags": ["Skills by Typefully"], "category": "Skills by Typefully", "ownerName": "", "sources": ["VoltAgent/awesome-agent-skills"], "score": 711, "downloads": 0, "stars": 0, "installs": 0, "version": "", "updated_at": 0}, {"slug": "f-awesome-chatgpt-prompts", "name": "f/awesome-chatgpt-prompts", "description": "Inspiration for the Prompt Library.", "description_zh": "", "homepage": "https://github.com/f/awesome-chatgpt-prompts", "tags": ["Inspirations"], "category": "Inspirations", "ownerName": "f", "sources": ["sickn33/antigravity-awesome-skills"], "score": 710, "downloads": 0, "stars": 0, "installs": 0, "version": "", "updated_at": 0}, {"slug": "factory-floor", "name": "Factory-Floor", "description": "Startup coaching skill combining Theory of Constraints, Customer Factory, How Brands Grow, and Marketing Strategy Discipline to help founders find and work their bottleneck.", "description_zh": "", "homepage": "https://github.com/Swiftner/Factory-Floor", "tags": ["🤝 Collaboration & Project Management"], "category": "🤝 Collaboration & Project Management", "ownerName": "Swiftner", "sources": ["BehiSecc/awesome-claude-skills"], "score": 709, "downloads": 0, "stars": 0, "installs": 0, "version": "", "updated_at": 0}, {"slug": "fal-ai-community-fal-3d", "name": "fal-ai-community/fal-3d", "description": "Generate 3D models from text or images", "description_zh": "", "homepage": "https://officialskills.sh/fal-ai-community/skills/fal-3d", "tags": ["TypeScript Skills"], "category": "TypeScript Skills", "ownerName": "", "sources": ["VoltAgent/awesome-agent-skills"], "score": 708, "downloads": 0, "stars": 0, "installs": 0, "version": "", "updated_at": 0}, {"slug": "fal-ai-community-fal-audio", "name": "fal-ai-community/fal-audio", "description": "Text-to-speech and speech-to-text using fal.ai audio models", "description_zh": "", "homepage": "https://officialskills.sh/fal-ai-community/skills/fal-audio", "tags": ["TypeScript Skills"], "category": "TypeScript Skills", "ownerName": "", "sources": ["VoltAgent/awesome-agent-skills"], "score": 707, "downloads": 0, "stars": 0, "installs": 0, "version": "", "updated_at": 0}, {"slug": "fal-ai-community-fal-generate", "name": "fal-ai-community/fal-generate", "description": "Generate images and videos using fal.ai AI models", "description_zh": "", "homepage": "https://officialskills.sh/fal-ai-community/skills/fal-generate", "tags": ["TypeScript Skills"], "category": "TypeScript Skills", "ownerName": "", "sources": ["VoltAgent/awesome-agent-skills"], "score": 706, "downloads": 0, "stars": 0, "installs": 0, "version": "", "updated_at": 0}, {"slug": "fal-ai-community-fal-image-edit", "name": "fal-ai-community/fal-image-edit", "description": "AI-powered image editing with style transfer and object removal", "description_zh": "", "homepage": "https://officialskills.sh/fal-ai-community/skills/fal-image-edit", "tags": ["TypeScript Skills"], "category": "TypeScript Skills", "ownerName": "", "sources": ["VoltAgent/awesome-agent-skills"], "score": 705, "downloads": 0, "stars": 0, "installs": 0, "version": "", "updated_at": 0}, {"slug": "fal-ai-community-fal-kling-o3", "name": "fal-ai-community/fal-kling-o3", "description": "Generate images and videos with Kling O3 — Kling's most powerful model family", "description_zh": "", "homepage": "https://officialskills.sh/fal-ai-community/skills/fal-kling-o3", "tags": ["TypeScript Skills"], "category": "TypeScript Skills", "ownerName": "", "sources": ["VoltAgent/awesome-agent-skills"], "score": 704, "downloads": 0, "stars": 0, "installs": 0, "version": "", "updated_at": 0}, {"slug": "fal-ai-community-fal-lip-sync", "name": "fal-ai-community/fal-lip-sync", "description": "Create talking head videos and lip sync audio to video", "description_zh": "", "homepage": "https://officialskills.sh/fal-ai-community/skills/fal-lip-sync", "tags": ["TypeScript Skills"], "category": "TypeScript Skills", "ownerName": "", "sources": ["VoltAgent/awesome-agent-skills"], "score": 703, "downloads": 0, "stars": 0, "installs": 0, "version": "", "updated_at": 0}, {"slug": "fal-ai-community-fal-platform", "name": "fal-ai-community/fal-platform", "description": "Platform APIs for model management, pricing, and usage tracking", "description_zh": "", "homepage": "https://officialskills.sh/fal-ai-community/skills/fal-platform", "tags": ["TypeScript Skills"], "category": "TypeScript Skills", "ownerName": "", "sources": ["VoltAgent/awesome-agent-skills"], "score": 702, "downloads": 0, "stars": 0, "installs": 0, "version": "", "updated_at": 0}, {"slug": "fal-ai-community-fal-realtime", "name": "fal-ai-community/fal-realtime", "description": "Real-time and streaming AI image generation", "description_zh": "", "homepage": "https://officialskills.sh/fal-ai-community/skills/fal-realtime", "tags": ["TypeScript Skills"], "category": "TypeScript Skills", "ownerName": "", "sources": ["VoltAgent/awesome-agent-skills"], "score": 701, "downloads": 0, "stars": 0, "installs": 0, "version": "", "updated_at": 0}]}