{"page": 86, "total_pages": 522, "total": 26073, "skills": [{"category": "data-analysis", "created_at": 1772763312230, "description": "Parse and validate JSON data from construction APIs, IoT sensors, and BIM exports. Transform nested JSON to flat DataFrames.", "description_zh": "", "downloads": 1275, "homepage": "https://clawhub.ai/datadrivenconstruction/json-parser", "iconUrl": null, "installs": 35, "name": "Json Parser", "ownerName": "datadrivenconstruction", "score": 54487.179487179485, "slug": "json-parser", "source": "clawhub", "stars": 0, "tags": null, "updated_at": 1776759831762, "version": "2.1.0"}, {"category": "ai-intelligence", "created_at": 1772769567042, "description": "Persistent, locally stored semantic memory for agents with automatic learning, searchable facts, and optional paid unlimited retention across all sessions.", "description_zh": "", "downloads": 1274, "homepage": "https://clawhub.ai/atlaspa/openclaw-memory", "iconUrl": null, "installs": 101, "name": "Openclaw Memory", "ownerName": "atlaspa", "score": 100000, "slug": "openclaw-memory", "source": "clawhub", "stars": 0, "tags": null, "updated_at": 1776759982515, "version": "1.0.0"}, {"category": "productivity", "created_at": 1772769919303, "description": "Convert any input—text, sketches, photos, or lists—into optimized, production-ready 3D GLB models for games, AR/VR, e-commerce, and 3D printing.", "description_zh": "", "downloads": 1273, "homepage": "https://clawhub.ai/nitishgargiitd/3d-cog", "iconUrl": null, "installs": 176, "name": "3d-cog", "ownerName": "nitishgargiitd", "score": 41997.47952110901, "slug": "3d-cog", "source": "clawhub", "stars": 3, "tags": null, "updated_at": 1776761415022, "version": "1.0.0"}, {"category": "developer-tools", "created_at": 1772748359845, "description": "The social arena where autonomous agents post, scheme, own each other, and fight for status.", "description_zh": "", "downloads": 1273, "homepage": "https://clawhub.ai/justtrying1001/moltfs", "iconUrl": null, "installs": 18, "name": "moltfs", "ownerName": "justtrying1001", "score": 100000, "slug": "moltfs", "source": "clawhub", "stars": 1, "tags": null, "updated_at": 1776759683510, "version": "0.0.1"}, {"category": "security-compliance", "created_at": 1772763226060, "description": "CLI for AI agents to search and lookup books for their humans. Uses Open Library API. No auth required.", "description_zh": "", "downloads": 1273, "homepage": "https://clawhub.ai/jeffaf/books", "iconUrl": null, "installs": 24, "name": "Books", "ownerName": "jeffaf", "score": 100000, "slug": "books", "source": "clawhub", "stars": 1, "tags": null, "updated_at": 1776759683061, "version": "1.0.0"}, {"category": "productivity", "created_at": 1772748457803, "description": "Book art-lessons services through Lokuli MCP. Use when user needs to find and book art-lessons. Triggers on requests like \"book a art-lessons\", \"find art-lessons near me\", or any art-lessons service request.", "description_zh": "", "downloads": 1273, "homepage": "https://clawhub.ai/edwardrodriguez703-design/book-art-lessons", "iconUrl": null, "installs": 22, "name": "Book Art Lessons", "ownerName": "edwardrodriguez703-design", "score": 99308.75576036866, "slug": "book-art-lessons", "source": "clawhub", "stars": 1, "tags": null, "updated_at": 1776759682638, "version": "1.0.1"}, {"category": "data-analysis", "created_at": 1772771764224, "description": "Complete the data analysis tasks delegated by the user.If the code needs to operate on files, please ensure that the file is listed in the `upload_files` par...", "description_zh": "", "downloads": 1273, "homepage": "https://clawhub.ai/realroc/data-analyst-pro", "iconUrl": null, "installs": 40, "name": "Data Analyst", "ownerName": "realroc", "score": 18806.322942827595, "slug": "data-analyst-pro", "source": "clawhub", "stars": 0, "tags": null, "updated_at": 1776769449935, "version": "0.1.0"}, {"category": "developer-tools", "created_at": 1772763399151, "description": "Post to Instagram (Feed, Story, Reels, Carousel) and Threads using the official Meta Graph API. Requires Imgur for media hosting.", "description_zh": "", "downloads": 1273, "homepage": "https://clawhub.ai/lifeissea/instagram-api", "iconUrl": null, "installs": 33, "name": "Instagram Api", "ownerName": "lifeissea", "score": 54239.45462292288, "slug": "instagram-api", "source": "clawhub", "stars": 0, "tags": null, "updated_at": 1776763450693, "version": "1.1.1"}, {"category": "security-compliance", "created_at": 1772763235303, "description": "Provides real-time file integrity monitoring, pre-installation skill audits, runtime threat blocking, kill switch activation, and incident response to protec...", "description_zh": "", "downloads": 1272, "homepage": "https://clawhub.ai/nightfullstar/openclaw-defender", "iconUrl": null, "installs": 20, "name": "Openclaw Defender", "ownerName": "nightfullstar", "score": 100000, "slug": "openclaw-defender", "source": "clawhub", "stars": 1, "tags": null, "updated_at": 1776759683130, "version": "0.1.0"}, {"category": "productivity", "created_at": 1772748467667, "description": "Book it-support services through Lokuli MCP. Use when user needs to find and book it-support. Triggers on requests like \"book a it-support\", \"find it-support near me\", or any it-support service request.", "description_zh": "", "downloads": 1272, "homepage": "https://clawhub.ai/edwardrodriguez703-design/book-it-support", "iconUrl": null, "installs": 20, "name": "Book IT Support", "ownerName": "edwardrodriguez703-design", "score": 99922.66047950504, "slug": "book-it-support", "source": "clawhub", "stars": 1, "tags": null, "updated_at": 1776759683068, "version": "1.0.1"}, {"category": "content-creation", "created_at": 1772748366144, "description": "Generate summaries for conversation content with incremental update support.", "description_zh": "", "downloads": 1272, "homepage": "https://clawhub.ai/dadaliu0121/conversation-summary-api", "iconUrl": null, "installs": 5, "name": "Conversation Summary", "ownerName": "dadaliu0121", "score": 99079.754601227, "slug": "conversation-summary-api", "source": "clawhub", "stars": 1, "tags": null, "updated_at": 1776759683019, "version": "1.0.0"}, {"category": "developer-tools", "created_at": 1772748653960, "description": "Share and discover agent recipes (shells). What agents actually do.", "description_zh": "", "downloads": 1272, "homepage": "https://clawhub.ai/tankcdr/shared-molt", "iconUrl": null, "installs": 20, "name": "Shared Molt", "ownerName": "tankcdr", "score": 99231.95084485407, "slug": "shared-molt", "source": "clawhub", "stars": 1, "tags": null, "updated_at": 1776759682876, "version": "1.0.0"}, {"category": "", "created_at": 1774820651116, "description": "Automate Xiaohongshu (RedNote) content operations using a Python client for the xiaohongshu-mcp server. Use for: (1) Publishing image, text, and video conten...", "description_zh": "", "downloads": 1272, "homepage": "https://clawhub.ai/babado800/xiaohongshu-mcp-1-0-0", "iconUrl": null, "installs": 337, "name": "Xiaohongshu Mcp 1.0.0", "ownerName": "babado800", "score": 25645.161290322583, "slug": "xiaohongshu-mcp-1-0-0", "source": "clawhub", "stars": 0, "tags": null, "updated_at": 1776767649785, "version": "1.0.0"}, {"category": "data-analysis", "created_at": 1772763455689, "description": "Automate GitHub tasks including advanced issue management, PR analysis, release creation with notes, repo stats, webhook triggers, and email support.", "description_zh": "", "downloads": 1272, "homepage": "https://clawhub.ai/andy825lay-tech/github-automation-pro", "iconUrl": null, "installs": 52, "name": "GitHub Automation Pro", "ownerName": "andy825lay-tech", "score": 8976.711362032464, "slug": "github-automation-pro", "source": "clawhub", "stars": 0, "tags": ["automation", "ci-cd", "github"], "updated_at": 1776765850291, "version": "1.0.0"}, {"category": "security-compliance", "created_at": 1773037572372, "description": "Audit a user's current AI tool stack. Score each tool by ROI, identify redundancies, gaps, and upgrade opportunities. Produces a structured report with score...", "description_zh": "", "downloads": 1272, "homepage": "https://clawhub.ai/rogeryelvington/ai-productivity-audit", "iconUrl": null, "installs": 44, "name": "Ai Productivity Audit", "ownerName": "rogeryelvington", "score": 15341.937040164034, "slug": "ai-productivity-audit", "source": "clawhub", "stars": 0, "tags": null, "updated_at": 1776765849734, "version": "1.1.0"}, {"category": "data-analysis", "created_at": 1772763322282, "description": "Build mobile applications with proper lifecycle handling, offline support, and platform conventions.", "description_zh": "", "downloads": 1271, "homepage": "https://clawhub.ai/ivangdavila/mobile", "iconUrl": null, "installs": 34, "name": "Mobile", "ownerName": "ivangdavila", "score": 35109.469796887366, "slug": "mobile", "source": "clawhub", "stars": 3, "tags": null, "updated_at": 1776760940125, "version": "1.0.0"}, {"category": "developer-tools", "created_at": 1772763226907, "description": "Connect to Minibook to create, join, and collaborate on projects with posts, comments, roles, plans, notifications, and GitHub webhook integration.", "description_zh": "", "downloads": 1271, "homepage": "https://clawhub.ai/dioxia/minibook", "iconUrl": null, "installs": 21, "name": "Minibook", "ownerName": "dioxia", "score": 13651.983755076539, "slug": "minibook", "source": "clawhub", "stars": 2, "tags": null, "updated_at": 1776767414778, "version": "0.1.0"}, {"category": "security-compliance", "created_at": 1772763254364, "description": "System package maintenance for Ubuntu (apt), npm, brew, and OpenClaw skills. Conservative workflow with 2-day quarantine for non-security updates, automatic...", "description_zh": "", "downloads": 1271, "homepage": "https://clawhub.ai/spiceman161/sys-updater", "iconUrl": null, "installs": 21, "name": "sys-updater", "ownerName": "spiceman161", "score": 100000, "slug": "sys-updater", "source": "clawhub", "stars": 0, "tags": null, "updated_at": 1776759982800, "version": "1.1.0"}, {"category": "security-compliance", "created_at": 1772763279237, "description": "Implement reliable backup strategies avoiding data loss, failed restores, and security gaps.", "description_zh": "", "downloads": 1270, "homepage": "https://clawhub.ai/ivangdavila/backups", "iconUrl": null, "installs": 23, "name": "Backup", "ownerName": "ivangdavila", "score": 100000, "slug": "backups", "source": "clawhub", "stars": 2, "tags": null, "updated_at": 1776759498115, "version": "1.0.0"}, {"category": "data-analysis", "created_at": 1772748563863, "description": "Complete MoltMarkets trading agent setup with autonomous trader, market creator, and resolution crons. Use when setting up a new MoltMarkets agent, configuring trading bots, or replicating the bicep agent architecture. Includes Kelly criterion betting, learning loops, and degenerate trader personality.", "description_zh": "", "downloads": 1270, "homepage": "https://clawhub.ai/shirtlessfounder/moltmarkets-agent", "iconUrl": null, "installs": 30, "name": "MoltMarkets Agent", "ownerName": "shirtlessfounder", "score": 89060.30855539971, "slug": "moltmarkets-agent", "source": "clawhub", "stars": 0, "tags": null, "updated_at": 1776759982623, "version": "1.0.1"}, {"category": "communication-collaboration", "created_at": 1772763252421, "description": "Stream coding agent sessions (Claude Code, Codex, Gemini CLI, etc.) to a Discord channel in real-time via webhook. Use when invoking coding agents and wantin...", "description_zh": "", "downloads": 1270, "homepage": "https://clawhub.ai/allanjeng/codecast", "iconUrl": null, "installs": 41, "name": "Codecast", "ownerName": "allanjeng", "score": 89060.30855539971, "slug": "codecast", "source": "clawhub", "stars": 0, "tags": null, "updated_at": 1776759982614, "version": "4.1.0"}, {"category": "ai-intelligence", "created_at": 1772763331059, "description": "Echo - A warm and caring virtual girlfriend AI", "description_zh": "", "downloads": 1270, "homepage": "https://clawhub.ai/luruibu/echo", "iconUrl": null, "installs": 96, "name": "echo", "ownerName": "luruibu", "score": 96504.55927051672, "slug": "echo", "source": "clawhub", "stars": 0, "tags": null, "updated_at": 1776759982212, "version": "1.0.0"}, {"category": "data-analysis", "created_at": 1772765988590, "description": "Analyze videos from TikTok, YouTube, Instagram, Twitter, and others by URL, transcribing audio locally and answering questions about the content.", "description_zh": "", "downloads": 1269, "homepage": "https://clawhub.ai/holl4ndtv/tiktok-video-analyzer", "iconUrl": null, "installs": 115, "name": "Video Analyzer (TikTok + YouTube + Instagram)", "ownerName": "holl4ndtv", "score": 8172.6464091696025, "slug": "tiktok-video-analyzer", "source": "clawhub", "stars": 5, "tags": ["learning", "tiktok", "transcription", "video", "youtube"], "updated_at": 1776770171063, "version": "1.0.0"}, {"category": "content-creation", "created_at": 1772763405363, "description": "Generate professional e-commerce product photography and videos using EachLabs AI models. Product shots, background replacement, lifestyle scenes, and 360-degree views. Use when the user needs product images for e-commerce or marketing.", "description_zh": "", "downloads": 1269, "homepage": "https://clawhub.ai/eftalyurtseven/eachlabs-product-visuals", "iconUrl": null, "installs": 128, "name": "Eachlabs Product Visuals", "ownerName": "eftalyurtseven", "score": 99847.44469870329, "slug": "eachlabs-product-visuals", "source": "clawhub", "stars": 2, "tags": null, "updated_at": 1776759497891, "version": "0.1.0"}, {"category": "security-compliance", "created_at": 1772763237393, "description": "Securely expose an OpenClaw Gateway WebUI on a VPS via Cloudflare Zero Trust Access + Cloudflare Tunnel (cloudflared), including DNS cutover for custom hostnames and optional cleanup of Tailscale Serve.", "description_zh": "", "downloads": 1269, "homepage": "https://clawhub.ai/jskoiz/openclaw-cloudflare-secure", "iconUrl": null, "installs": 20, "name": "OpenClaw Cloudflare Secure", "ownerName": "jskoiz", "score": 45663.90788053257, "slug": "openclaw-cloudflare-secure", "source": "clawhub", "stars": 0, "tags": ["access", "cloudflare", "openclaw", "security", "tunnel"], "updated_at": 1776761989963, "version": "1.0.0"}, {"category": "content-creation", "created_at": 1772763286772, "description": "Swap faces between images using EachLabs AI. Use when the user wants to replace or swap faces in photos.", "description_zh": "", "downloads": 1269, "homepage": "https://clawhub.ai/eftalyurtseven/eachlabs-face-swap", "iconUrl": null, "installs": 77, "name": "Eachlabs Face Swap", "ownerName": "eftalyurtseven", "score": 100000, "slug": "eachlabs-face-swap", "source": "clawhub", "stars": 0, "tags": null, "updated_at": 1776759982180, "version": "0.1.3"}, {"category": "developer-tools", "created_at": 1772763336024, "description": "Guide scientific understanding from childhood wonder to research precision.", "description_zh": "", "downloads": 1268, "homepage": "https://clawhub.ai/ivangdavila/science", "iconUrl": null, "installs": 48, "name": "Science", "ownerName": "ivangdavila", "score": 42619.7458455523, "slug": "science", "source": "clawhub", "stars": 2, "tags": null, "updated_at": 1776769150207, "version": "1.0.0"}, {"category": "developer-tools", "created_at": 1772775983711, "description": "Control a Mac through natural language — open apps, click buttons, read the screen, type text, manage windows, and automate multi-step tasks via Airpoint's A...", "description_zh": "", "downloads": 1268, "homepage": "https://clawhub.ai/marioandf/airpoint", "iconUrl": null, "installs": 62, "name": "Airpoint", "ownerName": "marioandf", "score": 100000, "slug": "airpoint", "source": "clawhub", "stars": 2, "tags": null, "updated_at": 1776759498506, "version": "1.3.16"}, {"category": "developer-tools", "created_at": 1772748495817, "description": "The marketplace for AI agents to form teams and collaborate on projects. Find teammates, join teams, build together.", "description_zh": "", "downloads": 1267, "homepage": "https://clawhub.ai/alvinunreal/moltfounders", "iconUrl": null, "installs": 20, "name": "moltfounders", "ownerName": "alvinunreal", "score": 100000, "slug": "moltfounders", "source": "clawhub", "stars": 1, "tags": null, "updated_at": 1776759720721, "version": "1.0.6"}, {"category": "developer-tools", "created_at": 1772748644204, "description": "Manage PocketSmith transactions, categories, and financial data via the API", "description_zh": "", "downloads": 1267, "homepage": "https://clawhub.ai/lextoumbourou/pocketsmith-skill", "iconUrl": null, "installs": 32, "name": "Manage PocketSmith transactions, categories, budgets and financial data", "ownerName": "lextoumbourou", "score": 100000, "slug": "pocketsmith-skill", "source": "clawhub", "stars": 1, "tags": null, "updated_at": 1776759720706, "version": "v1.0.0"}, {"category": "ai-intelligence", "created_at": 1772763315342, "description": "Create Korean AI podcast packages from QuickView trend notes. Use for dual-host script writing (Callie × Nick), Gemini multi-speaker TTS audio generation, subtitle timing/render fixes, thumbnail+MP4 packaging, and YouTube title/description output. Supports both full (15~20 min) and compressed (5~7 min) editions.", "description_zh": "", "downloads": 1267, "homepage": "https://clawhub.ai/jeong-wooseok/ai-podcast-pipeline", "iconUrl": null, "installs": 99, "name": "Ai Podcast Pipeline", "ownerName": "jeong-wooseok", "score": 100000, "slug": "ai-podcast-pipeline", "source": "clawhub", "stars": 0, "tags": null, "updated_at": 1776759982346, "version": "0.1.5"}, {"category": "content-creation", "created_at": 1772763247544, "description": "Search X (Twitter) in real time, extract relevant posts, and publish tweets/replies instantly—perfect for social listening, engagement, and rapid content ops.", "description_zh": "", "downloads": 1266, "homepage": "https://clawhub.ai/0xjordansg-yolo/openclaw-aisa-twitter-search-post", "iconUrl": null, "installs": 46, "name": "X Twitter Command Center (Search + Post)", "ownerName": "0xjordansg-yolo", "score": 100000, "slug": "openclaw-aisa-twitter-search-post", "source": "clawhub", "stars": 4, "tags": null, "updated_at": 1776759197720, "version": "1.0.0"}, {"category": "productivity", "created_at": 1772748553317, "description": "Book dance-lessons services through Lokuli MCP. Use when user needs to find and book dance-lessons. Triggers on requests like \"book a dance-lessons\", \"find dance-lessons near me\", or any dance-lessons service request.", "description_zh": "", "downloads": 1266, "homepage": "https://clawhub.ai/edwardrodriguez703-design/book-dance-lessons", "iconUrl": null, "installs": 19, "name": "Book Dance Lessons", "ownerName": "edwardrodriguez703-design", "score": 100000, "slug": "book-dance-lessons", "source": "clawhub", "stars": 1, "tags": null, "updated_at": 1776759720755, "version": "1.0.1"}, {"category": "productivity", "created_at": 1772748541270, "description": "Book driving-lessons services through Lokuli MCP. Use when user needs to find and book driving-lessons. Triggers on requests like \"book a driving-lessons\", \"find driving-lessons near me\", or any driving-lessons service request.", "description_zh": "", "downloads": 1266, "homepage": "https://clawhub.ai/edwardrodriguez703-design/book-driving-lessons", "iconUrl": null, "installs": 21, "name": "Book Driving Lessons", "ownerName": "edwardrodriguez703-design", "score": 100000, "slug": "book-driving-lessons", "source": "clawhub", "stars": 1, "tags": null, "updated_at": 1776759720741, "version": "1.0.1"}, {"category": "developer-tools", "created_at": 1772763223041, "description": "Private WebSocket gateway enabling direct, encrypted communication between iOS devices and self-hosted AI bots with no third-party servers involved.", "description_zh": "", "downloads": 1266, "homepage": "https://clawhub.ai/loserbcc/shellphone-gateway", "iconUrl": null, "installs": 30, "name": "Shellphone Gateway", "ownerName": "loserbcc", "score": 100000, "slug": "shellphone-gateway", "source": "clawhub", "stars": 1, "tags": null, "updated_at": 1776759720404, "version": "1.0.0"}, {"category": "productivity", "created_at": 1772763353605, "description": "Get Shit Done - Full project planning and execution workflow. Handles project initialization with deep context gathering, automated research, roadmap creation, phase planning, and execution with verification.", "description_zh": "", "downloads": 1266, "homepage": "https://clawhub.ai/oleg-schmidt/gsd", "iconUrl": null, "installs": 47, "name": "gsd-by-glittercowboy", "ownerName": "oleg-schmidt", "score": 99528.30188679244, "slug": "gsd", "source": "clawhub", "stars": 0, "tags": null, "updated_at": 1776759982817, "version": "1.0.1"}, {"category": "security-compliance", "created_at": 1772763412134, "description": "Run the full 40-item CITE domain authority audit across 4 dimensions with domain-type weighting and veto checks. Use when the user asks to \"audit domain auth...", "description_zh": "", "downloads": 1266, "homepage": "https://clawhub.ai/aaron-he-zhu/domain-authority-auditor", "iconUrl": null, "installs": 14, "name": "Domain Authority Auditor", "ownerName": "aaron-he-zhu", "score": 99763.59338061466, "slug": "domain-authority-auditor", "source": "clawhub", "stars": 0, "tags": null, "updated_at": 1776759982123, "version": "4.0.0"}, {"category": "productivity", "created_at": 1772748376792, "description": "POLT platform CTO - manage projects, create tasks, review submissions, and run the POLT ecosystem", "description_zh": "", "downloads": 1265, "homepage": "https://clawhub.ai/playdadev/polt-cto", "iconUrl": null, "installs": 18, "name": "Polt Cto", "ownerName": "playdadev", "score": 99689.68192397208, "slug": "polt-cto", "source": "clawhub", "stars": 1, "tags": null, "updated_at": 1776759720617, "version": "1.0.0"}, {"category": "communication-collaboration", "created_at": 1772763329741, "description": "Telegram voice-to-voice for macOS Apple Silicon: transcribe inbound .ogg voice notes with yap (Speech.framework) and reply with Telegram voice notes via say+ffmpeg. Not compatible with Linux/Windows.", "description_zh": "", "downloads": 1264, "homepage": "https://clawhub.ai/fiberian1981/telegram-voice-to-voice-macos", "iconUrl": null, "installs": 65, "name": "Telegram Voice To Voice Macos", "ownerName": "fiberian1981", "score": 25139.220365950678, "slug": "telegram-voice-to-voice-macos", "source": "clawhub", "stars": 0, "tags": null, "updated_at": 1776765849994, "version": "0.1.3"}, {"category": "security-compliance", "created_at": 1774611786010, "description": "Security-first skill vetting for AI agents. Use before installing any skill from ClawdHub, GitHub, or other sources. Checks for red flags, permission scope,...", "description_zh": "", "downloads": 1264, "homepage": "https://clawhub.ai/asterisk622/xiaoding-skill-vetter", "iconUrl": null, "installs": 80, "name": "Skill Vetter (XiaoDing)", "ownerName": "asterisk622", "score": 100000, "slug": "xiaoding-skill-vetter", "source": "clawhub", "stars": 0, "tags": null, "updated_at": 1776759982976, "version": "1.0.2"}, {"category": "content-creation", "created_at": 1773903993737, "description": "Standardized paper writing workflow integrating academic-writing, research-paper-writer, scientific-writing and other skills. Provides complete paper writing...", "description_zh": "", "downloads": 1263, "homepage": "https://clawhub.ai/earthwalking/paper-writing-workflow", "iconUrl": null, "installs": 316, "name": "Paper Writing Workflow", "ownerName": "earthwalking", "score": 27283.97607754176, "slug": "paper-writing-workflow", "source": "clawhub", "stars": 3, "tags": null, "updated_at": 1776770050024, "version": "1.0.0"}, {"category": "content-creation", "created_at": 1772763419721, "description": "Build wikis people actually read — structure pages, cross-link, and keep content fresh.", "description_zh": "", "downloads": 1263, "homepage": "https://clawhub.ai/ivangdavila/wiki", "iconUrl": null, "installs": 136, "name": "Wiki", "ownerName": "ivangdavila", "score": 42195.59585492228, "slug": "wiki", "source": "clawhub", "stars": 2, "tags": null, "updated_at": 1776761540037, "version": "1.0.0"}, {"category": "developer-tools", "created_at": 1772748728739, "description": "AI agent incubator on Base L2 — apply with a business idea, get funded, build your MVP, share revenue on-chain, and graduate independent.", "description_zh": "", "downloads": 1263, "homepage": "https://clawhub.ai/blackeuler/spawn-incubator", "iconUrl": null, "installs": 24, "name": "SPAWN Incubator", "ownerName": "blackeuler", "score": 100000, "slug": "spawn-incubator", "source": "clawhub", "stars": 1, "tags": ["base", "incubator", "web3"], "updated_at": 1776759798061, "version": "1.0.1"}, {"category": "developer-tools", "created_at": 1772748437522, "description": "Use this skill when a user wants to run timed focus sessions (Pomodoro technique) from the terminal.", "description_zh": "", "downloads": 1263, "homepage": "https://clawhub.ai/abeljseba/makeovern", "iconUrl": null, "installs": 18, "name": "make a recipe", "ownerName": "abeljseba", "score": 100000, "slug": "makeovern", "source": "clawhub", "stars": 1, "tags": null, "updated_at": 1776759797805, "version": "1.0.0"}, {"category": "content-creation", "created_at": 1772763331921, "description": "Securely access and manage secrets with 1Password CLI using a Service Account token for vault operations like read, write, edit, and delete.", "description_zh": "", "downloads": 1263, "homepage": "https://clawhub.ai/sichengchen/1password-cli", "iconUrl": null, "installs": 98, "name": "1Password Cli For Agents", "ownerName": "sichengchen", "score": 38529.59121415497, "slug": "1password-cli", "source": "clawhub", "stars": 0, "tags": null, "updated_at": 1776765971160, "version": "0.1.0"}, {"category": "data-analysis", "created_at": 1772763238267, "description": "Command-line tool to manage Wiki.js content, pages, assets, templates, and backups via its GraphQL API with search, update, sync, and analysis functions.", "description_zh": "", "downloads": 1263, "homepage": "https://clawhub.ai/hopyky/wikijs", "iconUrl": null, "installs": 32, "name": "Wiki.js CLI", "ownerName": "hopyky", "score": 99920.88607594937, "slug": "wikijs", "source": "clawhub", "stars": 0, "tags": null, "updated_at": 1776759983005, "version": "1.4.0"}, {"category": "security-compliance", "created_at": 1772763243883, "description": "Manage CalDAV calendars (iCloud, Google, Yandex) from the command line. Supports OAuth2 and Basic auth, multi-account, table/JSON output.", "description_zh": "", "downloads": 1262, "homepage": "https://clawhub.ai/cyberash-dev/caldav-cli", "iconUrl": null, "installs": 21, "name": "Caldav Cli", "ownerName": "cyberash-dev", "score": 93919.41391941391, "slug": "caldav-cli", "source": "clawhub", "stars": 1, "tags": null, "updated_at": 1776759798257, "version": "0.1.5"}, {"category": "data-analysis", "created_at": 1773041178546, "description": "Search, discover, and install skills from the open agent skills ecosystem to extend agent capabilities for specific tasks or domains.", "description_zh": "", "downloads": 1262, "homepage": "https://clawhub.ai/isainazar/openclaw-find-skills", "iconUrl": null, "installs": 84, "name": "Find Skills", "ownerName": "isainazar", "score": 40578.77813504823, "slug": "openclaw-find-skills", "source": "clawhub", "stars": 0, "tags": null, "updated_at": 1776765890516, "version": "1.0.0"}, {"category": "productivity", "created_at": 1772763221863, "description": "Book photographer services through Lokuli MCP. Use when user needs to find and book photographer. Triggers on requests like \"book a photographer\", \"find photographer near me\", or any photographer service request.", "description_zh": "", "downloads": 1261, "homepage": "https://clawhub.ai/edwardrodriguez703-design/book-photographer", "iconUrl": null, "installs": 32, "name": "Book Photographer", "ownerName": "edwardrodriguez703-design", "score": 38900.69845126025, "slug": "book-photographer", "source": "clawhub", "stars": 1, "tags": null, "updated_at": 1776761280194, "version": "1.0.1"}, {"category": "security-compliance", "created_at": 1772763252274, "description": "Synchronize TickTick (Dida) and Google Tasks bidirectionally, including list/project mapping, task content sync, completion sync, and smart-list export (Today, Next 7 Days, All). Use when users ask to set up OAuth, run or schedule sync, fix mismatched/deleted/completed tasks, or troubleshoot Google Calendar duplicate behavior caused by due-date handling.", "description_zh": "", "downloads": 1261, "homepage": "https://clawhub.ai/jp1222/task-sync", "iconUrl": null, "installs": 20, "name": "Task Sync", "ownerName": "jp1222", "score": 100000, "slug": "task-sync", "source": "clawhub", "stars": 1, "tags": null, "updated_at": 1776759798299, "version": "2.0.3"}]}