{"page": 9, "total_pages": 22, "total": 1089, "skills": [{"slug": "fal-ai-community-fal-restore", "name": "fal-ai-community/fal-restore", "description": "Restore and fix image quality — deblur, denoise, fix faces, restore documents", "description_zh": "", "homepage": "https://officialskills.sh/fal-ai-community/skills/fal-restore", "tags": ["TypeScript Skills"], "category": "TypeScript Skills", "ownerName": "", "sources": ["VoltAgent/awesome-agent-skills"], "score": 700, "downloads": 0, "stars": 0, "installs": 0, "version": "", "updated_at": 0}, {"slug": "fal-ai-community-fal-train", "name": "fal-ai-community/fal-train", "description": "Train custom AI models (LoRA) on fal.ai for personalized image generation", "description_zh": "", "homepage": "https://officialskills.sh/fal-ai-community/skills/fal-train", "tags": ["TypeScript Skills"], "category": "TypeScript Skills", "ownerName": "", "sources": ["VoltAgent/awesome-agent-skills"], "score": 699, "downloads": 0, "stars": 0, "installs": 0, "version": "", "updated_at": 0}, {"slug": "fal-ai-community-fal-tryon", "name": "fal-ai-community/fal-tryon", "description": "Virtual try-on — see how clothes look on a person", "description_zh": "", "homepage": "https://officialskills.sh/fal-ai-community/skills/fal-tryon", "tags": ["TypeScript Skills"], "category": "TypeScript Skills", "ownerName": "", "sources": ["VoltAgent/awesome-agent-skills"], "score": 698, "downloads": 0, "stars": 0, "installs": 0, "version": "", "updated_at": 0}, {"slug": "fal-ai-community-fal-upscale", "name": "fal-ai-community/fal-upscale", "description": "Upscale and enhance image and video resolution using AI", "description_zh": "", "homepage": "https://officialskills.sh/fal-ai-community/skills/fal-upscale", "tags": ["TypeScript Skills"], "category": "TypeScript Skills", "ownerName": "", "sources": ["VoltAgent/awesome-agent-skills"], "score": 697, "downloads": 0, "stars": 0, "installs": 0, "version": "", "updated_at": 0}, {"slug": "fal-ai-community-fal-video-edit", "name": "fal-ai-community/fal-video-edit", "description": "Edit existing videos using AI — remix style, upscale, remove background, add audio", "description_zh": "", "homepage": "https://officialskills.sh/fal-ai-community/skills/fal-video-edit", "tags": ["TypeScript Skills"], "category": "TypeScript Skills", "ownerName": "", "sources": ["VoltAgent/awesome-agent-skills"], "score": 696, "downloads": 0, "stars": 0, "installs": 0, "version": "", "updated_at": 0}, {"slug": "fal-ai-community-fal-vision", "name": "fal-ai-community/fal-vision", "description": "Analyze images — segment objects, detect, OCR, describe, visual Q&A", "description_zh": "", "homepage": "https://officialskills.sh/fal-ai-community/skills/fal-vision", "tags": ["TypeScript Skills"], "category": "TypeScript Skills", "ownerName": "", "sources": ["VoltAgent/awesome-agent-skills"], "score": 695, "downloads": 0, "stars": 0, "installs": 0, "version": "", "updated_at": 0}, {"slug": "fal-ai-community-fal-workflow", "name": "fal-ai-community/fal-workflow", "description": "Generate workflow JSON files for chaining AI models", "description_zh": "", "homepage": "https://officialskills.sh/fal-ai-community/skills/fal-workflow", "tags": ["TypeScript Skills"], "category": "TypeScript Skills", "ownerName": "", "sources": ["VoltAgent/awesome-agent-skills"], "score": 694, "downloads": 0, "stars": 0, "installs": 0, "version": "", "updated_at": 0}, {"slug": "figma-automation", "name": "Figma Automation", "description": "Automate Figma: files, components, comments, projects, and team management.", "description_zh": "", "homepage": "./figma-automation", "tags": ["App Automation via Composio"], "category": "App Automation via Composio", "ownerName": "", "sources": ["ComposioHQ/awesome-claude-skills"], "score": 693, "downloads": 0, "stars": 0, "installs": 0, "version": "", "updated_at": 0}, {"slug": "figma-figma-code-connect-components", "name": "figma/figma-code-connect-components", "description": "Connect Figma design components to code components using Code Connect", "description_zh": "", "homepage": "https://officialskills.sh/figma/skills/figma-code-connect-components", "tags": ["TypeScript Skills"], "category": "TypeScript Skills", "ownerName": "", "sources": ["VoltAgent/awesome-agent-skills"], "score": 692, "downloads": 0, "stars": 0, "installs": 0, "version": "", "updated_at": 0}, {"slug": "figma-figma-create-design-system-rules", "name": "figma/figma-create-design-system-rules", "description": "Generate project-specific design system rules for Figma-to-code workflows", "description_zh": "", "homepage": "https://officialskills.sh/figma/skills/figma-create-design-system-rules", "tags": ["TypeScript Skills"], "category": "TypeScript Skills", "ownerName": "", "sources": ["VoltAgent/awesome-agent-skills"], "score": 691, "downloads": 0, "stars": 0, "installs": 0, "version": "", "updated_at": 0}, {"slug": "figma-figma-create-new-file", "name": "figma/figma-create-new-file", "description": "Create a new blank Figma Design or FigJam file", "description_zh": "", "homepage": "https://officialskills.sh/figma/skills/figma-create-new-file", "tags": ["TypeScript Skills"], "category": "TypeScript Skills", "ownerName": "", "sources": ["VoltAgent/awesome-agent-skills"], "score": 690, "downloads": 0, "stars": 0, "installs": 0, "version": "", "updated_at": 0}, {"slug": "figma-figma-generate-design", "name": "figma/figma-generate-design", "description": "Build or update screens in Figma from code or description using design system components", "description_zh": "", "homepage": "https://officialskills.sh/figma/skills/figma-generate-design", "tags": ["TypeScript Skills"], "category": "TypeScript Skills", "ownerName": "", "sources": ["VoltAgent/awesome-agent-skills"], "score": 689, "downloads": 0, "stars": 0, "installs": 0, "version": "", "updated_at": 0}, {"slug": "figma-figma-generate-library", "name": "figma/figma-generate-library", "description": "Build or update a design system library in Figma from a codebase", "description_zh": "", "homepage": "https://officialskills.sh/figma/skills/figma-generate-library", "tags": ["TypeScript Skills"], "category": "TypeScript Skills", "ownerName": "", "sources": ["VoltAgent/awesome-agent-skills"], "score": 688, "downloads": 0, "stars": 0, "installs": 0, "version": "", "updated_at": 0}, {"slug": "figma-figma-implement-design", "name": "figma/figma-implement-design", "description": "Translate Figma designs into production-ready application code with 1:1 fidelity", "description_zh": "", "homepage": "https://officialskills.sh/figma/skills/figma-implement-design", "tags": ["TypeScript Skills"], "category": "TypeScript Skills", "ownerName": "", "sources": ["VoltAgent/awesome-agent-skills"], "score": 687, "downloads": 0, "stars": 0, "installs": 0, "version": "", "updated_at": 0}, {"slug": "figma-figma-use", "name": "figma/figma-use", "description": "Run Figma Plugin API scripts for canvas writes, inspections, variables, and design-system work", "description_zh": "", "homepage": "https://officialskills.sh/figma/skills/figma-use", "tags": ["TypeScript Skills"], "category": "TypeScript Skills", "ownerName": "", "sources": ["VoltAgent/awesome-agent-skills"], "score": 686, "downloads": 0, "stars": 0, "installs": 0, "version": "", "updated_at": 0}, {"slug": "file-organizer", "name": "File Organizer", "description": "Intelligently organizes files and folders by understanding context, finding duplicates, and suggesting better organizational structures.", "description_zh": "", "homepage": "./file-organizer", "tags": ["Productivity & Organization"], "category": "Productivity & Organization", "ownerName": "", "sources": ["ComposioHQ/awesome-claude-skills"], "score": 685, "downloads": 0, "stars": 0, "installs": 0, "version": "", "updated_at": 0}, {"slug": "find-scene", "name": "find-scene", "description": "Search and download movie/TV show scenes by dialog, time, or visual description using the FindScene API.", "description_zh": "", "homepage": "https://github.com/uriva/find-scene-skill", "tags": ["🎬 Media & Content"], "category": "🎬 Media & Content", "ownerName": "uriva", "sources": ["BehiSecc/awesome-claude-skills"], "score": 684, "downloads": 0, "stars": 0, "installs": 0, "version": "", "updated_at": 0}, {"slug": "find-skills", "name": "find-skills", "description": "Helps users discover, search and install agent skills from the marketplace.", "description_zh": "", "homepage": "https://github.com/agentbay-ai/agentbay-skills", "tags": ["🗂️ Collections"], "category": "🗂️ Collections", "ownerName": "agentbay-ai", "sources": ["BehiSecc/awesome-claude-skills"], "score": 683, "downloads": 0, "stars": 0, "installs": 0, "version": "", "updated_at": 0}, {"slug": "firebase-developing-genkit-dart", "name": "firebase/developing-genkit-dart", "description": "Build AI apps with the Genkit Dart SDK", "description_zh": "", "homepage": "https://officialskills.sh/firebase/skills/developing-genkit-dart", "tags": ["TypeScript Skills"], "category": "TypeScript Skills", "ownerName": "", "sources": ["VoltAgent/awesome-agent-skills"], "score": 682, "downloads": 0, "stars": 0, "installs": 0, "version": "", "updated_at": 0}, {"slug": "firebase-developing-genkit-go", "name": "firebase/developing-genkit-go", "description": "Build AI apps with the Genkit Go SDK", "description_zh": "", "homepage": "https://officialskills.sh/firebase/skills/developing-genkit-go", "tags": ["TypeScript Skills"], "category": "TypeScript Skills", "ownerName": "", "sources": ["VoltAgent/awesome-agent-skills"], "score": 681, "downloads": 0, "stars": 0, "installs": 0, "version": "", "updated_at": 0}, {"slug": "firebase-developing-genkit-js", "name": "firebase/developing-genkit-js", "description": "Build AI-powered apps with Firebase Genkit in Node.js", "description_zh": "", "homepage": "https://officialskills.sh/firebase/skills/developing-genkit-js", "tags": ["TypeScript Skills"], "category": "TypeScript Skills", "ownerName": "", "sources": ["VoltAgent/awesome-agent-skills"], "score": 680, "downloads": 0, "stars": 0, "installs": 0, "version": "", "updated_at": 0}, {"slug": "firebase-firebase-ai-logic-basics", "name": "firebase/firebase-ai-logic-basics", "description": "Call Gemini models from web and mobile apps via Firebase AI Logic", "description_zh": "", "homepage": "https://officialskills.sh/firebase/skills/firebase-ai-logic-basics", "tags": ["TypeScript Skills"], "category": "TypeScript Skills", "ownerName": "", "sources": ["VoltAgent/awesome-agent-skills"], "score": 679, "downloads": 0, "stars": 0, "installs": 0, "version": "", "updated_at": 0}, {"slug": "firebase-firebase-app-hosting-basics", "name": "firebase/firebase-app-hosting-basics", "description": "Deploy and manage full-stack web apps (Next.js, Angular, etc.)", "description_zh": "", "homepage": "https://officialskills.sh/firebase/skills/firebase-app-hosting-basics", "tags": ["TypeScript Skills"], "category": "TypeScript Skills", "ownerName": "", "sources": ["VoltAgent/awesome-agent-skills"], "score": 678, "downloads": 0, "stars": 0, "installs": 0, "version": "", "updated_at": 0}, {"slug": "firebase-firebase-auth-basics", "name": "firebase/firebase-auth-basics", "description": "Set up Firebase Authentication with sign-in providers", "description_zh": "", "homepage": "https://officialskills.sh/firebase/skills/firebase-auth-basics", "tags": ["TypeScript Skills"], "category": "TypeScript Skills", "ownerName": "", "sources": ["VoltAgent/awesome-agent-skills"], "score": 677, "downloads": 0, "stars": 0, "installs": 0, "version": "", "updated_at": 0}, {"slug": "firebase-firebase-basics", "name": "firebase/firebase-basics", "description": "Handle Firebase CLI install, auth, and day-to-day workflow", "description_zh": "", "homepage": "https://officialskills.sh/firebase/skills/firebase-basics", "tags": ["TypeScript Skills"], "category": "TypeScript Skills", "ownerName": "", "sources": ["VoltAgent/awesome-agent-skills"], "score": 676, "downloads": 0, "stars": 0, "installs": 0, "version": "", "updated_at": 0}, {"slug": "firebase-firebase-data-connect-basics", "name": "firebase/firebase-data-connect-basics", "description": "Build Firebase Data Connect backends backed by Cloud SQL", "description_zh": "", "homepage": "https://officialskills.sh/firebase/skills/firebase-data-connect-basics", "tags": ["TypeScript Skills"], "category": "TypeScript Skills", "ownerName": "", "sources": ["VoltAgent/awesome-agent-skills"], "score": 675, "downloads": 0, "stars": 0, "installs": 0, "version": "", "updated_at": 0}, {"slug": "firebase-firebase-firestore-enterprise-native-mode", "name": "firebase/firebase-firestore-enterprise-native-mode", "description": "Set up and use Firestore Enterprise Native Mode", "description_zh": "", "homepage": "https://officialskills.sh/firebase/skills/firebase-firestore-enterprise-native-mode", "tags": ["TypeScript Skills"], "category": "TypeScript Skills", "ownerName": "", "sources": ["VoltAgent/awesome-agent-skills"], "score": 674, "downloads": 0, "stars": 0, "installs": 0, "version": "", "updated_at": 0}, {"slug": "firebase-firebase-firestore-standard", "name": "firebase/firebase-firestore-standard", "description": "Complete guide for Cloud Firestore Standard Edition", "description_zh": "", "homepage": "https://officialskills.sh/firebase/skills/firebase-firestore-standard", "tags": ["TypeScript Skills"], "category": "TypeScript Skills", "ownerName": "", "sources": ["VoltAgent/awesome-agent-skills"], "score": 673, "downloads": 0, "stars": 0, "installs": 0, "version": "", "updated_at": 0}, {"slug": "firebase-firebase-hosting-basics", "name": "firebase/firebase-hosting-basics", "description": "Deploy static sites, SPAs, and microservices to Firebase Hosting", "description_zh": "", "homepage": "https://officialskills.sh/firebase/skills/firebase-hosting-basics", "tags": ["TypeScript Skills"], "category": "TypeScript Skills", "ownerName": "", "sources": ["VoltAgent/awesome-agent-skills"], "score": 672, "downloads": 0, "stars": 0, "installs": 0, "version": "", "updated_at": 0}, {"slug": "firebase-firebase-security-rules-auditor", "name": "firebase/firebase-security-rules-auditor", "description": "Audit Firestore security rules and flag risky patterns", "description_zh": "", "homepage": "https://officialskills.sh/firebase/skills/firebase-security-rules-auditor", "tags": ["TypeScript Skills"], "category": "TypeScript Skills", "ownerName": "", "sources": ["VoltAgent/awesome-agent-skills"], "score": 671, "downloads": 0, "stars": 0, "installs": 0, "version": "", "updated_at": 0}, {"slug": "firecrawl-firecrawl-build", "name": "firecrawl/firecrawl-build", "description": "Integrate Firecrawl into application code for web search, scraping, extraction, and browser interaction", "description_zh": "", "homepage": "https://officialskills.sh/firecrawl/skills/firecrawl-build", "tags": ["Skills by Firecrawl Team"], "category": "Skills by Firecrawl Team", "ownerName": "", "sources": ["VoltAgent/awesome-agent-skills"], "score": 670, "downloads": 0, "stars": 0, "installs": 0, "version": "", "updated_at": 0}, {"slug": "firecrawl-firecrawl-build-interact", "name": "firecrawl/firecrawl-build-interact", "description": "Multi-step Firecrawl browser flows: clicks, form fills, pagination, and auth-aware navigation", "description_zh": "", "homepage": "https://officialskills.sh/firecrawl/skills/firecrawl-build-interact", "tags": ["Skills by Firecrawl Team"], "category": "Skills by Firecrawl Team", "ownerName": "", "sources": ["VoltAgent/awesome-agent-skills"], "score": 669, "downloads": 0, "stars": 0, "installs": 0, "version": "", "updated_at": 0}, {"slug": "firecrawl-firecrawl-build-onboarding", "name": "firecrawl/firecrawl-build-onboarding", "description": "Set up Firecrawl credentials and SDK in a project for the first integration", "description_zh": "", "homepage": "https://officialskills.sh/firecrawl/skills/firecrawl-build-onboarding", "tags": ["Skills by Firecrawl Team"], "category": "Skills by Firecrawl Team", "ownerName": "", "sources": ["VoltAgent/awesome-agent-skills"], "score": 668, "downloads": 0, "stars": 0, "installs": 0, "version": "", "updated_at": 0}, {"slug": "firecrawl-firecrawl-build-scrape", "name": "firecrawl/firecrawl-build-scrape", "description": "Integrate Firecrawl /scrape for single-page extraction from product code", "description_zh": "", "homepage": "https://officialskills.sh/firecrawl/skills/firecrawl-build-scrape", "tags": ["Skills by Firecrawl Team"], "category": "Skills by Firecrawl Team", "ownerName": "", "sources": ["VoltAgent/awesome-agent-skills"], "score": 667, "downloads": 0, "stars": 0, "installs": 0, "version": "", "updated_at": 0}, {"slug": "firecrawl-firecrawl-build-search", "name": "firecrawl/firecrawl-build-search", "description": "Integrate Firecrawl /search for query-first discovery with optional content hydration", "description_zh": "", "homepage": "https://officialskills.sh/firecrawl/skills/firecrawl-build-search", "tags": ["Skills by Firecrawl Team"], "category": "Skills by Firecrawl Team", "ownerName": "", "sources": ["VoltAgent/awesome-agent-skills"], "score": 666, "downloads": 0, "stars": 0, "installs": 0, "version": "", "updated_at": 0}, {"slug": "flutter-flutter-adding-home-screen-widgets", "name": "flutter/flutter-adding-home-screen-widgets", "description": "Add home screen widgets to Flutter apps on Android and iOS", "description_zh": "", "homepage": "https://officialskills.sh/flutter/skills/flutter-adding-home-screen-widgets", "tags": ["TypeScript Skills"], "category": "TypeScript Skills", "ownerName": "", "sources": ["VoltAgent/awesome-agent-skills"], "score": 665, "downloads": 0, "stars": 0, "installs": 0, "version": "", "updated_at": 0}, {"slug": "flutter-flutter-animating-apps", "name": "flutter/flutter-animating-apps", "description": "Implement animated effects, transitions, and motion", "description_zh": "", "homepage": "https://officialskills.sh/flutter/skills/flutter-animating-apps", "tags": ["TypeScript Skills"], "category": "TypeScript Skills", "ownerName": "", "sources": ["VoltAgent/awesome-agent-skills"], "score": 664, "downloads": 0, "stars": 0, "installs": 0, "version": "", "updated_at": 0}, {"slug": "flutter-flutter-architecting-apps", "name": "flutter/flutter-architecting-apps", "description": "Structure a Flutter app using layered architecture", "description_zh": "", "homepage": "https://officialskills.sh/flutter/skills/flutter-architecting-apps", "tags": ["TypeScript Skills"], "category": "TypeScript Skills", "ownerName": "", "sources": ["VoltAgent/awesome-agent-skills"], "score": 663, "downloads": 0, "stars": 0, "installs": 0, "version": "", "updated_at": 0}, {"slug": "flutter-flutter-building-forms", "name": "flutter/flutter-building-forms", "description": "Build Flutter forms with validation and user input", "description_zh": "", "homepage": "https://officialskills.sh/flutter/skills/flutter-building-forms", "tags": ["TypeScript Skills"], "category": "TypeScript Skills", "ownerName": "", "sources": ["VoltAgent/awesome-agent-skills"], "score": 662, "downloads": 0, "stars": 0, "installs": 0, "version": "", "updated_at": 0}, {"slug": "flutter-flutter-building-layouts", "name": "flutter/flutter-building-layouts", "description": "Build and fix layouts using the constraint system (Row, Column, Stack)", "description_zh": "", "homepage": "https://officialskills.sh/flutter/skills/flutter-building-layouts", "tags": ["TypeScript Skills"], "category": "TypeScript Skills", "ownerName": "", "sources": ["VoltAgent/awesome-agent-skills"], "score": 661, "downloads": 0, "stars": 0, "installs": 0, "version": "", "updated_at": 0}, {"slug": "flutter-flutter-building-plugins", "name": "flutter/flutter-building-plugins", "description": "Create Flutter plugins that bridge Dart with platform code", "description_zh": "", "homepage": "https://officialskills.sh/flutter/skills/flutter-building-plugins", "tags": ["TypeScript Skills"], "category": "TypeScript Skills", "ownerName": "", "sources": ["VoltAgent/awesome-agent-skills"], "score": 660, "downloads": 0, "stars": 0, "installs": 0, "version": "", "updated_at": 0}, {"slug": "flutter-flutter-caching-data", "name": "flutter/flutter-caching-data", "description": "Implement offline-first caching strategies", "description_zh": "", "homepage": "https://officialskills.sh/flutter/skills/flutter-caching-data", "tags": ["TypeScript Skills"], "category": "TypeScript Skills", "ownerName": "", "sources": ["VoltAgent/awesome-agent-skills"], "score": 659, "downloads": 0, "stars": 0, "installs": 0, "version": "", "updated_at": 0}, {"slug": "flutter-flutter-embedding-native-views", "name": "flutter/flutter-embedding-native-views", "description": "Embed native Android, iOS, and macOS views in Flutter widgets", "description_zh": "", "homepage": "https://officialskills.sh/flutter/skills/flutter-embedding-native-views", "tags": ["TypeScript Skills"], "category": "TypeScript Skills", "ownerName": "", "sources": ["VoltAgent/awesome-agent-skills"], "score": 658, "downloads": 0, "stars": 0, "installs": 0, "version": "", "updated_at": 0}, {"slug": "flutter-flutter-handling-concurrency", "name": "flutter/flutter-handling-concurrency", "description": "Run heavy work in background Dart isolates", "description_zh": "", "homepage": "https://officialskills.sh/flutter/skills/flutter-handling-concurrency", "tags": ["TypeScript Skills"], "category": "TypeScript Skills", "ownerName": "", "sources": ["VoltAgent/awesome-agent-skills"], "score": 657, "downloads": 0, "stars": 0, "installs": 0, "version": "", "updated_at": 0}, {"slug": "flutter-flutter-handling-http-and-json", "name": "flutter/flutter-handling-http-and-json", "description": "Handle HTTP requests and JSON serialization", "description_zh": "", "homepage": "https://officialskills.sh/flutter/skills/flutter-handling-http-and-json", "tags": ["TypeScript Skills"], "category": "TypeScript Skills", "ownerName": "", "sources": ["VoltAgent/awesome-agent-skills"], "score": 656, "downloads": 0, "stars": 0, "installs": 0, "version": "", "updated_at": 0}, {"slug": "flutter-flutter-implementing-navigation-and-routing", "name": "flutter/flutter-implementing-navigation-and-routing", "description": "Handle routing, navigation, and deep linking", "description_zh": "", "homepage": "https://officialskills.sh/flutter/skills/flutter-implementing-navigation-and-routing", "tags": ["TypeScript Skills"], "category": "TypeScript Skills", "ownerName": "", "sources": ["VoltAgent/awesome-agent-skills"], "score": 655, "downloads": 0, "stars": 0, "installs": 0, "version": "", "updated_at": 0}, {"slug": "flutter-flutter-improving-accessibility", "name": "flutter/flutter-improving-accessibility", "description": "Configure Flutter for screen readers and assistive tech", "description_zh": "", "homepage": "https://officialskills.sh/flutter/skills/flutter-improving-accessibility", "tags": ["TypeScript Skills"], "category": "TypeScript Skills", "ownerName": "", "sources": ["VoltAgent/awesome-agent-skills"], "score": 654, "downloads": 0, "stars": 0, "installs": 0, "version": "", "updated_at": 0}, {"slug": "flutter-flutter-interoperating-with-native-apis", "name": "flutter/flutter-interoperating-with-native-apis", "description": "Bridge Flutter with native platform APIs", "description_zh": "", "homepage": "https://officialskills.sh/flutter/skills/flutter-interoperating-with-native-apis", "tags": ["TypeScript Skills"], "category": "TypeScript Skills", "ownerName": "", "sources": ["VoltAgent/awesome-agent-skills"], "score": 653, "downloads": 0, "stars": 0, "installs": 0, "version": "", "updated_at": 0}, {"slug": "flutter-flutter-localizing-apps", "name": "flutter/flutter-localizing-apps", "description": "Configure Flutter for multiple languages and regions", "description_zh": "", "homepage": "https://officialskills.sh/flutter/skills/flutter-localizing-apps", "tags": ["TypeScript Skills"], "category": "TypeScript Skills", "ownerName": "", "sources": ["VoltAgent/awesome-agent-skills"], "score": 652, "downloads": 0, "stars": 0, "installs": 0, "version": "", "updated_at": 0}, {"slug": "flutter-flutter-managing-state", "name": "flutter/flutter-managing-state", "description": "Manage local widget state and shared application state", "description_zh": "", "homepage": "https://officialskills.sh/flutter/skills/flutter-managing-state", "tags": ["TypeScript Skills"], "category": "TypeScript Skills", "ownerName": "", "sources": ["VoltAgent/awesome-agent-skills"], "score": 651, "downloads": 0, "stars": 0, "installs": 0, "version": "", "updated_at": 0}]}